---
fsub.d_b12:
  config:
  - check ISA:=regex(.*I.*Zfinx.*Zdinx.*)
  mnemonics:
    fsub.d: 52
    coverage: 1/1
  op_comb:
    rs1 != rs2  and rs1 != rd and rs2 != rd: 48
    rs1 == rd != rs2: 1
    rs1 == rs2 != rd: 1
    rs1 == rs2 == rd: 1
    rs2 == rd != rs1: 1
    coverage: 5/5
  rd:
    x10: 1
    x12: 1
    x14: 1
    x16: 1
    x18: 1
    x2: 1
    x20: 1
    x22: 1
    x24: 1
    x26: 1
    x28: 1
    x30: 38
    x4: 1
    x6: 1
    x8: 1
    coverage: 15/15
  rs1:
    x10: 1
    x12: 1
    x14: 1
    x16: 1
    x18: 1
    x2: 1
    x20: 1
    x22: 1
    x24: 1
    x26: 1
    x28: 37
    x30: 2
    x4: 1
    x6: 1
    x8: 1
    coverage: 15/15
  rs2:
    x10: 1
    x12: 1
    x14: 1
    x16: 1
    x18: 1
    x2: 1
    x20: 1
    x22: 1
    x24: 1
    x26: 36
    x28: 3
    x30: 1
    x4: 1
    x6: 1
    x8: 1
    coverage: 15/15
  val_comb:
    ? 'fs1 == 0 and fe1 == 0x7fc and fm1 == 0x132d8f91b7583 and fs2 == 1 and fe2 ==
      0x7fe and fm2 == 0x6d1771ceea796 and  fcsr == 0x0 and rm_val == 7   #nosat'
    : 1
    ? 'fs1 == 0 and fe1 == 0x7fe and fm1 == 0x870d778409f12 and fs2 == 0 and fe2 ==
      0x7fe and fm2 == 0x04750f3c7df65 and  fcsr == 0x0 and rm_val == 7   #nosat'
    : 1
    ? 'fs1 == 0 and fe1 == 0x7fd and fm1 == 0xfb5355e167379 and fs2 == 0 and fe2 ==
      0x7fa and fm2 == 0x785f9927a57c0 and  fcsr == 0x0 and rm_val == 7   #nosat'
    : 1
    ? 'fs1 == 0 and fe1 == 0x7fe and fm1 == 0x4d9d98184b9d9 and fs2 == 1 and fe2 ==
      0x7fc and fm2 == 0x18d7cfd491228 and  fcsr == 0x0 and rm_val == 7   #nosat'
    : 1
    ? 'fs1 == 0 and fe1 == 0x7fb and fm1 == 0x8072e8f9c858f and fs2 == 0 and fe2 ==
      0x7fb and fm2 == 0x0c566d30677f7 and  fcsr == 0x0 and rm_val == 7   #nosat'
    : 1
    ? 'fs1 == 0 and fe1 == 0x7fe and fm1 == 0xabe96758f2a09 and fs2 == 0 and fe2 ==
      0x7fd and fm2 == 0x9cab846424ba1 and  fcsr == 0x0 and rm_val == 7   #nosat'
    : 1
    ? 'fs1 == 0 and fe1 == 0x7fe and fm1 == 0x86499331191c4 and fs2 == 0 and fe2 ==
      0x7fe and fm2 == 0x853587c49095b and  fcsr == 0x0 and rm_val == 7   #nosat'
    : 1
    ? 'fs1 == 0 and fe1 == 0x7fd and fm1 == 0xc81394a2171e9 and fs2 == 1 and fe2 ==
      0x7fd and fm2 == 0x1ac7cf448b205 and  fcsr == 0x0 and rm_val == 7   #nosat'
    : 1
    ? 'fs1 == 0 and fe1 == 0x7fc and fm1 == 0xd481499755d4b and fs2 == 1 and fe2 ==
      0x7fe and fm2 == 0x6eda32e0b56e8 and  fcsr == 0x0 and rm_val == 7   #nosat'
    : 1
    ? 'fs1 == 0 and fe1 == 0x7fe and fm1 == 0xcd87e65450c45 and fs2 == 0 and fe2 ==
      0x7fe and fm2 == 0xbdde68d2e30aa and  fcsr == 0x0 and rm_val == 7   #nosat'
    : 1
    ? 'fs1 == 0 and fe1 == 0x7f9 and fm1 == 0xa0e7ad32453df and fs2 == 1 and fe2 ==
      0x7fe and fm2 == 0x082cc69704a64 and  fcsr == 0x0 and rm_val == 7   #nosat'
    : 1
    ? 'fs1 == 0 and fe1 == 0x7fe and fm1 == 0xe0d828b86622a and fs2 == 0 and fe2 ==
      0x7fe and fm2 == 0x1daaf50c76c8b and  fcsr == 0x0 and rm_val == 7   #nosat'
    : 1
    ? 'fs1 == 0 and fe1 == 0x7fc and fm1 == 0xbb9876f8130c3 and fs2 == 1 and fe2 ==
      0x7fc and fm2 == 0xa4e630c1be6d7 and  fcsr == 0x0 and rm_val == 7   #nosat'
    : 1
    ? 'fs1 == 0 and fe1 == 0x7f9 and fm1 == 0xdbcde43895c3f and fs2 == 1 and fe2 ==
      0x7fc and fm2 == 0x8a8c8b3c6f2ff and  fcsr == 0x0 and rm_val == 7   #nosat'
    : 1
    ? 'fs1 == 0 and fe1 == 0x7fd and fm1 == 0xc0659af8369fd and fs2 == 1 and fe2 ==
      0x7fa and fm2 == 0xda84ca746bd30 and  fcsr == 0x0 and rm_val == 7   #nosat'
    : 1
    ? 'fs1 == 0 and fe1 == 0x7fc and fm1 == 0xdd5b61587fd27 and fs2 == 0 and fe2 ==
      0x7f6 and fm2 == 0x22b4aace78200 and  fcsr == 0x0 and rm_val == 7   #nosat'
    : 1
    ? 'fs1 == 0 and fe1 == 0x7fc and fm1 == 0xc01045c2cd787 and fs2 == 1 and fe2 ==
      0x7fc and fm2 == 0xed344f30f8d23 and  fcsr == 0x0 and rm_val == 7   #nosat'
    : 1
    ? 'fs1 == 0 and fe1 == 0x7fd and fm1 == 0x28bc82f697c4d and fs2 == 0 and fe2 ==
      0x7fd and fm2 == 0x12bb1d4152629 and  fcsr == 0x0 and rm_val == 7   #nosat'
    : 1
    ? 'fs1 == 0 and fe1 == 0x7fe and fm1 == 0xacd7053aa42a2 and fs2 == 0 and fe2 ==
      0x7fd and fm2 == 0x1fdee0ff3e0e2 and  fcsr == 0x0 and rm_val == 7   #nosat'
    : 1
    ? 'fs1 == 0 and fe1 == 0x7fe and fm1 == 0x48dace8666677 and fs2 == 0 and fe2 ==
      0x7fd and fm2 == 0xd35766bc3e2c3 and  fcsr == 0x0 and rm_val == 7   #nosat'
    : 1
    ? 'fs1 == 0 and fe1 == 0x7fe and fm1 == 0xfc2ea66e5019e and fs2 == 0 and fe2 ==
      0x7fc and fm2 == 0x0f8ef46d602a4 and  fcsr == 0x0 and rm_val == 7   #nosat'
    : 1
    ? 'fs1 == 0 and fe1 == 0x7fb and fm1 == 0xef2a4f7c7db7f and fs2 == 1 and fe2 ==
      0x7fc and fm2 == 0xb1c6f0270591a and  fcsr == 0x0 and rm_val == 7   #nosat'
    : 1
    ? 'fs1 == 0 and fe1 == 0x7fe and fm1 == 0x7166677e49c3c and fs2 == 0 and fe2 ==
      0x7f8 and fm2 == 0x5144e78f2a6c0 and  fcsr == 0x0 and rm_val == 7   #nosat'
    : 1
    ? 'fs1 == 0 and fe1 == 0x7fe and fm1 == 0xdf7523fde6c5d and fs2 == 0 and fe2 ==
      0x7fe and fm2 == 0x0756bb5d68556 and  fcsr == 0x0 and rm_val == 7   #nosat'
    : 1
    ? 'fs1 == 0 and fe1 == 0x7fe and fm1 == 0xa8fa703a4078c and fs2 == 0 and fe2 ==
      0x7fc and fm2 == 0x472096b867e58 and  fcsr == 0x0 and rm_val == 7   #nosat'
    : 1
    ? 'fs1 == 0 and fe1 == 0x7fd and fm1 == 0x36a63c245f557 and fs2 == 1 and fe2 ==
      0x7fd and fm2 == 0x23087ed83ab89 and  fcsr == 0x0 and rm_val == 7   #nosat'
    : 1
    ? 'fs1 == 0 and fe1 == 0x7fe and fm1 == 0xc3d4499ff58c3 and fs2 == 0 and fe2 ==
      0x7fa and fm2 == 0x2937fe3bd9f20 and  fcsr == 0x0 and rm_val == 7   #nosat'
    : 1
    ? 'fs1 == 0 and fe1 == 0x7fe and fm1 == 0x02b48f992cb49 and fs2 == 1 and fe2 ==
      0x7fb and fm2 == 0x56e924eb7c838 and  fcsr == 0x0 and rm_val == 7   #nosat'
    : 1
    ? 'fs1 == 0 and fe1 == 0x7fa and fm1 == 0x1ad5e9ebc09df and fs2 == 1 and fe2 ==
      0x7fc and fm2 == 0xaa6c2d4374fa3 and  fcsr == 0x0 and rm_val == 7   #nosat'
    : 1
    ? 'fs1 == 0 and fe1 == 0x7fe and fm1 == 0x98455e99dfdb1 and fs2 == 0 and fe2 ==
      0x7fd and fm2 == 0x8848cf5ea9657 and  fcsr == 0x0 and rm_val == 7   #nosat'
    : 1
    ? 'fs1 == 0 and fe1 == 0x7fc and fm1 == 0x6251b45dfbd3b and fs2 == 1 and fe2 ==
      0x7fd and fm2 == 0x80cf7341ff72e and  fcsr == 0x0 and rm_val == 7   #nosat'
    : 1
    ? 'fs1 == 0 and fe1 == 0x7fe and fm1 == 0x67f4f571a752e and fs2 == 0 and fe2 ==
      0x7f9 and fm2 == 0xd3d8104d0cdc0 and  fcsr == 0x0 and rm_val == 7   #nosat'
    : 1
    ? 'fs1 == 0 and fe1 == 0x7fd and fm1 == 0x7fb2260b115e9 and fs2 == 1 and fe2 ==
      0x7fb and fm2 == 0x0734092792958 and  fcsr == 0x0 and rm_val == 7   #nosat'
    : 1
    ? 'fs1 == 0 and fe1 == 0x7fe and fm1 == 0x04507a06e8587 and fs2 == 1 and fe2 ==
      0x7fd and fm2 == 0x147f1b87235fc and  fcsr == 0x0 and rm_val == 7   #nosat'
    : 1
    ? 'fs1 == 0 and fe1 == 0x7fe and fm1 == 0x0ab870b5c1c40 and fs2 == 0 and fe2 ==
      0x7fc and fm2 == 0x057ed5782c7d6 and  fcsr == 0x0 and rm_val == 7   #nosat'
    : 1
    ? 'fs1 == 0 and fe1 == 0x7fd and fm1 == 0xf57237ddcb451 and fs2 == 0 and fe2 ==
      0x7fd and fm2 == 0xd72951a1b8967 and  fcsr == 0x0 and rm_val == 7   #nosat'
    : 1
    ? 'fs1 == 0 and fe1 == 0x7fa and fm1 == 0x643f753bef22f and fs2 == 1 and fe2 ==
      0x7fe and fm2 == 0x51ddbb228ba06 and  fcsr == 0x0 and rm_val == 7   #nosat'
    : 1
    ? 'fs1 == 0 and fe1 == 0x7fe and fm1 == 0xf7646167590ef and fs2 == 0 and fe2 ==
      0x7fd and fm2 == 0x8f5d3484b0730 and  fcsr == 0x0 and rm_val == 7   #nosat'
    : 1
    ? 'fs1 == 0 and fe1 == 0x7fd and fm1 == 0x930bcbd2d6035 and fs2 == 0 and fe2 ==
      0x7fc and fm2 == 0xc9378d7a8307f and  fcsr == 0x0 and rm_val == 7   #nosat'
    : 1
    ? 'fs1 == 0 and fe1 == 0x7fe and fm1 == 0x0125698e86242 and fs2 == 1 and fe2 ==
      0x7fd and fm2 == 0xeb5aac6486d0c and  fcsr == 0x0 and rm_val == 7   #nosat'
    : 1
    ? 'fs1 == 0 and fe1 == 0x7fe and fm1 == 0x8a82024cc4e03 and fs2 == 0 and fe2 ==
      0x7fc and fm2 == 0xd8e5154788b84 and  fcsr == 0x0 and rm_val == 7   #nosat'
    : 1
    ? 'fs1 == 0 and fe1 == 0x7fe and fm1 == 0xb877e6e317fa2 and fs2 == 0 and fe2 ==
      0x7fe and fm2 == 0x41981cc935638 and  fcsr == 0x0 and rm_val == 7   #nosat'
    : 1
    ? 'fs1 == 0 and fe1 == 0x7fe and fm1 == 0x070d1456013e3 and fs2 == 1 and fe2 ==
      0x7fd and fm2 == 0xc13973c0771d8 and  fcsr == 0x0 and rm_val == 7   #nosat'
    : 1
    ? 'fs1 == 0 and fe1 == 0x7fe and fm1 == 0x27d4b8969c0b2 and fs2 == 0 and fe2 ==
      0x7fb and fm2 == 0xe60b40e314f0c and  fcsr == 0x0 and rm_val == 7   #nosat'
    : 1
    ? 'fs1 == 0 and fe1 == 0x7fd and fm1 == 0x13bdffd461269 and fs2 == 1 and fe2 ==
      0x7fd and fm2 == 0x1d67f1f990c0b and  fcsr == 0x0 and rm_val == 7   #nosat'
    : 1
    ? 'fs1 == 0 and fe1 == 0x7fe and fm1 == 0xea0b252eae7e0 and fs2 == 0 and fe2 ==
      0x7fe and fm2 == 0xe71ed696201f1 and  fcsr == 0x0 and rm_val == 7   #nosat'
    : 1
    ? 'fs1 == 0 and fe1 == 0x7fe and fm1 == 0x913b4236d8411 and fs2 == 1 and fe2 ==
      0x7fa and fm2 == 0x2db788640aba0 and  fcsr == 0x0 and rm_val == 7   #nosat'
    : 1
    ? 'fs1 == 0 and fe1 == 0x7fe and fm1 == 0xc5b9547c0fb71 and fs2 == 0 and fe2 ==
      0x7fc and fm2 == 0x2a58446d0baa8 and  fcsr == 0x0 and rm_val == 7   #nosat'
    : 1
    ? 'fs1 == 0 and fe1 == 0x7fe and fm1 == 0x9e4795c8459f5 and fs2 == 0 and fe2 ==
      0x7fd and fm2 == 0x296ec52d097ea and  fcsr == 0x0 and rm_val == 7   #nosat'
    : 1
    ? 'fs1 == 0 and fe1 == 0x7fe and fm1 == 0x1f6a4c4d26ab9 and fs2 == 0 and fe2 ==
      0x7fc and fm2 == 0x1506f64179e12 and  fcsr == 0x0 and rm_val == 7   #nosat'
    : 1
    coverage: 50/50
  total_coverage: 101/101
