---
fadd_b7:
  config:
  - check ISA:=regex(.*I.*Zfinx.*)
  mnemonics:
    fadd.s: 165
    coverage: 1/1
  op_comb:
    rs1 != rs2  and rs1 != rd and rs2 != rd: 161
    rs1 == rd != rs2: 1
    rs1 == rs2 != rd: 1
    rs1 == rs2 == rd: 1
    rs2 == rd != rs1: 1
    coverage: 5/5
  rd:
    x0: 1
    x1: 1
    x10: 1
    x11: 1
    x12: 1
    x13: 1
    x14: 1
    x15: 1
    x16: 1
    x17: 1
    x18: 1
    x19: 1
    x2: 1
    x20: 1
    x21: 1
    x22: 1
    x23: 1
    x24: 1
    x25: 1
    x26: 1
    x27: 1
    x28: 1
    x29: 1
    x3: 1
    x30: 1
    x31: 134
    x4: 1
    x5: 1
    x6: 1
    x7: 1
    x8: 1
    x9: 1
    coverage: 32/32
  rs1:
    x0: 1
    x1: 1
    x10: 1
    x11: 1
    x12: 1
    x13: 1
    x14: 1
    x15: 1
    x16: 1
    x17: 1
    x18: 1
    x19: 1
    x2: 1
    x20: 1
    x21: 1
    x22: 1
    x23: 1
    x24: 1
    x25: 1
    x26: 1
    x27: 1
    x28: 1
    x29: 1
    x3: 1
    x30: 133
    x31: 2
    x4: 1
    x5: 1
    x6: 1
    x7: 1
    x8: 1
    x9: 1
    coverage: 32/32
  rs2:
    x0: 1
    x1: 1
    x10: 1
    x11: 1
    x12: 1
    x13: 1
    x14: 1
    x15: 1
    x16: 1
    x17: 1
    x18: 1
    x19: 1
    x2: 1
    x20: 1
    x21: 1
    x22: 1
    x23: 1
    x24: 1
    x25: 1
    x26: 1
    x27: 1
    x28: 1
    x29: 132
    x3: 1
    x30: 3
    x31: 1
    x4: 1
    x5: 1
    x6: 1
    x7: 1
    x8: 1
    x9: 1
    coverage: 32/32
  val_comb:
    ? 'fs1 == 0 and fe1 == 0xfe and fm1 == 0x222105 and fs2 == 1 and fe2 == 0xfe and
      fm2 == 0x222105 and  fcsr == 0x60 and rm_val == 7  and rs1_sgn_prefix == 0x00000000
      and rs2_sgn_prefix == 0xffffffff  #nosat'
    : 1
    ? 'fs1 == 0 and fe1 == 0xfd and fm1 == 0x217fdd and fs2 == 1 and fe2 == 0xfd and
      fm2 == 0x217fdd and  fcsr == 0x60 and rm_val == 7  and rs1_sgn_prefix == 0x00000000
      and rs2_sgn_prefix == 0xffffffff  #nosat'
    : 1
    ? 'fs1 == 0 and fe1 == 0xfd and fm1 == 0x445459 and fs2 == 1 and fe2 == 0xfd and
      fm2 == 0x445459 and  fcsr == 0x60 and rm_val == 7  and rs1_sgn_prefix == 0x00000000
      and rs2_sgn_prefix == 0xffffffff  #nosat'
    : 1
    ? 'fs1 == 0 and fe1 == 0xfe and fm1 == 0x167d44 and fs2 == 1 and fe2 == 0xfe and
      fm2 == 0x167d44 and  fcsr == 0x60 and rm_val == 7  and rs1_sgn_prefix == 0x00000000
      and rs2_sgn_prefix == 0xffffffff  #nosat'
    : 1
    ? 'fs1 == 0 and fe1 == 0xfd and fm1 == 0x370362 and fs2 == 1 and fe2 == 0xfd and
      fm2 == 0x370362 and  fcsr == 0x60 and rm_val == 7  and rs1_sgn_prefix == 0x00000000
      and rs2_sgn_prefix == 0xffffffff  #nosat'
    : 1
    ? 'fs1 == 0 and fe1 == 0xfe and fm1 == 0x2e5b90 and fs2 == 1 and fe2 == 0xfe and
      fm2 == 0x2e5b90 and  fcsr == 0x60 and rm_val == 7  and rs1_sgn_prefix == 0x00000000
      and rs2_sgn_prefix == 0xffffffff  #nosat'
    : 1
    ? 'fs1 == 0 and fe1 == 0xfc and fm1 == 0x587392 and fs2 == 1 and fe2 == 0xfc and
      fm2 == 0x587392 and  fcsr == 0x60 and rm_val == 7  and rs1_sgn_prefix == 0x00000000
      and rs2_sgn_prefix == 0xffffffff  #nosat'
    : 1
    ? 'fs1 == 0 and fe1 == 0xfd and fm1 == 0x6d7424 and fs2 == 1 and fe2 == 0xfd and
      fm2 == 0x6d7424 and  fcsr == 0x60 and rm_val == 7  and rs1_sgn_prefix == 0x00000000
      and rs2_sgn_prefix == 0xffffffff  #nosat'
    : 1
    ? 'fs1 == 0 and fe1 == 0xfe and fm1 == 0x2eabd8 and fs2 == 1 and fe2 == 0xfe and
      fm2 == 0x2eabd8 and  fcsr == 0x60 and rm_val == 7  and rs1_sgn_prefix == 0x00000000
      and rs2_sgn_prefix == 0xffffffff  #nosat'
    : 1
    ? 'fs1 == 0 and fe1 == 0xfe and fm1 == 0x1b8fcb and fs2 == 1 and fe2 == 0xfe and
      fm2 == 0x1b8fcb and  fcsr == 0x60 and rm_val == 7  and rs1_sgn_prefix == 0x00000000
      and rs2_sgn_prefix == 0xffffffff  #nosat'
    : 1
    ? 'fs1 == 0 and fe1 == 0xfc and fm1 == 0x6e317d and fs2 == 1 and fe2 == 0xfc and
      fm2 == 0x6e317d and  fcsr == 0x60 and rm_val == 7  and rs1_sgn_prefix == 0x00000000
      and rs2_sgn_prefix == 0xffffffff  #nosat'
    : 1
    ? 'fs1 == 0 and fe1 == 0xfe and fm1 == 0x2c93b2 and fs2 == 1 and fe2 == 0xfe and
      fm2 == 0x2c93b2 and  fcsr == 0x60 and rm_val == 7  and rs1_sgn_prefix == 0x00000000
      and rs2_sgn_prefix == 0xffffffff  #nosat'
    : 1
    ? 'fs1 == 0 and fe1 == 0xfd and fm1 == 0x354d84 and fs2 == 1 and fe2 == 0xfd and
      fm2 == 0x354d84 and  fcsr == 0x60 and rm_val == 7  and rs1_sgn_prefix == 0x00000000
      and rs2_sgn_prefix == 0xffffffff  #nosat'
    : 1
    ? 'fs1 == 0 and fe1 == 0xfd and fm1 == 0x26b8d3 and fs2 == 1 and fe2 == 0xfd and
      fm2 == 0x26b8d3 and  fcsr == 0x60 and rm_val == 7  and rs1_sgn_prefix == 0x00000000
      and rs2_sgn_prefix == 0xffffffff  #nosat'
    : 1
    ? 'fs1 == 0 and fe1 == 0xfe and fm1 == 0x2f4c51 and fs2 == 1 and fe2 == 0xfe and
      fm2 == 0x2f4c51 and  fcsr == 0x60 and rm_val == 7  and rs1_sgn_prefix == 0x00000000
      and rs2_sgn_prefix == 0xffffffff  #nosat'
    : 1
    ? 'fs1 == 0 and fe1 == 0xfd and fm1 == 0x372bf7 and fs2 == 1 and fe2 == 0xfd and
      fm2 == 0x372bf7 and  fcsr == 0x60 and rm_val == 7  and rs1_sgn_prefix == 0x00000000
      and rs2_sgn_prefix == 0xffffffff  #nosat'
    : 1
    ? 'fs1 == 0 and fe1 == 0xfc and fm1 == 0x480ede and fs2 == 1 and fe2 == 0xfc and
      fm2 == 0x480ede and  fcsr == 0x60 and rm_val == 7  and rs1_sgn_prefix == 0x00000000
      and rs2_sgn_prefix == 0xffffffff  #nosat'
    : 1
    ? 'fs1 == 0 and fe1 == 0xfd and fm1 == 0x52b355 and fs2 == 1 and fe2 == 0xfd and
      fm2 == 0x52b355 and  fcsr == 0x60 and rm_val == 7  and rs1_sgn_prefix == 0x00000000
      and rs2_sgn_prefix == 0xffffffff  #nosat'
    : 1
    ? 'fs1 == 0 and fe1 == 0xfe and fm1 == 0x0a2eec and fs2 == 1 and fe2 == 0xfe and
      fm2 == 0x0a2eec and  fcsr == 0x60 and rm_val == 7  and rs1_sgn_prefix == 0x00000000
      and rs2_sgn_prefix == 0xffffffff  #nosat'
    : 1
    ? 'fs1 == 0 and fe1 == 0xfe and fm1 == 0x1e5ec7 and fs2 == 1 and fe2 == 0xfe and
      fm2 == 0x1e5ec7 and  fcsr == 0x60 and rm_val == 7  and rs1_sgn_prefix == 0x00000000
      and rs2_sgn_prefix == 0xffffffff  #nosat'
    : 1
    ? 'fs1 == 0 and fe1 == 0xf4 and fm1 == 0x60affa and fs2 == 1 and fe2 == 0xf4 and
      fm2 == 0x60affa and  fcsr == 0x60 and rm_val == 7  and rs1_sgn_prefix == 0x00000000
      and rs2_sgn_prefix == 0xffffffff  #nosat'
    : 1
    ? 'fs1 == 0 and fe1 == 0xfe and fm1 == 0x269468 and fs2 == 1 and fe2 == 0xfe and
      fm2 == 0x269468 and  fcsr == 0x60 and rm_val == 7  and rs1_sgn_prefix == 0x00000000
      and rs2_sgn_prefix == 0xffffffff  #nosat'
    : 1
    ? 'fs1 == 0 and fe1 == 0xfc and fm1 == 0x79c1c6 and fs2 == 1 and fe2 == 0xfc and
      fm2 == 0x79c1c6 and  fcsr == 0x60 and rm_val == 7  and rs1_sgn_prefix == 0x00000000
      and rs2_sgn_prefix == 0xffffffff  #nosat'
    : 1
    ? 'fs1 == 0 and fe1 == 0xfc and fm1 == 0x12bd51 and fs2 == 1 and fe2 == 0xfc and
      fm2 == 0x12bd51 and  fcsr == 0x60 and rm_val == 7  and rs1_sgn_prefix == 0x00000000
      and rs2_sgn_prefix == 0xffffffff  #nosat'
    : 1
    ? 'fs1 == 0 and fe1 == 0xfc and fm1 == 0x3741cc and fs2 == 1 and fe2 == 0xfc and
      fm2 == 0x3741cc and  fcsr == 0x60 and rm_val == 7  and rs1_sgn_prefix == 0x00000000
      and rs2_sgn_prefix == 0xffffffff  #nosat'
    : 1
    ? 'fs1 == 0 and fe1 == 0xfe and fm1 == 0x1a35e0 and fs2 == 1 and fe2 == 0xfe and
      fm2 == 0x1a35e0 and  fcsr == 0x60 and rm_val == 7  and rs1_sgn_prefix == 0x00000000
      and rs2_sgn_prefix == 0xffffffff  #nosat'
    : 1
    ? 'fs1 == 0 and fe1 == 0xfa and fm1 == 0x772129 and fs2 == 1 and fe2 == 0xfa and
      fm2 == 0x772129 and  fcsr == 0x60 and rm_val == 7  and rs1_sgn_prefix == 0x00000000
      and rs2_sgn_prefix == 0xffffffff  #nosat'
    : 1
    ? 'fs1 == 0 and fe1 == 0xfd and fm1 == 0x430c98 and fs2 == 1 and fe2 == 0xfd and
      fm2 == 0x430c98 and  fcsr == 0x60 and rm_val == 7  and rs1_sgn_prefix == 0x00000000
      and rs2_sgn_prefix == 0xffffffff  #nosat'
    : 1
    ? 'fs1 == 0 and fe1 == 0xfb and fm1 == 0x278349 and fs2 == 1 and fe2 == 0xfb and
      fm2 == 0x278349 and  fcsr == 0x60 and rm_val == 7  and rs1_sgn_prefix == 0x00000000
      and rs2_sgn_prefix == 0xffffffff  #nosat'
    : 1
    ? 'fs1 == 0 and fe1 == 0xfe and fm1 == 0x07a8e7 and fs2 == 1 and fe2 == 0xfe and
      fm2 == 0x07a8e7 and  fcsr == 0x60 and rm_val == 7  and rs1_sgn_prefix == 0x00000000
      and rs2_sgn_prefix == 0xffffffff  #nosat'
    : 1
    ? 'fs1 == 0 and fe1 == 0xfe and fm1 == 0x1c60ac and fs2 == 1 and fe2 == 0xfe and
      fm2 == 0x1c60ac and  fcsr == 0x60 and rm_val == 7  and rs1_sgn_prefix == 0x00000000
      and rs2_sgn_prefix == 0xffffffff  #nosat'
    : 1
    ? 'fs1 == 0 and fe1 == 0xfe and fm1 == 0x390e97 and fs2 == 1 and fe2 == 0xfe and
      fm2 == 0x390e97 and  fcsr == 0x60 and rm_val == 7  and rs1_sgn_prefix == 0x00000000
      and rs2_sgn_prefix == 0xffffffff  #nosat'
    : 1
    ? 'fs1 == 0 and fe1 == 0xfd and fm1 == 0x61a51b and fs2 == 1 and fe2 == 0xfd and
      fm2 == 0x61a51b and  fcsr == 0x60 and rm_val == 7  and rs1_sgn_prefix == 0x00000000
      and rs2_sgn_prefix == 0xffffffff  #nosat'
    : 1
    ? 'fs1 == 0 and fe1 == 0xfd and fm1 == 0x64f961 and fs2 == 1 and fe2 == 0xfd and
      fm2 == 0x64f961 and  fcsr == 0x60 and rm_val == 7  and rs1_sgn_prefix == 0x00000000
      and rs2_sgn_prefix == 0xffffffff  #nosat'
    : 2
    ? 'fs1 == 0 and fe1 == 0xfd and fm1 == 0x5d0ccb and fs2 == 1 and fe2 == 0xfd and
      fm2 == 0x5d0ccb and  fcsr == 0x60 and rm_val == 7  and rs1_sgn_prefix == 0x00000000
      and rs2_sgn_prefix == 0xffffffff  #nosat'
    : 1
    ? 'fs1 == 0 and fe1 == 0xfc and fm1 == 0x1173d9 and fs2 == 1 and fe2 == 0xfc and
      fm2 == 0x1173d9 and  fcsr == 0x60 and rm_val == 7  and rs1_sgn_prefix == 0x00000000
      and rs2_sgn_prefix == 0xffffffff  #nosat'
    : 1
    ? 'fs1 == 0 and fe1 == 0xfd and fm1 == 0x6b4e0d and fs2 == 1 and fe2 == 0xfd and
      fm2 == 0x6b4e0d and  fcsr == 0x60 and rm_val == 7  and rs1_sgn_prefix == 0x00000000
      and rs2_sgn_prefix == 0xffffffff  #nosat'
    : 1
    ? 'fs1 == 0 and fe1 == 0xfd and fm1 == 0x36fce6 and fs2 == 1 and fe2 == 0xfd and
      fm2 == 0x36fce6 and  fcsr == 0x60 and rm_val == 7  and rs1_sgn_prefix == 0x00000000
      and rs2_sgn_prefix == 0xffffffff  #nosat'
    : 1
    ? 'fs1 == 0 and fe1 == 0xfe and fm1 == 0x1175bf and fs2 == 1 and fe2 == 0xfe and
      fm2 == 0x1175bf and  fcsr == 0x60 and rm_val == 7  and rs1_sgn_prefix == 0x00000000
      and rs2_sgn_prefix == 0xffffffff  #nosat'
    : 1
    ? 'fs1 == 0 and fe1 == 0xfe and fm1 == 0x314a05 and fs2 == 1 and fe2 == 0xfe and
      fm2 == 0x314a05 and  fcsr == 0x60 and rm_val == 7  and rs1_sgn_prefix == 0x00000000
      and rs2_sgn_prefix == 0xffffffff  #nosat'
    : 1
    ? 'fs1 == 0 and fe1 == 0xfe and fm1 == 0x2c7300 and fs2 == 1 and fe2 == 0xfe and
      fm2 == 0x2c7300 and  fcsr == 0x60 and rm_val == 7  and rs1_sgn_prefix == 0x00000000
      and rs2_sgn_prefix == 0xffffffff  #nosat'
    : 1
    ? 'fs1 == 0 and fe1 == 0xfd and fm1 == 0x4f9722 and fs2 == 1 and fe2 == 0xfd and
      fm2 == 0x4f9722 and  fcsr == 0x60 and rm_val == 7  and rs1_sgn_prefix == 0x00000000
      and rs2_sgn_prefix == 0xffffffff  #nosat'
    : 1
    ? 'fs1 == 0 and fe1 == 0xfe and fm1 == 0x076a16 and fs2 == 1 and fe2 == 0xfe and
      fm2 == 0x076a16 and  fcsr == 0x60 and rm_val == 7  and rs1_sgn_prefix == 0x00000000
      and rs2_sgn_prefix == 0xffffffff  #nosat'
    : 1
    ? 'fs1 == 0 and fe1 == 0xfe and fm1 == 0x1bd52c and fs2 == 1 and fe2 == 0xfe and
      fm2 == 0x1bd52c and  fcsr == 0x60 and rm_val == 7  and rs1_sgn_prefix == 0x00000000
      and rs2_sgn_prefix == 0xffffffff  #nosat'
    : 1
    ? 'fs1 == 0 and fe1 == 0xfe and fm1 == 0x2bd8f4 and fs2 == 1 and fe2 == 0xfe and
      fm2 == 0x2bd8f4 and  fcsr == 0x60 and rm_val == 7  and rs1_sgn_prefix == 0x00000000
      and rs2_sgn_prefix == 0xffffffff  #nosat'
    : 1
    ? 'fs1 == 0 and fe1 == 0xfe and fm1 == 0x365ad7 and fs2 == 1 and fe2 == 0xfe and
      fm2 == 0x365ad7 and  fcsr == 0x60 and rm_val == 7  and rs1_sgn_prefix == 0x00000000
      and rs2_sgn_prefix == 0xffffffff  #nosat'
    : 1
    ? 'fs1 == 0 and fe1 == 0xfd and fm1 == 0x2d0427 and fs2 == 1 and fe2 == 0xfd and
      fm2 == 0x2d0427 and  fcsr == 0x60 and rm_val == 7  and rs1_sgn_prefix == 0x00000000
      and rs2_sgn_prefix == 0xffffffff  #nosat'
    : 1
    ? 'fs1 == 0 and fe1 == 0xfe and fm1 == 0x3f4810 and fs2 == 1 and fe2 == 0xfe and
      fm2 == 0x3f4810 and  fcsr == 0x60 and rm_val == 7  and rs1_sgn_prefix == 0x00000000
      and rs2_sgn_prefix == 0xffffffff  #nosat'
    : 1
    ? 'fs1 == 0 and fe1 == 0xfe and fm1 == 0x185183 and fs2 == 1 and fe2 == 0xfe and
      fm2 == 0x185183 and  fcsr == 0x60 and rm_val == 7  and rs1_sgn_prefix == 0x00000000
      and rs2_sgn_prefix == 0xffffffff  #nosat'
    : 1
    ? 'fs1 == 0 and fe1 == 0xfd and fm1 == 0x6b4f07 and fs2 == 1 and fe2 == 0xfd and
      fm2 == 0x6b4f07 and  fcsr == 0x60 and rm_val == 7  and rs1_sgn_prefix == 0x00000000
      and rs2_sgn_prefix == 0xffffffff  #nosat'
    : 1
    ? 'fs1 == 0 and fe1 == 0xfd and fm1 == 0x71fa00 and fs2 == 1 and fe2 == 0xfd and
      fm2 == 0x71fa00 and  fcsr == 0x60 and rm_val == 7  and rs1_sgn_prefix == 0x00000000
      and rs2_sgn_prefix == 0xffffffff  #nosat'
    : 1
    ? 'fs1 == 0 and fe1 == 0xfc and fm1 == 0x3aa6be and fs2 == 1 and fe2 == 0xfc and
      fm2 == 0x3aa6be and  fcsr == 0x60 and rm_val == 7  and rs1_sgn_prefix == 0x00000000
      and rs2_sgn_prefix == 0xffffffff  #nosat'
    : 1
    ? 'fs1 == 0 and fe1 == 0xfb and fm1 == 0x33eb13 and fs2 == 1 and fe2 == 0xfb and
      fm2 == 0x33eb13 and  fcsr == 0x60 and rm_val == 7  and rs1_sgn_prefix == 0x00000000
      and rs2_sgn_prefix == 0xffffffff  #nosat'
    : 1
    ? 'fs1 == 0 and fe1 == 0xfe and fm1 == 0x188f57 and fs2 == 1 and fe2 == 0xfe and
      fm2 == 0x188f57 and  fcsr == 0x60 and rm_val == 7  and rs1_sgn_prefix == 0x00000000
      and rs2_sgn_prefix == 0xffffffff  #nosat'
    : 1
    ? 'fs1 == 0 and fe1 == 0xfe and fm1 == 0x1ca7c2 and fs2 == 1 and fe2 == 0xfe and
      fm2 == 0x1ca7c2 and  fcsr == 0x60 and rm_val == 7  and rs1_sgn_prefix == 0x00000000
      and rs2_sgn_prefix == 0xffffffff  #nosat'
    : 1
    ? 'fs1 == 0 and fe1 == 0xfb and fm1 == 0x60ce7f and fs2 == 1 and fe2 == 0xfb and
      fm2 == 0x60ce7f and  fcsr == 0x60 and rm_val == 7  and rs1_sgn_prefix == 0x00000000
      and rs2_sgn_prefix == 0xffffffff  #nosat'
    : 1
    ? 'fs1 == 0 and fe1 == 0xfa and fm1 == 0x0af584 and fs2 == 1 and fe2 == 0xfa and
      fm2 == 0x0af584 and  fcsr == 0x60 and rm_val == 7  and rs1_sgn_prefix == 0x00000000
      and rs2_sgn_prefix == 0xffffffff  #nosat'
    : 1
    ? 'fs1 == 0 and fe1 == 0xfe and fm1 == 0x2eb91a and fs2 == 1 and fe2 == 0xfe and
      fm2 == 0x2eb91a and  fcsr == 0x60 and rm_val == 7  and rs1_sgn_prefix == 0x00000000
      and rs2_sgn_prefix == 0xffffffff  #nosat'
    : 1
    ? 'fs1 == 0 and fe1 == 0xfe and fm1 == 0x02ac50 and fs2 == 1 and fe2 == 0xfe and
      fm2 == 0x02ac50 and  fcsr == 0x60 and rm_val == 7  and rs1_sgn_prefix == 0x00000000
      and rs2_sgn_prefix == 0xffffffff  #nosat'
    : 1
    ? 'fs1 == 0 and fe1 == 0xfd and fm1 == 0x73d707 and fs2 == 1 and fe2 == 0xfd and
      fm2 == 0x73d707 and  fcsr == 0x60 and rm_val == 7  and rs1_sgn_prefix == 0x00000000
      and rs2_sgn_prefix == 0xffffffff  #nosat'
    : 1
    ? 'fs1 == 0 and fe1 == 0xfd and fm1 == 0x5d2a79 and fs2 == 1 and fe2 == 0xfd and
      fm2 == 0x5d2a79 and  fcsr == 0x60 and rm_val == 7  and rs1_sgn_prefix == 0x00000000
      and rs2_sgn_prefix == 0xffffffff  #nosat'
    : 1
    ? 'fs1 == 0 and fe1 == 0xfd and fm1 == 0x0e223c and fs2 == 1 and fe2 == 0xfd and
      fm2 == 0x0e223c and  fcsr == 0x60 and rm_val == 7  and rs1_sgn_prefix == 0x00000000
      and rs2_sgn_prefix == 0xffffffff  #nosat'
    : 1
    ? 'fs1 == 0 and fe1 == 0xf9 and fm1 == 0x5f97b9 and fs2 == 1 and fe2 == 0xf9 and
      fm2 == 0x5f97b9 and  fcsr == 0x60 and rm_val == 7  and rs1_sgn_prefix == 0x00000000
      and rs2_sgn_prefix == 0xffffffff  #nosat'
    : 1
    ? 'fs1 == 0 and fe1 == 0xfe and fm1 == 0x38849b and fs2 == 1 and fe2 == 0xfe and
      fm2 == 0x38849b and  fcsr == 0x60 and rm_val == 7  and rs1_sgn_prefix == 0x00000000
      and rs2_sgn_prefix == 0xffffffff  #nosat'
    : 1
    ? 'fs1 == 0 and fe1 == 0xfb and fm1 == 0x3e4d8f and fs2 == 1 and fe2 == 0xfb and
      fm2 == 0x3e4d8f and  fcsr == 0x60 and rm_val == 7  and rs1_sgn_prefix == 0x00000000
      and rs2_sgn_prefix == 0xffffffff  #nosat'
    : 1
    ? 'fs1 == 0 and fe1 == 0xfe and fm1 == 0x19be4b and fs2 == 1 and fe2 == 0xfe and
      fm2 == 0x19be4b and  fcsr == 0x60 and rm_val == 7  and rs1_sgn_prefix == 0x00000000
      and rs2_sgn_prefix == 0xffffffff  #nosat'
    : 1
    ? 'fs1 == 0 and fe1 == 0xf9 and fm1 == 0x0bf9e4 and fs2 == 1 and fe2 == 0xf9 and
      fm2 == 0x0bf9e4 and  fcsr == 0x60 and rm_val == 7  and rs1_sgn_prefix == 0x00000000
      and rs2_sgn_prefix == 0xffffffff  #nosat'
    : 1
    ? 'fs1 == 0 and fe1 == 0xfb and fm1 == 0x1be782 and fs2 == 1 and fe2 == 0xfb and
      fm2 == 0x1be782 and  fcsr == 0x60 and rm_val == 7  and rs1_sgn_prefix == 0x00000000
      and rs2_sgn_prefix == 0xffffffff  #nosat'
    : 1
    ? 'fs1 == 0 and fe1 == 0xfc and fm1 == 0x2998cc and fs2 == 1 and fe2 == 0xfc and
      fm2 == 0x2998cc and  fcsr == 0x60 and rm_val == 7  and rs1_sgn_prefix == 0x00000000
      and rs2_sgn_prefix == 0xffffffff  #nosat'
    : 1
    ? 'fs1 == 0 and fe1 == 0xfd and fm1 == 0x06834b and fs2 == 1 and fe2 == 0xfd and
      fm2 == 0x06834b and  fcsr == 0x60 and rm_val == 7  and rs1_sgn_prefix == 0x00000000
      and rs2_sgn_prefix == 0xffffffff  #nosat'
    : 1
    ? 'fs1 == 0 and fe1 == 0xfd and fm1 == 0x41657b and fs2 == 1 and fe2 == 0xfd and
      fm2 == 0x41657b and  fcsr == 0x60 and rm_val == 7  and rs1_sgn_prefix == 0x00000000
      and rs2_sgn_prefix == 0xffffffff  #nosat'
    : 1
    ? 'fs1 == 0 and fe1 == 0xfb and fm1 == 0x1b03d8 and fs2 == 1 and fe2 == 0xfb and
      fm2 == 0x1b03d8 and  fcsr == 0x60 and rm_val == 7  and rs1_sgn_prefix == 0x00000000
      and rs2_sgn_prefix == 0xffffffff  #nosat'
    : 1
    ? 'fs1 == 0 and fe1 == 0xfc and fm1 == 0x191af1 and fs2 == 1 and fe2 == 0xfc and
      fm2 == 0x191af1 and  fcsr == 0x60 and rm_val == 7  and rs1_sgn_prefix == 0x00000000
      and rs2_sgn_prefix == 0xffffffff  #nosat'
    : 1
    ? 'fs1 == 0 and fe1 == 0xfe and fm1 == 0x0c7784 and fs2 == 1 and fe2 == 0xfe and
      fm2 == 0x0c7784 and  fcsr == 0x60 and rm_val == 7  and rs1_sgn_prefix == 0x00000000
      and rs2_sgn_prefix == 0xffffffff  #nosat'
    : 1
    ? 'fs1 == 0 and fe1 == 0xfe and fm1 == 0x30593a and fs2 == 1 and fe2 == 0xfe and
      fm2 == 0x30593a and  fcsr == 0x60 and rm_val == 7  and rs1_sgn_prefix == 0x00000000
      and rs2_sgn_prefix == 0xffffffff  #nosat'
    : 1
    ? 'fs1 == 0 and fe1 == 0xfe and fm1 == 0x0125a0 and fs2 == 1 and fe2 == 0xfe and
      fm2 == 0x0125a0 and  fcsr == 0x60 and rm_val == 7  and rs1_sgn_prefix == 0x00000000
      and rs2_sgn_prefix == 0xffffffff  #nosat'
    : 1
    ? 'fs1 == 0 and fe1 == 0xfa and fm1 == 0x32551e and fs2 == 1 and fe2 == 0xfa and
      fm2 == 0x32551e and  fcsr == 0x60 and rm_val == 7  and rs1_sgn_prefix == 0x00000000
      and rs2_sgn_prefix == 0xffffffff  #nosat'
    : 1
    ? 'fs1 == 0 and fe1 == 0xfe and fm1 == 0x22524e and fs2 == 1 and fe2 == 0xfe and
      fm2 == 0x22524e and  fcsr == 0x60 and rm_val == 7  and rs1_sgn_prefix == 0x00000000
      and rs2_sgn_prefix == 0xffffffff  #nosat'
    : 1
    ? 'fs1 == 0 and fe1 == 0xfc and fm1 == 0x408722 and fs2 == 1 and fe2 == 0xfc and
      fm2 == 0x408722 and  fcsr == 0x60 and rm_val == 7  and rs1_sgn_prefix == 0x00000000
      and rs2_sgn_prefix == 0xffffffff  #nosat'
    : 1
    ? 'fs1 == 0 and fe1 == 0xfd and fm1 == 0x29d93c and fs2 == 1 and fe2 == 0xfd and
      fm2 == 0x29d93c and  fcsr == 0x60 and rm_val == 7  and rs1_sgn_prefix == 0x00000000
      and rs2_sgn_prefix == 0xffffffff  #nosat'
    : 1
    ? 'fs1 == 0 and fe1 == 0xfd and fm1 == 0x351aa9 and fs2 == 1 and fe2 == 0xfd and
      fm2 == 0x351aa9 and  fcsr == 0x60 and rm_val == 7  and rs1_sgn_prefix == 0x00000000
      and rs2_sgn_prefix == 0xffffffff  #nosat'
    : 1
    ? 'fs1 == 0 and fe1 == 0xfd and fm1 == 0x5a8a0e and fs2 == 1 and fe2 == 0xfd and
      fm2 == 0x5a8a0e and  fcsr == 0x60 and rm_val == 7  and rs1_sgn_prefix == 0x00000000
      and rs2_sgn_prefix == 0xffffffff  #nosat'
    : 1
    ? 'fs1 == 0 and fe1 == 0xfc and fm1 == 0x6f30c5 and fs2 == 1 and fe2 == 0xfc and
      fm2 == 0x6f30c5 and  fcsr == 0x60 and rm_val == 7  and rs1_sgn_prefix == 0x00000000
      and rs2_sgn_prefix == 0xffffffff  #nosat'
    : 1
    ? 'fs1 == 0 and fe1 == 0xfe and fm1 == 0x20d4b8 and fs2 == 1 and fe2 == 0xfe and
      fm2 == 0x20d4b8 and  fcsr == 0x60 and rm_val == 7  and rs1_sgn_prefix == 0x00000000
      and rs2_sgn_prefix == 0xffffffff  #nosat'
    : 1
    ? 'fs1 == 0 and fe1 == 0xfd and fm1 == 0x57453d and fs2 == 1 and fe2 == 0xfd and
      fm2 == 0x57453d and  fcsr == 0x60 and rm_val == 7  and rs1_sgn_prefix == 0x00000000
      and rs2_sgn_prefix == 0xffffffff  #nosat'
    : 1
    ? 'fs1 == 0 and fe1 == 0xfe and fm1 == 0x0e61dc and fs2 == 1 and fe2 == 0xfe and
      fm2 == 0x0e61dc and  fcsr == 0x60 and rm_val == 7  and rs1_sgn_prefix == 0x00000000
      and rs2_sgn_prefix == 0xffffffff  #nosat'
    : 1
    ? 'fs1 == 0 and fe1 == 0xfa and fm1 == 0x0c612e and fs2 == 1 and fe2 == 0xfa and
      fm2 == 0x0c612e and  fcsr == 0x60 and rm_val == 7  and rs1_sgn_prefix == 0x00000000
      and rs2_sgn_prefix == 0xffffffff  #nosat'
    : 1
    ? 'fs1 == 0 and fe1 == 0xfc and fm1 == 0x386b8e and fs2 == 1 and fe2 == 0xfc and
      fm2 == 0x386b8e and  fcsr == 0x60 and rm_val == 7  and rs1_sgn_prefix == 0x00000000
      and rs2_sgn_prefix == 0xffffffff  #nosat'
    : 1
    ? 'fs1 == 0 and fe1 == 0xfd and fm1 == 0x07412e and fs2 == 1 and fe2 == 0xfd and
      fm2 == 0x07412e and  fcsr == 0x60 and rm_val == 7  and rs1_sgn_prefix == 0x00000000
      and rs2_sgn_prefix == 0xffffffff  #nosat'
    : 1
    ? 'fs1 == 0 and fe1 == 0xfd and fm1 == 0x09eee9 and fs2 == 1 and fe2 == 0xfd and
      fm2 == 0x09eee9 and  fcsr == 0x60 and rm_val == 7  and rs1_sgn_prefix == 0x00000000
      and rs2_sgn_prefix == 0xffffffff  #nosat'
    : 1
    ? 'fs1 == 0 and fe1 == 0xfd and fm1 == 0x735bf2 and fs2 == 1 and fe2 == 0xfd and
      fm2 == 0x735bf2 and  fcsr == 0x60 and rm_val == 7  and rs1_sgn_prefix == 0x00000000
      and rs2_sgn_prefix == 0xffffffff  #nosat'
    : 1
    ? 'fs1 == 0 and fe1 == 0xfe and fm1 == 0x09661e and fs2 == 1 and fe2 == 0xfe and
      fm2 == 0x09661e and  fcsr == 0x60 and rm_val == 7  and rs1_sgn_prefix == 0x00000000
      and rs2_sgn_prefix == 0xffffffff  #nosat'
    : 1
    ? 'fs1 == 0 and fe1 == 0xfd and fm1 == 0x1f22f1 and fs2 == 1 and fe2 == 0xfd and
      fm2 == 0x1f22f1 and  fcsr == 0x60 and rm_val == 7  and rs1_sgn_prefix == 0x00000000
      and rs2_sgn_prefix == 0xffffffff  #nosat'
    : 1
    ? 'fs1 == 0 and fe1 == 0xf5 and fm1 == 0x15d64c and fs2 == 1 and fe2 == 0xf5 and
      fm2 == 0x15d64c and  fcsr == 0x60 and rm_val == 7  and rs1_sgn_prefix == 0x00000000
      and rs2_sgn_prefix == 0xffffffff  #nosat'
    : 1
    ? 'fs1 == 0 and fe1 == 0xfd and fm1 == 0x006905 and fs2 == 1 and fe2 == 0xfd and
      fm2 == 0x006905 and  fcsr == 0x60 and rm_val == 7  and rs1_sgn_prefix == 0x00000000
      and rs2_sgn_prefix == 0xffffffff  #nosat'
    : 1
    ? 'fs1 == 0 and fe1 == 0xfd and fm1 == 0x74c2e8 and fs2 == 1 and fe2 == 0xfd and
      fm2 == 0x74c2e8 and  fcsr == 0x60 and rm_val == 7  and rs1_sgn_prefix == 0x00000000
      and rs2_sgn_prefix == 0xffffffff  #nosat'
    : 1
    ? 'fs1 == 0 and fe1 == 0xfe and fm1 == 0x2814cf and fs2 == 1 and fe2 == 0xfe and
      fm2 == 0x2814cf and  fcsr == 0x60 and rm_val == 7  and rs1_sgn_prefix == 0x00000000
      and rs2_sgn_prefix == 0xffffffff  #nosat'
    : 1
    ? 'fs1 == 0 and fe1 == 0xfd and fm1 == 0x1f21ce and fs2 == 1 and fe2 == 0xfd and
      fm2 == 0x1f21ce and  fcsr == 0x60 and rm_val == 7  and rs1_sgn_prefix == 0x00000000
      and rs2_sgn_prefix == 0xffffffff  #nosat'
    : 1
    ? 'fs1 == 0 and fe1 == 0xfe and fm1 == 0x06c054 and fs2 == 1 and fe2 == 0xfe and
      fm2 == 0x06c054 and  fcsr == 0x60 and rm_val == 7  and rs1_sgn_prefix == 0x00000000
      and rs2_sgn_prefix == 0xffffffff  #nosat'
    : 1
    ? 'fs1 == 0 and fe1 == 0xfd and fm1 == 0x7e4880 and fs2 == 1 and fe2 == 0xfd and
      fm2 == 0x7e4880 and  fcsr == 0x60 and rm_val == 7  and rs1_sgn_prefix == 0x00000000
      and rs2_sgn_prefix == 0xffffffff  #nosat'
    : 1
    ? 'fs1 == 0 and fe1 == 0xfd and fm1 == 0x2b03e6 and fs2 == 1 and fe2 == 0xfd and
      fm2 == 0x2b03e6 and  fcsr == 0x60 and rm_val == 7  and rs1_sgn_prefix == 0x00000000
      and rs2_sgn_prefix == 0xffffffff  #nosat'
    : 1
    ? 'fs1 == 0 and fe1 == 0xfb and fm1 == 0x7234e1 and fs2 == 1 and fe2 == 0xfb and
      fm2 == 0x7234e1 and  fcsr == 0x60 and rm_val == 7  and rs1_sgn_prefix == 0x00000000
      and rs2_sgn_prefix == 0xffffffff  #nosat'
    : 1
    ? 'fs1 == 0 and fe1 == 0xfd and fm1 == 0x3b1c27 and fs2 == 1 and fe2 == 0xfd and
      fm2 == 0x3b1c27 and  fcsr == 0x60 and rm_val == 7  and rs1_sgn_prefix == 0x00000000
      and rs2_sgn_prefix == 0xffffffff  #nosat'
    : 1
    ? 'fs1 == 0 and fe1 == 0xfe and fm1 == 0x110d95 and fs2 == 1 and fe2 == 0xfe and
      fm2 == 0x110d95 and  fcsr == 0x60 and rm_val == 7  and rs1_sgn_prefix == 0x00000000
      and rs2_sgn_prefix == 0xffffffff  #nosat'
    : 1
    ? 'fs1 == 0 and fe1 == 0xfd and fm1 == 0x3deb73 and fs2 == 1 and fe2 == 0xfd and
      fm2 == 0x3deb73 and  fcsr == 0x60 and rm_val == 7  and rs1_sgn_prefix == 0x00000000
      and rs2_sgn_prefix == 0xffffffff  #nosat'
    : 1
    ? 'fs1 == 0 and fe1 == 0xfd and fm1 == 0x33495f and fs2 == 1 and fe2 == 0xfd and
      fm2 == 0x33495f and  fcsr == 0x60 and rm_val == 7  and rs1_sgn_prefix == 0x00000000
      and rs2_sgn_prefix == 0xffffffff  #nosat'
    : 1
    ? 'fs1 == 0 and fe1 == 0xfe and fm1 == 0x2800cd and fs2 == 1 and fe2 == 0xfe and
      fm2 == 0x2800cd and  fcsr == 0x60 and rm_val == 7  and rs1_sgn_prefix == 0x00000000
      and rs2_sgn_prefix == 0xffffffff  #nosat'
    : 1
    ? 'fs1 == 0 and fe1 == 0xfc and fm1 == 0x10628e and fs2 == 1 and fe2 == 0xfc and
      fm2 == 0x10628e and  fcsr == 0x60 and rm_val == 7  and rs1_sgn_prefix == 0x00000000
      and rs2_sgn_prefix == 0xffffffff  #nosat'
    : 1
    ? 'fs1 == 0 and fe1 == 0xfd and fm1 == 0x731b27 and fs2 == 1 and fe2 == 0xfd and
      fm2 == 0x731b27 and  fcsr == 0x60 and rm_val == 7  and rs1_sgn_prefix == 0x00000000
      and rs2_sgn_prefix == 0xffffffff  #nosat'
    : 1
    ? 'fs1 == 0 and fe1 == 0xfe and fm1 == 0x0b4e72 and fs2 == 1 and fe2 == 0xfe and
      fm2 == 0x0b4e72 and  fcsr == 0x60 and rm_val == 7  and rs1_sgn_prefix == 0x00000000
      and rs2_sgn_prefix == 0xffffffff  #nosat'
    : 1
    ? 'fs1 == 0 and fe1 == 0xfd and fm1 == 0x1a4c33 and fs2 == 1 and fe2 == 0xfd and
      fm2 == 0x1a4c33 and  fcsr == 0x60 and rm_val == 7  and rs1_sgn_prefix == 0x00000000
      and rs2_sgn_prefix == 0xffffffff  #nosat'
    : 1
    ? 'fs1 == 0 and fe1 == 0xfc and fm1 == 0x72d2f3 and fs2 == 1 and fe2 == 0xfc and
      fm2 == 0x72d2f3 and  fcsr == 0x60 and rm_val == 7  and rs1_sgn_prefix == 0x00000000
      and rs2_sgn_prefix == 0xffffffff  #nosat'
    : 1
    ? 'fs1 == 0 and fe1 == 0xfe and fm1 == 0x09b9ea and fs2 == 1 and fe2 == 0xfe and
      fm2 == 0x09b9ea and  fcsr == 0x60 and rm_val == 7  and rs1_sgn_prefix == 0x00000000
      and rs2_sgn_prefix == 0xffffffff  #nosat'
    : 1
    ? 'fs1 == 0 and fe1 == 0xfe and fm1 == 0x1df6e4 and fs2 == 1 and fe2 == 0xfe and
      fm2 == 0x1df6e4 and  fcsr == 0x60 and rm_val == 7  and rs1_sgn_prefix == 0x00000000
      and rs2_sgn_prefix == 0xffffffff  #nosat'
    : 1
    ? 'fs1 == 0 and fe1 == 0xfb and fm1 == 0x16325d and fs2 == 1 and fe2 == 0xfb and
      fm2 == 0x16325d and  fcsr == 0x60 and rm_val == 7  and rs1_sgn_prefix == 0x00000000
      and rs2_sgn_prefix == 0xffffffff  #nosat'
    : 1
    ? 'fs1 == 0 and fe1 == 0xfd and fm1 == 0x795162 and fs2 == 1 and fe2 == 0xfd and
      fm2 == 0x795162 and  fcsr == 0x60 and rm_val == 7  and rs1_sgn_prefix == 0x00000000
      and rs2_sgn_prefix == 0xffffffff  #nosat'
    : 1
    ? 'fs1 == 0 and fe1 == 0xfc and fm1 == 0x5706d8 and fs2 == 1 and fe2 == 0xfc and
      fm2 == 0x5706d8 and  fcsr == 0x60 and rm_val == 7  and rs1_sgn_prefix == 0x00000000
      and rs2_sgn_prefix == 0xffffffff  #nosat'
    : 1
    ? 'fs1 == 0 and fe1 == 0xfb and fm1 == 0x19e0a5 and fs2 == 1 and fe2 == 0xfb and
      fm2 == 0x19e0a5 and  fcsr == 0x60 and rm_val == 7  and rs1_sgn_prefix == 0x00000000
      and rs2_sgn_prefix == 0xffffffff  #nosat'
    : 1
    ? 'fs1 == 0 and fe1 == 0xfd and fm1 == 0x1854d1 and fs2 == 1 and fe2 == 0xfd and
      fm2 == 0x1854d1 and  fcsr == 0x60 and rm_val == 7  and rs1_sgn_prefix == 0x00000000
      and rs2_sgn_prefix == 0xffffffff  #nosat'
    : 1
    ? 'fs1 == 0 and fe1 == 0xfc and fm1 == 0x52faef and fs2 == 1 and fe2 == 0xfc and
      fm2 == 0x52faef and  fcsr == 0x60 and rm_val == 7  and rs1_sgn_prefix == 0x00000000
      and rs2_sgn_prefix == 0xffffffff  #nosat'
    : 1
    ? 'fs1 == 0 and fe1 == 0xfe and fm1 == 0x18212b and fs2 == 1 and fe2 == 0xfe and
      fm2 == 0x18212b and  fcsr == 0x60 and rm_val == 7  and rs1_sgn_prefix == 0x00000000
      and rs2_sgn_prefix == 0xffffffff  #nosat'
    : 1
    ? 'fs1 == 0 and fe1 == 0xfb and fm1 == 0x4cef18 and fs2 == 1 and fe2 == 0xfb and
      fm2 == 0x4cef18 and  fcsr == 0x60 and rm_val == 7  and rs1_sgn_prefix == 0x00000000
      and rs2_sgn_prefix == 0xffffffff  #nosat'
    : 1
    ? 'fs1 == 0 and fe1 == 0xfd and fm1 == 0x79e697 and fs2 == 1 and fe2 == 0xfd and
      fm2 == 0x79e697 and  fcsr == 0x60 and rm_val == 7  and rs1_sgn_prefix == 0x00000000
      and rs2_sgn_prefix == 0xffffffff  #nosat'
    : 1
    ? 'fs1 == 0 and fe1 == 0xfe and fm1 == 0x2765d9 and fs2 == 1 and fe2 == 0xfe and
      fm2 == 0x2765d9 and  fcsr == 0x60 and rm_val == 7  and rs1_sgn_prefix == 0x00000000
      and rs2_sgn_prefix == 0xffffffff  #nosat'
    : 1
    ? 'fs1 == 0 and fe1 == 0xf8 and fm1 == 0x643dc7 and fs2 == 1 and fe2 == 0xf8 and
      fm2 == 0x643dc7 and  fcsr == 0x60 and rm_val == 7  and rs1_sgn_prefix == 0x00000000
      and rs2_sgn_prefix == 0xffffffff  #nosat'
    : 1
    ? 'fs1 == 0 and fe1 == 0xfe and fm1 == 0x02c05a and fs2 == 1 and fe2 == 0xfe and
      fm2 == 0x02c05a and  fcsr == 0x60 and rm_val == 7  and rs1_sgn_prefix == 0x00000000
      and rs2_sgn_prefix == 0xffffffff  #nosat'
    : 1
    ? 'fs1 == 0 and fe1 == 0xfe and fm1 == 0x35ba7d and fs2 == 1 and fe2 == 0xfe and
      fm2 == 0x35ba7d and  fcsr == 0x60 and rm_val == 7  and rs1_sgn_prefix == 0x00000000
      and rs2_sgn_prefix == 0xffffffff  #nosat'
    : 1
    ? 'fs1 == 0 and fe1 == 0xfe and fm1 == 0x2eb100 and fs2 == 1 and fe2 == 0xfe and
      fm2 == 0x2eb100 and  fcsr == 0x60 and rm_val == 7  and rs1_sgn_prefix == 0x00000000
      and rs2_sgn_prefix == 0xffffffff  #nosat'
    : 1
    ? 'fs1 == 0 and fe1 == 0xfe and fm1 == 0x0fd579 and fs2 == 1 and fe2 == 0xfe and
      fm2 == 0x0fd579 and  fcsr == 0x60 and rm_val == 7  and rs1_sgn_prefix == 0x00000000
      and rs2_sgn_prefix == 0xffffffff  #nosat'
    : 1
    ? 'fs1 == 0 and fe1 == 0xfd and fm1 == 0x7ba8b0 and fs2 == 1 and fe2 == 0xfd and
      fm2 == 0x7ba8b0 and  fcsr == 0x60 and rm_val == 7  and rs1_sgn_prefix == 0x00000000
      and rs2_sgn_prefix == 0xffffffff  #nosat'
    : 1
    ? 'fs1 == 0 and fe1 == 0xfe and fm1 == 0x2d5201 and fs2 == 1 and fe2 == 0xfe and
      fm2 == 0x2d5201 and  fcsr == 0x60 and rm_val == 7  and rs1_sgn_prefix == 0x00000000
      and rs2_sgn_prefix == 0xffffffff  #nosat'
    : 1
    ? 'fs1 == 0 and fe1 == 0xfd and fm1 == 0x0f0540 and fs2 == 1 and fe2 == 0xfd and
      fm2 == 0x0f0540 and  fcsr == 0x60 and rm_val == 7  and rs1_sgn_prefix == 0x00000000
      and rs2_sgn_prefix == 0xffffffff  #nosat'
    : 1
    ? 'fs1 == 0 and fe1 == 0xfc and fm1 == 0x1f9fcf and fs2 == 1 and fe2 == 0xfc and
      fm2 == 0x1f9fcf and  fcsr == 0x60 and rm_val == 7  and rs1_sgn_prefix == 0x00000000
      and rs2_sgn_prefix == 0xffffffff  #nosat'
    : 1
    ? 'fs1 == 0 and fe1 == 0xf7 and fm1 == 0x5aa799 and fs2 == 1 and fe2 == 0xf7 and
      fm2 == 0x5aa799 and  fcsr == 0x60 and rm_val == 7  and rs1_sgn_prefix == 0x00000000
      and rs2_sgn_prefix == 0xffffffff  #nosat'
    : 1
    ? 'fs1 == 0 and fe1 == 0xfd and fm1 == 0x000760 and fs2 == 1 and fe2 == 0xfd and
      fm2 == 0x000760 and  fcsr == 0x60 and rm_val == 7  and rs1_sgn_prefix == 0x00000000
      and rs2_sgn_prefix == 0xffffffff  #nosat'
    : 1
    ? 'fs1 == 0 and fe1 == 0xfe and fm1 == 0x09f3ae and fs2 == 1 and fe2 == 0xfe and
      fm2 == 0x09f3ae and  fcsr == 0x60 and rm_val == 7  and rs1_sgn_prefix == 0x00000000
      and rs2_sgn_prefix == 0xffffffff  #nosat'
    : 1
    ? 'fs1 == 0 and fe1 == 0xfd and fm1 == 0x6e4960 and fs2 == 1 and fe2 == 0xfd and
      fm2 == 0x6e4960 and  fcsr == 0x60 and rm_val == 7  and rs1_sgn_prefix == 0x00000000
      and rs2_sgn_prefix == 0xffffffff  #nosat'
    : 1
    ? 'fs1 == 0 and fe1 == 0xfb and fm1 == 0x7bb095 and fs2 == 1 and fe2 == 0xfb and
      fm2 == 0x7bb095 and  fcsr == 0x60 and rm_val == 7  and rs1_sgn_prefix == 0x00000000
      and rs2_sgn_prefix == 0xffffffff  #nosat'
    : 1
    ? 'fs1 == 0 and fe1 == 0xfc and fm1 == 0x5e5c14 and fs2 == 1 and fe2 == 0xfc and
      fm2 == 0x5e5c14 and  fcsr == 0x60 and rm_val == 7  and rs1_sgn_prefix == 0x00000000
      and rs2_sgn_prefix == 0xffffffff  #nosat'
    : 1
    ? 'fs1 == 0 and fe1 == 0xfd and fm1 == 0x529e32 and fs2 == 1 and fe2 == 0xfd and
      fm2 == 0x529e32 and  fcsr == 0x60 and rm_val == 7  and rs1_sgn_prefix == 0x00000000
      and rs2_sgn_prefix == 0xffffffff  #nosat'
    : 1
    ? 'fs1 == 0 and fe1 == 0xfd and fm1 == 0x3793aa and fs2 == 1 and fe2 == 0xfd and
      fm2 == 0x3793aa and  fcsr == 0x60 and rm_val == 7  and rs1_sgn_prefix == 0x00000000
      and rs2_sgn_prefix == 0xffffffff  #nosat'
    : 1
    ? 'fs1 == 0 and fe1 == 0xfa and fm1 == 0x143e58 and fs2 == 1 and fe2 == 0xfa and
      fm2 == 0x143e58 and  fcsr == 0x60 and rm_val == 7  and rs1_sgn_prefix == 0x00000000
      and rs2_sgn_prefix == 0xffffffff  #nosat'
    : 1
    ? 'fs1 == 0 and fe1 == 0xfd and fm1 == 0x48d9ed and fs2 == 1 and fe2 == 0xfd and
      fm2 == 0x48d9ed and  fcsr == 0x60 and rm_val == 7  and rs1_sgn_prefix == 0x00000000
      and rs2_sgn_prefix == 0xffffffff  #nosat'
    : 1
    ? 'fs1 == 0 and fe1 == 0xfd and fm1 == 0x1ad123 and fs2 == 1 and fe2 == 0xfd and
      fm2 == 0x1ad123 and  fcsr == 0x60 and rm_val == 7  and rs1_sgn_prefix == 0x00000000
      and rs2_sgn_prefix == 0xffffffff  #nosat'
    : 1
    ? 'fs1 == 0 and fe1 == 0xfd and fm1 == 0x1f40ca and fs2 == 1 and fe2 == 0xfd and
      fm2 == 0x1f40ca and  fcsr == 0x60 and rm_val == 7  and rs1_sgn_prefix == 0x00000000
      and rs2_sgn_prefix == 0xffffffff  #nosat'
    : 1
    ? 'fs1 == 0 and fe1 == 0xfe and fm1 == 0x2e7655 and fs2 == 1 and fe2 == 0xfe and
      fm2 == 0x2e7655 and  fcsr == 0x60 and rm_val == 7  and rs1_sgn_prefix == 0x00000000
      and rs2_sgn_prefix == 0xffffffff  #nosat'
    : 1
    ? 'fs1 == 0 and fe1 == 0xfe and fm1 == 0x217160 and fs2 == 1 and fe2 == 0xfe and
      fm2 == 0x217160 and  fcsr == 0x60 and rm_val == 7  and rs1_sgn_prefix == 0x00000000
      and rs2_sgn_prefix == 0xffffffff  #nosat'
    : 1
    ? 'fs1 == 0 and fe1 == 0xfd and fm1 == 0x03f653 and fs2 == 1 and fe2 == 0xfd and
      fm2 == 0x03f653 and  fcsr == 0x60 and rm_val == 7  and rs1_sgn_prefix == 0x00000000
      and rs2_sgn_prefix == 0xffffffff  #nosat'
    : 1
    ? 'fs1 == 0 and fe1 == 0xfe and fm1 == 0x065281 and fs2 == 1 and fe2 == 0xfe and
      fm2 == 0x065281 and  fcsr == 0x60 and rm_val == 7  and rs1_sgn_prefix == 0x00000000
      and rs2_sgn_prefix == 0xffffffff  #nosat'
    : 1
    ? 'fs1 == 0 and fe1 == 0xfc and fm1 == 0x67dc90 and fs2 == 1 and fe2 == 0xfc and
      fm2 == 0x67dc90 and  fcsr == 0x60 and rm_val == 7  and rs1_sgn_prefix == 0x00000000
      and rs2_sgn_prefix == 0xffffffff  #nosat'
    : 1
    ? 'fs1 == 0 and fe1 == 0xfe and fm1 == 0x2bb989 and fs2 == 1 and fe2 == 0xfe and
      fm2 == 0x2bb989 and  fcsr == 0x60 and rm_val == 7  and rs1_sgn_prefix == 0x00000000
      and rs2_sgn_prefix == 0xffffffff  #nosat'
    : 1
    ? 'fs1 == 0 and fe1 == 0xfd and fm1 == 0x70ab3f and fs2 == 1 and fe2 == 0xfd and
      fm2 == 0x70ab3f and  fcsr == 0x60 and rm_val == 7  and rs1_sgn_prefix == 0x00000000
      and rs2_sgn_prefix == 0xffffffff  #nosat'
    : 1
    ? 'fs1 == 0 and fe1 == 0xfe and fm1 == 0x3b1d98 and fs2 == 1 and fe2 == 0xfe and
      fm2 == 0x3b1d98 and  fcsr == 0x60 and rm_val == 7  and rs1_sgn_prefix == 0x00000000
      and rs2_sgn_prefix == 0xffffffff  #nosat'
    : 1
    ? 'fs1 == 0 and fe1 == 0xfa and fm1 == 0x4a3e7e and fs2 == 1 and fe2 == 0xfa and
      fm2 == 0x4a3e7e and  fcsr == 0x60 and rm_val == 7  and rs1_sgn_prefix == 0x00000000
      and rs2_sgn_prefix == 0xffffffff  #nosat'
    : 1
    ? 'fs1 == 0 and fe1 == 0xfe and fm1 == 0x0ff996 and fs2 == 1 and fe2 == 0xfe and
      fm2 == 0x0ff996 and  fcsr == 0x60 and rm_val == 7  and rs1_sgn_prefix == 0x00000000
      and rs2_sgn_prefix == 0xffffffff  #nosat'
    : 1
    ? 'fs1 == 0 and fe1 == 0xf7 and fm1 == 0x40f240 and fs2 == 1 and fe2 == 0xf7 and
      fm2 == 0x40f240 and  fcsr == 0x60 and rm_val == 7  and rs1_sgn_prefix == 0x00000000
      and rs2_sgn_prefix == 0xffffffff  #nosat'
    : 1
    ? 'fs1 == 0 and fe1 == 0xfd and fm1 == 0x474c23 and fs2 == 1 and fe2 == 0xfd and
      fm2 == 0x474c23 and  fcsr == 0x60 and rm_val == 7  and rs1_sgn_prefix == 0x00000000
      and rs2_sgn_prefix == 0xffffffff  #nosat'
    : 1
    ? 'fs1 == 0 and fe1 == 0xfd and fm1 == 0x3ba12e and fs2 == 1 and fe2 == 0xfd and
      fm2 == 0x3ba12e and  fcsr == 0x60 and rm_val == 7  and rs1_sgn_prefix == 0x00000000
      and rs2_sgn_prefix == 0xffffffff  #nosat'
    : 1
    ? 'fs1 == 0 and fe1 == 0xfe and fm1 == 0x026d14 and fs2 == 1 and fe2 == 0xfe and
      fm2 == 0x026d14 and  fcsr == 0x60 and rm_val == 7  and rs1_sgn_prefix == 0x00000000
      and rs2_sgn_prefix == 0xffffffff  #nosat'
    : 1
    ? 'fs1 == 0 and fe1 == 0xfd and fm1 == 0x0d7074 and fs2 == 1 and fe2 == 0xfd and
      fm2 == 0x0d7074 and  fcsr == 0x60 and rm_val == 7  and rs1_sgn_prefix == 0x00000000
      and rs2_sgn_prefix == 0xffffffff  #nosat'
    : 1
    coverage: 160/160
  total_coverage: 262/262
