---
fnmsub_b7:
  config:
  - check ISA:=regex(.*I.*F.*)
  op_comb:
    rd == rs2 == rs3 != rs1: 1
    rs1 != rs2 and rs1 != rd and rs1 != rs3 and rs2 != rs3 and rs2 != rd and rs3 != rd: 157
    rs1 == rd != rs2 and rs1 == rd != rs3 and rs3 != rs2: 1
    rs1 == rd == rs3 != rs2: 1
    rs1 == rs2 != rs3 and rs1 == rs2 != rd and rd != rs3: 1
    rs1 == rs2 == rd != rs3: 1
    rs1 == rs2 == rs3 != rd: 1
    rs1 == rs2 == rs3 == rd: 1
    rs1 == rs3 != rs2 and rs1 == rs3 != rd and rd != rs2: 1
    rs2 == rd != rs1 and rs2 == rd != rs3 and rs3 != rs1: 1
    rs2 == rs3 != rs1 and rs2 == rs3 != rd and rd != rs1: 1
    rs3 == rd != rs1 and rs3 == rd != rs2 and rs2 != rs1: 1
    coverage: 12/12
  opcode:
    fnmsub.s: 168
    coverage: 1/1
  rd:
    f0: 1
    f1: 1
    f10: 1
    f11: 1
    f12: 1
    f13: 1
    f14: 1
    f15: 1
    f16: 1
    f17: 1
    f18: 1
    f19: 1
    f2: 1
    f20: 1
    f21: 1
    f22: 1
    f23: 1
    f24: 1
    f25: 1
    f26: 1
    f27: 1
    f28: 1
    f29: 1
    f3: 1
    f30: 1
    f31: 137
    f4: 1
    f5: 1
    f6: 1
    f7: 1
    f8: 1
    f9: 1
    coverage: 32/32
  rs1:
    f0: 1
    f1: 1
    f10: 1
    f11: 1
    f12: 1
    f13: 1
    f14: 1
    f15: 1
    f16: 1
    f17: 1
    f18: 1
    f19: 1
    f2: 1
    f20: 1
    f21: 1
    f22: 1
    f23: 1
    f24: 1
    f25: 1
    f26: 1
    f27: 1
    f28: 1
    f29: 1
    f3: 1
    f30: 137
    f31: 1
    f4: 1
    f5: 1
    f6: 1
    f7: 1
    f8: 1
    f9: 1
    coverage: 32/32
  rs2:
    f0: 1
    f1: 1
    f10: 1
    f11: 1
    f12: 1
    f13: 1
    f14: 1
    f15: 1
    f16: 1
    f17: 1
    f18: 1
    f19: 1
    f2: 1
    f20: 1
    f21: 1
    f22: 1
    f23: 1
    f24: 1
    f25: 1
    f26: 1
    f27: 1
    f28: 1
    f29: 137
    f3: 1
    f30: 1
    f31: 1
    f4: 1
    f5: 1
    f6: 1
    f7: 1
    f8: 1
    f9: 1
    coverage: 32/32
  rs3:
    f0: 1
    f1: 1
    f10: 1
    f11: 1
    f12: 1
    f13: 1
    f14: 1
    f15: 1
    f16: 1
    f17: 1
    f18: 1
    f19: 1
    f2: 1
    f20: 1
    f21: 1
    f22: 1
    f23: 1
    f24: 1
    f25: 1
    f26: 1
    f27: 1
    f28: 137
    f29: 1
    f3: 1
    f30: 1
    f31: 1
    f4: 1
    f5: 1
    f6: 1
    f7: 1
    f8: 1
    f9: 1
    coverage: 32/32
  val_comb:
    ? 'fs1 == 0 and fe1 == 0xfc and fm1 == 0x2e1c2f and fs2 == 1 and fe2 == 0x81 and
      fm2 == 0x07d476 and fs3 == 0 and fe3 == 0xfe and fm3 == 0x38c2b9 and rm_val
      == 3  #nosat'
    : 1  #  rs1_val==fnorm(0x7e2e1c2f) and rs2_val==fnorm(0xc087d476) and rs3_val==fnorm(0x7f38c2b9) | Mask on extra bits ---> 000000000000000000001
    ? 'fs1 == 0 and fe1 == 0xfd and fm1 == 0x6ea107 and fs2 == 1 and fe2 == 0x7c and
      fm2 == 0x6c02b1 and fs3 == 0 and fe3 == 0xfb and fm3 == 0x5bfef4 and rm_val
      == 3  #nosat'
    : 1 #  rs1_val==fnorm(0x7eeea107) and rs2_val==fnorm(0xbe6c02b1) and rs3_val==fnorm(0x7ddbfef4) | Mask on extra bits ---> 010000000000000000000
    ? 'fs1 == 0 and fe1 == 0xfd and fm1 == 0x0543e0 and fs2 == 1 and fe2 == 0x80 and
      fm2 == 0x00e517 and fs3 == 0 and fe3 == 0xfe and fm3 == 0x063264 and rm_val
      == 3  #nosat'
    : 1 #  rs1_val==fnorm(0x7e8543e0) and rs2_val==fnorm(0xc000e517) and rs3_val==fnorm(0x7f063264) | Mask on extra bits ---> 001000000000000000000
    ? 'fs1 == 0 and fe1 == 0xfd and fm1 == 0x0ea689 and fs2 == 1 and fe2 == 0x80 and
      fm2 == 0x22c32f and fs3 == 0 and fe3 == 0xfe and fm3 == 0x35644c and rm_val
      == 3  #nosat'
    : 1 #  rs1_val==fnorm(0x7e8ea689) and rs2_val==fnorm(0xc022c32f) and rs3_val==fnorm(0x7f35644c) | Mask on extra bits ---> 000100000000000000000
    ? 'fs1 == 0 and fe1 == 0xfd and fm1 == 0x175320 and fs2 == 1 and fe2 == 0x7b and
      fm2 == 0x35a312 and fs3 == 0 and fe3 == 0xf9 and fm3 == 0x56bc56 and rm_val
      == 3  #nosat'
    : 1 #  rs1_val==fnorm(0x7e975320) and rs2_val==fnorm(0xbdb5a312) and rs3_val==fnorm(0x7cd6bc56) | Mask on extra bits ---> 000010000000000000000
    ? 'fs1 == 0 and fe1 == 0xfd and fm1 == 0x789da9 and fs2 == 1 and fe2 == 0x7c and
      fm2 == 0x448a7d and fs3 == 0 and fe3 == 0xfb and fm3 == 0x3edf34 and rm_val
      == 3  #nosat'
    : 1 #  rs1_val==fnorm(0x7ef89da9) and rs2_val==fnorm(0xbe448a7d) and rs3_val==fnorm(0x7dbedf34) | Mask on extra bits ---> 000001000000000000000
    ? 'fs1 == 0 and fe1 == 0xfe and fm1 == 0x133609 and fs2 == 1 and fe2 == 0x7f and
      fm2 == 0x09b51b and fs3 == 0 and fe3 == 0xfe and fm3 == 0x1e6020 and rm_val
      == 3  #nosat'
    : 1 #  rs1_val==fnorm(0x7f133609) and rs2_val==fnorm(0xbf89b51b) and rs3_val==fnorm(0x7f1e6020) | Mask on extra bits ---> 000000100000000000000
    ? 'fs1 == 0 and fe1 == 0xfc and fm1 == 0x27090d and fs2 == 1 and fe2 == 0x80 and
      fm2 == 0x1aee25 and fs3 == 0 and fe3 == 0xfd and fm3 == 0x4a2da9 and rm_val
      == 3  #nosat'
    : 1 #  rs1_val==fnorm(0x7e27090d) and rs2_val==fnorm(0xc01aee25) and rs3_val==fnorm(0x7eca2da9) | Mask on extra bits ---> 000000010000000000000
    ? 'fs1 == 0 and fe1 == 0xfe and fm1 == 0x33dfb8 and fs2 == 1 and fe2 == 0x7d and
      fm2 == 0x1e050d and fs3 == 0 and fe3 == 0xfc and fm3 == 0x5e0f41 and rm_val
      == 3  #nosat'
    : 1 #  rs1_val==fnorm(0x7f33dfb8) and rs2_val==fnorm(0xbe9e050d) and rs3_val==fnorm(0x7e5e0f41) | Mask on extra bits ---> 000000001000000000000
    ? 'fs1 == 0 and fe1 == 0xfe and fm1 == 0x3a8a7e and fs2 == 1 and fe2 == 0x7e and
      fm2 == 0x0c9d85 and fs3 == 0 and fe3 == 0xfd and fm3 == 0x4ced0a and rm_val
      == 3  #nosat'
    : 1 #  rs1_val==fnorm(0x7f3a8a7e) and rs2_val==fnorm(0xbf0c9d85) and rs3_val==fnorm(0x7ecced0a) | Mask on extra bits ---> 000000000100000000000
    ? 'fs1 == 0 and fe1 == 0xfe and fm1 == 0x20dd6a and fs2 == 1 and fe2 == 0x7e and
      fm2 == 0x18c1e6 and fs3 == 0 and fe3 == 0xfd and fm3 == 0x3ffa9e and rm_val
      == 3  #nosat'
    : 1 #  rs1_val==fnorm(0x7f20dd6a) and rs2_val==fnorm(0xbf18c1e6) and rs3_val==fnorm(0x7ebffa9e) | Mask on extra bits ---> 000000000010000000000
    ? 'fs1 == 0 and fe1 == 0xfd and fm1 == 0x36bc41 and fs2 == 1 and fe2 == 0x7d and
      fm2 == 0x09993b and fs3 == 0 and fe3 == 0xfb and fm3 == 0x447040 and rm_val
      == 3  #nosat'
    : 1 #  rs1_val==fnorm(0x7eb6bc41) and rs2_val==fnorm(0xbe89993b) and rs3_val==fnorm(0x7dc47040) | Mask on extra bits ---> 000000000001000000000
    ? 'fs1 == 0 and fe1 == 0xfc and fm1 == 0x6d2bf9 and fs2 == 1 and fe2 == 0x80 and
      fm2 == 0x0cf386 and fs3 == 0 and fe3 == 0xfe and fm3 == 0x0295a9 and rm_val
      == 3  #nosat'
    : 1 #  rs1_val==fnorm(0x7e6d2bf9) and rs2_val==fnorm(0xc00cf386) and rs3_val==fnorm(0x7f0295a9) | Mask on extra bits ---> 000000000000100000000
    ? 'fs1 == 0 and fe1 == 0xfe and fm1 == 0x220c6a and fs2 == 1 and fe2 == 0x7e and
      fm2 == 0x2025e5 and fs3 == 0 and fe3 == 0xfd and fm3 == 0x4abf7f and rm_val
      == 3  #nosat'
    : 1 #  rs1_val==fnorm(0x7f220c6a) and rs2_val==fnorm(0xbf2025e5) and rs3_val==fnorm(0x7ecabf7f) | Mask on extra bits ---> 000000000000010000000
    ? 'fs1 == 0 and fe1 == 0xfd and fm1 == 0x3c0477 and fs2 == 1 and fe2 == 0x7e and
      fm2 == 0x3fa5b4 and fs3 == 0 and fe3 == 0xfd and fm3 == 0x0cc108 and rm_val
      == 3  #nosat'
    : 1 #  rs1_val==fnorm(0x7ebc0477) and rs2_val==fnorm(0xbf3fa5b4) and rs3_val==fnorm(0x7e8cc108) | Mask on extra bits ---> 000000000000001000000
    ? 'fs1 == 0 and fe1 == 0xfe and fm1 == 0x04e2ff and fs2 == 1 and fe2 == 0x7f and
      fm2 == 0x35dcee and fs3 == 0 and fe3 == 0xfe and fm3 == 0x3cce5b and rm_val
      == 3  #nosat'
    : 1 #  rs1_val==fnorm(0x7f04e2ff) and rs2_val==fnorm(0xbfb5dcee) and rs3_val==fnorm(0x7f3cce5b) | Mask on extra bits ---> 000000000000000100000
    ? 'fs1 == 0 and fe1 == 0xfe and fm1 == 0x2c2373 and fs2 == 1 and fe2 == 0x7f and
      fm2 == 0x03bb5d and fs3 == 0 and fe3 == 0xfe and fm3 == 0x312842 and rm_val
      == 3  #nosat'
    : 1 #  rs1_val==fnorm(0x7f2c2373) and rs2_val==fnorm(0xbf83bb5d) and rs3_val==fnorm(0x7f312842) | Mask on extra bits ---> 000000000000000010000
    ? 'fs1 == 0 and fe1 == 0xfe and fm1 == 0x33cf6c and fs2 == 1 and fe2 == 0x7e and
      fm2 == 0x1e17e3 and fs3 == 0 and fe3 == 0xfd and fm3 == 0x5e1598 and rm_val
      == 3  #nosat'
    : 1 #  rs1_val==fnorm(0x7f33cf6c) and rs2_val==fnorm(0xbf1e17e3) and rs3_val==fnorm(0x7ede1598) | Mask on extra bits ---> 000000000000000001000
    ? 'fs1 == 0 and fe1 == 0xfd and fm1 == 0x6baf59 and fs2 == 1 and fe2 == 0x7e and
      fm2 == 0x2d06ce and fs3 == 0 and fe3 == 0xfd and fm3 == 0x1f4bc3 and rm_val
      == 3  #nosat'
    : 1 #  rs1_val==fnorm(0x7eebaf59) and rs2_val==fnorm(0xbf2d06ce) and rs3_val==fnorm(0x7e9f4bc3) | Mask on extra bits ---> 000000000000000000100
    ? 'fs1 == 0 and fe1 == 0xfe and fm1 == 0x2a6406 and fs2 == 1 and fe2 == 0x7e and
      fm2 == 0x28ea23 and fs3 == 0 and fe3 == 0xfd and fm3 == 0x60daf6 and rm_val
      == 3  #nosat'
    : 1 #  rs1_val==fnorm(0x7f2a6406) and rs2_val==fnorm(0xbf28ea23) and rs3_val==fnorm(0x7ee0daf6) | Mask on extra bits ---> 000000000000000000010
    ? 'fs1 == 0 and fe1 == 0xfe and fm1 == 0x125073 and fs2 == 1 and fe2 == 0x7b and
      fm2 == 0x23864f and fs3 == 0 and fe3 == 0xfa and fm3 == 0x3aebfa and rm_val
      == 3  #nosat'
    : 1 #  rs1_val==fnorm(0x7f125073) and rs2_val==fnorm(0xbda3864f) and rs3_val==fnorm(0x7d3aebfa) | Mask on extra bits ---> 000000000000000000001
    ? 'fs1 == 0 and fe1 == 0xfd and fm1 == 0x1c9a88 and fs2 == 1 and fe2 == 0x7d and
      fm2 == 0x541f4f and fs3 == 0 and fe3 == 0xfc and fm3 == 0x01c320 and rm_val
      == 3  #nosat'
    : 1 #  rs1_val==fnorm(0x7e9c9a88) and rs2_val==fnorm(0xbed41f4f) and rs3_val==fnorm(0x7e01c320) | Mask on extra bits ---> 010000000000000000000
    ? 'fs1 == 0 and fe1 == 0xfb and fm1 == 0x4bc1b7 and fs2 == 1 and fe2 == 0x80 and
      fm2 == 0x1dafc1 and fs3 == 0 and fe3 == 0xfc and fm3 == 0x7b0361 and rm_val
      == 3  #nosat'
    : 1 #  rs1_val==fnorm(0x7dcbc1b7) and rs2_val==fnorm(0xc01dafc1) and rs3_val==fnorm(0x7e7b0361) | Mask on extra bits ---> 001000000000000000000
    ? 'fs1 == 0 and fe1 == 0xfe and fm1 == 0x3f7e14 and fs2 == 1 and fe2 == 0x7e and
      fm2 == 0x6f07dc and fs3 == 0 and fe3 == 0xfe and fm3 == 0x32cc96 and rm_val
      == 3  #nosat'
    : 1 #  rs1_val==fnorm(0x7f3f7e14) and rs2_val==fnorm(0xbf6f07dc) and rs3_val==fnorm(0x7f32cc96) | Mask on extra bits ---> 000100000000000000000
    ? 'fs1 == 0 and fe1 == 0xfd and fm1 == 0x58215c and fs2 == 1 and fe2 == 0x7f and
      fm2 == 0x54e017 and fs3 == 0 and fe3 == 0xfe and fm3 == 0x33b8d2 and rm_val
      == 3  #nosat'
    : 1 #  rs1_val==fnorm(0x7ed8215c) and rs2_val==fnorm(0xbfd4e017) and rs3_val==fnorm(0x7f33b8d2) | Mask on extra bits ---> 000010000000000000000
    ? 'fs1 == 0 and fe1 == 0xfe and fm1 == 0x0d5723 and fs2 == 1 and fe2 == 0x7e and
      fm2 == 0x26896f and fs3 == 0 and fe3 == 0xfd and fm3 == 0x37e4c4 and rm_val
      == 3  #nosat'
    : 1 #  rs1_val==fnorm(0x7f0d5723) and rs2_val==fnorm(0xbf26896f) and rs3_val==fnorm(0x7eb7e4c4) | Mask on extra bits ---> 000001000000000000000
    ? 'fs1 == 0 and fe1 == 0xfc and fm1 == 0x7af3fb and fs2 == 1 and fe2 == 0x80 and
      fm2 == 0x2cbaf4 and fs3 == 0 and fe3 == 0xfe and fm3 == 0x295332 and rm_val
      == 3  #nosat'
    : 1 #  rs1_val==fnorm(0x7e7af3fb) and rs2_val==fnorm(0xc02cbaf4) and rs3_val==fnorm(0x7f295332) | Mask on extra bits ---> 000000100000000000000
    ? 'fs1 == 0 and fe1 == 0xfe and fm1 == 0x1e6a36 and fs2 == 1 and fe2 == 0x7e and
      fm2 == 0x2d9764 and fs3 == 0 and fe3 == 0xfd and fm3 == 0x56d6eb and rm_val
      == 3  #nosat'
    : 1 #  rs1_val==fnorm(0x7f1e6a36) and rs2_val==fnorm(0xbf2d9764) and rs3_val==fnorm(0x7ed6d6eb) | Mask on extra bits ---> 000000010000000000000
    ? 'fs1 == 0 and fe1 == 0xfd and fm1 == 0x557298 and fs2 == 1 and fe2 == 0x7f and
      fm2 == 0x2985e0 and fs3 == 0 and fe3 == 0xfe and fm3 == 0x0d5846 and rm_val
      == 3  #nosat'
    : 1 #  rs1_val==fnorm(0x7ed57298) and rs2_val==fnorm(0xbfa985e0) and rs3_val==fnorm(0x7f0d5846) | Mask on extra bits ---> 000000001000000000000
    ? 'fs1 == 0 and fe1 == 0xfb and fm1 == 0x277072 and fs2 == 1 and fe2 == 0x7d and
      fm2 == 0x6ef63b and fs3 == 0 and fe3 == 0xfa and fm3 == 0x1c4b97 and rm_val
      == 3  #nosat'
    : 1 #  rs1_val==fnorm(0x7da77072) and rs2_val==fnorm(0xbeeef63b) and rs3_val==fnorm(0x7d1c4b97) | Mask on extra bits ---> 000000000100000000000
    ? 'fs1 == 0 and fe1 == 0xfc and fm1 == 0x07b179 and fs2 == 1 and fe2 == 0x81 and
      fm2 == 0x07ba67 and fs3 == 0 and fe3 == 0xfe and fm3 == 0x0fe2c9 and rm_val
      == 3  #nosat'
    : 1 #  rs1_val==fnorm(0x7e07b179) and rs2_val==fnorm(0xc087ba67) and rs3_val==fnorm(0x7f0fe2c9) | Mask on extra bits ---> 000000000010000000000
    ? 'fs1 == 0 and fe1 == 0xfc and fm1 == 0x2af59a and fs2 == 1 and fe2 == 0x7f and
      fm2 == 0x2891e9 and fs3 == 0 and fe3 == 0xfc and fm3 == 0x61253d and rm_val
      == 3  #nosat'
    : 1 #  rs1_val==fnorm(0x7e2af59a) and rs2_val==fnorm(0xbfa891e9) and rs3_val==fnorm(0x7e61253d) | Mask on extra bits ---> 000000000001000000000
    ? 'fs1 == 0 and fe1 == 0xfe and fm1 == 0x162ed7 and fs2 == 1 and fe2 == 0x7c and
      fm2 == 0x029e84 and fs3 == 0 and fe3 == 0xfb and fm3 == 0x194190 and rm_val
      == 3  #nosat'
    : 1 #  rs1_val==fnorm(0x7f162ed7) and rs2_val==fnorm(0xbe029e84) and rs3_val==fnorm(0x7d994190) | Mask on extra bits ---> 000000000000100000000
    ? 'fs1 == 0 and fe1 == 0xfd and fm1 == 0x157cfe and fs2 == 1 and fe2 == 0x7f and
      fm2 == 0x0dc9a3 and fs3 == 0 and fe3 == 0xfd and fm3 == 0x25972e and rm_val
      == 3  #nosat'
    : 1 #  rs1_val==fnorm(0x7e957cfe) and rs2_val==fnorm(0xbf8dc9a3) and rs3_val==fnorm(0x7ea5972e) | Mask on extra bits ---> 000000000000010000000
    ? 'fs1 == 0 and fe1 == 0xfb and fm1 == 0x755b75 and fs2 == 1 and fe2 == 0x7f and
      fm2 == 0x4c4428 and fs3 == 0 and fe3 == 0xfc and fm3 == 0x43c635 and rm_val
      == 3  #nosat'
    : 1 #  rs1_val==fnorm(0x7df55b75) and rs2_val==fnorm(0xbfcc4428) and rs3_val==fnorm(0x7e43c635) | Mask on extra bits ---> 000000000000001000000
    ? 'fs1 == 0 and fe1 == 0xfe and fm1 == 0x0a8170 and fs2 == 1 and fe2 == 0x7d and
      fm2 == 0x770672 and fs3 == 0 and fe3 == 0xfd and fm3 == 0x05a65f and rm_val
      == 3  #nosat'
    : 1 #  rs1_val==fnorm(0x7f0a8170) and rs2_val==fnorm(0xbef70672) and rs3_val==fnorm(0x7e85a65f) | Mask on extra bits ---> 000000000000000100000
    ? 'fs1 == 0 and fe1 == 0xfd and fm1 == 0x47b364 and fs2 == 1 and fe2 == 0x7c and
      fm2 == 0x607517 and fs3 == 0 and fe3 == 0xfb and fm3 == 0x2f184f and rm_val
      == 3  #nosat'
    : 1 #  rs1_val==fnorm(0x7ec7b364) and rs2_val==fnorm(0xbe607517) and rs3_val==fnorm(0x7daf184f) | Mask on extra bits ---> 000000000000000010000
    ? 'fs1 == 0 and fe1 == 0xfd and fm1 == 0x0946d5 and fs2 == 1 and fe2 == 0x7e and
      fm2 == 0x6a03fc and fs3 == 0 and fe3 == 0xfc and fm3 == 0x7af9c4 and rm_val
      == 3  #nosat'
    : 1 #  rs1_val==fnorm(0x7e8946d5) and rs2_val==fnorm(0xbf6a03fc) and rs3_val==fnorm(0x7e7af9c4) | Mask on extra bits ---> 000000000000000001000
    ? 'fs1 == 0 and fe1 == 0xfc and fm1 == 0x7537d6 and fs2 == 1 and fe2 == 0x7e and
      fm2 == 0x6dccdf and fs3 == 0 and fe3 == 0xfc and fm3 == 0x63c8ef and rm_val
      == 3  #nosat'
    : 1 #  rs1_val==fnorm(0x7e7537d6) and rs2_val==fnorm(0xbf6dccdf) and rs3_val==fnorm(0x7e63c8ef) | Mask on extra bits ---> 000000000000000000100
    ? 'fs1 == 0 and fe1 == 0xfe and fm1 == 0x0b252f and fs2 == 1 and fe2 == 0x7e and
      fm2 == 0x53da48 and fs3 == 0 and fe3 == 0xfd and fm3 == 0x664c95 and rm_val
      == 3  #nosat'
    : 1 #  rs1_val==fnorm(0x7f0b252f) and rs2_val==fnorm(0xbf53da48) and rs3_val==fnorm(0x7ee64c95) | Mask on extra bits ---> 000000000000000000010
    ? 'fs1 == 0 and fe1 == 0xfe and fm1 == 0x1f0fb5 and fs2 == 1 and fe2 == 0x7e and
      fm2 == 0x7bc8f4 and fs3 == 0 and fe3 == 0xfe and fm3 == 0x1c7142 and rm_val
      == 3  #nosat'
    : 1 #  rs1_val==fnorm(0x7f1f0fb5) and rs2_val==fnorm(0xbf7bc8f4) and rs3_val==fnorm(0x7f1c7142) | Mask on extra bits ---> 000000000000000000001
    ? 'fs1 == 0 and fe1 == 0xfd and fm1 == 0x7affa3 and fs2 == 1 and fe2 == 0x7e and
      fm2 == 0x0f7139 and fs3 == 0 and fe3 == 0xfd and fm3 == 0x0ca3cf and rm_val
      == 3  #nosat'
    : 1 #  rs1_val==fnorm(0x7efaffa3) and rs2_val==fnorm(0xbf0f7139) and rs3_val==fnorm(0x7e8ca3cf) | Mask on extra bits ---> 010000000000000000000
    ? 'fs1 == 0 and fe1 == 0xfe and fm1 == 0x3099a4 and fs2 == 1 and fe2 == 0x7e and
      fm2 == 0x6f195a and fs3 == 0 and fe3 == 0xfe and fm3 == 0x24f0ee and rm_val
      == 3  #nosat'
    : 1 #  rs1_val==fnorm(0x7f3099a4) and rs2_val==fnorm(0xbf6f195a) and rs3_val==fnorm(0x7f24f0ee) | Mask on extra bits ---> 001000000000000000000
    ? 'fs1 == 0 and fe1 == 0xfc and fm1 == 0x75b2ba and fs2 == 1 and fe2 == 0x7b and
      fm2 == 0x77d04c and fs3 == 0 and fe3 == 0xf9 and fm3 == 0x6dd75c and rm_val
      == 3  #nosat'
    : 1 #  rs1_val==fnorm(0x7e75b2ba) and rs2_val==fnorm(0xbdf7d04c) and rs3_val==fnorm(0x7cedd75c) | Mask on extra bits ---> 000100000000000000000
    ? 'fs1 == 0 and fe1 == 0xfe and fm1 == 0x2614fd and fs2 == 1 and fe2 == 0x7e and
      fm2 == 0x412b5a and fs3 == 0 and fe3 == 0xfd and fm3 == 0x7aa3e6 and rm_val
      == 3  #nosat'
    : 1 #  rs1_val==fnorm(0x7f2614fd) and rs2_val==fnorm(0xbf412b5a) and rs3_val==fnorm(0x7efaa3e6) | Mask on extra bits ---> 000010000000000000000
    ? 'fs1 == 0 and fe1 == 0xfb and fm1 == 0x0e6204 and fs2 == 1 and fe2 == 0x81 and
      fm2 == 0x519284 and fs3 == 0 and fe3 == 0xfd and fm3 == 0x691f07 and rm_val
      == 3  #nosat'
    : 1 #  rs1_val==fnorm(0x7d8e6204) and rs2_val==fnorm(0xc0d19284) and rs3_val==fnorm(0x7ee91f07) | Mask on extra bits ---> 000001000000000000000
    ? 'fs1 == 0 and fe1 == 0xfe and fm1 == 0x2dd7a3 and fs2 == 1 and fe2 == 0x7f and
      fm2 == 0x02cfaf and fs3 == 0 and fe3 == 0xfe and fm3 == 0x31a913 and rm_val
      == 3  #nosat'
    : 1 #  rs1_val==fnorm(0x7f2dd7a3) and rs2_val==fnorm(0xbf82cfaf) and rs3_val==fnorm(0x7f31a913) | Mask on extra bits ---> 000000100000000000000
    ? 'fs1 == 0 and fe1 == 0xfd and fm1 == 0x31ac5f and fs2 == 1 and fe2 == 0x7f and
      fm2 == 0x70529b and fs3 == 0 and fe3 == 0xfe and fm3 == 0x26caee and rm_val
      == 3  #nosat'
    : 1 #  rs1_val==fnorm(0x7eb1ac5f) and rs2_val==fnorm(0xbff0529b) and rs3_val==fnorm(0x7f26caee) | Mask on extra bits ---> 000000010000000000000
    ? 'fs1 == 0 and fe1 == 0xfe and fm1 == 0x03870c and fs2 == 1 and fe2 == 0x7c and
      fm2 == 0x021d71 and fs3 == 0 and fe3 == 0xfb and fm3 == 0x05b36a and rm_val
      == 3  #nosat'
    : 1 #  rs1_val==fnorm(0x7f03870c) and rs2_val==fnorm(0xbe021d71) and rs3_val==fnorm(0x7d85b36a) | Mask on extra bits ---> 000000001000000000000
    ? 'fs1 == 0 and fe1 == 0xfb and fm1 == 0x5221f9 and fs2 == 1 and fe2 == 0x81 and
      fm2 == 0x0ec065 and fs3 == 0 and fe3 == 0xfd and fm3 == 0x6a5989 and rm_val
      == 3  #nosat'
    : 1 #  rs1_val==fnorm(0x7dd221f9) and rs2_val==fnorm(0xc08ec065) and rs3_val==fnorm(0x7eea5989) | Mask on extra bits ---> 000000000100000000000
    ? 'fs1 == 0 and fe1 == 0xfe and fm1 == 0x30ba02 and fs2 == 1 and fe2 == 0x7e and
      fm2 == 0x5aacdd and fs3 == 0 and fe3 == 0xfe and fm3 == 0x16f5bb and rm_val
      == 3  #nosat'
    : 1 #  rs1_val==fnorm(0x7f30ba02) and rs2_val==fnorm(0xbf5aacdd) and rs3_val==fnorm(0x7f16f5bb) | Mask on extra bits ---> 000000000010000000000
    ? 'fs1 == 0 and fe1 == 0xfe and fm1 == 0x15ce5c and fs2 == 1 and fe2 == 0x7f and
      fm2 == 0x22ead4 and fs3 == 0 and fe3 == 0xfe and fm3 == 0x3eac02 and rm_val
      == 3  #nosat'
    : 1 #  rs1_val==fnorm(0x7f15ce5c) and rs2_val==fnorm(0xbfa2ead4) and rs3_val==fnorm(0x7f3eac02) | Mask on extra bits ---> 000000000001000000000
    ? 'fs1 == 0 and fe1 == 0xfd and fm1 == 0x14f81b and fs2 == 1 and fe2 == 0x7f and
      fm2 == 0x58038b and fs3 == 0 and fe3 == 0xfd and fm3 == 0x7b66cd and rm_val
      == 3  #nosat'
    : 1 #  rs1_val==fnorm(0x7e94f81b) and rs2_val==fnorm(0xbfd8038b) and rs3_val==fnorm(0x7efb66cd) | Mask on extra bits ---> 000000000000100000000
    ? 'fs1 == 0 and fe1 == 0xfe and fm1 == 0x15e839 and fs2 == 1 and fe2 == 0x7f and
      fm2 == 0x0213cf and fs3 == 0 and fe3 == 0xfe and fm3 == 0x18570d and rm_val
      == 3  #nosat'
    : 1 #  rs1_val==fnorm(0x7f15e839) and rs2_val==fnorm(0xbf8213cf) and rs3_val==fnorm(0x7f18570d) | Mask on extra bits ---> 000000000000010000000
    ? 'fs1 == 0 and fe1 == 0xfe and fm1 == 0x1f4ea2 and fs2 == 1 and fe2 == 0x7d and
      fm2 == 0x630bb6 and fs3 == 0 and fe3 == 0xfd and fm3 == 0x0d4a04 and rm_val
      == 3  #nosat'
    : 1 #  rs1_val==fnorm(0x7f1f4ea2) and rs2_val==fnorm(0xbee30bb6) and rs3_val==fnorm(0x7e8d4a04) | Mask on extra bits ---> 000000000000001000000
    ? 'fs1 == 0 and fe1 == 0xfe and fm1 == 0x1c25fe and fs2 == 1 and fe2 == 0x7e and
      fm2 == 0x3bcbbf and fs3 == 0 and fe3 == 0xfd and fm3 == 0x651810 and rm_val
      == 3  #nosat'
    : 1 #  rs1_val==fnorm(0x7f1c25fe) and rs2_val==fnorm(0xbf3bcbbf) and rs3_val==fnorm(0x7ee51810) | Mask on extra bits ---> 000000000000000100000
    ? 'fs1 == 0 and fe1 == 0xfe and fm1 == 0x0f7f8a and fs2 == 1 and fe2 == 0x7d and
      fm2 == 0x2b31ba and fs3 == 0 and fe3 == 0xfc and fm3 == 0x3fec23 and rm_val
      == 3  #nosat'
    : 1 #  rs1_val==fnorm(0x7f0f7f8a) and rs2_val==fnorm(0xbeab31ba) and rs3_val==fnorm(0x7e3fec23) | Mask on extra bits ---> 000000000000000010000
    ? 'fs1 == 0 and fe1 == 0xfe and fm1 == 0x395d94 and fs2 == 1 and fe2 == 0x7e and
      fm2 == 0x518582 and fs3 == 0 and fe3 == 0xfe and fm3 == 0x17b612 and rm_val
      == 3  #nosat'
    : 1 #  rs1_val==fnorm(0x7f395d94) and rs2_val==fnorm(0xbf518582) and rs3_val==fnorm(0x7f17b612) | Mask on extra bits ---> 000000000000000001000
    ? 'fs1 == 0 and fe1 == 0xfd and fm1 == 0x1e21df and fs2 == 1 and fe2 == 0x7e and
      fm2 == 0x60a463 and fs3 == 0 and fe3 == 0xfd and fm3 == 0x0ac32e and rm_val
      == 3  #nosat'
    : 1 #  rs1_val==fnorm(0x7e9e21df) and rs2_val==fnorm(0xbf60a463) and rs3_val==fnorm(0x7e8ac32e) | Mask on extra bits ---> 000000000000000000100
    ? 'fs1 == 0 and fe1 == 0xfc and fm1 == 0x54fd1e and fs2 == 1 and fe2 == 0x80 and
      fm2 == 0x4d0497 and fs3 == 0 and fe3 == 0xfe and fm3 == 0x2a9283 and rm_val
      == 3  #nosat'
    : 1 #  rs1_val==fnorm(0x7e54fd1e) and rs2_val==fnorm(0xc04d0497) and rs3_val==fnorm(0x7f2a9283) | Mask on extra bits ---> 000000000000000000010
    ? 'fs1 == 0 and fe1 == 0xfe and fm1 == 0x1a693b and fs2 == 1 and fe2 == 0x7e and
      fm2 == 0x208215 and fs3 == 0 and fe3 == 0xfd and fm3 == 0x41a077 and rm_val
      == 3  #nosat'
    : 1 #  rs1_val==fnorm(0x7f1a693b) and rs2_val==fnorm(0xbf208215) and rs3_val==fnorm(0x7ec1a077) | Mask on extra bits ---> 000000000000000000001
    ? 'fs1 == 0 and fe1 == 0xfc and fm1 == 0x526383 and fs2 == 1 and fe2 == 0x7f and
      fm2 == 0x084582 and fs3 == 0 and fe3 == 0xfc and fm3 == 0x5ffbfb and rm_val
      == 3  #nosat'
    : 1 #  rs1_val==fnorm(0x7e526383) and rs2_val==fnorm(0xbf884582) and rs3_val==fnorm(0x7e5ffbfb) | Mask on extra bits ---> 010000000000000000000
    ? 'fs1 == 0 and fe1 == 0xfb and fm1 == 0x33c6fa and fs2 == 1 and fe2 == 0x81 and
      fm2 == 0x62be6e and fs3 == 0 and fe3 == 0xfe and fm3 == 0x1f3b63 and rm_val
      == 3  #nosat'
    : 1 #  rs1_val==fnorm(0x7db3c6fa) and rs2_val==fnorm(0xc0e2be6e) and rs3_val==fnorm(0x7f1f3b63) | Mask on extra bits ---> 001000000000000000000
    ? 'fs1 == 0 and fe1 == 0xfc and fm1 == 0x5009d7 and fs2 == 1 and fe2 == 0x7f and
      fm2 == 0x465633 and fs3 == 0 and fe3 == 0xfd and fm3 == 0x212daa and rm_val
      == 3  #nosat'
    : 1 #  rs1_val==fnorm(0x7e5009d7) and rs2_val==fnorm(0xbfc65633) and rs3_val==fnorm(0x7ea12daa) | Mask on extra bits ---> 000100000000000000000
    ? 'fs1 == 0 and fe1 == 0xfa and fm1 == 0x52d2c7 and fs2 == 1 and fe2 == 0x82 and
      fm2 == 0x2aec85 and fs3 == 0 and fe3 == 0xfe and fm3 == 0x0cc2c0 and rm_val
      == 3  #nosat'
    : 1 #  rs1_val==fnorm(0x7d52d2c7) and rs2_val==fnorm(0xc12aec85) and rs3_val==fnorm(0x7f0cc2c0) | Mask on extra bits ---> 000010000000000000000
    ? 'fs1 == 0 and fe1 == 0xfe and fm1 == 0x20eedb and fs2 == 1 and fe2 == 0x7d and
      fm2 == 0x24389c and fs3 == 0 and fe3 == 0xfc and fm3 == 0x4e7935 and rm_val
      == 3  #nosat'
    : 1 #  rs1_val==fnorm(0x7f20eedb) and rs2_val==fnorm(0xbea4389c) and rs3_val==fnorm(0x7e4e7935) | Mask on extra bits ---> 000001000000000000000
    ? 'fs1 == 0 and fe1 == 0xfd and fm1 == 0x3c2348 and fs2 == 1 and fe2 == 0x7f and
      fm2 == 0x0a2fcd and fs3 == 0 and fe3 == 0xfd and fm3 == 0x4b1c4d and rm_val
      == 3  #nosat'
    : 1 #  rs1_val==fnorm(0x7ebc2348) and rs2_val==fnorm(0xbf8a2fcd) and rs3_val==fnorm(0x7ecb1c4d) | Mask on extra bits ---> 000000100000000000000
    ? 'fs1 == 0 and fe1 == 0xfd and fm1 == 0x0b140c and fs2 == 1 and fe2 == 0x7f and
      fm2 == 0x171595 and fs3 == 0 and fe3 == 0xfd and fm3 == 0x24291a and rm_val
      == 3  #nosat'
    : 1 #  rs1_val==fnorm(0x7e8b140c) and rs2_val==fnorm(0xbf971595) and rs3_val==fnorm(0x7ea4291a) | Mask on extra bits ---> 000000010000000000000
    ? 'fs1 == 0 and fe1 == 0xfe and fm1 == 0x1d9df6 and fs2 == 1 and fe2 == 0x7e and
      fm2 == 0x3ca571 and fs3 == 0 and fe3 == 0xfd and fm3 == 0x684bbc and rm_val
      == 3  #nosat'
    : 1 #  rs1_val==fnorm(0x7f1d9df6) and rs2_val==fnorm(0xbf3ca571) and rs3_val==fnorm(0x7ee84bbc) | Mask on extra bits ---> 000000001000000000000
    ? 'fs1 == 0 and fe1 == 0xfe and fm1 == 0x33b8ad and fs2 == 1 and fe2 == 0x7e and
      fm2 == 0x471c14 and fs3 == 0 and fe3 == 0xfe and fm3 == 0x0bc845 and rm_val
      == 3  #nosat'
    : 1 #  rs1_val==fnorm(0x7f33b8ad) and rs2_val==fnorm(0xbf471c14) and rs3_val==fnorm(0x7f0bc845) | Mask on extra bits ---> 000000000100000000000
    ? 'fs1 == 0 and fe1 == 0xfe and fm1 == 0x21c953 and fs2 == 1 and fe2 == 0x7e and
      fm2 == 0x4fe858 and fs3 == 0 and fe3 == 0xfe and fm3 == 0x0364a1 and rm_val
      == 3  #nosat'
    : 1 #  rs1_val==fnorm(0x7f21c953) and rs2_val==fnorm(0xbf4fe858) and rs3_val==fnorm(0x7f0364a1) | Mask on extra bits ---> 000000000010000000000
    ? 'fs1 == 0 and fe1 == 0xfc and fm1 == 0x5f19b2 and fs2 == 1 and fe2 == 0x80 and
      fm2 == 0x070f39 and fs3 == 0 and fe3 == 0xfd and fm3 == 0x6b67a3 and rm_val
      == 3  #nosat'
    : 1 #  rs1_val==fnorm(0x7e5f19b2) and rs2_val==fnorm(0xc0070f39) and rs3_val==fnorm(0x7eeb67a3) | Mask on extra bits ---> 000000000001000000000
    ? 'fs1 == 0 and fe1 == 0xfe and fm1 == 0x22a277 and fs2 == 1 and fe2 == 0x7d and
      fm2 == 0x3c9501 and fs3 == 0 and fe3 == 0xfc and fm3 == 0x6f9bf2 and rm_val
      == 3  #nosat'
    : 1 #  rs1_val==fnorm(0x7f22a277) and rs2_val==fnorm(0xbebc9501) and rs3_val==fnorm(0x7e6f9bf2) | Mask on extra bits ---> 000000000000100000000
    ? 'fs1 == 0 and fe1 == 0xfd and fm1 == 0x0e11bf and fs2 == 1 and fe2 == 0x80 and
      fm2 == 0x25d24d and fs3 == 0 and fe3 == 0xfe and fm3 == 0x380c4c and rm_val
      == 3  #nosat'
    : 1 #  rs1_val==fnorm(0x7e8e11bf) and rs2_val==fnorm(0xc025d24d) and rs3_val==fnorm(0x7f380c4c) | Mask on extra bits ---> 000000000000010000000
    ? 'fs1 == 0 and fe1 == 0xfe and fm1 == 0x2260a9 and fs2 == 1 and fe2 == 0x7c and
      fm2 == 0x6d0137 and fs3 == 0 and fe3 == 0xfc and fm3 == 0x165442 and rm_val
      == 3  #nosat'
    : 1 #  rs1_val==fnorm(0x7f2260a9) and rs2_val==fnorm(0xbe6d0137) and rs3_val==fnorm(0x7e165442) | Mask on extra bits ---> 000000000000001000000
    ? 'fs1 == 0 and fe1 == 0xfe and fm1 == 0x166373 and fs2 == 1 and fe2 == 0x7d and
      fm2 == 0x415f53 and fs3 == 0 and fe3 == 0xfc and fm3 == 0x6331f4 and rm_val
      == 3  #nosat'
    : 1 #  rs1_val==fnorm(0x7f166373) and rs2_val==fnorm(0xbec15f53) and rs3_val==fnorm(0x7e6331f4) | Mask on extra bits ---> 000000000000000100000
    ? 'fs1 == 0 and fe1 == 0xfd and fm1 == 0x700b05 and fs2 == 1 and fe2 == 0x7f and
      fm2 == 0x43f817 and fs3 == 0 and fe3 == 0xfe and fm3 == 0x37c106 and rm_val
      == 3  #nosat'
    : 1 #  rs1_val==fnorm(0x7ef00b05) and rs2_val==fnorm(0xbfc3f817) and rs3_val==fnorm(0x7f37c106) | Mask on extra bits ---> 000000000000000010000
    ? 'fs1 == 0 and fe1 == 0xfe and fm1 == 0x234aea and fs2 == 1 and fe2 == 0x7e and
      fm2 == 0x1b66c2 and fs3 == 0 and fe3 == 0xfd and fm3 == 0x463fd0 and rm_val
      == 3  #nosat'
    : 1 #  rs1_val==fnorm(0x7f234aea) and rs2_val==fnorm(0xbf1b66c2) and rs3_val==fnorm(0x7ec63fd0) | Mask on extra bits ---> 000000000000000001000
    ? 'fs1 == 0 and fe1 == 0xfd and fm1 == 0x0dcb1e and fs2 == 1 and fe2 == 0x80 and
      fm2 == 0x232b7a and fs3 == 0 and fe3 == 0xfe and fm3 == 0x34c0d2 and rm_val
      == 3  #nosat'
    : 1 #  rs1_val==fnorm(0x7e8dcb1e) and rs2_val==fnorm(0xc0232b7a) and rs3_val==fnorm(0x7f34c0d2) | Mask on extra bits ---> 000000000000000000100
    ? 'fs1 == 0 and fe1 == 0xfd and fm1 == 0x522d92 and fs2 == 1 and fe2 == 0x7f and
      fm2 == 0x646f26 and fs3 == 0 and fe3 == 0xfe and fm3 == 0x3b8bd7 and rm_val
      == 3  #nosat'
    : 1 #  rs1_val==fnorm(0x7ed22d92) and rs2_val==fnorm(0xbfe46f26) and rs3_val==fnorm(0x7f3b8bd7) | Mask on extra bits ---> 000000000000000000010
    ? 'fs1 == 0 and fe1 == 0xfc and fm1 == 0x2bc6f2 and fs2 == 1 and fe2 == 0x7f and
      fm2 == 0x29a240 and fs3 == 0 and fe3 == 0xfc and fm3 == 0x63a66a and rm_val
      == 3  #nosat'
    : 1 #  rs1_val==fnorm(0x7e2bc6f2) and rs2_val==fnorm(0xbfa9a240) and rs3_val==fnorm(0x7e63a66a) | Mask on extra bits ---> 000000000000000000001
    ? 'fs1 == 0 and fe1 == 0xfe and fm1 == 0x321868 and fs2 == 1 and fe2 == 0x7f and
      fm2 == 0x0778f4 and fs3 == 0 and fe3 == 0xfe and fm3 == 0x3c7e09 and rm_val
      == 3  #nosat'
    : 1 #  rs1_val==fnorm(0x7f321868) and rs2_val==fnorm(0xbf8778f4) and rs3_val==fnorm(0x7f3c7e09) | Mask on extra bits ---> 010000000000000000000
    ? 'fs1 == 0 and fe1 == 0xfe and fm1 == 0x2e7fda and fs2 == 1 and fe2 == 0x7e and
      fm2 == 0x515d9b and fs3 == 0 and fe3 == 0xfe and fm3 == 0x0eb630 and rm_val
      == 3  #nosat'
    : 1 #  rs1_val==fnorm(0x7f2e7fda) and rs2_val==fnorm(0xbf515d9b) and rs3_val==fnorm(0x7f0eb630) | Mask on extra bits ---> 001000000000000000000
    ? 'fs1 == 0 and fe1 == 0xf7 and fm1 == 0x244bd3 and fs2 == 1 and fe2 == 0x85 and
      fm2 == 0x37709b and fs3 == 0 and fe3 == 0xfd and fm3 == 0x6b74f1 and rm_val
      == 3  #nosat'
    : 1 #  rs1_val==fnorm(0x7ba44bd3) and rs2_val==fnorm(0xc2b7709b) and rs3_val==fnorm(0x7eeb74f1) | Mask on extra bits ---> 000100000000000000000
    ? 'fs1 == 0 and fe1 == 0xfe and fm1 == 0x0ed6ae and fs2 == 1 and fe2 == 0x7e and
      fm2 == 0x5ebb57 and fs3 == 0 and fe3 == 0xfd and fm3 == 0x788d65 and rm_val
      == 3  #nosat'
    : 1 #  rs1_val==fnorm(0x7f0ed6ae) and rs2_val==fnorm(0xbf5ebb57) and rs3_val==fnorm(0x7ef88d65) | Mask on extra bits ---> 000010000000000000000
    ? 'fs1 == 0 and fe1 == 0xfc and fm1 == 0x3034a2 and fs2 == 1 and fe2 == 0x80 and
      fm2 == 0x12a75c and fs3 == 0 and fe3 == 0xfd and fm3 == 0x49e26c and rm_val
      == 3  #nosat'
    : 1 #  rs1_val==fnorm(0x7e3034a2) and rs2_val==fnorm(0xc012a75c) and rs3_val==fnorm(0x7ec9e26c) | Mask on extra bits ---> 000001000000000000000
    ? 'fs1 == 0 and fe1 == 0xfe and fm1 == 0x07648d and fs2 == 1 and fe2 == 0x7d and
      fm2 == 0x11b440 and fs3 == 0 and fe3 == 0xfc and fm3 == 0x1a1e91 and rm_val
      == 3  #nosat'
    : 1 #  rs1_val==fnorm(0x7f07648d) and rs2_val==fnorm(0xbe91b440) and rs3_val==fnorm(0x7e1a1e91) | Mask on extra bits ---> 000000100000000000000
    ? 'fs1 == 0 and fe1 == 0xfe and fm1 == 0x1114c8 and fs2 == 1 and fe2 == 0x7e and
      fm2 == 0x2a450f and fs3 == 0 and fe3 == 0xfd and fm3 == 0x40fde0 and rm_val
      == 3  #nosat'
    : 1 #  rs1_val==fnorm(0x7f1114c8) and rs2_val==fnorm(0xbf2a450f) and rs3_val==fnorm(0x7ec0fde0) | Mask on extra bits ---> 000000010000000000000
    ? 'fs1 == 0 and fe1 == 0xfb and fm1 == 0x0f5d14 and fs2 == 1 and fe2 == 0x82 and
      fm2 == 0x25e6e4 and fs3 == 0 and fe3 == 0xfe and fm3 == 0x39d098 and rm_val
      == 3  #nosat'
    : 1 #  rs1_val==fnorm(0x7d8f5d14) and rs2_val==fnorm(0xc125e6e4) and rs3_val==fnorm(0x7f39d098) | Mask on extra bits ---> 000000001000000000000
    ? 'fs1 == 0 and fe1 == 0xfd and fm1 == 0x0bd04c and fs2 == 1 and fe2 == 0x7f and
      fm2 == 0x1804d2 and fs3 == 0 and fe3 == 0xfd and fm3 == 0x260c9f and rm_val
      == 3  #nosat'
    : 1 #  rs1_val==fnorm(0x7e8bd04c) and rs2_val==fnorm(0xbf9804d2) and rs3_val==fnorm(0x7ea60c9f) | Mask on extra bits ---> 000000000100000000000
    ? 'fs1 == 0 and fe1 == 0xfd and fm1 == 0x6ad2b2 and fs2 == 1 and fe2 == 0x7a and
      fm2 == 0x177e4a and fs3 == 0 and fe3 == 0xf9 and fm3 == 0x0af61f and rm_val
      == 3  #nosat'
    : 1 #  rs1_val==fnorm(0x7eead2b2) and rs2_val==fnorm(0xbd177e4a) and rs3_val==fnorm(0x7c8af61f) | Mask on extra bits ---> 000000000010000000000
    ? 'fs1 == 0 and fe1 == 0xfe and fm1 == 0x0b3a21 and fs2 == 1 and fe2 == 0x7e and
      fm2 == 0x7a0fde and fs3 == 0 and fe3 == 0xfe and fm3 == 0x07ff65 and rm_val
      == 3  #nosat'
    : 1 #  rs1_val==fnorm(0x7f0b3a21) and rs2_val==fnorm(0xbf7a0fde) and rs3_val==fnorm(0x7f07ff65) | Mask on extra bits ---> 000000000001000000000
    ? 'fs1 == 0 and fe1 == 0xfd and fm1 == 0x2b5958 and fs2 == 1 and fe2 == 0x7c and
      fm2 == 0x7842da and fs3 == 0 and fe3 == 0xfb and fm3 == 0x262b4d and rm_val
      == 3  #nosat'
    : 1 #  rs1_val==fnorm(0x7eab5958) and rs2_val==fnorm(0xbe7842da) and rs3_val==fnorm(0x7da62b4d) | Mask on extra bits ---> 000000000000100000000
    ? 'fs1 == 0 and fe1 == 0xfc and fm1 == 0x2d32f7 and fs2 == 1 and fe2 == 0x7e and
      fm2 == 0x60337c and fs3 == 0 and fe3 == 0xfc and fm3 == 0x17af6d and rm_val
      == 3  #nosat'
    : 1 #  rs1_val==fnorm(0x7e2d32f7) and rs2_val==fnorm(0xbf60337c) and rs3_val==fnorm(0x7e17af6d) | Mask on extra bits ---> 000000000000010000000
    ? 'fs1 == 0 and fe1 == 0xfd and fm1 == 0x17337c and fs2 == 1 and fe2 == 0x7e and
      fm2 == 0x6a94aa and fs3 == 0 and fe3 == 0xfd and fm3 == 0x0a8cde and rm_val
      == 3  #nosat'
    : 1 #  rs1_val==fnorm(0x7e97337c) and rs2_val==fnorm(0xbf6a94aa) and rs3_val==fnorm(0x7e8a8cde) | Mask on extra bits ---> 000000000000001000000
    ? 'fs1 == 0 and fe1 == 0xfe and fm1 == 0x095fbb and fs2 == 1 and fe2 == 0x7e and
      fm2 == 0x28a10b and fs3 == 0 and fe3 == 0xfd and fm3 == 0x34fa7d and rm_val
      == 3  #nosat'
    : 1 #  rs1_val==fnorm(0x7f095fbb) and rs2_val==fnorm(0xbf28a10b) and rs3_val==fnorm(0x7eb4fa7d) | Mask on extra bits ---> 000000000000000100000
    ? 'fs1 == 0 and fe1 == 0xfd and fm1 == 0x28c2ff and fs2 == 1 and fe2 == 0x7f and
      fm2 == 0x534f40 and fs3 == 0 and fe3 == 0xfe and fm3 == 0x0b4cf7 and rm_val
      == 3  #nosat'
    : 1 #  rs1_val==fnorm(0x7ea8c2ff) and rs2_val==fnorm(0xbfd34f40) and rs3_val==fnorm(0x7f0b4cf7) | Mask on extra bits ---> 000000000000000010000
    ? 'fs1 == 0 and fe1 == 0xfd and fm1 == 0x2dd528 and fs2 == 1 and fe2 == 0x7d and
      fm2 == 0x0f04f9 and fs3 == 0 and fe3 == 0xfb and fm3 == 0x423ae4 and rm_val
      == 3  #nosat'
    : 1 #  rs1_val==fnorm(0x7eadd528) and rs2_val==fnorm(0xbe8f04f9) and rs3_val==fnorm(0x7dc23ae4) | Mask on extra bits ---> 000000000000000001000
    ? 'fs1 == 0 and fe1 == 0xfb and fm1 == 0x3b6d02 and fs2 == 1 and fe2 == 0x81 and
      fm2 == 0x184bfd and fs3 == 0 and fe3 == 0xfd and fm3 == 0x5f00b7 and rm_val
      == 3  #nosat'
    : 1 #  rs1_val==fnorm(0x7dbb6d02) and rs2_val==fnorm(0xc0984bfd) and rs3_val==fnorm(0x7edf00b7) | Mask on extra bits ---> 000000000000000000100
    ? 'fs1 == 0 and fe1 == 0xfd and fm1 == 0x35b43e and fs2 == 1 and fe2 == 0x7d and
      fm2 == 0x273191 and fs3 == 0 and fe3 == 0xfb and fm3 == 0x6d5787 and rm_val
      == 3  #nosat'
    : 1 #  rs1_val==fnorm(0x7eb5b43e) and rs2_val==fnorm(0xbea73191) and rs3_val==fnorm(0x7ded5787) | Mask on extra bits ---> 000000000000000000010
    ? 'fs1 == 0 and fe1 == 0xfd and fm1 == 0x687969 and fs2 == 1 and fe2 == 0x7e and
      fm2 == 0x523fce and fs3 == 0 and fe3 == 0xfd and fm3 == 0x3eed89 and rm_val
      == 3  #nosat'
    : 1 #  rs1_val==fnorm(0x7ee87969) and rs2_val==fnorm(0xbf523fce) and rs3_val==fnorm(0x7ebeed89) | Mask on extra bits ---> 000000000000000000001
    ? 'fs1 == 0 and fe1 == 0xfd and fm1 == 0x298b8f and fs2 == 1 and fe2 == 0x7c and
      fm2 == 0x4151e0 and fs3 == 0 and fe3 == 0xfb and fm3 == 0x000870 and rm_val
      == 3  #nosat'
    : 1 #  rs1_val==fnorm(0x7ea98b8f) and rs2_val==fnorm(0xbe4151e0) and rs3_val==fnorm(0x7d800870) | Mask on extra bits ---> 010000000000000000000
    ? 'fs1 == 0 and fe1 == 0xfc and fm1 == 0x088c83 and fs2 == 1 and fe2 == 0x81 and
      fm2 == 0x2e8e76 and fs3 == 0 and fe3 == 0xfe and fm3 == 0x3a36fc and rm_val
      == 3  #nosat'
    : 1 #  rs1_val==fnorm(0x7e088c83) and rs2_val==fnorm(0xc0ae8e76) and rs3_val==fnorm(0x7f3a36fc) | Mask on extra bits ---> 001000000000000000000
    ? 'fs1 == 0 and fe1 == 0xfe and fm1 == 0x3e2b14 and fs2 == 1 and fe2 == 0x7e and
      fm2 == 0x15e986 and fs3 == 0 and fe3 == 0xfd and fm3 == 0x5eb917 and rm_val
      == 3  #nosat'
    : 1 #  rs1_val==fnorm(0x7f3e2b14) and rs2_val==fnorm(0xbf15e986) and rs3_val==fnorm(0x7edeb917) | Mask on extra bits ---> 000100000000000000000
    ? 'fs1 == 0 and fe1 == 0xfe and fm1 == 0x394fae and fs2 == 1 and fe2 == 0x7e and
      fm2 == 0x496ae5 and fs3 == 0 and fe3 == 0xfe and fm3 == 0x11ccf0 and rm_val
      == 3  #nosat'
    : 1 #  rs1_val==fnorm(0x7f394fae) and rs2_val==fnorm(0xbf496ae5) and rs3_val==fnorm(0x7f11ccf0) | Mask on extra bits ---> 000010000000000000000
    ? 'fs1 == 0 and fe1 == 0xfe and fm1 == 0x2808ce and fs2 == 1 and fe2 == 0x7a and
      fm2 == 0x1b03ba and fs3 == 0 and fe3 == 0xf9 and fm3 == 0x4b7f8f and rm_val
      == 3  #nosat'
    : 1 #  rs1_val==fnorm(0x7f2808ce) and rs2_val==fnorm(0xbd1b03ba) and rs3_val==fnorm(0x7ccb7f8f) | Mask on extra bits ---> 000001000000000000000
    ? 'fs1 == 0 and fe1 == 0xfe and fm1 == 0x207343 and fs2 == 1 and fe2 == 0x7d and
      fm2 == 0x00b64e and fs3 == 0 and fe3 == 0xfc and fm3 == 0x2157c9 and rm_val
      == 3  #nosat'
    : 1 #  rs1_val==fnorm(0x7f207343) and rs2_val==fnorm(0xbe80b64e) and rs3_val==fnorm(0x7e2157c9) | Mask on extra bits ---> 000000100000000000000
    ? 'fs1 == 0 and fe1 == 0xfe and fm1 == 0x3945d0 and fs2 == 1 and fe2 == 0x76 and
      fm2 == 0x47af30 and fs3 == 0 and fe3 == 0xf6 and fm3 == 0x10840f and rm_val
      == 3  #nosat'
    : 1 #  rs1_val==fnorm(0x7f3945d0) and rs2_val==fnorm(0xbb47af30) and rs3_val==fnorm(0x7b10840f) | Mask on extra bits ---> 000000010000000000000
    ? 'fs1 == 0 and fe1 == 0xfe and fm1 == 0x0ecce4 and fs2 == 1 and fe2 == 0x7d and
      fm2 == 0x71ef4d and fs3 == 0 and fe3 == 0xfd and fm3 == 0x06f460 and rm_val
      == 3  #nosat'
    : 1 #  rs1_val==fnorm(0x7f0ecce4) and rs2_val==fnorm(0xbef1ef4d) and rs3_val==fnorm(0x7e86f460) | Mask on extra bits ---> 000000001000000000000
    ? 'fs1 == 0 and fe1 == 0xfd and fm1 == 0x145a12 and fs2 == 1 and fe2 == 0x7f and
      fm2 == 0x3e11a6 and fs3 == 0 and fe3 == 0xfd and fm3 == 0x5c4a28 and rm_val
      == 3  #nosat'
    : 1 #  rs1_val==fnorm(0x7e945a12) and rs2_val==fnorm(0xbfbe11a6) and rs3_val==fnorm(0x7edc4a28) | Mask on extra bits ---> 000000000100000000000
    ? 'fs1 == 0 and fe1 == 0xf8 and fm1 == 0x502f82 and fs2 == 1 and fe2 == 0x82 and
      fm2 == 0x049553 and fs3 == 0 and fe3 == 0xfb and fm3 == 0x57a3de and rm_val
      == 3  #nosat'
    : 1 #  rs1_val==fnorm(0x7c502f82) and rs2_val==fnorm(0xc1049553) and rs3_val==fnorm(0x7dd7a3de) | Mask on extra bits ---> 000000000010000000000
    ? 'fs1 == 0 and fe1 == 0xfe and fm1 == 0x3c2c79 and fs2 == 1 and fe2 == 0x7b and
      fm2 == 0x0397ce and fs3 == 0 and fe3 == 0xfa and fm3 == 0x4174b0 and rm_val
      == 3  #nosat'
    : 1 #  rs1_val==fnorm(0x7f3c2c79) and rs2_val==fnorm(0xbd8397ce) and rs3_val==fnorm(0x7d4174b0) | Mask on extra bits ---> 000000000001000000000
    ? 'fs1 == 0 and fe1 == 0xfd and fm1 == 0x41e3fa and fs2 == 1 and fe2 == 0x7f and
      fm2 == 0x338693 and fs3 == 0 and fe3 == 0xfe and fm3 == 0x07f854 and rm_val
      == 3  #nosat'
    : 1 #  rs1_val==fnorm(0x7ec1e3fa) and rs2_val==fnorm(0xbfb38693) and rs3_val==fnorm(0x7f07f854) | Mask on extra bits ---> 000000000000100000000
    ? 'fs1 == 0 and fe1 == 0xfd and fm1 == 0x0a4d8c and fs2 == 1 and fe2 == 0x80 and
      fm2 == 0x0f8696 and fs3 == 0 and fe3 == 0xfe and fm3 == 0x1b140f and rm_val
      == 3  #nosat'
    : 1 #  rs1_val==fnorm(0x7e8a4d8c) and rs2_val==fnorm(0xc00f8696) and rs3_val==fnorm(0x7f1b140f) | Mask on extra bits ---> 000000000000010000000
    ? 'fs1 == 0 and fe1 == 0xfb and fm1 == 0x239eb4 and fs2 == 1 and fe2 == 0x81 and
      fm2 == 0x1c7e58 and fs3 == 0 and fe3 == 0xfd and fm3 == 0x480aed and rm_val
      == 3  #nosat'
    : 1 #  rs1_val==fnorm(0x7da39eb4) and rs2_val==fnorm(0xc09c7e58) and rs3_val==fnorm(0x7ec80aed) | Mask on extra bits ---> 000000000000001000000
    ? 'fs1 == 0 and fe1 == 0xfb and fm1 == 0x121772 and fs2 == 1 and fe2 == 0x7e and
      fm2 == 0x6578e7 and fs3 == 0 and fe3 == 0xfb and fm3 == 0x02f3f8 and rm_val
      == 3  #nosat'
    : 1 #  rs1_val==fnorm(0x7d921772) and rs2_val==fnorm(0xbf6578e7) and rs3_val==fnorm(0x7d82f3f8) | Mask on extra bits ---> 000000000000000100000
    ? 'fs1 == 0 and fe1 == 0xfd and fm1 == 0x61fcc2 and fs2 == 1 and fe2 == 0x7d and
      fm2 == 0x7b34ce and fs3 == 0 and fe3 == 0xfc and fm3 == 0x5dc16f and rm_val
      == 3  #nosat'
    : 1 #  rs1_val==fnorm(0x7ee1fcc2) and rs2_val==fnorm(0xbefb34ce) and rs3_val==fnorm(0x7e5dc16f) | Mask on extra bits ---> 000000000000000010000
    ? 'fs1 == 0 and fe1 == 0xfd and fm1 == 0x2b48d4 and fs2 == 1 and fe2 == 0x7e and
      fm2 == 0x6fe0a2 and fs3 == 0 and fe3 == 0xfd and fm3 == 0x207f4a and rm_val
      == 3  #nosat'
    : 1 #  rs1_val==fnorm(0x7eab48d4) and rs2_val==fnorm(0xbf6fe0a2) and rs3_val==fnorm(0x7ea07f4a) | Mask on extra bits ---> 000000000000000001000
    ? 'fs1 == 0 and fe1 == 0xfc and fm1 == 0x31f5db and fs2 == 1 and fe2 == 0x7f and
      fm2 == 0x628967 and fs3 == 0 and fe3 == 0xfd and fm3 == 0x1d7a90 and rm_val
      == 3  #nosat'
    : 1 #  rs1_val==fnorm(0x7e31f5db) and rs2_val==fnorm(0xbfe28967) and rs3_val==fnorm(0x7e9d7a90) | Mask on extra bits ---> 000000000000000000100
    ? 'fs1 == 0 and fe1 == 0xfc and fm1 == 0x02ae3a and fs2 == 1 and fe2 == 0x80 and
      fm2 == 0x23d78d and fs3 == 0 and fe3 == 0xfd and fm3 == 0x2745f0 and rm_val
      == 3  #nosat'
    : 1 #  rs1_val==fnorm(0x7e02ae3a) and rs2_val==fnorm(0xc023d78d) and rs3_val==fnorm(0x7ea745f0) | Mask on extra bits ---> 000000000000000000010
    ? 'fs1 == 0 and fe1 == 0xfe and fm1 == 0x12bec8 and fs2 == 1 and fe2 == 0x7d and
      fm2 == 0x64fb22 and fs3 == 0 and fe3 == 0xfd and fm3 == 0x0341df and rm_val
      == 3  #nosat'
    : 1 #  rs1_val==fnorm(0x7f12bec8) and rs2_val==fnorm(0xbee4fb22) and rs3_val==fnorm(0x7e8341df) | Mask on extra bits ---> 000000000000000000001
    ? 'fs1 == 0 and fe1 == 0xfc and fm1 == 0x666f32 and fs2 == 1 and fe2 == 0x7a and
      fm2 == 0x34700f and fs3 == 0 and fe3 == 0xf8 and fm3 == 0x226b0e and rm_val
      == 3  #nosat'
    : 1 #  rs1_val==fnorm(0x7e666f32) and rs2_val==fnorm(0xbd34700f) and rs3_val==fnorm(0x7c226b0e) | Mask on extra bits ---> 010000000000000000000
    ? 'fs1 == 0 and fe1 == 0xfc and fm1 == 0x1afd1d and fs2 == 1 and fe2 == 0x80 and
      fm2 == 0x7312ff and fs3 == 0 and fe3 == 0xfe and fm3 == 0x1329c3 and rm_val
      == 3  #nosat'
    : 1 #  rs1_val==fnorm(0x7e1afd1d) and rs2_val==fnorm(0xc07312ff) and rs3_val==fnorm(0x7f1329c3) | Mask on extra bits ---> 001000000000000000000
    ? 'fs1 == 0 and fe1 == 0xfd and fm1 == 0x7ea866 and fs2 == 1 and fe2 == 0x7f and
      fm2 == 0x3c2825 and fs3 == 0 and fe3 == 0xfe and fm3 == 0x3b2b9b and rm_val
      == 3  #nosat'
    : 1 #  rs1_val==fnorm(0x7efea866) and rs2_val==fnorm(0xbfbc2825) and rs3_val==fnorm(0x7f3b2b9b) | Mask on extra bits ---> 000100000000000000000
    ? 'fs1 == 0 and fe1 == 0xfd and fm1 == 0x182a54 and fs2 == 1 and fe2 == 0x7d and
      fm2 == 0x56b7cf and fs3 == 0 and fe3 == 0xfb and fm3 == 0x7f4148 and rm_val
      == 3  #nosat'
    : 1 #  rs1_val==fnorm(0x7e982a54) and rs2_val==fnorm(0xbed6b7cf) and rs3_val==fnorm(0x7dff4148) | Mask on extra bits ---> 000010000000000000000
    ? 'fs1 == 0 and fe1 == 0xfe and fm1 == 0x2b296b and fs2 == 1 and fe2 == 0x7c and
      fm2 == 0x494e1c and fs3 == 0 and fe3 == 0xfc and fm3 == 0x0697be and rm_val
      == 3  #nosat'
    : 1 #  rs1_val==fnorm(0x7f2b296b) and rs2_val==fnorm(0xbe494e1c) and rs3_val==fnorm(0x7e0697be) | Mask on extra bits ---> 000001000000000000000
    ? 'fs1 == 0 and fe1 == 0xfd and fm1 == 0x10bd56 and fs2 == 1 and fe2 == 0x80 and
      fm2 == 0x0da990 and fs3 == 0 and fe3 == 0xfe and fm3 == 0x20304e and rm_val
      == 3  #nosat'
    : 1 #  rs1_val==fnorm(0x7e90bd56) and rs2_val==fnorm(0xc00da990) and rs3_val==fnorm(0x7f20304e) | Mask on extra bits ---> 000000100000000000000
    ? 'fs1 == 0 and fe1 == 0xfc and fm1 == 0x4cef54 and fs2 == 1 and fe2 == 0x7f and
      fm2 == 0x4b1960 and fs3 == 0 and fe3 == 0xfd and fm3 == 0x229618 and rm_val
      == 3  #nosat'
    : 1 #  rs1_val==fnorm(0x7e4cef54) and rs2_val==fnorm(0xbfcb1960) and rs3_val==fnorm(0x7ea29618) | Mask on extra bits ---> 000000010000000000000
    ? 'fs1 == 0 and fe1 == 0xf8 and fm1 == 0x126d0d and fs2 == 1 and fe2 == 0x83 and
      fm2 == 0x666e32 and fs3 == 0 and fe3 == 0xfd and fm3 == 0x03cd01 and rm_val
      == 3  #nosat'
    : 1 #  rs1_val==fnorm(0x7c126d0d) and rs2_val==fnorm(0xc1e66e32) and rs3_val==fnorm(0x7e83cd01) | Mask on extra bits ---> 000000001000000000000
    ? 'fs1 == 0 and fe1 == 0xfc and fm1 == 0x28ecea and fs2 == 1 and fe2 == 0x7f and
      fm2 == 0x0ded2e and fs3 == 0 and fe3 == 0xfc and fm3 == 0x3b4dfe and rm_val
      == 3  #nosat'
    : 1 #  rs1_val==fnorm(0x7e28ecea) and rs2_val==fnorm(0xbf8ded2e) and rs3_val==fnorm(0x7e3b4dfe) | Mask on extra bits ---> 000000000100000000000
    ? 'fs1 == 0 and fe1 == 0xfd and fm1 == 0x42d924 and fs2 == 1 and fe2 == 0x7f and
      fm2 == 0x30e83a and fs3 == 0 and fe3 == 0xfe and fm3 == 0x06a60a and rm_val
      == 3  #nosat'
    : 1 #  rs1_val==fnorm(0x7ec2d924) and rs2_val==fnorm(0xbfb0e83a) and rs3_val==fnorm(0x7f06a60a) | Mask on extra bits ---> 000000000010000000000
    ? 'fs1 == 0 and fe1 == 0xfa and fm1 == 0x5b67a0 and fs2 == 1 and fe2 == 0x82 and
      fm2 == 0x4a57e5 and fs3 == 0 and fe3 == 0xfe and fm3 == 0x2d6b19 and rm_val
      == 3  #nosat'
    : 1 #  rs1_val==fnorm(0x7d5b67a0) and rs2_val==fnorm(0xc14a57e5) and rs3_val==fnorm(0x7f2d6b19) | Mask on extra bits ---> 000000000001000000000
    ? 'fs1 == 0 and fe1 == 0xfd and fm1 == 0x4b074e and fs2 == 1 and fe2 == 0x7e and
      fm2 == 0x76d5a9 and fs3 == 0 and fe3 == 0xfd and fm3 == 0x43c279 and rm_val
      == 3  #nosat'
    : 1 #  rs1_val==fnorm(0x7ecb074e) and rs2_val==fnorm(0xbf76d5a9) and rs3_val==fnorm(0x7ec3c279) | Mask on extra bits ---> 000000000000100000000
    ? 'fs1 == 0 and fe1 == 0xfc and fm1 == 0x17cb34 and fs2 == 1 and fe2 == 0x7e and
      fm2 == 0x427de0 and fs3 == 0 and fe3 == 0xfb and fm3 == 0x66a542 and rm_val
      == 3  #nosat'
    : 1 #  rs1_val==fnorm(0x7e17cb34) and rs2_val==fnorm(0xbf427de0) and rs3_val==fnorm(0x7de6a542) | Mask on extra bits ---> 000000000000010000000
    ? 'fs1 == 0 and fe1 == 0xfe and fm1 == 0x21f35d and fs2 == 1 and fe2 == 0x7e and
      fm2 == 0x18d959 and fs3 == 0 and fe3 == 0xfd and fm3 == 0x4163ff and rm_val
      == 3  #nosat'
    : 1 #  rs1_val==fnorm(0x7f21f35d) and rs2_val==fnorm(0xbf18d959) and rs3_val==fnorm(0x7ec163ff) | Mask on extra bits ---> 000000000000001000000
    ? 'fs1 == 0 and fe1 == 0xfe and fm1 == 0x06cfd9 and fs2 == 1 and fe2 == 0x7f and
      fm2 == 0x2d2ef6 and fs3 == 0 and fe3 == 0xfe and fm3 == 0x366662 and rm_val
      == 3  #nosat'
    : 1 #  rs1_val==fnorm(0x7f06cfd9) and rs2_val==fnorm(0xbfad2ef6) and rs3_val==fnorm(0x7f366662) | Mask on extra bits ---> 000000000000000100000
    ? 'fs1 == 0 and fe1 == 0xfb and fm1 == 0x15f05d and fs2 == 1 and fe2 == 0x81 and
      fm2 == 0x62402e and fs3 == 0 and fe3 == 0xfe and fm3 == 0x0483c9 and rm_val
      == 3  #nosat'
    : 1 #  rs1_val==fnorm(0x7d95f05d) and rs2_val==fnorm(0xc0e2402e) and rs3_val==fnorm(0x7f0483c9) | Mask on extra bits ---> 000000000000000010000
    ? 'fs1 == 0 and fe1 == 0xfb and fm1 == 0x4f529d and fs2 == 1 and fe2 == 0x81 and
      fm2 == 0x3532e8 and fs3 == 0 and fe3 == 0xfe and fm3 == 0x12bea4 and rm_val
      == 3  #nosat'
    : 1 #  rs1_val==fnorm(0x7dcf529d) and rs2_val==fnorm(0xc0b532e8) and rs3_val==fnorm(0x7f12bea4) | Mask on extra bits ---> 000000000000000001000
    ? 'fs1 == 0 and fe1 == 0xfd and fm1 == 0x08f8b6 and fs2 == 1 and fe2 == 0x80 and
      fm2 == 0x1d8c50 and fs3 == 0 and fe3 == 0xfe and fm3 == 0x289736 and rm_val
      == 3  #nosat'
    : 1 #  rs1_val==fnorm(0x7e88f8b6) and rs2_val==fnorm(0xc01d8c50) and rs3_val==fnorm(0x7f289736) | Mask on extra bits ---> 000000000000000000100
    ? 'fs1 == 0 and fe1 == 0xfe and fm1 == 0x2924ed and fs2 == 1 and fe2 == 0x7d and
      fm2 == 0x260466 and fs3 == 0 and fe3 == 0xfc and fm3 == 0x5b61b5 and rm_val
      == 3  #nosat'
    : 1 #  rs1_val==fnorm(0x7f2924ed) and rs2_val==fnorm(0xbea60466) and rs3_val==fnorm(0x7e5b61b5) | Mask on extra bits ---> 000000000000000000010
    ? 'fs1 == 0 and fe1 == 0xfd and fm1 == 0x5e5241 and fs2 == 1 and fe2 == 0x7f and
      fm2 == 0x212887 and fs3 == 0 and fe3 == 0xfe and fm3 == 0x0bf4ed and rm_val
      == 3  #nosat'
    : 1 #  rs1_val==fnorm(0x7ede5241) and rs2_val==fnorm(0xbfa12887) and rs3_val==fnorm(0x7f0bf4ed) | Mask on extra bits ---> 000000000000000000001
    ? 'fs1 == 0 and fe1 == 0xfc and fm1 == 0x14e13e and fs2 == 1 and fe2 == 0x81 and
      fm2 == 0x1c2a84 and fs3 == 0 and fe3 == 0xfe and fm3 == 0x35a3f8 and rm_val
      == 3  #nosat'
    : 1 #  rs1_val==fnorm(0x7e14e13e) and rs2_val==fnorm(0xc09c2a84) and rs3_val==fnorm(0x7f35a3f8) | Mask on extra bits ---> 010000000000000000000
    ? 'fs1 == 0 and fe1 == 0xfe and fm1 == 0x35a451 and fs2 == 1 and fe2 == 0x7e and
      fm2 == 0x043b82 and fs3 == 0 and fe3 == 0xfd and fm3 == 0x3ba5e6 and rm_val
      == 3  #nosat'
    : 1 #  rs1_val==fnorm(0x7f35a451) and rs2_val==fnorm(0xbf043b82) and rs3_val==fnorm(0x7ebba5e6) | Mask on extra bits ---> 001000000000000000000
    ? 'fs1 == 0 and fe1 == 0xfb and fm1 == 0x5a52ec and fs2 == 1 and fe2 == 0x7d and
      fm2 == 0x67e1c6 and fs3 == 0 and fe3 == 0xfa and fm3 == 0x45c160 and rm_val
      == 3  #nosat'
    : 1 #  rs1_val==fnorm(0x7dda52ec) and rs2_val==fnorm(0xbee7e1c6) and rs3_val==fnorm(0x7d45c160) | Mask on extra bits ---> 000100000000000000000
    ? 'fs1 == 0 and fe1 == 0xfe and fm1 == 0x2d1061 and fs2 == 1 and fe2 == 0x7e and
      fm2 == 0x25299a and fs3 == 0 and fe3 == 0xfd and fm3 == 0x5f4f5d and rm_val
      == 3  #nosat'
    : 1 #  rs1_val==fnorm(0x7f2d1061) and rs2_val==fnorm(0xbf25299a) and rs3_val==fnorm(0x7edf4f5d) | Mask on extra bits ---> 000010000000000000000
    ? 'fs1 == 0 and fe1 == 0xfd and fm1 == 0x3f1227 and fs2 == 1 and fe2 == 0x7f and
      fm2 == 0x27232f and fs3 == 0 and fe3 == 0xfd and fm3 == 0x797e34 and rm_val
      == 3  #nosat'
    : 1 #  rs1_val==fnorm(0x7ebf1227) and rs2_val==fnorm(0xbfa7232f) and rs3_val==fnorm(0x7ef97e34) | Mask on extra bits ---> 000001000000000000000
    ? 'fs1 == 0 and fe1 == 0xfd and fm1 == 0x01f5dd and fs2 == 1 and fe2 == 0x80 and
      fm2 == 0x02ba3e and fs3 == 0 and fe3 == 0xfe and fm3 == 0x04bacd and rm_val
      == 3  #nosat'
    : 1 #  rs1_val==fnorm(0x7e81f5dd) and rs2_val==fnorm(0xc002ba3e) and rs3_val==fnorm(0x7f04bacd) | Mask on extra bits ---> 000000100000000000000
    ? 'fs1 == 0 and fe1 == 0xfd and fm1 == 0x10d8c5 and fs2 == 1 and fe2 == 0x7f and
      fm2 == 0x603fc7 and fs3 == 0 and fe3 == 0xfd and fm3 == 0x7dc386 and rm_val
      == 3  #nosat'
    : 1 #  rs1_val==fnorm(0x7e90d8c5) and rs2_val==fnorm(0xbfe03fc7) and rs3_val==fnorm(0x7efdc386) | Mask on extra bits ---> 000000010000000000000
    ? 'fs1 == 0 and fe1 == 0xfa and fm1 == 0x41cef4 and fs2 == 1 and fe2 == 0x82 and
      fm2 == 0x1d4815 and fs3 == 0 and fe3 == 0xfd and fm3 == 0x6e24fd and rm_val
      == 3  #nosat'
    : 1 #  rs1_val==fnorm(0x7d41cef4) and rs2_val==fnorm(0xc11d4815) and rs3_val==fnorm(0x7eee24fd) | Mask on extra bits ---> 000000001000000000000
    ? 'fs1 == 0 and fe1 == 0xfc and fm1 == 0x466afe and fs2 == 1 and fe2 == 0x80 and
      fm2 == 0x75a3a7 and fs3 == 0 and fe3 == 0xfe and fm3 == 0x3e633d and rm_val
      == 3  #nosat'
    : 1 #  rs1_val==fnorm(0x7e466afe) and rs2_val==fnorm(0xc075a3a7) and rs3_val==fnorm(0x7f3e633d) | Mask on extra bits ---> 000000000100000000000
    ? 'fs1 == 0 and fe1 == 0xfd and fm1 == 0x1190a0 and fs2 == 1 and fe2 == 0x7d and
      fm2 == 0x199c78 and fs3 == 0 and fe3 == 0xfb and fm3 == 0x2eb0d1 and rm_val
      == 3  #nosat'
    : 1 #  rs1_val==fnorm(0x7e9190a0) and rs2_val==fnorm(0xbe999c78) and rs3_val==fnorm(0x7daeb0d1) | Mask on extra bits ---> 000000000010000000000
    ? 'fs1 == 0 and fe1 == 0xfd and fm1 == 0x1c8afc and fs2 == 1 and fe2 == 0x80 and
      fm2 == 0x0d9df0 and fs3 == 0 and fe3 == 0xfe and fm3 == 0x2d3243 and rm_val
      == 3  #nosat'
    : 1 #  rs1_val==fnorm(0x7e9c8afc) and rs2_val==fnorm(0xc00d9df0) and rs3_val==fnorm(0x7f2d3243) | Mask on extra bits ---> 000000000001000000000
    ? 'fs1 == 0 and fe1 == 0xf8 and fm1 == 0x75a735 and fs2 == 1 and fe2 == 0x82 and
      fm2 == 0x5581bc and fs3 == 0 and fe3 == 0xfc and fm3 == 0x4ce09d and rm_val
      == 3  #nosat'
    : 1 #  rs1_val==fnorm(0x7c75a735) and rs2_val==fnorm(0xc15581bc) and rs3_val==fnorm(0x7e4ce09d) | Mask on extra bits ---> 000000000000100000000
    ? 'fs1 == 0 and fe1 == 0xfb and fm1 == 0x0992a2 and fs2 == 1 and fe2 == 0x80 and
      fm2 == 0x275676 and fs3 == 0 and fe3 == 0xfc and fm3 == 0x33da3d and rm_val
      == 3  #nosat'
    : 1 #  rs1_val==fnorm(0x7d8992a2) and rs2_val==fnorm(0xc0275676) and rs3_val==fnorm(0x7e33da3d) | Mask on extra bits ---> 000000000000010000000
    ? 'fs1 == 0 and fe1 == 0xfc and fm1 == 0x13a21e and fs2 == 1 and fe2 == 0x81 and
      fm2 == 0x0a4105 and fs3 == 0 and fe3 == 0xfe and fm3 == 0x1f75c7 and rm_val
      == 3  #nosat'
    : 1 #  rs1_val==fnorm(0x7e13a21e) and rs2_val==fnorm(0xc08a4105) and rs3_val==fnorm(0x7f1f75c7) | Mask on extra bits ---> 000000000000001000000
    ? 'fs1 == 0 and fe1 == 0xfd and fm1 == 0x2e00ba and fs2 == 1 and fe2 == 0x7f and
      fm2 == 0x0bd260 and fs3 == 0 and fe3 == 0xfd and fm3 == 0x3e12c6 and rm_val
      == 3  #nosat'
    : 1 #  rs1_val==fnorm(0x7eae00ba) and rs2_val==fnorm(0xbf8bd260) and rs3_val==fnorm(0x7ebe12c6) | Mask on extra bits ---> 000000000000000100000
    ? 'fs1 == 0 and fe1 == 0xfd and fm1 == 0x767a3b and fs2 == 1 and fe2 == 0x7e and
      fm2 == 0x371e70 and fs3 == 0 and fe3 == 0xfd and fm3 == 0x304eaf and rm_val
      == 3  #nosat'
    : 1 #  rs1_val==fnorm(0x7ef67a3b) and rs2_val==fnorm(0xbf371e70) and rs3_val==fnorm(0x7eb04eaf) | Mask on extra bits ---> 000000000000000010000
    ? 'fs1 == 0 and fe1 == 0xfe and fm1 == 0x3fd529 and fs2 == 1 and fe2 == 0x7c and
      fm2 == 0x569c36 and fs3 == 0 and fe3 == 0xfc and fm3 == 0x20d13f and rm_val
      == 3  #nosat'
    : 1 #  rs1_val==fnorm(0x7f3fd529) and rs2_val==fnorm(0xbe569c36) and rs3_val==fnorm(0x7e20d13f) | Mask on extra bits ---> 000000000000000001000
    ? 'fs1 == 0 and fe1 == 0xfb and fm1 == 0x02d835 and fs2 == 1 and fe2 == 0x80 and
      fm2 == 0x39e73f and fs3 == 0 and fe3 == 0xfc and fm3 == 0x3e08e0 and rm_val
      == 3  #nosat'
    : 1 #  rs1_val==fnorm(0x7d82d835) and rs2_val==fnorm(0xc039e73f) and rs3_val==fnorm(0x7e3e08e0) | Mask on extra bits ---> 000000000000000000100
    ? 'fs1 == 0 and fe1 == 0xfb and fm1 == 0x420b54 and fs2 == 1 and fe2 == 0x81 and
      fm2 == 0x328842 and fs3 == 0 and fe3 == 0xfe and fm3 == 0x075328 and rm_val
      == 3  #nosat'
    : 1 #  rs1_val==fnorm(0x7dc20b54) and rs2_val==fnorm(0xc0b28842) and rs3_val==fnorm(0x7f075328) | Mask on extra bits ---> 000000000000000000010
    coverage: 160/160
  total_coverage: 301/301
