---
fmadd_b2:
  config:
  - check ISA:=regex(.*I.*F.*Zfh.*)
  mnemonics:
    fmadd.h: 128
    coverage: 1/1
  op_comb:
    rd == rs2 == rs3 != rs1: 1
    rs1 != rs2 and rs1 != rd and rs1 != rs3 and rs2 != rs3 and rs2 != rd and rs3 != rd: 117
    rs1 == rd != rs2 and rs1 == rd != rs3 and rs3 != rs2: 1
    rs1 == rd == rs3 != rs2: 1
    rs1 == rs2 != rs3 and rs1 == rs2 != rd and rd != rs3: 1
    rs1 == rs2 == rd != rs3: 1
    rs1 == rs2 == rs3 != rd: 1
    rs1 == rs2 == rs3 == rd: 1
    rs1 == rs3 != rs2 and rs1 == rs3 != rd and rd != rs2: 1
    rs2 == rd != rs1 and rs2 == rd != rs3 and rs3 != rs1: 1
    rs2 == rs3 != rs1 and rs2 == rs3 != rd and rd != rs1: 1
    rs3 == rd != rs1 and rs3 == rd != rs2 and rs2 != rs1: 1
    coverage: 12/12
  rd:
    f0: 1
    f1: 1
    f10: 1
    f11: 1
    f12: 1
    f13: 1
    f14: 1
    f15: 1
    f16: 1
    f17: 1
    f18: 1
    f19: 1
    f2: 1
    f20: 1
    f21: 1
    f22: 1
    f23: 1
    f24: 1
    f25: 1
    f26: 1
    f27: 1
    f28: 1
    f29: 1
    f3: 1
    f30: 1
    f31: 97
    f4: 1
    f5: 1
    f6: 1
    f7: 1
    f8: 1
    f9: 1
    coverage: 32/32
  rs1:
    f0: 1
    f1: 1
    f10: 1
    f11: 1
    f12: 1
    f13: 1
    f14: 1
    f15: 1
    f16: 1
    f17: 1
    f18: 1
    f19: 1
    f2: 1
    f20: 1
    f21: 1
    f22: 1
    f23: 1
    f24: 1
    f25: 1
    f26: 1
    f27: 1
    f28: 1
    f29: 1
    f3: 1
    f30: 94
    f31: 4
    f4: 1
    f5: 1
    f6: 1
    f7: 1
    f8: 1
    f9: 1
    coverage: 32/32
  rs2:
    f0: 1
    f1: 1
    f10: 1
    f11: 1
    f12: 1
    f13: 1
    f14: 1
    f15: 1
    f16: 1
    f17: 1
    f18: 1
    f19: 1
    f2: 1
    f20: 1
    f21: 1
    f22: 1
    f23: 1
    f24: 1
    f25: 1
    f26: 1
    f27: 1
    f28: 1
    f29: 91
    f3: 1
    f30: 7
    f31: 1
    f4: 1
    f5: 1
    f6: 1
    f7: 1
    f8: 1
    f9: 1
    coverage: 32/32
  rs3:
    f0: 1
    f1: 1
    f10: 1
    f11: 1
    f12: 1
    f13: 1
    f14: 1
    f15: 1
    f16: 1
    f17: 1
    f18: 1
    f19: 1
    f2: 1
    f20: 1
    f21: 1
    f22: 1
    f23: 1
    f24: 1
    f25: 1
    f26: 1
    f27: 1
    f28: 88
    f29: 10
    f3: 1
    f30: 1
    f31: 1
    f4: 1
    f5: 1
    f6: 1
    f7: 1
    f8: 1
    f9: 1
    coverage: 32/32
  val_comb:
    ? 'fs1 == 0 and fe1 == 0x00 and fm1 == 0x050 and fs2 == 1 and fe2 == 0x0d and
      fm2 == 0x266 and fs3 == 0 and fe3 == 0x00 and fm3 == 0x021 and fcsr == 0x0 and
      rm_val == 7  and rs1_nan_prefix == 0xffff and rs2_nan_prefix == 0xffff and rs3_nan_prefix
      == 0xffff  #nosat'
    : 1
    ? 'fs1 == 0 and fe1 == 0x00 and fm1 == 0x05f and fs2 == 1 and fe2 == 0x0d and
      fm2 == 0x369 and fs3 == 0 and fe3 == 0x00 and fm3 == 0x02e and fcsr == 0x0 and
      rm_val == 7  and rs1_nan_prefix == 0xffff and rs2_nan_prefix == 0xffff and rs3_nan_prefix
      == 0xffff  #nosat'
    : 1
    ? 'fs1 == 0 and fe1 == 0x00 and fm1 == 0x059 and fs2 == 1 and fe2 == 0x0f and
      fm2 == 0x017 and fs3 == 0 and fe3 == 0x00 and fm3 == 0x05f and fcsr == 0x0 and
      rm_val == 7  and rs1_nan_prefix == 0xffff and rs2_nan_prefix == 0xffff and rs3_nan_prefix
      == 0xffff  #nosat'
    : 1
    ? 'fs1 == 0 and fe1 == 0x00 and fm1 == 0x054 and fs2 == 1 and fe2 == 0x0e and
      fm2 == 0x1b6 and fs3 == 0 and fe3 == 0x00 and fm3 == 0x044 and fcsr == 0x0 and
      rm_val == 7  and rs1_nan_prefix == 0xffff and rs2_nan_prefix == 0xffff and rs3_nan_prefix
      == 0xffff  #nosat'
    : 1
    ? 'fs1 == 0 and fe1 == 0x00 and fm1 == 0x004 and fs2 == 1 and fe2 == 0x12 and
      fm2 == 0x180 and fs3 == 0 and fe3 == 0x00 and fm3 == 0x03c and fcsr == 0x0 and
      rm_val == 7  and rs1_nan_prefix == 0xffff and rs2_nan_prefix == 0xffff and rs3_nan_prefix
      == 0xffff  #nosat'
    : 1
    ? 'fs1 == 0 and fe1 == 0x00 and fm1 == 0x020 and fs2 == 1 and fe2 == 0x0f and
      fm2 == 0x280 and fs3 == 0 and fe3 == 0x00 and fm3 == 0x054 and fcsr == 0x0 and
      rm_val == 7  and rs1_nan_prefix == 0xffff and rs2_nan_prefix == 0xffff and rs3_nan_prefix
      == 0xffff  #nosat'
    : 1
    ? 'fs1 == 0 and fe1 == 0x00 and fm1 == 0x007 and fs2 == 0 and fe2 == 0x11 and
      fm2 == 0x224 and fs3 == 0 and fe3 == 0x00 and fm3 == 0x015 and fcsr == 0x0 and
      rm_val == 7  and rs1_nan_prefix == 0xffff and rs2_nan_prefix == 0xffff and rs3_nan_prefix
      == 0xffff  #nosat'
    : 1
    ? 'fs1 == 0 and fe1 == 0x00 and fm1 == 0x00f and fs2 == 0 and fe2 == 0x11 and
      fm2 == 0x155 and fs3 == 0 and fe3 == 0x00 and fm3 == 0x030 and fcsr == 0x0 and
      rm_val == 7  and rs1_nan_prefix == 0xffff and rs2_nan_prefix == 0xffff and rs3_nan_prefix
      == 0xffff  #nosat'
    : 1
    ? 'fs1 == 0 and fe1 == 0x00 and fm1 == 0x03d and fs2 == 0 and fe2 == 0x10 and
      fm2 == 0x358 and fs3 == 0 and fe3 == 0x00 and fm3 == 0x020 and fcsr == 0x0 and
      rm_val == 7  and rs1_nan_prefix == 0xffff and rs2_nan_prefix == 0xffff and rs3_nan_prefix
      == 0xffff  #nosat'
    : 1
    ? 'fs1 == 0 and fe1 == 0x00 and fm1 == 0x031 and fs2 == 0 and fe2 == 0x12 and
      fm2 == 0x082 and fs3 == 0 and fe3 == 0x00 and fm3 == 0x046 and fcsr == 0x0 and
      rm_val == 7  and rs1_nan_prefix == 0xffff and rs2_nan_prefix == 0xffff and rs3_nan_prefix
      == 0xffff  #nosat'
    : 1
    ? 'fs1 == 0 and fe1 == 0x00 and fm1 == 0x00e and fs2 == 1 and fe2 == 0x11 and
      fm2 == 0x15b and fs3 == 0 and fe3 == 0x00 and fm3 == 0x04a and fcsr == 0x0 and
      rm_val == 7  and rs1_nan_prefix == 0xffff and rs2_nan_prefix == 0xffff and rs3_nan_prefix
      == 0xffff  #nosat'
    : 1
    ? 'fs1 == 0 and fe1 == 0x00 and fm1 == 0x020 and fs2 == 1 and fe2 == 0x0c and
      fm2 == 0x000 and fs3 == 0 and fe3 == 0x00 and fm3 == 0x002 and fcsr == 0x0 and
      rm_val == 7  and rs1_nan_prefix == 0xffff and rs2_nan_prefix == 0xffff and rs3_nan_prefix
      == 0xffff  #nosat'
    : 1
    ? 'fs1 == 0 and fe1 == 0x00 and fm1 == 0x05e and fs2 == 1 and fe2 == 0x0d and
      fm2 == 0x172 and fs3 == 0 and fe3 == 0x00 and fm3 == 0x01c and fcsr == 0x0 and
      rm_val == 7  and rs1_nan_prefix == 0xffff and rs2_nan_prefix == 0xffff and rs3_nan_prefix
      == 0xffff  #nosat'
    : 1
    ? 'fs1 == 0 and fe1 == 0x00 and fm1 == 0x035 and fs2 == 1 and fe2 == 0x0e and
      fm2 == 0x2a4 and fs3 == 0 and fe3 == 0x00 and fm3 == 0x024 and fcsr == 0x0 and
      rm_val == 7  and rs1_nan_prefix == 0xffff and rs2_nan_prefix == 0xffff and rs3_nan_prefix
      == 0xffff  #nosat'
    : 1
    ? 'fs1 == 0 and fe1 == 0x00 and fm1 == 0x018 and fs2 == 1 and fe2 == 0x11 and
      fm2 == 0x0ca and fs3 == 0 and fe3 == 0x00 and fm3 == 0x063 and fcsr == 0x0 and
      rm_val == 7  and rs1_nan_prefix == 0xffff and rs2_nan_prefix == 0xffff and rs3_nan_prefix
      == 0xffff  #nosat'
    : 1
    ? 'fs1 == 0 and fe1 == 0x00 and fm1 == 0x032 and fs2 == 1 and fe2 == 0x0f and
      fm2 == 0x03d and fs3 == 0 and fe3 == 0x00 and fm3 == 0x015 and fcsr == 0x0 and
      rm_val == 7  and rs1_nan_prefix == 0xffff and rs2_nan_prefix == 0xffff and rs3_nan_prefix
      == 0xffff  #nosat'
    : 1
    ? 'fs1 == 0 and fe1 == 0x00 and fm1 == 0x062 and fs2 == 1 and fe2 == 0x0e and
      fm2 == 0x20a and fs3 == 0 and fe3 == 0x00 and fm3 == 0x00a and fcsr == 0x0 and
      rm_val == 7  and rs1_nan_prefix == 0xffff and rs2_nan_prefix == 0xffff and rs3_nan_prefix
      == 0xffff  #nosat'
    : 1
    ? 'fs1 == 0 and fe1 == 0x00 and fm1 == 0x012 and fs2 == 1 and fe2 == 0x12 and
      fm2 == 0x1c7 and fs3 == 0 and fe3 == 0x00 and fm3 == 0x050 and fcsr == 0x0 and
      rm_val == 7  and rs1_nan_prefix == 0xffff and rs2_nan_prefix == 0xffff and rs3_nan_prefix
      == 0xffff  #nosat'
    : 1
    ? 'fs1 == 0 and fe1 == 0x00 and fm1 == 0x050 and fs2 == 1 and fe2 == 0x10 and
      fm2 == 0x3d3 and fs3 == 0 and fe3 == 0x00 and fm3 == 0x039 and fcsr == 0x0 and
      rm_val == 7  and rs1_nan_prefix == 0xffff and rs2_nan_prefix == 0xffff and rs3_nan_prefix
      == 0xffff  #nosat'
    : 1
    ? 'fs1 == 0 and fe1 == 0x00 and fm1 == 0x011 and fs2 == 1 and fe2 == 0x13 and
      fm2 == 0x3c7 and fs3 == 0 and fe3 == 0x00 and fm3 == 0x011 and fcsr == 0x0 and
      rm_val == 7  and rs1_nan_prefix == 0xffff and rs2_nan_prefix == 0xffff and rs3_nan_prefix
      == 0xffff  #nosat'
    : 1
    ? 'fs1 == 0 and fe1 == 0x0f and fm1 == 0x001 and fs2 == 0 and fe2 == 0x00 and
      fm2 == 0x0f0 and fs3 == 0 and fe3 == 0x0f and fm3 == 0x001 and fcsr == 0x0 and
      rm_val == 7  and rs1_nan_prefix == 0xffff and rs2_nan_prefix == 0xffff and rs3_nan_prefix
      == 0xffff  #nosat'
    : 1
    ? 'fs1 == 0 and fe1 == 0x0f and fm1 == 0x01b and fs2 == 1 and fe2 == 0x09 and
      fm2 == 0x255 and fs3 == 0 and fe3 == 0x0f and fm3 == 0x01c and fcsr == 0x0 and
      rm_val == 7  and rs1_nan_prefix == 0xffff and rs2_nan_prefix == 0xffff and rs3_nan_prefix
      == 0xffff  #nosat'
    : 1
    ? 'fs1 == 0 and fe1 == 0x0f and fm1 == 0x016 and fs2 == 1 and fe2 == 0x09 and
      fm2 == 0x067 and fs3 == 0 and fe3 == 0x0f and fm3 == 0x016 and fcsr == 0x0 and
      rm_val == 7  and rs1_nan_prefix == 0xffff and rs2_nan_prefix == 0xffff and rs3_nan_prefix
      == 0xffff  #nosat'
    : 1
    ? 'fs1 == 0 and fe1 == 0x0f and fm1 == 0x026 and fs2 == 1 and fe2 == 0x09 and
      fm2 == 0x3f4 and fs3 == 0 and fe3 == 0x0f and fm3 == 0x029 and fcsr == 0x0 and
      rm_val == 7  and rs1_nan_prefix == 0xffff and rs2_nan_prefix == 0xffff and rs3_nan_prefix
      == 0xffff  #nosat'
    : 1
    ? 'fs1 == 0 and fe1 == 0x0f and fm1 == 0x01a and fs2 == 1 and fe2 == 0x0a and
      fm2 == 0x295 and fs3 == 0 and fe3 == 0x0f and fm3 == 0x046 and fcsr == 0x0 and
      rm_val == 7  and rs1_nan_prefix == 0xffff and rs2_nan_prefix == 0xffff and rs3_nan_prefix
      == 0xffff  #nosat'
    : 1
    ? 'fs1 == 0 and fe1 == 0x0f and fm1 == 0x057 and fs2 == 1 and fe2 == 0x0a and
      fm2 == 0x1a5 and fs3 == 0 and fe3 == 0x0f and fm3 == 0x051 and fcsr == 0x0 and
      rm_val == 7  and rs1_nan_prefix == 0xffff and rs2_nan_prefix == 0xffff and rs3_nan_prefix
      == 0xffff  #nosat'
    : 1
    ? 'fs1 == 0 and fe1 == 0x0f and fm1 == 0x01b and fs2 == 0 and fe2 == 0x0a and
      fm2 == 0x0df and fs3 == 0 and fe3 == 0x0f and fm3 == 0x018 and fcsr == 0x0 and
      rm_val == 7  and rs1_nan_prefix == 0xffff and rs2_nan_prefix == 0xffff and rs3_nan_prefix
      == 0xffff  #nosat'
    : 1
    ? 'fs1 == 0 and fe1 == 0x0f and fm1 == 0x059 and fs2 == 0 and fe2 == 0x0b and
      fm2 == 0x1dd and fs3 == 0 and fe3 == 0x0f and fm3 == 0x01a and fcsr == 0x0 and
      rm_val == 7  and rs1_nan_prefix == 0xffff and rs2_nan_prefix == 0xffff and rs3_nan_prefix
      == 0xffff  #nosat'
    : 1
    ? 'fs1 == 0 and fe1 == 0x0f and fm1 == 0x032 and fs2 == 0 and fe2 == 0x0c and
      fm2 == 0x277 and fs3 == 0 and fe3 == 0x0f and fm3 == 0x027 and fcsr == 0x0 and
      rm_val == 7  and rs1_nan_prefix == 0xffff and rs2_nan_prefix == 0xffff and rs3_nan_prefix
      == 0xffff  #nosat'
    : 1
    ? 'fs1 == 0 and fe1 == 0x0f and fm1 == 0x003 and fs2 == 0 and fe2 == 0x0d and
      fm2 == 0x33e and fs3 == 0 and fe3 == 0x0f and fm3 == 0x02f and fcsr == 0x0 and
      rm_val == 7  and rs1_nan_prefix == 0xffff and rs2_nan_prefix == 0xffff and rs3_nan_prefix
      == 0xffff  #nosat'
    : 1
    ? 'fs1 == 0 and fe1 == 0x0f and fm1 == 0x036 and fs2 == 1 and fe2 == 0x0f and
      fm2 == 0x3af and fs3 == 0 and fe3 == 0x0f and fm3 == 0x016 and fcsr == 0x0 and
      rm_val == 7  and rs1_nan_prefix == 0xffff and rs2_nan_prefix == 0xffff and rs3_nan_prefix
      == 0xffff  #nosat'
    : 1
    ? 'fs1 == 0 and fe1 == 0x0f and fm1 == 0x013 and fs2 == 1 and fe2 == 0x0f and
      fm2 == 0x3fe and fs3 == 0 and fe3 == 0x0f and fm3 == 0x022 and fcsr == 0x0 and
      rm_val == 7  and rs1_nan_prefix == 0xffff and rs2_nan_prefix == 0xffff and rs3_nan_prefix
      == 0xffff  #nosat'
    : 1
    ? 'fs1 == 0 and fe1 == 0x0f and fm1 == 0x009 and fs2 == 1 and fe2 == 0x10 and
      fm2 == 0x00e and fs3 == 0 and fe3 == 0x0f and fm3 == 0x02b and fcsr == 0x0 and
      rm_val == 7  and rs1_nan_prefix == 0xffff and rs2_nan_prefix == 0xffff and rs3_nan_prefix
      == 0xffff  #nosat'
    : 1
    ? 'fs1 == 0 and fe1 == 0x0f and fm1 == 0x027 and fs2 == 1 and fe2 == 0x10 and
      fm2 == 0x003 and fs3 == 0 and fe3 == 0x0f and fm3 == 0x04e and fcsr == 0x0 and
      rm_val == 7  and rs1_nan_prefix == 0xffff and rs2_nan_prefix == 0xffff and rs3_nan_prefix
      == 0xffff  #nosat'
    : 1
    ? 'fs1 == 0 and fe1 == 0x0f and fm1 == 0x04c and fs2 == 1 and fe2 == 0x0f and
      fm2 == 0x382 and fs3 == 0 and fe3 == 0x0f and fm3 == 0x001 and fcsr == 0x0 and
      rm_val == 7  and rs1_nan_prefix == 0xffff and rs2_nan_prefix == 0xffff and rs3_nan_prefix
      == 0xffff  #nosat'
    : 1
    ? 'fs1 == 0 and fe1 == 0x0f and fm1 == 0x04d and fs2 == 1 and fe2 == 0x0f and
      fm2 == 0x3df and fs3 == 0 and fe3 == 0x0f and fm3 == 0x057 and fcsr == 0x0 and
      rm_val == 7  and rs1_nan_prefix == 0xffff and rs2_nan_prefix == 0xffff and rs3_nan_prefix
      == 0xffff  #nosat'
    : 1
    ? 'fs1 == 0 and fe1 == 0x0f and fm1 == 0x05b and fs2 == 1 and fe2 == 0x0f and
      fm2 == 0x3bc and fs3 == 0 and fe3 == 0x0f and fm3 == 0x02c and fcsr == 0x0 and
      rm_val == 7  and rs1_nan_prefix == 0xffff and rs2_nan_prefix == 0xffff and rs3_nan_prefix
      == 0xffff  #nosat'
    : 1
    ? 'fs1 == 0 and fe1 == 0x0f and fm1 == 0x009 and fs2 == 1 and fe2 == 0x10 and
      fm2 == 0x04a and fs3 == 0 and fe3 == 0x0f and fm3 == 0x028 and fcsr == 0x0 and
      rm_val == 7  and rs1_nan_prefix == 0xffff and rs2_nan_prefix == 0xffff and rs3_nan_prefix
      == 0xffff  #nosat'
    : 1
    ? 'fs1 == 0 and fe1 == 0x0f and fm1 == 0x02e and fs2 == 1 and fe2 == 0x10 and
      fm2 == 0x061 and fs3 == 0 and fe3 == 0x0f and fm3 == 0x028 and fcsr == 0x0 and
      rm_val == 7  and rs1_nan_prefix == 0xffff and rs2_nan_prefix == 0xffff and rs3_nan_prefix
      == 0xffff  #nosat'
    : 1
    ? 'fs1 == 0 and fe1 == 0x0f and fm1 == 0x03e and fs2 == 1 and fe2 == 0x10 and
      fm2 == 0x0e1 and fs3 == 0 and fe3 == 0x0f and fm3 == 0x05a and fcsr == 0x0 and
      rm_val == 7  and rs1_nan_prefix == 0xffff and rs2_nan_prefix == 0xffff and rs3_nan_prefix
      == 0xffff  #nosat'
    : 1
    ? 'fs1 == 0 and fe1 == 0x00 and fm1 == 0x029 and fs2 == 1 and fe2 == 0x0e and
      fm2 == 0x07c and fs3 == 0 and fe3 == 0x00 and fm3 == 0x018 and fcsr == 0x0 and
      rm_val == 7  and rs1_nan_prefix == 0xffff and rs2_nan_prefix == 0xffff and rs3_nan_prefix
      == 0xffff  #nosat'
    : 1
    ? 'fs1 == 0 and fe1 == 0x00 and fm1 == 0x03e and fs2 == 1 and fe2 == 0x0e and
      fm2 == 0x37b and fs3 == 0 and fe3 == 0x00 and fm3 == 0x03d and fcsr == 0x0 and
      rm_val == 7  and rs1_nan_prefix == 0xffff and rs2_nan_prefix == 0xffff and rs3_nan_prefix
      == 0xffff  #nosat'
    : 1
    ? 'fs1 == 0 and fe1 == 0x00 and fm1 == 0x05b and fs2 == 1 and fe2 == 0x0c and
      fm2 == 0x254 and fs3 == 0 and fe3 == 0x00 and fm3 == 0x017 and fcsr == 0x0 and
      rm_val == 7  and rs1_nan_prefix == 0xffff and rs2_nan_prefix == 0xffff and rs3_nan_prefix
      == 0xffff  #nosat'
    : 1
    ? 'fs1 == 0 and fe1 == 0x00 and fm1 == 0x008 and fs2 == 1 and fe2 == 0x10 and
      fm2 == 0x200 and fs3 == 0 and fe3 == 0x00 and fm3 == 0x021 and fcsr == 0x0 and
      rm_val == 7  and rs1_nan_prefix == 0xffff and rs2_nan_prefix == 0xffff and rs3_nan_prefix
      == 0xffff  #nosat'
    : 1
    ? 'fs1 == 0 and fe1 == 0x00 and fm1 == 0x003 and fs2 == 1 and fe2 == 0x13 and
      fm2 == 0x295 and fs3 == 0 and fe3 == 0x00 and fm3 == 0x060 and fcsr == 0x0 and
      rm_val == 7  and rs1_nan_prefix == 0xffff and rs2_nan_prefix == 0xffff and rs3_nan_prefix
      == 0xffff  #nosat'
    : 1
    ? 'fs1 == 0 and fe1 == 0x00 and fm1 == 0x02e and fs2 == 1 and fe2 == 0x0d and
      fm2 == 0x29b and fs3 == 0 and fe3 == 0x00 and fm3 == 0x034 and fcsr == 0x0 and
      rm_val == 7  and rs1_nan_prefix == 0xffff and rs2_nan_prefix == 0xffff and rs3_nan_prefix
      == 0xffff  #nosat'
    : 1
    ? 'fs1 == 0 and fe1 == 0x00 and fm1 == 0x003 and fs2 == 1 and fe2 == 0x10 and
      fm2 == 0x000 and fs3 == 0 and fe3 == 0x00 and fm3 == 0x047 and fcsr == 0x0 and
      rm_val == 7  and rs1_nan_prefix == 0xffff and rs2_nan_prefix == 0xffff and rs3_nan_prefix
      == 0xffff  #nosat'
    : 1
    ? 'fs1 == 0 and fe1 == 0x00 and fm1 == 0x036 and fs2 == 0 and fe2 == 0x0f and
      fm2 == 0x212 and fs3 == 0 and fe3 == 0x00 and fm3 == 0x02f and fcsr == 0x0 and
      rm_val == 7  and rs1_nan_prefix == 0xffff and rs2_nan_prefix == 0xffff and rs3_nan_prefix
      == 0xffff  #nosat'
    : 1
    ? 'fs1 == 0 and fe1 == 0x00 and fm1 == 0x031 and fs2 == 0 and fe2 == 0x10 and
      fm2 == 0x36d and fs3 == 0 and fe3 == 0x00 and fm3 == 0x04b and fcsr == 0x0 and
      rm_val == 7  and rs1_nan_prefix == 0xffff and rs2_nan_prefix == 0xffff and rs3_nan_prefix
      == 0xffff  #nosat'
    : 1
    ? 'fs1 == 0 and fe1 == 0x00 and fm1 == 0x002 and fs2 == 0 and fe2 == 0x16 and
      fm2 == 0x31c and fs3 == 0 and fe3 == 0x00 and fm3 == 0x03a and fcsr == 0x0 and
      rm_val == 7  and rs1_nan_prefix == 0xffff and rs2_nan_prefix == 0xffff and rs3_nan_prefix
      == 0xffff  #nosat'
    : 1
    ? 'fs1 == 0 and fe1 == 0x00 and fm1 == 0x006 and fs2 == 1 and fe2 == 0x12 and
      fm2 == 0x3aa and fs3 == 0 and fe3 == 0x00 and fm3 == 0x05b and fcsr == 0x0 and
      rm_val == 7  and rs1_nan_prefix == 0xffff and rs2_nan_prefix == 0xffff and rs3_nan_prefix
      == 0xffff  #nosat'
    : 1
    ? 'fs1 == 0 and fe1 == 0x00 and fm1 == 0x018 and fs2 == 1 and fe2 == 0x10 and
      fm2 == 0x2ea and fs3 == 0 and fe3 == 0x00 and fm3 == 0x050 and fcsr == 0x0 and
      rm_val == 7  and rs1_nan_prefix == 0xffff and rs2_nan_prefix == 0xffff and rs3_nan_prefix
      == 0xffff  #nosat'
    : 1
    ? 'fs1 == 0 and fe1 == 0x00 and fm1 == 0x01a and fs2 == 1 and fe2 == 0x0e and
      fm2 == 0x276 and fs3 == 0 and fe3 == 0x00 and fm3 == 0x010 and fcsr == 0x0 and
      rm_val == 7  and rs1_nan_prefix == 0xffff and rs2_nan_prefix == 0xffff and rs3_nan_prefix
      == 0xffff  #nosat'
    : 1
    ? 'fs1 == 0 and fe1 == 0x00 and fm1 == 0x061 and fs2 == 1 and fe2 == 0x0d and
      fm2 == 0x2c3 and fs3 == 0 and fe3 == 0x00 and fm3 == 0x020 and fcsr == 0x0 and
      rm_val == 7  and rs1_nan_prefix == 0xffff and rs2_nan_prefix == 0xffff and rs3_nan_prefix
      == 0xffff  #nosat'
    : 1
    ? 'fs1 == 0 and fe1 == 0x00 and fm1 == 0x03c and fs2 == 1 and fe2 == 0x0f and
      fm2 == 0x022 and fs3 == 0 and fe3 == 0x00 and fm3 == 0x02d and fcsr == 0x0 and
      rm_val == 7  and rs1_nan_prefix == 0xffff and rs2_nan_prefix == 0xffff and rs3_nan_prefix
      == 0xffff  #nosat'
    : 1
    ? 'fs1 == 0 and fe1 == 0x00 and fm1 == 0x042 and fs2 == 1 and fe2 == 0x0f and
      fm2 == 0x0c9 and fs3 == 0 and fe3 == 0x00 and fm3 == 0x02e and fcsr == 0x0 and
      rm_val == 7  and rs1_nan_prefix == 0xffff and rs2_nan_prefix == 0xffff and rs3_nan_prefix
      == 0xffff  #nosat'
    : 1
    ? 'fs1 == 0 and fe1 == 0x00 and fm1 == 0x044 and fs2 == 1 and fe2 == 0x0f and
      fm2 == 0x1c3 and fs3 == 0 and fe3 == 0x00 and fm3 == 0x021 and fcsr == 0x0 and
      rm_val == 7  and rs1_nan_prefix == 0xffff and rs2_nan_prefix == 0xffff and rs3_nan_prefix
      == 0xffff  #nosat'
    : 1
    ? 'fs1 == 0 and fe1 == 0x00 and fm1 == 0x03c and fs2 == 1 and fe2 == 0x10 and
      fm2 == 0x0c4 and fs3 == 0 and fe3 == 0x00 and fm3 == 0x00e and fcsr == 0x0 and
      rm_val == 7  and rs1_nan_prefix == 0xffff and rs2_nan_prefix == 0xffff and rs3_nan_prefix
      == 0xffff  #nosat'
    : 1
    ? 'fs1 == 0 and fe1 == 0x00 and fm1 == 0x04c and fs2 == 1 and fe2 == 0x11 and
      fm2 == 0x0a5 and fs3 == 0 and fe3 == 0x00 and fm3 == 0x060 and fcsr == 0x0 and
      rm_val == 7  and rs1_nan_prefix == 0xffff and rs2_nan_prefix == 0xffff and rs3_nan_prefix
      == 0xffff  #nosat'
    : 1
    ? 'fs1 == 0 and fe1 == 0x00 and fm1 == 0x030 and fs2 == 1 and fe2 == 0x12 and
      fm2 == 0x1bd and fs3 == 0 and fe3 == 0x00 and fm3 == 0x026 and fcsr == 0x0 and
      rm_val == 7  and rs1_nan_prefix == 0xffff and rs2_nan_prefix == 0xffff and rs3_nan_prefix
      == 0xffff  #nosat'
    : 1
    ? 'fs1 == 0 and fe1 == 0x00 and fm1 == 0x005 and fs2 == 0 and fe2 == 0x16 and
      fm2 == 0x209 and fs3 == 0 and fe3 == 0x00 and fm3 == 0x038 and fcsr == 0x0 and
      rm_val == 7  and rs1_nan_prefix == 0xffff and rs2_nan_prefix == 0xffff and rs3_nan_prefix
      == 0xffff  #nosat'
    : 1
    ? 'fs1 == 0 and fe1 == 0x00 and fm1 == 0x00c and fs2 == 0 and fe2 == 0x15 and
      fm2 == 0x12d and fs3 == 0 and fe3 == 0x00 and fm3 == 0x01b and fcsr == 0x0 and
      rm_val == 7  and rs1_nan_prefix == 0xffff and rs2_nan_prefix == 0xffff and rs3_nan_prefix
      == 0xffff  #nosat'
    : 1
    ? 'fs1 == 0 and fe1 == 0x00 and fm1 == 0x02c and fs2 == 0 and fe2 == 0x13 and
      fm2 == 0x16a and fs3 == 0 and fe3 == 0x00 and fm3 == 0x042 and fcsr == 0x0 and
      rm_val == 7  and rs1_nan_prefix == 0xffff and rs2_nan_prefix == 0xffff and rs3_nan_prefix
      == 0xffff  #nosat'
    : 1
    ? 'fs1 == 0 and fe1 == 0x00 and fm1 == 0x04f and fs2 == 0 and fe2 == 0x12 and
      fm2 == 0x220 and fs3 == 0 and fe3 == 0x00 and fm3 == 0x02f and fcsr == 0x0 and
      rm_val == 7  and rs1_nan_prefix == 0xffff and rs2_nan_prefix == 0xffff and rs3_nan_prefix
      == 0xffff  #nosat'
    : 1
    ? 'fs1 == 0 and fe1 == 0x00 and fm1 == 0x013 and fs2 == 0 and fe2 == 0x14 and
      fm2 == 0x255 and fs3 == 0 and fe3 == 0x00 and fm3 == 0x02c and fcsr == 0x0 and
      rm_val == 7  and rs1_nan_prefix == 0xffff and rs2_nan_prefix == 0xffff and rs3_nan_prefix
      == 0xffff  #nosat'
    : 1
    ? 'fs1 == 0 and fe1 == 0x00 and fm1 == 0x024 and fs2 == 0 and fe2 == 0x13 and
      fm2 == 0x241 and fs3 == 0 and fe3 == 0x00 and fm3 == 0x05a and fcsr == 0x0 and
      rm_val == 7  and rs1_nan_prefix == 0xffff and rs2_nan_prefix == 0xffff and rs3_nan_prefix
      == 0xffff  #nosat'
    : 1
    ? 'fs1 == 0 and fe1 == 0x00 and fm1 == 0x046 and fs2 == 0 and fe2 == 0x12 and
      fm2 == 0x2c3 and fs3 == 0 and fe3 == 0x00 and fm3 == 0x00c and fcsr == 0x0 and
      rm_val == 7  and rs1_nan_prefix == 0xffff and rs2_nan_prefix == 0xffff and rs3_nan_prefix
      == 0xffff  #nosat'
    : 1
    ? 'fs1 == 0 and fe1 == 0x00 and fm1 == 0x028 and fs2 == 0 and fe2 == 0x13 and
      fm2 == 0x10b and fs3 == 0 and fe3 == 0x00 and fm3 == 0x058 and fcsr == 0x0 and
      rm_val == 7  and rs1_nan_prefix == 0xffff and rs2_nan_prefix == 0xffff and rs3_nan_prefix
      == 0xffff  #nosat'
    : 1
    ? 'fs1 == 0 and fe1 == 0x00 and fm1 == 0x029 and fs2 == 0 and fe2 == 0x13 and
      fm2 == 0x06e and fs3 == 0 and fe3 == 0x00 and fm3 == 0x028 and fcsr == 0x0 and
      rm_val == 7  and rs1_nan_prefix == 0xffff and rs2_nan_prefix == 0xffff and rs3_nan_prefix
      == 0xffff  #nosat'
    : 1
    ? 'fs1 == 0 and fe1 == 0x00 and fm1 == 0x017 and fs2 == 0 and fe2 == 0x13 and
      fm2 == 0x16f and fs3 == 0 and fe3 == 0x00 and fm3 == 0x00b and fcsr == 0x0 and
      rm_val == 7  and rs1_nan_prefix == 0xffff and rs2_nan_prefix == 0xffff and rs3_nan_prefix
      == 0xffff  #nosat'
    : 1
    ? 'fs1 == 0 and fe1 == 0x00 and fm1 == 0x051 and fs2 == 1 and fe2 == 0x12 and
      fm2 == 0x26e and fs3 == 0 and fe3 == 0x00 and fm3 == 0x014 and fcsr == 0x0 and
      rm_val == 7  and rs1_nan_prefix == 0xffff and rs2_nan_prefix == 0xffff and rs3_nan_prefix
      == 0xffff  #nosat'
    : 1
    ? 'fs1 == 0 and fe1 == 0x00 and fm1 == 0x05d and fs2 == 1 and fe2 == 0x12 and
      fm2 == 0x1f7 and fs3 == 0 and fe3 == 0x00 and fm3 == 0x059 and fcsr == 0x0 and
      rm_val == 7  and rs1_nan_prefix == 0xffff and rs2_nan_prefix == 0xffff and rs3_nan_prefix
      == 0xffff  #nosat'
    : 1
    ? 'fs1 == 0 and fe1 == 0x00 and fm1 == 0x028 and fs2 == 1 and fe2 == 0x13 and
      fm2 == 0x2c1 and fs3 == 0 and fe3 == 0x00 and fm3 == 0x03e and fcsr == 0x0 and
      rm_val == 7  and rs1_nan_prefix == 0xffff and rs2_nan_prefix == 0xffff and rs3_nan_prefix
      == 0xffff  #nosat'
    : 1
    ? 'fs1 == 0 and fe1 == 0x00 and fm1 == 0x015 and fs2 == 1 and fe2 == 0x14 and
      fm2 == 0x298 and fs3 == 0 and fe3 == 0x00 and fm3 == 0x05d and fcsr == 0x0 and
      rm_val == 7  and rs1_nan_prefix == 0xffff and rs2_nan_prefix == 0xffff and rs3_nan_prefix
      == 0xffff  #nosat'
    : 1
    ? 'fs1 == 0 and fe1 == 0x00 and fm1 == 0x007 and fs2 == 1 and fe2 == 0x16 and
      fm2 == 0x08b and fs3 == 0 and fe3 == 0x00 and fm3 == 0x00b and fcsr == 0x0 and
      rm_val == 7  and rs1_nan_prefix == 0xffff and rs2_nan_prefix == 0xffff and rs3_nan_prefix
      == 0xffff  #nosat'
    : 1
    ? 'fs1 == 0 and fe1 == 0x00 and fm1 == 0x04d and fs2 == 1 and fe2 == 0x12 and
      fm2 == 0x2e2 and fs3 == 0 and fe3 == 0x00 and fm3 == 0x045 and fcsr == 0x0 and
      rm_val == 7  and rs1_nan_prefix == 0xffff and rs2_nan_prefix == 0xffff and rs3_nan_prefix
      == 0xffff  #nosat'
    : 1
    ? 'fs1 == 0 and fe1 == 0x00 and fm1 == 0x034 and fs2 == 1 and fe2 == 0x13 and
      fm2 == 0x0a2 and fs3 == 0 and fe3 == 0x00 and fm3 == 0x005 and fcsr == 0x0 and
      rm_val == 7  and rs1_nan_prefix == 0xffff and rs2_nan_prefix == 0xffff and rs3_nan_prefix
      == 0xffff  #nosat'
    : 1
    ? 'fs1 == 0 and fe1 == 0x00 and fm1 == 0x01f and fs2 == 1 and fe2 == 0x13 and
      fm2 == 0x3fb and fs3 == 0 and fe3 == 0x00 and fm3 == 0x05f and fcsr == 0x0 and
      rm_val == 7  and rs1_nan_prefix == 0xffff and rs2_nan_prefix == 0xffff and rs3_nan_prefix
      == 0xffff  #nosat'
    : 1
    ? 'fs1 == 0 and fe1 == 0x00 and fm1 == 0x04d and fs2 == 1 and fe2 == 0x12 and
      fm2 == 0x145 and fs3 == 0 and fe3 == 0x00 and fm3 == 0x02d and fcsr == 0x0 and
      rm_val == 7  and rs1_nan_prefix == 0xffff and rs2_nan_prefix == 0xffff and rs3_nan_prefix
      == 0xffff  #nosat'
    : 1
    ? 'fs1 == 0 and fe1 == 0x00 and fm1 == 0x021 and fs2 == 1 and fe2 == 0x13 and
      fm2 == 0x051 and fs3 == 0 and fe3 == 0x00 and fm3 == 0x03b and fcsr == 0x0 and
      rm_val == 7  and rs1_nan_prefix == 0xffff and rs2_nan_prefix == 0xffff and rs3_nan_prefix
      == 0xffff  #nosat'
    : 1
    ? 'fs1 == 0 and fe1 == 0x01 and fm1 == 0x054 and fs2 == 1 and fe2 == 0x0a and
      fm2 == 0x21f and fs3 == 0 and fe3 == 0x01 and fm3 == 0x036 and fcsr == 0x0 and
      rm_val == 7  and rs1_nan_prefix == 0xffff and rs2_nan_prefix == 0xffff and rs3_nan_prefix
      == 0xffff  #nosat'
    : 1
    ? 'fs1 == 0 and fe1 == 0x01 and fm1 == 0x013 and fs2 == 1 and fe2 == 0x07 and
      fm2 == 0x1e4 and fs3 == 0 and fe3 == 0x01 and fm3 == 0x008 and fcsr == 0x0 and
      rm_val == 7  and rs1_nan_prefix == 0xffff and rs2_nan_prefix == 0xffff and rs3_nan_prefix
      == 0xffff  #nosat'
    : 1
    ? 'fs1 == 0 and fe1 == 0x01 and fm1 == 0x052 and fs2 == 1 and fe2 == 0x04 and
      fm2 == 0x368 and fs3 == 0 and fe3 == 0x01 and fm3 == 0x005 and fcsr == 0x0 and
      rm_val == 7  and rs1_nan_prefix == 0xffff and rs2_nan_prefix == 0xffff and rs3_nan_prefix
      == 0xffff  #nosat'
    : 1
    ? 'fs1 == 0 and fe1 == 0x01 and fm1 == 0x040 and fs2 == 1 and fe2 == 0x0a and
      fm2 == 0x01e and fs3 == 0 and fe3 == 0x01 and fm3 == 0x02b and fcsr == 0x0 and
      rm_val == 7  and rs1_nan_prefix == 0xffff and rs2_nan_prefix == 0xffff and rs3_nan_prefix
      == 0xffff  #nosat'
    : 1
    ? 'fs1 == 0 and fe1 == 0x01 and fm1 == 0x01b and fs2 == 1 and fe2 == 0x04 and
      fm2 == 0x3cb and fs3 == 0 and fe3 == 0x01 and fm3 == 0x011 and fcsr == 0x0 and
      rm_val == 7  and rs1_nan_prefix == 0xffff and rs2_nan_prefix == 0xffff and rs3_nan_prefix
      == 0xffff  #nosat'
    : 1
    ? 'fs1 == 0 and fe1 == 0x01 and fm1 == 0x05e and fs2 == 1 and fe2 == 0x0a and
      fm2 == 0x0b1 and fs3 == 0 and fe3 == 0x01 and fm3 == 0x049 and fcsr == 0x0 and
      rm_val == 7  and rs1_nan_prefix == 0xffff and rs2_nan_prefix == 0xffff and rs3_nan_prefix
      == 0xffff  #nosat'
    : 1
    ? 'fs1 == 0 and fe1 == 0x01 and fm1 == 0x011 and fs2 == 1 and fe2 == 0x09 and
      fm2 == 0x02e and fs3 == 0 and fe3 == 0x01 and fm3 == 0x051 and fcsr == 0x0 and
      rm_val == 7  and rs1_nan_prefix == 0xffff and rs2_nan_prefix == 0xffff and rs3_nan_prefix
      == 0xffff  #nosat'
    : 1
    ? 'fs1 == 0 and fe1 == 0x01 and fm1 == 0x035 and fs2 == 0 and fe2 == 0x0b and
      fm2 == 0x2c6 and fs3 == 0 and fe3 == 0x01 and fm3 == 0x00e and fcsr == 0x0 and
      rm_val == 7  and rs1_nan_prefix == 0xffff and rs2_nan_prefix == 0xffff and rs3_nan_prefix
      == 0xffff  #nosat'
    : 1
    ? 'fs1 == 0 and fe1 == 0x01 and fm1 == 0x016 and fs2 == 0 and fe2 == 0x0c and
      fm2 == 0x21e and fs3 == 0 and fe3 == 0x01 and fm3 == 0x038 and fcsr == 0x0 and
      rm_val == 7  and rs1_nan_prefix == 0xffff and rs2_nan_prefix == 0xffff and rs3_nan_prefix
      == 0xffff  #nosat'
    : 1
    ? 'fs1 == 0 and fe1 == 0x01 and fm1 == 0x030 and fs2 == 0 and fe2 == 0x0d and
      fm2 == 0x357 and fs3 == 0 and fe3 == 0x01 and fm3 == 0x014 and fcsr == 0x0 and
      rm_val == 7  and rs1_nan_prefix == 0xffff and rs2_nan_prefix == 0xffff and rs3_nan_prefix
      == 0xffff  #nosat'
    : 1
    ? 'fs1 == 0 and fe1 == 0x01 and fm1 == 0x008 and fs2 == 1 and fe2 == 0x10 and
      fm2 == 0x013 and fs3 == 0 and fe3 == 0x01 and fm3 == 0x036 and fcsr == 0x0 and
      rm_val == 7  and rs1_nan_prefix == 0xffff and rs2_nan_prefix == 0xffff and rs3_nan_prefix
      == 0xffff  #nosat'
    : 1
    ? 'fs1 == 0 and fe1 == 0x01 and fm1 == 0x026 and fs2 == 1 and fe2 == 0x0f and
      fm2 == 0x3ca and fs3 == 0 and fe3 == 0x01 and fm3 == 0x013 and fcsr == 0x0 and
      rm_val == 7  and rs1_nan_prefix == 0xffff and rs2_nan_prefix == 0xffff and rs3_nan_prefix
      == 0xffff  #nosat'
    : 1
    ? 'fs1 == 0 and fe1 == 0x01 and fm1 == 0x03b and fs2 == 1 and fe2 == 0x0f and
      fm2 == 0x3df and fs3 == 0 and fe3 == 0x01 and fm3 == 0x050 and fcsr == 0x0 and
      rm_val == 7  and rs1_nan_prefix == 0xffff and rs2_nan_prefix == 0xffff and rs3_nan_prefix
      == 0xffff  #nosat'
    : 1
    ? 'fs1 == 0 and fe1 == 0x01 and fm1 == 0x016 and fs2 == 1 and fe2 == 0x10 and
      fm2 == 0x00f and fs3 == 0 and fe3 == 0x01 and fm3 == 0x043 and fcsr == 0x0 and
      rm_val == 7  and rs1_nan_prefix == 0xffff and rs2_nan_prefix == 0xffff and rs3_nan_prefix
      == 0xffff  #nosat'
    : 1
    ? 'fs1 == 0 and fe1 == 0x01 and fm1 == 0x03b and fs2 == 1 and fe2 == 0x0f and
      fm2 == 0x3db and fs3 == 0 and fe3 == 0x01 and fm3 == 0x03f and fcsr == 0x0 and
      rm_val == 7  and rs1_nan_prefix == 0xffff and rs2_nan_prefix == 0xffff and rs3_nan_prefix
      == 0xffff  #nosat'
    : 1
    ? 'fs1 == 0 and fe1 == 0x01 and fm1 == 0x059 and fs2 == 1 and fe2 == 0x0f and
      fm2 == 0x3d0 and fs3 == 0 and fe3 == 0x01 and fm3 == 0x05e and fcsr == 0x0 and
      rm_val == 7  and rs1_nan_prefix == 0xffff and rs2_nan_prefix == 0xffff and rs3_nan_prefix
      == 0xffff  #nosat'
    : 1
    ? 'fs1 == 0 and fe1 == 0x01 and fm1 == 0x029 and fs2 == 1 and fe2 == 0x10 and
      fm2 == 0x015 and fs3 == 0 and fe3 == 0x01 and fm3 == 0x03e and fcsr == 0x0 and
      rm_val == 7  and rs1_nan_prefix == 0xffff and rs2_nan_prefix == 0xffff and rs3_nan_prefix
      == 0xffff  #nosat'
    : 1
    ? 'fs1 == 0 and fe1 == 0x01 and fm1 == 0x024 and fs2 == 1 and fe2 == 0x10 and
      fm2 == 0x02d and fs3 == 0 and fe3 == 0x01 and fm3 == 0x026 and fcsr == 0x0 and
      rm_val == 7  and rs1_nan_prefix == 0xffff and rs2_nan_prefix == 0xffff and rs3_nan_prefix
      == 0xffff  #nosat'
    : 1
    ? 'fs1 == 0 and fe1 == 0x01 and fm1 == 0x03d and fs2 == 1 and fe2 == 0x10 and
      fm2 == 0x057 and fs3 == 0 and fe3 == 0x01 and fm3 == 0x034 and fcsr == 0x0 and
      rm_val == 7  and rs1_nan_prefix == 0xffff and rs2_nan_prefix == 0xffff and rs3_nan_prefix
      == 0xffff  #nosat'
    : 1
    ? 'fs1 == 0 and fe1 == 0x01 and fm1 == 0x013 and fs2 == 1 and fe2 == 0x10 and
      fm2 == 0x0f0 and fs3 == 0 and fe3 == 0x01 and fm3 == 0x00f and fcsr == 0x0 and
      rm_val == 7  and rs1_nan_prefix == 0xffff and rs2_nan_prefix == 0xffff and rs3_nan_prefix
      == 0xffff  #nosat'
    : 1
    ? 'fs1 == 0 and fe1 == 0x1e and fm1 == 0x031 and fs2 == 0 and fe2 == 0x0e and
      fm2 == 0x31a and fs3 == 0 and fe3 == 0x1e and fm3 == 0x045 and fcsr == 0x0 and
      rm_val == 7  and rs1_nan_prefix == 0xffff and rs2_nan_prefix == 0xffff and rs3_nan_prefix
      == 0xffff  #nosat'
    : 1
    ? 'fs1 == 0 and fe1 == 0x1e and fm1 == 0x017 and fs2 == 0 and fe2 == 0x0e and
      fm2 == 0x32e and fs3 == 0 and fe3 == 0x1e and fm3 == 0x051 and fcsr == 0x0 and
      rm_val == 7  and rs1_nan_prefix == 0xffff and rs2_nan_prefix == 0xffff and rs3_nan_prefix
      == 0xffff  #nosat'
    : 1
    ? 'fs1 == 0 and fe1 == 0x1e and fm1 == 0x040 and fs2 == 0 and fe2 == 0x0e and
      fm2 == 0x32b and fs3 == 0 and fe3 == 0x1e and fm3 == 0x02c and fcsr == 0x0 and
      rm_val == 7  and rs1_nan_prefix == 0xffff and rs2_nan_prefix == 0xffff and rs3_nan_prefix
      == 0xffff  #nosat'
    : 1
    ? 'fs1 == 0 and fe1 == 0x1e and fm1 == 0x018 and fs2 == 0 and fe2 == 0x0e and
      fm2 == 0x3a8 and fs3 == 0 and fe3 == 0x1e and fm3 == 0x00c and fcsr == 0x0 and
      rm_val == 7  and rs1_nan_prefix == 0xffff and rs2_nan_prefix == 0xffff and rs3_nan_prefix
      == 0xffff  #nosat'
    : 1
    ? 'fs1 == 0 and fe1 == 0x1e and fm1 == 0x03f and fs2 == 0 and fe2 == 0x0e and
      fm2 == 0x327 and fs3 == 0 and fe3 == 0x1e and fm3 == 0x023 and fcsr == 0x0 and
      rm_val == 7  and rs1_nan_prefix == 0xffff and rs2_nan_prefix == 0xffff and rs3_nan_prefix
      == 0xffff  #nosat'
    : 1
    ? 'fs1 == 0 and fe1 == 0x1e and fm1 == 0x042 and fs2 == 0 and fe2 == 0x0e and
      fm2 == 0x2c0 and fs3 == 0 and fe3 == 0x1e and fm3 == 0x047 and fcsr == 0x0 and
      rm_val == 7  and rs1_nan_prefix == 0xffff and rs2_nan_prefix == 0xffff and rs3_nan_prefix
      == 0xffff  #nosat'
    : 1
    ? 'fs1 == 0 and fe1 == 0x1e and fm1 == 0x041 and fs2 == 0 and fe2 == 0x0e and
      fm2 == 0x2b3 and fs3 == 0 and fe3 == 0x1e and fm3 == 0x02f and fcsr == 0x0 and
      rm_val == 7  and rs1_nan_prefix == 0xffff and rs2_nan_prefix == 0xffff and rs3_nan_prefix
      == 0xffff  #nosat'
    : 1
    ? 'fs1 == 0 and fe1 == 0x1e and fm1 == 0x009 and fs2 == 0 and fe2 == 0x0e and
      fm2 == 0x293 and fs3 == 0 and fe3 == 0x1e and fm3 == 0x02e and fcsr == 0x0 and
      rm_val == 7  and rs1_nan_prefix == 0xffff and rs2_nan_prefix == 0xffff and rs3_nan_prefix
      == 0xffff  #nosat'
    : 1
    ? 'fs1 == 0 and fe1 == 0x1e and fm1 == 0x059 and fs2 == 0 and fe2 == 0x0e and
      fm2 == 0x0f7 and fs3 == 0 and fe3 == 0x1e and fm3 == 0x04c and fcsr == 0x0 and
      rm_val == 7  and rs1_nan_prefix == 0xffff and rs2_nan_prefix == 0xffff and rs3_nan_prefix
      == 0xffff  #nosat'
    : 1
    ? 'fs1 == 0 and fe1 == 0x1e and fm1 == 0x055 and fs2 == 0 and fe2 == 0x0d and
      fm2 == 0x34c and fs3 == 0 and fe3 == 0x1e and fm3 == 0x005 and fcsr == 0x0 and
      rm_val == 7  and rs1_nan_prefix == 0xffff and rs2_nan_prefix == 0xffff and rs3_nan_prefix
      == 0xffff  #nosat'
    : 1
    ? 'fs1 == 0 and fe1 == 0x1e and fm1 == 0x062 and fs2 == 1 and fe2 == 0x10 and
      fm2 == 0x18b and fs3 == 0 and fe3 == 0x1e and fm3 == 0x028 and fcsr == 0x0 and
      rm_val == 7  and rs1_nan_prefix == 0xffff and rs2_nan_prefix == 0xffff and rs3_nan_prefix
      == 0xffff  #nosat'
    : 1
    ? 'fs1 == 0 and fe1 == 0x1e and fm1 == 0x02f and fs2 == 1 and fe2 == 0x10 and
      fm2 == 0x1dd and fs3 == 0 and fe3 == 0x1e and fm3 == 0x048 and fcsr == 0x0 and
      rm_val == 7  and rs1_nan_prefix == 0xffff and rs2_nan_prefix == 0xffff and rs3_nan_prefix
      == 0xffff  #nosat'
    : 1
    ? 'fs1 == 0 and fe1 == 0x1e and fm1 == 0x05b and fs2 == 1 and fe2 == 0x10 and
      fm2 == 0x1a7 and fs3 == 0 and fe3 == 0x1e and fm3 == 0x056 and fcsr == 0x0 and
      rm_val == 7  and rs1_nan_prefix == 0xffff and rs2_nan_prefix == 0xffff and rs3_nan_prefix
      == 0xffff  #nosat'
    : 1
    ? 'fs1 == 0 and fe1 == 0x1e and fm1 == 0x024 and fs2 == 1 and fe2 == 0x10 and
      fm2 == 0x1e5 and fs3 == 0 and fe3 == 0x1e and fm3 == 0x03f and fcsr == 0x0 and
      rm_val == 7  and rs1_nan_prefix == 0xffff and rs2_nan_prefix == 0xffff and rs3_nan_prefix
      == 0xffff  #nosat'
    : 1
    ? 'fs1 == 0 and fe1 == 0x1e and fm1 == 0x022 and fs2 == 1 and fe2 == 0x10 and
      fm2 == 0x1f6 and fs3 == 0 and fe3 == 0x1e and fm3 == 0x063 and fcsr == 0x0 and
      rm_val == 7  and rs1_nan_prefix == 0xffff and rs2_nan_prefix == 0xffff and rs3_nan_prefix
      == 0xffff  #nosat'
    : 1
    ? 'fs1 == 0 and fe1 == 0x1e and fm1 == 0x059 and fs2 == 1 and fe2 == 0x10 and
      fm2 == 0x1a0 and fs3 == 0 and fe3 == 0x1e and fm3 == 0x05c and fcsr == 0x0 and
      rm_val == 7  and rs1_nan_prefix == 0xffff and rs2_nan_prefix == 0xffff and rs3_nan_prefix
      == 0xffff  #nosat'
    : 1
    ? 'fs1 == 0 and fe1 == 0x1e and fm1 == 0x026 and fs2 == 1 and fe2 == 0x10 and
      fm2 == 0x1be and fs3 == 0 and fe3 == 0x1e and fm3 == 0x02c and fcsr == 0x0 and
      rm_val == 7  and rs1_nan_prefix == 0xffff and rs2_nan_prefix == 0xffff and rs3_nan_prefix
      == 0xffff  #nosat'
    : 1
    ? 'fs1 == 0 and fe1 == 0x1e and fm1 == 0x054 and fs2 == 1 and fe2 == 0x10 and
      fm2 == 0x15a and fs3 == 0 and fe3 == 0x1e and fm3 == 0x017 and fcsr == 0x0 and
      rm_val == 7  and rs1_nan_prefix == 0xffff and rs2_nan_prefix == 0xffff and rs3_nan_prefix
      == 0xffff  #nosat'
    : 1
    ? 'fs1 == 0 and fe1 == 0x1e and fm1 == 0x04b and fs2 == 1 and fe2 == 0x10 and
      fm2 == 0x120 and fs3 == 0 and fe3 == 0x1e and fm3 == 0x002 and fcsr == 0x0 and
      rm_val == 7  and rs1_nan_prefix == 0xffff and rs2_nan_prefix == 0xffff and rs3_nan_prefix
      == 0xffff  #nosat'
    : 1
    ? 'fs1 == 0 and fe1 == 0x1e and fm1 == 0x03d and fs2 == 1 and fe2 == 0x10 and
      fm2 == 0x0d9 and fs3 == 0 and fe3 == 0x1e and fm3 == 0x047 and fcsr == 0x0 and
      rm_val == 7  and rs1_nan_prefix == 0xffff and rs2_nan_prefix == 0xffff and rs3_nan_prefix
      == 0xffff  #nosat'
    : 1
    coverage: 120/120
  total_coverage: 261/261
