---
fmsub_b6:
  config:
  - check ISA:=regex(.*I.*Zfinx.*)
  mnemonics:
    fmsub.s: 155
    coverage: 1/1
  op_comb:
    rd == rs2 == rs3 != rs1: 1
    rs1 != rs2 and rs1 != rd and rs1 != rs3 and rs2 != rs3 and rs2 != rd and rs3 != rd: 144
    rs1 == rd != rs2 and rs1 == rd != rs3 and rs3 != rs2: 1
    rs1 == rd == rs3 != rs2: 1
    rs1 == rs2 != rs3 and rs1 == rs2 != rd and rd != rs3: 1
    rs1 == rs2 == rd != rs3: 1
    rs1 == rs2 == rs3 != rd: 1
    rs1 == rs2 == rs3 == rd: 1
    rs1 == rs3 != rs2 and rs1 == rs3 != rd and rd != rs2: 1
    rs2 == rd != rs1 and rs2 == rd != rs3 and rs3 != rs1: 1
    rs2 == rs3 != rs1 and rs2 == rs3 != rd and rd != rs1: 1
    rs3 == rd != rs1 and rs3 == rd != rs2 and rs2 != rs1: 1
    coverage: 12/12
  rd:
    x0: 1
    x1: 1
    x10: 1
    x11: 1
    x12: 1
    x13: 1
    x14: 1
    x15: 1
    x16: 1
    x17: 1
    x18: 1
    x19: 1
    x2: 1
    x20: 1
    x21: 1
    x22: 1
    x23: 1
    x24: 1
    x25: 1
    x26: 1
    x27: 1
    x28: 1
    x29: 1
    x3: 1
    x30: 1
    x31: 124
    x4: 1
    x5: 1
    x6: 1
    x7: 1
    x8: 1
    x9: 1
    coverage: 32/32
  rs1:
    x0: 1
    x1: 1
    x10: 1
    x11: 1
    x12: 1
    x13: 1
    x14: 1
    x15: 1
    x16: 1
    x17: 1
    x18: 1
    x19: 1
    x2: 1
    x20: 1
    x21: 1
    x22: 1
    x23: 1
    x24: 1
    x25: 1
    x26: 1
    x27: 1
    x28: 1
    x29: 1
    x3: 1
    x30: 123
    x31: 2
    x4: 1
    x5: 1
    x6: 1
    x7: 1
    x8: 1
    x9: 1
    coverage: 32/32
  rs2:
    x0: 1
    x1: 1
    x10: 1
    x11: 1
    x12: 1
    x13: 1
    x14: 1
    x15: 1
    x16: 1
    x17: 1
    x18: 1
    x19: 1
    x2: 1
    x20: 1
    x21: 1
    x22: 1
    x23: 1
    x24: 1
    x25: 1
    x26: 1
    x27: 1
    x28: 1
    x29: 122
    x3: 1
    x30: 3
    x31: 1
    x4: 1
    x5: 1
    x6: 1
    x7: 1
    x8: 1
    x9: 1
    coverage: 32/32
  rs3:
    x0: 1
    x1: 1
    x10: 1
    x11: 1
    x12: 1
    x13: 1
    x14: 1
    x15: 1
    x16: 1
    x17: 1
    x18: 1
    x19: 1
    x2: 1
    x20: 1
    x21: 1
    x22: 1
    x23: 1
    x24: 1
    x25: 1
    x26: 1
    x27: 1
    x28: 121
    x29: 4
    x3: 1
    x30: 1
    x31: 1
    x4: 1
    x5: 1
    x6: 1
    x7: 1
    x8: 1
    x9: 1
    coverage: 32/32
  val_comb:
    ? 'fs1 == 0 and fe1 == 0x17 and fm1 == 0x2caedd and fs2 == 0 and fe2 == 0x81 and
      fm2 == 0x4133f4 and fs3 == 0 and fe3 == 0x1a and fm3 == 0x0252e0 and  fcsr ==
      0x0 and rm_val == 7   #nosat'
    : 1
    ? 'fs1 == 0 and fe1 == 0x17 and fm1 == 0x2caedd and fs2 == 0 and fe2 == 0x81 and
      fm2 == 0x4133f4 and fs3 == 0 and fe3 == 0x1a and fm3 == 0x0252e0 and  fcsr ==
      0x20 and rm_val == 7   #nosat'
    : 1
    ? 'fs1 == 0 and fe1 == 0x17 and fm1 == 0x2caedd and fs2 == 0 and fe2 == 0x81 and
      fm2 == 0x4133f4 and fs3 == 0 and fe3 == 0x1a and fm3 == 0x0252e0 and  fcsr ==
      0x40 and rm_val == 7   #nosat'
    : 2
    ? 'fs1 == 0 and fe1 == 0x17 and fm1 == 0x2caedd and fs2 == 0 and fe2 == 0x81 and
      fm2 == 0x4133f4 and fs3 == 0 and fe3 == 0x1a and fm3 == 0x0252e0 and  fcsr ==
      0x60 and rm_val == 7   #nosat'
    : 1
    ? 'fs1 == 0 and fe1 == 0x17 and fm1 == 0x2caedd and fs2 == 0 and fe2 == 0x81 and
      fm2 == 0x4133f4 and fs3 == 0 and fe3 == 0x1a and fm3 == 0x0252e0 and  fcsr ==
      0x80 and rm_val == 7   #nosat'
    : 2
    ? 'fs1 == 0 and fe1 == 0x1b and fm1 == 0x14f25c and fs2 == 0 and fe2 == 0x7e and
      fm2 == 0x5f3b13 and fs3 == 0 and fe3 == 0x1b and fm3 == 0x01e17d and  fcsr ==
      0x0 and rm_val == 7   #nosat'
    : 1
    ? 'fs1 == 0 and fe1 == 0x1b and fm1 == 0x14f25c and fs2 == 0 and fe2 == 0x7e and
      fm2 == 0x5f3b13 and fs3 == 0 and fe3 == 0x1b and fm3 == 0x01e17d and  fcsr ==
      0x20 and rm_val == 7   #nosat'
    : 1
    ? 'fs1 == 0 and fe1 == 0x1b and fm1 == 0x14f25c and fs2 == 0 and fe2 == 0x7e and
      fm2 == 0x5f3b13 and fs3 == 0 and fe3 == 0x1b and fm3 == 0x01e17d and  fcsr ==
      0x40 and rm_val == 7   #nosat'
    : 1
    ? 'fs1 == 0 and fe1 == 0x1b and fm1 == 0x14f25c and fs2 == 0 and fe2 == 0x7e and
      fm2 == 0x5f3b13 and fs3 == 0 and fe3 == 0x1b and fm3 == 0x01e17d and  fcsr ==
      0x60 and rm_val == 7   #nosat'
    : 1
    ? 'fs1 == 0 and fe1 == 0x1b and fm1 == 0x14f25c and fs2 == 0 and fe2 == 0x7e and
      fm2 == 0x5f3b13 and fs3 == 0 and fe3 == 0x1b and fm3 == 0x01e17d and  fcsr ==
      0x80 and rm_val == 7   #nosat'
    : 2
    ? 'fs1 == 0 and fe1 == 0x1a and fm1 == 0x784f38 and fs2 == 0 and fe2 == 0x7d and
      fm2 == 0x148031 and fs3 == 0 and fe3 == 0x19 and fm3 == 0x100a24 and  fcsr ==
      0x0 and rm_val == 7   #nosat'
    : 1
    ? 'fs1 == 0 and fe1 == 0x1a and fm1 == 0x784f38 and fs2 == 0 and fe2 == 0x7d and
      fm2 == 0x148031 and fs3 == 0 and fe3 == 0x19 and fm3 == 0x100a24 and  fcsr ==
      0x20 and rm_val == 7   #nosat'
    : 1
    ? 'fs1 == 0 and fe1 == 0x1a and fm1 == 0x784f38 and fs2 == 0 and fe2 == 0x7d and
      fm2 == 0x148031 and fs3 == 0 and fe3 == 0x19 and fm3 == 0x100a24 and  fcsr ==
      0x40 and rm_val == 7   #nosat'
    : 1
    ? 'fs1 == 0 and fe1 == 0x1a and fm1 == 0x784f38 and fs2 == 0 and fe2 == 0x7d and
      fm2 == 0x148031 and fs3 == 0 and fe3 == 0x19 and fm3 == 0x100a24 and  fcsr ==
      0x60 and rm_val == 7   #nosat'
    : 1
    ? 'fs1 == 0 and fe1 == 0x1a and fm1 == 0x784f38 and fs2 == 0 and fe2 == 0x7d and
      fm2 == 0x148031 and fs3 == 0 and fe3 == 0x19 and fm3 == 0x100a24 and  fcsr ==
      0x80 and rm_val == 7   #nosat'
    : 1
    ? 'fs1 == 0 and fe1 == 0x1a and fm1 == 0x2e29a1 and fs2 == 0 and fe2 == 0x7e and
      fm2 == 0x03fac0 and fs3 == 0 and fe3 == 0x19 and fm3 == 0x3393ca and  fcsr ==
      0x0 and rm_val == 7   #nosat'
    : 1
    ? 'fs1 == 0 and fe1 == 0x1a and fm1 == 0x2e29a1 and fs2 == 0 and fe2 == 0x7e and
      fm2 == 0x03fac0 and fs3 == 0 and fe3 == 0x19 and fm3 == 0x3393ca and  fcsr ==
      0x20 and rm_val == 7   #nosat'
    : 1
    ? 'fs1 == 0 and fe1 == 0x1a and fm1 == 0x2e29a1 and fs2 == 0 and fe2 == 0x7e and
      fm2 == 0x03fac0 and fs3 == 0 and fe3 == 0x19 and fm3 == 0x3393ca and  fcsr ==
      0x40 and rm_val == 7   #nosat'
    : 1
    ? 'fs1 == 0 and fe1 == 0x1a and fm1 == 0x2e29a1 and fs2 == 0 and fe2 == 0x7e and
      fm2 == 0x03fac0 and fs3 == 0 and fe3 == 0x19 and fm3 == 0x3393ca and  fcsr ==
      0x60 and rm_val == 7   #nosat'
    : 1
    ? 'fs1 == 0 and fe1 == 0x1a and fm1 == 0x2e29a1 and fs2 == 0 and fe2 == 0x7e and
      fm2 == 0x03fac0 and fs3 == 0 and fe3 == 0x19 and fm3 == 0x3393ca and  fcsr ==
      0x80 and rm_val == 7   #nosat'
    : 1
    ? 'fs1 == 0 and fe1 == 0x18 and fm1 == 0x6021a1 and fs2 == 0 and fe2 == 0x7e and
      fm2 == 0x1d6e97 and fs3 == 0 and fe3 == 0x18 and fm3 == 0x09d573 and  fcsr ==
      0x0 and rm_val == 7   #nosat'
    : 1
    ? 'fs1 == 0 and fe1 == 0x18 and fm1 == 0x6021a1 and fs2 == 0 and fe2 == 0x7e and
      fm2 == 0x1d6e97 and fs3 == 0 and fe3 == 0x18 and fm3 == 0x09d573 and  fcsr ==
      0x20 and rm_val == 7   #nosat'
    : 1
    ? 'fs1 == 0 and fe1 == 0x18 and fm1 == 0x6021a1 and fs2 == 0 and fe2 == 0x7e and
      fm2 == 0x1d6e97 and fs3 == 0 and fe3 == 0x18 and fm3 == 0x09d573 and  fcsr ==
      0x40 and rm_val == 7   #nosat'
    : 1
    ? 'fs1 == 0 and fe1 == 0x18 and fm1 == 0x6021a1 and fs2 == 0 and fe2 == 0x7e and
      fm2 == 0x1d6e97 and fs3 == 0 and fe3 == 0x18 and fm3 == 0x09d573 and  fcsr ==
      0x60 and rm_val == 7   #nosat'
    : 1
    ? 'fs1 == 0 and fe1 == 0x18 and fm1 == 0x6021a1 and fs2 == 0 and fe2 == 0x7e and
      fm2 == 0x1d6e97 and fs3 == 0 and fe3 == 0x18 and fm3 == 0x09d573 and  fcsr ==
      0x80 and rm_val == 7   #nosat'
    : 1
    ? 'fs1 == 0 and fe1 == 0x19 and fm1 == 0x0b2761 and fs2 == 0 and fe2 == 0x81 and
      fm2 == 0x0a6dcd and fs3 == 0 and fe3 == 0x1b and fm3 == 0x167dd4 and  fcsr ==
      0x0 and rm_val == 7   #nosat'
    : 1
    ? 'fs1 == 0 and fe1 == 0x19 and fm1 == 0x0b2761 and fs2 == 0 and fe2 == 0x81 and
      fm2 == 0x0a6dcd and fs3 == 0 and fe3 == 0x1b and fm3 == 0x167dd4 and  fcsr ==
      0x20 and rm_val == 7   #nosat'
    : 1
    ? 'fs1 == 0 and fe1 == 0x19 and fm1 == 0x0b2761 and fs2 == 0 and fe2 == 0x81 and
      fm2 == 0x0a6dcd and fs3 == 0 and fe3 == 0x1b and fm3 == 0x167dd4 and  fcsr ==
      0x40 and rm_val == 7   #nosat'
    : 1
    ? 'fs1 == 0 and fe1 == 0x19 and fm1 == 0x0b2761 and fs2 == 0 and fe2 == 0x81 and
      fm2 == 0x0a6dcd and fs3 == 0 and fe3 == 0x1b and fm3 == 0x167dd4 and  fcsr ==
      0x60 and rm_val == 7   #nosat'
    : 1
    ? 'fs1 == 0 and fe1 == 0x19 and fm1 == 0x0b2761 and fs2 == 0 and fe2 == 0x81 and
      fm2 == 0x0a6dcd and fs3 == 0 and fe3 == 0x1b and fm3 == 0x167dd4 and  fcsr ==
      0x80 and rm_val == 7   #nosat'
    : 1
    ? 'fs1 == 0 and fe1 == 0x1b and fm1 == 0x067ffd and fs2 == 0 and fe2 == 0x7e and
      fm2 == 0x791f79 and fs3 == 0 and fe3 == 0x1b and fm3 == 0x02e307 and  fcsr ==
      0x0 and rm_val == 7   #nosat'
    : 1
    ? 'fs1 == 0 and fe1 == 0x1b and fm1 == 0x067ffd and fs2 == 0 and fe2 == 0x7e and
      fm2 == 0x791f79 and fs3 == 0 and fe3 == 0x1b and fm3 == 0x02e307 and  fcsr ==
      0x20 and rm_val == 7   #nosat'
    : 1
    ? 'fs1 == 0 and fe1 == 0x1b and fm1 == 0x067ffd and fs2 == 0 and fe2 == 0x7e and
      fm2 == 0x791f79 and fs3 == 0 and fe3 == 0x1b and fm3 == 0x02e307 and  fcsr ==
      0x40 and rm_val == 7   #nosat'
    : 1
    ? 'fs1 == 0 and fe1 == 0x1b and fm1 == 0x067ffd and fs2 == 0 and fe2 == 0x7e and
      fm2 == 0x791f79 and fs3 == 0 and fe3 == 0x1b and fm3 == 0x02e307 and  fcsr ==
      0x60 and rm_val == 7   #nosat'
    : 1
    ? 'fs1 == 0 and fe1 == 0x1b and fm1 == 0x067ffd and fs2 == 0 and fe2 == 0x7e and
      fm2 == 0x791f79 and fs3 == 0 and fe3 == 0x1b and fm3 == 0x02e307 and  fcsr ==
      0x80 and rm_val == 7   #nosat'
    : 2
    ? 'fs1 == 0 and fe1 == 0x1b and fm1 == 0x01e14d and fs2 == 0 and fe2 == 0x7c and
      fm2 == 0x777585 and fs3 == 0 and fe3 == 0x18 and fm3 == 0x7b1802 and  fcsr ==
      0x0 and rm_val == 7   #nosat'
    : 1
    ? 'fs1 == 0 and fe1 == 0x1b and fm1 == 0x01e14d and fs2 == 0 and fe2 == 0x7c and
      fm2 == 0x777585 and fs3 == 0 and fe3 == 0x18 and fm3 == 0x7b1802 and  fcsr ==
      0x20 and rm_val == 7   #nosat'
    : 1
    ? 'fs1 == 0 and fe1 == 0x1b and fm1 == 0x01e14d and fs2 == 0 and fe2 == 0x7c and
      fm2 == 0x777585 and fs3 == 0 and fe3 == 0x18 and fm3 == 0x7b1802 and  fcsr ==
      0x40 and rm_val == 7   #nosat'
    : 1
    ? 'fs1 == 0 and fe1 == 0x1b and fm1 == 0x01e14d and fs2 == 0 and fe2 == 0x7c and
      fm2 == 0x777585 and fs3 == 0 and fe3 == 0x18 and fm3 == 0x7b1802 and  fcsr ==
      0x60 and rm_val == 7   #nosat'
    : 1
    ? 'fs1 == 0 and fe1 == 0x1b and fm1 == 0x01e14d and fs2 == 0 and fe2 == 0x7c and
      fm2 == 0x777585 and fs3 == 0 and fe3 == 0x18 and fm3 == 0x7b1802 and  fcsr ==
      0x80 and rm_val == 7   #nosat'
    : 1
    ? 'fs1 == 0 and fe1 == 0x19 and fm1 == 0x491aa7 and fs2 == 0 and fe2 == 0x80 and
      fm2 == 0x0180b7 and fs3 == 0 and fe3 == 0x1a and fm3 == 0x4b7718 and  fcsr ==
      0x0 and rm_val == 7   #nosat'
    : 1
    ? 'fs1 == 0 and fe1 == 0x19 and fm1 == 0x491aa7 and fs2 == 0 and fe2 == 0x80 and
      fm2 == 0x0180b7 and fs3 == 0 and fe3 == 0x1a and fm3 == 0x4b7718 and  fcsr ==
      0x20 and rm_val == 7   #nosat'
    : 1
    ? 'fs1 == 0 and fe1 == 0x19 and fm1 == 0x491aa7 and fs2 == 0 and fe2 == 0x80 and
      fm2 == 0x0180b7 and fs3 == 0 and fe3 == 0x1a and fm3 == 0x4b7718 and  fcsr ==
      0x40 and rm_val == 7   #nosat'
    : 1
    ? 'fs1 == 0 and fe1 == 0x19 and fm1 == 0x491aa7 and fs2 == 0 and fe2 == 0x80 and
      fm2 == 0x0180b7 and fs3 == 0 and fe3 == 0x1a and fm3 == 0x4b7718 and  fcsr ==
      0x60 and rm_val == 7   #nosat'
    : 1
    ? 'fs1 == 0 and fe1 == 0x19 and fm1 == 0x491aa7 and fs2 == 0 and fe2 == 0x80 and
      fm2 == 0x0180b7 and fs3 == 0 and fe3 == 0x1a and fm3 == 0x4b7718 and  fcsr ==
      0x80 and rm_val == 7   #nosat'
    : 1
    ? 'fs1 == 0 and fe1 == 0x1a and fm1 == 0x6d836e and fs2 == 0 and fe2 == 0x7f and
      fm2 == 0x1577dc and fs3 == 0 and fe3 == 0x1b and fm3 == 0x0aacb4 and  fcsr ==
      0x0 and rm_val == 7   #nosat'
    : 1
    ? 'fs1 == 0 and fe1 == 0x1a and fm1 == 0x6d836e and fs2 == 0 and fe2 == 0x7f and
      fm2 == 0x1577dc and fs3 == 0 and fe3 == 0x1b and fm3 == 0x0aacb4 and  fcsr ==
      0x20 and rm_val == 7   #nosat'
    : 1
    ? 'fs1 == 0 and fe1 == 0x1a and fm1 == 0x6d836e and fs2 == 0 and fe2 == 0x7f and
      fm2 == 0x1577dc and fs3 == 0 and fe3 == 0x1b and fm3 == 0x0aacb4 and  fcsr ==
      0x40 and rm_val == 7   #nosat'
    : 1
    ? 'fs1 == 0 and fe1 == 0x1a and fm1 == 0x6d836e and fs2 == 0 and fe2 == 0x7f and
      fm2 == 0x1577dc and fs3 == 0 and fe3 == 0x1b and fm3 == 0x0aacb4 and  fcsr ==
      0x60 and rm_val == 7   #nosat'
    : 1
    ? 'fs1 == 0 and fe1 == 0x1a and fm1 == 0x6d836e and fs2 == 0 and fe2 == 0x7f and
      fm2 == 0x1577dc and fs3 == 0 and fe3 == 0x1b and fm3 == 0x0aacb4 and  fcsr ==
      0x80 and rm_val == 7   #nosat'
    : 1
    ? 'fs1 == 0 and fe1 == 0x1b and fm1 == 0x0ecbe0 and fs2 == 0 and fe2 == 0x7b and
      fm2 == 0x49ce2d and fs3 == 0 and fe3 == 0x17 and fm3 == 0x61222a and  fcsr ==
      0x0 and rm_val == 7   #nosat'
    : 1
    ? 'fs1 == 0 and fe1 == 0x1b and fm1 == 0x0ecbe0 and fs2 == 0 and fe2 == 0x7b and
      fm2 == 0x49ce2d and fs3 == 0 and fe3 == 0x17 and fm3 == 0x61222a and  fcsr ==
      0x20 and rm_val == 7   #nosat'
    : 1
    ? 'fs1 == 0 and fe1 == 0x1b and fm1 == 0x0ecbe0 and fs2 == 0 and fe2 == 0x7b and
      fm2 == 0x49ce2d and fs3 == 0 and fe3 == 0x17 and fm3 == 0x61222a and  fcsr ==
      0x40 and rm_val == 7   #nosat'
    : 1
    ? 'fs1 == 0 and fe1 == 0x1b and fm1 == 0x0ecbe0 and fs2 == 0 and fe2 == 0x7b and
      fm2 == 0x49ce2d and fs3 == 0 and fe3 == 0x17 and fm3 == 0x61222a and  fcsr ==
      0x60 and rm_val == 7   #nosat'
    : 1
    ? 'fs1 == 0 and fe1 == 0x1b and fm1 == 0x0ecbe0 and fs2 == 0 and fe2 == 0x7b and
      fm2 == 0x49ce2d and fs3 == 0 and fe3 == 0x17 and fm3 == 0x61222a and  fcsr ==
      0x80 and rm_val == 7   #nosat'
    : 1
    ? 'fs1 == 0 and fe1 == 0x1a and fm1 == 0x449c34 and fs2 == 0 and fe2 == 0x7f and
      fm2 == 0x0de987 and fs3 == 0 and fe3 == 0x1a and fm3 == 0x59fac6 and  fcsr ==
      0x0 and rm_val == 7   #nosat'
    : 1
    ? 'fs1 == 0 and fe1 == 0x1a and fm1 == 0x449c34 and fs2 == 0 and fe2 == 0x7f and
      fm2 == 0x0de987 and fs3 == 0 and fe3 == 0x1a and fm3 == 0x59fac6 and  fcsr ==
      0x20 and rm_val == 7   #nosat'
    : 1
    ? 'fs1 == 0 and fe1 == 0x1a and fm1 == 0x449c34 and fs2 == 0 and fe2 == 0x7f and
      fm2 == 0x0de987 and fs3 == 0 and fe3 == 0x1a and fm3 == 0x59fac6 and  fcsr ==
      0x40 and rm_val == 7   #nosat'
    : 1
    ? 'fs1 == 0 and fe1 == 0x1a and fm1 == 0x449c34 and fs2 == 0 and fe2 == 0x7f and
      fm2 == 0x0de987 and fs3 == 0 and fe3 == 0x1a and fm3 == 0x59fac6 and  fcsr ==
      0x60 and rm_val == 7   #nosat'
    : 1
    ? 'fs1 == 0 and fe1 == 0x1a and fm1 == 0x449c34 and fs2 == 0 and fe2 == 0x7f and
      fm2 == 0x0de987 and fs3 == 0 and fe3 == 0x1a and fm3 == 0x59fac6 and  fcsr ==
      0x80 and rm_val == 7   #nosat'
    : 1
    ? 'fs1 == 0 and fe1 == 0x1a and fm1 == 0x2430fe and fs2 == 0 and fe2 == 0x7d and
      fm2 == 0x33ea2f and fs3 == 0 and fe3 == 0x18 and fm3 == 0x66c8eb and  fcsr ==
      0x0 and rm_val == 7   #nosat'
    : 1
    ? 'fs1 == 0 and fe1 == 0x1a and fm1 == 0x2430fe and fs2 == 0 and fe2 == 0x7d and
      fm2 == 0x33ea2f and fs3 == 0 and fe3 == 0x18 and fm3 == 0x66c8eb and  fcsr ==
      0x20 and rm_val == 7   #nosat'
    : 1
    ? 'fs1 == 0 and fe1 == 0x1a and fm1 == 0x2430fe and fs2 == 0 and fe2 == 0x7d and
      fm2 == 0x33ea2f and fs3 == 0 and fe3 == 0x18 and fm3 == 0x66c8eb and  fcsr ==
      0x40 and rm_val == 7   #nosat'
    : 1
    ? 'fs1 == 0 and fe1 == 0x1a and fm1 == 0x2430fe and fs2 == 0 and fe2 == 0x7d and
      fm2 == 0x33ea2f and fs3 == 0 and fe3 == 0x18 and fm3 == 0x66c8eb and  fcsr ==
      0x60 and rm_val == 7   #nosat'
    : 1
    ? 'fs1 == 0 and fe1 == 0x1a and fm1 == 0x2430fe and fs2 == 0 and fe2 == 0x7d and
      fm2 == 0x33ea2f and fs3 == 0 and fe3 == 0x18 and fm3 == 0x66c8eb and  fcsr ==
      0x80 and rm_val == 7   #nosat'
    : 1
    ? 'fs1 == 0 and fe1 == 0x1a and fm1 == 0x19b024 and fs2 == 0 and fe2 == 0x7c and
      fm2 == 0x412f99 and fs3 == 0 and fe3 == 0x17 and fm3 == 0x67f4bd and  fcsr ==
      0x0 and rm_val == 7   #nosat'
    : 1
    ? 'fs1 == 0 and fe1 == 0x1a and fm1 == 0x19b024 and fs2 == 0 and fe2 == 0x7c and
      fm2 == 0x412f99 and fs3 == 0 and fe3 == 0x17 and fm3 == 0x67f4bd and  fcsr ==
      0x20 and rm_val == 7   #nosat'
    : 1
    ? 'fs1 == 0 and fe1 == 0x1a and fm1 == 0x19b024 and fs2 == 0 and fe2 == 0x7c and
      fm2 == 0x412f99 and fs3 == 0 and fe3 == 0x17 and fm3 == 0x67f4bd and  fcsr ==
      0x40 and rm_val == 7   #nosat'
    : 1
    ? 'fs1 == 0 and fe1 == 0x1a and fm1 == 0x19b024 and fs2 == 0 and fe2 == 0x7c and
      fm2 == 0x412f99 and fs3 == 0 and fe3 == 0x17 and fm3 == 0x67f4bd and  fcsr ==
      0x60 and rm_val == 7   #nosat'
    : 1
    ? 'fs1 == 0 and fe1 == 0x1a and fm1 == 0x19b024 and fs2 == 0 and fe2 == 0x7c and
      fm2 == 0x412f99 and fs3 == 0 and fe3 == 0x17 and fm3 == 0x67f4bd and  fcsr ==
      0x80 and rm_val == 7   #nosat'
    : 1
    ? 'fs1 == 0 and fe1 == 0x1b and fm1 == 0x17a548 and fs2 == 0 and fe2 == 0x7e and
      fm2 == 0x6d1237 and fs3 == 0 and fe3 == 0x1b and fm3 == 0x0c6ece and  fcsr ==
      0x0 and rm_val == 7   #nosat'
    : 1
    ? 'fs1 == 0 and fe1 == 0x1b and fm1 == 0x17a548 and fs2 == 0 and fe2 == 0x7e and
      fm2 == 0x6d1237 and fs3 == 0 and fe3 == 0x1b and fm3 == 0x0c6ece and  fcsr ==
      0x20 and rm_val == 7   #nosat'
    : 1
    ? 'fs1 == 0 and fe1 == 0x1b and fm1 == 0x17a548 and fs2 == 0 and fe2 == 0x7e and
      fm2 == 0x6d1237 and fs3 == 0 and fe3 == 0x1b and fm3 == 0x0c6ece and  fcsr ==
      0x40 and rm_val == 7   #nosat'
    : 1
    ? 'fs1 == 0 and fe1 == 0x1b and fm1 == 0x17a548 and fs2 == 0 and fe2 == 0x7e and
      fm2 == 0x6d1237 and fs3 == 0 and fe3 == 0x1b and fm3 == 0x0c6ece and  fcsr ==
      0x60 and rm_val == 7   #nosat'
    : 1
    ? 'fs1 == 0 and fe1 == 0x1b and fm1 == 0x17a548 and fs2 == 0 and fe2 == 0x7e and
      fm2 == 0x6d1237 and fs3 == 0 and fe3 == 0x1b and fm3 == 0x0c6ece and  fcsr ==
      0x80 and rm_val == 7   #nosat'
    : 1
    ? 'fs1 == 0 and fe1 == 0x1a and fm1 == 0x31b80e and fs2 == 0 and fe2 == 0x7e and
      fm2 == 0x0c5a70 and fs3 == 0 and fe3 == 0x19 and fm3 == 0x42dee1 and  fcsr ==
      0x0 and rm_val == 7   #nosat'
    : 1
    ? 'fs1 == 0 and fe1 == 0x1a and fm1 == 0x31b80e and fs2 == 0 and fe2 == 0x7e and
      fm2 == 0x0c5a70 and fs3 == 0 and fe3 == 0x19 and fm3 == 0x42dee1 and  fcsr ==
      0x20 and rm_val == 7   #nosat'
    : 1
    ? 'fs1 == 0 and fe1 == 0x1a and fm1 == 0x31b80e and fs2 == 0 and fe2 == 0x7e and
      fm2 == 0x0c5a70 and fs3 == 0 and fe3 == 0x19 and fm3 == 0x42dee1 and  fcsr ==
      0x40 and rm_val == 7   #nosat'
    : 1
    ? 'fs1 == 0 and fe1 == 0x1a and fm1 == 0x31b80e and fs2 == 0 and fe2 == 0x7e and
      fm2 == 0x0c5a70 and fs3 == 0 and fe3 == 0x19 and fm3 == 0x42dee1 and  fcsr ==
      0x60 and rm_val == 7   #nosat'
    : 1
    ? 'fs1 == 0 and fe1 == 0x1a and fm1 == 0x31b80e and fs2 == 0 and fe2 == 0x7e and
      fm2 == 0x0c5a70 and fs3 == 0 and fe3 == 0x19 and fm3 == 0x42dee1 and  fcsr ==
      0x80 and rm_val == 7   #nosat'
    : 1
    ? 'fs1 == 0 and fe1 == 0x1b and fm1 == 0x1378fe and fs2 == 0 and fe2 == 0x7e and
      fm2 == 0x2137b5 and fs3 == 0 and fe3 == 0x1a and fm3 == 0x39be5f and  fcsr ==
      0x0 and rm_val == 7   #nosat'
    : 1
    ? 'fs1 == 0 and fe1 == 0x1b and fm1 == 0x1378fe and fs2 == 0 and fe2 == 0x7e and
      fm2 == 0x2137b5 and fs3 == 0 and fe3 == 0x1a and fm3 == 0x39be5f and  fcsr ==
      0x20 and rm_val == 7   #nosat'
    : 1
    ? 'fs1 == 0 and fe1 == 0x1b and fm1 == 0x1378fe and fs2 == 0 and fe2 == 0x7e and
      fm2 == 0x2137b5 and fs3 == 0 and fe3 == 0x1a and fm3 == 0x39be5f and  fcsr ==
      0x40 and rm_val == 7   #nosat'
    : 1
    ? 'fs1 == 0 and fe1 == 0x1b and fm1 == 0x1378fe and fs2 == 0 and fe2 == 0x7e and
      fm2 == 0x2137b5 and fs3 == 0 and fe3 == 0x1a and fm3 == 0x39be5f and  fcsr ==
      0x60 and rm_val == 7   #nosat'
    : 1
    ? 'fs1 == 0 and fe1 == 0x1b and fm1 == 0x1378fe and fs2 == 0 and fe2 == 0x7e and
      fm2 == 0x2137b5 and fs3 == 0 and fe3 == 0x1a and fm3 == 0x39be5f and  fcsr ==
      0x80 and rm_val == 7   #nosat'
    : 1
    ? 'fs1 == 0 and fe1 == 0x1b and fm1 == 0x0f2a06 and fs2 == 0 and fe2 == 0x7e and
      fm2 == 0x760e49 and fs3 == 0 and fe3 == 0x1b and fm3 == 0x099a5f and  fcsr ==
      0x0 and rm_val == 7   #nosat'
    : 1
    ? 'fs1 == 0 and fe1 == 0x1b and fm1 == 0x0f2a06 and fs2 == 0 and fe2 == 0x7e and
      fm2 == 0x760e49 and fs3 == 0 and fe3 == 0x1b and fm3 == 0x099a5f and  fcsr ==
      0x20 and rm_val == 7   #nosat'
    : 1
    ? 'fs1 == 0 and fe1 == 0x1b and fm1 == 0x0f2a06 and fs2 == 0 and fe2 == 0x7e and
      fm2 == 0x760e49 and fs3 == 0 and fe3 == 0x1b and fm3 == 0x099a5f and  fcsr ==
      0x40 and rm_val == 7   #nosat'
    : 1
    ? 'fs1 == 0 and fe1 == 0x1b and fm1 == 0x0f2a06 and fs2 == 0 and fe2 == 0x7e and
      fm2 == 0x760e49 and fs3 == 0 and fe3 == 0x1b and fm3 == 0x099a5f and  fcsr ==
      0x60 and rm_val == 7   #nosat'
    : 1
    ? 'fs1 == 0 and fe1 == 0x1b and fm1 == 0x0f2a06 and fs2 == 0 and fe2 == 0x7e and
      fm2 == 0x760e49 and fs3 == 0 and fe3 == 0x1b and fm3 == 0x099a5f and  fcsr ==
      0x80 and rm_val == 7   #nosat'
    : 1
    ? 'fs1 == 0 and fe1 == 0x1a and fm1 == 0x24f9ec and fs2 == 0 and fe2 == 0x7e and
      fm2 == 0x50732e and fs3 == 0 and fe3 == 0x1a and fm3 == 0x06554a and  fcsr ==
      0x0 and rm_val == 7   #nosat'
    : 1
    ? 'fs1 == 0 and fe1 == 0x1a and fm1 == 0x24f9ec and fs2 == 0 and fe2 == 0x7e and
      fm2 == 0x50732e and fs3 == 0 and fe3 == 0x1a and fm3 == 0x06554a and  fcsr ==
      0x20 and rm_val == 7   #nosat'
    : 1
    ? 'fs1 == 0 and fe1 == 0x1a and fm1 == 0x24f9ec and fs2 == 0 and fe2 == 0x7e and
      fm2 == 0x50732e and fs3 == 0 and fe3 == 0x1a and fm3 == 0x06554a and  fcsr ==
      0x40 and rm_val == 7   #nosat'
    : 1
    ? 'fs1 == 0 and fe1 == 0x1a and fm1 == 0x24f9ec and fs2 == 0 and fe2 == 0x7e and
      fm2 == 0x50732e and fs3 == 0 and fe3 == 0x1a and fm3 == 0x06554a and  fcsr ==
      0x60 and rm_val == 7   #nosat'
    : 1
    ? 'fs1 == 0 and fe1 == 0x1a and fm1 == 0x24f9ec and fs2 == 0 and fe2 == 0x7e and
      fm2 == 0x50732e and fs3 == 0 and fe3 == 0x1a and fm3 == 0x06554a and  fcsr ==
      0x80 and rm_val == 7   #nosat'
    : 1
    ? 'fs1 == 0 and fe1 == 0x1a and fm1 == 0x425bb3 and fs2 == 0 and fe2 == 0x7e and
      fm2 == 0x383ee2 and fs3 == 0 and fe3 == 0x1a and fm3 == 0x0be1a7 and  fcsr ==
      0x0 and rm_val == 7   #nosat'
    : 1
    ? 'fs1 == 0 and fe1 == 0x1a and fm1 == 0x425bb3 and fs2 == 0 and fe2 == 0x7e and
      fm2 == 0x383ee2 and fs3 == 0 and fe3 == 0x1a and fm3 == 0x0be1a7 and  fcsr ==
      0x20 and rm_val == 7   #nosat'
    : 1
    ? 'fs1 == 0 and fe1 == 0x1a and fm1 == 0x425bb3 and fs2 == 0 and fe2 == 0x7e and
      fm2 == 0x383ee2 and fs3 == 0 and fe3 == 0x1a and fm3 == 0x0be1a7 and  fcsr ==
      0x40 and rm_val == 7   #nosat'
    : 1
    ? 'fs1 == 0 and fe1 == 0x1a and fm1 == 0x425bb3 and fs2 == 0 and fe2 == 0x7e and
      fm2 == 0x383ee2 and fs3 == 0 and fe3 == 0x1a and fm3 == 0x0be1a7 and  fcsr ==
      0x60 and rm_val == 7   #nosat'
    : 1
    ? 'fs1 == 0 and fe1 == 0x1a and fm1 == 0x425bb3 and fs2 == 0 and fe2 == 0x7e and
      fm2 == 0x383ee2 and fs3 == 0 and fe3 == 0x1a and fm3 == 0x0be1a7 and  fcsr ==
      0x80 and rm_val == 7   #nosat'
    : 1
    ? 'fs1 == 0 and fe1 == 0x18 and fm1 == 0x5167f7 and fs2 == 0 and fe2 == 0x7f and
      fm2 == 0x721752 and fs3 == 0 and fe3 == 0x19 and fm3 == 0x46075c and  fcsr ==
      0x0 and rm_val == 7   #nosat'
    : 1
    ? 'fs1 == 0 and fe1 == 0x18 and fm1 == 0x5167f7 and fs2 == 0 and fe2 == 0x7f and
      fm2 == 0x721752 and fs3 == 0 and fe3 == 0x19 and fm3 == 0x46075c and  fcsr ==
      0x20 and rm_val == 7   #nosat'
    : 1
    ? 'fs1 == 0 and fe1 == 0x18 and fm1 == 0x5167f7 and fs2 == 0 and fe2 == 0x7f and
      fm2 == 0x721752 and fs3 == 0 and fe3 == 0x19 and fm3 == 0x46075c and  fcsr ==
      0x40 and rm_val == 7   #nosat'
    : 1
    ? 'fs1 == 0 and fe1 == 0x18 and fm1 == 0x5167f7 and fs2 == 0 and fe2 == 0x7f and
      fm2 == 0x721752 and fs3 == 0 and fe3 == 0x19 and fm3 == 0x46075c and  fcsr ==
      0x60 and rm_val == 7   #nosat'
    : 1
    ? 'fs1 == 0 and fe1 == 0x18 and fm1 == 0x5167f7 and fs2 == 0 and fe2 == 0x7f and
      fm2 == 0x721752 and fs3 == 0 and fe3 == 0x19 and fm3 == 0x46075c and  fcsr ==
      0x80 and rm_val == 7   #nosat'
    : 1
    ? 'fs1 == 0 and fe1 == 0x1b and fm1 == 0x03d9c3 and fs2 == 0 and fe2 == 0x7a and
      fm2 == 0x59f349 and fs3 == 0 and fe3 == 0x16 and fm3 == 0x6081c8 and  fcsr ==
      0x0 and rm_val == 7   #nosat'
    : 1
    ? 'fs1 == 0 and fe1 == 0x1b and fm1 == 0x03d9c3 and fs2 == 0 and fe2 == 0x7a and
      fm2 == 0x59f349 and fs3 == 0 and fe3 == 0x16 and fm3 == 0x6081c8 and  fcsr ==
      0x20 and rm_val == 7   #nosat'
    : 1
    ? 'fs1 == 0 and fe1 == 0x1b and fm1 == 0x03d9c3 and fs2 == 0 and fe2 == 0x7a and
      fm2 == 0x59f349 and fs3 == 0 and fe3 == 0x16 and fm3 == 0x6081c8 and  fcsr ==
      0x40 and rm_val == 7   #nosat'
    : 1
    ? 'fs1 == 0 and fe1 == 0x1b and fm1 == 0x03d9c3 and fs2 == 0 and fe2 == 0x7a and
      fm2 == 0x59f349 and fs3 == 0 and fe3 == 0x16 and fm3 == 0x6081c8 and  fcsr ==
      0x60 and rm_val == 7   #nosat'
    : 1
    ? 'fs1 == 0 and fe1 == 0x1b and fm1 == 0x03d9c3 and fs2 == 0 and fe2 == 0x7a and
      fm2 == 0x59f349 and fs3 == 0 and fe3 == 0x16 and fm3 == 0x6081c8 and  fcsr ==
      0x80 and rm_val == 7   #nosat'
    : 1
    ? 'fs1 == 0 and fe1 == 0x16 and fm1 == 0x70847f and fs2 == 0 and fe2 == 0x82 and
      fm2 == 0x5858c1 and fs3 == 0 and fe3 == 0x1a and fm3 == 0x4b432f and  fcsr ==
      0x0 and rm_val == 7   #nosat'
    : 1
    ? 'fs1 == 0 and fe1 == 0x16 and fm1 == 0x70847f and fs2 == 0 and fe2 == 0x82 and
      fm2 == 0x5858c1 and fs3 == 0 and fe3 == 0x1a and fm3 == 0x4b432f and  fcsr ==
      0x20 and rm_val == 7   #nosat'
    : 1
    ? 'fs1 == 0 and fe1 == 0x16 and fm1 == 0x70847f and fs2 == 0 and fe2 == 0x82 and
      fm2 == 0x5858c1 and fs3 == 0 and fe3 == 0x1a and fm3 == 0x4b432f and  fcsr ==
      0x40 and rm_val == 7   #nosat'
    : 1
    ? 'fs1 == 0 and fe1 == 0x16 and fm1 == 0x70847f and fs2 == 0 and fe2 == 0x82 and
      fm2 == 0x5858c1 and fs3 == 0 and fe3 == 0x1a and fm3 == 0x4b432f and  fcsr ==
      0x60 and rm_val == 7   #nosat'
    : 1
    ? 'fs1 == 0 and fe1 == 0x16 and fm1 == 0x70847f and fs2 == 0 and fe2 == 0x82 and
      fm2 == 0x5858c1 and fs3 == 0 and fe3 == 0x1a and fm3 == 0x4b432f and  fcsr ==
      0x80 and rm_val == 7   #nosat'
    : 1
    ? 'fs1 == 0 and fe1 == 0x19 and fm1 == 0x3602f5 and fs2 == 0 and fe2 == 0x7f and
      fm2 == 0x74055f and fs3 == 0 and fe3 == 0x1a and fm3 == 0x2d7ea4 and  fcsr ==
      0x0 and rm_val == 7   #nosat'
    : 1
    ? 'fs1 == 0 and fe1 == 0x19 and fm1 == 0x3602f5 and fs2 == 0 and fe2 == 0x7f and
      fm2 == 0x74055f and fs3 == 0 and fe3 == 0x1a and fm3 == 0x2d7ea4 and  fcsr ==
      0x20 and rm_val == 7   #nosat'
    : 1
    ? 'fs1 == 0 and fe1 == 0x19 and fm1 == 0x3602f5 and fs2 == 0 and fe2 == 0x7f and
      fm2 == 0x74055f and fs3 == 0 and fe3 == 0x1a and fm3 == 0x2d7ea4 and  fcsr ==
      0x40 and rm_val == 7   #nosat'
    : 1
    ? 'fs1 == 0 and fe1 == 0x19 and fm1 == 0x3602f5 and fs2 == 0 and fe2 == 0x7f and
      fm2 == 0x74055f and fs3 == 0 and fe3 == 0x1a and fm3 == 0x2d7ea4 and  fcsr ==
      0x60 and rm_val == 7   #nosat'
    : 1
    ? 'fs1 == 0 and fe1 == 0x19 and fm1 == 0x3602f5 and fs2 == 0 and fe2 == 0x7f and
      fm2 == 0x74055f and fs3 == 0 and fe3 == 0x1a and fm3 == 0x2d7ea4 and  fcsr ==
      0x80 and rm_val == 7   #nosat'
    : 1
    ? 'fs1 == 0 and fe1 == 0x1a and fm1 == 0x18ed18 and fs2 == 0 and fe2 == 0x7e and
      fm2 == 0x3a3fad and fs3 == 0 and fe3 == 0x19 and fm3 == 0x5e849b and  fcsr ==
      0x0 and rm_val == 7   #nosat'
    : 1
    ? 'fs1 == 0 and fe1 == 0x1a and fm1 == 0x18ed18 and fs2 == 0 and fe2 == 0x7e and
      fm2 == 0x3a3fad and fs3 == 0 and fe3 == 0x19 and fm3 == 0x5e849b and  fcsr ==
      0x20 and rm_val == 7   #nosat'
    : 1
    ? 'fs1 == 0 and fe1 == 0x1a and fm1 == 0x18ed18 and fs2 == 0 and fe2 == 0x7e and
      fm2 == 0x3a3fad and fs3 == 0 and fe3 == 0x19 and fm3 == 0x5e849b and  fcsr ==
      0x40 and rm_val == 7   #nosat'
    : 1
    ? 'fs1 == 0 and fe1 == 0x1a and fm1 == 0x18ed18 and fs2 == 0 and fe2 == 0x7e and
      fm2 == 0x3a3fad and fs3 == 0 and fe3 == 0x19 and fm3 == 0x5e849b and  fcsr ==
      0x60 and rm_val == 7   #nosat'
    : 1
    ? 'fs1 == 0 and fe1 == 0x1a and fm1 == 0x18ed18 and fs2 == 0 and fe2 == 0x7e and
      fm2 == 0x3a3fad and fs3 == 0 and fe3 == 0x19 and fm3 == 0x5e849b and  fcsr ==
      0x80 and rm_val == 7   #nosat'
    : 1
    ? 'fs1 == 0 and fe1 == 0x1b and fm1 == 0x21d157 and fs2 == 0 and fe2 == 0x7c and
      fm2 == 0x48d04e and fs3 == 0 and fe3 == 0x18 and fm3 == 0x7dde70 and  fcsr ==
      0x0 and rm_val == 7   #nosat'
    : 1
    ? 'fs1 == 0 and fe1 == 0x1b and fm1 == 0x21d157 and fs2 == 0 and fe2 == 0x7c and
      fm2 == 0x48d04e and fs3 == 0 and fe3 == 0x18 and fm3 == 0x7dde70 and  fcsr ==
      0x20 and rm_val == 7   #nosat'
    : 1
    ? 'fs1 == 0 and fe1 == 0x1b and fm1 == 0x21d157 and fs2 == 0 and fe2 == 0x7c and
      fm2 == 0x48d04e and fs3 == 0 and fe3 == 0x18 and fm3 == 0x7dde70 and  fcsr ==
      0x40 and rm_val == 7   #nosat'
    : 1
    ? 'fs1 == 0 and fe1 == 0x1b and fm1 == 0x21d157 and fs2 == 0 and fe2 == 0x7c and
      fm2 == 0x48d04e and fs3 == 0 and fe3 == 0x18 and fm3 == 0x7dde70 and  fcsr ==
      0x60 and rm_val == 7   #nosat'
    : 1
    ? 'fs1 == 0 and fe1 == 0x1b and fm1 == 0x21d157 and fs2 == 0 and fe2 == 0x7c and
      fm2 == 0x48d04e and fs3 == 0 and fe3 == 0x18 and fm3 == 0x7dde70 and  fcsr ==
      0x80 and rm_val == 7   #nosat'
    : 1
    ? 'fs1 == 0 and fe1 == 0x1a and fm1 == 0x05f5a3 and fs2 == 0 and fe2 == 0x7d and
      fm2 == 0x7b60ae and fs3 == 0 and fe3 == 0x19 and fm3 == 0x038a6e and  fcsr ==
      0x0 and rm_val == 7   #nosat'
    : 1
    ? 'fs1 == 0 and fe1 == 0x1a and fm1 == 0x05f5a3 and fs2 == 0 and fe2 == 0x7d and
      fm2 == 0x7b60ae and fs3 == 0 and fe3 == 0x19 and fm3 == 0x038a6e and  fcsr ==
      0x20 and rm_val == 7   #nosat'
    : 1
    ? 'fs1 == 0 and fe1 == 0x1a and fm1 == 0x05f5a3 and fs2 == 0 and fe2 == 0x7d and
      fm2 == 0x7b60ae and fs3 == 0 and fe3 == 0x19 and fm3 == 0x038a6e and  fcsr ==
      0x40 and rm_val == 7   #nosat'
    : 1
    ? 'fs1 == 0 and fe1 == 0x1a and fm1 == 0x05f5a3 and fs2 == 0 and fe2 == 0x7d and
      fm2 == 0x7b60ae and fs3 == 0 and fe3 == 0x19 and fm3 == 0x038a6e and  fcsr ==
      0x60 and rm_val == 7   #nosat'
    : 1
    ? 'fs1 == 0 and fe1 == 0x1a and fm1 == 0x05f5a3 and fs2 == 0 and fe2 == 0x7d and
      fm2 == 0x7b60ae and fs3 == 0 and fe3 == 0x19 and fm3 == 0x038a6e and  fcsr ==
      0x80 and rm_val == 7   #nosat'
    : 1
    ? 'fs1 == 0 and fe1 == 0x1a and fm1 == 0x4d4fc0 and fs2 == 0 and fe2 == 0x7d and
      fm2 == 0x5f9b4b and fs3 == 0 and fe3 == 0x19 and fm3 == 0x335503 and  fcsr ==
      0x0 and rm_val == 7   #nosat'
    : 1
    ? 'fs1 == 0 and fe1 == 0x1a and fm1 == 0x4d4fc0 and fs2 == 0 and fe2 == 0x7d and
      fm2 == 0x5f9b4b and fs3 == 0 and fe3 == 0x19 and fm3 == 0x335503 and  fcsr ==
      0x20 and rm_val == 7   #nosat'
    : 1
    ? 'fs1 == 0 and fe1 == 0x1a and fm1 == 0x4d4fc0 and fs2 == 0 and fe2 == 0x7d and
      fm2 == 0x5f9b4b and fs3 == 0 and fe3 == 0x19 and fm3 == 0x335503 and  fcsr ==
      0x40 and rm_val == 7   #nosat'
    : 1
    ? 'fs1 == 0 and fe1 == 0x1a and fm1 == 0x4d4fc0 and fs2 == 0 and fe2 == 0x7d and
      fm2 == 0x5f9b4b and fs3 == 0 and fe3 == 0x19 and fm3 == 0x335503 and  fcsr ==
      0x60 and rm_val == 7   #nosat'
    : 1
    ? 'fs1 == 0 and fe1 == 0x1a and fm1 == 0x4d4fc0 and fs2 == 0 and fe2 == 0x7d and
      fm2 == 0x5f9b4b and fs3 == 0 and fe3 == 0x19 and fm3 == 0x335503 and  fcsr ==
      0x80 and rm_val == 7   #nosat'
    : 1
    coverage: 140/140
  total_coverage: 281/281
