---
c.fsd:
  config:
  - check ISA:=regex(.*I.*F.*D.*C.*)
  mnemonics:
    c.fsd: 14
    coverage: 1/1
  op_comb:
    rs1 != rs2: 14
    coverage: 1/1
  rs1:
    x10: 1
    x11: 1
    x12: 1
    x13: 1
    x14: 1
    x15: 7
    x8: 1
    x9: 1
    coverage: 8/8
  rs2:
    f10: 1
    f11: 1
    f12: 1
    f13: 1
    f14: 1
    f15: 7
    f8: 1
    f9: 1
    coverage: 8/8
  val_comb:
    imm_val == 0: 1
    imm_val > 0: 13
    imm_val == 168: 1
    imm_val == 80: 1
    imm_val == 8: 1
    imm_val == 16: 1
    imm_val == 240: 1
    imm_val == 232: 1
    imm_val == 216: 1
    imm_val == 184: 1
    imm_val == 120: 1
    imm_val == 32: 1
    imm_val == 64: 1
    imm_val == 128: 1
    coverage: 14/14
  total_coverage: 32/32
