---
fsub.d_b5:
  config:
  - check ISA:=regex(.*I.*Zfinx.*Zdinx.*)
  mnemonics:
    fsub.d: 212
    coverage: 1/1
  op_comb:
    rs1 != rs2  and rs1 != rd and rs2 != rd: 208
    rs1 == rd != rs2: 1
    rs1 == rs2 != rd: 1
    rs1 == rs2 == rd: 1
    rs2 == rd != rs1: 1
    coverage: 5/5
  rd:
    x10: 1
    x12: 1
    x14: 1
    x16: 1
    x18: 1
    x2: 1
    x20: 1
    x22: 1
    x24: 1
    x26: 1
    x28: 1
    x30: 1
    x4: 1
    x6: 1
    x8: 1
    coverage: 15/15
  rs1:
    x10: 1
    x12: 1
    x14: 1
    x16: 1
    x18: 1
    x2: 1
    x20: 1
    x22: 1
    x24: 1
    x26: 1
    x28: 1
    x30: 197
    x4: 1
    x6: 1
    x8: 1
    coverage: 15/15
  rs2:
    x10: 1
    x12: 1
    x14: 1
    x16: 1
    x18: 1
    x2: 1
    x20: 1
    x22: 1
    x24: 1
    x26: 1
    x28: 1
    x30: 3
    x4: 1
    x6: 1
    x8: 1
    coverage: 15/15
  val_comb:
    ? 'fs1 == 0 and fe1 == 0x7fc and fm1 == 0x132d8f91b7583 and fs2 == 0 and fe2 ==
      0x7fc and fm2 == 0x132d8f91b7583 and  fcsr == 0x0 and rm_val == 7   #nosat'
    : 1
    ? 'fs1 == 0 and fe1 == 0x7fc and fm1 == 0x132d8f91b7583 and fs2 == 0 and fe2 ==
      0x7fc and fm2 == 0x132d8f91b7583 and  fcsr == 0x20 and rm_val == 7   #nosat'
    : 2
    ? 'fs1 == 0 and fe1 == 0x7fc and fm1 == 0x132d8f91b7583 and fs2 == 0 and fe2 ==
      0x7fc and fm2 == 0x132d8f91b7583 and  fcsr == 0x40 and rm_val == 7   #nosat'
    : 2
    ? 'fs1 == 0 and fe1 == 0x7fc and fm1 == 0x132d8f91b7583 and fs2 == 0 and fe2 ==
      0x7fc and fm2 == 0x132d8f91b7583 and  fcsr == 0x60 and rm_val == 7   #nosat'
    : 1
    ? 'fs1 == 0 and fe1 == 0x7fc and fm1 == 0x132d8f91b7583 and fs2 == 0 and fe2 ==
      0x7fc and fm2 == 0x132d8f91b7583 and  fcsr == 0x80 and rm_val == 7   #nosat'
    : 1
    ? 'fs1 == 0 and fe1 == 0x7fe and fm1 == 0x870d778409f12 and fs2 == 0 and fe2 ==
      0x7fe and fm2 == 0x870d778409f12 and  fcsr == 0x0 and rm_val == 7   #nosat'
    : 1
    ? 'fs1 == 0 and fe1 == 0x7fe and fm1 == 0x870d778409f12 and fs2 == 0 and fe2 ==
      0x7fe and fm2 == 0x870d778409f12 and  fcsr == 0x20 and rm_val == 7   #nosat'
    : 1
    ? 'fs1 == 0 and fe1 == 0x7fe and fm1 == 0x870d778409f12 and fs2 == 0 and fe2 ==
      0x7fe and fm2 == 0x870d778409f12 and  fcsr == 0x40 and rm_val == 7   #nosat'
    : 1
    ? 'fs1 == 0 and fe1 == 0x7fe and fm1 == 0x870d778409f12 and fs2 == 0 and fe2 ==
      0x7fe and fm2 == 0x870d778409f12 and  fcsr == 0x60 and rm_val == 7   #nosat'
    : 1
    ? 'fs1 == 0 and fe1 == 0x7fe and fm1 == 0x870d778409f12 and fs2 == 0 and fe2 ==
      0x7fe and fm2 == 0x870d778409f12 and  fcsr == 0x80 and rm_val == 7   #nosat'
    : 1
    ? 'fs1 == 0 and fe1 == 0x7fd and fm1 == 0xfb5355e167379 and fs2 == 0 and fe2 ==
      0x7fd and fm2 == 0xfb5355e167379 and  fcsr == 0x0 and rm_val == 7   #nosat'
    : 1
    ? 'fs1 == 0 and fe1 == 0x7fd and fm1 == 0xfb5355e167379 and fs2 == 0 and fe2 ==
      0x7fd and fm2 == 0xfb5355e167379 and  fcsr == 0x20 and rm_val == 7   #nosat'
    : 1
    ? 'fs1 == 0 and fe1 == 0x7fd and fm1 == 0xfb5355e167379 and fs2 == 0 and fe2 ==
      0x7fd and fm2 == 0xfb5355e167379 and  fcsr == 0x40 and rm_val == 7   #nosat'
    : 1
    ? 'fs1 == 0 and fe1 == 0x7fd and fm1 == 0xfb5355e167379 and fs2 == 0 and fe2 ==
      0x7fd and fm2 == 0xfb5355e167379 and  fcsr == 0x60 and rm_val == 7   #nosat'
    : 1
    ? 'fs1 == 0 and fe1 == 0x7fd and fm1 == 0xfb5355e167379 and fs2 == 0 and fe2 ==
      0x7fd and fm2 == 0xfb5355e167379 and  fcsr == 0x80 and rm_val == 7   #nosat'
    : 1
    ? 'fs1 == 0 and fe1 == 0x7fe and fm1 == 0x4d9d98184b9d9 and fs2 == 0 and fe2 ==
      0x7fe and fm2 == 0x4d9d98184b9d9 and  fcsr == 0x0 and rm_val == 7   #nosat'
    : 1
    ? 'fs1 == 0 and fe1 == 0x7fe and fm1 == 0x4d9d98184b9d9 and fs2 == 0 and fe2 ==
      0x7fe and fm2 == 0x4d9d98184b9d9 and  fcsr == 0x20 and rm_val == 7   #nosat'
    : 1
    ? 'fs1 == 0 and fe1 == 0x7fe and fm1 == 0x4d9d98184b9d9 and fs2 == 0 and fe2 ==
      0x7fe and fm2 == 0x4d9d98184b9d9 and  fcsr == 0x40 and rm_val == 7   #nosat'
    : 1
    ? 'fs1 == 0 and fe1 == 0x7fe and fm1 == 0x4d9d98184b9d9 and fs2 == 0 and fe2 ==
      0x7fe and fm2 == 0x4d9d98184b9d9 and  fcsr == 0x60 and rm_val == 7   #nosat'
    : 1
    ? 'fs1 == 0 and fe1 == 0x7fe and fm1 == 0x4d9d98184b9d9 and fs2 == 0 and fe2 ==
      0x7fe and fm2 == 0x4d9d98184b9d9 and  fcsr == 0x80 and rm_val == 7   #nosat'
    : 1
    ? 'fs1 == 0 and fe1 == 0x7fb and fm1 == 0x8072e8f9c858f and fs2 == 0 and fe2 ==
      0x7fb and fm2 == 0x8072e8f9c858f and  fcsr == 0x0 and rm_val == 7   #nosat'
    : 1
    ? 'fs1 == 0 and fe1 == 0x7fb and fm1 == 0x8072e8f9c858f and fs2 == 0 and fe2 ==
      0x7fb and fm2 == 0x8072e8f9c858f and  fcsr == 0x20 and rm_val == 7   #nosat'
    : 1
    ? 'fs1 == 0 and fe1 == 0x7fb and fm1 == 0x8072e8f9c858f and fs2 == 0 and fe2 ==
      0x7fb and fm2 == 0x8072e8f9c858f and  fcsr == 0x40 and rm_val == 7   #nosat'
    : 1
    ? 'fs1 == 0 and fe1 == 0x7fb and fm1 == 0x8072e8f9c858f and fs2 == 0 and fe2 ==
      0x7fb and fm2 == 0x8072e8f9c858f and  fcsr == 0x60 and rm_val == 7   #nosat'
    : 1
    ? 'fs1 == 0 and fe1 == 0x7fb and fm1 == 0x8072e8f9c858f and fs2 == 0 and fe2 ==
      0x7fb and fm2 == 0x8072e8f9c858f and  fcsr == 0x80 and rm_val == 7   #nosat'
    : 1
    ? 'fs1 == 0 and fe1 == 0x7fe and fm1 == 0xabe96758f2a09 and fs2 == 0 and fe2 ==
      0x7fe and fm2 == 0xabe96758f2a09 and  fcsr == 0x0 and rm_val == 7   #nosat'
    : 1
    ? 'fs1 == 0 and fe1 == 0x7fe and fm1 == 0xabe96758f2a09 and fs2 == 0 and fe2 ==
      0x7fe and fm2 == 0xabe96758f2a09 and  fcsr == 0x20 and rm_val == 7   #nosat'
    : 1
    ? 'fs1 == 0 and fe1 == 0x7fe and fm1 == 0xabe96758f2a09 and fs2 == 0 and fe2 ==
      0x7fe and fm2 == 0xabe96758f2a09 and  fcsr == 0x40 and rm_val == 7   #nosat'
    : 1
    ? 'fs1 == 0 and fe1 == 0x7fe and fm1 == 0xabe96758f2a09 and fs2 == 0 and fe2 ==
      0x7fe and fm2 == 0xabe96758f2a09 and  fcsr == 0x60 and rm_val == 7   #nosat'
    : 1
    ? 'fs1 == 0 and fe1 == 0x7fe and fm1 == 0xabe96758f2a09 and fs2 == 0 and fe2 ==
      0x7fe and fm2 == 0xabe96758f2a09 and  fcsr == 0x80 and rm_val == 7   #nosat'
    : 1
    ? 'fs1 == 0 and fe1 == 0x7fe and fm1 == 0x86499331191c4 and fs2 == 0 and fe2 ==
      0x7fe and fm2 == 0x86499331191c4 and  fcsr == 0x0 and rm_val == 7   #nosat'
    : 1
    ? 'fs1 == 0 and fe1 == 0x7fe and fm1 == 0x86499331191c4 and fs2 == 0 and fe2 ==
      0x7fe and fm2 == 0x86499331191c4 and  fcsr == 0x20 and rm_val == 7   #nosat'
    : 1
    ? 'fs1 == 0 and fe1 == 0x7fe and fm1 == 0x86499331191c4 and fs2 == 0 and fe2 ==
      0x7fe and fm2 == 0x86499331191c4 and  fcsr == 0x40 and rm_val == 7   #nosat'
    : 1
    ? 'fs1 == 0 and fe1 == 0x7fe and fm1 == 0x86499331191c4 and fs2 == 0 and fe2 ==
      0x7fe and fm2 == 0x86499331191c4 and  fcsr == 0x60 and rm_val == 7   #nosat'
    : 1
    ? 'fs1 == 0 and fe1 == 0x7fe and fm1 == 0x86499331191c4 and fs2 == 0 and fe2 ==
      0x7fe and fm2 == 0x86499331191c4 and  fcsr == 0x80 and rm_val == 7   #nosat'
    : 1
    ? 'fs1 == 0 and fe1 == 0x7fd and fm1 == 0xc81394a2171e9 and fs2 == 0 and fe2 ==
      0x7fd and fm2 == 0xc81394a2171e9 and  fcsr == 0x0 and rm_val == 7   #nosat'
    : 1
    ? 'fs1 == 0 and fe1 == 0x7fd and fm1 == 0xc81394a2171e9 and fs2 == 0 and fe2 ==
      0x7fd and fm2 == 0xc81394a2171e9 and  fcsr == 0x20 and rm_val == 7   #nosat'
    : 1
    ? 'fs1 == 0 and fe1 == 0x7fd and fm1 == 0xc81394a2171e9 and fs2 == 0 and fe2 ==
      0x7fd and fm2 == 0xc81394a2171e9 and  fcsr == 0x40 and rm_val == 7   #nosat'
    : 1
    ? 'fs1 == 0 and fe1 == 0x7fd and fm1 == 0xc81394a2171e9 and fs2 == 0 and fe2 ==
      0x7fd and fm2 == 0xc81394a2171e9 and  fcsr == 0x60 and rm_val == 7   #nosat'
    : 1
    ? 'fs1 == 0 and fe1 == 0x7fd and fm1 == 0xc81394a2171e9 and fs2 == 0 and fe2 ==
      0x7fd and fm2 == 0xc81394a2171e9 and  fcsr == 0x80 and rm_val == 7   #nosat'
    : 1
    ? 'fs1 == 0 and fe1 == 0x7fc and fm1 == 0xd481499755d4b and fs2 == 0 and fe2 ==
      0x7fc and fm2 == 0xd481499755d4b and  fcsr == 0x0 and rm_val == 7   #nosat'
    : 1
    ? 'fs1 == 0 and fe1 == 0x7fc and fm1 == 0xd481499755d4b and fs2 == 0 and fe2 ==
      0x7fc and fm2 == 0xd481499755d4b and  fcsr == 0x20 and rm_val == 7   #nosat'
    : 1
    ? 'fs1 == 0 and fe1 == 0x7fc and fm1 == 0xd481499755d4b and fs2 == 0 and fe2 ==
      0x7fc and fm2 == 0xd481499755d4b and  fcsr == 0x40 and rm_val == 7   #nosat'
    : 1
    ? 'fs1 == 0 and fe1 == 0x7fc and fm1 == 0xd481499755d4b and fs2 == 0 and fe2 ==
      0x7fc and fm2 == 0xd481499755d4b and  fcsr == 0x60 and rm_val == 7   #nosat'
    : 1
    ? 'fs1 == 0 and fe1 == 0x7fc and fm1 == 0xd481499755d4b and fs2 == 0 and fe2 ==
      0x7fc and fm2 == 0xd481499755d4b and  fcsr == 0x80 and rm_val == 7   #nosat'
    : 1
    ? 'fs1 == 0 and fe1 == 0x7fe and fm1 == 0xcd87e65450c45 and fs2 == 0 and fe2 ==
      0x7fe and fm2 == 0xcd87e65450c45 and  fcsr == 0x0 and rm_val == 7   #nosat'
    : 1
    ? 'fs1 == 0 and fe1 == 0x7fe and fm1 == 0xcd87e65450c45 and fs2 == 0 and fe2 ==
      0x7fe and fm2 == 0xcd87e65450c45 and  fcsr == 0x20 and rm_val == 7   #nosat'
    : 1
    ? 'fs1 == 0 and fe1 == 0x7fe and fm1 == 0xcd87e65450c45 and fs2 == 0 and fe2 ==
      0x7fe and fm2 == 0xcd87e65450c45 and  fcsr == 0x40 and rm_val == 7   #nosat'
    : 1
    ? 'fs1 == 0 and fe1 == 0x7fe and fm1 == 0xcd87e65450c45 and fs2 == 0 and fe2 ==
      0x7fe and fm2 == 0xcd87e65450c45 and  fcsr == 0x60 and rm_val == 7   #nosat'
    : 1
    ? 'fs1 == 0 and fe1 == 0x7fe and fm1 == 0xcd87e65450c45 and fs2 == 0 and fe2 ==
      0x7fe and fm2 == 0xcd87e65450c45 and  fcsr == 0x80 and rm_val == 7   #nosat'
    : 1
    ? 'fs1 == 0 and fe1 == 0x7f9 and fm1 == 0xa0e7ad32453df and fs2 == 0 and fe2 ==
      0x7f9 and fm2 == 0xa0e7ad32453df and  fcsr == 0x0 and rm_val == 7   #nosat'
    : 1
    ? 'fs1 == 0 and fe1 == 0x7f9 and fm1 == 0xa0e7ad32453df and fs2 == 0 and fe2 ==
      0x7f9 and fm2 == 0xa0e7ad32453df and  fcsr == 0x20 and rm_val == 7   #nosat'
    : 1
    ? 'fs1 == 0 and fe1 == 0x7f9 and fm1 == 0xa0e7ad32453df and fs2 == 0 and fe2 ==
      0x7f9 and fm2 == 0xa0e7ad32453df and  fcsr == 0x40 and rm_val == 7   #nosat'
    : 1
    ? 'fs1 == 0 and fe1 == 0x7f9 and fm1 == 0xa0e7ad32453df and fs2 == 0 and fe2 ==
      0x7f9 and fm2 == 0xa0e7ad32453df and  fcsr == 0x60 and rm_val == 7   #nosat'
    : 1
    ? 'fs1 == 0 and fe1 == 0x7f9 and fm1 == 0xa0e7ad32453df and fs2 == 0 and fe2 ==
      0x7f9 and fm2 == 0xa0e7ad32453df and  fcsr == 0x80 and rm_val == 7   #nosat'
    : 1
    ? 'fs1 == 0 and fe1 == 0x7fe and fm1 == 0xe0d828b86622a and fs2 == 0 and fe2 ==
      0x7fe and fm2 == 0xe0d828b86622a and  fcsr == 0x0 and rm_val == 7   #nosat'
    : 1
    ? 'fs1 == 0 and fe1 == 0x7fe and fm1 == 0xe0d828b86622a and fs2 == 0 and fe2 ==
      0x7fe and fm2 == 0xe0d828b86622a and  fcsr == 0x20 and rm_val == 7   #nosat'
    : 1
    ? 'fs1 == 0 and fe1 == 0x7fe and fm1 == 0xe0d828b86622a and fs2 == 0 and fe2 ==
      0x7fe and fm2 == 0xe0d828b86622a and  fcsr == 0x40 and rm_val == 7   #nosat'
    : 1
    ? 'fs1 == 0 and fe1 == 0x7fe and fm1 == 0xe0d828b86622a and fs2 == 0 and fe2 ==
      0x7fe and fm2 == 0xe0d828b86622a and  fcsr == 0x60 and rm_val == 7   #nosat'
    : 1
    ? 'fs1 == 0 and fe1 == 0x7fe and fm1 == 0xe0d828b86622a and fs2 == 0 and fe2 ==
      0x7fe and fm2 == 0xe0d828b86622a and  fcsr == 0x80 and rm_val == 7   #nosat'
    : 1
    ? 'fs1 == 0 and fe1 == 0x7fc and fm1 == 0xbb9876f8130c3 and fs2 == 0 and fe2 ==
      0x7fc and fm2 == 0xbb9876f8130c3 and  fcsr == 0x0 and rm_val == 7   #nosat'
    : 1
    ? 'fs1 == 0 and fe1 == 0x7fc and fm1 == 0xbb9876f8130c3 and fs2 == 0 and fe2 ==
      0x7fc and fm2 == 0xbb9876f8130c3 and  fcsr == 0x20 and rm_val == 7   #nosat'
    : 1
    ? 'fs1 == 0 and fe1 == 0x7fc and fm1 == 0xbb9876f8130c3 and fs2 == 0 and fe2 ==
      0x7fc and fm2 == 0xbb9876f8130c3 and  fcsr == 0x40 and rm_val == 7   #nosat'
    : 1
    ? 'fs1 == 0 and fe1 == 0x7fc and fm1 == 0xbb9876f8130c3 and fs2 == 0 and fe2 ==
      0x7fc and fm2 == 0xbb9876f8130c3 and  fcsr == 0x60 and rm_val == 7   #nosat'
    : 1
    ? 'fs1 == 0 and fe1 == 0x7fc and fm1 == 0xbb9876f8130c3 and fs2 == 0 and fe2 ==
      0x7fc and fm2 == 0xbb9876f8130c3 and  fcsr == 0x80 and rm_val == 7   #nosat'
    : 1
    ? 'fs1 == 0 and fe1 == 0x7f9 and fm1 == 0xdbcde43895c3f and fs2 == 0 and fe2 ==
      0x7f9 and fm2 == 0xdbcde43895c3f and  fcsr == 0x0 and rm_val == 7   #nosat'
    : 1
    ? 'fs1 == 0 and fe1 == 0x7f9 and fm1 == 0xdbcde43895c3f and fs2 == 0 and fe2 ==
      0x7f9 and fm2 == 0xdbcde43895c3f and  fcsr == 0x20 and rm_val == 7   #nosat'
    : 1
    ? 'fs1 == 0 and fe1 == 0x7f9 and fm1 == 0xdbcde43895c3f and fs2 == 0 and fe2 ==
      0x7f9 and fm2 == 0xdbcde43895c3f and  fcsr == 0x40 and rm_val == 7   #nosat'
    : 1
    ? 'fs1 == 0 and fe1 == 0x7f9 and fm1 == 0xdbcde43895c3f and fs2 == 0 and fe2 ==
      0x7f9 and fm2 == 0xdbcde43895c3f and  fcsr == 0x60 and rm_val == 7   #nosat'
    : 1
    ? 'fs1 == 0 and fe1 == 0x7f9 and fm1 == 0xdbcde43895c3f and fs2 == 0 and fe2 ==
      0x7f9 and fm2 == 0xdbcde43895c3f and  fcsr == 0x80 and rm_val == 7   #nosat'
    : 1
    ? 'fs1 == 0 and fe1 == 0x7fd and fm1 == 0xc0659af8369fd and fs2 == 0 and fe2 ==
      0x7fd and fm2 == 0xc0659af8369fd and  fcsr == 0x0 and rm_val == 7   #nosat'
    : 1
    ? 'fs1 == 0 and fe1 == 0x7fd and fm1 == 0xc0659af8369fd and fs2 == 0 and fe2 ==
      0x7fd and fm2 == 0xc0659af8369fd and  fcsr == 0x20 and rm_val == 7   #nosat'
    : 1
    ? 'fs1 == 0 and fe1 == 0x7fd and fm1 == 0xc0659af8369fd and fs2 == 0 and fe2 ==
      0x7fd and fm2 == 0xc0659af8369fd and  fcsr == 0x40 and rm_val == 7   #nosat'
    : 1
    ? 'fs1 == 0 and fe1 == 0x7fd and fm1 == 0xc0659af8369fd and fs2 == 0 and fe2 ==
      0x7fd and fm2 == 0xc0659af8369fd and  fcsr == 0x60 and rm_val == 7   #nosat'
    : 1
    ? 'fs1 == 0 and fe1 == 0x7fd and fm1 == 0xc0659af8369fd and fs2 == 0 and fe2 ==
      0x7fd and fm2 == 0xc0659af8369fd and  fcsr == 0x80 and rm_val == 7   #nosat'
    : 1
    ? 'fs1 == 0 and fe1 == 0x7fc and fm1 == 0xdd5b61587fd27 and fs2 == 0 and fe2 ==
      0x7fc and fm2 == 0xdd5b61587fd27 and  fcsr == 0x0 and rm_val == 7   #nosat'
    : 1
    ? 'fs1 == 0 and fe1 == 0x7fc and fm1 == 0xdd5b61587fd27 and fs2 == 0 and fe2 ==
      0x7fc and fm2 == 0xdd5b61587fd27 and  fcsr == 0x20 and rm_val == 7   #nosat'
    : 1
    ? 'fs1 == 0 and fe1 == 0x7fc and fm1 == 0xdd5b61587fd27 and fs2 == 0 and fe2 ==
      0x7fc and fm2 == 0xdd5b61587fd27 and  fcsr == 0x40 and rm_val == 7   #nosat'
    : 1
    ? 'fs1 == 0 and fe1 == 0x7fc and fm1 == 0xdd5b61587fd27 and fs2 == 0 and fe2 ==
      0x7fc and fm2 == 0xdd5b61587fd27 and  fcsr == 0x60 and rm_val == 7   #nosat'
    : 1
    ? 'fs1 == 0 and fe1 == 0x7fc and fm1 == 0xdd5b61587fd27 and fs2 == 0 and fe2 ==
      0x7fc and fm2 == 0xdd5b61587fd27 and  fcsr == 0x80 and rm_val == 7   #nosat'
    : 1
    ? 'fs1 == 0 and fe1 == 0x7fc and fm1 == 0xc01045c2cd787 and fs2 == 0 and fe2 ==
      0x7fc and fm2 == 0xc01045c2cd787 and  fcsr == 0x0 and rm_val == 7   #nosat'
    : 1
    ? 'fs1 == 0 and fe1 == 0x7fc and fm1 == 0xc01045c2cd787 and fs2 == 0 and fe2 ==
      0x7fc and fm2 == 0xc01045c2cd787 and  fcsr == 0x20 and rm_val == 7   #nosat'
    : 1
    ? 'fs1 == 0 and fe1 == 0x7fc and fm1 == 0xc01045c2cd787 and fs2 == 0 and fe2 ==
      0x7fc and fm2 == 0xc01045c2cd787 and  fcsr == 0x40 and rm_val == 7   #nosat'
    : 1
    ? 'fs1 == 0 and fe1 == 0x7fc and fm1 == 0xc01045c2cd787 and fs2 == 0 and fe2 ==
      0x7fc and fm2 == 0xc01045c2cd787 and  fcsr == 0x60 and rm_val == 7   #nosat'
    : 1
    ? 'fs1 == 0 and fe1 == 0x7fc and fm1 == 0xc01045c2cd787 and fs2 == 0 and fe2 ==
      0x7fc and fm2 == 0xc01045c2cd787 and  fcsr == 0x80 and rm_val == 7   #nosat'
    : 1
    ? 'fs1 == 0 and fe1 == 0x7fd and fm1 == 0x28bc82f697c4d and fs2 == 0 and fe2 ==
      0x7fd and fm2 == 0x28bc82f697c4d and  fcsr == 0x0 and rm_val == 7   #nosat'
    : 1
    ? 'fs1 == 0 and fe1 == 0x7fd and fm1 == 0x28bc82f697c4d and fs2 == 0 and fe2 ==
      0x7fd and fm2 == 0x28bc82f697c4d and  fcsr == 0x20 and rm_val == 7   #nosat'
    : 1
    ? 'fs1 == 0 and fe1 == 0x7fd and fm1 == 0x28bc82f697c4d and fs2 == 0 and fe2 ==
      0x7fd and fm2 == 0x28bc82f697c4d and  fcsr == 0x40 and rm_val == 7   #nosat'
    : 1
    ? 'fs1 == 0 and fe1 == 0x7fd and fm1 == 0x28bc82f697c4d and fs2 == 0 and fe2 ==
      0x7fd and fm2 == 0x28bc82f697c4d and  fcsr == 0x60 and rm_val == 7   #nosat'
    : 1
    ? 'fs1 == 0 and fe1 == 0x7fd and fm1 == 0x28bc82f697c4d and fs2 == 0 and fe2 ==
      0x7fd and fm2 == 0x28bc82f697c4d and  fcsr == 0x80 and rm_val == 7   #nosat'
    : 1
    ? 'fs1 == 0 and fe1 == 0x7fe and fm1 == 0xacd7053aa42a2 and fs2 == 0 and fe2 ==
      0x7fe and fm2 == 0xacd7053aa42a2 and  fcsr == 0x0 and rm_val == 7   #nosat'
    : 1
    ? 'fs1 == 0 and fe1 == 0x7fe and fm1 == 0xacd7053aa42a2 and fs2 == 0 and fe2 ==
      0x7fe and fm2 == 0xacd7053aa42a2 and  fcsr == 0x20 and rm_val == 7   #nosat'
    : 1
    ? 'fs1 == 0 and fe1 == 0x7fe and fm1 == 0xacd7053aa42a2 and fs2 == 0 and fe2 ==
      0x7fe and fm2 == 0xacd7053aa42a2 and  fcsr == 0x40 and rm_val == 7   #nosat'
    : 1
    ? 'fs1 == 0 and fe1 == 0x7fe and fm1 == 0xacd7053aa42a2 and fs2 == 0 and fe2 ==
      0x7fe and fm2 == 0xacd7053aa42a2 and  fcsr == 0x60 and rm_val == 7   #nosat'
    : 1
    ? 'fs1 == 0 and fe1 == 0x7fe and fm1 == 0xacd7053aa42a2 and fs2 == 0 and fe2 ==
      0x7fe and fm2 == 0xacd7053aa42a2 and  fcsr == 0x80 and rm_val == 7   #nosat'
    : 1
    ? 'fs1 == 0 and fe1 == 0x7fe and fm1 == 0x48dace8666677 and fs2 == 0 and fe2 ==
      0x7fe and fm2 == 0x48dace8666677 and  fcsr == 0x0 and rm_val == 7   #nosat'
    : 1
    ? 'fs1 == 0 and fe1 == 0x7fe and fm1 == 0x48dace8666677 and fs2 == 0 and fe2 ==
      0x7fe and fm2 == 0x48dace8666677 and  fcsr == 0x20 and rm_val == 7   #nosat'
    : 1
    ? 'fs1 == 0 and fe1 == 0x7fe and fm1 == 0x48dace8666677 and fs2 == 0 and fe2 ==
      0x7fe and fm2 == 0x48dace8666677 and  fcsr == 0x40 and rm_val == 7   #nosat'
    : 1
    ? 'fs1 == 0 and fe1 == 0x7fe and fm1 == 0x48dace8666677 and fs2 == 0 and fe2 ==
      0x7fe and fm2 == 0x48dace8666677 and  fcsr == 0x60 and rm_val == 7   #nosat'
    : 1
    ? 'fs1 == 0 and fe1 == 0x7fe and fm1 == 0x48dace8666677 and fs2 == 0 and fe2 ==
      0x7fe and fm2 == 0x48dace8666677 and  fcsr == 0x80 and rm_val == 7   #nosat'
    : 1
    ? 'fs1 == 0 and fe1 == 0x7fe and fm1 == 0xfc2ea66e5019e and fs2 == 0 and fe2 ==
      0x7fe and fm2 == 0xfc2ea66e5019e and  fcsr == 0x0 and rm_val == 7   #nosat'
    : 1
    ? 'fs1 == 0 and fe1 == 0x7fe and fm1 == 0xfc2ea66e5019e and fs2 == 0 and fe2 ==
      0x7fe and fm2 == 0xfc2ea66e5019e and  fcsr == 0x20 and rm_val == 7   #nosat'
    : 1
    ? 'fs1 == 0 and fe1 == 0x7fe and fm1 == 0xfc2ea66e5019e and fs2 == 0 and fe2 ==
      0x7fe and fm2 == 0xfc2ea66e5019e and  fcsr == 0x40 and rm_val == 7   #nosat'
    : 1
    ? 'fs1 == 0 and fe1 == 0x7fe and fm1 == 0xfc2ea66e5019e and fs2 == 0 and fe2 ==
      0x7fe and fm2 == 0xfc2ea66e5019e and  fcsr == 0x60 and rm_val == 7   #nosat'
    : 1
    ? 'fs1 == 0 and fe1 == 0x7fe and fm1 == 0xfc2ea66e5019e and fs2 == 0 and fe2 ==
      0x7fe and fm2 == 0xfc2ea66e5019e and  fcsr == 0x80 and rm_val == 7   #nosat'
    : 1
    ? 'fs1 == 0 and fe1 == 0x7fb and fm1 == 0xef2a4f7c7db7f and fs2 == 0 and fe2 ==
      0x7fb and fm2 == 0xef2a4f7c7db7f and  fcsr == 0x0 and rm_val == 7   #nosat'
    : 1
    ? 'fs1 == 0 and fe1 == 0x7fb and fm1 == 0xef2a4f7c7db7f and fs2 == 0 and fe2 ==
      0x7fb and fm2 == 0xef2a4f7c7db7f and  fcsr == 0x20 and rm_val == 7   #nosat'
    : 1
    ? 'fs1 == 0 and fe1 == 0x7fb and fm1 == 0xef2a4f7c7db7f and fs2 == 0 and fe2 ==
      0x7fb and fm2 == 0xef2a4f7c7db7f and  fcsr == 0x40 and rm_val == 7   #nosat'
    : 1
    ? 'fs1 == 0 and fe1 == 0x7fb and fm1 == 0xef2a4f7c7db7f and fs2 == 0 and fe2 ==
      0x7fb and fm2 == 0xef2a4f7c7db7f and  fcsr == 0x60 and rm_val == 7   #nosat'
    : 1
    ? 'fs1 == 0 and fe1 == 0x7fb and fm1 == 0xef2a4f7c7db7f and fs2 == 0 and fe2 ==
      0x7fb and fm2 == 0xef2a4f7c7db7f and  fcsr == 0x80 and rm_val == 7   #nosat'
    : 1
    ? 'fs1 == 0 and fe1 == 0x7fe and fm1 == 0x7166677e49c3c and fs2 == 0 and fe2 ==
      0x7fe and fm2 == 0x7166677e49c3c and  fcsr == 0x0 and rm_val == 7   #nosat'
    : 1
    ? 'fs1 == 0 and fe1 == 0x7fe and fm1 == 0x7166677e49c3c and fs2 == 0 and fe2 ==
      0x7fe and fm2 == 0x7166677e49c3c and  fcsr == 0x20 and rm_val == 7   #nosat'
    : 1
    ? 'fs1 == 0 and fe1 == 0x7fe and fm1 == 0x7166677e49c3c and fs2 == 0 and fe2 ==
      0x7fe and fm2 == 0x7166677e49c3c and  fcsr == 0x40 and rm_val == 7   #nosat'
    : 1
    ? 'fs1 == 0 and fe1 == 0x7fe and fm1 == 0x7166677e49c3c and fs2 == 0 and fe2 ==
      0x7fe and fm2 == 0x7166677e49c3c and  fcsr == 0x60 and rm_val == 7   #nosat'
    : 1
    ? 'fs1 == 0 and fe1 == 0x7fe and fm1 == 0x7166677e49c3c and fs2 == 0 and fe2 ==
      0x7fe and fm2 == 0x7166677e49c3c and  fcsr == 0x80 and rm_val == 7   #nosat'
    : 1
    ? 'fs1 == 0 and fe1 == 0x7fe and fm1 == 0xdf7523fde6c5d and fs2 == 0 and fe2 ==
      0x7fe and fm2 == 0xdf7523fde6c5d and  fcsr == 0x0 and rm_val == 7   #nosat'
    : 1
    ? 'fs1 == 0 and fe1 == 0x7fe and fm1 == 0xdf7523fde6c5d and fs2 == 0 and fe2 ==
      0x7fe and fm2 == 0xdf7523fde6c5d and  fcsr == 0x20 and rm_val == 7   #nosat'
    : 1
    ? 'fs1 == 0 and fe1 == 0x7fe and fm1 == 0xdf7523fde6c5d and fs2 == 0 and fe2 ==
      0x7fe and fm2 == 0xdf7523fde6c5d and  fcsr == 0x40 and rm_val == 7   #nosat'
    : 1
    ? 'fs1 == 0 and fe1 == 0x7fe and fm1 == 0xdf7523fde6c5d and fs2 == 0 and fe2 ==
      0x7fe and fm2 == 0xdf7523fde6c5d and  fcsr == 0x60 and rm_val == 7   #nosat'
    : 1
    ? 'fs1 == 0 and fe1 == 0x7fe and fm1 == 0xdf7523fde6c5d and fs2 == 0 and fe2 ==
      0x7fe and fm2 == 0xdf7523fde6c5d and  fcsr == 0x80 and rm_val == 7   #nosat'
    : 1
    ? 'fs1 == 0 and fe1 == 0x7fe and fm1 == 0xa8fa703a4078c and fs2 == 0 and fe2 ==
      0x7fe and fm2 == 0xa8fa703a4078c and  fcsr == 0x0 and rm_val == 7   #nosat'
    : 1
    ? 'fs1 == 0 and fe1 == 0x7fe and fm1 == 0xa8fa703a4078c and fs2 == 0 and fe2 ==
      0x7fe and fm2 == 0xa8fa703a4078c and  fcsr == 0x20 and rm_val == 7   #nosat'
    : 1
    ? 'fs1 == 0 and fe1 == 0x7fe and fm1 == 0xa8fa703a4078c and fs2 == 0 and fe2 ==
      0x7fe and fm2 == 0xa8fa703a4078c and  fcsr == 0x40 and rm_val == 7   #nosat'
    : 1
    ? 'fs1 == 0 and fe1 == 0x7fe and fm1 == 0xa8fa703a4078c and fs2 == 0 and fe2 ==
      0x7fe and fm2 == 0xa8fa703a4078c and  fcsr == 0x60 and rm_val == 7   #nosat'
    : 1
    ? 'fs1 == 0 and fe1 == 0x7fe and fm1 == 0xa8fa703a4078c and fs2 == 0 and fe2 ==
      0x7fe and fm2 == 0xa8fa703a4078c and  fcsr == 0x80 and rm_val == 7   #nosat'
    : 1
    ? 'fs1 == 0 and fe1 == 0x7fd and fm1 == 0x36a63c245f557 and fs2 == 0 and fe2 ==
      0x7fd and fm2 == 0x36a63c245f557 and  fcsr == 0x0 and rm_val == 7   #nosat'
    : 1
    ? 'fs1 == 0 and fe1 == 0x7fd and fm1 == 0x36a63c245f557 and fs2 == 0 and fe2 ==
      0x7fd and fm2 == 0x36a63c245f557 and  fcsr == 0x20 and rm_val == 7   #nosat'
    : 1
    ? 'fs1 == 0 and fe1 == 0x7fd and fm1 == 0x36a63c245f557 and fs2 == 0 and fe2 ==
      0x7fd and fm2 == 0x36a63c245f557 and  fcsr == 0x40 and rm_val == 7   #nosat'
    : 1
    ? 'fs1 == 0 and fe1 == 0x7fd and fm1 == 0x36a63c245f557 and fs2 == 0 and fe2 ==
      0x7fd and fm2 == 0x36a63c245f557 and  fcsr == 0x60 and rm_val == 7   #nosat'
    : 1
    ? 'fs1 == 0 and fe1 == 0x7fd and fm1 == 0x36a63c245f557 and fs2 == 0 and fe2 ==
      0x7fd and fm2 == 0x36a63c245f557 and  fcsr == 0x80 and rm_val == 7   #nosat'
    : 1
    ? 'fs1 == 0 and fe1 == 0x7fe and fm1 == 0xc3d4499ff58c3 and fs2 == 0 and fe2 ==
      0x7fe and fm2 == 0xc3d4499ff58c3 and  fcsr == 0x0 and rm_val == 7   #nosat'
    : 1
    ? 'fs1 == 0 and fe1 == 0x7fe and fm1 == 0xc3d4499ff58c3 and fs2 == 0 and fe2 ==
      0x7fe and fm2 == 0xc3d4499ff58c3 and  fcsr == 0x20 and rm_val == 7   #nosat'
    : 1
    ? 'fs1 == 0 and fe1 == 0x7fe and fm1 == 0xc3d4499ff58c3 and fs2 == 0 and fe2 ==
      0x7fe and fm2 == 0xc3d4499ff58c3 and  fcsr == 0x40 and rm_val == 7   #nosat'
    : 1
    ? 'fs1 == 0 and fe1 == 0x7fe and fm1 == 0xc3d4499ff58c3 and fs2 == 0 and fe2 ==
      0x7fe and fm2 == 0xc3d4499ff58c3 and  fcsr == 0x60 and rm_val == 7   #nosat'
    : 1
    ? 'fs1 == 0 and fe1 == 0x7fe and fm1 == 0xc3d4499ff58c3 and fs2 == 0 and fe2 ==
      0x7fe and fm2 == 0xc3d4499ff58c3 and  fcsr == 0x80 and rm_val == 7   #nosat'
    : 1
    ? 'fs1 == 0 and fe1 == 0x7fe and fm1 == 0x02b48f992cb49 and fs2 == 0 and fe2 ==
      0x7fe and fm2 == 0x02b48f992cb49 and  fcsr == 0x0 and rm_val == 7   #nosat'
    : 1
    ? 'fs1 == 0 and fe1 == 0x7fe and fm1 == 0x02b48f992cb49 and fs2 == 0 and fe2 ==
      0x7fe and fm2 == 0x02b48f992cb49 and  fcsr == 0x20 and rm_val == 7   #nosat'
    : 1
    ? 'fs1 == 0 and fe1 == 0x7fe and fm1 == 0x02b48f992cb49 and fs2 == 0 and fe2 ==
      0x7fe and fm2 == 0x02b48f992cb49 and  fcsr == 0x40 and rm_val == 7   #nosat'
    : 1
    ? 'fs1 == 0 and fe1 == 0x7fe and fm1 == 0x02b48f992cb49 and fs2 == 0 and fe2 ==
      0x7fe and fm2 == 0x02b48f992cb49 and  fcsr == 0x60 and rm_val == 7   #nosat'
    : 1
    ? 'fs1 == 0 and fe1 == 0x7fe and fm1 == 0x02b48f992cb49 and fs2 == 0 and fe2 ==
      0x7fe and fm2 == 0x02b48f992cb49 and  fcsr == 0x80 and rm_val == 7   #nosat'
    : 1
    ? 'fs1 == 0 and fe1 == 0x7fa and fm1 == 0x1ad5e9ebc09df and fs2 == 0 and fe2 ==
      0x7fa and fm2 == 0x1ad5e9ebc09df and  fcsr == 0x0 and rm_val == 7   #nosat'
    : 1
    ? 'fs1 == 0 and fe1 == 0x7fa and fm1 == 0x1ad5e9ebc09df and fs2 == 0 and fe2 ==
      0x7fa and fm2 == 0x1ad5e9ebc09df and  fcsr == 0x20 and rm_val == 7   #nosat'
    : 1
    ? 'fs1 == 0 and fe1 == 0x7fa and fm1 == 0x1ad5e9ebc09df and fs2 == 0 and fe2 ==
      0x7fa and fm2 == 0x1ad5e9ebc09df and  fcsr == 0x40 and rm_val == 7   #nosat'
    : 1
    ? 'fs1 == 0 and fe1 == 0x7fa and fm1 == 0x1ad5e9ebc09df and fs2 == 0 and fe2 ==
      0x7fa and fm2 == 0x1ad5e9ebc09df and  fcsr == 0x60 and rm_val == 7   #nosat'
    : 1
    ? 'fs1 == 0 and fe1 == 0x7fa and fm1 == 0x1ad5e9ebc09df and fs2 == 0 and fe2 ==
      0x7fa and fm2 == 0x1ad5e9ebc09df and  fcsr == 0x80 and rm_val == 7   #nosat'
    : 1
    ? 'fs1 == 0 and fe1 == 0x7fe and fm1 == 0x98455e99dfdb1 and fs2 == 0 and fe2 ==
      0x7fe and fm2 == 0x98455e99dfdb1 and  fcsr == 0x0 and rm_val == 7   #nosat'
    : 1
    ? 'fs1 == 0 and fe1 == 0x7fe and fm1 == 0x98455e99dfdb1 and fs2 == 0 and fe2 ==
      0x7fe and fm2 == 0x98455e99dfdb1 and  fcsr == 0x20 and rm_val == 7   #nosat'
    : 1
    ? 'fs1 == 0 and fe1 == 0x7fe and fm1 == 0x98455e99dfdb1 and fs2 == 0 and fe2 ==
      0x7fe and fm2 == 0x98455e99dfdb1 and  fcsr == 0x40 and rm_val == 7   #nosat'
    : 1
    ? 'fs1 == 0 and fe1 == 0x7fe and fm1 == 0x98455e99dfdb1 and fs2 == 0 and fe2 ==
      0x7fe and fm2 == 0x98455e99dfdb1 and  fcsr == 0x60 and rm_val == 7   #nosat'
    : 1
    ? 'fs1 == 0 and fe1 == 0x7fe and fm1 == 0x98455e99dfdb1 and fs2 == 0 and fe2 ==
      0x7fe and fm2 == 0x98455e99dfdb1 and  fcsr == 0x80 and rm_val == 7   #nosat'
    : 1
    ? 'fs1 == 0 and fe1 == 0x7fc and fm1 == 0x6251b45dfbd3b and fs2 == 0 and fe2 ==
      0x7fc and fm2 == 0x6251b45dfbd3b and  fcsr == 0x0 and rm_val == 7   #nosat'
    : 1
    ? 'fs1 == 0 and fe1 == 0x7fc and fm1 == 0x6251b45dfbd3b and fs2 == 0 and fe2 ==
      0x7fc and fm2 == 0x6251b45dfbd3b and  fcsr == 0x20 and rm_val == 7   #nosat'
    : 1
    ? 'fs1 == 0 and fe1 == 0x7fc and fm1 == 0x6251b45dfbd3b and fs2 == 0 and fe2 ==
      0x7fc and fm2 == 0x6251b45dfbd3b and  fcsr == 0x40 and rm_val == 7   #nosat'
    : 1
    ? 'fs1 == 0 and fe1 == 0x7fc and fm1 == 0x6251b45dfbd3b and fs2 == 0 and fe2 ==
      0x7fc and fm2 == 0x6251b45dfbd3b and  fcsr == 0x60 and rm_val == 7   #nosat'
    : 1
    ? 'fs1 == 0 and fe1 == 0x7fc and fm1 == 0x6251b45dfbd3b and fs2 == 0 and fe2 ==
      0x7fc and fm2 == 0x6251b45dfbd3b and  fcsr == 0x80 and rm_val == 7   #nosat'
    : 1
    ? 'fs1 == 0 and fe1 == 0x7fe and fm1 == 0x67f4f571a752e and fs2 == 0 and fe2 ==
      0x7fe and fm2 == 0x67f4f571a752e and  fcsr == 0x0 and rm_val == 7   #nosat'
    : 1
    ? 'fs1 == 0 and fe1 == 0x7fe and fm1 == 0x67f4f571a752e and fs2 == 0 and fe2 ==
      0x7fe and fm2 == 0x67f4f571a752e and  fcsr == 0x20 and rm_val == 7   #nosat'
    : 1
    ? 'fs1 == 0 and fe1 == 0x7fe and fm1 == 0x67f4f571a752e and fs2 == 0 and fe2 ==
      0x7fe and fm2 == 0x67f4f571a752e and  fcsr == 0x40 and rm_val == 7   #nosat'
    : 1
    ? 'fs1 == 0 and fe1 == 0x7fe and fm1 == 0x67f4f571a752e and fs2 == 0 and fe2 ==
      0x7fe and fm2 == 0x67f4f571a752e and  fcsr == 0x60 and rm_val == 7   #nosat'
    : 1
    ? 'fs1 == 0 and fe1 == 0x7fe and fm1 == 0x67f4f571a752e and fs2 == 0 and fe2 ==
      0x7fe and fm2 == 0x67f4f571a752e and  fcsr == 0x80 and rm_val == 7   #nosat'
    : 1
    ? 'fs1 == 0 and fe1 == 0x7fd and fm1 == 0x7fb2260b115e9 and fs2 == 0 and fe2 ==
      0x7fd and fm2 == 0x7fb2260b115e9 and  fcsr == 0x0 and rm_val == 7   #nosat'
    : 1
    ? 'fs1 == 0 and fe1 == 0x7fd and fm1 == 0x7fb2260b115e9 and fs2 == 0 and fe2 ==
      0x7fd and fm2 == 0x7fb2260b115e9 and  fcsr == 0x20 and rm_val == 7   #nosat'
    : 1
    ? 'fs1 == 0 and fe1 == 0x7fd and fm1 == 0x7fb2260b115e9 and fs2 == 0 and fe2 ==
      0x7fd and fm2 == 0x7fb2260b115e9 and  fcsr == 0x40 and rm_val == 7   #nosat'
    : 1
    ? 'fs1 == 0 and fe1 == 0x7fd and fm1 == 0x7fb2260b115e9 and fs2 == 0 and fe2 ==
      0x7fd and fm2 == 0x7fb2260b115e9 and  fcsr == 0x60 and rm_val == 7   #nosat'
    : 1
    ? 'fs1 == 0 and fe1 == 0x7fd and fm1 == 0x7fb2260b115e9 and fs2 == 0 and fe2 ==
      0x7fd and fm2 == 0x7fb2260b115e9 and  fcsr == 0x80 and rm_val == 7   #nosat'
    : 1
    ? 'fs1 == 0 and fe1 == 0x7fe and fm1 == 0x04507a06e8587 and fs2 == 0 and fe2 ==
      0x7fe and fm2 == 0x04507a06e8587 and  fcsr == 0x0 and rm_val == 7   #nosat'
    : 1
    ? 'fs1 == 0 and fe1 == 0x7fe and fm1 == 0x04507a06e8587 and fs2 == 0 and fe2 ==
      0x7fe and fm2 == 0x04507a06e8587 and  fcsr == 0x20 and rm_val == 7   #nosat'
    : 1
    ? 'fs1 == 0 and fe1 == 0x7fe and fm1 == 0x04507a06e8587 and fs2 == 0 and fe2 ==
      0x7fe and fm2 == 0x04507a06e8587 and  fcsr == 0x40 and rm_val == 7   #nosat'
    : 1
    ? 'fs1 == 0 and fe1 == 0x7fe and fm1 == 0x04507a06e8587 and fs2 == 0 and fe2 ==
      0x7fe and fm2 == 0x04507a06e8587 and  fcsr == 0x60 and rm_val == 7   #nosat'
    : 1
    ? 'fs1 == 0 and fe1 == 0x7fe and fm1 == 0x04507a06e8587 and fs2 == 0 and fe2 ==
      0x7fe and fm2 == 0x04507a06e8587 and  fcsr == 0x80 and rm_val == 7   #nosat'
    : 1
    ? 'fs1 == 0 and fe1 == 0x7fe and fm1 == 0x0ab870b5c1c40 and fs2 == 0 and fe2 ==
      0x7fe and fm2 == 0x0ab870b5c1c40 and  fcsr == 0x0 and rm_val == 7   #nosat'
    : 1
    ? 'fs1 == 0 and fe1 == 0x7fe and fm1 == 0x0ab870b5c1c40 and fs2 == 0 and fe2 ==
      0x7fe and fm2 == 0x0ab870b5c1c40 and  fcsr == 0x20 and rm_val == 7   #nosat'
    : 1
    ? 'fs1 == 0 and fe1 == 0x7fe and fm1 == 0x0ab870b5c1c40 and fs2 == 0 and fe2 ==
      0x7fe and fm2 == 0x0ab870b5c1c40 and  fcsr == 0x40 and rm_val == 7   #nosat'
    : 1
    ? 'fs1 == 0 and fe1 == 0x7fe and fm1 == 0x0ab870b5c1c40 and fs2 == 0 and fe2 ==
      0x7fe and fm2 == 0x0ab870b5c1c40 and  fcsr == 0x60 and rm_val == 7   #nosat'
    : 1
    ? 'fs1 == 0 and fe1 == 0x7fe and fm1 == 0x0ab870b5c1c40 and fs2 == 0 and fe2 ==
      0x7fe and fm2 == 0x0ab870b5c1c40 and  fcsr == 0x80 and rm_val == 7   #nosat'
    : 1
    ? 'fs1 == 0 and fe1 == 0x7fd and fm1 == 0xf57237ddcb451 and fs2 == 0 and fe2 ==
      0x7fd and fm2 == 0xf57237ddcb451 and  fcsr == 0x0 and rm_val == 7   #nosat'
    : 1
    ? 'fs1 == 0 and fe1 == 0x7fd and fm1 == 0xf57237ddcb451 and fs2 == 0 and fe2 ==
      0x7fd and fm2 == 0xf57237ddcb451 and  fcsr == 0x20 and rm_val == 7   #nosat'
    : 1
    ? 'fs1 == 0 and fe1 == 0x7fd and fm1 == 0xf57237ddcb451 and fs2 == 0 and fe2 ==
      0x7fd and fm2 == 0xf57237ddcb451 and  fcsr == 0x40 and rm_val == 7   #nosat'
    : 1
    ? 'fs1 == 0 and fe1 == 0x7fd and fm1 == 0xf57237ddcb451 and fs2 == 0 and fe2 ==
      0x7fd and fm2 == 0xf57237ddcb451 and  fcsr == 0x60 and rm_val == 7   #nosat'
    : 1
    ? 'fs1 == 0 and fe1 == 0x7fd and fm1 == 0xf57237ddcb451 and fs2 == 0 and fe2 ==
      0x7fd and fm2 == 0xf57237ddcb451 and  fcsr == 0x80 and rm_val == 7   #nosat'
    : 1
    ? 'fs1 == 0 and fe1 == 0x7fa and fm1 == 0x643f753bef22f and fs2 == 0 and fe2 ==
      0x7fa and fm2 == 0x643f753bef22f and  fcsr == 0x0 and rm_val == 7   #nosat'
    : 1
    ? 'fs1 == 0 and fe1 == 0x7fa and fm1 == 0x643f753bef22f and fs2 == 0 and fe2 ==
      0x7fa and fm2 == 0x643f753bef22f and  fcsr == 0x20 and rm_val == 7   #nosat'
    : 1
    ? 'fs1 == 0 and fe1 == 0x7fa and fm1 == 0x643f753bef22f and fs2 == 0 and fe2 ==
      0x7fa and fm2 == 0x643f753bef22f and  fcsr == 0x40 and rm_val == 7   #nosat'
    : 1
    ? 'fs1 == 0 and fe1 == 0x7fa and fm1 == 0x643f753bef22f and fs2 == 0 and fe2 ==
      0x7fa and fm2 == 0x643f753bef22f and  fcsr == 0x60 and rm_val == 7   #nosat'
    : 1
    ? 'fs1 == 0 and fe1 == 0x7fa and fm1 == 0x643f753bef22f and fs2 == 0 and fe2 ==
      0x7fa and fm2 == 0x643f753bef22f and  fcsr == 0x80 and rm_val == 7   #nosat'
    : 1
    ? 'fs1 == 0 and fe1 == 0x7fe and fm1 == 0xf7646167590ef and fs2 == 0 and fe2 ==
      0x7fe and fm2 == 0xf7646167590ef and  fcsr == 0x0 and rm_val == 7   #nosat'
    : 1
    ? 'fs1 == 0 and fe1 == 0x7fe and fm1 == 0xf7646167590ef and fs2 == 0 and fe2 ==
      0x7fe and fm2 == 0xf7646167590ef and  fcsr == 0x20 and rm_val == 7   #nosat'
    : 1
    ? 'fs1 == 0 and fe1 == 0x7fe and fm1 == 0xf7646167590ef and fs2 == 0 and fe2 ==
      0x7fe and fm2 == 0xf7646167590ef and  fcsr == 0x40 and rm_val == 7   #nosat'
    : 1
    ? 'fs1 == 0 and fe1 == 0x7fe and fm1 == 0xf7646167590ef and fs2 == 0 and fe2 ==
      0x7fe and fm2 == 0xf7646167590ef and  fcsr == 0x60 and rm_val == 7   #nosat'
    : 1
    ? 'fs1 == 0 and fe1 == 0x7fe and fm1 == 0xf7646167590ef and fs2 == 0 and fe2 ==
      0x7fe and fm2 == 0xf7646167590ef and  fcsr == 0x80 and rm_val == 7   #nosat'
    : 1
    ? 'fs1 == 0 and fe1 == 0x7fd and fm1 == 0x930bcbd2d6035 and fs2 == 0 and fe2 ==
      0x7fd and fm2 == 0x930bcbd2d6035 and  fcsr == 0x0 and rm_val == 7   #nosat'
    : 1
    ? 'fs1 == 0 and fe1 == 0x7fd and fm1 == 0x930bcbd2d6035 and fs2 == 0 and fe2 ==
      0x7fd and fm2 == 0x930bcbd2d6035 and  fcsr == 0x20 and rm_val == 7   #nosat'
    : 1
    ? 'fs1 == 0 and fe1 == 0x7fd and fm1 == 0x930bcbd2d6035 and fs2 == 0 and fe2 ==
      0x7fd and fm2 == 0x930bcbd2d6035 and  fcsr == 0x40 and rm_val == 7   #nosat'
    : 1
    ? 'fs1 == 0 and fe1 == 0x7fd and fm1 == 0x930bcbd2d6035 and fs2 == 0 and fe2 ==
      0x7fd and fm2 == 0x930bcbd2d6035 and  fcsr == 0x60 and rm_val == 7   #nosat'
    : 1
    ? 'fs1 == 0 and fe1 == 0x7fd and fm1 == 0x930bcbd2d6035 and fs2 == 0 and fe2 ==
      0x7fd and fm2 == 0x930bcbd2d6035 and  fcsr == 0x80 and rm_val == 7   #nosat'
    : 1
    ? 'fs1 == 0 and fe1 == 0x7fe and fm1 == 0x0125698e86242 and fs2 == 0 and fe2 ==
      0x7fe and fm2 == 0x0125698e86242 and  fcsr == 0x0 and rm_val == 7   #nosat'
    : 1
    ? 'fs1 == 0 and fe1 == 0x7fe and fm1 == 0x0125698e86242 and fs2 == 0 and fe2 ==
      0x7fe and fm2 == 0x0125698e86242 and  fcsr == 0x20 and rm_val == 7   #nosat'
    : 1
    ? 'fs1 == 0 and fe1 == 0x7fe and fm1 == 0x0125698e86242 and fs2 == 0 and fe2 ==
      0x7fe and fm2 == 0x0125698e86242 and  fcsr == 0x40 and rm_val == 7   #nosat'
    : 1
    ? 'fs1 == 0 and fe1 == 0x7fe and fm1 == 0x0125698e86242 and fs2 == 0 and fe2 ==
      0x7fe and fm2 == 0x0125698e86242 and  fcsr == 0x60 and rm_val == 7   #nosat'
    : 1
    ? 'fs1 == 0 and fe1 == 0x7fe and fm1 == 0x0125698e86242 and fs2 == 0 and fe2 ==
      0x7fe and fm2 == 0x0125698e86242 and  fcsr == 0x80 and rm_val == 7   #nosat'
    : 1
    ? 'fs1 == 0 and fe1 == 0x7fe and fm1 == 0x8a82024cc4e03 and fs2 == 0 and fe2 ==
      0x7fe and fm2 == 0x8a82024cc4e03 and  fcsr == 0x0 and rm_val == 7   #nosat'
    : 1
    ? 'fs1 == 0 and fe1 == 0x7fe and fm1 == 0x8a82024cc4e03 and fs2 == 0 and fe2 ==
      0x7fe and fm2 == 0x8a82024cc4e03 and  fcsr == 0x20 and rm_val == 7   #nosat'
    : 1
    ? 'fs1 == 0 and fe1 == 0x7fe and fm1 == 0x8a82024cc4e03 and fs2 == 0 and fe2 ==
      0x7fe and fm2 == 0x8a82024cc4e03 and  fcsr == 0x40 and rm_val == 7   #nosat'
    : 1
    ? 'fs1 == 0 and fe1 == 0x7fe and fm1 == 0x8a82024cc4e03 and fs2 == 0 and fe2 ==
      0x7fe and fm2 == 0x8a82024cc4e03 and  fcsr == 0x60 and rm_val == 7   #nosat'
    : 1
    ? 'fs1 == 0 and fe1 == 0x7fe and fm1 == 0x8a82024cc4e03 and fs2 == 0 and fe2 ==
      0x7fe and fm2 == 0x8a82024cc4e03 and  fcsr == 0x80 and rm_val == 7   #nosat'
    : 1
    ? 'fs1 == 0 and fe1 == 0x7fe and fm1 == 0xb877e6e317fa2 and fs2 == 0 and fe2 ==
      0x7fe and fm2 == 0xb877e6e317fa2 and  fcsr == 0x0 and rm_val == 7   #nosat'
    : 1
    ? 'fs1 == 0 and fe1 == 0x7fe and fm1 == 0xb877e6e317fa2 and fs2 == 0 and fe2 ==
      0x7fe and fm2 == 0xb877e6e317fa2 and  fcsr == 0x20 and rm_val == 7   #nosat'
    : 1
    ? 'fs1 == 0 and fe1 == 0x7fe and fm1 == 0xb877e6e317fa2 and fs2 == 0 and fe2 ==
      0x7fe and fm2 == 0xb877e6e317fa2 and  fcsr == 0x40 and rm_val == 7   #nosat'
    : 1
    ? 'fs1 == 0 and fe1 == 0x7fe and fm1 == 0xb877e6e317fa2 and fs2 == 0 and fe2 ==
      0x7fe and fm2 == 0xb877e6e317fa2 and  fcsr == 0x60 and rm_val == 7   #nosat'
    : 1
    ? 'fs1 == 0 and fe1 == 0x7fe and fm1 == 0xb877e6e317fa2 and fs2 == 0 and fe2 ==
      0x7fe and fm2 == 0xb877e6e317fa2 and  fcsr == 0x80 and rm_val == 7   #nosat'
    : 1
    coverage: 210/210
  total_coverage: 261/261
