---
fnmadd_b7:
  config:
  - check ISA:=regex(.*I.*F.*)
  op_comb:
    rd == rs2 == rs3 != rs1: 1
    rs1 != rs2 and rs1 != rd and rs1 != rs3 and rs2 != rs3 and rs2 != rd and rs3 != rd: 158
    rs1 == rd != rs2 and rs1 == rd != rs3 and rs3 != rs2: 1
    rs1 == rd == rs3 != rs2: 1
    rs1 == rs2 != rs3 and rs1 == rs2 != rd and rd != rs3: 1
    rs1 == rs2 == rd != rs3: 1
    rs1 == rs2 == rs3 != rd: 1
    rs1 == rs2 == rs3 == rd: 1
    rs1 == rs3 != rs2 and rs1 == rs3 != rd and rd != rs2: 1
    rs2 == rd != rs1 and rs2 == rd != rs3 and rs3 != rs1: 1
    rs2 == rs3 != rs1 and rs2 == rs3 != rd and rd != rs1: 1
    rs3 == rd != rs1 and rs3 == rd != rs2 and rs2 != rs1: 1
    coverage: 12/12
  opcode:
    fnmadd.s: 169
    coverage: 1/1
  rd:
    f0: 1
    f1: 1
    f10: 1
    f11: 1
    f12: 1
    f13: 1
    f14: 1
    f15: 1
    f16: 1
    f17: 1
    f18: 1
    f19: 1
    f2: 1
    f20: 1
    f21: 1
    f22: 1
    f23: 1
    f24: 1
    f25: 1
    f26: 1
    f27: 1
    f28: 1
    f29: 1
    f3: 1
    f30: 1
    f31: 138
    f4: 1
    f5: 1
    f6: 1
    f7: 1
    f8: 1
    f9: 1
    coverage: 32/32
  rs1:
    f0: 1
    f1: 1
    f10: 1
    f11: 1
    f12: 1
    f13: 1
    f14: 1
    f15: 1
    f16: 1
    f17: 1
    f18: 1
    f19: 1
    f2: 1
    f20: 1
    f21: 1
    f22: 1
    f23: 1
    f24: 1
    f25: 1
    f26: 1
    f27: 1
    f28: 1
    f29: 1
    f3: 1
    f30: 138
    f31: 1
    f4: 1
    f5: 1
    f6: 1
    f7: 1
    f8: 1
    f9: 1
    coverage: 32/32
  rs2:
    f0: 1
    f1: 1
    f10: 1
    f11: 1
    f12: 1
    f13: 1
    f14: 1
    f15: 1
    f16: 1
    f17: 1
    f18: 1
    f19: 1
    f2: 1
    f20: 1
    f21: 1
    f22: 1
    f23: 1
    f24: 1
    f25: 1
    f26: 1
    f27: 1
    f28: 1
    f29: 138
    f3: 1
    f30: 1
    f31: 1
    f4: 1
    f5: 1
    f6: 1
    f7: 1
    f8: 1
    f9: 1
    coverage: 32/32
  rs3:
    f0: 1
    f1: 1
    f10: 1
    f11: 1
    f12: 1
    f13: 1
    f14: 1
    f15: 1
    f16: 1
    f17: 1
    f18: 1
    f19: 1
    f2: 1
    f20: 1
    f21: 1
    f22: 1
    f23: 1
    f24: 1
    f25: 1
    f26: 1
    f27: 1
    f28: 138
    f29: 1
    f3: 1
    f30: 1
    f31: 1
    f4: 1
    f5: 1
    f6: 1
    f7: 1
    f8: 1
    f9: 1
    coverage: 32/32
  val_comb:
    ? 'fs1 == 0 and fe1 == 0xfe and fm1 == 0x185240 and fs2 == 0 and fe2 == 0x7f and
      fm2 == 0x049ddd and fs3 == 0 and fe3 == 0xfe and fm3 == 0x1dd0ae and rm_val
      == 3  #nosat'
    : 1  #  rs1_val==fnorm(0x7f185240) and rs2_val==fnorm(0x3f849ddd) and rs3_val==fnorm(0x7f1dd0ae) | Mask on extra bits ---> 000000000000000000001
    ? 'fs1 == 0 and fe1 == 0xfb and fm1 == 0x521565 and fs2 == 0 and fe2 == 0x81 and
      fm2 == 0x4fc576 and fs3 == 0 and fe3 == 0xfe and fm3 == 0x2a8159 and rm_val
      == 3  #nosat'
    : 1 #  rs1_val==fnorm(0x7dd21565) and rs2_val==fnorm(0x40cfc576) and rs3_val==fnorm(0x7f2a8159) | Mask on extra bits ---> 010000000000000000000
    ? 'fs1 == 0 and fe1 == 0xfd and fm1 == 0x387cb7 and fs2 == 0 and fe2 == 0x7e and
      fm2 == 0x0ff35d and fs3 == 0 and fe3 == 0xfc and fm3 == 0x4f7a18 and rm_val
      == 3  #nosat'
    : 1 #  rs1_val==fnorm(0x7eb87cb7) and rs2_val==fnorm(0x3f0ff35d) and rs3_val==fnorm(0x7e4f7a18) | Mask on extra bits ---> 001000000000000000000
    ? 'fs1 == 0 and fe1 == 0xfd and fm1 == 0x58669e and fs2 == 0 and fe2 == 0x7f and
      fm2 == 0x0e6227 and fs3 == 0 and fe3 == 0xfd and fm3 == 0x70b7c8 and rm_val
      == 3  #nosat'
    : 1 #  rs1_val==fnorm(0x7ed8669e) and rs2_val==fnorm(0x3f8e6227) and rs3_val==fnorm(0x7ef0b7c8) | Mask on extra bits ---> 000100000000000000000
    ? 'fs1 == 0 and fe1 == 0xfd and fm1 == 0x136b51 and fs2 == 0 and fe2 == 0x7f and
      fm2 == 0x45fd37 and fs3 == 0 and fe3 == 0xfd and fm3 == 0x6406cc and rm_val
      == 3  #nosat'
    : 1 #  rs1_val==fnorm(0x7e936b51) and rs2_val==fnorm(0x3fc5fd37) and rs3_val==fnorm(0x7ee406cc) | Mask on extra bits ---> 000010000000000000000
    ? 'fs1 == 0 and fe1 == 0xfc and fm1 == 0x0ba7c1 and fs2 == 0 and fe2 == 0x81 and
      fm2 == 0x2bf5fd and fs3 == 0 and fe3 == 0xfe and fm3 == 0x3b9e80 and rm_val
      == 3  #nosat'
    : 1 #  rs1_val==fnorm(0x7e0ba7c1) and rs2_val==fnorm(0x40abf5fd) and rs3_val==fnorm(0x7f3b9e80) | Mask on extra bits ---> 000001000000000000000
    ? 'fs1 == 0 and fe1 == 0xfb and fm1 == 0x4b55e5 and fs2 == 0 and fe2 == 0x80 and
      fm2 == 0x4aac55 and fs3 == 0 and fe3 == 0xfd and fm3 == 0x20faa9 and rm_val
      == 3  #nosat'
    : 1 #  rs1_val==fnorm(0x7dcb55e5) and rs2_val==fnorm(0x404aac55) and rs3_val==fnorm(0x7ea0faa9) | Mask on extra bits ---> 000000100000000000000
    ? 'fs1 == 0 and fe1 == 0xfd and fm1 == 0x62d797 and fs2 == 0 and fe2 == 0x7d and
      fm2 == 0x6ccffe and fs3 == 0 and fe3 == 0xfc and fm3 == 0x51d70d and rm_val
      == 3  #nosat'
    : 2 #  rs1_val==fnorm(0x7ee2d797) and rs2_val==fnorm(0x3eeccffe) and rs3_val==fnorm(0x7e51d70d) | Mask on extra bits ---> 000000010000000000000
    ? 'fs1 == 0 and fe1 == 0xfe and fm1 == 0x1f0a23 and fs2 == 0 and fe2 == 0x7b and
      fm2 == 0x586415 and fs3 == 0 and fe3 == 0xfb and fm3 == 0x066eba and rm_val
      == 3  #nosat'
    : 1 #  rs1_val==fnorm(0x7f1f0a23) and rs2_val==fnorm(0x3dd86415) and rs3_val==fnorm(0x7d866eba) | Mask on extra bits ---> 000000001000000000000
    ? 'fs1 == 0 and fe1 == 0xfa and fm1 == 0x512a61 and fs2 == 0 and fe2 == 0x7a and
      fm2 == 0x1b3a11 and fs3 == 0 and fe3 == 0xf5 and fm3 == 0x7da835 and rm_val
      == 3  #nosat'
    : 1 #  rs1_val==fnorm(0x7d512a61) and rs2_val==fnorm(0x3d1b3a11) and rs3_val==fnorm(0x7afda835) | Mask on extra bits ---> 000000000100000000000
    ? 'fs1 == 0 and fe1 == 0xfb and fm1 == 0x561e0c and fs2 == 0 and fe2 == 0x7b and
      fm2 == 0x106484 and fs3 == 0 and fe3 == 0xf7 and fm3 == 0x7189f3 and rm_val
      == 3  #nosat'
    : 1 #  rs1_val==fnorm(0x7dd61e0c) and rs2_val==fnorm(0x3d906484) and rs3_val==fnorm(0x7bf189f3) | Mask on extra bits ---> 000000000010000000000
    ? 'fs1 == 0 and fe1 == 0xfe and fm1 == 0x1fd54d and fs2 == 0 and fe2 == 0x7a and
      fm2 == 0x7ea0e8 and fs3 == 0 and fe3 == 0xfa and fm3 == 0x1efa19 and rm_val
      == 3  #nosat'
    : 1 #  rs1_val==fnorm(0x7f1fd54d) and rs2_val==fnorm(0x3d7ea0e8) and rs3_val==fnorm(0x7d1efa19) | Mask on extra bits ---> 000000000001000000000
    ? 'fs1 == 0 and fe1 == 0xfe and fm1 == 0x35fe5b and fs2 == 0 and fe2 == 0x7d and
      fm2 == 0x6b4e05 and fs3 == 0 and fe3 == 0xfd and fm3 == 0x2747f5 and rm_val
      == 3  #nosat'
    : 1 #  rs1_val==fnorm(0x7f35fe5b) and rs2_val==fnorm(0x3eeb4e05) and rs3_val==fnorm(0x7ea747f5) | Mask on extra bits ---> 000000000000100000000
    ? 'fs1 == 0 and fe1 == 0xf9 and fm1 == 0x2c1d45 and fs2 == 0 and fe2 == 0x84 and
      fm2 == 0x038dbf and fs3 == 0 and fe3 == 0xfe and fm3 == 0x30e48e and rm_val
      == 3  #nosat'
    : 1 #  rs1_val==fnorm(0x7cac1d45) and rs2_val==fnorm(0x42038dbf) and rs3_val==fnorm(0x7f30e48e) | Mask on extra bits ---> 000000000000010000000
    ? 'fs1 == 0 and fe1 == 0xfb and fm1 == 0x33e534 and fs2 == 0 and fe2 == 0x82 and
      fm2 == 0x0192c8 and fs3 == 0 and fe3 == 0xfe and fm3 == 0x361b4b and rm_val
      == 3  #nosat'
    : 1 #  rs1_val==fnorm(0x7db3e534) and rs2_val==fnorm(0x410192c8) and rs3_val==fnorm(0x7f361b4b) | Mask on extra bits ---> 000000000000001000000
    ? 'fs1 == 0 and fe1 == 0xf9 and fm1 == 0x49296d and fs2 == 0 and fe2 == 0x82 and
      fm2 == 0x336a25 and fs3 == 0 and fe3 == 0xfd and fm3 == 0x0cfb60 and rm_val
      == 3  #nosat'
    : 1 #  rs1_val==fnorm(0x7cc9296d) and rs2_val==fnorm(0x41336a25) and rs3_val==fnorm(0x7e8cfb60) | Mask on extra bits ---> 000000000000000100000
    ? 'fs1 == 0 and fe1 == 0xfb and fm1 == 0x0fe409 and fs2 == 0 and fe2 == 0x81 and
      fm2 == 0x4b5f3b and fs3 == 0 and fe3 == 0xfd and fm3 == 0x649eb5 and rm_val
      == 3  #nosat'
    : 1 #  rs1_val==fnorm(0x7d8fe409) and rs2_val==fnorm(0x40cb5f3b) and rs3_val==fnorm(0x7ee49eb5) | Mask on extra bits ---> 000000000000000010000
    ? 'fs1 == 0 and fe1 == 0xfe and fm1 == 0x034e7c and fs2 == 0 and fe2 == 0x7f and
      fm2 == 0x116e22 and fs3 == 0 and fe3 == 0xfe and fm3 == 0x152fe4 and rm_val
      == 3  #nosat'
    : 1 #  rs1_val==fnorm(0x7f034e7c) and rs2_val==fnorm(0x3f916e22) and rs3_val==fnorm(0x7f152fe4) | Mask on extra bits ---> 000000000000000001000
    ? 'fs1 == 0 and fe1 == 0xfe and fm1 == 0x3f0fcc and fs2 == 0 and fe2 == 0x7e and
      fm2 == 0x363027 and fs3 == 0 and fe3 == 0xfe and fm3 == 0x07f92b and rm_val
      == 3  #nosat'
    : 1 #  rs1_val==fnorm(0x7f3f0fcc) and rs2_val==fnorm(0x3f363027) and rs3_val==fnorm(0x7f07f92b) | Mask on extra bits ---> 000000000000000000100
    ? 'fs1 == 0 and fe1 == 0xfe and fm1 == 0x17c861 and fs2 == 0 and fe2 == 0x7e and
      fm2 == 0x712e6f and fs3 == 0 and fe3 == 0xfe and fm3 == 0x0eff2c and rm_val
      == 3  #nosat'
    : 1 #  rs1_val==fnorm(0x7f17c861) and rs2_val==fnorm(0x3f712e6f) and rs3_val==fnorm(0x7f0eff2c) | Mask on extra bits ---> 000000000000000000010
    ? 'fs1 == 0 and fe1 == 0xfd and fm1 == 0x6368b9 and fs2 == 0 and fe2 == 0x7d and
      fm2 == 0x5c69af and fs3 == 0 and fe3 == 0xfc and fm3 == 0x43cbe1 and rm_val
      == 3  #nosat'
    : 1 #  rs1_val==fnorm(0x7ee368b9) and rs2_val==fnorm(0x3edc69af) and rs3_val==fnorm(0x7e43cbe1) | Mask on extra bits ---> 000000000000000000001
    ? 'fs1 == 0 and fe1 == 0xfe and fm1 == 0x173551 and fs2 == 0 and fe2 == 0x7d and
      fm2 == 0x0b1967 and fs3 == 0 and fe3 == 0xfc and fm3 == 0x2451e9 and rm_val
      == 3  #nosat'
    : 1 #  rs1_val==fnorm(0x7f173551) and rs2_val==fnorm(0x3e8b1967) and rs3_val==fnorm(0x7e2451e9) | Mask on extra bits ---> 010000000000000000000
    ? 'fs1 == 0 and fe1 == 0xfe and fm1 == 0x24fad5 and fs2 == 0 and fe2 == 0x7e and
      fm2 == 0x680772 and fs3 == 0 and fe3 == 0xfe and fm3 == 0x15881d and rm_val
      == 3  #nosat'
    : 1 #  rs1_val==fnorm(0x7f24fad5) and rs2_val==fnorm(0x3f680772) and rs3_val==fnorm(0x7f15881d) | Mask on extra bits ---> 001000000000000000000
    ? 'fs1 == 0 and fe1 == 0xfd and fm1 == 0x2a4148 and fs2 == 0 and fe2 == 0x7d and
      fm2 == 0x696e25 and fs3 == 0 and fe3 == 0xfc and fm3 == 0x1b3eab and rm_val
      == 3  #nosat'
    : 1 #  rs1_val==fnorm(0x7eaa4148) and rs2_val==fnorm(0x3ee96e25) and rs3_val==fnorm(0x7e1b3eab) | Mask on extra bits ---> 000100000000000000000
    ? 'fs1 == 0 and fe1 == 0xfd and fm1 == 0x79f86d and fs2 == 0 and fe2 == 0x7d and
      fm2 == 0x61c0e4 and fs3 == 0 and fe3 == 0xfc and fm3 == 0x5c6fb2 and rm_val
      == 3  #nosat'
    : 1 #  rs1_val==fnorm(0x7ef9f86d) and rs2_val==fnorm(0x3ee1c0e4) and rs3_val==fnorm(0x7e5c6fb2) | Mask on extra bits ---> 000010000000000000000
    ? 'fs1 == 0 and fe1 == 0xfe and fm1 == 0x01c7a5 and fs2 == 0 and fe2 == 0x7f and
      fm2 == 0x0a21b9 and fs3 == 0 and fe3 == 0xfe and fm3 == 0x0c0d70 and rm_val
      == 3  #nosat'
    : 1 #  rs1_val==fnorm(0x7f01c7a5) and rs2_val==fnorm(0x3f8a21b9) and rs3_val==fnorm(0x7f0c0d70) | Mask on extra bits ---> 000001000000000000000
    ? 'fs1 == 0 and fe1 == 0xfe and fm1 == 0x309a0c and fs2 == 0 and fe2 == 0x7e and
      fm2 == 0x50c5b9 and fs3 == 0 and fe3 == 0xfe and fm3 == 0x100590 and rm_val
      == 3  #nosat'
    : 1 #  rs1_val==fnorm(0x7f309a0c) and rs2_val==fnorm(0x3f50c5b9) and rs3_val==fnorm(0x7f100590) | Mask on extra bits ---> 000000100000000000000
    ? 'fs1 == 0 and fe1 == 0xfe and fm1 == 0x3cc8a3 and fs2 == 0 and fe2 == 0x7a and
      fm2 == 0x5057a9 and fs3 == 0 and fe3 == 0xfa and fm3 == 0x19a3aa and rm_val
      == 3  #nosat'
    : 1 #  rs1_val==fnorm(0x7f3cc8a3) and rs2_val==fnorm(0x3d5057a9) and rs3_val==fnorm(0x7d19a3aa) | Mask on extra bits ---> 000000010000000000000
    ? 'fs1 == 0 and fe1 == 0xfb and fm1 == 0x3868e1 and fs2 == 0 and fe2 == 0x7e and
      fm2 == 0x6f4b41 and fs3 == 0 and fe3 == 0xfb and fm3 == 0x2c6020 and rm_val
      == 3  #nosat'
    : 1 #  rs1_val==fnorm(0x7db868e1) and rs2_val==fnorm(0x3f6f4b41) and rs3_val==fnorm(0x7dac6020) | Mask on extra bits ---> 000000001000000000000
    ? 'fs1 == 0 and fe1 == 0xfc and fm1 == 0x017e79 and fs2 == 0 and fe2 == 0x80 and
      fm2 == 0x7b0813 and fs3 == 0 and fe3 == 0xfd and fm3 == 0x7df62e and rm_val
      == 3  #nosat'
    : 1 #  rs1_val==fnorm(0x7e017e79) and rs2_val==fnorm(0x407b0813) and rs3_val==fnorm(0x7efdf62e) | Mask on extra bits ---> 000000000100000000000
    ? 'fs1 == 0 and fe1 == 0xfe and fm1 == 0x0b0956 and fs2 == 0 and fe2 == 0x7f and
      fm2 == 0x18c26e and fs3 == 0 and fe3 == 0xfe and fm3 == 0x25ee48 and rm_val
      == 3  #nosat'
    : 1 #  rs1_val==fnorm(0x7f0b0956) and rs2_val==fnorm(0x3f98c26e) and rs3_val==fnorm(0x7f25ee48) | Mask on extra bits ---> 000000000010000000000
    ? 'fs1 == 0 and fe1 == 0xfc and fm1 == 0x616815 and fs2 == 0 and fe2 == 0x7f and
      fm2 == 0x4d6ee4 and fs3 == 0 and fe3 == 0xfd and fm3 == 0x34e1fc and rm_val
      == 3  #nosat'
    : 1 #  rs1_val==fnorm(0x7e616815) and rs2_val==fnorm(0x3fcd6ee4) and rs3_val==fnorm(0x7eb4e1fc) | Mask on extra bits ---> 000000000001000000000
    ? 'fs1 == 0 and fe1 == 0xfd and fm1 == 0x5913e5 and fs2 == 0 and fe2 == 0x7f and
      fm2 == 0x50d3e6 and fs3 == 0 and fe3 == 0xfe and fm3 == 0x3113d9 and rm_val
      == 3  #nosat'
    : 1 #  rs1_val==fnorm(0x7ed913e5) and rs2_val==fnorm(0x3fd0d3e6) and rs3_val==fnorm(0x7f3113d9) | Mask on extra bits ---> 000000000000100000000
    ? 'fs1 == 0 and fe1 == 0xfe and fm1 == 0x16fd83 and fs2 == 0 and fe2 == 0x7d and
      fm2 == 0x12dd89 and fs3 == 0 and fe3 == 0xfc and fm3 == 0x2d3e7e and rm_val
      == 3  #nosat'
    : 1 #  rs1_val==fnorm(0x7f16fd83) and rs2_val==fnorm(0x3e92dd89) and rs3_val==fnorm(0x7e2d3e7e) | Mask on extra bits ---> 000000000000010000000
    ? 'fs1 == 0 and fe1 == 0xf9 and fm1 == 0x45b82c and fs2 == 0 and fe2 == 0x83 and
      fm2 == 0x06ed1d and fs3 == 0 and fe3 == 0xfd and fm3 == 0x506b12 and rm_val
      == 3  #nosat'
    : 1 #  rs1_val==fnorm(0x7cc5b82c) and rs2_val==fnorm(0x4186ed1d) and rs3_val==fnorm(0x7ed06b12) | Mask on extra bits ---> 000000000000001000000
    ? 'fs1 == 0 and fe1 == 0xfb and fm1 == 0x19d31d and fs2 == 0 and fe2 == 0x80 and
      fm2 == 0x6aee21 and fs3 == 0 and fe3 == 0xfd and fm3 == 0x0d2a0f and rm_val
      == 3  #nosat'
    : 1 #  rs1_val==fnorm(0x7d99d31d) and rs2_val==fnorm(0x406aee21) and rs3_val==fnorm(0x7e8d2a0f) | Mask on extra bits ---> 000000000000000100000
    ? 'fs1 == 0 and fe1 == 0xfb and fm1 == 0x300384 and fs2 == 0 and fe2 == 0x81 and
      fm2 == 0x468f57 and fs3 == 0 and fe3 == 0xfe and fm3 == 0x088546 and rm_val
      == 3  #nosat'
    : 1 #  rs1_val==fnorm(0x7db00384) and rs2_val==fnorm(0x40c68f57) and rs3_val==fnorm(0x7f088546) | Mask on extra bits ---> 000000000000000010000
    ? 'fs1 == 0 and fe1 == 0xf9 and fm1 == 0x74f85a and fs2 == 0 and fe2 == 0x83 and
      fm2 == 0x184854 and fs3 == 0 and fe3 == 0xfe and fm3 == 0x11b8ad and rm_val
      == 3  #nosat'
    : 1 #  rs1_val==fnorm(0x7cf4f85a) and rs2_val==fnorm(0x41984854) and rs3_val==fnorm(0x7f11b8ad) | Mask on extra bits ---> 000000000000000001000
    ? 'fs1 == 0 and fe1 == 0xfd and fm1 == 0x13b96c and fs2 == 0 and fe2 == 0x7c and
      fm2 == 0x228cd8 and fs3 == 0 and fe3 == 0xfa and fm3 == 0x3b993a and rm_val
      == 3  #nosat'
    : 1 #  rs1_val==fnorm(0x7e93b96c) and rs2_val==fnorm(0x3e228cd8) and rs3_val==fnorm(0x7d3b993a) | Mask on extra bits ---> 000000000000000000100
    ? 'fs1 == 0 and fe1 == 0xfb and fm1 == 0x7c19fa and fs2 == 0 and fe2 == 0x80 and
      fm2 == 0x73e479 and fs3 == 0 and fe3 == 0xfd and fm3 == 0x702da8 and rm_val
      == 3  #nosat'
    : 1 #  rs1_val==fnorm(0x7dfc19fa) and rs2_val==fnorm(0x4073e479) and rs3_val==fnorm(0x7ef02da8) | Mask on extra bits ---> 000000000000000000010
    ? 'fs1 == 0 and fe1 == 0xfd and fm1 == 0x7ff572 and fs2 == 0 and fe2 == 0x7f and
      fm2 == 0x3ac415 and fs3 == 0 and fe3 == 0xfe and fm3 == 0x3abc62 and rm_val
      == 3  #nosat'
    : 1 #  rs1_val==fnorm(0x7efff572) and rs2_val==fnorm(0x3fbac415) and rs3_val==fnorm(0x7f3abc62) | Mask on extra bits ---> 000000000000000000001
    ? 'fs1 == 0 and fe1 == 0xfe and fm1 == 0x1a9c08 and fs2 == 0 and fe2 == 0x7d and
      fm2 == 0x6caafe and fs3 == 0 and fe3 == 0xfd and fm3 == 0x0eef1c and rm_val
      == 3  #nosat'
    : 1 #  rs1_val==fnorm(0x7f1a9c08) and rs2_val==fnorm(0x3eecaafe) and rs3_val==fnorm(0x7e8eef1c) | Mask on extra bits ---> 010000000000000000000
    ? 'fs1 == 0 and fe1 == 0xfe and fm1 == 0x098b22 and fs2 == 0 and fe2 == 0x7e and
      fm2 == 0x668bbe and fs3 == 0 and fe3 == 0xfd and fm3 == 0x77bc2c and rm_val
      == 3  #nosat'
    : 1 #  rs1_val==fnorm(0x7f098b22) and rs2_val==fnorm(0x3f668bbe) and rs3_val==fnorm(0x7ef7bc2c) | Mask on extra bits ---> 001000000000000000000
    ? 'fs1 == 0 and fe1 == 0xfd and fm1 == 0x539b49 and fs2 == 0 and fe2 == 0x7f and
      fm2 == 0x19c970 and fs3 == 0 and fe3 == 0xfd and fm3 == 0x7e3ca1 and rm_val
      == 3  #nosat'
    : 1 #  rs1_val==fnorm(0x7ed39b49) and rs2_val==fnorm(0x3f99c970) and rs3_val==fnorm(0x7efe3ca1) | Mask on extra bits ---> 000100000000000000000
    ? 'fs1 == 0 and fe1 == 0xfd and fm1 == 0x18a4f0 and fs2 == 0 and fe2 == 0x80 and
      fm2 == 0x209a40 and fs3 == 0 and fe3 == 0xfe and fm3 == 0x3f8620 and rm_val
      == 3  #nosat'
    : 1 #  rs1_val==fnorm(0x7e98a4f0) and rs2_val==fnorm(0x40209a40) and rs3_val==fnorm(0x7f3f8620) | Mask on extra bits ---> 000010000000000000000
    ? 'fs1 == 0 and fe1 == 0xfd and fm1 == 0x1255c9 and fs2 == 0 and fe2 == 0x7f and
      fm2 == 0x141b63 and fs3 == 0 and fe3 == 0xfd and fm3 == 0x295281 and rm_val
      == 3  #nosat'
    : 1 #  rs1_val==fnorm(0x7e9255c9) and rs2_val==fnorm(0x3f941b63) and rs3_val==fnorm(0x7ea95281) | Mask on extra bits ---> 000001000000000000000
    ? 'fs1 == 0 and fe1 == 0xfc and fm1 == 0x107f0d and fs2 == 0 and fe2 == 0x7f and
      fm2 == 0x5d489c and fs3 == 0 and fe3 == 0xfc and fm3 == 0x79cd55 and rm_val
      == 3  #nosat'
    : 1 #  rs1_val==fnorm(0x7e107f0d) and rs2_val==fnorm(0x3fdd489c) and rs3_val==fnorm(0x7e79cd55) | Mask on extra bits ---> 000000100000000000000
    ? 'fs1 == 0 and fe1 == 0xfe and fm1 == 0x16fe06 and fs2 == 0 and fe2 == 0x7e and
      fm2 == 0x393272 and fs3 == 0 and fe3 == 0xfd and fm3 == 0x5a76a7 and rm_val
      == 3  #nosat'
    : 1 #  rs1_val==fnorm(0x7f16fe06) and rs2_val==fnorm(0x3f393272) and rs3_val==fnorm(0x7eda76a7) | Mask on extra bits ---> 000000010000000000000
    ? 'fs1 == 0 and fe1 == 0xfc and fm1 == 0x389380 and fs2 == 0 and fe2 == 0x80 and
      fm2 == 0x186b19 and fs3 == 0 and fe3 == 0xfd and fm3 == 0x5bc998 and rm_val
      == 3  #nosat'
    : 1 #  rs1_val==fnorm(0x7e389380) and rs2_val==fnorm(0x40186b19) and rs3_val==fnorm(0x7edbc998) | Mask on extra bits ---> 000000001000000000000
    ? 'fs1 == 0 and fe1 == 0xfb and fm1 == 0x7aa684 and fs2 == 0 and fe2 == 0x7f and
      fm2 == 0x784242 and fs3 == 0 and fe3 == 0xfc and fm3 == 0x731230 and rm_val
      == 3  #nosat'
    : 1 #  rs1_val==fnorm(0x7dfaa684) and rs2_val==fnorm(0x3ff84242) and rs3_val==fnorm(0x7e731230) | Mask on extra bits ---> 000000000100000000000
    ? 'fs1 == 0 and fe1 == 0xfe and fm1 == 0x2ed4d8 and fs2 == 0 and fe2 == 0x7d and
      fm2 == 0x6bab23 and fs3 == 0 and fe3 == 0xfd and fm3 == 0x20f242 and rm_val
      == 3  #nosat'
    : 1 #  rs1_val==fnorm(0x7f2ed4d8) and rs2_val==fnorm(0x3eebab23) and rs3_val==fnorm(0x7ea0f242) | Mask on extra bits ---> 000000000010000000000
    ? 'fs1 == 0 and fe1 == 0xfc and fm1 == 0x2a2f80 and fs2 == 0 and fe2 == 0x80 and
      fm2 == 0x22e85e and fs3 == 0 and fe3 == 0xfd and fm3 == 0x589913 and rm_val
      == 3  #nosat'
    : 1 #  rs1_val==fnorm(0x7e2a2f80) and rs2_val==fnorm(0x4022e85e) and rs3_val==fnorm(0x7ed89913) | Mask on extra bits ---> 000000000001000000000
    ? 'fs1 == 0 and fe1 == 0xfd and fm1 == 0x151c59 and fs2 == 0 and fe2 == 0x7e and
      fm2 == 0x131231 and fs3 == 0 and fe3 == 0xfc and fm3 == 0x2b53c0 and rm_val
      == 3  #nosat'
    : 1 #  rs1_val==fnorm(0x7e951c59) and rs2_val==fnorm(0x3f131231) and rs3_val==fnorm(0x7e2b53c0) | Mask on extra bits ---> 000000000000100000000
    ? 'fs1 == 0 and fe1 == 0xfb and fm1 == 0x67f048 and fs2 == 0 and fe2 == 0x80 and
      fm2 == 0x70ec94 and fs3 == 0 and fe3 == 0xfd and fm3 == 0x5a479c and rm_val
      == 3  #nosat'
    : 1 #  rs1_val==fnorm(0x7de7f048) and rs2_val==fnorm(0x4070ec94) and rs3_val==fnorm(0x7eda479c) | Mask on extra bits ---> 000000000000010000000
    ? 'fs1 == 0 and fe1 == 0xfb and fm1 == 0x66dc85 and fs2 == 0 and fe2 == 0x7f and
      fm2 == 0x6fe8a0 and fs3 == 0 and fe3 == 0xfc and fm3 == 0x5859a9 and rm_val
      == 3  #nosat'
    : 1 #  rs1_val==fnorm(0x7de6dc85) and rs2_val==fnorm(0x3fefe8a0) and rs3_val==fnorm(0x7e5859a9) | Mask on extra bits ---> 000000000000001000000
    ? 'fs1 == 0 and fe1 == 0xf9 and fm1 == 0x3b3e27 and fs2 == 0 and fe2 == 0x83 and
      fm2 == 0x09ecfa and fs3 == 0 and fe3 == 0xfd and fm3 == 0x49c32f and rm_val
      == 3  #nosat'
    : 1 #  rs1_val==fnorm(0x7cbb3e27) and rs2_val==fnorm(0x4189ecfa) and rs3_val==fnorm(0x7ec9c32f) | Mask on extra bits ---> 000000000000000100000
    ? 'fs1 == 0 and fe1 == 0xfa and fm1 == 0x633d35 and fs2 == 0 and fe2 == 0x81 and
      fm2 == 0x611178 and fs3 == 0 and fe3 == 0xfd and fm3 == 0x47c84e and rm_val
      == 3  #nosat'
    : 1 #  rs1_val==fnorm(0x7d633d35) and rs2_val==fnorm(0x40e11178) and rs3_val==fnorm(0x7ec7c84e) | Mask on extra bits ---> 000000000000000010000
    ? 'fs1 == 0 and fe1 == 0xfd and fm1 == 0x3de659 and fs2 == 0 and fe2 == 0x7c and
      fm2 == 0x1bacb3 and fs3 == 0 and fe3 == 0xfa and fm3 == 0x66f527 and rm_val
      == 3  #nosat'
    : 1 #  rs1_val==fnorm(0x7ebde659) and rs2_val==fnorm(0x3e1bacb3) and rs3_val==fnorm(0x7d66f527) | Mask on extra bits ---> 000000000000000001000
    ? 'fs1 == 0 and fe1 == 0xfd and fm1 == 0x5218a0 and fs2 == 0 and fe2 == 0x7e and
      fm2 == 0x592123 and fs3 == 0 and fe3 == 0xfd and fm3 == 0x323212 and rm_val
      == 3  #nosat'
    : 1 #  rs1_val==fnorm(0x7ed218a0) and rs2_val==fnorm(0x3f592123) and rs3_val==fnorm(0x7eb23212) | Mask on extra bits ---> 000000000000000000100
    ? 'fs1 == 0 and fe1 == 0xfe and fm1 == 0x0c73a9 and fs2 == 0 and fe2 == 0x7c and
      fm2 == 0x1fa10c and fs3 == 0 and fe3 == 0xfb and fm3 == 0x2f2863 and rm_val
      == 3  #nosat'
    : 1 #  rs1_val==fnorm(0x7f0c73a9) and rs2_val==fnorm(0x3e1fa10c) and rs3_val==fnorm(0x7daf2863) | Mask on extra bits ---> 000000000000000000010
    ? 'fs1 == 0 and fe1 == 0xfd and fm1 == 0x03e545 and fs2 == 0 and fe2 == 0x7c and
      fm2 == 0x6754b2 and fs3 == 0 and fe3 == 0xfa and fm3 == 0x6e5f0a and rm_val
      == 3  #nosat'
    : 1 #  rs1_val==fnorm(0x7e83e545) and rs2_val==fnorm(0x3e6754b2) and rs3_val==fnorm(0x7d6e5f0a) | Mask on extra bits ---> 000000000000000000001
    ? 'fs1 == 0 and fe1 == 0xfe and fm1 == 0x365c6a and fs2 == 0 and fe2 == 0x7e and
      fm2 == 0x3cdb59 and fs3 == 0 and fe3 == 0xfe and fm3 == 0x06881f and rm_val
      == 3  #nosat'
    : 1 #  rs1_val==fnorm(0x7f365c6a) and rs2_val==fnorm(0x3f3cdb59) and rs3_val==fnorm(0x7f06881f) | Mask on extra bits ---> 010000000000000000000
    ? 'fs1 == 0 and fe1 == 0xfe and fm1 == 0x3ea9e8 and fs2 == 0 and fe2 == 0x7e and
      fm2 == 0x454378 and fs3 == 0 and fe3 == 0xfe and fm3 == 0x12eaff and rm_val
      == 3  #nosat'
    : 1 #  rs1_val==fnorm(0x7f3ea9e8) and rs2_val==fnorm(0x3f454378) and rs3_val==fnorm(0x7f12eaff) | Mask on extra bits ---> 001000000000000000000
    ? 'fs1 == 0 and fe1 == 0xfd and fm1 == 0x0e4484 and fs2 == 0 and fe2 == 0x7c and
      fm2 == 0x0fe7df and fs3 == 0 and fe3 == 0xfa and fm3 == 0x1ff244 and rm_val
      == 3  #nosat'
    : 1 #  rs1_val==fnorm(0x7e8e4484) and rs2_val==fnorm(0x3e0fe7df) and rs3_val==fnorm(0x7d1ff244) | Mask on extra bits ---> 000100000000000000000
    ? 'fs1 == 0 and fe1 == 0xf9 and fm1 == 0x48fcb3 and fs2 == 0 and fe2 == 0x81 and
      fm2 == 0x298476 and fs3 == 0 and fe3 == 0xfc and fm3 == 0x0516d1 and rm_val
      == 3  #nosat'
    : 1 #  rs1_val==fnorm(0x7cc8fcb3) and rs2_val==fnorm(0x40a98476) and rs3_val==fnorm(0x7e0516d1) | Mask on extra bits ---> 000010000000000000000
    ? 'fs1 == 0 and fe1 == 0xfd and fm1 == 0x75363e and fs2 == 0 and fe2 == 0x7e and
      fm2 == 0x56ade2 and fs3 == 0 and fe3 == 0xfd and fm3 == 0x4da1e6 and rm_val
      == 3  #nosat'
    : 1 #  rs1_val==fnorm(0x7ef5363e) and rs2_val==fnorm(0x3f56ade2) and rs3_val==fnorm(0x7ecda1e6) | Mask on extra bits ---> 000001000000000000000
    ? 'fs1 == 0 and fe1 == 0xfb and fm1 == 0x038c5d and fs2 == 0 and fe2 == 0x82 and
      fm2 == 0x1883f4 and fs3 == 0 and fe3 == 0xfe and fm3 == 0x1cbe4b and rm_val
      == 3  #nosat'
    : 1 #  rs1_val==fnorm(0x7d838c5d) and rs2_val==fnorm(0x411883f4) and rs3_val==fnorm(0x7f1cbe4b) | Mask on extra bits ---> 000000100000000000000
    ? 'fs1 == 0 and fe1 == 0xfe and fm1 == 0x310e27 and fs2 == 0 and fe2 == 0x7a and
      fm2 == 0x0dbfdf and fs3 == 0 and fe3 == 0xf9 and fm3 == 0x4412ff and rm_val
      == 3  #nosat'
    : 1 #  rs1_val==fnorm(0x7f310e27) and rs2_val==fnorm(0x3d0dbfdf) and rs3_val==fnorm(0x7cc412ff) | Mask on extra bits ---> 000000010000000000000
    ? 'fs1 == 0 and fe1 == 0xfe and fm1 == 0x3983ab and fs2 == 0 and fe2 == 0x7d and
      fm2 == 0x6439df and fs3 == 0 and fe3 == 0xfd and fm3 == 0x256335 and rm_val
      == 3  #nosat'
    : 1 #  rs1_val==fnorm(0x7f3983ab) and rs2_val==fnorm(0x3ee439df) and rs3_val==fnorm(0x7ea56335) | Mask on extra bits ---> 000000001000000000000
    ? 'fs1 == 0 and fe1 == 0xfe and fm1 == 0x24c049 and fs2 == 0 and fe2 == 0x7d and
      fm2 == 0x26f4cf and fs3 == 0 and fe3 == 0xfc and fm3 == 0x56e479 and rm_val
      == 3  #nosat'
    : 1 #  rs1_val==fnorm(0x7f24c049) and rs2_val==fnorm(0x3ea6f4cf) and rs3_val==fnorm(0x7e56e479) | Mask on extra bits ---> 000000000100000000000
    ? 'fs1 == 0 and fe1 == 0xfe and fm1 == 0x346ab9 and fs2 == 0 and fe2 == 0x7b and
      fm2 == 0x366217 and fs3 == 0 and fe3 == 0xfb and fm3 == 0x008901 and rm_val
      == 3  #nosat'
    : 1 #  rs1_val==fnorm(0x7f346ab9) and rs2_val==fnorm(0x3db66217) and rs3_val==fnorm(0x7d808901) | Mask on extra bits ---> 000000000010000000000
    ? 'fs1 == 0 and fe1 == 0xfe and fm1 == 0x3bca6f and fs2 == 0 and fe2 == 0x7d and
      fm2 == 0x15c04d and fs3 == 0 and fe3 == 0xfc and fm3 == 0x5bb3c7 and rm_val
      == 3  #nosat'
    : 1 #  rs1_val==fnorm(0x7f3bca6f) and rs2_val==fnorm(0x3e95c04d) and rs3_val==fnorm(0x7e5bb3c7) | Mask on extra bits ---> 000000000001000000000
    ? 'fs1 == 0 and fe1 == 0xfa and fm1 == 0x43983d and fs2 == 0 and fe2 == 0x82 and
      fm2 == 0x491608 and fs3 == 0 and fe3 == 0xfe and fm3 == 0x19a35e and rm_val
      == 3  #nosat'
    : 1 #  rs1_val==fnorm(0x7d43983d) and rs2_val==fnorm(0x41491608) and rs3_val==fnorm(0x7f19a35e) | Mask on extra bits ---> 000000000000100000000
    ? 'fs1 == 0 and fe1 == 0xfc and fm1 == 0x5447d6 and fs2 == 0 and fe2 == 0x80 and
      fm2 == 0x24f81b and fs3 == 0 and fe3 == 0xfe and fm3 == 0x08cbc1 and rm_val
      == 3  #nosat'
    : 1 #  rs1_val==fnorm(0x7e5447d6) and rs2_val==fnorm(0x4024f81b) and rs3_val==fnorm(0x7f08cbc1) | Mask on extra bits ---> 000000000000010000000
    ? 'fs1 == 0 and fe1 == 0xfe and fm1 == 0x1578bb and fs2 == 0 and fe2 == 0x7e and
      fm2 == 0x130440 and fs3 == 0 and fe3 == 0xfd and fm3 == 0x2bad9e and rm_val
      == 3  #nosat'
    : 1 #  rs1_val==fnorm(0x7f1578bb) and rs2_val==fnorm(0x3f130440) and rs3_val==fnorm(0x7eabad9e) | Mask on extra bits ---> 000000000000001000000
    ? 'fs1 == 0 and fe1 == 0xfe and fm1 == 0x2e7c12 and fs2 == 0 and fe2 == 0x7d and
      fm2 == 0x7864d3 and fs3 == 0 and fe3 == 0xfd and fm3 == 0x294ceb and rm_val
      == 3  #nosat'
    : 1 #  rs1_val==fnorm(0x7f2e7c12) and rs2_val==fnorm(0x3ef864d3) and rs3_val==fnorm(0x7ea94ceb) | Mask on extra bits ---> 000000000000000100000
    ? 'fs1 == 0 and fe1 == 0xfb and fm1 == 0x528ae7 and fs2 == 0 and fe2 == 0x81 and
      fm2 == 0x5c3da9 and fs3 == 0 and fe3 == 0xfe and fm3 == 0x352215 and rm_val
      == 3  #nosat'
    : 1 #  rs1_val==fnorm(0x7dd28ae7) and rs2_val==fnorm(0x40dc3da9) and rs3_val==fnorm(0x7f352215) | Mask on extra bits ---> 000000000000000010000
    ? 'fs1 == 0 and fe1 == 0xfe and fm1 == 0x0535ac and fs2 == 0 and fe2 == 0x7f and
      fm2 == 0x11fe69 and fs3 == 0 and fe3 == 0xfe and fm3 == 0x17ef92 and rm_val
      == 3  #nosat'
    : 1 #  rs1_val==fnorm(0x7f0535ac) and rs2_val==fnorm(0x3f91fe69) and rs3_val==fnorm(0x7f17ef92) | Mask on extra bits ---> 000000000000000001000
    ? 'fs1 == 0 and fe1 == 0xfe and fm1 == 0x2b8337 and fs2 == 0 and fe2 == 0x7e and
      fm2 == 0x018782 and fs3 == 0 and fe3 == 0xfd and fm3 == 0x2d8fd1 and rm_val
      == 3  #nosat'
    : 1 #  rs1_val==fnorm(0x7f2b8337) and rs2_val==fnorm(0x3f018782) and rs3_val==fnorm(0x7ead8fd1) | Mask on extra bits ---> 000000000000000000100
    ? 'fs1 == 0 and fe1 == 0xfe and fm1 == 0x2efd0c and fs2 == 0 and fe2 == 0x7e and
      fm2 == 0x7ef82d and fs3 == 0 and fe3 == 0xfe and fm3 == 0x2e48b6 and rm_val
      == 3  #nosat'
    : 1 #  rs1_val==fnorm(0x7f2efd0c) and rs2_val==fnorm(0x3f7ef82d) and rs3_val==fnorm(0x7f2e48b6) | Mask on extra bits ---> 000000000000000000010
    ? 'fs1 == 0 and fe1 == 0xfb and fm1 == 0x0052ab and fs2 == 0 and fe2 == 0x81 and
      fm2 == 0x6cc2eb and fs3 == 0 and fe3 == 0xfd and fm3 == 0x6d5bd5 and rm_val
      == 3  #nosat'
    : 1 #  rs1_val==fnorm(0x7d8052ab) and rs2_val==fnorm(0x40ecc2eb) and rs3_val==fnorm(0x7eed5bd5) | Mask on extra bits ---> 000000000000000000001
    ? 'fs1 == 0 and fe1 == 0xfb and fm1 == 0x431508 and fs2 == 0 and fe2 == 0x81 and
      fm2 == 0x51cb43 and fs3 == 0 and fe3 == 0xfe and fm3 == 0x1fdf11 and rm_val
      == 3  #nosat'
    : 1 #  rs1_val==fnorm(0x7dc31508) and rs2_val==fnorm(0x40d1cb43) and rs3_val==fnorm(0x7f1fdf11) | Mask on extra bits ---> 010000000000000000000
    ? 'fs1 == 0 and fe1 == 0xfd and fm1 == 0x719c9d and fs2 == 0 and fe2 == 0x7f and
      fm2 == 0x0eaeb4 and fs3 == 0 and fe3 == 0xfe and fm3 == 0x06a9c2 and rm_val
      == 3  #nosat'
    : 1 #  rs1_val==fnorm(0x7ef19c9d) and rs2_val==fnorm(0x3f8eaeb4) and rs3_val==fnorm(0x7f06a9c2) | Mask on extra bits ---> 001000000000000000000
    ? 'fs1 == 0 and fe1 == 0xfd and fm1 == 0x31ae90 and fs2 == 0 and fe2 == 0x7f and
      fm2 == 0x78da00 and fs3 == 0 and fe3 == 0xfe and fm3 == 0x2cb86b and rm_val
      == 3  #nosat'
    : 1 #  rs1_val==fnorm(0x7eb1ae90) and rs2_val==fnorm(0x3ff8da00) and rs3_val==fnorm(0x7f2cb86b) | Mask on extra bits ---> 000100000000000000000
    ? 'fs1 == 0 and fe1 == 0xfb and fm1 == 0x21f156 and fs2 == 0 and fe2 == 0x81 and
      fm2 == 0x43f0a5 and fs3 == 0 and fe3 == 0xfd and fm3 == 0x77e620 and rm_val
      == 3  #nosat'
    : 1 #  rs1_val==fnorm(0x7da1f156) and rs2_val==fnorm(0x40c3f0a5) and rs3_val==fnorm(0x7ef7e620) | Mask on extra bits ---> 000010000000000000000
    ? 'fs1 == 0 and fe1 == 0xfd and fm1 == 0x7127a3 and fs2 == 0 and fe2 == 0x7c and
      fm2 == 0x1eb06b and fs3 == 0 and fe3 == 0xfb and fm3 == 0x157ca7 and rm_val
      == 3  #nosat'
    : 1 #  rs1_val==fnorm(0x7ef127a3) and rs2_val==fnorm(0x3e1eb06b) and rs3_val==fnorm(0x7d957ca7) | Mask on extra bits ---> 000001000000000000000
    ? 'fs1 == 0 and fe1 == 0xfd and fm1 == 0x68ed41 and fs2 == 0 and fe2 == 0x7c and
      fm2 == 0x738f77 and fs3 == 0 and fe3 == 0xfb and fm3 == 0x5d9bbd and rm_val
      == 3  #nosat'
    : 1 #  rs1_val==fnorm(0x7ee8ed41) and rs2_val==fnorm(0x3e738f77) and rs3_val==fnorm(0x7ddd9bbd) | Mask on extra bits ---> 000000100000000000000
    ? 'fs1 == 0 and fe1 == 0xfb and fm1 == 0x5ea80c and fs2 == 0 and fe2 == 0x81 and
      fm2 == 0x0a19f7 and fs3 == 0 and fe3 == 0xfd and fm3 == 0x703a58 and rm_val
      == 3  #nosat'
    : 1 #  rs1_val==fnorm(0x7ddea80c) and rs2_val==fnorm(0x408a19f7) and rs3_val==fnorm(0x7ef03a58) | Mask on extra bits ---> 000000010000000000000
    ? 'fs1 == 0 and fe1 == 0xfb and fm1 == 0x19d68e and fs2 == 0 and fe2 == 0x80 and
      fm2 == 0x674db3 and fs3 == 0 and fe3 == 0xfd and fm3 == 0x0aff4b and rm_val
      == 3  #nosat'
    : 1 #  rs1_val==fnorm(0x7d99d68e) and rs2_val==fnorm(0x40674db3) and rs3_val==fnorm(0x7e8aff4b) | Mask on extra bits ---> 000000001000000000000
    ? 'fs1 == 0 and fe1 == 0xfd and fm1 == 0x3ccf7c and fs2 == 0 and fe2 == 0x7e and
      fm2 == 0x7421c1 and fs3 == 0 and fe3 == 0xfd and fm3 == 0x340ea8 and rm_val
      == 3  #nosat'
    : 1 #  rs1_val==fnorm(0x7ebccf7c) and rs2_val==fnorm(0x3f7421c1) and rs3_val==fnorm(0x7eb40ea8) | Mask on extra bits ---> 000000000100000000000
    ? 'fs1 == 0 and fe1 == 0xfe and fm1 == 0x16332e and fs2 == 0 and fe2 == 0x7f and
      fm2 == 0x051bd2 and fs3 == 0 and fe3 == 0xfe and fm3 == 0x1c31d4 and rm_val
      == 3  #nosat'
    : 1 #  rs1_val==fnorm(0x7f16332e) and rs2_val==fnorm(0x3f851bd2) and rs3_val==fnorm(0x7f1c31d4) | Mask on extra bits ---> 000000000010000000000
    ? 'fs1 == 0 and fe1 == 0xfd and fm1 == 0x6b8edc and fs2 == 0 and fe2 == 0x7e and
      fm2 == 0x302841 and fs3 == 0 and fe3 == 0xfd and fm3 == 0x221741 and rm_val
      == 3  #nosat'
    : 1 #  rs1_val==fnorm(0x7eeb8edc) and rs2_val==fnorm(0x3f302841) and rs3_val==fnorm(0x7ea21741) | Mask on extra bits ---> 000000000001000000000
    ? 'fs1 == 0 and fe1 == 0xfc and fm1 == 0x13f0eb and fs2 == 0 and fe2 == 0x81 and
      fm2 == 0x1d617d and fs3 == 0 and fe3 == 0xfe and fm3 == 0x35e62e and rm_val
      == 3  #nosat'
    : 1 #  rs1_val==fnorm(0x7e13f0eb) and rs2_val==fnorm(0x409d617d) and rs3_val==fnorm(0x7f35e62e) | Mask on extra bits ---> 000000000000100000000
    ? 'fs1 == 0 and fe1 == 0xfe and fm1 == 0x23ded1 and fs2 == 0 and fe2 == 0x7b and
      fm2 == 0x156e92 and fs3 == 0 and fe3 == 0xfa and fm3 == 0x3f4eee and rm_val
      == 3  #nosat'
    : 1 #  rs1_val==fnorm(0x7f23ded1) and rs2_val==fnorm(0x3d956e92) and rs3_val==fnorm(0x7d3f4eee) | Mask on extra bits ---> 000000000000010000000
    ? 'fs1 == 0 and fe1 == 0xfd and fm1 == 0x0b0329 and fs2 == 0 and fe2 == 0x80 and
      fm2 == 0x25e82c and fs3 == 0 and fe3 == 0xfe and fm3 == 0x342e39 and rm_val
      == 3  #nosat'
    : 1 #  rs1_val==fnorm(0x7e8b0329) and rs2_val==fnorm(0x4025e82c) and rs3_val==fnorm(0x7f342e39) | Mask on extra bits ---> 000000000000001000000
    ? 'fs1 == 0 and fe1 == 0xfb and fm1 == 0x2c3fe4 and fs2 == 0 and fe2 == 0x81 and
      fm2 == 0x4d0748 and fs3 == 0 and fe3 == 0xfe and fm3 == 0x09f410 and rm_val
      == 3  #nosat'
    : 1 #  rs1_val==fnorm(0x7dac3fe4) and rs2_val==fnorm(0x40cd0748) and rs3_val==fnorm(0x7f09f410) | Mask on extra bits ---> 000000000000000100000
    ? 'fs1 == 0 and fe1 == 0xf9 and fm1 == 0x39031d and fs2 == 0 and fe2 == 0x83 and
      fm2 == 0x4d83ab and fs3 == 0 and fe3 == 0xfe and fm3 == 0x1486a7 and rm_val
      == 3  #nosat'
    : 1 #  rs1_val==fnorm(0x7cb9031d) and rs2_val==fnorm(0x41cd83ab) and rs3_val==fnorm(0x7f1486a7) | Mask on extra bits ---> 000000000000000010000
    ? 'fs1 == 0 and fe1 == 0xfd and fm1 == 0x2c8d9d and fs2 == 0 and fe2 == 0x7c and
      fm2 == 0x0221ad and fs3 == 0 and fe3 == 0xfa and fm3 == 0x2f6d3b and rm_val
      == 3  #nosat'
    : 1 #  rs1_val==fnorm(0x7eac8d9d) and rs2_val==fnorm(0x3e0221ad) and rs3_val==fnorm(0x7d2f6d3b) | Mask on extra bits ---> 000000000000000001000
    ? 'fs1 == 0 and fe1 == 0xfc and fm1 == 0x5f5397 and fs2 == 0 and fe2 == 0x79 and
      fm2 == 0x2e726c and fs3 == 0 and fe3 == 0xf7 and fm3 == 0x182ea3 and rm_val
      == 3  #nosat'
    : 1 #  rs1_val==fnorm(0x7e5f5397) and rs2_val==fnorm(0x3cae726c) and rs3_val==fnorm(0x7b982ea3) | Mask on extra bits ---> 000000000000000000100
    ? 'fs1 == 0 and fe1 == 0xfe and fm1 == 0x18571c and fs2 == 0 and fe2 == 0x7f and
      fm2 == 0x1718df and fs3 == 0 and fe3 == 0xfe and fm3 == 0x33d45e and rm_val
      == 3  #nosat'
    : 1 #  rs1_val==fnorm(0x7f18571c) and rs2_val==fnorm(0x3f9718df) and rs3_val==fnorm(0x7f33d45e) | Mask on extra bits ---> 000000000000000000010
    ? 'fs1 == 0 and fe1 == 0xfd and fm1 == 0x18f0ab and fs2 == 0 and fe2 == 0x7f and
      fm2 == 0x1cd557 and fs3 == 0 and fe3 == 0xfd and fm3 == 0x3b643a and rm_val
      == 3  #nosat'
    : 1 #  rs1_val==fnorm(0x7e98f0ab) and rs2_val==fnorm(0x3f9cd557) and rs3_val==fnorm(0x7ebb643a) | Mask on extra bits ---> 000000000000000000001
    ? 'fs1 == 0 and fe1 == 0xfd and fm1 == 0x679066 and fs2 == 0 and fe2 == 0x7e and
      fm2 == 0x07e51c and fs3 == 0 and fe3 == 0xfc and fm3 == 0x75d8c6 and rm_val
      == 3  #nosat'
    : 1 #  rs1_val==fnorm(0x7ee79066) and rs2_val==fnorm(0x3f07e51c) and rs3_val==fnorm(0x7e75d8c6) | Mask on extra bits ---> 010000000000000000000
    ? 'fs1 == 0 and fe1 == 0xfe and fm1 == 0x313b25 and fs2 == 0 and fe2 == 0x7d and
      fm2 == 0x5093fc and fs3 == 0 and fe3 == 0xfd and fm3 == 0x106682 and rm_val
      == 3  #nosat'
    : 1 #  rs1_val==fnorm(0x7f313b25) and rs2_val==fnorm(0x3ed093fc) and rs3_val==fnorm(0x7e906682) | Mask on extra bits ---> 001000000000000000000
    ? 'fs1 == 0 and fe1 == 0xfd and fm1 == 0x7d263c and fs2 == 0 and fe2 == 0x7f and
      fm2 == 0x3c7c65 and fs3 == 0 and fe3 == 0xfe and fm3 == 0x3a6317 and rm_val
      == 3  #nosat'
    : 1 #  rs1_val==fnorm(0x7efd263c) and rs2_val==fnorm(0x3fbc7c65) and rs3_val==fnorm(0x7f3a6317) | Mask on extra bits ---> 000100000000000000000
    ? 'fs1 == 0 and fe1 == 0xfe and fm1 == 0x1a82a0 and fs2 == 0 and fe2 == 0x7d and
      fm2 == 0x4dc01c and fs3 == 0 and fe3 == 0xfc and fm3 == 0x785d1b and rm_val
      == 3  #nosat'
    : 1 #  rs1_val==fnorm(0x7f1a82a0) and rs2_val==fnorm(0x3ecdc01c) and rs3_val==fnorm(0x7e785d1b) | Mask on extra bits ---> 000010000000000000000
    ? 'fs1 == 0 and fe1 == 0xfd and fm1 == 0x10f39b and fs2 == 0 and fe2 == 0x7e and
      fm2 == 0x4f4d9f and fs3 == 0 and fe3 == 0xfc and fm3 == 0x6ac1db and rm_val
      == 3  #nosat'
    : 1 #  rs1_val==fnorm(0x7e90f39b) and rs2_val==fnorm(0x3f4f4d9f) and rs3_val==fnorm(0x7e6ac1db) | Mask on extra bits ---> 000001000000000000000
    ? 'fs1 == 0 and fe1 == 0xfd and fm1 == 0x37c24b and fs2 == 0 and fe2 == 0x7d and
      fm2 == 0x182086 and fs3 == 0 and fe3 == 0xfb and fm3 == 0x5a656b and rm_val
      == 3  #nosat'
    : 1 #  rs1_val==fnorm(0x7eb7c24b) and rs2_val==fnorm(0x3e982086) and rs3_val==fnorm(0x7dda656b) | Mask on extra bits ---> 000000100000000000000
    ? 'fs1 == 0 and fe1 == 0xfc and fm1 == 0x4dc6a7 and fs2 == 0 and fe2 == 0x7f and
      fm2 == 0x62c78f and fs3 == 0 and fe3 == 0xfd and fm3 == 0x3649c8 and rm_val
      == 3  #nosat'
    : 1 #  rs1_val==fnorm(0x7e4dc6a7) and rs2_val==fnorm(0x3fe2c78f) and rs3_val==fnorm(0x7eb649c8) | Mask on extra bits ---> 000000010000000000000
    ? 'fs1 == 0 and fe1 == 0xfe and fm1 == 0x28d30c and fs2 == 0 and fe2 == 0x7e and
      fm2 == 0x323b1d and fs3 == 0 and fe3 == 0xfd and fm3 == 0x6b1376 and rm_val
      == 3  #nosat'
    : 1 #  rs1_val==fnorm(0x7f28d30c) and rs2_val==fnorm(0x3f323b1d) and rs3_val==fnorm(0x7eeb1376) | Mask on extra bits ---> 000000001000000000000
    ? 'fs1 == 0 and fe1 == 0xfc and fm1 == 0x43a885 and fs2 == 0 and fe2 == 0x7f and
      fm2 == 0x4e4840 and fs3 == 0 and fe3 == 0xfd and fm3 == 0x1da8d4 and rm_val
      == 3  #nosat'
    : 1 #  rs1_val==fnorm(0x7e43a885) and rs2_val==fnorm(0x3fce4840) and rs3_val==fnorm(0x7e9da8d4) | Mask on extra bits ---> 000000000100000000000
    ? 'fs1 == 0 and fe1 == 0xfd and fm1 == 0x2d6385 and fs2 == 0 and fe2 == 0x80 and
      fm2 == 0x037a19 and fs3 == 0 and fe3 == 0xfe and fm3 == 0x321940 and rm_val
      == 3  #nosat'
    : 1 #  rs1_val==fnorm(0x7ead6385) and rs2_val==fnorm(0x40037a19) and rs3_val==fnorm(0x7f321940) | Mask on extra bits ---> 000000000010000000000
    ? 'fs1 == 0 and fe1 == 0xfd and fm1 == 0x0aa492 and fs2 == 0 and fe2 == 0x7e and
      fm2 == 0x35bca1 and fs3 == 0 and fe3 == 0xfc and fm3 == 0x44d907 and rm_val
      == 3  #nosat'
    : 1 #  rs1_val==fnorm(0x7e8aa492) and rs2_val==fnorm(0x3f35bca1) and rs3_val==fnorm(0x7e44d907) | Mask on extra bits ---> 000000000001000000000
    ? 'fs1 == 0 and fe1 == 0xfb and fm1 == 0x3db054 and fs2 == 0 and fe2 == 0x81 and
      fm2 == 0x18ba96 and fs3 == 0 and fe3 == 0xfd and fm3 == 0x6255e7 and rm_val
      == 3  #nosat'
    : 1 #  rs1_val==fnorm(0x7dbdb054) and rs2_val==fnorm(0x4098ba96) and rs3_val==fnorm(0x7ee255e7) | Mask on extra bits ---> 000000000000100000000
    ? 'fs1 == 0 and fe1 == 0xfc and fm1 == 0x0431c2 and fs2 == 0 and fe2 == 0x7c and
      fm2 == 0x022039 and fs3 == 0 and fe3 == 0xf9 and fm3 == 0x0663d1 and rm_val
      == 3  #nosat'
    : 1 #  rs1_val==fnorm(0x7e0431c2) and rs2_val==fnorm(0x3e022039) and rs3_val==fnorm(0x7c8663d1) | Mask on extra bits ---> 000000000000010000000
    ? 'fs1 == 0 and fe1 == 0xfd and fm1 == 0x3b4351 and fs2 == 0 and fe2 == 0x7f and
      fm2 == 0x4dc9e9 and fs3 == 0 and fe3 == 0xfe and fm3 == 0x16889a and rm_val
      == 3  #nosat'
    : 1 #  rs1_val==fnorm(0x7ebb4351) and rs2_val==fnorm(0x3fcdc9e9) and rs3_val==fnorm(0x7f16889a) | Mask on extra bits ---> 000000000000001000000
    ? 'fs1 == 0 and fe1 == 0xfe and fm1 == 0x0f54bf and fs2 == 0 and fe2 == 0x7d and
      fm2 == 0x36502d and fs3 == 0 and fe3 == 0xfc and fm3 == 0x4c2647 and rm_val
      == 3  #nosat'
    : 1 #  rs1_val==fnorm(0x7f0f54bf) and rs2_val==fnorm(0x3eb6502d) and rs3_val==fnorm(0x7e4c2647) | Mask on extra bits ---> 000000000000000100000
    ? 'fs1 == 0 and fe1 == 0xfd and fm1 == 0x1d149a and fs2 == 0 and fe2 == 0x7c and
      fm2 == 0x571bda and fs3 == 0 and fe3 == 0xfb and fm3 == 0x03fd65 and rm_val
      == 3  #nosat'
    : 1 #  rs1_val==fnorm(0x7e9d149a) and rs2_val==fnorm(0x3e571bda) and rs3_val==fnorm(0x7d83fd65) | Mask on extra bits ---> 000000000000000010000
    ? 'fs1 == 0 and fe1 == 0xfd and fm1 == 0x34d648 and fs2 == 0 and fe2 == 0x7f and
      fm2 == 0x3fcdc7 and fs3 == 0 and fe3 == 0xfe and fm3 == 0x077d3c and rm_val
      == 3  #nosat'
    : 1 #  rs1_val==fnorm(0x7eb4d648) and rs2_val==fnorm(0x3fbfcdc7) and rs3_val==fnorm(0x7f077d3c) | Mask on extra bits ---> 000000000000000001000
    ? 'fs1 == 0 and fe1 == 0xfe and fm1 == 0x18d9d9 and fs2 == 0 and fe2 == 0x7e and
      fm2 == 0x262663 and fs3 == 0 and fe3 == 0xfd and fm3 == 0x46685d and rm_val
      == 3  #nosat'
    : 1 #  rs1_val==fnorm(0x7f18d9d9) and rs2_val==fnorm(0x3f262663) and rs3_val==fnorm(0x7ec6685d) | Mask on extra bits ---> 000000000000000000100
    ? 'fs1 == 0 and fe1 == 0xfd and fm1 == 0x2bb8f9 and fs2 == 0 and fe2 == 0x7f and
      fm2 == 0x6dee41 and fs3 == 0 and fe3 == 0xfe and fm3 == 0x1f9a10 and rm_val
      == 3  #nosat'
    : 1 #  rs1_val==fnorm(0x7eabb8f9) and rs2_val==fnorm(0x3fedee41) and rs3_val==fnorm(0x7f1f9a10) | Mask on extra bits ---> 000000000000000000010
    ? 'fs1 == 0 and fe1 == 0xfe and fm1 == 0x00ae82 and fs2 == 0 and fe2 == 0x7f and
      fm2 == 0x29e1b5 and fs3 == 0 and fe3 == 0xfe and fm3 == 0x2ac951 and rm_val
      == 3  #nosat'
    : 1 #  rs1_val==fnorm(0x7f00ae82) and rs2_val==fnorm(0x3fa9e1b5) and rs3_val==fnorm(0x7f2ac951) | Mask on extra bits ---> 000000000000000000001
    ? 'fs1 == 0 and fe1 == 0xfe and fm1 == 0x3c0464 and fs2 == 0 and fe2 == 0x7e and
      fm2 == 0x6941a6 and fs3 == 0 and fe3 == 0xfe and fm3 == 0x2b5036 and rm_val
      == 3  #nosat'
    : 1 #  rs1_val==fnorm(0x7f3c0464) and rs2_val==fnorm(0x3f6941a6) and rs3_val==fnorm(0x7f2b5036) | Mask on extra bits ---> 010000000000000000000
    ? 'fs1 == 0 and fe1 == 0xfe and fm1 == 0x3c58cf and fs2 == 0 and fe2 == 0x7d and
      fm2 == 0x00090a and fs3 == 0 and fe3 == 0xfc and fm3 == 0x3c661c and rm_val
      == 3  #nosat'
    : 1 #  rs1_val==fnorm(0x7f3c58cf) and rs2_val==fnorm(0x3e80090a) and rs3_val==fnorm(0x7e3c661c) | Mask on extra bits ---> 001000000000000000000
    ? 'fs1 == 0 and fe1 == 0xfe and fm1 == 0x0f4ac6 and fs2 == 0 and fe2 == 0x7e and
      fm2 == 0x0870e2 and fs3 == 0 and fe3 == 0xfd and fm3 == 0x18bdd1 and rm_val
      == 3  #nosat'
    : 1 #  rs1_val==fnorm(0x7f0f4ac6) and rs2_val==fnorm(0x3f0870e2) and rs3_val==fnorm(0x7e98bdd1) | Mask on extra bits ---> 000100000000000000000
    ? 'fs1 == 0 and fe1 == 0xfa and fm1 == 0x255773 and fs2 == 0 and fe2 == 0x81 and
      fm2 == 0x7b6dc7 and fs3 == 0 and fe3 == 0xfd and fm3 == 0x2263a5 and rm_val
      == 3  #nosat'
    : 1 #  rs1_val==fnorm(0x7d255773) and rs2_val==fnorm(0x40fb6dc7) and rs3_val==fnorm(0x7ea263a5) | Mask on extra bits ---> 000010000000000000000
    ? 'fs1 == 0 and fe1 == 0xfb and fm1 == 0x42d171 and fs2 == 0 and fe2 == 0x81 and
      fm2 == 0x7c4426 and fs3 == 0 and fe3 == 0xfe and fm3 == 0x3ffa07 and rm_val
      == 3  #nosat'
    : 1 #  rs1_val==fnorm(0x7dc2d171) and rs2_val==fnorm(0x40fc4426) and rs3_val==fnorm(0x7f3ffa07) | Mask on extra bits ---> 000001000000000000000
    ? 'fs1 == 0 and fe1 == 0xfd and fm1 == 0x10ec66 and fs2 == 0 and fe2 == 0x7f and
      fm2 == 0x03fd1f and fs3 == 0 and fe3 == 0xfd and fm3 == 0x157088 and rm_val
      == 3  #nosat'
    : 1 #  rs1_val==fnorm(0x7e90ec66) and rs2_val==fnorm(0x3f83fd1f) and rs3_val==fnorm(0x7e957088) | Mask on extra bits ---> 000000100000000000000
    ? 'fs1 == 0 and fe1 == 0xfd and fm1 == 0x6e2e8d and fs2 == 0 and fe2 == 0x7d and
      fm2 == 0x7cb106 and fs3 == 0 and fe3 == 0xfc and fm3 == 0x6b1a87 and rm_val
      == 3  #nosat'
    : 1 #  rs1_val==fnorm(0x7eee2e8d) and rs2_val==fnorm(0x3efcb106) and rs3_val==fnorm(0x7e6b1a87) | Mask on extra bits ---> 000000010000000000000
    ? 'fs1 == 0 and fe1 == 0xfc and fm1 == 0x7fad2c and fs2 == 0 and fe2 == 0x80 and
      fm2 == 0x2ddf2e and fs3 == 0 and fe3 == 0xfe and fm3 == 0x2da6ed and rm_val
      == 3  #nosat'
    : 1 #  rs1_val==fnorm(0x7e7fad2c) and rs2_val==fnorm(0x402ddf2e) and rs3_val==fnorm(0x7f2da6ed) | Mask on extra bits ---> 000000001000000000000
    ? 'fs1 == 0 and fe1 == 0xfe and fm1 == 0x156314 and fs2 == 0 and fe2 == 0x79 and
      fm2 == 0x339b9f and fs3 == 0 and fe3 == 0xf8 and fm3 == 0x519e2f and rm_val
      == 3  #nosat'
    : 1 #  rs1_val==fnorm(0x7f156314) and rs2_val==fnorm(0x3cb39b9f) and rs3_val==fnorm(0x7c519e2f) | Mask on extra bits ---> 000000000100000000000
    ? 'fs1 == 0 and fe1 == 0xfe and fm1 == 0x060f17 and fs2 == 0 and fe2 == 0x79 and
      fm2 == 0x12ec96 and fs3 == 0 and fe3 == 0xf8 and fm3 == 0x19e100 and rm_val
      == 3  #nosat'
    : 1 #  rs1_val==fnorm(0x7f060f17) and rs2_val==fnorm(0x3c92ec96) and rs3_val==fnorm(0x7c19e100) | Mask on extra bits ---> 000000000010000000000
    ? 'fs1 == 0 and fe1 == 0xfc and fm1 == 0x21311f and fs2 == 0 and fe2 == 0x81 and
      fm2 == 0x03f6ba and fs3 == 0 and fe3 == 0xfe and fm3 == 0x262efb and rm_val
      == 3  #nosat'
    : 1 #  rs1_val==fnorm(0x7e21311f) and rs2_val==fnorm(0x4083f6ba) and rs3_val==fnorm(0x7f262efb) | Mask on extra bits ---> 000000000001000000000
    ? 'fs1 == 0 and fe1 == 0xfd and fm1 == 0x39c1fe and fs2 == 0 and fe2 == 0x7d and
      fm2 == 0x122c1f and fs3 == 0 and fe3 == 0xfb and fm3 == 0x54214e and rm_val
      == 3  #nosat'
    : 1 #  rs1_val==fnorm(0x7eb9c1fe) and rs2_val==fnorm(0x3e922c1f) and rs3_val==fnorm(0x7dd4214e) | Mask on extra bits ---> 000000000000100000000
    ? 'fs1 == 0 and fe1 == 0xfc and fm1 == 0x6fd4df and fs2 == 0 and fe2 == 0x7e and
      fm2 == 0x20dc16 and fs3 == 0 and fe3 == 0xfc and fm3 == 0x16b33b and rm_val
      == 3  #nosat'
    : 1 #  rs1_val==fnorm(0x7e6fd4df) and rs2_val==fnorm(0x3f20dc16) and rs3_val==fnorm(0x7e16b33b) | Mask on extra bits ---> 000000000000010000000
    ? 'fs1 == 0 and fe1 == 0xfb and fm1 == 0x337137 and fs2 == 0 and fe2 == 0x81 and
      fm2 == 0x3588f6 and fs3 == 0 and fe3 == 0xfd and fm3 == 0x7e7e1b and rm_val
      == 3  #nosat'
    : 1 #  rs1_val==fnorm(0x7db37137) and rs2_val==fnorm(0x40b588f6) and rs3_val==fnorm(0x7efe7e1b) | Mask on extra bits ---> 000000000000001000000
    ? 'fs1 == 0 and fe1 == 0xfe and fm1 == 0x28f9a2 and fs2 == 0 and fe2 == 0x7e and
      fm2 == 0x18ca47 and fs3 == 0 and fe3 == 0xfd and fm3 == 0x49b378 and rm_val
      == 3  #nosat'
    : 1 #  rs1_val==fnorm(0x7f28f9a2) and rs2_val==fnorm(0x3f18ca47) and rs3_val==fnorm(0x7ec9b378) | Mask on extra bits ---> 000000000000000100000
    ? 'fs1 == 0 and fe1 == 0xfd and fm1 == 0x623c76 and fs2 == 0 and fe2 == 0x7c and
      fm2 == 0x1be23d and fs3 == 0 and fe3 == 0xfb and fm3 == 0x09c28b and rm_val
      == 3  #nosat'
    : 1 #  rs1_val==fnorm(0x7ee23c76) and rs2_val==fnorm(0x3e1be23d) and rs3_val==fnorm(0x7d89c28b) | Mask on extra bits ---> 000000000000000010000
    ? 'fs1 == 0 and fe1 == 0xfd and fm1 == 0x671228 and fs2 == 0 and fe2 == 0x7e and
      fm2 == 0x0177d2 and fs3 == 0 and fe3 == 0xfc and fm3 == 0x69b89c and rm_val
      == 3  #nosat'
    : 1 #  rs1_val==fnorm(0x7ee71228) and rs2_val==fnorm(0x3f0177d2) and rs3_val==fnorm(0x7e69b89c) | Mask on extra bits ---> 000000000000000001000
    ? 'fs1 == 0 and fe1 == 0xf9 and fm1 == 0x2e9fe8 and fs2 == 0 and fe2 == 0x82 and
      fm2 == 0x4b6f55 and fs3 == 0 and fe3 == 0xfd and fm3 == 0x0ac4bf and rm_val
      == 3  #nosat'
    : 1 #  rs1_val==fnorm(0x7cae9fe8) and rs2_val==fnorm(0x414b6f55) and rs3_val==fnorm(0x7e8ac4bf) | Mask on extra bits ---> 000000000000000000100
    ? 'fs1 == 0 and fe1 == 0xfe and fm1 == 0x1aa82d and fs2 == 0 and fe2 == 0x7f and
      fm2 == 0x1b2701 and fs3 == 0 and fe3 == 0xfe and fm3 == 0x3b76c8 and rm_val
      == 3  #nosat'
    : 1 #  rs1_val==fnorm(0x7f1aa82d) and rs2_val==fnorm(0x3f9b2701) and rs3_val==fnorm(0x7f3b76c8) | Mask on extra bits ---> 000000000000000000010
    ? 'fs1 == 0 and fe1 == 0xfd and fm1 == 0x7783fc and fs2 == 0 and fe2 == 0x7f and
      fm2 == 0x0a9790 and fs3 == 0 and fe3 == 0xfe and fm3 == 0x05ffb0 and rm_val
      == 3  #nosat'
    : 1 #  rs1_val==fnorm(0x7ef783fc) and rs2_val==fnorm(0x3f8a9790) and rs3_val==fnorm(0x7f05ffb0) | Mask on extra bits ---> 000000000000000000001
    ? 'fs1 == 0 and fe1 == 0xfe and fm1 == 0x2ea04a and fs2 == 0 and fe2 == 0x7e and
      fm2 == 0x10dbda and fs3 == 0 and fe3 == 0xfd and fm3 == 0x45a044 and rm_val
      == 3  #nosat'
    : 1 #  rs1_val==fnorm(0x7f2ea04a) and rs2_val==fnorm(0x3f10dbda) and rs3_val==fnorm(0x7ec5a044) | Mask on extra bits ---> 010000000000000000000
    ? 'fs1 == 0 and fe1 == 0xfd and fm1 == 0x0a62c0 and fs2 == 0 and fe2 == 0x80 and
      fm2 == 0x25a532 and fs3 == 0 and fe3 == 0xfe and fm3 == 0x3315e5 and rm_val
      == 3  #nosat'
    : 1 #  rs1_val==fnorm(0x7e8a62c0) and rs2_val==fnorm(0x4025a532) and rs3_val==fnorm(0x7f3315e5) | Mask on extra bits ---> 001000000000000000000
    ? 'fs1 == 0 and fe1 == 0xfc and fm1 == 0x1a457f and fs2 == 0 and fe2 == 0x80 and
      fm2 == 0x50d100 and fs3 == 0 and fe3 == 0xfd and fm3 == 0x7bacd4 and rm_val
      == 3  #nosat'
    : 1 #  rs1_val==fnorm(0x7e1a457f) and rs2_val==fnorm(0x4050d100) and rs3_val==fnorm(0x7efbacd4) | Mask on extra bits ---> 000100000000000000000
    ? 'fs1 == 0 and fe1 == 0xfe and fm1 == 0x36a9e2 and fs2 == 0 and fe2 == 0x7e and
      fm2 == 0x1e600b and fs3 == 0 and fe3 == 0xfd and fm3 == 0x6202c3 and rm_val
      == 3  #nosat'
    : 1 #  rs1_val==fnorm(0x7f36a9e2) and rs2_val==fnorm(0x3f1e600b) and rs3_val==fnorm(0x7ee202c3) | Mask on extra bits ---> 000010000000000000000
    ? 'fs1 == 0 and fe1 == 0xfd and fm1 == 0x73cf0f and fs2 == 0 and fe2 == 0x7d and
      fm2 == 0x6acfa3 and fs3 == 0 and fe3 == 0xfc and fm3 == 0x5fa103 and rm_val
      == 3  #nosat'
    : 1 #  rs1_val==fnorm(0x7ef3cf0f) and rs2_val==fnorm(0x3eeacfa3) and rs3_val==fnorm(0x7e5fa103) | Mask on extra bits ---> 000001000000000000000
    ? 'fs1 == 0 and fe1 == 0xfb and fm1 == 0x100bf1 and fs2 == 0 and fe2 == 0x80 and
      fm2 == 0x068d67 and fs3 == 0 and fe3 == 0xfc and fm3 == 0x176ba2 and rm_val
      == 3  #nosat'
    : 1 #  rs1_val==fnorm(0x7d900bf1) and rs2_val==fnorm(0x40068d67) and rs3_val==fnorm(0x7e176ba2) | Mask on extra bits ---> 000000100000000000000
    ? 'fs1 == 0 and fe1 == 0xfe and fm1 == 0x1a849e and fs2 == 0 and fe2 == 0x7e and
      fm2 == 0x0d9f1b and fs3 == 0 and fe3 == 0xfd and fm3 == 0x2af628 and rm_val
      == 3  #nosat'
    : 1 #  rs1_val==fnorm(0x7f1a849e) and rs2_val==fnorm(0x3f0d9f1b) and rs3_val==fnorm(0x7eaaf628) | Mask on extra bits ---> 000000010000000000000
    ? 'fs1 == 0 and fe1 == 0xfb and fm1 == 0x0f0e02 and fs2 == 0 and fe2 == 0x82 and
      fm2 == 0x097bec and fs3 == 0 and fe3 == 0xfe and fm3 == 0x19a77e and rm_val
      == 3  #nosat'
    : 1 #  rs1_val==fnorm(0x7d8f0e02) and rs2_val==fnorm(0x41097bec) and rs3_val==fnorm(0x7f19a77e) | Mask on extra bits ---> 000000001000000000000
    ? 'fs1 == 0 and fe1 == 0xfe and fm1 == 0x221a29 and fs2 == 0 and fe2 == 0x7d and
      fm2 == 0x4b81fb and fs3 == 0 and fe3 == 0xfd and fm3 == 0x00dd0d and rm_val
      == 3  #nosat'
    : 1 #  rs1_val==fnorm(0x7f221a29) and rs2_val==fnorm(0x3ecb81fb) and rs3_val==fnorm(0x7e80dd0d) | Mask on extra bits ---> 000000000100000000000
    ? 'fs1 == 0 and fe1 == 0xfe and fm1 == 0x1a3f02 and fs2 == 0 and fe2 == 0x7e and
      fm2 == 0x5a8069 and fs3 == 0 and fe3 == 0xfe and fm3 == 0x03a707 and rm_val
      == 3  #nosat'
    : 1 #  rs1_val==fnorm(0x7f1a3f02) and rs2_val==fnorm(0x3f5a8069) and rs3_val==fnorm(0x7f03a707) | Mask on extra bits ---> 000000000010000000000
    ? 'fs1 == 0 and fe1 == 0xfe and fm1 == 0x1a9574 and fs2 == 0 and fe2 == 0x7d and
      fm2 == 0x28da1a and fs3 == 0 and fe3 == 0xfc and fm3 == 0x4beb8f and rm_val
      == 3  #nosat'
    : 1 #  rs1_val==fnorm(0x7f1a9574) and rs2_val==fnorm(0x3ea8da1a) and rs3_val==fnorm(0x7e4beb8f) | Mask on extra bits ---> 000000000001000000000
    ? 'fs1 == 0 and fe1 == 0xfc and fm1 == 0x14365e and fs2 == 0 and fe2 == 0x80 and
      fm2 == 0x3798bb and fs3 == 0 and fe3 == 0xfd and fm3 == 0x549695 and rm_val
      == 3  #nosat'
    : 1 #  rs1_val==fnorm(0x7e14365e) and rs2_val==fnorm(0x403798bb) and rs3_val==fnorm(0x7ed49695) | Mask on extra bits ---> 000000000000100000000
    ? 'fs1 == 0 and fe1 == 0xfd and fm1 == 0x4eb58d and fs2 == 0 and fe2 == 0x7f and
      fm2 == 0x222e36 and fs3 == 0 and fe3 == 0xfe and fm3 == 0x02f434 and rm_val
      == 3  #nosat'
    : 1 #  rs1_val==fnorm(0x7eceb58d) and rs2_val==fnorm(0x3fa22e36) and rs3_val==fnorm(0x7f02f434) | Mask on extra bits ---> 000000000000010000000
    ? 'fs1 == 0 and fe1 == 0xfe and fm1 == 0x0c2059 and fs2 == 0 and fe2 == 0x7e and
      fm2 == 0x11387d and fs3 == 0 and fe3 == 0xfd and fm3 == 0x1efa7c and rm_val
      == 3  #nosat'
    : 1 #  rs1_val==fnorm(0x7f0c2059) and rs2_val==fnorm(0x3f11387d) and rs3_val==fnorm(0x7e9efa7c) | Mask on extra bits ---> 000000000000001000000
    ? 'fs1 == 0 and fe1 == 0xfc and fm1 == 0x516e9f and fs2 == 0 and fe2 == 0x80 and
      fm2 == 0x3c33f6 and fs3 == 0 and fe3 == 0xfe and fm3 == 0x19f7bf and rm_val
      == 3  #nosat'
    : 1 #  rs1_val==fnorm(0x7e516e9f) and rs2_val==fnorm(0x403c33f6) and rs3_val==fnorm(0x7f19f7bf) | Mask on extra bits ---> 000000000000000100000
    ? 'fs1 == 0 and fe1 == 0xfd and fm1 == 0x0f4b27 and fs2 == 0 and fe2 == 0x80 and
      fm2 == 0x0415cd and fs3 == 0 and fe3 == 0xfe and fm3 == 0x13dde9 and rm_val
      == 3  #nosat'
    : 1 #  rs1_val==fnorm(0x7e8f4b27) and rs2_val==fnorm(0x400415cd) and rs3_val==fnorm(0x7f13dde9) | Mask on extra bits ---> 000000000000000010000
    ? 'fs1 == 0 and fe1 == 0xfd and fm1 == 0x3493df and fs2 == 0 and fe2 == 0x7f and
      fm2 == 0x4ecb22 and fs3 == 0 and fe3 == 0xfe and fm3 == 0x11de47 and rm_val
      == 3  #nosat'
    : 1 #  rs1_val==fnorm(0x7eb493df) and rs2_val==fnorm(0x3fcecb22) and rs3_val==fnorm(0x7f11de47) | Mask on extra bits ---> 000000000000000001000
    ? 'fs1 == 0 and fe1 == 0xf3 and fm1 == 0x319f1b and fs2 == 0 and fe2 == 0x89 and
      fm2 == 0x376ad3 and fs3 == 0 and fe3 == 0xfd and fm3 == 0x7e85b6 and rm_val
      == 3  #nosat'
    : 1 #  rs1_val==fnorm(0x79b19f1b) and rs2_val==fnorm(0x44b76ad3) and rs3_val==fnorm(0x7efe85b6) | Mask on extra bits ---> 000000000000000000100
    ? 'fs1 == 0 and fe1 == 0xfd and fm1 == 0x3a40d7 and fs2 == 0 and fe2 == 0x7e and
      fm2 == 0x0a1548 and fs3 == 0 and fe3 == 0xfc and fm3 == 0x48ecdf and rm_val
      == 3  #nosat'
    : 1 #  rs1_val==fnorm(0x7eba40d7) and rs2_val==fnorm(0x3f0a1548) and rs3_val==fnorm(0x7e48ecdf) | Mask on extra bits ---> 000000000000000000010
    coverage: 160/160
  total_coverage: 301/301
