---
fcvt.lu.d_b24:
  config:
  - check ISA:=regex(.*I.*Zfinx.*Zdinx.*)
  mnemonics:
    fcvt.lu.d: 105
    coverage: 1/1
  rd:
    x10: 1
    x12: 1
    x14: 1
    x16: 1
    x18: 1
    x2: 1
    x20: 1
    x22: 1
    x24: 1
    x26: 1
    x28: 1
    x30: 1
    x4: 1
    x6: 1
    x8: 1
    coverage: 15/15
  rs1:
    x10: 1
    x12: 1
    x14: 1
    x16: 1
    x18: 1
    x2: 1
    x20: 1
    x22: 1
    x24: 1
    x26: 1
    x28: 1
    x30: 90
    x4: 1
    x6: 1
    x8: 1
    coverage: 15/15
  val_comb:
    'fs1 == 1 and fe1 == 0x3fb and fm1 == 0x999999999999a and  fcsr == 0x0 and rm_val == 7   #nosat': 1
    'fs1 == 1 and fe1 == 0x3fb and fm1 == 0x999999999999a and  fcsr == 0x20 and rm_val == 7   #nosat': 1
    'fs1 == 1 and fe1 == 0x3fb and fm1 == 0x999999999999a and  fcsr == 0x40 and rm_val == 7   #nosat': 1
    'fs1 == 1 and fe1 == 0x3fb and fm1 == 0x999999999999a and  fcsr == 0x60 and rm_val == 7   #nosat': 1
    'fs1 == 1 and fe1 == 0x3fb and fm1 == 0x999999999999a and  fcsr == 0x80 and rm_val == 7   #nosat': 1
    'fs1 == 0 and fe1 == 0x3fe and fm1 == 0xccccccccccccd and  fcsr == 0x0 and rm_val == 7   #nosat': 1
    'fs1 == 0 and fe1 == 0x3fe and fm1 == 0xccccccccccccd and  fcsr == 0x20 and rm_val == 7   #nosat': 1
    'fs1 == 0 and fe1 == 0x3fe and fm1 == 0xccccccccccccd and  fcsr == 0x40 and rm_val == 7   #nosat': 1
    'fs1 == 0 and fe1 == 0x3fe and fm1 == 0xccccccccccccd and  fcsr == 0x60 and rm_val == 7   #nosat': 1
    'fs1 == 0 and fe1 == 0x3fe and fm1 == 0xccccccccccccd and  fcsr == 0x80 and rm_val == 7   #nosat': 1
    'fs1 == 1 and fe1 == 0x3fb and fm1 == 0xc28f5c28f5c29 and  fcsr == 0x0 and rm_val == 7   #nosat': 1
    'fs1 == 1 and fe1 == 0x3fb and fm1 == 0xc28f5c28f5c29 and  fcsr == 0x20 and rm_val == 7   #nosat': 1
    'fs1 == 1 and fe1 == 0x3fb and fm1 == 0xc28f5c28f5c29 and  fcsr == 0x40 and rm_val == 7   #nosat': 1
    'fs1 == 1 and fe1 == 0x3fb and fm1 == 0xc28f5c28f5c29 and  fcsr == 0x60 and rm_val == 7   #nosat': 1
    'fs1 == 1 and fe1 == 0x3fb and fm1 == 0xc28f5c28f5c29 and  fcsr == 0x80 and rm_val == 7   #nosat': 1
    'fs1 == 0 and fe1 == 0x000 and fm1 == 0x0000000000000 and  fcsr == 0x0 and rm_val == 7   #nosat': 1
    'fs1 == 0 and fe1 == 0x000 and fm1 == 0x0000000000000 and  fcsr == 0x20 and rm_val == 7   #nosat': 1
    'fs1 == 0 and fe1 == 0x000 and fm1 == 0x0000000000000 and  fcsr == 0x40 and rm_val == 7   #nosat': 1
    'fs1 == 0 and fe1 == 0x000 and fm1 == 0x0000000000000 and  fcsr == 0x60 and rm_val == 7   #nosat': 1
    'fs1 == 0 and fe1 == 0x000 and fm1 == 0x0000000000000 and  fcsr == 0x80 and rm_val == 7   #nosat': 1
    'fs1 == 0 and fe1 == 0x3fe and fm1 == 0xc7ae147ae147b and  fcsr == 0x0 and rm_val == 7   #nosat': 1
    'fs1 == 0 and fe1 == 0x3fe and fm1 == 0xc7ae147ae147b and  fcsr == 0x20 and rm_val == 7   #nosat': 1
    'fs1 == 0 and fe1 == 0x3fe and fm1 == 0xc7ae147ae147b and  fcsr == 0x40 and rm_val == 7   #nosat': 1
    'fs1 == 0 and fe1 == 0x3fe and fm1 == 0xc7ae147ae147b and  fcsr == 0x60 and rm_val == 7   #nosat': 1
    'fs1 == 0 and fe1 == 0x3fe and fm1 == 0xc7ae147ae147b and  fcsr == 0x80 and rm_val == 7   #nosat': 1
    'fs1 == 0 and fe1 == 0x3fb and fm1 == 0xc28f5c28f5c29 and  fcsr == 0x0 and rm_val == 7   #nosat': 1
    'fs1 == 0 and fe1 == 0x3fb and fm1 == 0xc28f5c28f5c29 and  fcsr == 0x20 and rm_val == 7   #nosat': 1
    'fs1 == 0 and fe1 == 0x3fb and fm1 == 0xc28f5c28f5c29 and  fcsr == 0x40 and rm_val == 7   #nosat': 1
    'fs1 == 0 and fe1 == 0x3fb and fm1 == 0xc28f5c28f5c29 and  fcsr == 0x60 and rm_val == 7   #nosat': 1
    'fs1 == 0 and fe1 == 0x3fb and fm1 == 0xc28f5c28f5c29 and  fcsr == 0x80 and rm_val == 7   #nosat': 1
    'fs1 == 1 and fe1 == 0x3fe and fm1 == 0xc7ae147ae147b and  fcsr == 0x0 and rm_val == 7   #nosat': 1
    'fs1 == 1 and fe1 == 0x3fe and fm1 == 0xc7ae147ae147b and  fcsr == 0x20 and rm_val == 7   #nosat': 1
    'fs1 == 1 and fe1 == 0x3fe and fm1 == 0xc7ae147ae147b and  fcsr == 0x40 and rm_val == 7   #nosat': 1
    'fs1 == 1 and fe1 == 0x3fe and fm1 == 0xc7ae147ae147b and  fcsr == 0x60 and rm_val == 7   #nosat': 1
    'fs1 == 1 and fe1 == 0x3fe and fm1 == 0xc7ae147ae147b and  fcsr == 0x80 and rm_val == 7   #nosat': 1
    'fs1 == 1 and fe1 == 0x3f8 and fm1 == 0x47ae147ae147b and  fcsr == 0x0 and rm_val == 7   #nosat': 1
    'fs1 == 1 and fe1 == 0x3f8 and fm1 == 0x47ae147ae147b and  fcsr == 0x20 and rm_val == 7   #nosat': 1
    'fs1 == 1 and fe1 == 0x3f8 and fm1 == 0x47ae147ae147b and  fcsr == 0x40 and rm_val == 7   #nosat': 1
    'fs1 == 1 and fe1 == 0x3f8 and fm1 == 0x47ae147ae147b and  fcsr == 0x60 and rm_val == 7   #nosat': 1
    'fs1 == 1 and fe1 == 0x3f8 and fm1 == 0x47ae147ae147b and  fcsr == 0x80 and rm_val == 7   #nosat': 1
    'fs1 == 0 and fe1 == 0x3f8 and fm1 == 0x47ae147ae147b and  fcsr == 0x0 and rm_val == 7   #nosat': 1
    'fs1 == 0 and fe1 == 0x3f8 and fm1 == 0x47ae147ae147b and  fcsr == 0x20 and rm_val == 7   #nosat': 1
    'fs1 == 0 and fe1 == 0x3f8 and fm1 == 0x47ae147ae147b and  fcsr == 0x40 and rm_val == 7   #nosat': 1
    'fs1 == 0 and fe1 == 0x3f8 and fm1 == 0x47ae147ae147b and  fcsr == 0x60 and rm_val == 7   #nosat': 1
    'fs1 == 0 and fe1 == 0x3f8 and fm1 == 0x47ae147ae147b and  fcsr == 0x80 and rm_val == 7   #nosat': 1
    'fs1 == 1 and fe1 == 0x3ff and fm1 == 0x028f5c28f5c29 and  fcsr == 0x0 and rm_val == 7   #nosat': 1
    'fs1 == 1 and fe1 == 0x3ff and fm1 == 0x028f5c28f5c29 and  fcsr == 0x20 and rm_val == 7   #nosat': 1
    'fs1 == 1 and fe1 == 0x3ff and fm1 == 0x028f5c28f5c29 and  fcsr == 0x40 and rm_val == 7   #nosat': 1
    'fs1 == 1 and fe1 == 0x3ff and fm1 == 0x028f5c28f5c29 and  fcsr == 0x60 and rm_val == 7   #nosat': 1
    'fs1 == 1 and fe1 == 0x3ff and fm1 == 0x028f5c28f5c29 and  fcsr == 0x80 and rm_val == 7   #nosat': 1
    'fs1 == 0 and fe1 == 0x3ff and fm1 == 0x1c28f5c28f5c3 and  fcsr == 0x0 and rm_val == 7   #nosat': 1
    'fs1 == 0 and fe1 == 0x3ff and fm1 == 0x1c28f5c28f5c3 and  fcsr == 0x20 and rm_val == 7   #nosat': 1
    'fs1 == 0 and fe1 == 0x3ff and fm1 == 0x1c28f5c28f5c3 and  fcsr == 0x40 and rm_val == 7   #nosat': 1
    'fs1 == 0 and fe1 == 0x3ff and fm1 == 0x1c28f5c28f5c3 and  fcsr == 0x60 and rm_val == 7   #nosat': 1
    'fs1 == 0 and fe1 == 0x3ff and fm1 == 0x1c28f5c28f5c3 and  fcsr == 0x80 and rm_val == 7   #nosat': 1
    'fs1 == 0 and fe1 == 0x3ff and fm1 == 0x028f5c28f5c29 and  fcsr == 0x0 and rm_val == 7   #nosat': 1
    'fs1 == 0 and fe1 == 0x3ff and fm1 == 0x028f5c28f5c29 and  fcsr == 0x20 and rm_val == 7   #nosat': 1
    'fs1 == 0 and fe1 == 0x3ff and fm1 == 0x028f5c28f5c29 and  fcsr == 0x40 and rm_val == 7   #nosat': 1
    'fs1 == 0 and fe1 == 0x3ff and fm1 == 0x028f5c28f5c29 and  fcsr == 0x60 and rm_val == 7   #nosat': 1
    'fs1 == 0 and fe1 == 0x3ff and fm1 == 0x028f5c28f5c29 and  fcsr == 0x80 and rm_val == 7   #nosat': 1
    'fs1 == 0 and fe1 == 0x3ff and fm1 == 0x0000000000000 and  fcsr == 0x0 and rm_val == 7   #nosat': 1
    'fs1 == 0 and fe1 == 0x3ff and fm1 == 0x0000000000000 and  fcsr == 0x20 and rm_val == 7   #nosat': 1
    'fs1 == 0 and fe1 == 0x3ff and fm1 == 0x0000000000000 and  fcsr == 0x40 and rm_val == 7   #nosat': 1
    'fs1 == 0 and fe1 == 0x3ff and fm1 == 0x0000000000000 and  fcsr == 0x60 and rm_val == 7   #nosat': 1
    'fs1 == 0 and fe1 == 0x3ff and fm1 == 0x0000000000000 and  fcsr == 0x80 and rm_val == 7   #nosat': 1
    'fs1 == 1 and fe1 == 0x3ff and fm1 == 0x0000000000000 and  fcsr == 0x0 and rm_val == 7   #nosat': 1
    'fs1 == 1 and fe1 == 0x3ff and fm1 == 0x0000000000000 and  fcsr == 0x20 and rm_val == 7   #nosat': 1
    'fs1 == 1 and fe1 == 0x3ff and fm1 == 0x0000000000000 and  fcsr == 0x40 and rm_val == 7   #nosat': 1
    'fs1 == 1 and fe1 == 0x3ff and fm1 == 0x0000000000000 and  fcsr == 0x60 and rm_val == 7   #nosat': 1
    'fs1 == 1 and fe1 == 0x3ff and fm1 == 0x0000000000000 and  fcsr == 0x80 and rm_val == 7   #nosat': 1
    'fs1 == 0 and fe1 == 0x3ff and fm1 == 0x199999999999a and  fcsr == 0x0 and rm_val == 7   #nosat': 1
    'fs1 == 0 and fe1 == 0x3ff and fm1 == 0x199999999999a and  fcsr == 0x20 and rm_val == 7   #nosat': 1
    'fs1 == 0 and fe1 == 0x3ff and fm1 == 0x199999999999a and  fcsr == 0x40 and rm_val == 7   #nosat': 1
    'fs1 == 0 and fe1 == 0x3ff and fm1 == 0x199999999999a and  fcsr == 0x60 and rm_val == 7   #nosat': 1
    'fs1 == 0 and fe1 == 0x3ff and fm1 == 0x199999999999a and  fcsr == 0x80 and rm_val == 7   #nosat': 1
    'fs1 == 0 and fe1 == 0x3fb and fm1 == 0x999999999999a and  fcsr == 0x0 and rm_val == 7   #nosat': 1
    'fs1 == 0 and fe1 == 0x3fb and fm1 == 0x999999999999a and  fcsr == 0x20 and rm_val == 7   #nosat': 1
    'fs1 == 0 and fe1 == 0x3fb and fm1 == 0x999999999999a and  fcsr == 0x40 and rm_val == 7   #nosat': 1
    'fs1 == 0 and fe1 == 0x3fb and fm1 == 0x999999999999a and  fcsr == 0x60 and rm_val == 7   #nosat': 1
    'fs1 == 0 and fe1 == 0x3fb and fm1 == 0x999999999999a and  fcsr == 0x80 and rm_val == 7   #nosat': 1
    'fs1 == 0 and fe1 == 0x3fe and fm1 == 0xfae147ae147ae and  fcsr == 0x0 and rm_val == 7   #nosat': 1
    'fs1 == 0 and fe1 == 0x3fe and fm1 == 0xfae147ae147ae and  fcsr == 0x20 and rm_val == 7   #nosat': 1
    'fs1 == 0 and fe1 == 0x3fe and fm1 == 0xfae147ae147ae and  fcsr == 0x40 and rm_val == 7   #nosat': 1
    'fs1 == 0 and fe1 == 0x3fe and fm1 == 0xfae147ae147ae and  fcsr == 0x60 and rm_val == 7   #nosat': 1
    'fs1 == 0 and fe1 == 0x3fe and fm1 == 0xfae147ae147ae and  fcsr == 0x80 and rm_val == 7   #nosat': 1
    'fs1 == 1 and fe1 == 0x3fe and fm1 == 0xfae147ae147ae and  fcsr == 0x0 and rm_val == 7   #nosat': 1
    'fs1 == 1 and fe1 == 0x3fe and fm1 == 0xfae147ae147ae and  fcsr == 0x20 and rm_val == 7   #nosat': 1
    'fs1 == 1 and fe1 == 0x3fe and fm1 == 0xfae147ae147ae and  fcsr == 0x40 and rm_val == 7   #nosat': 1
    'fs1 == 1 and fe1 == 0x3fe and fm1 == 0xfae147ae147ae and  fcsr == 0x60 and rm_val == 7   #nosat': 1
    'fs1 == 1 and fe1 == 0x3fe and fm1 == 0xfae147ae147ae and  fcsr == 0x80 and rm_val == 7   #nosat': 1
    'fs1 == 1 and fe1 == 0x3ff and fm1 == 0x199999999999a and  fcsr == 0x0 and rm_val == 7   #nosat': 1
    'fs1 == 1 and fe1 == 0x3ff and fm1 == 0x199999999999a and  fcsr == 0x20 and rm_val == 7   #nosat': 1
    'fs1 == 1 and fe1 == 0x3ff and fm1 == 0x199999999999a and  fcsr == 0x40 and rm_val == 7   #nosat': 1
    'fs1 == 1 and fe1 == 0x3ff and fm1 == 0x199999999999a and  fcsr == 0x60 and rm_val == 7   #nosat': 1
    'fs1 == 1 and fe1 == 0x3ff and fm1 == 0x199999999999a and  fcsr == 0x80 and rm_val == 7   #nosat': 1
    'fs1 == 1 and fe1 == 0x3fe and fm1 == 0xccccccccccccd and  fcsr == 0x0 and rm_val == 7   #nosat': 1
    'fs1 == 1 and fe1 == 0x3fe and fm1 == 0xccccccccccccd and  fcsr == 0x20 and rm_val == 7   #nosat': 1
    'fs1 == 1 and fe1 == 0x3fe and fm1 == 0xccccccccccccd and  fcsr == 0x40 and rm_val == 7   #nosat': 1
    'fs1 == 1 and fe1 == 0x3fe and fm1 == 0xccccccccccccd and  fcsr == 0x60 and rm_val == 7   #nosat': 1
    'fs1 == 1 and fe1 == 0x3fe and fm1 == 0xccccccccccccd and  fcsr == 0x80 and rm_val == 7   #nosat': 1
    'fs1 == 1 and fe1 == 0x3ff and fm1 == 0x1c28f5c28f5c3 and  fcsr == 0x0 and rm_val == 7   #nosat': 1
    'fs1 == 1 and fe1 == 0x3ff and fm1 == 0x1c28f5c28f5c3 and  fcsr == 0x20 and rm_val == 7   #nosat': 1
    'fs1 == 1 and fe1 == 0x3ff and fm1 == 0x1c28f5c28f5c3 and  fcsr == 0x40 and rm_val == 7   #nosat': 1
    'fs1 == 1 and fe1 == 0x3ff and fm1 == 0x1c28f5c28f5c3 and  fcsr == 0x60 and rm_val == 7   #nosat': 1
    'fs1 == 1 and fe1 == 0x3ff and fm1 == 0x1c28f5c28f5c3 and  fcsr == 0x80 and rm_val == 7   #nosat': 1
    coverage: 105/105
  total_coverage: 136/136
