---
fdiv_b5:
  config:
  - check ISA:=regex(.*I.*Zfinx.*)
  mnemonics:
    fdiv.s: 225
    coverage: 1/1
  op_comb:
    rs1 != rs2  and rs1 != rd and rs2 != rd: 221
    rs1 == rd != rs2: 1
    rs1 == rs2 != rd: 1
    rs1 == rs2 == rd: 1
    rs2 == rd != rs1: 1
    coverage: 5/5
  rd:
    x0: 1
    x1: 1
    x10: 1
    x11: 1
    x12: 1
    x13: 1
    x14: 1
    x15: 1
    x16: 1
    x17: 1
    x18: 1
    x19: 1
    x2: 1
    x20: 1
    x21: 1
    x22: 1
    x23: 1
    x24: 1
    x25: 1
    x26: 1
    x27: 1
    x28: 1
    x29: 1
    x3: 1
    x30: 1
    x31: 194
    x4: 1
    x5: 1
    x6: 1
    x7: 1
    x8: 1
    x9: 1
    coverage: 32/32
  rs1:
    x0: 1
    x1: 1
    x10: 1
    x11: 1
    x12: 1
    x13: 1
    x14: 1
    x15: 1
    x16: 1
    x17: 1
    x18: 1
    x19: 1
    x2: 1
    x20: 1
    x21: 1
    x22: 1
    x23: 1
    x24: 1
    x25: 1
    x26: 1
    x27: 1
    x28: 1
    x29: 1
    x3: 1
    x30: 192
    x31: 3
    x4: 1
    x5: 1
    x6: 1
    x7: 1
    x8: 1
    x9: 1
    coverage: 32/32
  rs2:
    x0: 1
    x1: 1
    x10: 1
    x11: 1
    x12: 1
    x13: 1
    x14: 1
    x15: 1
    x16: 1
    x17: 1
    x18: 1
    x19: 1
    x2: 1
    x20: 1
    x21: 1
    x22: 1
    x23: 1
    x24: 1
    x25: 1
    x26: 1
    x27: 1
    x28: 1
    x29: 190
    x3: 1
    x30: 5
    x31: 1
    x4: 1
    x5: 1
    x6: 1
    x7: 1
    x8: 1
    x9: 1
    coverage: 32/32
  val_comb:
    ? 'fs1 == 0 and fe1 == 0xfc and fm1 == 0x36c1bf and fs2 == 0 and fe2 == 0xfe and
      fm2 == 0x7fffff and  fcsr == 0x0 and rm_val == 7  and rs1_sgn_prefix == 0x00000000
      and rs2_sgn_prefix == 0x00000000  #nosat'
    : 1
    ? 'fs1 == 0 and fe1 == 0xfc and fm1 == 0x36c1bf and fs2 == 0 and fe2 == 0xfe and
      fm2 == 0x7fffff and  fcsr == 0x20 and rm_val == 7  and rs1_sgn_prefix == 0x00000000
      and rs2_sgn_prefix == 0x00000000  #nosat'
    : 1
    ? 'fs1 == 0 and fe1 == 0xfc and fm1 == 0x36c1bf and fs2 == 0 and fe2 == 0xfe and
      fm2 == 0x7fffff and  fcsr == 0x40 and rm_val == 7  and rs1_sgn_prefix == 0x00000000
      and rs2_sgn_prefix == 0x00000000  #nosat'
    : 1
    ? 'fs1 == 0 and fe1 == 0xfc and fm1 == 0x36c1bf and fs2 == 0 and fe2 == 0xfe and
      fm2 == 0x7fffff and  fcsr == 0x60 and rm_val == 7  and rs1_sgn_prefix == 0x00000000
      and rs2_sgn_prefix == 0x00000000  #nosat'
    : 1
    ? 'fs1 == 0 and fe1 == 0xfc and fm1 == 0x36c1bf and fs2 == 0 and fe2 == 0xfe and
      fm2 == 0x7fffff and  fcsr == 0x80 and rm_val == 7  and rs1_sgn_prefix == 0x00000000
      and rs2_sgn_prefix == 0x00000000  #nosat'
    : 1
    ? 'fs1 == 0 and fe1 == 0xfd and fm1 == 0x0e1012 and fs2 == 0 and fe2 == 0xfe and
      fm2 == 0x7fffff and  fcsr == 0x0 and rm_val == 7  and rs1_sgn_prefix == 0x00000000
      and rs2_sgn_prefix == 0x00000000  #nosat'
    : 1
    ? 'fs1 == 0 and fe1 == 0xfd and fm1 == 0x0e1012 and fs2 == 0 and fe2 == 0xfe and
      fm2 == 0x7fffff and  fcsr == 0x20 and rm_val == 7  and rs1_sgn_prefix == 0x00000000
      and rs2_sgn_prefix == 0x00000000  #nosat'
    : 1
    ? 'fs1 == 0 and fe1 == 0xfd and fm1 == 0x0e1012 and fs2 == 0 and fe2 == 0xfe and
      fm2 == 0x7fffff and  fcsr == 0x40 and rm_val == 7  and rs1_sgn_prefix == 0x00000000
      and rs2_sgn_prefix == 0x00000000  #nosat'
    : 1
    ? 'fs1 == 0 and fe1 == 0xfd and fm1 == 0x0e1012 and fs2 == 0 and fe2 == 0xfe and
      fm2 == 0x7fffff and  fcsr == 0x60 and rm_val == 7  and rs1_sgn_prefix == 0x00000000
      and rs2_sgn_prefix == 0x00000000  #nosat'
    : 1
    ? 'fs1 == 0 and fe1 == 0xfd and fm1 == 0x0e1012 and fs2 == 0 and fe2 == 0xfe and
      fm2 == 0x7fffff and  fcsr == 0x80 and rm_val == 7  and rs1_sgn_prefix == 0x00000000
      and rs2_sgn_prefix == 0x00000000  #nosat'
    : 1
    ? 'fs1 == 0 and fe1 == 0xfd and fm1 == 0x7046ce and fs2 == 0 and fe2 == 0xfe and
      fm2 == 0x7fffff and  fcsr == 0x0 and rm_val == 7  and rs1_sgn_prefix == 0x00000000
      and rs2_sgn_prefix == 0x00000000  #nosat'
    : 1
    ? 'fs1 == 0 and fe1 == 0xfd and fm1 == 0x7046ce and fs2 == 0 and fe2 == 0xfe and
      fm2 == 0x7fffff and  fcsr == 0x20 and rm_val == 7  and rs1_sgn_prefix == 0x00000000
      and rs2_sgn_prefix == 0x00000000  #nosat'
    : 1
    ? 'fs1 == 0 and fe1 == 0xfd and fm1 == 0x7046ce and fs2 == 0 and fe2 == 0xfe and
      fm2 == 0x7fffff and  fcsr == 0x40 and rm_val == 7  and rs1_sgn_prefix == 0x00000000
      and rs2_sgn_prefix == 0x00000000  #nosat'
    : 1
    ? 'fs1 == 0 and fe1 == 0xfd and fm1 == 0x7046ce and fs2 == 0 and fe2 == 0xfe and
      fm2 == 0x7fffff and  fcsr == 0x60 and rm_val == 7  and rs1_sgn_prefix == 0x00000000
      and rs2_sgn_prefix == 0x00000000  #nosat'
    : 1
    ? 'fs1 == 0 and fe1 == 0xfd and fm1 == 0x7046ce and fs2 == 0 and fe2 == 0xfe and
      fm2 == 0x7fffff and  fcsr == 0x80 and rm_val == 7  and rs1_sgn_prefix == 0x00000000
      and rs2_sgn_prefix == 0x00000000  #nosat'
    : 1
    ? 'fs1 == 0 and fe1 == 0xf8 and fm1 == 0x21ceeb and fs2 == 0 and fe2 == 0xfe and
      fm2 == 0x7fffff and  fcsr == 0x0 and rm_val == 7  and rs1_sgn_prefix == 0x00000000
      and rs2_sgn_prefix == 0x00000000  #nosat'
    : 1
    ? 'fs1 == 0 and fe1 == 0xf8 and fm1 == 0x21ceeb and fs2 == 0 and fe2 == 0xfe and
      fm2 == 0x7fffff and  fcsr == 0x20 and rm_val == 7  and rs1_sgn_prefix == 0x00000000
      and rs2_sgn_prefix == 0x00000000  #nosat'
    : 1
    ? 'fs1 == 0 and fe1 == 0xf8 and fm1 == 0x21ceeb and fs2 == 0 and fe2 == 0xfe and
      fm2 == 0x7fffff and  fcsr == 0x40 and rm_val == 7  and rs1_sgn_prefix == 0x00000000
      and rs2_sgn_prefix == 0x00000000  #nosat'
    : 1
    ? 'fs1 == 0 and fe1 == 0xf8 and fm1 == 0x21ceeb and fs2 == 0 and fe2 == 0xfe and
      fm2 == 0x7fffff and  fcsr == 0x60 and rm_val == 7  and rs1_sgn_prefix == 0x00000000
      and rs2_sgn_prefix == 0x00000000  #nosat'
    : 1
    ? 'fs1 == 0 and fe1 == 0xf8 and fm1 == 0x21ceeb and fs2 == 0 and fe2 == 0xfe and
      fm2 == 0x7fffff and  fcsr == 0x80 and rm_val == 7  and rs1_sgn_prefix == 0x00000000
      and rs2_sgn_prefix == 0x00000000  #nosat'
    : 1
    ? 'fs1 == 0 and fe1 == 0xfc and fm1 == 0x472f12 and fs2 == 0 and fe2 == 0xfe and
      fm2 == 0x7fffff and  fcsr == 0x0 and rm_val == 7  and rs1_sgn_prefix == 0x00000000
      and rs2_sgn_prefix == 0x00000000  #nosat'
    : 1
    ? 'fs1 == 0 and fe1 == 0xfc and fm1 == 0x472f12 and fs2 == 0 and fe2 == 0xfe and
      fm2 == 0x7fffff and  fcsr == 0x20 and rm_val == 7  and rs1_sgn_prefix == 0x00000000
      and rs2_sgn_prefix == 0x00000000  #nosat'
    : 1
    ? 'fs1 == 0 and fe1 == 0xfc and fm1 == 0x472f12 and fs2 == 0 and fe2 == 0xfe and
      fm2 == 0x7fffff and  fcsr == 0x40 and rm_val == 7  and rs1_sgn_prefix == 0x00000000
      and rs2_sgn_prefix == 0x00000000  #nosat'
    : 1
    ? 'fs1 == 0 and fe1 == 0xfc and fm1 == 0x472f12 and fs2 == 0 and fe2 == 0xfe and
      fm2 == 0x7fffff and  fcsr == 0x60 and rm_val == 7  and rs1_sgn_prefix == 0x00000000
      and rs2_sgn_prefix == 0x00000000  #nosat'
    : 1
    ? 'fs1 == 0 and fe1 == 0xfc and fm1 == 0x472f12 and fs2 == 0 and fe2 == 0xfe and
      fm2 == 0x7fffff and  fcsr == 0x80 and rm_val == 7  and rs1_sgn_prefix == 0x00000000
      and rs2_sgn_prefix == 0x00000000  #nosat'
    : 1
    ? 'fs1 == 0 and fe1 == 0xfe and fm1 == 0x3f29ee and fs2 == 0 and fe2 == 0xfe and
      fm2 == 0x7fffff and  fcsr == 0x0 and rm_val == 7  and rs1_sgn_prefix == 0x00000000
      and rs2_sgn_prefix == 0x00000000  #nosat'
    : 1
    ? 'fs1 == 0 and fe1 == 0xfe and fm1 == 0x3f29ee and fs2 == 0 and fe2 == 0xfe and
      fm2 == 0x7fffff and  fcsr == 0x20 and rm_val == 7  and rs1_sgn_prefix == 0x00000000
      and rs2_sgn_prefix == 0x00000000  #nosat'
    : 1
    ? 'fs1 == 0 and fe1 == 0xfe and fm1 == 0x3f29ee and fs2 == 0 and fe2 == 0xfe and
      fm2 == 0x7fffff and  fcsr == 0x40 and rm_val == 7  and rs1_sgn_prefix == 0x00000000
      and rs2_sgn_prefix == 0x00000000  #nosat'
    : 1
    ? 'fs1 == 0 and fe1 == 0xfe and fm1 == 0x3f29ee and fs2 == 0 and fe2 == 0xfe and
      fm2 == 0x7fffff and  fcsr == 0x60 and rm_val == 7  and rs1_sgn_prefix == 0x00000000
      and rs2_sgn_prefix == 0x00000000  #nosat'
    : 1
    ? 'fs1 == 0 and fe1 == 0xfe and fm1 == 0x3f29ee and fs2 == 0 and fe2 == 0xfe and
      fm2 == 0x7fffff and  fcsr == 0x80 and rm_val == 7  and rs1_sgn_prefix == 0x00000000
      and rs2_sgn_prefix == 0x00000000  #nosat'
    : 1
    ? 'fs1 == 0 and fe1 == 0xfe and fm1 == 0x2099c0 and fs2 == 0 and fe2 == 0xfe and
      fm2 == 0x7fffff and  fcsr == 0x0 and rm_val == 7  and rs1_sgn_prefix == 0x00000000
      and rs2_sgn_prefix == 0x00000000  #nosat'
    : 1
    ? 'fs1 == 0 and fe1 == 0xfe and fm1 == 0x2099c0 and fs2 == 0 and fe2 == 0xfe and
      fm2 == 0x7fffff and  fcsr == 0x20 and rm_val == 7  and rs1_sgn_prefix == 0x00000000
      and rs2_sgn_prefix == 0x00000000  #nosat'
    : 1
    ? 'fs1 == 0 and fe1 == 0xfe and fm1 == 0x2099c0 and fs2 == 0 and fe2 == 0xfe and
      fm2 == 0x7fffff and  fcsr == 0x40 and rm_val == 7  and rs1_sgn_prefix == 0x00000000
      and rs2_sgn_prefix == 0x00000000  #nosat'
    : 1
    ? 'fs1 == 0 and fe1 == 0xfe and fm1 == 0x2099c0 and fs2 == 0 and fe2 == 0xfe and
      fm2 == 0x7fffff and  fcsr == 0x60 and rm_val == 7  and rs1_sgn_prefix == 0x00000000
      and rs2_sgn_prefix == 0x00000000  #nosat'
    : 1
    ? 'fs1 == 0 and fe1 == 0xfe and fm1 == 0x2099c0 and fs2 == 0 and fe2 == 0xfe and
      fm2 == 0x7fffff and  fcsr == 0x80 and rm_val == 7  and rs1_sgn_prefix == 0x00000000
      and rs2_sgn_prefix == 0x00000000  #nosat'
    : 1
    ? 'fs1 == 0 and fe1 == 0xfd and fm1 == 0x7566f3 and fs2 == 0 and fe2 == 0xfe and
      fm2 == 0x7fffff and  fcsr == 0x0 and rm_val == 7  and rs1_sgn_prefix == 0x00000000
      and rs2_sgn_prefix == 0x00000000  #nosat'
    : 2
    ? 'fs1 == 0 and fe1 == 0xfd and fm1 == 0x7566f3 and fs2 == 0 and fe2 == 0xfe and
      fm2 == 0x7fffff and  fcsr == 0x20 and rm_val == 7  and rs1_sgn_prefix == 0x00000000
      and rs2_sgn_prefix == 0x00000000  #nosat'
    : 1
    ? 'fs1 == 0 and fe1 == 0xfd and fm1 == 0x7566f3 and fs2 == 0 and fe2 == 0xfe and
      fm2 == 0x7fffff and  fcsr == 0x40 and rm_val == 7  and rs1_sgn_prefix == 0x00000000
      and rs2_sgn_prefix == 0x00000000  #nosat'
    : 1
    ? 'fs1 == 0 and fe1 == 0xfd and fm1 == 0x7566f3 and fs2 == 0 and fe2 == 0xfe and
      fm2 == 0x7fffff and  fcsr == 0x60 and rm_val == 7  and rs1_sgn_prefix == 0x00000000
      and rs2_sgn_prefix == 0x00000000  #nosat'
    : 1
    ? 'fs1 == 0 and fe1 == 0xfd and fm1 == 0x7566f3 and fs2 == 0 and fe2 == 0xfe and
      fm2 == 0x7fffff and  fcsr == 0x80 and rm_val == 7  and rs1_sgn_prefix == 0x00000000
      and rs2_sgn_prefix == 0x00000000  #nosat'
    : 1
    ? 'fs1 == 0 and fe1 == 0xfd and fm1 == 0x73c956 and fs2 == 0 and fe2 == 0xfe and
      fm2 == 0x7fffff and  fcsr == 0x0 and rm_val == 7  and rs1_sgn_prefix == 0x00000000
      and rs2_sgn_prefix == 0x00000000  #nosat'
    : 1
    ? 'fs1 == 0 and fe1 == 0xfd and fm1 == 0x73c956 and fs2 == 0 and fe2 == 0xfe and
      fm2 == 0x7fffff and  fcsr == 0x20 and rm_val == 7  and rs1_sgn_prefix == 0x00000000
      and rs2_sgn_prefix == 0x00000000  #nosat'
    : 1
    ? 'fs1 == 0 and fe1 == 0xfd and fm1 == 0x73c956 and fs2 == 0 and fe2 == 0xfe and
      fm2 == 0x7fffff and  fcsr == 0x40 and rm_val == 7  and rs1_sgn_prefix == 0x00000000
      and rs2_sgn_prefix == 0x00000000  #nosat'
    : 1
    ? 'fs1 == 0 and fe1 == 0xfd and fm1 == 0x73c956 and fs2 == 0 and fe2 == 0xfe and
      fm2 == 0x7fffff and  fcsr == 0x60 and rm_val == 7  and rs1_sgn_prefix == 0x00000000
      and rs2_sgn_prefix == 0x00000000  #nosat'
    : 1
    ? 'fs1 == 0 and fe1 == 0xfd and fm1 == 0x73c956 and fs2 == 0 and fe2 == 0xfe and
      fm2 == 0x7fffff and  fcsr == 0x80 and rm_val == 7  and rs1_sgn_prefix == 0x00000000
      and rs2_sgn_prefix == 0x00000000  #nosat'
    : 1
    ? 'fs1 == 0 and fe1 == 0xfd and fm1 == 0x48e6cd and fs2 == 0 and fe2 == 0xfe and
      fm2 == 0x7fffff and  fcsr == 0x0 and rm_val == 7  and rs1_sgn_prefix == 0x00000000
      and rs2_sgn_prefix == 0x00000000  #nosat'
    : 1
    ? 'fs1 == 0 and fe1 == 0xfd and fm1 == 0x48e6cd and fs2 == 0 and fe2 == 0xfe and
      fm2 == 0x7fffff and  fcsr == 0x20 and rm_val == 7  and rs1_sgn_prefix == 0x00000000
      and rs2_sgn_prefix == 0x00000000  #nosat'
    : 1
    ? 'fs1 == 0 and fe1 == 0xfd and fm1 == 0x48e6cd and fs2 == 0 and fe2 == 0xfe and
      fm2 == 0x7fffff and  fcsr == 0x40 and rm_val == 7  and rs1_sgn_prefix == 0x00000000
      and rs2_sgn_prefix == 0x00000000  #nosat'
    : 1
    ? 'fs1 == 0 and fe1 == 0xfd and fm1 == 0x48e6cd and fs2 == 0 and fe2 == 0xfe and
      fm2 == 0x7fffff and  fcsr == 0x60 and rm_val == 7  and rs1_sgn_prefix == 0x00000000
      and rs2_sgn_prefix == 0x00000000  #nosat'
    : 1
    ? 'fs1 == 0 and fe1 == 0xfd and fm1 == 0x48e6cd and fs2 == 0 and fe2 == 0xfe and
      fm2 == 0x7fffff and  fcsr == 0x80 and rm_val == 7  and rs1_sgn_prefix == 0x00000000
      and rs2_sgn_prefix == 0x00000000  #nosat'
    : 1
    ? 'fs1 == 0 and fe1 == 0xfe and fm1 == 0x00e937 and fs2 == 0 and fe2 == 0xfe and
      fm2 == 0x7fffff and  fcsr == 0x0 and rm_val == 7  and rs1_sgn_prefix == 0x00000000
      and rs2_sgn_prefix == 0x00000000  #nosat'
    : 1
    ? 'fs1 == 0 and fe1 == 0xfe and fm1 == 0x00e937 and fs2 == 0 and fe2 == 0xfe and
      fm2 == 0x7fffff and  fcsr == 0x20 and rm_val == 7  and rs1_sgn_prefix == 0x00000000
      and rs2_sgn_prefix == 0x00000000  #nosat'
    : 1
    ? 'fs1 == 0 and fe1 == 0xfe and fm1 == 0x00e937 and fs2 == 0 and fe2 == 0xfe and
      fm2 == 0x7fffff and  fcsr == 0x40 and rm_val == 7  and rs1_sgn_prefix == 0x00000000
      and rs2_sgn_prefix == 0x00000000  #nosat'
    : 1
    ? 'fs1 == 0 and fe1 == 0xfe and fm1 == 0x00e937 and fs2 == 0 and fe2 == 0xfe and
      fm2 == 0x7fffff and  fcsr == 0x60 and rm_val == 7  and rs1_sgn_prefix == 0x00000000
      and rs2_sgn_prefix == 0x00000000  #nosat'
    : 1
    ? 'fs1 == 0 and fe1 == 0xfe and fm1 == 0x00e937 and fs2 == 0 and fe2 == 0xfe and
      fm2 == 0x7fffff and  fcsr == 0x80 and rm_val == 7  and rs1_sgn_prefix == 0x00000000
      and rs2_sgn_prefix == 0x00000000  #nosat'
    : 1
    ? 'fs1 == 0 and fe1 == 0xfe and fm1 == 0x119488 and fs2 == 0 and fe2 == 0xfe and
      fm2 == 0x7fffff and  fcsr == 0x0 and rm_val == 7  and rs1_sgn_prefix == 0x00000000
      and rs2_sgn_prefix == 0x00000000  #nosat'
    : 1
    ? 'fs1 == 0 and fe1 == 0xfe and fm1 == 0x119488 and fs2 == 0 and fe2 == 0xfe and
      fm2 == 0x7fffff and  fcsr == 0x20 and rm_val == 7  and rs1_sgn_prefix == 0x00000000
      and rs2_sgn_prefix == 0x00000000  #nosat'
    : 1
    ? 'fs1 == 0 and fe1 == 0xfe and fm1 == 0x119488 and fs2 == 0 and fe2 == 0xfe and
      fm2 == 0x7fffff and  fcsr == 0x40 and rm_val == 7  and rs1_sgn_prefix == 0x00000000
      and rs2_sgn_prefix == 0x00000000  #nosat'
    : 1
    ? 'fs1 == 0 and fe1 == 0xfe and fm1 == 0x119488 and fs2 == 0 and fe2 == 0xfe and
      fm2 == 0x7fffff and  fcsr == 0x60 and rm_val == 7  and rs1_sgn_prefix == 0x00000000
      and rs2_sgn_prefix == 0x00000000  #nosat'
    : 1
    ? 'fs1 == 0 and fe1 == 0xfe and fm1 == 0x119488 and fs2 == 0 and fe2 == 0xfe and
      fm2 == 0x7fffff and  fcsr == 0x80 and rm_val == 7  and rs1_sgn_prefix == 0x00000000
      and rs2_sgn_prefix == 0x00000000  #nosat'
    : 1
    ? 'fs1 == 0 and fe1 == 0xfc and fm1 == 0x675fa1 and fs2 == 0 and fe2 == 0xfe and
      fm2 == 0x7fffff and  fcsr == 0x0 and rm_val == 7  and rs1_sgn_prefix == 0x00000000
      and rs2_sgn_prefix == 0x00000000  #nosat'
    : 1
    ? 'fs1 == 0 and fe1 == 0xfc and fm1 == 0x675fa1 and fs2 == 0 and fe2 == 0xfe and
      fm2 == 0x7fffff and  fcsr == 0x20 and rm_val == 7  and rs1_sgn_prefix == 0x00000000
      and rs2_sgn_prefix == 0x00000000  #nosat'
    : 1
    ? 'fs1 == 0 and fe1 == 0xfc and fm1 == 0x675fa1 and fs2 == 0 and fe2 == 0xfe and
      fm2 == 0x7fffff and  fcsr == 0x40 and rm_val == 7  and rs1_sgn_prefix == 0x00000000
      and rs2_sgn_prefix == 0x00000000  #nosat'
    : 1
    ? 'fs1 == 0 and fe1 == 0xfc and fm1 == 0x675fa1 and fs2 == 0 and fe2 == 0xfe and
      fm2 == 0x7fffff and  fcsr == 0x60 and rm_val == 7  and rs1_sgn_prefix == 0x00000000
      and rs2_sgn_prefix == 0x00000000  #nosat'
    : 1
    ? 'fs1 == 0 and fe1 == 0xfc and fm1 == 0x675fa1 and fs2 == 0 and fe2 == 0xfe and
      fm2 == 0x7fffff and  fcsr == 0x80 and rm_val == 7  and rs1_sgn_prefix == 0x00000000
      and rs2_sgn_prefix == 0x00000000  #nosat'
    : 1
    ? 'fs1 == 0 and fe1 == 0xfe and fm1 == 0x262e64 and fs2 == 0 and fe2 == 0xfe and
      fm2 == 0x7fffff and  fcsr == 0x0 and rm_val == 7  and rs1_sgn_prefix == 0x00000000
      and rs2_sgn_prefix == 0x00000000  #nosat'
    : 1
    ? 'fs1 == 0 and fe1 == 0xfe and fm1 == 0x262e64 and fs2 == 0 and fe2 == 0xfe and
      fm2 == 0x7fffff and  fcsr == 0x20 and rm_val == 7  and rs1_sgn_prefix == 0x00000000
      and rs2_sgn_prefix == 0x00000000  #nosat'
    : 1
    ? 'fs1 == 0 and fe1 == 0xfe and fm1 == 0x262e64 and fs2 == 0 and fe2 == 0xfe and
      fm2 == 0x7fffff and  fcsr == 0x40 and rm_val == 7  and rs1_sgn_prefix == 0x00000000
      and rs2_sgn_prefix == 0x00000000  #nosat'
    : 1
    ? 'fs1 == 0 and fe1 == 0xfe and fm1 == 0x262e64 and fs2 == 0 and fe2 == 0xfe and
      fm2 == 0x7fffff and  fcsr == 0x60 and rm_val == 7  and rs1_sgn_prefix == 0x00000000
      and rs2_sgn_prefix == 0x00000000  #nosat'
    : 1
    ? 'fs1 == 0 and fe1 == 0xfe and fm1 == 0x262e64 and fs2 == 0 and fe2 == 0xfe and
      fm2 == 0x7fffff and  fcsr == 0x80 and rm_val == 7  and rs1_sgn_prefix == 0x00000000
      and rs2_sgn_prefix == 0x00000000  #nosat'
    : 1
    ? 'fs1 == 0 and fe1 == 0xfe and fm1 == 0x0a03a1 and fs2 == 0 and fe2 == 0xfe and
      fm2 == 0x7fffff and  fcsr == 0x0 and rm_val == 7  and rs1_sgn_prefix == 0x00000000
      and rs2_sgn_prefix == 0x00000000  #nosat'
    : 1
    ? 'fs1 == 0 and fe1 == 0xfe and fm1 == 0x0a03a1 and fs2 == 0 and fe2 == 0xfe and
      fm2 == 0x7fffff and  fcsr == 0x20 and rm_val == 7  and rs1_sgn_prefix == 0x00000000
      and rs2_sgn_prefix == 0x00000000  #nosat'
    : 1
    ? 'fs1 == 0 and fe1 == 0xfe and fm1 == 0x0a03a1 and fs2 == 0 and fe2 == 0xfe and
      fm2 == 0x7fffff and  fcsr == 0x40 and rm_val == 7  and rs1_sgn_prefix == 0x00000000
      and rs2_sgn_prefix == 0x00000000  #nosat'
    : 1
    ? 'fs1 == 0 and fe1 == 0xfe and fm1 == 0x0a03a1 and fs2 == 0 and fe2 == 0xfe and
      fm2 == 0x7fffff and  fcsr == 0x60 and rm_val == 7  and rs1_sgn_prefix == 0x00000000
      and rs2_sgn_prefix == 0x00000000  #nosat'
    : 1
    ? 'fs1 == 0 and fe1 == 0xfe and fm1 == 0x0a03a1 and fs2 == 0 and fe2 == 0xfe and
      fm2 == 0x7fffff and  fcsr == 0x80 and rm_val == 7  and rs1_sgn_prefix == 0x00000000
      and rs2_sgn_prefix == 0x00000000  #nosat'
    : 1
    ? 'fs1 == 0 and fe1 == 0xfe and fm1 == 0x091ce4 and fs2 == 0 and fe2 == 0xfe and
      fm2 == 0x7fffff and  fcsr == 0x0 and rm_val == 7  and rs1_sgn_prefix == 0x00000000
      and rs2_sgn_prefix == 0x00000000  #nosat'
    : 1
    ? 'fs1 == 0 and fe1 == 0xfe and fm1 == 0x091ce4 and fs2 == 0 and fe2 == 0xfe and
      fm2 == 0x7fffff and  fcsr == 0x20 and rm_val == 7  and rs1_sgn_prefix == 0x00000000
      and rs2_sgn_prefix == 0x00000000  #nosat'
    : 1
    ? 'fs1 == 0 and fe1 == 0xfe and fm1 == 0x091ce4 and fs2 == 0 and fe2 == 0xfe and
      fm2 == 0x7fffff and  fcsr == 0x40 and rm_val == 7  and rs1_sgn_prefix == 0x00000000
      and rs2_sgn_prefix == 0x00000000  #nosat'
    : 1
    ? 'fs1 == 0 and fe1 == 0xfe and fm1 == 0x091ce4 and fs2 == 0 and fe2 == 0xfe and
      fm2 == 0x7fffff and  fcsr == 0x60 and rm_val == 7  and rs1_sgn_prefix == 0x00000000
      and rs2_sgn_prefix == 0x00000000  #nosat'
    : 1
    ? 'fs1 == 0 and fe1 == 0xfe and fm1 == 0x091ce4 and fs2 == 0 and fe2 == 0xfe and
      fm2 == 0x7fffff and  fcsr == 0x80 and rm_val == 7  and rs1_sgn_prefix == 0x00000000
      and rs2_sgn_prefix == 0x00000000  #nosat'
    : 1
    ? 'fs1 == 0 and fe1 == 0xfd and fm1 == 0x17aa7b and fs2 == 0 and fe2 == 0xfe and
      fm2 == 0x7fffff and  fcsr == 0x0 and rm_val == 7  and rs1_sgn_prefix == 0x00000000
      and rs2_sgn_prefix == 0x00000000  #nosat'
    : 1
    ? 'fs1 == 0 and fe1 == 0xfd and fm1 == 0x17aa7b and fs2 == 0 and fe2 == 0xfe and
      fm2 == 0x7fffff and  fcsr == 0x20 and rm_val == 7  and rs1_sgn_prefix == 0x00000000
      and rs2_sgn_prefix == 0x00000000  #nosat'
    : 1
    ? 'fs1 == 0 and fe1 == 0xfd and fm1 == 0x17aa7b and fs2 == 0 and fe2 == 0xfe and
      fm2 == 0x7fffff and  fcsr == 0x40 and rm_val == 7  and rs1_sgn_prefix == 0x00000000
      and rs2_sgn_prefix == 0x00000000  #nosat'
    : 1
    ? 'fs1 == 0 and fe1 == 0xfd and fm1 == 0x17aa7b and fs2 == 0 and fe2 == 0xfe and
      fm2 == 0x7fffff and  fcsr == 0x60 and rm_val == 7  and rs1_sgn_prefix == 0x00000000
      and rs2_sgn_prefix == 0x00000000  #nosat'
    : 1
    ? 'fs1 == 0 and fe1 == 0xfd and fm1 == 0x17aa7b and fs2 == 0 and fe2 == 0xfe and
      fm2 == 0x7fffff and  fcsr == 0x80 and rm_val == 7  and rs1_sgn_prefix == 0x00000000
      and rs2_sgn_prefix == 0x00000000  #nosat'
    : 1
    ? 'fs1 == 0 and fe1 == 0xfd and fm1 == 0x2abc06 and fs2 == 0 and fe2 == 0xfe and
      fm2 == 0x7fffff and  fcsr == 0x0 and rm_val == 7  and rs1_sgn_prefix == 0x00000000
      and rs2_sgn_prefix == 0x00000000  #nosat'
    : 1
    ? 'fs1 == 0 and fe1 == 0xfd and fm1 == 0x2abc06 and fs2 == 0 and fe2 == 0xfe and
      fm2 == 0x7fffff and  fcsr == 0x20 and rm_val == 7  and rs1_sgn_prefix == 0x00000000
      and rs2_sgn_prefix == 0x00000000  #nosat'
    : 1
    ? 'fs1 == 0 and fe1 == 0xfd and fm1 == 0x2abc06 and fs2 == 0 and fe2 == 0xfe and
      fm2 == 0x7fffff and  fcsr == 0x40 and rm_val == 7  and rs1_sgn_prefix == 0x00000000
      and rs2_sgn_prefix == 0x00000000  #nosat'
    : 1
    ? 'fs1 == 0 and fe1 == 0xfd and fm1 == 0x2abc06 and fs2 == 0 and fe2 == 0xfe and
      fm2 == 0x7fffff and  fcsr == 0x60 and rm_val == 7  and rs1_sgn_prefix == 0x00000000
      and rs2_sgn_prefix == 0x00000000  #nosat'
    : 1
    ? 'fs1 == 0 and fe1 == 0xfd and fm1 == 0x2abc06 and fs2 == 0 and fe2 == 0xfe and
      fm2 == 0x7fffff and  fcsr == 0x80 and rm_val == 7  and rs1_sgn_prefix == 0x00000000
      and rs2_sgn_prefix == 0x00000000  #nosat'
    : 1
    ? 'fs1 == 0 and fe1 == 0xfe and fm1 == 0x28be0d and fs2 == 0 and fe2 == 0xfe and
      fm2 == 0x7fffff and  fcsr == 0x0 and rm_val == 7  and rs1_sgn_prefix == 0x00000000
      and rs2_sgn_prefix == 0x00000000  #nosat'
    : 1
    ? 'fs1 == 0 and fe1 == 0xfe and fm1 == 0x28be0d and fs2 == 0 and fe2 == 0xfe and
      fm2 == 0x7fffff and  fcsr == 0x20 and rm_val == 7  and rs1_sgn_prefix == 0x00000000
      and rs2_sgn_prefix == 0x00000000  #nosat'
    : 1
    ? 'fs1 == 0 and fe1 == 0xfe and fm1 == 0x28be0d and fs2 == 0 and fe2 == 0xfe and
      fm2 == 0x7fffff and  fcsr == 0x40 and rm_val == 7  and rs1_sgn_prefix == 0x00000000
      and rs2_sgn_prefix == 0x00000000  #nosat'
    : 1
    ? 'fs1 == 0 and fe1 == 0xfe and fm1 == 0x28be0d and fs2 == 0 and fe2 == 0xfe and
      fm2 == 0x7fffff and  fcsr == 0x60 and rm_val == 7  and rs1_sgn_prefix == 0x00000000
      and rs2_sgn_prefix == 0x00000000  #nosat'
    : 1
    ? 'fs1 == 0 and fe1 == 0xfe and fm1 == 0x28be0d and fs2 == 0 and fe2 == 0xfe and
      fm2 == 0x7fffff and  fcsr == 0x80 and rm_val == 7  and rs1_sgn_prefix == 0x00000000
      and rs2_sgn_prefix == 0x00000000  #nosat'
    : 1
    ? 'fs1 == 0 and fe1 == 0xfb and fm1 == 0x50d921 and fs2 == 0 and fe2 == 0xfe and
      fm2 == 0x7fffff and  fcsr == 0x0 and rm_val == 7  and rs1_sgn_prefix == 0x00000000
      and rs2_sgn_prefix == 0x00000000  #nosat'
    : 1
    ? 'fs1 == 0 and fe1 == 0xfb and fm1 == 0x50d921 and fs2 == 0 and fe2 == 0xfe and
      fm2 == 0x7fffff and  fcsr == 0x20 and rm_val == 7  and rs1_sgn_prefix == 0x00000000
      and rs2_sgn_prefix == 0x00000000  #nosat'
    : 1
    ? 'fs1 == 0 and fe1 == 0xfb and fm1 == 0x50d921 and fs2 == 0 and fe2 == 0xfe and
      fm2 == 0x7fffff and  fcsr == 0x40 and rm_val == 7  and rs1_sgn_prefix == 0x00000000
      and rs2_sgn_prefix == 0x00000000  #nosat'
    : 1
    ? 'fs1 == 0 and fe1 == 0xfb and fm1 == 0x50d921 and fs2 == 0 and fe2 == 0xfe and
      fm2 == 0x7fffff and  fcsr == 0x60 and rm_val == 7  and rs1_sgn_prefix == 0x00000000
      and rs2_sgn_prefix == 0x00000000  #nosat'
    : 1
    ? 'fs1 == 0 and fe1 == 0xfb and fm1 == 0x50d921 and fs2 == 0 and fe2 == 0xfe and
      fm2 == 0x7fffff and  fcsr == 0x80 and rm_val == 7  and rs1_sgn_prefix == 0x00000000
      and rs2_sgn_prefix == 0x00000000  #nosat'
    : 1
    ? 'fs1 == 0 and fe1 == 0xfe and fm1 == 0x395f47 and fs2 == 0 and fe2 == 0xfe and
      fm2 == 0x7fffff and  fcsr == 0x0 and rm_val == 7  and rs1_sgn_prefix == 0x00000000
      and rs2_sgn_prefix == 0x00000000  #nosat'
    : 1
    ? 'fs1 == 0 and fe1 == 0xfe and fm1 == 0x395f47 and fs2 == 0 and fe2 == 0xfe and
      fm2 == 0x7fffff and  fcsr == 0x20 and rm_val == 7  and rs1_sgn_prefix == 0x00000000
      and rs2_sgn_prefix == 0x00000000  #nosat'
    : 1
    ? 'fs1 == 0 and fe1 == 0xfe and fm1 == 0x395f47 and fs2 == 0 and fe2 == 0xfe and
      fm2 == 0x7fffff and  fcsr == 0x40 and rm_val == 7  and rs1_sgn_prefix == 0x00000000
      and rs2_sgn_prefix == 0x00000000  #nosat'
    : 1
    ? 'fs1 == 0 and fe1 == 0xfe and fm1 == 0x395f47 and fs2 == 0 and fe2 == 0xfe and
      fm2 == 0x7fffff and  fcsr == 0x60 and rm_val == 7  and rs1_sgn_prefix == 0x00000000
      and rs2_sgn_prefix == 0x00000000  #nosat'
    : 1
    ? 'fs1 == 0 and fe1 == 0xfe and fm1 == 0x395f47 and fs2 == 0 and fe2 == 0xfe and
      fm2 == 0x7fffff and  fcsr == 0x80 and rm_val == 7  and rs1_sgn_prefix == 0x00000000
      and rs2_sgn_prefix == 0x00000000  #nosat'
    : 1
    ? 'fs1 == 0 and fe1 == 0xfd and fm1 == 0x70a207 and fs2 == 0 and fe2 == 0xfe and
      fm2 == 0x7fffff and  fcsr == 0x0 and rm_val == 7  and rs1_sgn_prefix == 0x00000000
      and rs2_sgn_prefix == 0x00000000  #nosat'
    : 1
    ? 'fs1 == 0 and fe1 == 0xfd and fm1 == 0x70a207 and fs2 == 0 and fe2 == 0xfe and
      fm2 == 0x7fffff and  fcsr == 0x20 and rm_val == 7  and rs1_sgn_prefix == 0x00000000
      and rs2_sgn_prefix == 0x00000000  #nosat'
    : 1
    ? 'fs1 == 0 and fe1 == 0xfd and fm1 == 0x70a207 and fs2 == 0 and fe2 == 0xfe and
      fm2 == 0x7fffff and  fcsr == 0x40 and rm_val == 7  and rs1_sgn_prefix == 0x00000000
      and rs2_sgn_prefix == 0x00000000  #nosat'
    : 1
    ? 'fs1 == 0 and fe1 == 0xfd and fm1 == 0x70a207 and fs2 == 0 and fe2 == 0xfe and
      fm2 == 0x7fffff and  fcsr == 0x60 and rm_val == 7  and rs1_sgn_prefix == 0x00000000
      and rs2_sgn_prefix == 0x00000000  #nosat'
    : 1
    ? 'fs1 == 0 and fe1 == 0xfd and fm1 == 0x70a207 and fs2 == 0 and fe2 == 0xfe and
      fm2 == 0x7fffff and  fcsr == 0x80 and rm_val == 7  and rs1_sgn_prefix == 0x00000000
      and rs2_sgn_prefix == 0x00000000  #nosat'
    : 1
    ? 'fs1 == 0 and fe1 == 0xfd and fm1 == 0x42c803 and fs2 == 1 and fe2 == 0xfe and
      fm2 == 0x7fffff and  fcsr == 0x0 and rm_val == 7  and rs1_sgn_prefix == 0x00000000
      and rs2_sgn_prefix == 0xffffffff  #nosat'
    : 1
    ? 'fs1 == 0 and fe1 == 0xfd and fm1 == 0x42c803 and fs2 == 1 and fe2 == 0xfe and
      fm2 == 0x7fffff and  fcsr == 0x20 and rm_val == 7  and rs1_sgn_prefix == 0x00000000
      and rs2_sgn_prefix == 0xffffffff  #nosat'
    : 1
    ? 'fs1 == 0 and fe1 == 0xfd and fm1 == 0x42c803 and fs2 == 1 and fe2 == 0xfe and
      fm2 == 0x7fffff and  fcsr == 0x40 and rm_val == 7  and rs1_sgn_prefix == 0x00000000
      and rs2_sgn_prefix == 0xffffffff  #nosat'
    : 1
    ? 'fs1 == 0 and fe1 == 0xfd and fm1 == 0x42c803 and fs2 == 1 and fe2 == 0xfe and
      fm2 == 0x7fffff and  fcsr == 0x60 and rm_val == 7  and rs1_sgn_prefix == 0x00000000
      and rs2_sgn_prefix == 0xffffffff  #nosat'
    : 1
    ? 'fs1 == 0 and fe1 == 0xfd and fm1 == 0x42c803 and fs2 == 1 and fe2 == 0xfe and
      fm2 == 0x7fffff and  fcsr == 0x80 and rm_val == 7  and rs1_sgn_prefix == 0x00000000
      and rs2_sgn_prefix == 0xffffffff  #nosat'
    : 1
    ? 'fs1 == 0 and fe1 == 0xfd and fm1 == 0x06bfe7 and fs2 == 1 and fe2 == 0xfe and
      fm2 == 0x7fffff and  fcsr == 0x0 and rm_val == 7  and rs1_sgn_prefix == 0x00000000
      and rs2_sgn_prefix == 0xffffffff  #nosat'
    : 1
    ? 'fs1 == 0 and fe1 == 0xfd and fm1 == 0x06bfe7 and fs2 == 1 and fe2 == 0xfe and
      fm2 == 0x7fffff and  fcsr == 0x20 and rm_val == 7  and rs1_sgn_prefix == 0x00000000
      and rs2_sgn_prefix == 0xffffffff  #nosat'
    : 1
    ? 'fs1 == 0 and fe1 == 0xfd and fm1 == 0x06bfe7 and fs2 == 1 and fe2 == 0xfe and
      fm2 == 0x7fffff and  fcsr == 0x40 and rm_val == 7  and rs1_sgn_prefix == 0x00000000
      and rs2_sgn_prefix == 0xffffffff  #nosat'
    : 1
    ? 'fs1 == 0 and fe1 == 0xfd and fm1 == 0x06bfe7 and fs2 == 1 and fe2 == 0xfe and
      fm2 == 0x7fffff and  fcsr == 0x60 and rm_val == 7  and rs1_sgn_prefix == 0x00000000
      and rs2_sgn_prefix == 0xffffffff  #nosat'
    : 1
    ? 'fs1 == 0 and fe1 == 0xfd and fm1 == 0x06bfe7 and fs2 == 1 and fe2 == 0xfe and
      fm2 == 0x7fffff and  fcsr == 0x80 and rm_val == 7  and rs1_sgn_prefix == 0x00000000
      and rs2_sgn_prefix == 0xffffffff  #nosat'
    : 1
    ? 'fs1 == 0 and fe1 == 0xfd and fm1 == 0x605a49 and fs2 == 1 and fe2 == 0xfe and
      fm2 == 0x7fffff and  fcsr == 0x0 and rm_val == 7  and rs1_sgn_prefix == 0x00000000
      and rs2_sgn_prefix == 0xffffffff  #nosat'
    : 1
    ? 'fs1 == 0 and fe1 == 0xfd and fm1 == 0x605a49 and fs2 == 1 and fe2 == 0xfe and
      fm2 == 0x7fffff and  fcsr == 0x20 and rm_val == 7  and rs1_sgn_prefix == 0x00000000
      and rs2_sgn_prefix == 0xffffffff  #nosat'
    : 1
    ? 'fs1 == 0 and fe1 == 0xfd and fm1 == 0x605a49 and fs2 == 1 and fe2 == 0xfe and
      fm2 == 0x7fffff and  fcsr == 0x40 and rm_val == 7  and rs1_sgn_prefix == 0x00000000
      and rs2_sgn_prefix == 0xffffffff  #nosat'
    : 1
    ? 'fs1 == 0 and fe1 == 0xfd and fm1 == 0x605a49 and fs2 == 1 and fe2 == 0xfe and
      fm2 == 0x7fffff and  fcsr == 0x60 and rm_val == 7  and rs1_sgn_prefix == 0x00000000
      and rs2_sgn_prefix == 0xffffffff  #nosat'
    : 1
    ? 'fs1 == 0 and fe1 == 0xfd and fm1 == 0x605a49 and fs2 == 1 and fe2 == 0xfe and
      fm2 == 0x7fffff and  fcsr == 0x80 and rm_val == 7  and rs1_sgn_prefix == 0x00000000
      and rs2_sgn_prefix == 0xffffffff  #nosat'
    : 1
    ? 'fs1 == 0 and fe1 == 0xfe and fm1 == 0x02f0c8 and fs2 == 1 and fe2 == 0xfe and
      fm2 == 0x7fffff and  fcsr == 0x0 and rm_val == 7  and rs1_sgn_prefix == 0x00000000
      and rs2_sgn_prefix == 0xffffffff  #nosat'
    : 1
    ? 'fs1 == 0 and fe1 == 0xfe and fm1 == 0x02f0c8 and fs2 == 1 and fe2 == 0xfe and
      fm2 == 0x7fffff and  fcsr == 0x20 and rm_val == 7  and rs1_sgn_prefix == 0x00000000
      and rs2_sgn_prefix == 0xffffffff  #nosat'
    : 1
    ? 'fs1 == 0 and fe1 == 0xfe and fm1 == 0x02f0c8 and fs2 == 1 and fe2 == 0xfe and
      fm2 == 0x7fffff and  fcsr == 0x40 and rm_val == 7  and rs1_sgn_prefix == 0x00000000
      and rs2_sgn_prefix == 0xffffffff  #nosat'
    : 1
    ? 'fs1 == 0 and fe1 == 0xfe and fm1 == 0x02f0c8 and fs2 == 1 and fe2 == 0xfe and
      fm2 == 0x7fffff and  fcsr == 0x60 and rm_val == 7  and rs1_sgn_prefix == 0x00000000
      and rs2_sgn_prefix == 0xffffffff  #nosat'
    : 1
    ? 'fs1 == 0 and fe1 == 0xfe and fm1 == 0x02f0c8 and fs2 == 1 and fe2 == 0xfe and
      fm2 == 0x7fffff and  fcsr == 0x80 and rm_val == 7  and rs1_sgn_prefix == 0x00000000
      and rs2_sgn_prefix == 0xffffffff  #nosat'
    : 1
    ? 'fs1 == 0 and fe1 == 0xfe and fm1 == 0x246dcc and fs2 == 1 and fe2 == 0xfe and
      fm2 == 0x7fffff and  fcsr == 0x0 and rm_val == 7  and rs1_sgn_prefix == 0x00000000
      and rs2_sgn_prefix == 0xffffffff  #nosat'
    : 1
    ? 'fs1 == 0 and fe1 == 0xfe and fm1 == 0x246dcc and fs2 == 1 and fe2 == 0xfe and
      fm2 == 0x7fffff and  fcsr == 0x20 and rm_val == 7  and rs1_sgn_prefix == 0x00000000
      and rs2_sgn_prefix == 0xffffffff  #nosat'
    : 1
    ? 'fs1 == 0 and fe1 == 0xfe and fm1 == 0x246dcc and fs2 == 1 and fe2 == 0xfe and
      fm2 == 0x7fffff and  fcsr == 0x40 and rm_val == 7  and rs1_sgn_prefix == 0x00000000
      and rs2_sgn_prefix == 0xffffffff  #nosat'
    : 1
    ? 'fs1 == 0 and fe1 == 0xfe and fm1 == 0x246dcc and fs2 == 1 and fe2 == 0xfe and
      fm2 == 0x7fffff and  fcsr == 0x60 and rm_val == 7  and rs1_sgn_prefix == 0x00000000
      and rs2_sgn_prefix == 0xffffffff  #nosat'
    : 1
    ? 'fs1 == 0 and fe1 == 0xfe and fm1 == 0x246dcc and fs2 == 1 and fe2 == 0xfe and
      fm2 == 0x7fffff and  fcsr == 0x80 and rm_val == 7  and rs1_sgn_prefix == 0x00000000
      and rs2_sgn_prefix == 0xffffffff  #nosat'
    : 1
    ? 'fs1 == 0 and fe1 == 0xfe and fm1 == 0x00e26f and fs2 == 1 and fe2 == 0xfe and
      fm2 == 0x7fffff and  fcsr == 0x0 and rm_val == 7  and rs1_sgn_prefix == 0x00000000
      and rs2_sgn_prefix == 0xffffffff  #nosat'
    : 1
    ? 'fs1 == 0 and fe1 == 0xfe and fm1 == 0x00e26f and fs2 == 1 and fe2 == 0xfe and
      fm2 == 0x7fffff and  fcsr == 0x20 and rm_val == 7  and rs1_sgn_prefix == 0x00000000
      and rs2_sgn_prefix == 0xffffffff  #nosat'
    : 1
    ? 'fs1 == 0 and fe1 == 0xfe and fm1 == 0x00e26f and fs2 == 1 and fe2 == 0xfe and
      fm2 == 0x7fffff and  fcsr == 0x40 and rm_val == 7  and rs1_sgn_prefix == 0x00000000
      and rs2_sgn_prefix == 0xffffffff  #nosat'
    : 1
    ? 'fs1 == 0 and fe1 == 0xfe and fm1 == 0x00e26f and fs2 == 1 and fe2 == 0xfe and
      fm2 == 0x7fffff and  fcsr == 0x60 and rm_val == 7  and rs1_sgn_prefix == 0x00000000
      and rs2_sgn_prefix == 0xffffffff  #nosat'
    : 1
    ? 'fs1 == 0 and fe1 == 0xfe and fm1 == 0x00e26f and fs2 == 1 and fe2 == 0xfe and
      fm2 == 0x7fffff and  fcsr == 0x80 and rm_val == 7  and rs1_sgn_prefix == 0x00000000
      and rs2_sgn_prefix == 0xffffffff  #nosat'
    : 1
    ? 'fs1 == 0 and fe1 == 0xfe and fm1 == 0x253e0d and fs2 == 1 and fe2 == 0xfe and
      fm2 == 0x7fffff and  fcsr == 0x0 and rm_val == 7  and rs1_sgn_prefix == 0x00000000
      and rs2_sgn_prefix == 0xffffffff  #nosat'
    : 1
    ? 'fs1 == 0 and fe1 == 0xfe and fm1 == 0x253e0d and fs2 == 1 and fe2 == 0xfe and
      fm2 == 0x7fffff and  fcsr == 0x20 and rm_val == 7  and rs1_sgn_prefix == 0x00000000
      and rs2_sgn_prefix == 0xffffffff  #nosat'
    : 1
    ? 'fs1 == 0 and fe1 == 0xfe and fm1 == 0x253e0d and fs2 == 1 and fe2 == 0xfe and
      fm2 == 0x7fffff and  fcsr == 0x40 and rm_val == 7  and rs1_sgn_prefix == 0x00000000
      and rs2_sgn_prefix == 0xffffffff  #nosat'
    : 1
    ? 'fs1 == 0 and fe1 == 0xfe and fm1 == 0x253e0d and fs2 == 1 and fe2 == 0xfe and
      fm2 == 0x7fffff and  fcsr == 0x60 and rm_val == 7  and rs1_sgn_prefix == 0x00000000
      and rs2_sgn_prefix == 0xffffffff  #nosat'
    : 1
    ? 'fs1 == 0 and fe1 == 0xfe and fm1 == 0x253e0d and fs2 == 1 and fe2 == 0xfe and
      fm2 == 0x7fffff and  fcsr == 0x80 and rm_val == 7  and rs1_sgn_prefix == 0x00000000
      and rs2_sgn_prefix == 0xffffffff  #nosat'
    : 1
    ? 'fs1 == 0 and fe1 == 0xfe and fm1 == 0x2db39d and fs2 == 1 and fe2 == 0xfe and
      fm2 == 0x7fffff and  fcsr == 0x0 and rm_val == 7  and rs1_sgn_prefix == 0x00000000
      and rs2_sgn_prefix == 0xffffffff  #nosat'
    : 1
    ? 'fs1 == 0 and fe1 == 0xfe and fm1 == 0x2db39d and fs2 == 1 and fe2 == 0xfe and
      fm2 == 0x7fffff and  fcsr == 0x20 and rm_val == 7  and rs1_sgn_prefix == 0x00000000
      and rs2_sgn_prefix == 0xffffffff  #nosat'
    : 1
    ? 'fs1 == 0 and fe1 == 0xfe and fm1 == 0x2db39d and fs2 == 1 and fe2 == 0xfe and
      fm2 == 0x7fffff and  fcsr == 0x40 and rm_val == 7  and rs1_sgn_prefix == 0x00000000
      and rs2_sgn_prefix == 0xffffffff  #nosat'
    : 1
    ? 'fs1 == 0 and fe1 == 0xfe and fm1 == 0x2db39d and fs2 == 1 and fe2 == 0xfe and
      fm2 == 0x7fffff and  fcsr == 0x60 and rm_val == 7  and rs1_sgn_prefix == 0x00000000
      and rs2_sgn_prefix == 0xffffffff  #nosat'
    : 1
    ? 'fs1 == 0 and fe1 == 0xfe and fm1 == 0x2db39d and fs2 == 1 and fe2 == 0xfe and
      fm2 == 0x7fffff and  fcsr == 0x80 and rm_val == 7  and rs1_sgn_prefix == 0x00000000
      and rs2_sgn_prefix == 0xffffffff  #nosat'
    : 1
    ? 'fs1 == 0 and fe1 == 0xfe and fm1 == 0x090d88 and fs2 == 1 and fe2 == 0xfe and
      fm2 == 0x7fffff and  fcsr == 0x0 and rm_val == 7  and rs1_sgn_prefix == 0x00000000
      and rs2_sgn_prefix == 0xffffffff  #nosat'
    : 1
    ? 'fs1 == 0 and fe1 == 0xfe and fm1 == 0x090d88 and fs2 == 1 and fe2 == 0xfe and
      fm2 == 0x7fffff and  fcsr == 0x20 and rm_val == 7  and rs1_sgn_prefix == 0x00000000
      and rs2_sgn_prefix == 0xffffffff  #nosat'
    : 1
    ? 'fs1 == 0 and fe1 == 0xfe and fm1 == 0x090d88 and fs2 == 1 and fe2 == 0xfe and
      fm2 == 0x7fffff and  fcsr == 0x40 and rm_val == 7  and rs1_sgn_prefix == 0x00000000
      and rs2_sgn_prefix == 0xffffffff  #nosat'
    : 1
    ? 'fs1 == 0 and fe1 == 0xfe and fm1 == 0x090d88 and fs2 == 1 and fe2 == 0xfe and
      fm2 == 0x7fffff and  fcsr == 0x60 and rm_val == 7  and rs1_sgn_prefix == 0x00000000
      and rs2_sgn_prefix == 0xffffffff  #nosat'
    : 1
    ? 'fs1 == 0 and fe1 == 0xfe and fm1 == 0x090d88 and fs2 == 1 and fe2 == 0xfe and
      fm2 == 0x7fffff and  fcsr == 0x80 and rm_val == 7  and rs1_sgn_prefix == 0x00000000
      and rs2_sgn_prefix == 0xffffffff  #nosat'
    : 1
    ? 'fs1 == 0 and fe1 == 0xfe and fm1 == 0x1fab30 and fs2 == 1 and fe2 == 0xfe and
      fm2 == 0x7fffff and  fcsr == 0x0 and rm_val == 7  and rs1_sgn_prefix == 0x00000000
      and rs2_sgn_prefix == 0xffffffff  #nosat'
    : 1
    ? 'fs1 == 0 and fe1 == 0xfe and fm1 == 0x1fab30 and fs2 == 1 and fe2 == 0xfe and
      fm2 == 0x7fffff and  fcsr == 0x20 and rm_val == 7  and rs1_sgn_prefix == 0x00000000
      and rs2_sgn_prefix == 0xffffffff  #nosat'
    : 1
    ? 'fs1 == 0 and fe1 == 0xfe and fm1 == 0x1fab30 and fs2 == 1 and fe2 == 0xfe and
      fm2 == 0x7fffff and  fcsr == 0x40 and rm_val == 7  and rs1_sgn_prefix == 0x00000000
      and rs2_sgn_prefix == 0xffffffff  #nosat'
    : 1
    ? 'fs1 == 0 and fe1 == 0xfe and fm1 == 0x1fab30 and fs2 == 1 and fe2 == 0xfe and
      fm2 == 0x7fffff and  fcsr == 0x60 and rm_val == 7  and rs1_sgn_prefix == 0x00000000
      and rs2_sgn_prefix == 0xffffffff  #nosat'
    : 1
    ? 'fs1 == 0 and fe1 == 0xfe and fm1 == 0x1fab30 and fs2 == 1 and fe2 == 0xfe and
      fm2 == 0x7fffff and  fcsr == 0x80 and rm_val == 7  and rs1_sgn_prefix == 0x00000000
      and rs2_sgn_prefix == 0xffffffff  #nosat'
    : 1
    ? 'fs1 == 0 and fe1 == 0xfc and fm1 == 0x5ad8ea and fs2 == 1 and fe2 == 0xfe and
      fm2 == 0x7fffff and  fcsr == 0x0 and rm_val == 7  and rs1_sgn_prefix == 0x00000000
      and rs2_sgn_prefix == 0xffffffff  #nosat'
    : 1
    ? 'fs1 == 0 and fe1 == 0xfc and fm1 == 0x5ad8ea and fs2 == 1 and fe2 == 0xfe and
      fm2 == 0x7fffff and  fcsr == 0x20 and rm_val == 7  and rs1_sgn_prefix == 0x00000000
      and rs2_sgn_prefix == 0xffffffff  #nosat'
    : 1
    ? 'fs1 == 0 and fe1 == 0xfc and fm1 == 0x5ad8ea and fs2 == 1 and fe2 == 0xfe and
      fm2 == 0x7fffff and  fcsr == 0x40 and rm_val == 7  and rs1_sgn_prefix == 0x00000000
      and rs2_sgn_prefix == 0xffffffff  #nosat'
    : 1
    ? 'fs1 == 0 and fe1 == 0xfc and fm1 == 0x5ad8ea and fs2 == 1 and fe2 == 0xfe and
      fm2 == 0x7fffff and  fcsr == 0x60 and rm_val == 7  and rs1_sgn_prefix == 0x00000000
      and rs2_sgn_prefix == 0xffffffff  #nosat'
    : 1
    ? 'fs1 == 0 and fe1 == 0xfc and fm1 == 0x5ad8ea and fs2 == 1 and fe2 == 0xfe and
      fm2 == 0x7fffff and  fcsr == 0x80 and rm_val == 7  and rs1_sgn_prefix == 0x00000000
      and rs2_sgn_prefix == 0xffffffff  #nosat'
    : 1
    ? 'fs1 == 0 and fe1 == 0xfe and fm1 == 0x23f4fa and fs2 == 1 and fe2 == 0xfe and
      fm2 == 0x7fffff and  fcsr == 0x0 and rm_val == 7  and rs1_sgn_prefix == 0x00000000
      and rs2_sgn_prefix == 0xffffffff  #nosat'
    : 1
    ? 'fs1 == 0 and fe1 == 0xfe and fm1 == 0x23f4fa and fs2 == 1 and fe2 == 0xfe and
      fm2 == 0x7fffff and  fcsr == 0x20 and rm_val == 7  and rs1_sgn_prefix == 0x00000000
      and rs2_sgn_prefix == 0xffffffff  #nosat'
    : 1
    ? 'fs1 == 0 and fe1 == 0xfe and fm1 == 0x23f4fa and fs2 == 1 and fe2 == 0xfe and
      fm2 == 0x7fffff and  fcsr == 0x40 and rm_val == 7  and rs1_sgn_prefix == 0x00000000
      and rs2_sgn_prefix == 0xffffffff  #nosat'
    : 1
    ? 'fs1 == 0 and fe1 == 0xfe and fm1 == 0x23f4fa and fs2 == 1 and fe2 == 0xfe and
      fm2 == 0x7fffff and  fcsr == 0x60 and rm_val == 7  and rs1_sgn_prefix == 0x00000000
      and rs2_sgn_prefix == 0xffffffff  #nosat'
    : 1
    ? 'fs1 == 0 and fe1 == 0xfe and fm1 == 0x23f4fa and fs2 == 1 and fe2 == 0xfe and
      fm2 == 0x7fffff and  fcsr == 0x80 and rm_val == 7  and rs1_sgn_prefix == 0x00000000
      and rs2_sgn_prefix == 0xffffffff  #nosat'
    : 1
    ? 'fs1 == 0 and fe1 == 0xfb and fm1 == 0x07f6ba and fs2 == 1 and fe2 == 0xfe and
      fm2 == 0x7fffff and  fcsr == 0x0 and rm_val == 7  and rs1_sgn_prefix == 0x00000000
      and rs2_sgn_prefix == 0xffffffff  #nosat'
    : 1
    ? 'fs1 == 0 and fe1 == 0xfb and fm1 == 0x07f6ba and fs2 == 1 and fe2 == 0xfe and
      fm2 == 0x7fffff and  fcsr == 0x20 and rm_val == 7  and rs1_sgn_prefix == 0x00000000
      and rs2_sgn_prefix == 0xffffffff  #nosat'
    : 1
    ? 'fs1 == 0 and fe1 == 0xfb and fm1 == 0x07f6ba and fs2 == 1 and fe2 == 0xfe and
      fm2 == 0x7fffff and  fcsr == 0x40 and rm_val == 7  and rs1_sgn_prefix == 0x00000000
      and rs2_sgn_prefix == 0xffffffff  #nosat'
    : 1
    ? 'fs1 == 0 and fe1 == 0xfb and fm1 == 0x07f6ba and fs2 == 1 and fe2 == 0xfe and
      fm2 == 0x7fffff and  fcsr == 0x60 and rm_val == 7  and rs1_sgn_prefix == 0x00000000
      and rs2_sgn_prefix == 0xffffffff  #nosat'
    : 1
    ? 'fs1 == 0 and fe1 == 0xfb and fm1 == 0x07f6ba and fs2 == 1 and fe2 == 0xfe and
      fm2 == 0x7fffff and  fcsr == 0x80 and rm_val == 7  and rs1_sgn_prefix == 0x00000000
      and rs2_sgn_prefix == 0xffffffff  #nosat'
    : 1
    ? 'fs1 == 0 and fe1 == 0xfd and fm1 == 0x1d9e09 and fs2 == 1 and fe2 == 0xfe and
      fm2 == 0x7fffff and  fcsr == 0x0 and rm_val == 7  and rs1_sgn_prefix == 0x00000000
      and rs2_sgn_prefix == 0xffffffff  #nosat'
    : 1
    ? 'fs1 == 0 and fe1 == 0xfd and fm1 == 0x1d9e09 and fs2 == 1 and fe2 == 0xfe and
      fm2 == 0x7fffff and  fcsr == 0x20 and rm_val == 7  and rs1_sgn_prefix == 0x00000000
      and rs2_sgn_prefix == 0xffffffff  #nosat'
    : 1
    ? 'fs1 == 0 and fe1 == 0xfd and fm1 == 0x1d9e09 and fs2 == 1 and fe2 == 0xfe and
      fm2 == 0x7fffff and  fcsr == 0x40 and rm_val == 7  and rs1_sgn_prefix == 0x00000000
      and rs2_sgn_prefix == 0xffffffff  #nosat'
    : 1
    ? 'fs1 == 0 and fe1 == 0xfd and fm1 == 0x1d9e09 and fs2 == 1 and fe2 == 0xfe and
      fm2 == 0x7fffff and  fcsr == 0x60 and rm_val == 7  and rs1_sgn_prefix == 0x00000000
      and rs2_sgn_prefix == 0xffffffff  #nosat'
    : 1
    ? 'fs1 == 0 and fe1 == 0xfd and fm1 == 0x1d9e09 and fs2 == 1 and fe2 == 0xfe and
      fm2 == 0x7fffff and  fcsr == 0x80 and rm_val == 7  and rs1_sgn_prefix == 0x00000000
      and rs2_sgn_prefix == 0xffffffff  #nosat'
    : 1
    ? 'fs1 == 0 and fe1 == 0xfc and fm1 == 0x61b55e and fs2 == 1 and fe2 == 0xfe and
      fm2 == 0x7fffff and  fcsr == 0x0 and rm_val == 7  and rs1_sgn_prefix == 0x00000000
      and rs2_sgn_prefix == 0xffffffff  #nosat'
    : 1
    ? 'fs1 == 0 and fe1 == 0xfc and fm1 == 0x61b55e and fs2 == 1 and fe2 == 0xfe and
      fm2 == 0x7fffff and  fcsr == 0x20 and rm_val == 7  and rs1_sgn_prefix == 0x00000000
      and rs2_sgn_prefix == 0xffffffff  #nosat'
    : 1
    ? 'fs1 == 0 and fe1 == 0xfc and fm1 == 0x61b55e and fs2 == 1 and fe2 == 0xfe and
      fm2 == 0x7fffff and  fcsr == 0x40 and rm_val == 7  and rs1_sgn_prefix == 0x00000000
      and rs2_sgn_prefix == 0xffffffff  #nosat'
    : 1
    ? 'fs1 == 0 and fe1 == 0xfc and fm1 == 0x61b55e and fs2 == 1 and fe2 == 0xfe and
      fm2 == 0x7fffff and  fcsr == 0x60 and rm_val == 7  and rs1_sgn_prefix == 0x00000000
      and rs2_sgn_prefix == 0xffffffff  #nosat'
    : 1
    ? 'fs1 == 0 and fe1 == 0xfc and fm1 == 0x61b55e and fs2 == 1 and fe2 == 0xfe and
      fm2 == 0x7fffff and  fcsr == 0x80 and rm_val == 7  and rs1_sgn_prefix == 0x00000000
      and rs2_sgn_prefix == 0xffffffff  #nosat'
    : 1
    ? 'fs1 == 0 and fe1 == 0xfe and fm1 == 0x27923e and fs2 == 1 and fe2 == 0xfe and
      fm2 == 0x7fffff and  fcsr == 0x0 and rm_val == 7  and rs1_sgn_prefix == 0x00000000
      and rs2_sgn_prefix == 0xffffffff  #nosat'
    : 1
    ? 'fs1 == 0 and fe1 == 0xfe and fm1 == 0x27923e and fs2 == 1 and fe2 == 0xfe and
      fm2 == 0x7fffff and  fcsr == 0x20 and rm_val == 7  and rs1_sgn_prefix == 0x00000000
      and rs2_sgn_prefix == 0xffffffff  #nosat'
    : 1
    ? 'fs1 == 0 and fe1 == 0xfe and fm1 == 0x27923e and fs2 == 1 and fe2 == 0xfe and
      fm2 == 0x7fffff and  fcsr == 0x40 and rm_val == 7  and rs1_sgn_prefix == 0x00000000
      and rs2_sgn_prefix == 0xffffffff  #nosat'
    : 1
    ? 'fs1 == 0 and fe1 == 0xfe and fm1 == 0x27923e and fs2 == 1 and fe2 == 0xfe and
      fm2 == 0x7fffff and  fcsr == 0x60 and rm_val == 7  and rs1_sgn_prefix == 0x00000000
      and rs2_sgn_prefix == 0xffffffff  #nosat'
    : 1
    ? 'fs1 == 0 and fe1 == 0xfe and fm1 == 0x27923e and fs2 == 1 and fe2 == 0xfe and
      fm2 == 0x7fffff and  fcsr == 0x80 and rm_val == 7  and rs1_sgn_prefix == 0x00000000
      and rs2_sgn_prefix == 0xffffffff  #nosat'
    : 1
    ? 'fs1 == 0 and fe1 == 0xfd and fm1 == 0x6bfb00 and fs2 == 1 and fe2 == 0xfe and
      fm2 == 0x7fffff and  fcsr == 0x0 and rm_val == 7  and rs1_sgn_prefix == 0x00000000
      and rs2_sgn_prefix == 0xffffffff  #nosat'
    : 1
    ? 'fs1 == 0 and fe1 == 0xfd and fm1 == 0x6bfb00 and fs2 == 1 and fe2 == 0xfe and
      fm2 == 0x7fffff and  fcsr == 0x20 and rm_val == 7  and rs1_sgn_prefix == 0x00000000
      and rs2_sgn_prefix == 0xffffffff  #nosat'
    : 1
    ? 'fs1 == 0 and fe1 == 0xfd and fm1 == 0x6bfb00 and fs2 == 1 and fe2 == 0xfe and
      fm2 == 0x7fffff and  fcsr == 0x40 and rm_val == 7  and rs1_sgn_prefix == 0x00000000
      and rs2_sgn_prefix == 0xffffffff  #nosat'
    : 1
    ? 'fs1 == 0 and fe1 == 0xfd and fm1 == 0x6bfb00 and fs2 == 1 and fe2 == 0xfe and
      fm2 == 0x7fffff and  fcsr == 0x60 and rm_val == 7  and rs1_sgn_prefix == 0x00000000
      and rs2_sgn_prefix == 0xffffffff  #nosat'
    : 1
    ? 'fs1 == 0 and fe1 == 0xfd and fm1 == 0x6bfb00 and fs2 == 1 and fe2 == 0xfe and
      fm2 == 0x7fffff and  fcsr == 0x80 and rm_val == 7  and rs1_sgn_prefix == 0x00000000
      and rs2_sgn_prefix == 0xffffffff  #nosat'
    : 1
    ? 'fs1 == 0 and fe1 == 0xfe and fm1 == 0x09f0c8 and fs2 == 1 and fe2 == 0xfe and
      fm2 == 0x7fffff and  fcsr == 0x0 and rm_val == 7  and rs1_sgn_prefix == 0x00000000
      and rs2_sgn_prefix == 0xffffffff  #nosat'
    : 1
    ? 'fs1 == 0 and fe1 == 0xfe and fm1 == 0x09f0c8 and fs2 == 1 and fe2 == 0xfe and
      fm2 == 0x7fffff and  fcsr == 0x20 and rm_val == 7  and rs1_sgn_prefix == 0x00000000
      and rs2_sgn_prefix == 0xffffffff  #nosat'
    : 1
    ? 'fs1 == 0 and fe1 == 0xfe and fm1 == 0x09f0c8 and fs2 == 1 and fe2 == 0xfe and
      fm2 == 0x7fffff and  fcsr == 0x40 and rm_val == 7  and rs1_sgn_prefix == 0x00000000
      and rs2_sgn_prefix == 0xffffffff  #nosat'
    : 1
    ? 'fs1 == 0 and fe1 == 0xfe and fm1 == 0x09f0c8 and fs2 == 1 and fe2 == 0xfe and
      fm2 == 0x7fffff and  fcsr == 0x60 and rm_val == 7  and rs1_sgn_prefix == 0x00000000
      and rs2_sgn_prefix == 0xffffffff  #nosat'
    : 1
    ? 'fs1 == 0 and fe1 == 0xfe and fm1 == 0x09f0c8 and fs2 == 1 and fe2 == 0xfe and
      fm2 == 0x7fffff and  fcsr == 0x80 and rm_val == 7  and rs1_sgn_prefix == 0x00000000
      and rs2_sgn_prefix == 0xffffffff  #nosat'
    : 1
    ? 'fs1 == 0 and fe1 == 0xfe and fm1 == 0x292241 and fs2 == 1 and fe2 == 0xfe and
      fm2 == 0x7fffff and  fcsr == 0x0 and rm_val == 7  and rs1_sgn_prefix == 0x00000000
      and rs2_sgn_prefix == 0xffffffff  #nosat'
    : 1
    ? 'fs1 == 0 and fe1 == 0xfe and fm1 == 0x292241 and fs2 == 1 and fe2 == 0xfe and
      fm2 == 0x7fffff and  fcsr == 0x20 and rm_val == 7  and rs1_sgn_prefix == 0x00000000
      and rs2_sgn_prefix == 0xffffffff  #nosat'
    : 1
    ? 'fs1 == 0 and fe1 == 0xfe and fm1 == 0x292241 and fs2 == 1 and fe2 == 0xfe and
      fm2 == 0x7fffff and  fcsr == 0x40 and rm_val == 7  and rs1_sgn_prefix == 0x00000000
      and rs2_sgn_prefix == 0xffffffff  #nosat'
    : 1
    ? 'fs1 == 0 and fe1 == 0xfe and fm1 == 0x292241 and fs2 == 1 and fe2 == 0xfe and
      fm2 == 0x7fffff and  fcsr == 0x60 and rm_val == 7  and rs1_sgn_prefix == 0x00000000
      and rs2_sgn_prefix == 0xffffffff  #nosat'
    : 1
    ? 'fs1 == 0 and fe1 == 0xfe and fm1 == 0x292241 and fs2 == 1 and fe2 == 0xfe and
      fm2 == 0x7fffff and  fcsr == 0x80 and rm_val == 7  and rs1_sgn_prefix == 0x00000000
      and rs2_sgn_prefix == 0xffffffff  #nosat'
    : 1
    ? 'fs1 == 0 and fe1 == 0xfd and fm1 == 0x4214d7 and fs2 == 1 and fe2 == 0xfe and
      fm2 == 0x7fffff and  fcsr == 0x0 and rm_val == 7  and rs1_sgn_prefix == 0x00000000
      and rs2_sgn_prefix == 0xffffffff  #nosat'
    : 1
    ? 'fs1 == 0 and fe1 == 0xfd and fm1 == 0x4214d7 and fs2 == 1 and fe2 == 0xfe and
      fm2 == 0x7fffff and  fcsr == 0x20 and rm_val == 7  and rs1_sgn_prefix == 0x00000000
      and rs2_sgn_prefix == 0xffffffff  #nosat'
    : 1
    ? 'fs1 == 0 and fe1 == 0xfd and fm1 == 0x4214d7 and fs2 == 1 and fe2 == 0xfe and
      fm2 == 0x7fffff and  fcsr == 0x40 and rm_val == 7  and rs1_sgn_prefix == 0x00000000
      and rs2_sgn_prefix == 0xffffffff  #nosat'
    : 1
    ? 'fs1 == 0 and fe1 == 0xfd and fm1 == 0x4214d7 and fs2 == 1 and fe2 == 0xfe and
      fm2 == 0x7fffff and  fcsr == 0x60 and rm_val == 7  and rs1_sgn_prefix == 0x00000000
      and rs2_sgn_prefix == 0xffffffff  #nosat'
    : 1
    ? 'fs1 == 0 and fe1 == 0xfd and fm1 == 0x4214d7 and fs2 == 1 and fe2 == 0xfe and
      fm2 == 0x7fffff and  fcsr == 0x80 and rm_val == 7  and rs1_sgn_prefix == 0x00000000
      and rs2_sgn_prefix == 0xffffffff  #nosat'
    : 1
    ? 'fs1 == 0 and fe1 == 0xfc and fm1 == 0x6dd39b and fs2 == 1 and fe2 == 0xfe and
      fm2 == 0x7fffff and  fcsr == 0x0 and rm_val == 7  and rs1_sgn_prefix == 0x00000000
      and rs2_sgn_prefix == 0xffffffff  #nosat'
    : 1
    ? 'fs1 == 0 and fe1 == 0xfc and fm1 == 0x6dd39b and fs2 == 1 and fe2 == 0xfe and
      fm2 == 0x7fffff and  fcsr == 0x20 and rm_val == 7  and rs1_sgn_prefix == 0x00000000
      and rs2_sgn_prefix == 0xffffffff  #nosat'
    : 1
    ? 'fs1 == 0 and fe1 == 0xfc and fm1 == 0x6dd39b and fs2 == 1 and fe2 == 0xfe and
      fm2 == 0x7fffff and  fcsr == 0x40 and rm_val == 7  and rs1_sgn_prefix == 0x00000000
      and rs2_sgn_prefix == 0xffffffff  #nosat'
    : 1
    ? 'fs1 == 0 and fe1 == 0xfc and fm1 == 0x6dd39b and fs2 == 1 and fe2 == 0xfe and
      fm2 == 0x7fffff and  fcsr == 0x60 and rm_val == 7  and rs1_sgn_prefix == 0x00000000
      and rs2_sgn_prefix == 0xffffffff  #nosat'
    : 1
    ? 'fs1 == 0 and fe1 == 0xfc and fm1 == 0x6dd39b and fs2 == 1 and fe2 == 0xfe and
      fm2 == 0x7fffff and  fcsr == 0x80 and rm_val == 7  and rs1_sgn_prefix == 0x00000000
      and rs2_sgn_prefix == 0xffffffff  #nosat'
    : 1
    ? 'fs1 == 0 and fe1 == 0xfd and fm1 == 0x664f14 and fs2 == 1 and fe2 == 0xfe and
      fm2 == 0x7fffff and  fcsr == 0x0 and rm_val == 7  and rs1_sgn_prefix == 0x00000000
      and rs2_sgn_prefix == 0xffffffff  #nosat'
    : 1
    ? 'fs1 == 0 and fe1 == 0xfd and fm1 == 0x664f14 and fs2 == 1 and fe2 == 0xfe and
      fm2 == 0x7fffff and  fcsr == 0x20 and rm_val == 7  and rs1_sgn_prefix == 0x00000000
      and rs2_sgn_prefix == 0xffffffff  #nosat'
    : 1
    ? 'fs1 == 0 and fe1 == 0xfd and fm1 == 0x664f14 and fs2 == 1 and fe2 == 0xfe and
      fm2 == 0x7fffff and  fcsr == 0x40 and rm_val == 7  and rs1_sgn_prefix == 0x00000000
      and rs2_sgn_prefix == 0xffffffff  #nosat'
    : 1
    ? 'fs1 == 0 and fe1 == 0xfd and fm1 == 0x664f14 and fs2 == 1 and fe2 == 0xfe and
      fm2 == 0x7fffff and  fcsr == 0x60 and rm_val == 7  and rs1_sgn_prefix == 0x00000000
      and rs2_sgn_prefix == 0xffffffff  #nosat'
    : 1
    ? 'fs1 == 0 and fe1 == 0xfd and fm1 == 0x664f14 and fs2 == 1 and fe2 == 0xfe and
      fm2 == 0x7fffff and  fcsr == 0x80 and rm_val == 7  and rs1_sgn_prefix == 0x00000000
      and rs2_sgn_prefix == 0xffffffff  #nosat'
    : 1
    coverage: 220/220
  total_coverage: 322/322
