Test: CustomRegisterTest
Target: spike64
---------------------------------[ Compile ]----------------------------------
+ riscv64-unknown-elf-gcc -g programs/checksum.c programs/tiny-malloc.c programs/infinite_loop.S -DDEFINE_MALLOC -DDEFINE_FREE -DCLINT=33554432 programs/entry.S programs/init.c -DNHARTS=1 -I ../env -T targets/RISC-V/spike64.lds -nostartfiles -mcmodel=medany -DXLEN=64 -o /tmp/spike64_checksum-8000000000141125_ibyoan_f -march=rv64imafc_zicsr -mabi=lp64
-------------------------[ /tmp/spike-wid9x12f.log ]--------------------------
+ spike -p1 --isa RV64IMAFC --dm-auth --dm-progsize 0 --dm-sba 64 --dm-abstract-rti 30 -m0x1212340000:0x10000000 --rbb-port 0 /tmp/spike64_checksum-8000000000141125_ibyoan_f
Listening for remote bitbang connection on port 37297.
warning: tohost and fromhost symbols not in ELF; can't communicate with target
Received nothing. Quitting.

-------------------------[ /tmp/openocdzsjl0lpv.log ]-------------------------
+ REMOTE_BITBANG_HOST=localhost REMOTE_BITBANG_PORT=37297 WORK_AREA=0x1212340000 USE_FREERTOS=0 openocd --command 'gdb_port 0' --command 'tcl_port disabled' --command 'telnet_port pipe' -f targets/RISC-V/spike-1.cfg
Open On-Chip Debugger 0.11.0+dev-02362-g5c34da141 (2022-05-30-17:25)
Licensed under GNU GPL v2
For bug reports, read
	http://openocd.org/doc/doxygen/bugs.html
Info : only one transport option; autoselect 'jtag'
Info : Initializing remote_bitbang driver
Info : Connecting to localhost:37297
Info : remote_bitbang driver initialized
Info : This adapter doesn't support configurable speed
Info : JTAG tap: riscv.cpu tap/device found: 0xdeadbeef (mfg: 0x777 (<unknown>), part: 0xeadb, ver: 0xd)
Warn : JTAG tap: riscv.cpu       UNEXPECTED: 0xdeadbeef (mfg: 0x777 (<unknown>), part: 0xeadb, ver: 0xd)
Error: JTAG tap: riscv.cpu  expected 1 of 1: 0x10e31913 (mfg: 0x489 (SiFive Inc), part: 0x0e31, ver: 0x1)
Error: Trying to use configured scan chain anyway...
Warn : Bypassing JTAG setup events due to errors
Error: Debugger is not authenticated to target Debug Module. (dmstatus=0x4c0c02). Use `riscv authdata_read` and `riscv authdata_write` commands to authenticate.
Warn : target riscv.cpu examination failed
Error: Debugger is not authenticated to target Debug Module. (dmstatus=0x4c0c02). Use `riscv authdata_read` and `riscv authdata_write` commands to authenticate.
Error: Debugger is not authenticated to target Debug Module. (dmstatus=0x4c0c02). Use `riscv authdata_read` and `riscv authdata_write` commands to authenticate.
Info : starting gdb server for riscv.cpu on 0
Info : Listening on port 46831 for gdb connections
Error: Debugger is not authenticated to target Debug Module. (dmstatus=0x4c0c02). Use `riscv authdata_read` and `riscv authdata_write` commands to authenticate.
Info : authdata_write resulted in successful authentication
Info : [riscv.cpu] datacount=2 progbufsize=0
Warn : We won't be able to execute fence instructions on this target. Memory may not always appear consistent. (progbufsize=0, impebreak=1)
Info : Examined RISC-V core; found 1 harts
Info :  hart 0: XLEN=64, misa=0x8000000000141125
[riscv.cpu] Target successfully examined.
semihosting is enabled

Info : tcl server disabled
Info : [riscv.cpu] datacount=2 progbufsize=0
Warn : We won't be able to execute fence instructions on this target. Memory may not always appear consistent. (progbufsize=0, impebreak=1)
Info : Examined RISC-V core; found 1 harts
Info :  hart 0: XLEN=64, misa=0x8000000000141125
[riscv.cpu] Target successfully examined.
Info : accepting 'gdb' connection on tcp/0
Warn : Failed to read memory via system bus.
Error: Failed write (NOP) at 0x7; status=2
Error: Failed write (NOP) at 0x6; status=2
Warn : Failed to read memory via abstract access.
Error: Target riscv.cpu: Failed to read memory (addr=0x0)
Error:   progbuf=skipped (insufficient progbuf), sysbus=failed, abstract=failed
Error: Failed write (NOP) at 0x7; status=2
Error: Failed write (NOP) at 0x6; status=2
Error: Target riscv.cpu: Failed to read memory (addr=0x0)
Error:   progbuf=skipped (insufficient progbuf), sysbus=failed, abstract=failed
Error: Failed write (NOP) at 0x7; status=2
Error: Failed write (NOP) at 0x6; status=2
Error: Target riscv.cpu: Failed to read memory (addr=0x0)
Error:   progbuf=skipped (insufficient progbuf), sysbus=failed, abstract=failed
Error: Failed write (NOP) at 0x7; status=2
Error: Failed write (NOP) at 0x6; status=2
Error: Target riscv.cpu: Failed to read memory (addr=0x0)
Error:   progbuf=skipped (insufficient progbuf), sysbus=failed, abstract=failed
Error: Failed write (NOP) at 0x7; status=2
Error: Failed write (NOP) at 0x6; status=2
Error: Target riscv.cpu: Failed to read memory (addr=0x0)
Error:   progbuf=skipped (insufficient progbuf), sysbus=failed, abstract=failed
Error: Failed write (NOP) at 0x7; status=2
Error: Failed write (NOP) at 0x6; status=2
Error: Target riscv.cpu: Failed to read memory (addr=0x0)
Error:   progbuf=skipped (insufficient progbuf), sysbus=failed, abstract=failed
Error: Failed write (NOP) at 0x7; status=2
Error: Failed write (NOP) at 0x6; status=2
Error: Target riscv.cpu: Failed to read memory (addr=0x0)
Error:   progbuf=skipped (insufficient progbuf), sysbus=failed, abstract=failed
Error: Failed write (NOP) at 0x7; status=2
Error: Failed write (NOP) at 0x6; status=2
Error: Target riscv.cpu: Failed to read memory (addr=0x0)
Error:   progbuf=skipped (insufficient progbuf), sysbus=failed, abstract=failed
Info : [riscv.cpu] Found 4 triggers
Error: Failed write (NOP) at 0x7; status=2
Error: Failed write (NOP) at 0x6; status=2
Error: Target riscv.cpu: Failed to read memory (addr=0x0)
Error:   progbuf=skipped (insufficient progbuf), sysbus=failed, abstract=failed
Error: Failed write (NOP) at 0x7; status=2
Error: Failed write (NOP) at 0x6; status=2
Error: Target riscv.cpu: Failed to read memory (addr=0x0)
Error:   progbuf=skipped (insufficient progbuf), sysbus=failed, abstract=failed
Info : dropped 'gdb' connection
shutdown command invoked
Info : remote_bitbang interface quit

-----------------------[ /tmp/gdb@46831-k74w2ae5.log ]------------------------
+ riscv64-unknown-elf-gdb
[35;1mGNU gdb (GDB) 12.1[m
Copyright (C) 2022 Free Software Foundation, Inc.
License GPLv3+: GNU GPL version 3 or later <http://gnu.org/licenses/gpl.html>
This is free software: you are free to change and redistribute it.
There is NO WARRANTY, to the extent permitted by law.
Type "show copying" and "show warranty" for details.
This GDB was configured as "--host=x86_64-pc-linux-gnu --target=riscv64-unknown-elf".
Type "show configuration" for configuration details.
For bug reporting instructions, please see:
<https://www.gnu.org/software/gdb/bugs/>.
Find the GDB manual and other documentation resources online at:
    <http://www.gnu.org/software/gdb/documentation/>.

For help, type "help".
Type "apropos word" to search for commands related to "word".
[?2004h(gdb) set style enabled off
set style enabled off
[?2004l
[?2004h(gdb) set confirm off
set confirm off
[?2004l
[?2004h(gdb) set width 0
set width 0
[?2004l
[?2004h(gdb) set height 0
set height 0
[?2004l
[?2004h(gdb) set print entry-values no
set print entry-values no
[?2004l
[?2004h(gdb) set remotetimeout 30
set remotetimeout 30
[?2004l
[?2004h(gdb) monitor riscv reset_delays 127
monitor riscv reset_delays 127
[?2004l
"monitor" command not supported by this target.
[?2004h(gdb) set remotetimeout 30
set remotetimeout 30
[?2004l
[?2004h(gdb) target extended-remote localhost:46831
target extended-remote localhost:46831
[?2004l
Remote debugging using localhost:46831
warning: No executable has been specified and target does not support
determining executable automatically.  Try using the "file" command.
0x00000012123406ae in ?? ()
[?2004h(gdb) monitor riscv reset_delays 181
monitor riscv reset_delays 181
[?2004l
[?2004h(gdb) info threads
info threads
[?2004l
  Id   Target Id         Frame 
* 1    Remote target     0x00000012123406ae in ?? ()
[?2004h(gdb) monitor riscv reset_delays 17
monitor riscv reset_delays 17
[?2004l
[?2004h(gdb) p *((int*) 0x1212340000)=0x13
p *((int*) 0x1212340000)=0x13
[?2004l
$1 = 19
[?2004h(gdb) monitor riscv reset_delays 13
monitor riscv reset_delays 13
[?2004l
[?2004h(gdb) p *((int*) 0x1212340004)=0x13
p *((int*) 0x1212340004)=0x13
[?2004l
$2 = 19
[?2004h(gdb) monitor riscv reset_delays 83
monitor riscv reset_delays 83
[?2004l
[?2004h(gdb) p *((int*) 0x1212340008)=0x13
p *((int*) 0x1212340008)=0x13
[?2004l
$3 = 19
[?2004h(gdb) monitor riscv reset_delays 151
monitor riscv reset_delays 151
[?2004l
[?2004h(gdb) p *((int*) 0x121234000c)=0x13
p *((int*) 0x121234000c)=0x13
[?2004l
$4 = 19
[?2004h(gdb) monitor riscv reset_delays 31
monitor riscv reset_delays 31
[?2004l
[?2004h(gdb) p *((int*) 0x1212340010)=0x13
p *((int*) 0x1212340010)=0x13
[?2004l
$5 = 19
[?2004h(gdb) monitor riscv reset_delays 67
monitor riscv reset_delays 67
[?2004l
[?2004h(gdb) p/x $pc=0x1212340000
p/x $pc=0x1212340000
[?2004l
$6 = 0x1212340000
[?2004h(gdb) monitor riscv reset_delays 131
monitor riscv reset_delays 131
[?2004l
[?2004h(gdb) info registers all
info registers all
[?2004l
zero           0x0	0
ra             0x0	0x0
sp             0x1	0x1
gp             0x2	0x2
tp             0x3	0x3
t0             0x4	4
t1             0x5	5
t2             0x6	6
fp             0x7	0x7
s1             0x8	8
a0             0x9	9
a1             0xa	10
a2             0xb	11
a3             0xc	12
a4             0xd	13
a5             0xe	14
a6             0xf	15
a7             0x10	16
s2             0x11	17
s3             0x12	18
s4             0x13	19
s5             0x14	20
s6             0x15	21
s7             0x16	22
s8             0x17	23
s9             0x18	24
s10            0x19	25
s11            0x1a	26
t3             0x1b	27
t4             0x1c	28
t5             0x1d	29
t6             0x1e	30
pc             0x1212340000	0x1212340000
ft0            0	(raw 0x00000000)
ft1            0	(raw 0x00000000)
ft2            0	(raw 0x00000000)
ft3            0	(raw 0x00000000)
ft4            0	(raw 0x00000000)
ft5            0	(raw 0x00000000)
ft6            0	(raw 0x00000000)
ft7            0	(raw 0x00000000)
fs0            0	(raw 0x00000000)
fs1            0	(raw 0x00000000)
fa0            0	(raw 0x00000000)
fa1            0	(raw 0x00000000)
fa2            0	(raw 0x00000000)
fa3            0	(raw 0x00000000)
fa4            0	(raw 0x00000000)
fa5            0	(raw 0x00000000)
fa6            0	(raw 0x00000000)
fa7            0	(raw 0x00000000)
fs2            0	(raw 0x00000000)
fs3            0	(raw 0x00000000)
fs4            0	(raw 0x00000000)
fs5            0	(raw 0x00000000)
fs6            0	(raw 0x00000000)
fs7            0	(raw 0x00000000)
fs8            0	(raw 0x00000000)
fs9            0	(raw 0x00000000)
fs10           0	(raw 0x00000000)
fs11           0	(raw 0x00000000)
ft8            0	(raw 0x00000000)
ft9            0	(raw 0x00000000)
ft10           0	(raw 0x00000000)
ft11           0	(raw 0x00000000)
fflags         0x0	RD:0 NV:0 DZ:0 OF:0 UF:0 NX:0
frm            0x0	FRM:0 [RNE (round to nearest; ties to even)]
fcsr           0x0	RD:0 NV:0 DZ:0 OF:0 UF:0 NX:0 FRM:0 [RNE (round to nearest; ties to even)]
vcsr           Could not fetch register "vcsr"; remote failure reply 'E0E'
seed           Could not fetch register "seed"; remote failure reply 'E0E'
sstatus        0x200000000	8589934592
sedeleg        Could not fetch register "sedeleg"; remote failure reply 'E0E'
sideleg        Could not fetch register "sideleg"; remote failure reply 'E0E'
sie            0x0	0
stvec          0x0	0
scounteren     0x0	0
sscratch       0x0	0
sepc           0x0	0
scause         0x0	0
stval          0x0	0
sip            0x0	0
satp           0x0	0
vsstatus       Could not fetch register "vsstatus"; remote failure reply 'E0E'
vsie           Could not fetch register "vsie"; remote failure reply 'E0E'
vstvec         Could not fetch register "vstvec"; remote failure reply 'E0E'
vsscratch      Could not fetch register "vsscratch"; remote failure reply 'E0E'
vsepc          Could not fetch register "vsepc"; remote failure reply 'E0E'
vscause        Could not fetch register "vscause"; remote failure reply 'E0E'
vstval         Could not fetch register "vstval"; remote failure reply 'E0E'
vsip           Could not fetch register "vsip"; remote failure reply 'E0E'
vsatp          Could not fetch register "vsatp"; remote failure reply 'E0E'
mstatus        0xa00000000	SD:0 VM:00 MXR:0 PUM:0 MPRV:0 XS:0 FS:0 MPP:0 HPP:0 SPP:0 MPIE:0 HPIE:0 SPIE:0 UPIE:0 MIE:0 HIE:0 SIE:0 UIE:0
misa           0x8000000000141125	RV64ACFIMSU
medeleg        0x0	0
mideleg        0x0	0
mie            0x0	0
mtvec          0x12123400b4	77614809268
mcounteren     0x0	0
mstatush       Could not fetch register "mstatush"; remote failure reply 'E0E'
mcountinhibit  0x0	0
mhpmevent3     0x0	0
mhpmevent4     0x0	0
mhpmevent5     0x0	0
mhpmevent6     0x0	0
mhpmevent7     0x0	0
mhpmevent8     0x0	0
mhpmevent9     0x0	0
mhpmevent10    0x0	0
mhpmevent11    0x0	0
mhpmevent12    0x0	0
mhpmevent13    0x0	0
mhpmevent14    0x0	0
mhpmevent15    0x0	0
mhpmevent16    0x0	0
mhpmevent17    0x0	0
mhpmevent18    0x0	0
mhpmevent19    0x0	0
mhpmevent20    0x0	0
mhpmevent21    0x0	0
mhpmevent22    0x0	0
mhpmevent23    0x0	0
mhpmevent24    0x0	0
mhpmevent25    0x0	0
mhpmevent26    0x0	0
mhpmevent27    0x0	0
mhpmevent28    0x0	0
mhpmevent29    0x0	0
mhpmevent30    0x0	0
mhpmevent31    0x0	0
mscratch       0x0	0
mepc           0x0	0
mcause         0x0	0
mtval          0x0	0
mip            0x80	128
mtinst         Could not fetch register "mtinst"; remote failure reply 'E0E'
mtval2         Could not fetch register "mtval2"; remote failure reply 'E0E'
pmpcfg0        0x1f	31
pmpcfg2        0x0	0
pmpaddr0       0x3fffffffffffff	18014398509481983
pmpaddr1       0x0	0
pmpaddr2       0x0	0
pmpaddr3       0x0	0
pmpaddr4       0x0	0
pmpaddr5       0x0	0
pmpaddr6       0x0	0
pmpaddr7       0x0	0
pmpaddr8       0x0	0
pmpaddr9       0x0	0
pmpaddr10      0x0	0
pmpaddr11      0x0	0
pmpaddr12      0x0	0
pmpaddr13      0x0	0
pmpaddr14      0x0	0
pmpaddr15      0x0	0
scontext       0x0	0
hstatus        Could not fetch register "hstatus"; remote failure reply 'E0E'
hedeleg        Could not fetch register "hedeleg"; remote failure reply 'E0E'
hideleg        Could not fetch register "hideleg"; remote failure reply 'E0E'
hie            Could not fetch register "hie"; remote failure reply 'E0E'
htimedelta     Could not fetch register "htimedelta"; remote failure reply 'E0E'
hcounteren     Could not fetch register "hcounteren"; remote failure reply 'E0E'
hgeie          Could not fetch register "hgeie"; remote failure reply 'E0E'
htimedeltah    Could not fetch register "htimedeltah"; remote failure reply 'E0E'
htval          Could not fetch register "htval"; remote failure reply 'E0E'
hip            Could not fetch register "hip"; remote failure reply 'E0E'
hvip           Could not fetch register "hvip"; remote failure reply 'E0E'
htinst         Could not fetch register "htinst"; remote failure reply 'E0E'
hgatp          Could not fetch register "hgatp"; remote failure reply 'E0E'
hcontext       Could not fetch register "hcontext"; remote failure reply 'E0E'
tselect        0x3	3
tdata1         0xf000000000000000	-1152921504606846976
tdata2         0x0	0
tdata3         0x0	0
tinfo          0x807c	32892
tcontrol       Could not fetch register "tcontrol"; remote failure reply 'E0E'
mcontext       0x0	0
mscontext      Could not fetch register "mscontext"; remote failure reply 'E0E'
dcsr           0x400000c3	1073742019
dpc            0x1212340000	77614809088
dscratch0      0x7	7
dscratch1      0xa00000000	42949672960
mcycle         0x19bb8b6	26982582
minstret       0x19bbcff	26983679
mhpmcounter3   0x0	0
mhpmcounter4   0x0	0
mhpmcounter5   0x0	0
mhpmcounter6   0x0	0
mhpmcounter7   0x0	0
mhpmcounter8   0x0	0
mhpmcounter9   0x0	0
mhpmcounter10  0x0	0
mhpmcounter11  0x0	0
mhpmcounter12  0x0	0
mhpmcounter13  0x0	0
mhpmcounter14  0x0	0
mhpmcounter15  0x0	0
mhpmcounter16  0x0	0
mhpmcounter17  0x0	0
mhpmcounter18  0x0	0
mhpmcounter19  0x0	0
mhpmcounter20  0x0	0
mhpmcounter21  0x0	0
mhpmcounter22  0x0	0
mhpmcounter23  0x0	0
mhpmcounter24  0x0	0
mhpmcounter25  0x0	0
mhpmcounter26  0x0	0
mhpmcounter27  0x0	0
mhpmcounter28  0x0	0
mhpmcounter29  0x0	0
mhpmcounter30  0x0	0
mhpmcounter31  0x0	0
cycle          Could not fetch register "cycle"; remote failure reply 'E0E'
time           Could not fetch register "time"; remote failure reply 'E0E'
instret        Could not fetch register "instret"; remote failure reply 'E0E'
hpmcounter3    Could not fetch register "hpmcounter3"; remote failure reply 'E0E'
hpmcounter4    Could not fetch register "hpmcounter4"; remote failure reply 'E0E'
hpmcounter5    Could not fetch register "hpmcounter5"; remote failure reply 'E0E'
hpmcounter6    Could not fetch register "hpmcounter6"; remote failure reply 'E0E'
hpmcounter7    Could not fetch register "hpmcounter7"; remote failure reply 'E0E'
hpmcounter8    Could not fetch register "hpmcounter8"; remote failure reply 'E0E'
hpmcounter9    Could not fetch register "hpmcounter9"; remote failure reply 'E0E'
hpmcounter10   Could not fetch register "hpmcounter10"; remote failure reply 'E0E'
hpmcounter11   Could not fetch register "hpmcounter11"; remote failure reply 'E0E'
hpmcounter12   Could not fetch register "hpmcounter12"; remote failure reply 'E0E'
hpmcounter13   Could not fetch register "hpmcounter13"; remote failure reply 'E0E'
hpmcounter14   Could not fetch register "hpmcounter14"; remote failure reply 'E0E'
hpmcounter15   Could not fetch register "hpmcounter15"; remote failure reply 'E0E'
hpmcounter16   Could not fetch register "hpmcounter16"; remote failure reply 'E0E'
hpmcounter17   Could not fetch register "hpmcounter17"; remote failure reply 'E0E'
hpmcounter18   Could not fetch register "hpmcounter18"; remote failure reply 'E0E'
hpmcounter19   Could not fetch register "hpmcounter19"; remote failure reply 'E0E'
hpmcounter20   Could not fetch register "hpmcounter20"; remote failure reply 'E0E'
hpmcounter21   Could not fetch register "hpmcounter21"; remote failure reply 'E0E'
hpmcounter22   Could not fetch register "hpmcounter22"; remote failure reply 'E0E'
hpmcounter23   Could not fetch register "hpmcounter23"; remote failure reply 'E0E'
hpmcounter24   Could not fetch register "hpmcounter24"; remote failure reply 'E0E'
hpmcounter25   Could not fetch register "hpmcounter25"; remote failure reply 'E0E'
hpmcounter26   Could not fetch register "hpmcounter26"; remote failure reply 'E0E'
hpmcounter27   Could not fetch register "hpmcounter27"; remote failure reply 'E0E'
hpmcounter28   Could not fetch register "hpmcounter28"; remote failure reply 'E0E'
hpmcounter29   Could not fetch register "hpmcounter29"; remote failure reply 'E0E'
hpmcounter30   Could not fetch register "hpmcounter30"; remote failure reply 'E0E'
hpmcounter31   Could not fetch register "hpmcounter31"; remote failure reply 'E0E'
hgeip          Could not fetch register "hgeip"; remote failure reply 'E0E'
mvendorid      0x0	0
marchid        0x5	5
mimpid         0x0	0
mhartid        0x0	0
priv           0x3	prv:3 [Machine]
utvt           Could not fetch register "utvt"; remote failure reply 'E0E'
unxti          Could not fetch register "unxti"; remote failure reply 'E0E'
uintstatus     Could not fetch register "uintstatus"; remote failure reply 'E0E'
uscratchcsw    Could not fetch register "uscratchcsw"; remote failure reply 'E0E'
uscratchcswl   Could not fetch register "uscratchcswl"; remote failure reply 'E0E'
stvt           Could not fetch register "stvt"; remote failure reply 'E0E'
snxti          Could not fetch register "snxti"; remote failure reply 'E0E'
sintstatus     Could not fetch register "sintstatus"; remote failure reply 'E0E'
sscratchcsw    Could not fetch register "sscratchcsw"; remote failure reply 'E0E'
sscratchcswl   Could not fetch register "sscratchcswl"; remote failure reply 'E0E'
mtvt           Could not fetch register "mtvt"; remote failure reply 'E0E'
mnxti          Could not fetch register "mnxti"; remote failure reply 'E0E'
mintstatus     Could not fetch register "mintstatus"; remote failure reply 'E0E'
mscratchcsw    Could not fetch register "mscratchcsw"; remote failure reply 'E0E'
mscratchcswl   Could not fetch register "mscratchcswl"; remote failure reply 'E0E'
csr2288        Could not fetch register "csr2288"; remote failure reply 'E0E'
custom12345    0x3039	12345
custom12346    Could not fetch register "custom12346"; remote failure reply 'E0E'
custom12347    0x303b	12347
custom12348    Could not fetch register "custom12348"; remote failure reply 'E0E'
custom1        0x1	1
[?2004h(gdb) monitor riscv reset_delays 167
monitor riscv reset_delays 167
[?2004l
[?2004h(gdb) p/x $custom12345=19012
p/x $custom12345=19012
[?2004l
$7 = 0x4a44
[?2004h(gdb) monitor riscv reset_delays 23
monitor riscv reset_delays 23
[?2004l
[?2004h(gdb) stepi
stepi
[?2004l
[riscv.cpu] Found 4 triggers
0x0000001212340004 in ?? ()
[?2004h[?2004l
[?2004h(gdb) monitor riscv reset_delays 41
monitor riscv reset_delays 41
[?2004l
[?2004h(gdb) info registers all
info registers all
[?2004l
zero           0x0	0
ra             0x0	0x0
sp             0x1	0x1
gp             0x2	0x2
tp             0x3	0x3
t0             0x4	4
t1             0x5	5
t2             0x6	6
fp             0x7	0x7
s1             0x8	8
a0             0x9	9
a1             0xa	10
a2             0xb	11
a3             0xc	12
a4             0xd	13
a5             0xe	14
a6             0xf	15
a7             0x10	16
s2             0x11	17
s3             0x12	18
s4             0x13	19
s5             0x14	20
s6             0x15	21
s7             0x16	22
s8             0x17	23
s9             0x18	24
s10            0x19	25
s11            0x1a	26
t3             0x1b	27
t4             0x1c	28
t5             0x1d	29
t6             0x1e	30
pc             0x1212340004	0x1212340004
ft0            0	(raw 0x00000000)
ft1            0	(raw 0x00000000)
ft2            0	(raw 0x00000000)
ft3            0	(raw 0x00000000)
ft4            0	(raw 0x00000000)
ft5            0	(raw 0x00000000)
ft6            0	(raw 0x00000000)
ft7            0	(raw 0x00000000)
fs0            0	(raw 0x00000000)
fs1            0	(raw 0x00000000)
fa0            0	(raw 0x00000000)
fa1            0	(raw 0x00000000)
fa2            0	(raw 0x00000000)
fa3            0	(raw 0x00000000)
fa4            0	(raw 0x00000000)
fa5            0	(raw 0x00000000)
fa6            0	(raw 0x00000000)
fa7            0	(raw 0x00000000)
fs2            0	(raw 0x00000000)
fs3            0	(raw 0x00000000)
fs4            0	(raw 0x00000000)
fs5            0	(raw 0x00000000)
fs6            0	(raw 0x00000000)
fs7            0	(raw 0x00000000)
fs8            0	(raw 0x00000000)
fs9            0	(raw 0x00000000)
fs10           0	(raw 0x00000000)
fs11           0	(raw 0x00000000)
ft8            0	(raw 0x00000000)
ft9            0	(raw 0x00000000)
ft10           0	(raw 0x00000000)
ft11           0	(raw 0x00000000)
fflags         0x0	RD:0 NV:0 DZ:0 OF:0 UF:0 NX:0
frm            0x0	FRM:0 [RNE (round to nearest; ties to even)]
fcsr           0x0	RD:0 NV:0 DZ:0 OF:0 UF:0 NX:0 FRM:0 [RNE (round to nearest; ties to even)]
vcsr           Could not fetch register "vcsr"; remote failure reply 'E0E'
seed           Could not fetch register "seed"; remote failure reply 'E0E'
sstatus        0x200000000	8589934592
sedeleg        Could not fetch register "sedeleg"; remote failure reply 'E0E'
sideleg        Could not fetch register "sideleg"; remote failure reply 'E0E'
sie            0x0	0
stvec          0x0	0
scounteren     0x0	0
sscratch       0x0	0
sepc           0x0	0
scause         0x0	0
stval          0x0	0
sip            0x0	0
satp           0x0	0
vsstatus       Could not fetch register "vsstatus"; remote failure reply 'E0E'
vsie           Could not fetch register "vsie"; remote failure reply 'E0E'
vstvec         Could not fetch register "vstvec"; remote failure reply 'E0E'
vsscratch      Could not fetch register "vsscratch"; remote failure reply 'E0E'
vsepc          Could not fetch register "vsepc"; remote failure reply 'E0E'
vscause        Could not fetch register "vscause"; remote failure reply 'E0E'
vstval         Could not fetch register "vstval"; remote failure reply 'E0E'
vsip           Could not fetch register "vsip"; remote failure reply 'E0E'
vsatp          Could not fetch register "vsatp"; remote failure reply 'E0E'
mstatus        0xa00000000	SD:0 VM:00 MXR:0 PUM:0 MPRV:0 XS:0 FS:0 MPP:0 HPP:0 SPP:0 MPIE:0 HPIE:0 SPIE:0 UPIE:0 MIE:0 HIE:0 SIE:0 UIE:0
misa           0x8000000000141125	RV64ACFIMSU
medeleg        0x0	0
mideleg        0x0	0
mie            0x0	0
mtvec          0x12123400b4	77614809268
mcounteren     0x0	0
mstatush       Could not fetch register "mstatush"; remote failure reply 'E0E'
mcountinhibit  0x0	0
mhpmevent3     0x0	0
mhpmevent4     0x0	0
mhpmevent5     0x0	0
mhpmevent6     0x0	0
mhpmevent7     0x0	0
mhpmevent8     0x0	0
mhpmevent9     0x0	0
mhpmevent10    0x0	0
mhpmevent11    0x0	0
mhpmevent12    0x0	0
mhpmevent13    0x0	0
mhpmevent14    0x0	0
mhpmevent15    0x0	0
mhpmevent16    0x0	0
mhpmevent17    0x0	0
mhpmevent18    0x0	0
mhpmevent19    0x0	0
mhpmevent20    0x0	0
mhpmevent21    0x0	0
mhpmevent22    0x0	0
mhpmevent23    0x0	0
mhpmevent24    0x0	0
mhpmevent25    0x0	0
mhpmevent26    0x0	0
mhpmevent27    0x0	0
mhpmevent28    0x0	0
mhpmevent29    0x0	0
mhpmevent30    0x0	0
mhpmevent31    0x0	0
mscratch       0x0	0
mepc           0x0	0
mcause         0x0	0
mtval          0x0	0
mip            0x80	128
mtinst         Could not fetch register "mtinst"; remote failure reply 'E0E'
mtval2         Could not fetch register "mtval2"; remote failure reply 'E0E'
pmpcfg0        0x1f	31
pmpcfg2        0x0	0
pmpaddr0       0x3fffffffffffff	18014398509481983
pmpaddr1       0x0	0
pmpaddr2       0x0	0
pmpaddr3       0x0	0
pmpaddr4       0x0	0
pmpaddr5       0x0	0
pmpaddr6       0x0	0
pmpaddr7       0x0	0
pmpaddr8       0x0	0
pmpaddr9       0x0	0
pmpaddr10      0x0	0
pmpaddr11      0x0	0
pmpaddr12      0x0	0
pmpaddr13      0x0	0
pmpaddr14      0x0	0
pmpaddr15      0x0	0
scontext       0x0	0
hstatus        Could not fetch register "hstatus"; remote failure reply 'E0E'
hedeleg        Could not fetch register "hedeleg"; remote failure reply 'E0E'
hideleg        Could not fetch register "hideleg"; remote failure reply 'E0E'
hie            Could not fetch register "hie"; remote failure reply 'E0E'
htimedelta     Could not fetch register "htimedelta"; remote failure reply 'E0E'
hcounteren     Could not fetch register "hcounteren"; remote failure reply 'E0E'
hgeie          Could not fetch register "hgeie"; remote failure reply 'E0E'
htimedeltah    Could not fetch register "htimedeltah"; remote failure reply 'E0E'
htval          Could not fetch register "htval"; remote failure reply 'E0E'
hip            Could not fetch register "hip"; remote failure reply 'E0E'
hvip           Could not fetch register "hvip"; remote failure reply 'E0E'
htinst         Could not fetch register "htinst"; remote failure reply 'E0E'
hgatp          Could not fetch register "hgatp"; remote failure reply 'E0E'
hcontext       Could not fetch register "hcontext"; remote failure reply 'E0E'
tselect        0x3	3
tdata1         0xf000000000000000	-1152921504606846976
tdata2         0x0	0
tdata3         0x0	0
tinfo          0x807c	32892
tcontrol       Could not fetch register "tcontrol"; remote failure reply 'E0E'
mcontext       0x0	0
mscontext      Could not fetch register "mscontext"; remote failure reply 'E0E'
dcsr           0x4000b107	1073787143
dpc            0x1212340004	77614809092
dscratch0      0x7	7
dscratch1      0xa00000000	42949672960
mcycle         0x1a91644	27858500
minstret       0x1a91a77	27859575
mhpmcounter3   0x0	0
mhpmcounter4   0x0	0
mhpmcounter5   0x0	0
mhpmcounter6   0x0	0
mhpmcounter7   0x0	0
mhpmcounter8   0x0	0
mhpmcounter9   0x0	0
mhpmcounter10  0x0	0
mhpmcounter11  0x0	0
mhpmcounter12  0x0	0
mhpmcounter13  0x0	0
mhpmcounter14  0x0	0
mhpmcounter15  0x0	0
mhpmcounter16  0x0	0
mhpmcounter17  0x0	0
mhpmcounter18  0x0	0
mhpmcounter19  0x0	0
mhpmcounter20  0x0	0
mhpmcounter21  0x0	0
mhpmcounter22  0x0	0
mhpmcounter23  0x0	0
mhpmcounter24  0x0	0
mhpmcounter25  0x0	0
mhpmcounter26  0x0	0
mhpmcounter27  0x0	0
mhpmcounter28  0x0	0
mhpmcounter29  0x0	0
mhpmcounter30  0x0	0
mhpmcounter31  0x0	0
cycle          Could not fetch register "cycle"; remote failure reply 'E0E'
time           Could not fetch register "time"; remote failure reply 'E0E'
instret        Could not fetch register "instret"; remote failure reply 'E0E'
hpmcounter3    Could not fetch register "hpmcounter3"; remote failure reply 'E0E'
hpmcounter4    Could not fetch register "hpmcounter4"; remote failure reply 'E0E'
hpmcounter5    Could not fetch register "hpmcounter5"; remote failure reply 'E0E'
hpmcounter6    Could not fetch register "hpmcounter6"; remote failure reply 'E0E'
hpmcounter7    Could not fetch register "hpmcounter7"; remote failure reply 'E0E'
hpmcounter8    Could not fetch register "hpmcounter8"; remote failure reply 'E0E'
hpmcounter9    Could not fetch register "hpmcounter9"; remote failure reply 'E0E'
hpmcounter10   Could not fetch register "hpmcounter10"; remote failure reply 'E0E'
hpmcounter11   Could not fetch register "hpmcounter11"; remote failure reply 'E0E'
hpmcounter12   Could not fetch register "hpmcounter12"; remote failure reply 'E0E'
hpmcounter13   Could not fetch register "hpmcounter13"; remote failure reply 'E0E'
hpmcounter14   Could not fetch register "hpmcounter14"; remote failure reply 'E0E'
hpmcounter15   Could not fetch register "hpmcounter15"; remote failure reply 'E0E'
hpmcounter16   Could not fetch register "hpmcounter16"; remote failure reply 'E0E'
hpmcounter17   Could not fetch register "hpmcounter17"; remote failure reply 'E0E'
hpmcounter18   Could not fetch register "hpmcounter18"; remote failure reply 'E0E'
hpmcounter19   Could not fetch register "hpmcounter19"; remote failure reply 'E0E'
hpmcounter20   Could not fetch register "hpmcounter20"; remote failure reply 'E0E'
hpmcounter21   Could not fetch register "hpmcounter21"; remote failure reply 'E0E'
hpmcounter22   Could not fetch register "hpmcounter22"; remote failure reply 'E0E'
hpmcounter23   Could not fetch register "hpmcounter23"; remote failure reply 'E0E'
hpmcounter24   Could not fetch register "hpmcounter24"; remote failure reply 'E0E'
hpmcounter25   Could not fetch register "hpmcounter25"; remote failure reply 'E0E'
hpmcounter26   Could not fetch register "hpmcounter26"; remote failure reply 'E0E'
hpmcounter27   Could not fetch register "hpmcounter27"; remote failure reply 'E0E'
hpmcounter28   Could not fetch register "hpmcounter28"; remote failure reply 'E0E'
hpmcounter29   Could not fetch register "hpmcounter29"; remote failure reply 'E0E'
hpmcounter30   Could not fetch register "hpmcounter30"; remote failure reply 'E0E'
hpmcounter31   Could not fetch register "hpmcounter31"; remote failure reply 'E0E'
hgeip          Could not fetch register "hgeip"; remote failure reply 'E0E'
mvendorid      0x0	0
marchid        0x5	5
mimpid         0x0	0
mhartid        0x0	0
priv           0x3	prv:3 [Machine]
utvt           Could not fetch register "utvt"; remote failure reply 'E0E'
unxti          Could not fetch register "unxti"; remote failure reply 'E0E'
uintstatus     Could not fetch register "uintstatus"; remote failure reply 'E0E'
uscratchcsw    Could not fetch register "uscratchcsw"; remote failure reply 'E0E'
uscratchcswl   Could not fetch register "uscratchcswl"; remote failure reply 'E0E'
stvt           Could not fetch register "stvt"; remote failure reply 'E0E'
snxti          Could not fetch register "snxti"; remote failure reply 'E0E'
sintstatus     Could not fetch register "sintstatus"; remote failure reply 'E0E'
sscratchcsw    Could not fetch register "sscratchcsw"; remote failure reply 'E0E'
sscratchcswl   Could not fetch register "sscratchcswl"; remote failure reply 'E0E'
mtvt           Could not fetch register "mtvt"; remote failure reply 'E0E'
mnxti          Could not fetch register "mnxti"; remote failure reply 'E0E'
mintstatus     Could not fetch register "mintstatus"; remote failure reply 'E0E'
mscratchcsw    Could not fetch register "mscratchcsw"; remote failure reply 'E0E'
mscratchcswl   Could not fetch register "mscratchcswl"; remote failure reply 'E0E'
csr2288        Could not fetch register "csr2288"; remote failure reply 'E0E'
custom12345    0x4a44	19012
custom12346    Could not fetch register "custom12346"; remote failure reply 'E0E'
custom12347    0x4a46	19014
custom12348    Could not fetch register "custom12348"; remote failure reply 'E0E'
custom1        0x1a0c	6668
[?2004h(gdb) 
-------------------------------[ End of logs ]--------------------------------
Result: pass
Logfile: logs/20231101-120130-spike64-CustomRegisterTest.log
Reproduce: ./gdbserver.py ./targets/RISC-V/spike64.py CustomRegisterTest
Time elapsed: 2.38s
