---
fnmsub_b6:
  config:
  - check ISA:=regex(.*I.*F.*Zfh.*)
  mnemonics:
    fnmsub.h: 45
    coverage: 1/1
  op_comb:
    rd == rs2 == rs3 != rs1: 1
    rs1 != rs2 and rs1 != rd and rs1 != rs3 and rs2 != rs3 and rs2 != rd and rs3 != rd: 34
    rs1 == rd != rs2 and rs1 == rd != rs3 and rs3 != rs2: 1
    rs1 == rd == rs3 != rs2: 1
    rs1 == rs2 != rs3 and rs1 == rs2 != rd and rd != rs3: 1
    rs1 == rs2 == rd != rs3: 1
    rs1 == rs2 == rs3 != rd: 1
    rs1 == rs2 == rs3 == rd: 1
    rs1 == rs3 != rs2 and rs1 == rs3 != rd and rd != rs2: 1
    rs2 == rd != rs1 and rs2 == rd != rs3 and rs3 != rs1: 1
    rs2 == rs3 != rs1 and rs2 == rs3 != rd and rd != rs1: 1
    rs3 == rd != rs1 and rs3 == rd != rs2 and rs2 != rs1: 1
    coverage: 12/12
  rd:
    f0: 1
    f1: 1
    f10: 1
    f11: 1
    f12: 1
    f13: 1
    f14: 1
    f15: 1
    f16: 1
    f17: 1
    f18: 1
    f19: 1
    f2: 1
    f20: 1
    f21: 1
    f22: 1
    f23: 1
    f24: 1
    f25: 1
    f26: 1
    f27: 1
    f28: 1
    f29: 1
    f3: 1
    f30: 1
    f31: 14
    f4: 1
    f5: 1
    f6: 1
    f7: 1
    f8: 1
    f9: 1
    coverage: 32/32
  rs1:
    f0: 1
    f1: 1
    f10: 1
    f11: 1
    f12: 1
    f13: 1
    f14: 1
    f15: 1
    f16: 1
    f17: 1
    f18: 1
    f19: 1
    f2: 1
    f20: 1
    f21: 1
    f22: 1
    f23: 1
    f24: 1
    f25: 1
    f26: 1
    f27: 1
    f28: 1
    f29: 1
    f3: 1
    f30: 11
    f31: 4
    f4: 1
    f5: 1
    f6: 1
    f7: 1
    f8: 1
    f9: 1
    coverage: 32/32
  rs2:
    f0: 1
    f1: 1
    f10: 1
    f11: 1
    f12: 1
    f13: 1
    f14: 1
    f15: 1
    f16: 1
    f17: 1
    f18: 1
    f19: 1
    f2: 1
    f20: 1
    f21: 1
    f22: 1
    f23: 1
    f24: 1
    f25: 1
    f26: 1
    f27: 1
    f28: 1
    f29: 8
    f3: 1
    f30: 7
    f31: 1
    f4: 1
    f5: 1
    f6: 1
    f7: 1
    f8: 1
    f9: 1
    coverage: 32/32
  rs3:
    f0: 1
    f1: 1
    f10: 1
    f11: 1
    f12: 1
    f13: 1
    f14: 1
    f15: 1
    f16: 1
    f17: 1
    f18: 1
    f19: 1
    f2: 1
    f20: 1
    f21: 1
    f22: 1
    f23: 1
    f24: 1
    f25: 1
    f26: 1
    f27: 1
    f28: 5
    f29: 10
    f3: 1
    f30: 1
    f31: 1
    f4: 1
    f5: 1
    f6: 1
    f7: 1
    f8: 1
    f9: 1
    coverage: 32/32
  val_comb:
    ? 'fs1 == 0 and fe1 == 0x00 and fm1 == 0x000 and fs2 == 0 and fe2 == 0x1e and
      fm2 == 0x3ff and fs3 == 0 and fe3 == 0x00 and fm3 == 0x000 and fcsr == 0x2 and
      rm_val == 7  and rs1_nan_prefix == 0xffff and rs2_nan_prefix == 0xffff and rs3_nan_prefix
      == 0xffff  #nosat'
    : 1
    ? 'fs1 == 0 and fe1 == 0x00 and fm1 == 0x000 and fs2 == 0 and fe2 == 0x1e and
      fm2 == 0x3ff and fs3 == 0 and fe3 == 0x00 and fm3 == 0x000 and fcsr == 0x22
      and rm_val == 7  and rs1_nan_prefix == 0xffff and rs2_nan_prefix == 0xffff and
      rs3_nan_prefix == 0xffff  #nosat'
    : 1
    ? 'fs1 == 0 and fe1 == 0x00 and fm1 == 0x000 and fs2 == 0 and fe2 == 0x1e and
      fm2 == 0x3ff and fs3 == 0 and fe3 == 0x00 and fm3 == 0x000 and fcsr == 0x42
      and rm_val == 7  and rs1_nan_prefix == 0xffff and rs2_nan_prefix == 0xffff and
      rs3_nan_prefix == 0xffff  #nosat'
    : 1
    ? 'fs1 == 0 and fe1 == 0x00 and fm1 == 0x000 and fs2 == 0 and fe2 == 0x1e and
      fm2 == 0x3ff and fs3 == 0 and fe3 == 0x00 and fm3 == 0x000 and fcsr == 0x62
      and rm_val == 7  and rs1_nan_prefix == 0xffff and rs2_nan_prefix == 0xffff and
      rs3_nan_prefix == 0xffff  #nosat'
    : 1
    ? 'fs1 == 0 and fe1 == 0x00 and fm1 == 0x000 and fs2 == 0 and fe2 == 0x1e and
      fm2 == 0x3ff and fs3 == 0 and fe3 == 0x00 and fm3 == 0x000 and fcsr == 0x82
      and rm_val == 7  and rs1_nan_prefix == 0xffff and rs2_nan_prefix == 0xffff and
      rs3_nan_prefix == 0xffff  #nosat'
    : 1
    ? 'fs1 == 0 and fe1 == 0x00 and fm1 == 0x000 and fs2 == 1 and fe2 == 0x1e and
      fm2 == 0x3ff and fs3 == 0 and fe3 == 0x00 and fm3 == 0x000 and fcsr == 0x2 and
      rm_val == 7  and rs1_nan_prefix == 0xffff and rs2_nan_prefix == 0xffff and rs3_nan_prefix
      == 0xffff  #nosat'
    : 1
    ? 'fs1 == 0 and fe1 == 0x00 and fm1 == 0x000 and fs2 == 1 and fe2 == 0x1e and
      fm2 == 0x3ff and fs3 == 0 and fe3 == 0x00 and fm3 == 0x000 and fcsr == 0x22
      and rm_val == 7  and rs1_nan_prefix == 0xffff and rs2_nan_prefix == 0xffff and
      rs3_nan_prefix == 0xffff  #nosat'
    : 1
    ? 'fs1 == 0 and fe1 == 0x00 and fm1 == 0x000 and fs2 == 1 and fe2 == 0x1e and
      fm2 == 0x3ff and fs3 == 0 and fe3 == 0x00 and fm3 == 0x000 and fcsr == 0x42
      and rm_val == 7  and rs1_nan_prefix == 0xffff and rs2_nan_prefix == 0xffff and
      rs3_nan_prefix == 0xffff  #nosat'
    : 1
    ? 'fs1 == 0 and fe1 == 0x00 and fm1 == 0x000 and fs2 == 1 and fe2 == 0x1e and
      fm2 == 0x3ff and fs3 == 0 and fe3 == 0x00 and fm3 == 0x000 and fcsr == 0x62
      and rm_val == 7  and rs1_nan_prefix == 0xffff and rs2_nan_prefix == 0xffff and
      rs3_nan_prefix == 0xffff  #nosat'
    : 1
    ? 'fs1 == 0 and fe1 == 0x00 and fm1 == 0x000 and fs2 == 1 and fe2 == 0x1e and
      fm2 == 0x3ff and fs3 == 0 and fe3 == 0x00 and fm3 == 0x000 and fcsr == 0x82
      and rm_val == 7  and rs1_nan_prefix == 0xffff and rs2_nan_prefix == 0xffff and
      rs3_nan_prefix == 0xffff  #nosat'
    : 1
    coverage: 10/10
  total_coverage: 151/151
