---
fmsub_b6:
  config:
  - check ISA:=regex(.*I.*F.*)
  op_comb:
    rd == rs2 == rs3 != rs1: 1
    rs1 != rs2 and rs1 != rd and rs1 != rs3 and rs2 != rs3 and rs2 != rd and rs3 != rd: 138
    rs1 == rd != rs2 and rs1 == rd != rs3 and rs3 != rs2: 1
    rs1 == rd == rs3 != rs2: 1
    rs1 == rs2 != rs3 and rs1 == rs2 != rd and rd != rs3: 1
    rs1 == rs2 == rd != rs3: 1
    rs1 == rs2 == rs3 != rd: 1
    rs1 == rs2 == rs3 == rd: 1
    rs1 == rs3 != rs2 and rs1 == rs3 != rd and rd != rs2: 1
    rs2 == rd != rs1 and rs2 == rd != rs3 and rs3 != rs1: 1
    rs2 == rs3 != rs1 and rs2 == rs3 != rd and rd != rs1: 1
    rs3 == rd != rs1 and rs3 == rd != rs2 and rs2 != rs1: 1
    coverage: 12/12
  opcode:
    fmsub.s: 149
    coverage: 1/1
  rd:
    f0: 1
    f1: 1
    f10: 1
    f11: 1
    f12: 1
    f13: 1
    f14: 1
    f15: 1
    f16: 1
    f17: 1
    f18: 1
    f19: 1
    f2: 1
    f20: 1
    f21: 1
    f22: 1
    f23: 1
    f24: 1
    f25: 1
    f26: 1
    f27: 1
    f28: 1
    f29: 1
    f3: 1
    f30: 1
    f31: 118
    f4: 1
    f5: 1
    f6: 1
    f7: 1
    f8: 1
    f9: 1
    coverage: 32/32
  rs1:
    f0: 1
    f1: 1
    f10: 1
    f11: 1
    f12: 1
    f13: 1
    f14: 1
    f15: 1
    f16: 1
    f17: 1
    f18: 1
    f19: 1
    f2: 1
    f20: 1
    f21: 1
    f22: 1
    f23: 1
    f24: 1
    f25: 1
    f26: 1
    f27: 1
    f28: 1
    f29: 1
    f3: 1
    f30: 118
    f31: 1
    f4: 1
    f5: 1
    f6: 1
    f7: 1
    f8: 1
    f9: 1
    coverage: 32/32
  rs2:
    f0: 1
    f1: 1
    f10: 1
    f11: 1
    f12: 1
    f13: 1
    f14: 1
    f15: 1
    f16: 1
    f17: 1
    f18: 1
    f19: 1
    f2: 1
    f20: 1
    f21: 1
    f22: 1
    f23: 1
    f24: 1
    f25: 1
    f26: 1
    f27: 1
    f28: 1
    f29: 118
    f3: 1
    f30: 1
    f31: 1
    f4: 1
    f5: 1
    f6: 1
    f7: 1
    f8: 1
    f9: 1
    coverage: 32/32
  rs3:
    f0: 1
    f1: 1
    f10: 1
    f11: 1
    f12: 1
    f13: 1
    f14: 1
    f15: 1
    f16: 1
    f17: 1
    f18: 1
    f19: 1
    f2: 1
    f20: 1
    f21: 1
    f22: 1
    f23: 1
    f24: 1
    f25: 1
    f26: 1
    f27: 1
    f28: 118
    f29: 1
    f3: 1
    f30: 1
    f31: 1
    f4: 1
    f5: 1
    f6: 1
    f7: 1
    f8: 1
    f9: 1
    coverage: 32/32
  val_comb:
    ? 'fs1 == 0 and fe1 == 0x17 and fm1 == 0x2caedd and fs2 == 0 and fe2 == 0x81 and
      fm2 == 0x4133f4 and fs3 == 0 and fe3 == 0x1a and fm3 == 0x0252e0 and rm_val
      == 0  #nosat'
    : 1  #  rs1_val==fnorm(0x0bacaedd) and rs2_val==fnorm(0x40c133f4) and rs3_val==fnorm(0x0d0252e0) | Guard = 0 Round = 0 Sticky = 1 --> IR ∈ (-MinSubNorm, -MinSubNorm / 2)
    ? 'fs1 == 0 and fe1 == 0x1a and fm1 == 0x4d4fc0 and fs2 == 0 and fe2 == 0x7d and
      fm2 == 0x5f9b4b and fs3 == 0 and fe3 == 0x19 and fm3 == 0x335503 and rm_val
      == 4  #nosat'
    : 1 #  rs1_val==fnorm(0x0d4d4fc0) and rs2_val==fnorm(0x3edf9b4b) and rs3_val==fnorm(0x0cb35503) | Guard = 1 Round = 1 Sticky = 1 --> IR ∈ (+MinSubNorm / 2, +MinSubNorm)
    ? 'fs1 == 0 and fe1 == 0x1a and fm1 == 0x4d4fc0 and fs2 == 0 and fe2 == 0x7d and
      fm2 == 0x5f9b4b and fs3 == 0 and fe3 == 0x19 and fm3 == 0x335503 and rm_val
      == 3  #nosat'
    : 1 #  rs1_val==fnorm(0x0d4d4fc0) and rs2_val==fnorm(0x3edf9b4b) and rs3_val==fnorm(0x0cb35503) | Guard = 1 Round = 1 Sticky = 1 --> IR ∈ (+MinSubNorm / 2, +MinSubNorm)
    ? 'fs1 == 0 and fe1 == 0x1a and fm1 == 0x4d4fc0 and fs2 == 0 and fe2 == 0x7d and
      fm2 == 0x5f9b4b and fs3 == 0 and fe3 == 0x19 and fm3 == 0x335503 and rm_val
      == 2  #nosat'
    : 1 #  rs1_val==fnorm(0x0d4d4fc0) and rs2_val==fnorm(0x3edf9b4b) and rs3_val==fnorm(0x0cb35503) | Guard = 1 Round = 1 Sticky = 1 --> IR ∈ (+MinSubNorm / 2, +MinSubNorm)
    ? 'fs1 == 0 and fe1 == 0x1a and fm1 == 0x4d4fc0 and fs2 == 0 and fe2 == 0x7d and
      fm2 == 0x5f9b4b and fs3 == 0 and fe3 == 0x19 and fm3 == 0x335503 and rm_val
      == 1  #nosat'
    : 1 #  rs1_val==fnorm(0x0d4d4fc0) and rs2_val==fnorm(0x3edf9b4b) and rs3_val==fnorm(0x0cb35503) | Guard = 1 Round = 1 Sticky = 1 --> IR ∈ (+MinSubNorm / 2, +MinSubNorm)
    ? 'fs1 == 0 and fe1 == 0x1a and fm1 == 0x4d4fc0 and fs2 == 0 and fe2 == 0x7d and
      fm2 == 0x5f9b4b and fs3 == 0 and fe3 == 0x19 and fm3 == 0x335503 and rm_val
      == 0  #nosat'
    : 1 #  rs1_val==fnorm(0x0d4d4fc0) and rs2_val==fnorm(0x3edf9b4b) and rs3_val==fnorm(0x0cb35503) | Guard = 1 Round = 1 Sticky = 1 --> IR ∈ (+MinSubNorm / 2, +MinSubNorm)
    ? 'fs1 == 0 and fe1 == 0x1a and fm1 == 0x05f5a3 and fs2 == 0 and fe2 == 0x7d and
      fm2 == 0x7b60ae and fs3 == 0 and fe3 == 0x19 and fm3 == 0x038a6e and rm_val
      == 4  #nosat'
    : 1 #  rs1_val==fnorm(0x0d05f5a3) and rs2_val==fnorm(0x3efb60ae) and rs3_val==fnorm(0x0c838a6e) | Guard = 1 Round = 1 Sticky = 0 --> IR ∈ (+MinSubNorm / 2, +MinSubNorm)
    ? 'fs1 == 0 and fe1 == 0x1a and fm1 == 0x05f5a3 and fs2 == 0 and fe2 == 0x7d and
      fm2 == 0x7b60ae and fs3 == 0 and fe3 == 0x19 and fm3 == 0x038a6e and rm_val
      == 3  #nosat'
    : 1 #  rs1_val==fnorm(0x0d05f5a3) and rs2_val==fnorm(0x3efb60ae) and rs3_val==fnorm(0x0c838a6e) | Guard = 1 Round = 1 Sticky = 0 --> IR ∈ (+MinSubNorm / 2, +MinSubNorm)
    ? 'fs1 == 0 and fe1 == 0x1a and fm1 == 0x05f5a3 and fs2 == 0 and fe2 == 0x7d and
      fm2 == 0x7b60ae and fs3 == 0 and fe3 == 0x19 and fm3 == 0x038a6e and rm_val
      == 2  #nosat'
    : 2 #  rs1_val==fnorm(0x0d05f5a3) and rs2_val==fnorm(0x3efb60ae) and rs3_val==fnorm(0x0c838a6e) | Guard = 1 Round = 1 Sticky = 0 --> IR ∈ (+MinSubNorm / 2, +MinSubNorm)
    ? 'fs1 == 0 and fe1 == 0x1a and fm1 == 0x05f5a3 and fs2 == 0 and fe2 == 0x7d and
      fm2 == 0x7b60ae and fs3 == 0 and fe3 == 0x19 and fm3 == 0x038a6e and rm_val
      == 1  #nosat'
    : 1 #  rs1_val==fnorm(0x0d05f5a3) and rs2_val==fnorm(0x3efb60ae) and rs3_val==fnorm(0x0c838a6e) | Guard = 1 Round = 1 Sticky = 0 --> IR ∈ (+MinSubNorm / 2, +MinSubNorm)
    ? 'fs1 == 0 and fe1 == 0x1a and fm1 == 0x05f5a3 and fs2 == 0 and fe2 == 0x7d and
      fm2 == 0x7b60ae and fs3 == 0 and fe3 == 0x19 and fm3 == 0x038a6e and rm_val
      == 0  #nosat'
    : 1 #  rs1_val==fnorm(0x0d05f5a3) and rs2_val==fnorm(0x3efb60ae) and rs3_val==fnorm(0x0c838a6e) | Guard = 1 Round = 1 Sticky = 0 --> IR ∈ (+MinSubNorm / 2, +MinSubNorm)
    ? 'fs1 == 0 and fe1 == 0x1b and fm1 == 0x21d157 and fs2 == 0 and fe2 == 0x7c and
      fm2 == 0x48d04e and fs3 == 0 and fe3 == 0x18 and fm3 == 0x7dde70 and rm_val
      == 4  #nosat'
    : 1 #  rs1_val==fnorm(0x0da1d157) and rs2_val==fnorm(0x3e48d04e) and rs3_val==fnorm(0x0c7dde70) | Guard = 1 Round = 0 Sticky = 1 --> IR ∈ (+MinSubNorm / 2, +MinSubNorm)
    ? 'fs1 == 0 and fe1 == 0x1b and fm1 == 0x21d157 and fs2 == 0 and fe2 == 0x7c and
      fm2 == 0x48d04e and fs3 == 0 and fe3 == 0x18 and fm3 == 0x7dde70 and rm_val
      == 3  #nosat'
    : 1 #  rs1_val==fnorm(0x0da1d157) and rs2_val==fnorm(0x3e48d04e) and rs3_val==fnorm(0x0c7dde70) | Guard = 1 Round = 0 Sticky = 1 --> IR ∈ (+MinSubNorm / 2, +MinSubNorm)
    ? 'fs1 == 0 and fe1 == 0x1b and fm1 == 0x21d157 and fs2 == 0 and fe2 == 0x7c and
      fm2 == 0x48d04e and fs3 == 0 and fe3 == 0x18 and fm3 == 0x7dde70 and rm_val
      == 2  #nosat'
    : 1 #  rs1_val==fnorm(0x0da1d157) and rs2_val==fnorm(0x3e48d04e) and rs3_val==fnorm(0x0c7dde70) | Guard = 1 Round = 0 Sticky = 1 --> IR ∈ (+MinSubNorm / 2, +MinSubNorm)
    ? 'fs1 == 0 and fe1 == 0x1b and fm1 == 0x21d157 and fs2 == 0 and fe2 == 0x7c and
      fm2 == 0x48d04e and fs3 == 0 and fe3 == 0x18 and fm3 == 0x7dde70 and rm_val
      == 1  #nosat'
    : 1 #  rs1_val==fnorm(0x0da1d157) and rs2_val==fnorm(0x3e48d04e) and rs3_val==fnorm(0x0c7dde70) | Guard = 1 Round = 0 Sticky = 1 --> IR ∈ (+MinSubNorm / 2, +MinSubNorm)
    ? 'fs1 == 0 and fe1 == 0x1b and fm1 == 0x21d157 and fs2 == 0 and fe2 == 0x7c and
      fm2 == 0x48d04e and fs3 == 0 and fe3 == 0x18 and fm3 == 0x7dde70 and rm_val
      == 0  #nosat'
    : 1 #  rs1_val==fnorm(0x0da1d157) and rs2_val==fnorm(0x3e48d04e) and rs3_val==fnorm(0x0c7dde70) | Guard = 1 Round = 0 Sticky = 1 --> IR ∈ (+MinSubNorm / 2, +MinSubNorm)
    ? 'fs1 == 0 and fe1 == 0x1a and fm1 == 0x18ed18 and fs2 == 0 and fe2 == 0x7e and
      fm2 == 0x3a3fad and fs3 == 0 and fe3 == 0x19 and fm3 == 0x5e849b and rm_val
      == 4  #nosat'
    : 1 #  rs1_val==fnorm(0x0d18ed18) and rs2_val==fnorm(0x3f3a3fad) and rs3_val==fnorm(0x0cde849b) | Guard = 1 Round = 0 Sticky = 0 --> IR ∈ (+MinSubNorm / 2, +MinSubNorm)
    ? 'fs1 == 0 and fe1 == 0x1a and fm1 == 0x18ed18 and fs2 == 0 and fe2 == 0x7e and
      fm2 == 0x3a3fad and fs3 == 0 and fe3 == 0x19 and fm3 == 0x5e849b and rm_val
      == 3  #nosat'
    : 1 #  rs1_val==fnorm(0x0d18ed18) and rs2_val==fnorm(0x3f3a3fad) and rs3_val==fnorm(0x0cde849b) | Guard = 1 Round = 0 Sticky = 0 --> IR ∈ (+MinSubNorm / 2, +MinSubNorm)
    ? 'fs1 == 0 and fe1 == 0x1a and fm1 == 0x18ed18 and fs2 == 0 and fe2 == 0x7e and
      fm2 == 0x3a3fad and fs3 == 0 and fe3 == 0x19 and fm3 == 0x5e849b and rm_val
      == 2  #nosat'
    : 1 #  rs1_val==fnorm(0x0d18ed18) and rs2_val==fnorm(0x3f3a3fad) and rs3_val==fnorm(0x0cde849b) | Guard = 1 Round = 0 Sticky = 0 --> IR ∈ (+MinSubNorm / 2, +MinSubNorm)
    ? 'fs1 == 0 and fe1 == 0x1a and fm1 == 0x18ed18 and fs2 == 0 and fe2 == 0x7e and
      fm2 == 0x3a3fad and fs3 == 0 and fe3 == 0x19 and fm3 == 0x5e849b and rm_val
      == 1  #nosat'
    : 1 #  rs1_val==fnorm(0x0d18ed18) and rs2_val==fnorm(0x3f3a3fad) and rs3_val==fnorm(0x0cde849b) | Guard = 1 Round = 0 Sticky = 0 --> IR ∈ (+MinSubNorm / 2, +MinSubNorm)
    ? 'fs1 == 0 and fe1 == 0x1a and fm1 == 0x18ed18 and fs2 == 0 and fe2 == 0x7e and
      fm2 == 0x3a3fad and fs3 == 0 and fe3 == 0x19 and fm3 == 0x5e849b and rm_val
      == 0  #nosat'
    : 1 #  rs1_val==fnorm(0x0d18ed18) and rs2_val==fnorm(0x3f3a3fad) and rs3_val==fnorm(0x0cde849b) | Guard = 1 Round = 0 Sticky = 0 --> IR ∈ (+MinSubNorm / 2, +MinSubNorm)
    ? 'fs1 == 0 and fe1 == 0x19 and fm1 == 0x3602f5 and fs2 == 0 and fe2 == 0x7f and
      fm2 == 0x74055f and fs3 == 0 and fe3 == 0x1a and fm3 == 0x2d7ea4 and rm_val
      == 4  #nosat'
    : 1 #  rs1_val==fnorm(0x0cb602f5) and rs2_val==fnorm(0x3ff4055f) and rs3_val==fnorm(0x0d2d7ea4) | Guard = 0 Round = 1 Sticky = 1 --> IR ∈ (+MinSubNorm / 2, +MinSubNorm)
    ? 'fs1 == 0 and fe1 == 0x19 and fm1 == 0x3602f5 and fs2 == 0 and fe2 == 0x7f and
      fm2 == 0x74055f and fs3 == 0 and fe3 == 0x1a and fm3 == 0x2d7ea4 and rm_val
      == 3  #nosat'
    : 1 #  rs1_val==fnorm(0x0cb602f5) and rs2_val==fnorm(0x3ff4055f) and rs3_val==fnorm(0x0d2d7ea4) | Guard = 0 Round = 1 Sticky = 1 --> IR ∈ (+MinSubNorm / 2, +MinSubNorm)
    ? 'fs1 == 0 and fe1 == 0x19 and fm1 == 0x3602f5 and fs2 == 0 and fe2 == 0x7f and
      fm2 == 0x74055f and fs3 == 0 and fe3 == 0x1a and fm3 == 0x2d7ea4 and rm_val
      == 2  #nosat'
    : 1 #  rs1_val==fnorm(0x0cb602f5) and rs2_val==fnorm(0x3ff4055f) and rs3_val==fnorm(0x0d2d7ea4) | Guard = 0 Round = 1 Sticky = 1 --> IR ∈ (+MinSubNorm / 2, +MinSubNorm)
    ? 'fs1 == 0 and fe1 == 0x19 and fm1 == 0x3602f5 and fs2 == 0 and fe2 == 0x7f and
      fm2 == 0x74055f and fs3 == 0 and fe3 == 0x1a and fm3 == 0x2d7ea4 and rm_val
      == 1  #nosat'
    : 1 #  rs1_val==fnorm(0x0cb602f5) and rs2_val==fnorm(0x3ff4055f) and rs3_val==fnorm(0x0d2d7ea4) | Guard = 0 Round = 1 Sticky = 1 --> IR ∈ (+MinSubNorm / 2, +MinSubNorm)
    ? 'fs1 == 0 and fe1 == 0x19 and fm1 == 0x3602f5 and fs2 == 0 and fe2 == 0x7f and
      fm2 == 0x74055f and fs3 == 0 and fe3 == 0x1a and fm3 == 0x2d7ea4 and rm_val
      == 0  #nosat'
    : 1 #  rs1_val==fnorm(0x0cb602f5) and rs2_val==fnorm(0x3ff4055f) and rs3_val==fnorm(0x0d2d7ea4) | Guard = 0 Round = 1 Sticky = 1 --> IR ∈ (+MinSubNorm / 2, +MinSubNorm)
    ? 'fs1 == 0 and fe1 == 0x16 and fm1 == 0x70847f and fs2 == 0 and fe2 == 0x82 and
      fm2 == 0x5858c1 and fs3 == 0 and fe3 == 0x1a and fm3 == 0x4b432f and rm_val
      == 4  #nosat'
    : 1 #  rs1_val==fnorm(0x0b70847f) and rs2_val==fnorm(0x415858c1) and rs3_val==fnorm(0x0d4b432f) | Guard = 0 Round = 1 Sticky = 0 --> IR ∈ (+MinSubNorm / 2, +MinSubNorm)
    ? 'fs1 == 0 and fe1 == 0x16 and fm1 == 0x70847f and fs2 == 0 and fe2 == 0x82 and
      fm2 == 0x5858c1 and fs3 == 0 and fe3 == 0x1a and fm3 == 0x4b432f and rm_val
      == 3  #nosat'
    : 1 #  rs1_val==fnorm(0x0b70847f) and rs2_val==fnorm(0x415858c1) and rs3_val==fnorm(0x0d4b432f) | Guard = 0 Round = 1 Sticky = 0 --> IR ∈ (+MinSubNorm / 2, +MinSubNorm)
    ? 'fs1 == 0 and fe1 == 0x16 and fm1 == 0x70847f and fs2 == 0 and fe2 == 0x82 and
      fm2 == 0x5858c1 and fs3 == 0 and fe3 == 0x1a and fm3 == 0x4b432f and rm_val
      == 2  #nosat'
    : 1 #  rs1_val==fnorm(0x0b70847f) and rs2_val==fnorm(0x415858c1) and rs3_val==fnorm(0x0d4b432f) | Guard = 0 Round = 1 Sticky = 0 --> IR ∈ (+MinSubNorm / 2, +MinSubNorm)
    ? 'fs1 == 0 and fe1 == 0x16 and fm1 == 0x70847f and fs2 == 0 and fe2 == 0x82 and
      fm2 == 0x5858c1 and fs3 == 0 and fe3 == 0x1a and fm3 == 0x4b432f and rm_val
      == 1  #nosat'
    : 1 #  rs1_val==fnorm(0x0b70847f) and rs2_val==fnorm(0x415858c1) and rs3_val==fnorm(0x0d4b432f) | Guard = 0 Round = 1 Sticky = 0 --> IR ∈ (+MinSubNorm / 2, +MinSubNorm)
    ? 'fs1 == 0 and fe1 == 0x16 and fm1 == 0x70847f and fs2 == 0 and fe2 == 0x82 and
      fm2 == 0x5858c1 and fs3 == 0 and fe3 == 0x1a and fm3 == 0x4b432f and rm_val
      == 0  #nosat'
    : 1 #  rs1_val==fnorm(0x0b70847f) and rs2_val==fnorm(0x415858c1) and rs3_val==fnorm(0x0d4b432f) | Guard = 0 Round = 1 Sticky = 0 --> IR ∈ (+MinSubNorm / 2, +MinSubNorm)
    ? 'fs1 == 0 and fe1 == 0x1b and fm1 == 0x03d9c3 and fs2 == 0 and fe2 == 0x7a and
      fm2 == 0x59f349 and fs3 == 0 and fe3 == 0x16 and fm3 == 0x6081c8 and rm_val
      == 4  #nosat'
    : 1 #  rs1_val==fnorm(0x0d83d9c3) and rs2_val==fnorm(0x3d59f349) and rs3_val==fnorm(0x0b6081c8) | Guard = 0 Round = 0 Sticky = 1 --> IR ∈ (+MinSubNorm / 2, +MinSubNorm)
    ? 'fs1 == 0 and fe1 == 0x1b and fm1 == 0x03d9c3 and fs2 == 0 and fe2 == 0x7a and
      fm2 == 0x59f349 and fs3 == 0 and fe3 == 0x16 and fm3 == 0x6081c8 and rm_val
      == 3  #nosat'
    : 1 #  rs1_val==fnorm(0x0d83d9c3) and rs2_val==fnorm(0x3d59f349) and rs3_val==fnorm(0x0b6081c8) | Guard = 0 Round = 0 Sticky = 1 --> IR ∈ (+MinSubNorm / 2, +MinSubNorm)
    ? 'fs1 == 0 and fe1 == 0x1b and fm1 == 0x03d9c3 and fs2 == 0 and fe2 == 0x7a and
      fm2 == 0x59f349 and fs3 == 0 and fe3 == 0x16 and fm3 == 0x6081c8 and rm_val
      == 2  #nosat'
    : 1 #  rs1_val==fnorm(0x0d83d9c3) and rs2_val==fnorm(0x3d59f349) and rs3_val==fnorm(0x0b6081c8) | Guard = 0 Round = 0 Sticky = 1 --> IR ∈ (+MinSubNorm / 2, +MinSubNorm)
    ? 'fs1 == 0 and fe1 == 0x1b and fm1 == 0x03d9c3 and fs2 == 0 and fe2 == 0x7a and
      fm2 == 0x59f349 and fs3 == 0 and fe3 == 0x16 and fm3 == 0x6081c8 and rm_val
      == 1  #nosat'
    : 1 #  rs1_val==fnorm(0x0d83d9c3) and rs2_val==fnorm(0x3d59f349) and rs3_val==fnorm(0x0b6081c8) | Guard = 0 Round = 0 Sticky = 1 --> IR ∈ (+MinSubNorm / 2, +MinSubNorm)
    ? 'fs1 == 0 and fe1 == 0x1b and fm1 == 0x03d9c3 and fs2 == 0 and fe2 == 0x7a and
      fm2 == 0x59f349 and fs3 == 0 and fe3 == 0x16 and fm3 == 0x6081c8 and rm_val
      == 0  #nosat'
    : 1 #  rs1_val==fnorm(0x0d83d9c3) and rs2_val==fnorm(0x3d59f349) and rs3_val==fnorm(0x0b6081c8) | Guard = 0 Round = 0 Sticky = 1 --> IR ∈ (+MinSubNorm / 2, +MinSubNorm)
    ? 'fs1 == 0 and fe1 == 0x18 and fm1 == 0x5167f7 and fs2 == 0 and fe2 == 0x7f and
      fm2 == 0x721752 and fs3 == 0 and fe3 == 0x19 and fm3 == 0x46075c and rm_val
      == 4  #nosat'
    : 1 #  rs1_val==fnorm(0x0c5167f7) and rs2_val==fnorm(0x3ff21752) and rs3_val==fnorm(0x0cc6075c) | Guard = 1 Round = 1 Sticky = 1 --> IR ∈ (0, +MinSubNorm / 2)
    ? 'fs1 == 0 and fe1 == 0x18 and fm1 == 0x5167f7 and fs2 == 0 and fe2 == 0x7f and
      fm2 == 0x721752 and fs3 == 0 and fe3 == 0x19 and fm3 == 0x46075c and rm_val
      == 3  #nosat'
    : 1 #  rs1_val==fnorm(0x0c5167f7) and rs2_val==fnorm(0x3ff21752) and rs3_val==fnorm(0x0cc6075c) | Guard = 1 Round = 1 Sticky = 1 --> IR ∈ (0, +MinSubNorm / 2)
    ? 'fs1 == 0 and fe1 == 0x18 and fm1 == 0x5167f7 and fs2 == 0 and fe2 == 0x7f and
      fm2 == 0x721752 and fs3 == 0 and fe3 == 0x19 and fm3 == 0x46075c and rm_val
      == 2  #nosat'
    : 1 #  rs1_val==fnorm(0x0c5167f7) and rs2_val==fnorm(0x3ff21752) and rs3_val==fnorm(0x0cc6075c) | Guard = 1 Round = 1 Sticky = 1 --> IR ∈ (0, +MinSubNorm / 2)
    ? 'fs1 == 0 and fe1 == 0x18 and fm1 == 0x5167f7 and fs2 == 0 and fe2 == 0x7f and
      fm2 == 0x721752 and fs3 == 0 and fe3 == 0x19 and fm3 == 0x46075c and rm_val
      == 1  #nosat'
    : 1 #  rs1_val==fnorm(0x0c5167f7) and rs2_val==fnorm(0x3ff21752) and rs3_val==fnorm(0x0cc6075c) | Guard = 1 Round = 1 Sticky = 1 --> IR ∈ (0, +MinSubNorm / 2)
    ? 'fs1 == 0 and fe1 == 0x18 and fm1 == 0x5167f7 and fs2 == 0 and fe2 == 0x7f and
      fm2 == 0x721752 and fs3 == 0 and fe3 == 0x19 and fm3 == 0x46075c and rm_val
      == 0  #nosat'
    : 1 #  rs1_val==fnorm(0x0c5167f7) and rs2_val==fnorm(0x3ff21752) and rs3_val==fnorm(0x0cc6075c) | Guard = 1 Round = 1 Sticky = 1 --> IR ∈ (0, +MinSubNorm / 2)
    ? 'fs1 == 0 and fe1 == 0x1a and fm1 == 0x425bb3 and fs2 == 0 and fe2 == 0x7e and
      fm2 == 0x383ee2 and fs3 == 0 and fe3 == 0x1a and fm3 == 0x0be1a7 and rm_val
      == 4  #nosat'
    : 1 #  rs1_val==fnorm(0x0d425bb3) and rs2_val==fnorm(0x3f383ee2) and rs3_val==fnorm(0x0d0be1a7) | Guard = 1 Round = 1 Sticky = 0 --> IR ∈ (0, +MinSubNorm / 2)
    ? 'fs1 == 0 and fe1 == 0x1a and fm1 == 0x425bb3 and fs2 == 0 and fe2 == 0x7e and
      fm2 == 0x383ee2 and fs3 == 0 and fe3 == 0x1a and fm3 == 0x0be1a7 and rm_val
      == 3  #nosat'
    : 1 #  rs1_val==fnorm(0x0d425bb3) and rs2_val==fnorm(0x3f383ee2) and rs3_val==fnorm(0x0d0be1a7) | Guard = 1 Round = 1 Sticky = 0 --> IR ∈ (0, +MinSubNorm / 2)
    ? 'fs1 == 0 and fe1 == 0x1a and fm1 == 0x425bb3 and fs2 == 0 and fe2 == 0x7e and
      fm2 == 0x383ee2 and fs3 == 0 and fe3 == 0x1a and fm3 == 0x0be1a7 and rm_val
      == 2  #nosat'
    : 1 #  rs1_val==fnorm(0x0d425bb3) and rs2_val==fnorm(0x3f383ee2) and rs3_val==fnorm(0x0d0be1a7) | Guard = 1 Round = 1 Sticky = 0 --> IR ∈ (0, +MinSubNorm / 2)
    ? 'fs1 == 0 and fe1 == 0x1a and fm1 == 0x425bb3 and fs2 == 0 and fe2 == 0x7e and
      fm2 == 0x383ee2 and fs3 == 0 and fe3 == 0x1a and fm3 == 0x0be1a7 and rm_val
      == 1  #nosat'
    : 1 #  rs1_val==fnorm(0x0d425bb3) and rs2_val==fnorm(0x3f383ee2) and rs3_val==fnorm(0x0d0be1a7) | Guard = 1 Round = 1 Sticky = 0 --> IR ∈ (0, +MinSubNorm / 2)
    ? 'fs1 == 0 and fe1 == 0x1a and fm1 == 0x425bb3 and fs2 == 0 and fe2 == 0x7e and
      fm2 == 0x383ee2 and fs3 == 0 and fe3 == 0x1a and fm3 == 0x0be1a7 and rm_val
      == 0  #nosat'
    : 1 #  rs1_val==fnorm(0x0d425bb3) and rs2_val==fnorm(0x3f383ee2) and rs3_val==fnorm(0x0d0be1a7) | Guard = 1 Round = 1 Sticky = 0 --> IR ∈ (0, +MinSubNorm / 2)
    ? 'fs1 == 0 and fe1 == 0x1a and fm1 == 0x24f9ec and fs2 == 0 and fe2 == 0x7e and
      fm2 == 0x50732e and fs3 == 0 and fe3 == 0x1a and fm3 == 0x06554a and rm_val
      == 4  #nosat'
    : 1 #  rs1_val==fnorm(0x0d24f9ec) and rs2_val==fnorm(0x3f50732e) and rs3_val==fnorm(0x0d06554a) | Guard = 1 Round = 0 Sticky = 1 --> IR ∈ (0, +MinSubNorm / 2)
    ? 'fs1 == 0 and fe1 == 0x1a and fm1 == 0x24f9ec and fs2 == 0 and fe2 == 0x7e and
      fm2 == 0x50732e and fs3 == 0 and fe3 == 0x1a and fm3 == 0x06554a and rm_val
      == 3  #nosat'
    : 1 #  rs1_val==fnorm(0x0d24f9ec) and rs2_val==fnorm(0x3f50732e) and rs3_val==fnorm(0x0d06554a) | Guard = 1 Round = 0 Sticky = 1 --> IR ∈ (0, +MinSubNorm / 2)
    ? 'fs1 == 0 and fe1 == 0x1a and fm1 == 0x24f9ec and fs2 == 0 and fe2 == 0x7e and
      fm2 == 0x50732e and fs3 == 0 and fe3 == 0x1a and fm3 == 0x06554a and rm_val
      == 2  #nosat'
    : 1 #  rs1_val==fnorm(0x0d24f9ec) and rs2_val==fnorm(0x3f50732e) and rs3_val==fnorm(0x0d06554a) | Guard = 1 Round = 0 Sticky = 1 --> IR ∈ (0, +MinSubNorm / 2)
    ? 'fs1 == 0 and fe1 == 0x1a and fm1 == 0x24f9ec and fs2 == 0 and fe2 == 0x7e and
      fm2 == 0x50732e and fs3 == 0 and fe3 == 0x1a and fm3 == 0x06554a and rm_val
      == 1  #nosat'
    : 1 #  rs1_val==fnorm(0x0d24f9ec) and rs2_val==fnorm(0x3f50732e) and rs3_val==fnorm(0x0d06554a) | Guard = 1 Round = 0 Sticky = 1 --> IR ∈ (0, +MinSubNorm / 2)
    ? 'fs1 == 0 and fe1 == 0x1a and fm1 == 0x24f9ec and fs2 == 0 and fe2 == 0x7e and
      fm2 == 0x50732e and fs3 == 0 and fe3 == 0x1a and fm3 == 0x06554a and rm_val
      == 0  #nosat'
    : 1 #  rs1_val==fnorm(0x0d24f9ec) and rs2_val==fnorm(0x3f50732e) and rs3_val==fnorm(0x0d06554a) | Guard = 1 Round = 0 Sticky = 1 --> IR ∈ (0, +MinSubNorm / 2)
    ? 'fs1 == 0 and fe1 == 0x1b and fm1 == 0x0f2a06 and fs2 == 0 and fe2 == 0x7e and
      fm2 == 0x760e49 and fs3 == 0 and fe3 == 0x1b and fm3 == 0x099a5f and rm_val
      == 4  #nosat'
    : 1 #  rs1_val==fnorm(0x0d8f2a06) and rs2_val==fnorm(0x3f760e49) and rs3_val==fnorm(0x0d899a5f) | Guard = 1 Round = 0 Sticky = 0 --> IR ∈ (0, +MinSubNorm / 2)
    ? 'fs1 == 0 and fe1 == 0x1b and fm1 == 0x0f2a06 and fs2 == 0 and fe2 == 0x7e and
      fm2 == 0x760e49 and fs3 == 0 and fe3 == 0x1b and fm3 == 0x099a5f and rm_val
      == 3  #nosat'
    : 1 #  rs1_val==fnorm(0x0d8f2a06) and rs2_val==fnorm(0x3f760e49) and rs3_val==fnorm(0x0d899a5f) | Guard = 1 Round = 0 Sticky = 0 --> IR ∈ (0, +MinSubNorm / 2)
    ? 'fs1 == 0 and fe1 == 0x1b and fm1 == 0x0f2a06 and fs2 == 0 and fe2 == 0x7e and
      fm2 == 0x760e49 and fs3 == 0 and fe3 == 0x1b and fm3 == 0x099a5f and rm_val
      == 2  #nosat'
    : 1 #  rs1_val==fnorm(0x0d8f2a06) and rs2_val==fnorm(0x3f760e49) and rs3_val==fnorm(0x0d899a5f) | Guard = 1 Round = 0 Sticky = 0 --> IR ∈ (0, +MinSubNorm / 2)
    ? 'fs1 == 0 and fe1 == 0x1b and fm1 == 0x0f2a06 and fs2 == 0 and fe2 == 0x7e and
      fm2 == 0x760e49 and fs3 == 0 and fe3 == 0x1b and fm3 == 0x099a5f and rm_val
      == 1  #nosat'
    : 1 #  rs1_val==fnorm(0x0d8f2a06) and rs2_val==fnorm(0x3f760e49) and rs3_val==fnorm(0x0d899a5f) | Guard = 1 Round = 0 Sticky = 0 --> IR ∈ (0, +MinSubNorm / 2)
    ? 'fs1 == 0 and fe1 == 0x1b and fm1 == 0x0f2a06 and fs2 == 0 and fe2 == 0x7e and
      fm2 == 0x760e49 and fs3 == 0 and fe3 == 0x1b and fm3 == 0x099a5f and rm_val
      == 0  #nosat'
    : 1 #  rs1_val==fnorm(0x0d8f2a06) and rs2_val==fnorm(0x3f760e49) and rs3_val==fnorm(0x0d899a5f) | Guard = 1 Round = 0 Sticky = 0 --> IR ∈ (0, +MinSubNorm / 2)
    ? 'fs1 == 0 and fe1 == 0x1b and fm1 == 0x1378fe and fs2 == 0 and fe2 == 0x7e and
      fm2 == 0x2137b5 and fs3 == 0 and fe3 == 0x1a and fm3 == 0x39be5f and rm_val
      == 4  #nosat'
    : 1 #  rs1_val==fnorm(0x0d9378fe) and rs2_val==fnorm(0x3f2137b5) and rs3_val==fnorm(0x0d39be5f) | Guard = 0 Round = 1 Sticky = 1 --> IR ∈ (0, +MinSubNorm / 2)
    ? 'fs1 == 0 and fe1 == 0x1b and fm1 == 0x1378fe and fs2 == 0 and fe2 == 0x7e and
      fm2 == 0x2137b5 and fs3 == 0 and fe3 == 0x1a and fm3 == 0x39be5f and rm_val
      == 3  #nosat'
    : 1 #  rs1_val==fnorm(0x0d9378fe) and rs2_val==fnorm(0x3f2137b5) and rs3_val==fnorm(0x0d39be5f) | Guard = 0 Round = 1 Sticky = 1 --> IR ∈ (0, +MinSubNorm / 2)
    ? 'fs1 == 0 and fe1 == 0x1b and fm1 == 0x1378fe and fs2 == 0 and fe2 == 0x7e and
      fm2 == 0x2137b5 and fs3 == 0 and fe3 == 0x1a and fm3 == 0x39be5f and rm_val
      == 2  #nosat'
    : 1 #  rs1_val==fnorm(0x0d9378fe) and rs2_val==fnorm(0x3f2137b5) and rs3_val==fnorm(0x0d39be5f) | Guard = 0 Round = 1 Sticky = 1 --> IR ∈ (0, +MinSubNorm / 2)
    ? 'fs1 == 0 and fe1 == 0x1b and fm1 == 0x1378fe and fs2 == 0 and fe2 == 0x7e and
      fm2 == 0x2137b5 and fs3 == 0 and fe3 == 0x1a and fm3 == 0x39be5f and rm_val
      == 1  #nosat'
    : 1 #  rs1_val==fnorm(0x0d9378fe) and rs2_val==fnorm(0x3f2137b5) and rs3_val==fnorm(0x0d39be5f) | Guard = 0 Round = 1 Sticky = 1 --> IR ∈ (0, +MinSubNorm / 2)
    ? 'fs1 == 0 and fe1 == 0x1b and fm1 == 0x1378fe and fs2 == 0 and fe2 == 0x7e and
      fm2 == 0x2137b5 and fs3 == 0 and fe3 == 0x1a and fm3 == 0x39be5f and rm_val
      == 0  #nosat'
    : 1 #  rs1_val==fnorm(0x0d9378fe) and rs2_val==fnorm(0x3f2137b5) and rs3_val==fnorm(0x0d39be5f) | Guard = 0 Round = 1 Sticky = 1 --> IR ∈ (0, +MinSubNorm / 2)
    ? 'fs1 == 0 and fe1 == 0x1a and fm1 == 0x31b80e and fs2 == 0 and fe2 == 0x7e and
      fm2 == 0x0c5a70 and fs3 == 0 and fe3 == 0x19 and fm3 == 0x42dee1 and rm_val
      == 4  #nosat'
    : 1 #  rs1_val==fnorm(0x0d31b80e) and rs2_val==fnorm(0x3f0c5a70) and rs3_val==fnorm(0x0cc2dee1) | Guard = 0 Round = 1 Sticky = 0 --> IR ∈ (0, +MinSubNorm / 2)
    ? 'fs1 == 0 and fe1 == 0x1a and fm1 == 0x31b80e and fs2 == 0 and fe2 == 0x7e and
      fm2 == 0x0c5a70 and fs3 == 0 and fe3 == 0x19 and fm3 == 0x42dee1 and rm_val
      == 3  #nosat'
    : 1 #  rs1_val==fnorm(0x0d31b80e) and rs2_val==fnorm(0x3f0c5a70) and rs3_val==fnorm(0x0cc2dee1) | Guard = 0 Round = 1 Sticky = 0 --> IR ∈ (0, +MinSubNorm / 2)
    ? 'fs1 == 0 and fe1 == 0x1a and fm1 == 0x31b80e and fs2 == 0 and fe2 == 0x7e and
      fm2 == 0x0c5a70 and fs3 == 0 and fe3 == 0x19 and fm3 == 0x42dee1 and rm_val
      == 2  #nosat'
    : 1 #  rs1_val==fnorm(0x0d31b80e) and rs2_val==fnorm(0x3f0c5a70) and rs3_val==fnorm(0x0cc2dee1) | Guard = 0 Round = 1 Sticky = 0 --> IR ∈ (0, +MinSubNorm / 2)
    ? 'fs1 == 0 and fe1 == 0x1a and fm1 == 0x31b80e and fs2 == 0 and fe2 == 0x7e and
      fm2 == 0x0c5a70 and fs3 == 0 and fe3 == 0x19 and fm3 == 0x42dee1 and rm_val
      == 1  #nosat'
    : 1 #  rs1_val==fnorm(0x0d31b80e) and rs2_val==fnorm(0x3f0c5a70) and rs3_val==fnorm(0x0cc2dee1) | Guard = 0 Round = 1 Sticky = 0 --> IR ∈ (0, +MinSubNorm / 2)
    ? 'fs1 == 0 and fe1 == 0x1a and fm1 == 0x31b80e and fs2 == 0 and fe2 == 0x7e and
      fm2 == 0x0c5a70 and fs3 == 0 and fe3 == 0x19 and fm3 == 0x42dee1 and rm_val
      == 0  #nosat'
    : 1 #  rs1_val==fnorm(0x0d31b80e) and rs2_val==fnorm(0x3f0c5a70) and rs3_val==fnorm(0x0cc2dee1) | Guard = 0 Round = 1 Sticky = 0 --> IR ∈ (0, +MinSubNorm / 2)
    ? 'fs1 == 0 and fe1 == 0x1b and fm1 == 0x17a548 and fs2 == 0 and fe2 == 0x7e and
      fm2 == 0x6d1237 and fs3 == 0 and fe3 == 0x1b and fm3 == 0x0c6ece and rm_val
      == 4  #nosat'
    : 1 #  rs1_val==fnorm(0x0d97a548) and rs2_val==fnorm(0x3f6d1237) and rs3_val==fnorm(0x0d8c6ece) | Guard = 0 Round = 0 Sticky = 1 --> IR ∈ (0, +MinSubNorm / 2)
    ? 'fs1 == 0 and fe1 == 0x1b and fm1 == 0x17a548 and fs2 == 0 and fe2 == 0x7e and
      fm2 == 0x6d1237 and fs3 == 0 and fe3 == 0x1b and fm3 == 0x0c6ece and rm_val
      == 3  #nosat'
    : 1 #  rs1_val==fnorm(0x0d97a548) and rs2_val==fnorm(0x3f6d1237) and rs3_val==fnorm(0x0d8c6ece) | Guard = 0 Round = 0 Sticky = 1 --> IR ∈ (0, +MinSubNorm / 2)
    ? 'fs1 == 0 and fe1 == 0x1b and fm1 == 0x17a548 and fs2 == 0 and fe2 == 0x7e and
      fm2 == 0x6d1237 and fs3 == 0 and fe3 == 0x1b and fm3 == 0x0c6ece and rm_val
      == 2  #nosat'
    : 1 #  rs1_val==fnorm(0x0d97a548) and rs2_val==fnorm(0x3f6d1237) and rs3_val==fnorm(0x0d8c6ece) | Guard = 0 Round = 0 Sticky = 1 --> IR ∈ (0, +MinSubNorm / 2)
    ? 'fs1 == 0 and fe1 == 0x1b and fm1 == 0x17a548 and fs2 == 0 and fe2 == 0x7e and
      fm2 == 0x6d1237 and fs3 == 0 and fe3 == 0x1b and fm3 == 0x0c6ece and rm_val
      == 1  #nosat'
    : 1 #  rs1_val==fnorm(0x0d97a548) and rs2_val==fnorm(0x3f6d1237) and rs3_val==fnorm(0x0d8c6ece) | Guard = 0 Round = 0 Sticky = 1 --> IR ∈ (0, +MinSubNorm / 2)
    ? 'fs1 == 0 and fe1 == 0x1b and fm1 == 0x17a548 and fs2 == 0 and fe2 == 0x7e and
      fm2 == 0x6d1237 and fs3 == 0 and fe3 == 0x1b and fm3 == 0x0c6ece and rm_val
      == 0  #nosat'
    : 1 #  rs1_val==fnorm(0x0d97a548) and rs2_val==fnorm(0x3f6d1237) and rs3_val==fnorm(0x0d8c6ece) | Guard = 0 Round = 0 Sticky = 1 --> IR ∈ (0, +MinSubNorm / 2)
    ? 'fs1 == 0 and fe1 == 0x1a and fm1 == 0x19b024 and fs2 == 0 and fe2 == 0x7c and
      fm2 == 0x412f99 and fs3 == 0 and fe3 == 0x17 and fm3 == 0x67f4bd and rm_val
      == 4  #nosat'
    : 1 #  rs1_val==fnorm(0x0d19b024) and rs2_val==fnorm(0x3e412f99) and rs3_val==fnorm(0x0be7f4bd) | Guard = 1 Round = 1 Sticky = 1 --> IR ∈ (-MinSubNorm / 2, 0)
    ? 'fs1 == 0 and fe1 == 0x1a and fm1 == 0x19b024 and fs2 == 0 and fe2 == 0x7c and
      fm2 == 0x412f99 and fs3 == 0 and fe3 == 0x17 and fm3 == 0x67f4bd and rm_val
      == 3  #nosat'
    : 1 #  rs1_val==fnorm(0x0d19b024) and rs2_val==fnorm(0x3e412f99) and rs3_val==fnorm(0x0be7f4bd) | Guard = 1 Round = 1 Sticky = 1 --> IR ∈ (-MinSubNorm / 2, 0)
    ? 'fs1 == 0 and fe1 == 0x1a and fm1 == 0x19b024 and fs2 == 0 and fe2 == 0x7c and
      fm2 == 0x412f99 and fs3 == 0 and fe3 == 0x17 and fm3 == 0x67f4bd and rm_val
      == 2  #nosat'
    : 1 #  rs1_val==fnorm(0x0d19b024) and rs2_val==fnorm(0x3e412f99) and rs3_val==fnorm(0x0be7f4bd) | Guard = 1 Round = 1 Sticky = 1 --> IR ∈ (-MinSubNorm / 2, 0)
    ? 'fs1 == 0 and fe1 == 0x1a and fm1 == 0x19b024 and fs2 == 0 and fe2 == 0x7c and
      fm2 == 0x412f99 and fs3 == 0 and fe3 == 0x17 and fm3 == 0x67f4bd and rm_val
      == 1  #nosat'
    : 1 #  rs1_val==fnorm(0x0d19b024) and rs2_val==fnorm(0x3e412f99) and rs3_val==fnorm(0x0be7f4bd) | Guard = 1 Round = 1 Sticky = 1 --> IR ∈ (-MinSubNorm / 2, 0)
    ? 'fs1 == 0 and fe1 == 0x1a and fm1 == 0x19b024 and fs2 == 0 and fe2 == 0x7c and
      fm2 == 0x412f99 and fs3 == 0 and fe3 == 0x17 and fm3 == 0x67f4bd and rm_val
      == 0  #nosat'
    : 1 #  rs1_val==fnorm(0x0d19b024) and rs2_val==fnorm(0x3e412f99) and rs3_val==fnorm(0x0be7f4bd) | Guard = 1 Round = 1 Sticky = 1 --> IR ∈ (-MinSubNorm / 2, 0)
    ? 'fs1 == 0 and fe1 == 0x1a and fm1 == 0x2430fe and fs2 == 0 and fe2 == 0x7d and
      fm2 == 0x33ea2f and fs3 == 0 and fe3 == 0x18 and fm3 == 0x66c8eb and rm_val
      == 4  #nosat'
    : 1 #  rs1_val==fnorm(0x0d2430fe) and rs2_val==fnorm(0x3eb3ea2f) and rs3_val==fnorm(0x0c66c8eb) | Guard = 1 Round = 1 Sticky = 0 --> IR ∈ (-MinSubNorm / 2, 0)
    ? 'fs1 == 0 and fe1 == 0x1a and fm1 == 0x2430fe and fs2 == 0 and fe2 == 0x7d and
      fm2 == 0x33ea2f and fs3 == 0 and fe3 == 0x18 and fm3 == 0x66c8eb and rm_val
      == 3  #nosat'
    : 1 #  rs1_val==fnorm(0x0d2430fe) and rs2_val==fnorm(0x3eb3ea2f) and rs3_val==fnorm(0x0c66c8eb) | Guard = 1 Round = 1 Sticky = 0 --> IR ∈ (-MinSubNorm / 2, 0)
    ? 'fs1 == 0 and fe1 == 0x1a and fm1 == 0x2430fe and fs2 == 0 and fe2 == 0x7d and
      fm2 == 0x33ea2f and fs3 == 0 and fe3 == 0x18 and fm3 == 0x66c8eb and rm_val
      == 2  #nosat'
    : 1 #  rs1_val==fnorm(0x0d2430fe) and rs2_val==fnorm(0x3eb3ea2f) and rs3_val==fnorm(0x0c66c8eb) | Guard = 1 Round = 1 Sticky = 0 --> IR ∈ (-MinSubNorm / 2, 0)
    ? 'fs1 == 0 and fe1 == 0x1a and fm1 == 0x2430fe and fs2 == 0 and fe2 == 0x7d and
      fm2 == 0x33ea2f and fs3 == 0 and fe3 == 0x18 and fm3 == 0x66c8eb and rm_val
      == 1  #nosat'
    : 1 #  rs1_val==fnorm(0x0d2430fe) and rs2_val==fnorm(0x3eb3ea2f) and rs3_val==fnorm(0x0c66c8eb) | Guard = 1 Round = 1 Sticky = 0 --> IR ∈ (-MinSubNorm / 2, 0)
    ? 'fs1 == 0 and fe1 == 0x1a and fm1 == 0x2430fe and fs2 == 0 and fe2 == 0x7d and
      fm2 == 0x33ea2f and fs3 == 0 and fe3 == 0x18 and fm3 == 0x66c8eb and rm_val
      == 0  #nosat'
    : 1 #  rs1_val==fnorm(0x0d2430fe) and rs2_val==fnorm(0x3eb3ea2f) and rs3_val==fnorm(0x0c66c8eb) | Guard = 1 Round = 1 Sticky = 0 --> IR ∈ (-MinSubNorm / 2, 0)
    ? 'fs1 == 0 and fe1 == 0x1a and fm1 == 0x449c34 and fs2 == 0 and fe2 == 0x7f and
      fm2 == 0x0de987 and fs3 == 0 and fe3 == 0x1a and fm3 == 0x59fac6 and rm_val
      == 4  #nosat'
    : 1 #  rs1_val==fnorm(0x0d449c34) and rs2_val==fnorm(0x3f8de987) and rs3_val==fnorm(0x0d59fac6) | Guard = 1 Round = 0 Sticky = 1 --> IR ∈ (-MinSubNorm / 2, 0)
    ? 'fs1 == 0 and fe1 == 0x1a and fm1 == 0x449c34 and fs2 == 0 and fe2 == 0x7f and
      fm2 == 0x0de987 and fs3 == 0 and fe3 == 0x1a and fm3 == 0x59fac6 and rm_val
      == 3  #nosat'
    : 1 #  rs1_val==fnorm(0x0d449c34) and rs2_val==fnorm(0x3f8de987) and rs3_val==fnorm(0x0d59fac6) | Guard = 1 Round = 0 Sticky = 1 --> IR ∈ (-MinSubNorm / 2, 0)
    ? 'fs1 == 0 and fe1 == 0x1a and fm1 == 0x449c34 and fs2 == 0 and fe2 == 0x7f and
      fm2 == 0x0de987 and fs3 == 0 and fe3 == 0x1a and fm3 == 0x59fac6 and rm_val
      == 2  #nosat'
    : 1 #  rs1_val==fnorm(0x0d449c34) and rs2_val==fnorm(0x3f8de987) and rs3_val==fnorm(0x0d59fac6) | Guard = 1 Round = 0 Sticky = 1 --> IR ∈ (-MinSubNorm / 2, 0)
    ? 'fs1 == 0 and fe1 == 0x1a and fm1 == 0x449c34 and fs2 == 0 and fe2 == 0x7f and
      fm2 == 0x0de987 and fs3 == 0 and fe3 == 0x1a and fm3 == 0x59fac6 and rm_val
      == 1  #nosat'
    : 1 #  rs1_val==fnorm(0x0d449c34) and rs2_val==fnorm(0x3f8de987) and rs3_val==fnorm(0x0d59fac6) | Guard = 1 Round = 0 Sticky = 1 --> IR ∈ (-MinSubNorm / 2, 0)
    ? 'fs1 == 0 and fe1 == 0x1a and fm1 == 0x449c34 and fs2 == 0 and fe2 == 0x7f and
      fm2 == 0x0de987 and fs3 == 0 and fe3 == 0x1a and fm3 == 0x59fac6 and rm_val
      == 0  #nosat'
    : 1 #  rs1_val==fnorm(0x0d449c34) and rs2_val==fnorm(0x3f8de987) and rs3_val==fnorm(0x0d59fac6) | Guard = 1 Round = 0 Sticky = 1 --> IR ∈ (-MinSubNorm / 2, 0)
    ? 'fs1 == 0 and fe1 == 0x1b and fm1 == 0x0ecbe0 and fs2 == 0 and fe2 == 0x7b and
      fm2 == 0x49ce2d and fs3 == 0 and fe3 == 0x17 and fm3 == 0x61222a and rm_val
      == 4  #nosat'
    : 1 #  rs1_val==fnorm(0x0d8ecbe0) and rs2_val==fnorm(0x3dc9ce2d) and rs3_val==fnorm(0x0be1222a) | Guard = 1 Round = 0 Sticky = 0 --> IR ∈ (-MinSubNorm / 2, 0)
    ? 'fs1 == 0 and fe1 == 0x1b and fm1 == 0x0ecbe0 and fs2 == 0 and fe2 == 0x7b and
      fm2 == 0x49ce2d and fs3 == 0 and fe3 == 0x17 and fm3 == 0x61222a and rm_val
      == 3  #nosat'
    : 1 #  rs1_val==fnorm(0x0d8ecbe0) and rs2_val==fnorm(0x3dc9ce2d) and rs3_val==fnorm(0x0be1222a) | Guard = 1 Round = 0 Sticky = 0 --> IR ∈ (-MinSubNorm / 2, 0)
    ? 'fs1 == 0 and fe1 == 0x1b and fm1 == 0x0ecbe0 and fs2 == 0 and fe2 == 0x7b and
      fm2 == 0x49ce2d and fs3 == 0 and fe3 == 0x17 and fm3 == 0x61222a and rm_val
      == 2  #nosat'
    : 1 #  rs1_val==fnorm(0x0d8ecbe0) and rs2_val==fnorm(0x3dc9ce2d) and rs3_val==fnorm(0x0be1222a) | Guard = 1 Round = 0 Sticky = 0 --> IR ∈ (-MinSubNorm / 2, 0)
    ? 'fs1 == 0 and fe1 == 0x1b and fm1 == 0x0ecbe0 and fs2 == 0 and fe2 == 0x7b and
      fm2 == 0x49ce2d and fs3 == 0 and fe3 == 0x17 and fm3 == 0x61222a and rm_val
      == 1  #nosat'
    : 1 #  rs1_val==fnorm(0x0d8ecbe0) and rs2_val==fnorm(0x3dc9ce2d) and rs3_val==fnorm(0x0be1222a) | Guard = 1 Round = 0 Sticky = 0 --> IR ∈ (-MinSubNorm / 2, 0)
    ? 'fs1 == 0 and fe1 == 0x1b and fm1 == 0x0ecbe0 and fs2 == 0 and fe2 == 0x7b and
      fm2 == 0x49ce2d and fs3 == 0 and fe3 == 0x17 and fm3 == 0x61222a and rm_val
      == 0  #nosat'
    : 1 #  rs1_val==fnorm(0x0d8ecbe0) and rs2_val==fnorm(0x3dc9ce2d) and rs3_val==fnorm(0x0be1222a) | Guard = 1 Round = 0 Sticky = 0 --> IR ∈ (-MinSubNorm / 2, 0)
    ? 'fs1 == 0 and fe1 == 0x1a and fm1 == 0x6d836e and fs2 == 0 and fe2 == 0x7f and
      fm2 == 0x1577dc and fs3 == 0 and fe3 == 0x1b and fm3 == 0x0aacb4 and rm_val
      == 4  #nosat'
    : 1 #  rs1_val==fnorm(0x0d6d836e) and rs2_val==fnorm(0x3f9577dc) and rs3_val==fnorm(0x0d8aacb4) | Guard = 0 Round = 1 Sticky = 1 --> IR ∈ (-MinSubNorm / 2, 0)
    ? 'fs1 == 0 and fe1 == 0x1a and fm1 == 0x6d836e and fs2 == 0 and fe2 == 0x7f and
      fm2 == 0x1577dc and fs3 == 0 and fe3 == 0x1b and fm3 == 0x0aacb4 and rm_val
      == 3  #nosat'
    : 1 #  rs1_val==fnorm(0x0d6d836e) and rs2_val==fnorm(0x3f9577dc) and rs3_val==fnorm(0x0d8aacb4) | Guard = 0 Round = 1 Sticky = 1 --> IR ∈ (-MinSubNorm / 2, 0)
    ? 'fs1 == 0 and fe1 == 0x1a and fm1 == 0x6d836e and fs2 == 0 and fe2 == 0x7f and
      fm2 == 0x1577dc and fs3 == 0 and fe3 == 0x1b and fm3 == 0x0aacb4 and rm_val
      == 2  #nosat'
    : 1 #  rs1_val==fnorm(0x0d6d836e) and rs2_val==fnorm(0x3f9577dc) and rs3_val==fnorm(0x0d8aacb4) | Guard = 0 Round = 1 Sticky = 1 --> IR ∈ (-MinSubNorm / 2, 0)
    ? 'fs1 == 0 and fe1 == 0x1a and fm1 == 0x6d836e and fs2 == 0 and fe2 == 0x7f and
      fm2 == 0x1577dc and fs3 == 0 and fe3 == 0x1b and fm3 == 0x0aacb4 and rm_val
      == 1  #nosat'
    : 1 #  rs1_val==fnorm(0x0d6d836e) and rs2_val==fnorm(0x3f9577dc) and rs3_val==fnorm(0x0d8aacb4) | Guard = 0 Round = 1 Sticky = 1 --> IR ∈ (-MinSubNorm / 2, 0)
    ? 'fs1 == 0 and fe1 == 0x1a and fm1 == 0x6d836e and fs2 == 0 and fe2 == 0x7f and
      fm2 == 0x1577dc and fs3 == 0 and fe3 == 0x1b and fm3 == 0x0aacb4 and rm_val
      == 0  #nosat'
    : 1 #  rs1_val==fnorm(0x0d6d836e) and rs2_val==fnorm(0x3f9577dc) and rs3_val==fnorm(0x0d8aacb4) | Guard = 0 Round = 1 Sticky = 1 --> IR ∈ (-MinSubNorm / 2, 0)
    ? 'fs1 == 0 and fe1 == 0x19 and fm1 == 0x491aa7 and fs2 == 0 and fe2 == 0x80 and
      fm2 == 0x0180b7 and fs3 == 0 and fe3 == 0x1a and fm3 == 0x4b7718 and rm_val
      == 4  #nosat'
    : 1 #  rs1_val==fnorm(0x0cc91aa7) and rs2_val==fnorm(0x400180b7) and rs3_val==fnorm(0x0d4b7718) | Guard = 0 Round = 1 Sticky = 0 --> IR ∈ (-MinSubNorm / 2, 0)
    ? 'fs1 == 0 and fe1 == 0x19 and fm1 == 0x491aa7 and fs2 == 0 and fe2 == 0x80 and
      fm2 == 0x0180b7 and fs3 == 0 and fe3 == 0x1a and fm3 == 0x4b7718 and rm_val
      == 3  #nosat'
    : 1 #  rs1_val==fnorm(0x0cc91aa7) and rs2_val==fnorm(0x400180b7) and rs3_val==fnorm(0x0d4b7718) | Guard = 0 Round = 1 Sticky = 0 --> IR ∈ (-MinSubNorm / 2, 0)
    ? 'fs1 == 0 and fe1 == 0x19 and fm1 == 0x491aa7 and fs2 == 0 and fe2 == 0x80 and
      fm2 == 0x0180b7 and fs3 == 0 and fe3 == 0x1a and fm3 == 0x4b7718 and rm_val
      == 2  #nosat'
    : 1 #  rs1_val==fnorm(0x0cc91aa7) and rs2_val==fnorm(0x400180b7) and rs3_val==fnorm(0x0d4b7718) | Guard = 0 Round = 1 Sticky = 0 --> IR ∈ (-MinSubNorm / 2, 0)
    ? 'fs1 == 0 and fe1 == 0x19 and fm1 == 0x491aa7 and fs2 == 0 and fe2 == 0x80 and
      fm2 == 0x0180b7 and fs3 == 0 and fe3 == 0x1a and fm3 == 0x4b7718 and rm_val
      == 1  #nosat'
    : 1 #  rs1_val==fnorm(0x0cc91aa7) and rs2_val==fnorm(0x400180b7) and rs3_val==fnorm(0x0d4b7718) | Guard = 0 Round = 1 Sticky = 0 --> IR ∈ (-MinSubNorm / 2, 0)
    ? 'fs1 == 0 and fe1 == 0x19 and fm1 == 0x491aa7 and fs2 == 0 and fe2 == 0x80 and
      fm2 == 0x0180b7 and fs3 == 0 and fe3 == 0x1a and fm3 == 0x4b7718 and rm_val
      == 0  #nosat'
    : 1 #  rs1_val==fnorm(0x0cc91aa7) and rs2_val==fnorm(0x400180b7) and rs3_val==fnorm(0x0d4b7718) | Guard = 0 Round = 1 Sticky = 0 --> IR ∈ (-MinSubNorm / 2, 0)
    ? 'fs1 == 0 and fe1 == 0x1b and fm1 == 0x01e14d and fs2 == 0 and fe2 == 0x7c and
      fm2 == 0x777585 and fs3 == 0 and fe3 == 0x18 and fm3 == 0x7b1802 and rm_val
      == 4  #nosat'
    : 1 #  rs1_val==fnorm(0x0d81e14d) and rs2_val==fnorm(0x3e777585) and rs3_val==fnorm(0x0c7b1802) | Guard = 0 Round = 0 Sticky = 1 --> IR ∈ (-MinSubNorm / 2, 0)
    ? 'fs1 == 0 and fe1 == 0x1b and fm1 == 0x01e14d and fs2 == 0 and fe2 == 0x7c and
      fm2 == 0x777585 and fs3 == 0 and fe3 == 0x18 and fm3 == 0x7b1802 and rm_val
      == 3  #nosat'
    : 1 #  rs1_val==fnorm(0x0d81e14d) and rs2_val==fnorm(0x3e777585) and rs3_val==fnorm(0x0c7b1802) | Guard = 0 Round = 0 Sticky = 1 --> IR ∈ (-MinSubNorm / 2, 0)
    ? 'fs1 == 0 and fe1 == 0x1b and fm1 == 0x01e14d and fs2 == 0 and fe2 == 0x7c and
      fm2 == 0x777585 and fs3 == 0 and fe3 == 0x18 and fm3 == 0x7b1802 and rm_val
      == 2  #nosat'
    : 1 #  rs1_val==fnorm(0x0d81e14d) and rs2_val==fnorm(0x3e777585) and rs3_val==fnorm(0x0c7b1802) | Guard = 0 Round = 0 Sticky = 1 --> IR ∈ (-MinSubNorm / 2, 0)
    ? 'fs1 == 0 and fe1 == 0x1b and fm1 == 0x01e14d and fs2 == 0 and fe2 == 0x7c and
      fm2 == 0x777585 and fs3 == 0 and fe3 == 0x18 and fm3 == 0x7b1802 and rm_val
      == 1  #nosat'
    : 1 #  rs1_val==fnorm(0x0d81e14d) and rs2_val==fnorm(0x3e777585) and rs3_val==fnorm(0x0c7b1802) | Guard = 0 Round = 0 Sticky = 1 --> IR ∈ (-MinSubNorm / 2, 0)
    ? 'fs1 == 0 and fe1 == 0x1b and fm1 == 0x01e14d and fs2 == 0 and fe2 == 0x7c and
      fm2 == 0x777585 and fs3 == 0 and fe3 == 0x18 and fm3 == 0x7b1802 and rm_val
      == 0  #nosat'
    : 1 #  rs1_val==fnorm(0x0d81e14d) and rs2_val==fnorm(0x3e777585) and rs3_val==fnorm(0x0c7b1802) | Guard = 0 Round = 0 Sticky = 1 --> IR ∈ (-MinSubNorm / 2, 0)
    ? 'fs1 == 0 and fe1 == 0x1b and fm1 == 0x067ffd and fs2 == 0 and fe2 == 0x7e and
      fm2 == 0x791f79 and fs3 == 0 and fe3 == 0x1b and fm3 == 0x02e307 and rm_val
      == 4  #nosat'
    : 1 #  rs1_val==fnorm(0x0d867ffd) and rs2_val==fnorm(0x3f791f79) and rs3_val==fnorm(0x0d82e307) | Guard = 1 Round = 1 Sticky = 1 --> IR ∈ (-MinSubNorm, -MinSubNorm / 2)
    ? 'fs1 == 0 and fe1 == 0x1b and fm1 == 0x067ffd and fs2 == 0 and fe2 == 0x7e and
      fm2 == 0x791f79 and fs3 == 0 and fe3 == 0x1b and fm3 == 0x02e307 and rm_val
      == 3  #nosat'
    : 1 #  rs1_val==fnorm(0x0d867ffd) and rs2_val==fnorm(0x3f791f79) and rs3_val==fnorm(0x0d82e307) | Guard = 1 Round = 1 Sticky = 1 --> IR ∈ (-MinSubNorm, -MinSubNorm / 2)
    ? 'fs1 == 0 and fe1 == 0x1b and fm1 == 0x067ffd and fs2 == 0 and fe2 == 0x7e and
      fm2 == 0x791f79 and fs3 == 0 and fe3 == 0x1b and fm3 == 0x02e307 and rm_val
      == 2  #nosat'
    : 1 #  rs1_val==fnorm(0x0d867ffd) and rs2_val==fnorm(0x3f791f79) and rs3_val==fnorm(0x0d82e307) | Guard = 1 Round = 1 Sticky = 1 --> IR ∈ (-MinSubNorm, -MinSubNorm / 2)
    ? 'fs1 == 0 and fe1 == 0x1b and fm1 == 0x067ffd and fs2 == 0 and fe2 == 0x7e and
      fm2 == 0x791f79 and fs3 == 0 and fe3 == 0x1b and fm3 == 0x02e307 and rm_val
      == 1  #nosat'
    : 1 #  rs1_val==fnorm(0x0d867ffd) and rs2_val==fnorm(0x3f791f79) and rs3_val==fnorm(0x0d82e307) | Guard = 1 Round = 1 Sticky = 1 --> IR ∈ (-MinSubNorm, -MinSubNorm / 2)
    ? 'fs1 == 0 and fe1 == 0x1b and fm1 == 0x067ffd and fs2 == 0 and fe2 == 0x7e and
      fm2 == 0x791f79 and fs3 == 0 and fe3 == 0x1b and fm3 == 0x02e307 and rm_val
      == 0  #nosat'
    : 1 #  rs1_val==fnorm(0x0d867ffd) and rs2_val==fnorm(0x3f791f79) and rs3_val==fnorm(0x0d82e307) | Guard = 1 Round = 1 Sticky = 1 --> IR ∈ (-MinSubNorm, -MinSubNorm / 2)
    ? 'fs1 == 0 and fe1 == 0x19 and fm1 == 0x0b2761 and fs2 == 0 and fe2 == 0x81 and
      fm2 == 0x0a6dcd and fs3 == 0 and fe3 == 0x1b and fm3 == 0x167dd4 and rm_val
      == 4  #nosat'
    : 1 #  rs1_val==fnorm(0x0c8b2761) and rs2_val==fnorm(0x408a6dcd) and rs3_val==fnorm(0x0d967dd4) | Guard = 1 Round = 1 Sticky = 0 --> IR ∈ (-MinSubNorm, -MinSubNorm / 2)
    ? 'fs1 == 0 and fe1 == 0x19 and fm1 == 0x0b2761 and fs2 == 0 and fe2 == 0x81 and
      fm2 == 0x0a6dcd and fs3 == 0 and fe3 == 0x1b and fm3 == 0x167dd4 and rm_val
      == 3  #nosat'
    : 1 #  rs1_val==fnorm(0x0c8b2761) and rs2_val==fnorm(0x408a6dcd) and rs3_val==fnorm(0x0d967dd4) | Guard = 1 Round = 1 Sticky = 0 --> IR ∈ (-MinSubNorm, -MinSubNorm / 2)
    ? 'fs1 == 0 and fe1 == 0x19 and fm1 == 0x0b2761 and fs2 == 0 and fe2 == 0x81 and
      fm2 == 0x0a6dcd and fs3 == 0 and fe3 == 0x1b and fm3 == 0x167dd4 and rm_val
      == 2  #nosat'
    : 1 #  rs1_val==fnorm(0x0c8b2761) and rs2_val==fnorm(0x408a6dcd) and rs3_val==fnorm(0x0d967dd4) | Guard = 1 Round = 1 Sticky = 0 --> IR ∈ (-MinSubNorm, -MinSubNorm / 2)
    ? 'fs1 == 0 and fe1 == 0x19 and fm1 == 0x0b2761 and fs2 == 0 and fe2 == 0x81 and
      fm2 == 0x0a6dcd and fs3 == 0 and fe3 == 0x1b and fm3 == 0x167dd4 and rm_val
      == 1  #nosat'
    : 1 #  rs1_val==fnorm(0x0c8b2761) and rs2_val==fnorm(0x408a6dcd) and rs3_val==fnorm(0x0d967dd4) | Guard = 1 Round = 1 Sticky = 0 --> IR ∈ (-MinSubNorm, -MinSubNorm / 2)
    ? 'fs1 == 0 and fe1 == 0x19 and fm1 == 0x0b2761 and fs2 == 0 and fe2 == 0x81 and
      fm2 == 0x0a6dcd and fs3 == 0 and fe3 == 0x1b and fm3 == 0x167dd4 and rm_val
      == 0  #nosat'
    : 1 #  rs1_val==fnorm(0x0c8b2761) and rs2_val==fnorm(0x408a6dcd) and rs3_val==fnorm(0x0d967dd4) | Guard = 1 Round = 1 Sticky = 0 --> IR ∈ (-MinSubNorm, -MinSubNorm / 2)
    ? 'fs1 == 0 and fe1 == 0x18 and fm1 == 0x6021a1 and fs2 == 0 and fe2 == 0x7e and
      fm2 == 0x1d6e97 and fs3 == 0 and fe3 == 0x18 and fm3 == 0x09d573 and rm_val
      == 4  #nosat'
    : 1 #  rs1_val==fnorm(0x0c6021a1) and rs2_val==fnorm(0x3f1d6e97) and rs3_val==fnorm(0x0c09d573) | Guard = 1 Round = 0 Sticky = 1 --> IR ∈ (-MinSubNorm, -MinSubNorm / 2)
    ? 'fs1 == 0 and fe1 == 0x18 and fm1 == 0x6021a1 and fs2 == 0 and fe2 == 0x7e and
      fm2 == 0x1d6e97 and fs3 == 0 and fe3 == 0x18 and fm3 == 0x09d573 and rm_val
      == 3  #nosat'
    : 1 #  rs1_val==fnorm(0x0c6021a1) and rs2_val==fnorm(0x3f1d6e97) and rs3_val==fnorm(0x0c09d573) | Guard = 1 Round = 0 Sticky = 1 --> IR ∈ (-MinSubNorm, -MinSubNorm / 2)
    ? 'fs1 == 0 and fe1 == 0x18 and fm1 == 0x6021a1 and fs2 == 0 and fe2 == 0x7e and
      fm2 == 0x1d6e97 and fs3 == 0 and fe3 == 0x18 and fm3 == 0x09d573 and rm_val
      == 2  #nosat'
    : 1 #  rs1_val==fnorm(0x0c6021a1) and rs2_val==fnorm(0x3f1d6e97) and rs3_val==fnorm(0x0c09d573) | Guard = 1 Round = 0 Sticky = 1 --> IR ∈ (-MinSubNorm, -MinSubNorm / 2)
    ? 'fs1 == 0 and fe1 == 0x18 and fm1 == 0x6021a1 and fs2 == 0 and fe2 == 0x7e and
      fm2 == 0x1d6e97 and fs3 == 0 and fe3 == 0x18 and fm3 == 0x09d573 and rm_val
      == 1  #nosat'
    : 1 #  rs1_val==fnorm(0x0c6021a1) and rs2_val==fnorm(0x3f1d6e97) and rs3_val==fnorm(0x0c09d573) | Guard = 1 Round = 0 Sticky = 1 --> IR ∈ (-MinSubNorm, -MinSubNorm / 2)
    ? 'fs1 == 0 and fe1 == 0x18 and fm1 == 0x6021a1 and fs2 == 0 and fe2 == 0x7e and
      fm2 == 0x1d6e97 and fs3 == 0 and fe3 == 0x18 and fm3 == 0x09d573 and rm_val
      == 0  #nosat'
    : 1 #  rs1_val==fnorm(0x0c6021a1) and rs2_val==fnorm(0x3f1d6e97) and rs3_val==fnorm(0x0c09d573) | Guard = 1 Round = 0 Sticky = 1 --> IR ∈ (-MinSubNorm, -MinSubNorm / 2)
    ? 'fs1 == 0 and fe1 == 0x1a and fm1 == 0x2e29a1 and fs2 == 0 and fe2 == 0x7e and
      fm2 == 0x03fac0 and fs3 == 0 and fe3 == 0x19 and fm3 == 0x3393ca and rm_val
      == 4  #nosat'
    : 1 #  rs1_val==fnorm(0x0d2e29a1) and rs2_val==fnorm(0x3f03fac0) and rs3_val==fnorm(0x0cb393ca) | Guard = 1 Round = 0 Sticky = 0 --> IR ∈ (-MinSubNorm, -MinSubNorm / 2)
    ? 'fs1 == 0 and fe1 == 0x1a and fm1 == 0x2e29a1 and fs2 == 0 and fe2 == 0x7e and
      fm2 == 0x03fac0 and fs3 == 0 and fe3 == 0x19 and fm3 == 0x3393ca and rm_val
      == 3  #nosat'
    : 1 #  rs1_val==fnorm(0x0d2e29a1) and rs2_val==fnorm(0x3f03fac0) and rs3_val==fnorm(0x0cb393ca) | Guard = 1 Round = 0 Sticky = 0 --> IR ∈ (-MinSubNorm, -MinSubNorm / 2)
    ? 'fs1 == 0 and fe1 == 0x1a and fm1 == 0x2e29a1 and fs2 == 0 and fe2 == 0x7e and
      fm2 == 0x03fac0 and fs3 == 0 and fe3 == 0x19 and fm3 == 0x3393ca and rm_val
      == 2  #nosat'
    : 1 #  rs1_val==fnorm(0x0d2e29a1) and rs2_val==fnorm(0x3f03fac0) and rs3_val==fnorm(0x0cb393ca) | Guard = 1 Round = 0 Sticky = 0 --> IR ∈ (-MinSubNorm, -MinSubNorm / 2)
    ? 'fs1 == 0 and fe1 == 0x1a and fm1 == 0x2e29a1 and fs2 == 0 and fe2 == 0x7e and
      fm2 == 0x03fac0 and fs3 == 0 and fe3 == 0x19 and fm3 == 0x3393ca and rm_val
      == 1  #nosat'
    : 1 #  rs1_val==fnorm(0x0d2e29a1) and rs2_val==fnorm(0x3f03fac0) and rs3_val==fnorm(0x0cb393ca) | Guard = 1 Round = 0 Sticky = 0 --> IR ∈ (-MinSubNorm, -MinSubNorm / 2)
    ? 'fs1 == 0 and fe1 == 0x1a and fm1 == 0x2e29a1 and fs2 == 0 and fe2 == 0x7e and
      fm2 == 0x03fac0 and fs3 == 0 and fe3 == 0x19 and fm3 == 0x3393ca and rm_val
      == 0  #nosat'
    : 1 #  rs1_val==fnorm(0x0d2e29a1) and rs2_val==fnorm(0x3f03fac0) and rs3_val==fnorm(0x0cb393ca) | Guard = 1 Round = 0 Sticky = 0 --> IR ∈ (-MinSubNorm, -MinSubNorm / 2)
    ? 'fs1 == 0 and fe1 == 0x1a and fm1 == 0x784f38 and fs2 == 0 and fe2 == 0x7d and
      fm2 == 0x148031 and fs3 == 0 and fe3 == 0x19 and fm3 == 0x100a24 and rm_val
      == 4  #nosat'
    : 1 #  rs1_val==fnorm(0x0d784f38) and rs2_val==fnorm(0x3e948031) and rs3_val==fnorm(0x0c900a24) | Guard = 0 Round = 1 Sticky = 1 --> IR ∈ (-MinSubNorm, -MinSubNorm / 2)
    ? 'fs1 == 0 and fe1 == 0x1a and fm1 == 0x784f38 and fs2 == 0 and fe2 == 0x7d and
      fm2 == 0x148031 and fs3 == 0 and fe3 == 0x19 and fm3 == 0x100a24 and rm_val
      == 3  #nosat'
    : 1 #  rs1_val==fnorm(0x0d784f38) and rs2_val==fnorm(0x3e948031) and rs3_val==fnorm(0x0c900a24) | Guard = 0 Round = 1 Sticky = 1 --> IR ∈ (-MinSubNorm, -MinSubNorm / 2)
    ? 'fs1 == 0 and fe1 == 0x1a and fm1 == 0x784f38 and fs2 == 0 and fe2 == 0x7d and
      fm2 == 0x148031 and fs3 == 0 and fe3 == 0x19 and fm3 == 0x100a24 and rm_val
      == 2  #nosat'
    : 1 #  rs1_val==fnorm(0x0d784f38) and rs2_val==fnorm(0x3e948031) and rs3_val==fnorm(0x0c900a24) | Guard = 0 Round = 1 Sticky = 1 --> IR ∈ (-MinSubNorm, -MinSubNorm / 2)
    ? 'fs1 == 0 and fe1 == 0x1a and fm1 == 0x784f38 and fs2 == 0 and fe2 == 0x7d and
      fm2 == 0x148031 and fs3 == 0 and fe3 == 0x19 and fm3 == 0x100a24 and rm_val
      == 1  #nosat'
    : 1 #  rs1_val==fnorm(0x0d784f38) and rs2_val==fnorm(0x3e948031) and rs3_val==fnorm(0x0c900a24) | Guard = 0 Round = 1 Sticky = 1 --> IR ∈ (-MinSubNorm, -MinSubNorm / 2)
    ? 'fs1 == 0 and fe1 == 0x1a and fm1 == 0x784f38 and fs2 == 0 and fe2 == 0x7d and
      fm2 == 0x148031 and fs3 == 0 and fe3 == 0x19 and fm3 == 0x100a24 and rm_val
      == 0  #nosat'
    : 1 #  rs1_val==fnorm(0x0d784f38) and rs2_val==fnorm(0x3e948031) and rs3_val==fnorm(0x0c900a24) | Guard = 0 Round = 1 Sticky = 1 --> IR ∈ (-MinSubNorm, -MinSubNorm / 2)
    ? 'fs1 == 0 and fe1 == 0x1b and fm1 == 0x14f25c and fs2 == 0 and fe2 == 0x7e and
      fm2 == 0x5f3b13 and fs3 == 0 and fe3 == 0x1b and fm3 == 0x01e17d and rm_val
      == 4  #nosat'
    : 1 #  rs1_val==fnorm(0x0d94f25c) and rs2_val==fnorm(0x3f5f3b13) and rs3_val==fnorm(0x0d81e17d) | Guard = 0 Round = 1 Sticky = 0 --> IR ∈ (-MinSubNorm, -MinSubNorm / 2)
    ? 'fs1 == 0 and fe1 == 0x1b and fm1 == 0x14f25c and fs2 == 0 and fe2 == 0x7e and
      fm2 == 0x5f3b13 and fs3 == 0 and fe3 == 0x1b and fm3 == 0x01e17d and rm_val
      == 3  #nosat'
    : 1 #  rs1_val==fnorm(0x0d94f25c) and rs2_val==fnorm(0x3f5f3b13) and rs3_val==fnorm(0x0d81e17d) | Guard = 0 Round = 1 Sticky = 0 --> IR ∈ (-MinSubNorm, -MinSubNorm / 2)
    ? 'fs1 == 0 and fe1 == 0x1b and fm1 == 0x14f25c and fs2 == 0 and fe2 == 0x7e and
      fm2 == 0x5f3b13 and fs3 == 0 and fe3 == 0x1b and fm3 == 0x01e17d and rm_val
      == 2  #nosat'
    : 1 #  rs1_val==fnorm(0x0d94f25c) and rs2_val==fnorm(0x3f5f3b13) and rs3_val==fnorm(0x0d81e17d) | Guard = 0 Round = 1 Sticky = 0 --> IR ∈ (-MinSubNorm, -MinSubNorm / 2)
    ? 'fs1 == 0 and fe1 == 0x1b and fm1 == 0x14f25c and fs2 == 0 and fe2 == 0x7e and
      fm2 == 0x5f3b13 and fs3 == 0 and fe3 == 0x1b and fm3 == 0x01e17d and rm_val
      == 1  #nosat'
    : 1 #  rs1_val==fnorm(0x0d94f25c) and rs2_val==fnorm(0x3f5f3b13) and rs3_val==fnorm(0x0d81e17d) | Guard = 0 Round = 1 Sticky = 0 --> IR ∈ (-MinSubNorm, -MinSubNorm / 2)
    ? 'fs1 == 0 and fe1 == 0x1b and fm1 == 0x14f25c and fs2 == 0 and fe2 == 0x7e and
      fm2 == 0x5f3b13 and fs3 == 0 and fe3 == 0x1b and fm3 == 0x01e17d and rm_val
      == 0  #nosat'
    : 1 #  rs1_val==fnorm(0x0d94f25c) and rs2_val==fnorm(0x3f5f3b13) and rs3_val==fnorm(0x0d81e17d) | Guard = 0 Round = 1 Sticky = 0 --> IR ∈ (-MinSubNorm, -MinSubNorm / 2)
    ? 'fs1 == 0 and fe1 == 0x17 and fm1 == 0x2caedd and fs2 == 0 and fe2 == 0x81 and
      fm2 == 0x4133f4 and fs3 == 0 and fe3 == 0x1a and fm3 == 0x0252e0 and rm_val
      == 4  #nosat'
    : 1 #  rs1_val==fnorm(0x0bacaedd) and rs2_val==fnorm(0x40c133f4) and rs3_val==fnorm(0x0d0252e0) | Guard = 0 Round = 0 Sticky = 1 --> IR ∈ (-MinSubNorm, -MinSubNorm / 2)
    ? 'fs1 == 0 and fe1 == 0x17 and fm1 == 0x2caedd and fs2 == 0 and fe2 == 0x81 and
      fm2 == 0x4133f4 and fs3 == 0 and fe3 == 0x1a and fm3 == 0x0252e0 and rm_val
      == 3  #nosat'
    : 1 #  rs1_val==fnorm(0x0bacaedd) and rs2_val==fnorm(0x40c133f4) and rs3_val==fnorm(0x0d0252e0) | Guard = 0 Round = 0 Sticky = 1 --> IR ∈ (-MinSubNorm, -MinSubNorm / 2)
    ? 'fs1 == 0 and fe1 == 0x17 and fm1 == 0x2caedd and fs2 == 0 and fe2 == 0x81 and
      fm2 == 0x4133f4 and fs3 == 0 and fe3 == 0x1a and fm3 == 0x0252e0 and rm_val
      == 2  #nosat'
    : 1 #  rs1_val==fnorm(0x0bacaedd) and rs2_val==fnorm(0x40c133f4) and rs3_val==fnorm(0x0d0252e0) | Guard = 0 Round = 0 Sticky = 1 --> IR ∈ (-MinSubNorm, -MinSubNorm / 2)
    ? 'fs1 == 0 and fe1 == 0x17 and fm1 == 0x2caedd and fs2 == 0 and fe2 == 0x81 and
      fm2 == 0x4133f4 and fs3 == 0 and fe3 == 0x1a and fm3 == 0x0252e0 and rm_val
      == 1  #nosat'
    : 1 #  rs1_val==fnorm(0x0bacaedd) and rs2_val==fnorm(0x40c133f4) and rs3_val==fnorm(0x0d0252e0) | Guard = 0 Round = 0 Sticky = 1 --> IR ∈ (-MinSubNorm, -MinSubNorm / 2)
    coverage: 140/140
  total_coverage: 281/281
