---
fcvt.wu.s_b22:
  config:
  - check ISA:=regex(.*I.*F.*)
  opcode:
    fcvt.wu.s: 41
    coverage: 1/1
  rd:
    x0: 1
    x1: 1
    x10: 1
    x11: 1
    x12: 1
    x13: 1
    x14: 1
    x15: 1
    x16: 1
    x17: 1
    x18: 1
    x19: 1
    x2: 1
    x20: 1
    x21: 1
    x22: 1
    x23: 1
    x24: 1
    x25: 1
    x26: 1
    x27: 1
    x28: 1
    x29: 1
    x3: 1
    x30: 1
    x31: 10
    x4: 1
    x5: 1
    x6: 1
    x7: 1
    x8: 1
    x9: 1
    coverage: 32/32
  rs1:
    f0: 1
    f1: 1
    f10: 1
    f11: 1
    f12: 1
    f13: 1
    f14: 1
    f15: 1
    f16: 1
    f17: 1
    f18: 1
    f19: 1
    f2: 1
    f20: 1
    f21: 1
    f22: 1
    f23: 1
    f24: 1
    f25: 1
    f26: 1
    f27: 1
    f28: 1
    f29: 1
    f3: 1
    f30: 1
    f31: 10
    f4: 1
    f5: 1
    f6: 1
    f7: 1
    f8: 1
    f9: 1
    coverage: 32/32
  val_comb:
    'fs1 == 0 and fe1 == 0x7c and fm1 == 0x4923b8 and rm_val == 0  #nosat': 1  #  rs1_val==fnorm(0x3e4923b8) | Exponent: -3, Exponent in the range [-3, integer width+3]
    'fs1 == 1 and fe1 == 0xb6 and fm1 == 0x403ed1 and rm_val == 0  #nosat': 1 #  rs1_val==fnorm(0xdb403ed1) | Exponent: 55, Exponent greater than (integer width+3)
    'fs1 == 1 and fe1 == 0x29 and fm1 == 0x4ad269 and rm_val == 0  #nosat': 1 #  rs1_val==fnorm(0x94cad269) | Exponent: -86, Exponent less than -3
    'fs1 == 1 and fe1 == 0xa1 and fm1 == 0x0851ba and rm_val == 0  #nosat': 1 #  rs1_val==fnorm(0xd08851ba) | Exponent: 34, Exponent in the range [-3, integer width+3]
    'fs1 == 0 and fe1 == 0xa0 and fm1 == 0x37cfdc and rm_val == 0  #nosat': 1 #  rs1_val==fnorm(0x5037cfdc) | Exponent: 33, Exponent in the range [-3, integer width+3]
    'fs1 == 0 and fe1 == 0x9f and fm1 == 0x46450c and rm_val == 0  #nosat': 1 #  rs1_val==fnorm(0x4fc6450c) | Exponent: 32, Exponent in the range [-3, integer width+3]
    'fs1 == 1 and fe1 == 0x9e and fm1 == 0x283d12 and rm_val == 0  #nosat': 1 #  rs1_val==fnorm(0xcf283d12) | Exponent: 31, Exponent in the range [-3, integer width+3]
    'fs1 == 0 and fe1 == 0x9d and fm1 == 0x72f818 and rm_val == 0  #nosat': 1 #  rs1_val==fnorm(0x4ef2f818) | Exponent: 30, Exponent in the range [-3, integer width+3]
    'fs1 == 1 and fe1 == 0x9c and fm1 == 0x2edddb and rm_val == 0  #nosat': 1 #  rs1_val==fnorm(0xce2edddb) | Exponent: 29, Exponent in the range [-3, integer width+3]
    'fs1 == 1 and fe1 == 0x9b and fm1 == 0x26c422 and rm_val == 0  #nosat': 1 #  rs1_val==fnorm(0xcda6c422) | Exponent: 28, Exponent in the range [-3, integer width+3]
    'fs1 == 1 and fe1 == 0x9a and fm1 == 0x7872c3 and rm_val == 0  #nosat': 1 #  rs1_val==fnorm(0xcd7872c3) | Exponent: 27, Exponent in the range [-3, integer width+3]
    'fs1 == 0 and fe1 == 0x99 and fm1 == 0x112603 and rm_val == 0  #nosat': 1 #  rs1_val==fnorm(0x4c912603) | Exponent: 26, Exponent in the range [-3, integer width+3]
    'fs1 == 0 and fe1 == 0x98 and fm1 == 0x0084e1 and rm_val == 0  #nosat': 1 #  rs1_val==fnorm(0x4c0084e1) | Exponent: 25, Exponent in the range [-3, integer width+3]
    'fs1 == 1 and fe1 == 0x97 and fm1 == 0x05aa55 and rm_val == 0  #nosat': 1 #  rs1_val==fnorm(0xcb85aa55) | Exponent: 24, Exponent in the range [-3, integer width+3]
    'fs1 == 0 and fe1 == 0x96 and fm1 == 0x4e817e and rm_val == 0  #nosat': 1 #  rs1_val==fnorm(0x4b4e817e) | Exponent: 23, Exponent in the range [-3, integer width+3]
    'fs1 == 0 and fe1 == 0x95 and fm1 == 0x7c14e9 and rm_val == 0  #nosat': 2 #  rs1_val==fnorm(0x4afc14e9) | Exponent: 22, Exponent in the range [-3, integer width+3]
    'fs1 == 0 and fe1 == 0x94 and fm1 == 0x7dbfb7 and rm_val == 0  #nosat': 1 #  rs1_val==fnorm(0x4a7dbfb7) | Exponent: 21, Exponent in the range [-3, integer width+3]
    'fs1 == 1 and fe1 == 0x93 and fm1 == 0x624882 and rm_val == 0  #nosat': 1 #  rs1_val==fnorm(0xc9e24882) | Exponent: 20, Exponent in the range [-3, integer width+3]
    'fs1 == 0 and fe1 == 0x92 and fm1 == 0x11056d and rm_val == 0  #nosat': 1 #  rs1_val==fnorm(0x4911056d) | Exponent: 19, Exponent in the range [-3, integer width+3]
    'fs1 == 0 and fe1 == 0x91 and fm1 == 0x54b761 and rm_val == 0  #nosat': 1 #  rs1_val==fnorm(0x48d4b761) | Exponent: 18, Exponent in the range [-3, integer width+3]
    'fs1 == 0 and fe1 == 0x90 and fm1 == 0x57ca4f and rm_val == 0  #nosat': 1 #  rs1_val==fnorm(0x4857ca4f) | Exponent: 17, Exponent in the range [-3, integer width+3]
    'fs1 == 0 and fe1 == 0x8f and fm1 == 0x3a7971 and rm_val == 0  #nosat': 1 #  rs1_val==fnorm(0x47ba7971) | Exponent: 16, Exponent in the range [-3, integer width+3]
    'fs1 == 0 and fe1 == 0x8e and fm1 == 0x56653f and rm_val == 0  #nosat': 1 #  rs1_val==fnorm(0x4756653f) | Exponent: 15, Exponent in the range [-3, integer width+3]
    'fs1 == 1 and fe1 == 0x8d and fm1 == 0x244d9a and rm_val == 0  #nosat': 1 #  rs1_val==fnorm(0xc6a44d9a) | Exponent: 14, Exponent in the range [-3, integer width+3]
    'fs1 == 0 and fe1 == 0x8c and fm1 == 0x30d877 and rm_val == 0  #nosat': 1 #  rs1_val==fnorm(0x4630d877) | Exponent: 13, Exponent in the range [-3, integer width+3]
    'fs1 == 0 and fe1 == 0x8b and fm1 == 0x4d3559 and rm_val == 0  #nosat': 1 #  rs1_val==fnorm(0x45cd3559) | Exponent: 12, Exponent in the range [-3, integer width+3]
    'fs1 == 0 and fe1 == 0x8a and fm1 == 0x6e19c1 and rm_val == 0  #nosat': 1 #  rs1_val==fnorm(0x456e19c1) | Exponent: 11, Exponent in the range [-3, integer width+3]
    'fs1 == 0 and fe1 == 0x89 and fm1 == 0x05b406 and rm_val == 0  #nosat': 1 #  rs1_val==fnorm(0x4485b406) | Exponent: 10, Exponent in the range [-3, integer width+3]
    'fs1 == 0 and fe1 == 0x88 and fm1 == 0x7f8f2d and rm_val == 0  #nosat': 1 #  rs1_val==fnorm(0x447f8f2d) | Exponent: 9, Exponent in the range [-3, integer width+3]
    'fs1 == 1 and fe1 == 0x87 and fm1 == 0x79f5e7 and rm_val == 0  #nosat': 1 #  rs1_val==fnorm(0xc3f9f5e7) | Exponent: 8, Exponent in the range [-3, integer width+3]
    'fs1 == 1 and fe1 == 0x86 and fm1 == 0x1fffe4 and rm_val == 0  #nosat': 1 #  rs1_val==fnorm(0xc31fffe4) | Exponent: 7, Exponent in the range [-3, integer width+3]
    'fs1 == 0 and fe1 == 0x85 and fm1 == 0x29f475 and rm_val == 0  #nosat': 1 #  rs1_val==fnorm(0x42a9f475) | Exponent: 6, Exponent in the range [-3, integer width+3]
    'fs1 == 0 and fe1 == 0x84 and fm1 == 0x42a54b and rm_val == 0  #nosat': 1 #  rs1_val==fnorm(0x4242a54b) | Exponent: 5, Exponent in the range [-3, integer width+3]
    'fs1 == 0 and fe1 == 0x83 and fm1 == 0x148266 and rm_val == 0  #nosat': 1 #  rs1_val==fnorm(0x41948266) | Exponent: 4, Exponent in the range [-3, integer width+3]
    'fs1 == 1 and fe1 == 0x82 and fm1 == 0x53a4fc and rm_val == 0  #nosat': 1 #  rs1_val==fnorm(0xc153a4fc) | Exponent: 3, Exponent in the range [-3, integer width+3]
    'fs1 == 0 and fe1 == 0x81 and fm1 == 0x696b5c and rm_val == 0  #nosat': 1 #  rs1_val==fnorm(0x40e96b5c) | Exponent: 2, Exponent in the range [-3, integer width+3]
    'fs1 == 0 and fe1 == 0x80 and fm1 == 0x681ae9 and rm_val == 0  #nosat': 1 #  rs1_val==fnorm(0x40681ae9) | Exponent: 1, Exponent in the range [-3, integer width+3]
    'fs1 == 0 and fe1 == 0x7f and fm1 == 0x1a616d and rm_val == 0  #nosat': 1 #  rs1_val==fnorm(0x3f9a616d) | Exponent: 0, Exponent in the range [-3, integer width+3]
    'fs1 == 0 and fe1 == 0x7e and fm1 == 0x49fee5 and rm_val == 0  #nosat': 1 #  rs1_val==fnorm(0x3f49fee5) | Exponent: -1, Exponent in the range [-3, integer width+3]
    'fs1 == 0 and fe1 == 0x7d and fm1 == 0x36e5d6 and rm_val == 0  #nosat': 1 #  rs1_val==fnorm(0x3eb6e5d6) | Exponent: -2, Exponent in the range [-3, integer width+3]
    coverage: 40/40
  total_coverage: 105/105
