---
fnmadd_b2:
  config:
  - check ISA:=regex(.*I.*Zfinx.*)
  mnemonics:
    fnmadd.s: 291
    coverage: 1/1
  op_comb:
    rd == rs2 == rs3 != rs1: 1
    rs1 != rs2 and rs1 != rd and rs1 != rs3 and rs2 != rs3 and rs2 != rd and rs3 != rd: 280
    rs1 == rd != rs2 and rs1 == rd != rs3 and rs3 != rs2: 1
    rs1 == rd == rs3 != rs2: 1
    rs1 == rs2 != rs3 and rs1 == rs2 != rd and rd != rs3: 1
    rs1 == rs2 == rd != rs3: 1
    rs1 == rs2 == rs3 != rd: 1
    rs1 == rs2 == rs3 == rd: 1
    rs1 == rs3 != rs2 and rs1 == rs3 != rd and rd != rs2: 1
    rs2 == rd != rs1 and rs2 == rd != rs3 and rs3 != rs1: 1
    rs2 == rs3 != rs1 and rs2 == rs3 != rd and rd != rs1: 1
    rs3 == rd != rs1 and rs3 == rd != rs2 and rs2 != rs1: 1
    coverage: 12/12
  rd:
    x0: 1
    x1: 1
    x10: 1
    x11: 1
    x12: 1
    x13: 1
    x14: 1
    x15: 1
    x16: 1
    x17: 1
    x18: 1
    x19: 1
    x2: 1
    x20: 1
    x21: 1
    x22: 1
    x23: 1
    x24: 1
    x25: 1
    x26: 1
    x27: 1
    x28: 1
    x29: 1
    x3: 1
    x30: 1
    x31: 260
    x4: 1
    x5: 1
    x6: 1
    x7: 1
    x8: 1
    x9: 1
    coverage: 32/32
  rs1:
    x0: 1
    x1: 1
    x10: 1
    x11: 1
    x12: 1
    x13: 1
    x14: 1
    x15: 1
    x16: 1
    x17: 1
    x18: 1
    x19: 1
    x2: 1
    x20: 1
    x21: 1
    x22: 1
    x23: 1
    x24: 1
    x25: 1
    x26: 1
    x27: 1
    x28: 1
    x29: 1
    x3: 1
    x30: 258
    x31: 3
    x4: 1
    x5: 1
    x6: 1
    x7: 1
    x8: 1
    x9: 1
    coverage: 32/32
  rs2:
    x0: 1
    x1: 1
    x10: 1
    x11: 1
    x12: 1
    x13: 1
    x14: 1
    x15: 1
    x16: 1
    x17: 1
    x18: 1
    x19: 1
    x2: 1
    x20: 1
    x21: 1
    x22: 1
    x23: 1
    x24: 1
    x25: 1
    x26: 1
    x27: 1
    x28: 1
    x29: 256
    x3: 1
    x30: 5
    x31: 1
    x4: 1
    x5: 1
    x6: 1
    x7: 1
    x8: 1
    x9: 1
    coverage: 32/32
  rs3:
    x0: 1
    x1: 1
    x10: 1
    x11: 1
    x12: 1
    x13: 1
    x14: 1
    x15: 1
    x16: 1
    x17: 1
    x18: 1
    x19: 1
    x2: 1
    x20: 1
    x21: 1
    x22: 1
    x23: 1
    x24: 1
    x25: 1
    x26: 1
    x27: 1
    x28: 254
    x29: 7
    x3: 1
    x30: 1
    x31: 1
    x4: 1
    x5: 1
    x6: 1
    x7: 1
    x8: 1
    x9: 1
    coverage: 32/32
  val_comb:
    ? 'fs1 == 0 and fe1 == 0x00 and fm1 == 0x000000 and fs2 == 0 and fe2 == 0x85 and
      fm2 == 0x2dc2d2 and fs3 == 0 and fe3 == 0x00 and fm3 == 0x00003f and  fcsr ==
      0x0 and rm_val == 7   #nosat'
    : 2
    ? 'fs1 == 0 and fe1 == 0x00 and fm1 == 0x000000 and fs2 == 0 and fe2 == 0x81 and
      fm2 == 0x068650 and fs3 == 0 and fe3 == 0x00 and fm3 == 0x000005 and  fcsr ==
      0x0 and rm_val == 7   #nosat'
    : 1
    ? 'fs1 == 0 and fe1 == 0x00 and fm1 == 0x000000 and fs2 == 0 and fe2 == 0x83 and
      fm2 == 0x2827e4 and fs3 == 0 and fe3 == 0x00 and fm3 == 0x000013 and  fcsr ==
      0x0 and rm_val == 7   #nosat'
    : 1
    ? 'fs1 == 0 and fe1 == 0x00 and fm1 == 0x000000 and fs2 == 0 and fe2 == 0x85 and
      fm2 == 0x7c3bd5 and fs3 == 0 and fe3 == 0x00 and fm3 == 0x000062 and  fcsr ==
      0x0 and rm_val == 7   #nosat'
    : 1
    ? 'fs1 == 0 and fe1 == 0x00 and fm1 == 0x000000 and fs2 == 0 and fe2 == 0x84 and
      fm2 == 0x0c213e and fs3 == 0 and fe3 == 0x00 and fm3 == 0x000029 and  fcsr ==
      0x0 and rm_val == 7   #nosat'
    : 2
    ? 'fs1 == 0 and fe1 == 0x00 and fm1 == 0x000000 and fs2 == 0 and fe2 == 0x81 and
      fm2 == 0x068650 and fs3 == 0 and fe3 == 0x00 and fm3 == 0x000023 and  fcsr ==
      0x0 and rm_val == 7   #nosat'
    : 1
    ? 'fs1 == 0 and fe1 == 0x00 and fm1 == 0x000000 and fs2 == 1 and fe2 == 0x84 and
      fm2 == 0x54ff53 and fs3 == 0 and fe3 == 0x00 and fm3 == 0x00001a and  fcsr ==
      0x0 and rm_val == 7   #nosat'
    : 1
    ? 'fs1 == 0 and fe1 == 0x00 and fm1 == 0x000000 and fs2 == 1 and fe2 == 0x85 and
      fm2 == 0x255a6d and fs3 == 0 and fe3 == 0x00 and fm3 == 0x000045 and  fcsr ==
      0x0 and rm_val == 7   #nosat'
    : 1
    ? 'fs1 == 0 and fe1 == 0x00 and fm1 == 0x000000 and fs2 == 1 and fe2 == 0x87 and
      fm2 == 0x21d998 and fs3 == 0 and fe3 == 0x00 and fm3 == 0x000019 and  fcsr ==
      0x0 and rm_val == 7   #nosat'
    : 1
    ? 'fs1 == 0 and fe1 == 0x00 and fm1 == 0x000000 and fs2 == 1 and fe2 == 0x88 and
      fm2 == 0x1596af and fs3 == 0 and fe3 == 0x00 and fm3 == 0x000055 and  fcsr ==
      0x0 and rm_val == 7   #nosat'
    : 1
    ? 'fs1 == 0 and fe1 == 0x00 and fm1 == 0x000000 and fs2 == 1 and fe2 == 0x89 and
      fm2 == 0x29bb76 and fs3 == 0 and fe3 == 0x00 and fm3 == 0x000037 and  fcsr ==
      0x0 and rm_val == 7   #nosat'
    : 2
    ? 'fs1 == 0 and fe1 == 0x00 and fm1 == 0x000000 and fs2 == 1 and fe2 == 0x8a and
      fm2 == 0x3250b3 and fs3 == 0 and fe3 == 0x00 and fm3 == 0x00000c and  fcsr ==
      0x0 and rm_val == 7   #nosat'
    : 1
    ? 'fs1 == 0 and fe1 == 0x00 and fm1 == 0x000000 and fs2 == 1 and fe2 == 0x8b and
      fm2 == 0x310b99 and fs3 == 0 and fe3 == 0x00 and fm3 == 0x000035 and  fcsr ==
      0x0 and rm_val == 7   #nosat'
    : 1
    ? 'fs1 == 0 and fe1 == 0x00 and fm1 == 0x000000 and fs2 == 1 and fe2 == 0x8c and
      fm2 == 0x321e41 and fs3 == 0 and fe3 == 0x00 and fm3 == 0x000039 and  fcsr ==
      0x0 and rm_val == 7   #nosat'
    : 1
    ? 'fs1 == 0 and fe1 == 0x00 and fm1 == 0x000000 and fs2 == 1 and fe2 == 0x8d and
      fm2 == 0x324de5 and fs3 == 0 and fe3 == 0x00 and fm3 == 0x000061 and  fcsr ==
      0x0 and rm_val == 7   #nosat'
    : 1
    ? 'fs1 == 0 and fe1 == 0x00 and fm1 == 0x000000 and fs2 == 1 and fe2 == 0x8e and
      fm2 == 0x32dfa2 and fs3 == 0 and fe3 == 0x00 and fm3 == 0x00005a and  fcsr ==
      0x0 and rm_val == 7   #nosat'
    : 1
    ? 'fs1 == 0 and fe1 == 0x00 and fm1 == 0x000000 and fs2 == 1 and fe2 == 0x8f and
      fm2 == 0x3354a4 and fs3 == 0 and fe3 == 0x00 and fm3 == 0x00000d and  fcsr ==
      0x0 and rm_val == 7   #nosat'
    : 1
    ? 'fs1 == 0 and fe1 == 0x00 and fm1 == 0x000000 and fs2 == 1 and fe2 == 0x90 and
      fm2 == 0x334320 and fs3 == 0 and fe3 == 0x00 and fm3 == 0x00004c and  fcsr ==
      0x0 and rm_val == 7   #nosat'
    : 1
    ? 'fs1 == 0 and fe1 == 0x00 and fm1 == 0x000000 and fs2 == 1 and fe2 == 0x91 and
      fm2 == 0x334f09 and fs3 == 0 and fe3 == 0x00 and fm3 == 0x000054 and  fcsr ==
      0x0 and rm_val == 7   #nosat'
    : 1
    ? 'fs1 == 0 and fe1 == 0x00 and fm1 == 0x000000 and fs2 == 1 and fe2 == 0x92 and
      fm2 == 0x33583b and fs3 == 0 and fe3 == 0x00 and fm3 == 0x00003f and  fcsr ==
      0x0 and rm_val == 7   #nosat'
    : 1
    ? 'fs1 == 0 and fe1 == 0x00 and fm1 == 0x000000 and fs2 == 1 and fe2 == 0x93 and
      fm2 == 0x335adc and fs3 == 0 and fe3 == 0x00 and fm3 == 0x000042 and  fcsr ==
      0x0 and rm_val == 7   #nosat'
    : 1
    ? 'fs1 == 0 and fe1 == 0x00 and fm1 == 0x000000 and fs2 == 1 and fe2 == 0x94 and
      fm2 == 0x335bf4 and fs3 == 0 and fe3 == 0x00 and fm3 == 0x000052 and  fcsr ==
      0x0 and rm_val == 7   #nosat'
    : 1
    ? 'fs1 == 0 and fe1 == 0x00 and fm1 == 0x000000 and fs2 == 1 and fe2 == 0x95 and
      fm2 == 0x335d66 and fs3 == 0 and fe3 == 0x00 and fm3 == 0x000020 and  fcsr ==
      0x0 and rm_val == 7   #nosat'
    : 1
    ? 'fs1 == 0 and fe1 == 0x00 and fm1 == 0x000000 and fs2 == 0 and fe2 == 0x84 and
      fm2 == 0x60352f and fs3 == 0 and fe3 == 0x00 and fm3 == 0x000027 and  fcsr ==
      0x0 and rm_val == 7   #nosat'
    : 1
    ? 'fs1 == 0 and fe1 == 0x00 and fm1 == 0x000000 and fs2 == 0 and fe2 == 0x85 and
      fm2 == 0x5a9a41 and fs3 == 0 and fe3 == 0x00 and fm3 == 0x00004c and  fcsr ==
      0x0 and rm_val == 7   #nosat'
    : 1
    ? 'fs1 == 0 and fe1 == 0x00 and fm1 == 0x000000 and fs2 == 0 and fe2 == 0x83 and
      fm2 == 0x335dc0 and fs3 == 0 and fe3 == 0x00 and fm3 == 0x00000c and  fcsr ==
      0x0 and rm_val == 7   #nosat'
    : 1
    ? 'fs1 == 0 and fe1 == 0x00 and fm1 == 0x000000 and fs2 == 0 and fe2 == 0x84 and
      fm2 == 0x00eb62 and fs3 == 0 and fe3 == 0x00 and fm3 == 0x00000f and  fcsr ==
      0x0 and rm_val == 7   #nosat'
    : 1
    ? 'fs1 == 0 and fe1 == 0x00 and fm1 == 0x000000 and fs2 == 0 and fe2 == 0x85 and
      fm2 == 0x1cf208 and fs3 == 0 and fe3 == 0x00 and fm3 == 0x000028 and  fcsr ==
      0x0 and rm_val == 7   #nosat'
    : 1
    ? 'fs1 == 0 and fe1 == 0x00 and fm1 == 0x000000 and fs2 == 0 and fe2 == 0x85 and
      fm2 == 0x6302a6 and fs3 == 0 and fe3 == 0x00 and fm3 == 0x000031 and  fcsr ==
      0x0 and rm_val == 7   #nosat'
    : 1
    ? 'fs1 == 0 and fe1 == 0x00 and fm1 == 0x000000 and fs2 == 0 and fe2 == 0x86 and
      fm2 == 0x02521d and fs3 == 0 and fe3 == 0x00 and fm3 == 0x00001d and  fcsr ==
      0x0 and rm_val == 7   #nosat'
    : 1
    ? 'fs1 == 0 and fe1 == 0x00 and fm1 == 0x000000 and fs2 == 0 and fe2 == 0x87 and
      fm2 == 0x0fa212 and fs3 == 0 and fe3 == 0x00 and fm3 == 0x00004d and  fcsr ==
      0x0 and rm_val == 7   #nosat'
    : 1
    ? 'fs1 == 0 and fe1 == 0x00 and fm1 == 0x000000 and fs2 == 0 and fe2 == 0x87 and
      fm2 == 0x726cb5 and fs3 == 0 and fe3 == 0x00 and fm3 == 0x00005a and  fcsr ==
      0x0 and rm_val == 7   #nosat'
    : 2
    ? 'fs1 == 0 and fe1 == 0x00 and fm1 == 0x000000 and fs2 == 0 and fe2 == 0x88 and
      fm2 == 0x3c1fd3 and fs3 == 0 and fe3 == 0x00 and fm3 == 0x000019 and  fcsr ==
      0x0 and rm_val == 7   #nosat'
    : 1
    ? 'fs1 == 0 and fe1 == 0x00 and fm1 == 0x000000 and fs2 == 0 and fe2 == 0x89 and
      fm2 == 0x33e446 and fs3 == 0 and fe3 == 0x00 and fm3 == 0x000003 and  fcsr ==
      0x0 and rm_val == 7   #nosat'
    : 1
    ? 'fs1 == 0 and fe1 == 0x00 and fm1 == 0x000000 and fs2 == 0 and fe2 == 0x8a and
      fm2 == 0x39ac0b and fs3 == 0 and fe3 == 0x00 and fm3 == 0x000048 and  fcsr ==
      0x0 and rm_val == 7   #nosat'
    : 1
    ? 'fs1 == 0 and fe1 == 0x00 and fm1 == 0x000000 and fs2 == 0 and fe2 == 0x8b and
      fm2 == 0x3577d9 and fs3 == 0 and fe3 == 0x00 and fm3 == 0x000030 and  fcsr ==
      0x0 and rm_val == 7   #nosat'
    : 1
    ? 'fs1 == 0 and fe1 == 0x00 and fm1 == 0x000000 and fs2 == 0 and fe2 == 0x8c and
      fm2 == 0x34dae7 and fs3 == 0 and fe3 == 0x00 and fm3 == 0x000044 and  fcsr ==
      0x0 and rm_val == 7   #nosat'
    : 1
    ? 'fs1 == 0 and fe1 == 0x00 and fm1 == 0x000000 and fs2 == 0 and fe2 == 0x8d and
      fm2 == 0x33c83f and fs3 == 0 and fe3 == 0x00 and fm3 == 0x000026 and  fcsr ==
      0x0 and rm_val == 7   #nosat'
    : 2
    ? 'fs1 == 0 and fe1 == 0x00 and fm1 == 0x000000 and fs2 == 0 and fe2 == 0x8e and
      fm2 == 0x33d7a9 and fs3 == 0 and fe3 == 0x00 and fm3 == 0x000057 and  fcsr ==
      0x0 and rm_val == 7   #nosat'
    : 1
    ? 'fs1 == 0 and fe1 == 0x00 and fm1 == 0x000000 and fs2 == 0 and fe2 == 0x8f and
      fm2 == 0x3362a7 and fs3 == 0 and fe3 == 0x00 and fm3 == 0x000007 and  fcsr ==
      0x0 and rm_val == 7   #nosat'
    : 1
    ? 'fs1 == 0 and fe1 == 0x00 and fm1 == 0x000000 and fs2 == 0 and fe2 == 0x90 and
      fm2 == 0x337104 and fs3 == 0 and fe3 == 0x00 and fm3 == 0x000037 and  fcsr ==
      0x0 and rm_val == 7   #nosat'
    : 1
    ? 'fs1 == 0 and fe1 == 0x00 and fm1 == 0x000000 and fs2 == 0 and fe2 == 0x91 and
      fm2 == 0x336006 and fs3 == 0 and fe3 == 0x00 and fm3 == 0x00000d and  fcsr ==
      0x0 and rm_val == 7   #nosat'
    : 1
    ? 'fs1 == 0 and fe1 == 0x00 and fm1 == 0x000000 and fs2 == 0 and fe2 == 0x92 and
      fm2 == 0x33608d and fs3 == 0 and fe3 == 0x00 and fm3 == 0x000020 and  fcsr ==
      0x0 and rm_val == 7   #nosat'
    : 1
    ? 'fs1 == 0 and fe1 == 0x00 and fm1 == 0x000000 and fs2 == 0 and fe2 == 0x93 and
      fm2 == 0x33612a and fs3 == 0 and fe3 == 0x00 and fm3 == 0x00004e and  fcsr ==
      0x0 and rm_val == 7   #nosat'
    : 1
    ? 'fs1 == 0 and fe1 == 0x00 and fm1 == 0x000000 and fs2 == 0 and fe2 == 0x94 and
      fm2 == 0x335f05 and fs3 == 0 and fe3 == 0x00 and fm3 == 0x00003a and  fcsr ==
      0x0 and rm_val == 7   #nosat'
    : 1
    ? 'fs1 == 0 and fe1 == 0x00 and fm1 == 0x000000 and fs2 == 0 and fe2 == 0x95 and
      fm2 == 0x335ddc and fs3 == 0 and fe3 == 0x00 and fm3 == 0x00000a and  fcsr ==
      0x0 and rm_val == 7   #nosat'
    : 1
    ? 'fs1 == 0 and fe1 == 0x7f and fm1 == 0x000000 and fs2 == 0 and fe2 == 0x6d and
      fm2 == 0x700000 and fs3 == 0 and fe3 == 0x7f and fm3 == 0x00003d and  fcsr ==
      0x0 and rm_val == 7   #nosat'
    : 1
    ? 'fs1 == 0 and fe1 == 0x7f and fm1 == 0x000000 and fs2 == 0 and fe2 == 0x6e and
      fm2 == 0x320000 and fs3 == 0 and fe3 == 0x7f and fm3 == 0x00005b and  fcsr ==
      0x0 and rm_val == 7   #nosat'
    : 1
    ? 'fs1 == 0 and fe1 == 0x7f and fm1 == 0x000000 and fs2 == 0 and fe2 == 0x6a and
      fm2 == 0x600000 and fs3 == 0 and fe3 == 0x7f and fm3 == 0x00000b and  fcsr ==
      0x0 and rm_val == 7   #nosat'
    : 1
    ? 'fs1 == 0 and fe1 == 0x7f and fm1 == 0x000000 and fs2 == 0 and fe2 == 0x6e and
      fm2 == 0x300000 and fs3 == 0 and fe3 == 0x7f and fm3 == 0x000060 and  fcsr ==
      0x0 and rm_val == 7   #nosat'
    : 1
    ? 'fs1 == 0 and fe1 == 0x7f and fm1 == 0x000000 and fs2 == 0 and fe2 == 0x6d and
      fm2 == 0x280000 and fs3 == 0 and fe3 == 0x7f and fm3 == 0x00003a and  fcsr ==
      0x0 and rm_val == 7   #nosat'
    : 1
    ? 'fs1 == 0 and fe1 == 0x7f and fm1 == 0x000000 and fs2 == 0 and fe2 == 0x6d and
      fm2 == 0x740000 and fs3 == 0 and fe3 == 0x7f and fm3 == 0x00005d and  fcsr ==
      0x0 and rm_val == 7   #nosat'
    : 1
    ? 'fs1 == 0 and fe1 == 0x7f and fm1 == 0x000000 and fs2 == 1 and fe2 == 0x6d and
      fm2 == 0x740000 and fs3 == 0 and fe3 == 0x7f and fm3 == 0x000003 and  fcsr ==
      0x0 and rm_val == 7   #nosat'
    : 1
    ? 'fs1 == 0 and fe1 == 0x7f and fm1 == 0x000000 and fs2 == 1 and fe2 == 0x6d and
      fm2 == 0x6c0000 and fs3 == 0 and fe3 == 0x7f and fm3 == 0x000045 and  fcsr ==
      0x0 and rm_val == 7   #nosat'
    : 1
    ? 'fs1 == 0 and fe1 == 0x7f and fm1 == 0x000000 and fs2 == 1 and fe2 == 0x6f and
      fm2 == 0x5f0000 and fs3 == 0 and fe3 == 0x7f and fm3 == 0x000021 and  fcsr ==
      0x0 and rm_val == 7   #nosat'
    : 1
    ? 'fs1 == 0 and fe1 == 0x7f and fm1 == 0x000000 and fs2 == 1 and fe2 == 0x70 and
      fm2 == 0x738000 and fs3 == 0 and fe3 == 0x7f and fm3 == 0x000019 and  fcsr ==
      0x0 and rm_val == 7   #nosat'
    : 1
    ? 'fs1 == 0 and fe1 == 0x7f and fm1 == 0x000000 and fs2 == 1 and fe2 == 0x71 and
      fm2 == 0x6fc000 and fs3 == 0 and fe3 == 0x7f and fm3 == 0x000041 and  fcsr ==
      0x0 and rm_val == 7   #nosat'
    : 1
    ? 'fs1 == 0 and fe1 == 0x7f and fm1 == 0x000000 and fs2 == 1 and fe2 == 0x72 and
      fm2 == 0x7aa000 and fs3 == 0 and fe3 == 0x7f and fm3 == 0x00002b and  fcsr ==
      0x0 and rm_val == 7   #nosat'
    : 1
    ? 'fs1 == 0 and fe1 == 0x7f and fm1 == 0x000000 and fs2 == 1 and fe2 == 0x73 and
      fm2 == 0x7cb000 and fs3 == 0 and fe3 == 0x7f and fm3 == 0x000035 and  fcsr ==
      0x0 and rm_val == 7   #nosat'
    : 1
    ? 'fs1 == 0 and fe1 == 0x7f and fm1 == 0x000000 and fs2 == 1 and fe2 == 0x74 and
      fm2 == 0x7d8800 and fs3 == 0 and fe3 == 0x7f and fm3 == 0x00004f and  fcsr ==
      0x0 and rm_val == 7   #nosat'
    : 1
    ? 'fs1 == 0 and fe1 == 0x7f and fm1 == 0x000000 and fs2 == 1 and fe2 == 0x75 and
      fm2 == 0x7f7400 and fs3 == 0 and fe3 == 0x7f and fm3 == 0x000023 and  fcsr ==
      0x0 and rm_val == 7   #nosat'
    : 1
    ? 'fs1 == 0 and fe1 == 0x7f and fm1 == 0x000000 and fs2 == 1 and fe2 == 0x76 and
      fm2 == 0x7f5600 and fs3 == 0 and fe3 == 0x7f and fm3 == 0x000055 and  fcsr ==
      0x0 and rm_val == 7   #nosat'
    : 1
    ? 'fs1 == 0 and fe1 == 0x7f and fm1 == 0x000000 and fs2 == 1 and fe2 == 0x77 and
      fm2 == 0x7fc100 and fs3 == 0 and fe3 == 0x7f and fm3 == 0x00003f and  fcsr ==
      0x0 and rm_val == 7   #nosat'
    : 1
    ? 'fs1 == 0 and fe1 == 0x7f and fm1 == 0x000000 and fs2 == 1 and fe2 == 0x78 and
      fm2 == 0x7fd180 and fs3 == 0 and fe3 == 0x7f and fm3 == 0x00005d and  fcsr ==
      0x0 and rm_val == 7   #nosat'
    : 1
    ? 'fs1 == 0 and fe1 == 0x7f and fm1 == 0x000000 and fs2 == 1 and fe2 == 0x79 and
      fm2 == 0x7ff000 and fs3 == 0 and fe3 == 0x7f and fm3 == 0x000040 and  fcsr ==
      0x0 and rm_val == 7   #nosat'
    : 1
    ? 'fs1 == 0 and fe1 == 0x7f and fm1 == 0x000000 and fs2 == 1 and fe2 == 0x7a and
      fm2 == 0x7ff5c0 and fs3 == 0 and fe3 == 0x7f and fm3 == 0x000052 and  fcsr ==
      0x0 and rm_val == 7   #nosat'
    : 1
    ? 'fs1 == 0 and fe1 == 0x7f and fm1 == 0x000000 and fs2 == 1 and fe2 == 0x7b and
      fm2 == 0x7ffd60 and fs3 == 0 and fe3 == 0x7f and fm3 == 0x00002a and  fcsr ==
      0x0 and rm_val == 7   #nosat'
    : 1
    ? 'fs1 == 0 and fe1 == 0x7f and fm1 == 0x000000 and fs2 == 1 and fe2 == 0x7c and
      fm2 == 0x7ffd58 and fs3 == 0 and fe3 == 0x7f and fm3 == 0x000055 and  fcsr ==
      0x0 and rm_val == 7   #nosat'
    : 1
    ? 'fs1 == 0 and fe1 == 0x7f and fm1 == 0x000000 and fs2 == 1 and fe2 == 0x7d and
      fm2 == 0x7ffec0 and fs3 == 0 and fe3 == 0x7f and fm3 == 0x000050 and  fcsr ==
      0x0 and rm_val == 7   #nosat'
    : 1
    ? 'fs1 == 0 and fe1 == 0x7f and fm1 == 0x000000 and fs2 == 0 and fe2 == 0x80 and
      fm2 == 0x00002d and fs3 == 0 and fe3 == 0x7f and fm3 == 0x000059 and  fcsr ==
      0x0 and rm_val == 7   #nosat'
    : 1
    ? 'fs1 == 0 and fe1 == 0x7f and fm1 == 0x000000 and fs2 == 0 and fe2 == 0x80 and
      fm2 == 0x000016 and fs3 == 0 and fe3 == 0x7f and fm3 == 0x000029 and  fcsr ==
      0x0 and rm_val == 7   #nosat'
    : 1
    ? 'fs1 == 0 and fe1 == 0x7f and fm1 == 0x000000 and fs2 == 0 and fe2 == 0x80 and
      fm2 == 0x000022 and fs3 == 0 and fe3 == 0x7f and fm3 == 0x00003f and  fcsr ==
      0x0 and rm_val == 7   #nosat'
    : 1
    ? 'fs1 == 0 and fe1 == 0x7f and fm1 == 0x000000 and fs2 == 0 and fe2 == 0x80 and
      fm2 == 0x000017 and fs3 == 0 and fe3 == 0x7f and fm3 == 0x000026 and  fcsr ==
      0x0 and rm_val == 7   #nosat'
    : 1
    ? 'fs1 == 0 and fe1 == 0x7f and fm1 == 0x000000 and fs2 == 0 and fe2 == 0x80 and
      fm2 == 0x000030 and fs3 == 0 and fe3 == 0x7f and fm3 == 0x000050 and  fcsr ==
      0x0 and rm_val == 7   #nosat'
    : 1
    ? 'fs1 == 0 and fe1 == 0x7f and fm1 == 0x000000 and fs2 == 0 and fe2 == 0x80 and
      fm2 == 0x000014 and fs3 == 0 and fe3 == 0x7f and fm3 == 0x000008 and  fcsr ==
      0x0 and rm_val == 7   #nosat'
    : 1
    ? 'fs1 == 0 and fe1 == 0x7f and fm1 == 0x000000 and fs2 == 0 and fe2 == 0x80 and
      fm2 == 0x000022 and fs3 == 0 and fe3 == 0x7f and fm3 == 0x000004 and  fcsr ==
      0x0 and rm_val == 7   #nosat'
    : 1
    ? 'fs1 == 0 and fe1 == 0x7f and fm1 == 0x000000 and fs2 == 0 and fe2 == 0x80 and
      fm2 == 0x00006c and fs3 == 0 and fe3 == 0x7f and fm3 == 0x000058 and  fcsr ==
      0x0 and rm_val == 7   #nosat'
    : 1
    ? 'fs1 == 0 and fe1 == 0x7f and fm1 == 0x000000 and fs2 == 0 and fe2 == 0x80 and
      fm2 == 0x000098 and fs3 == 0 and fe3 == 0x7f and fm3 == 0x00002f and  fcsr ==
      0x0 and rm_val == 7   #nosat'
    : 1
    ? 'fs1 == 0 and fe1 == 0x7f and fm1 == 0x000000 and fs2 == 0 and fe2 == 0x80 and
      fm2 == 0x000126 and fs3 == 0 and fe3 == 0x7f and fm3 == 0x00004c and  fcsr ==
      0x0 and rm_val == 7   #nosat'
    : 1
    ? 'fs1 == 0 and fe1 == 0x7f and fm1 == 0x000000 and fs2 == 0 and fe2 == 0x80 and
      fm2 == 0x00020c and fs3 == 0 and fe3 == 0x7f and fm3 == 0x000019 and  fcsr ==
      0x0 and rm_val == 7   #nosat'
    : 1
    ? 'fs1 == 0 and fe1 == 0x7f and fm1 == 0x000000 and fs2 == 0 and fe2 == 0x80 and
      fm2 == 0x000412 and fs3 == 0 and fe3 == 0x7f and fm3 == 0x000023 and  fcsr ==
      0x0 and rm_val == 7   #nosat'
    : 1
    ? 'fs1 == 0 and fe1 == 0x7f and fm1 == 0x000000 and fs2 == 0 and fe2 == 0x80 and
      fm2 == 0x00081c and fs3 == 0 and fe3 == 0x7f and fm3 == 0x000037 and  fcsr ==
      0x0 and rm_val == 7   #nosat'
    : 1
    ? 'fs1 == 0 and fe1 == 0x7f and fm1 == 0x000000 and fs2 == 0 and fe2 == 0x80 and
      fm2 == 0x001005 and fs3 == 0 and fe3 == 0x7f and fm3 == 0x00000a and  fcsr ==
      0x0 and rm_val == 7   #nosat'
    : 1
    ? 'fs1 == 0 and fe1 == 0x7f and fm1 == 0x000000 and fs2 == 0 and fe2 == 0x80 and
      fm2 == 0x00200f and fs3 == 0 and fe3 == 0x7f and fm3 == 0x00001e and  fcsr ==
      0x0 and rm_val == 7   #nosat'
    : 1
    ? 'fs1 == 0 and fe1 == 0x7f and fm1 == 0x000000 and fs2 == 0 and fe2 == 0x80 and
      fm2 == 0x004018 and fs3 == 0 and fe3 == 0x7f and fm3 == 0x000030 and  fcsr ==
      0x0 and rm_val == 7   #nosat'
    : 1
    ? 'fs1 == 0 and fe1 == 0x7f and fm1 == 0x000000 and fs2 == 0 and fe2 == 0x80 and
      fm2 == 0x00800a and fs3 == 0 and fe3 == 0x7f and fm3 == 0x000013 and  fcsr ==
      0x0 and rm_val == 7   #nosat'
    : 1
    ? 'fs1 == 0 and fe1 == 0x7f and fm1 == 0x000000 and fs2 == 0 and fe2 == 0x80 and
      fm2 == 0x010027 and fs3 == 0 and fe3 == 0x7f and fm3 == 0x00004e and  fcsr ==
      0x0 and rm_val == 7   #nosat'
    : 1
    ? 'fs1 == 0 and fe1 == 0x7f and fm1 == 0x000000 and fs2 == 0 and fe2 == 0x80 and
      fm2 == 0x02000a and fs3 == 0 and fe3 == 0x7f and fm3 == 0x000013 and  fcsr ==
      0x0 and rm_val == 7   #nosat'
    : 1
    ? 'fs1 == 0 and fe1 == 0x7f and fm1 == 0x000000 and fs2 == 0 and fe2 == 0x80 and
      fm2 == 0x040028 and fs3 == 0 and fe3 == 0x7f and fm3 == 0x000051 and  fcsr ==
      0x0 and rm_val == 7   #nosat'
    : 1
    ? 'fs1 == 0 and fe1 == 0x7f and fm1 == 0x000000 and fs2 == 0 and fe2 == 0x80 and
      fm2 == 0x08002e and fs3 == 0 and fe3 == 0x7f and fm3 == 0x00005c and  fcsr ==
      0x0 and rm_val == 7   #nosat'
    : 1
    ? 'fs1 == 0 and fe1 == 0x7f and fm1 == 0x000000 and fs2 == 0 and fe2 == 0x80 and
      fm2 == 0x100003 and fs3 == 0 and fe3 == 0x7f and fm3 == 0x000006 and  fcsr ==
      0x0 and rm_val == 7   #nosat'
    : 1
    ? 'fs1 == 0 and fe1 == 0x7f and fm1 == 0x000000 and fs2 == 0 and fe2 == 0x80 and
      fm2 == 0x20001e and fs3 == 0 and fe3 == 0x7f and fm3 == 0x00003c and  fcsr ==
      0x0 and rm_val == 7   #nosat'
    : 1
    ? 'fs1 == 0 and fe1 == 0x00 and fm1 == 0x000000 and fs2 == 0 and fe2 == 0x85 and
      fm2 == 0x6102a6 and fs3 == 0 and fe3 == 0x00 and fm3 == 0x000051 and  fcsr ==
      0x0 and rm_val == 7   #nosat'
    : 1
    ? 'fs1 == 0 and fe1 == 0x00 and fm1 == 0x000000 and fs2 == 0 and fe2 == 0x85 and
      fm2 == 0x73d370 and fs3 == 0 and fe3 == 0x00 and fm3 == 0x00005a and  fcsr ==
      0x0 and rm_val == 7   #nosat'
    : 1
    ? 'fs1 == 0 and fe1 == 0x00 and fm1 == 0x000000 and fs2 == 0 and fe2 == 0x85 and
      fm2 == 0x4f6465 and fs3 == 0 and fe3 == 0x00 and fm3 == 0x00004f and  fcsr ==
      0x0 and rm_val == 7   #nosat'
    : 1
    ? 'fs1 == 0 and fe1 == 0x00 and fm1 == 0x000000 and fs2 == 0 and fe2 == 0x83 and
      fm2 == 0x068650 and fs3 == 0 and fe3 == 0x00 and fm3 == 0x000015 and  fcsr ==
      0x0 and rm_val == 7   #nosat'
    : 1
    ? 'fs1 == 0 and fe1 == 0x00 and fm1 == 0x000000 and fs2 == 0 and fe2 == 0x85 and
      fm2 == 0x3bc624 and fs3 == 0 and fe3 == 0x00 and fm3 == 0x000054 and  fcsr ==
      0x0 and rm_val == 7   #nosat'
    : 1
    ? 'fs1 == 0 and fe1 == 0x00 and fm1 == 0x000000 and fs2 == 0 and fe2 == 0x84 and
      fm2 == 0x2dc2d2 and fs3 == 0 and fe3 == 0x00 and fm3 == 0x000040 and  fcsr ==
      0x0 and rm_val == 7   #nosat'
    : 1
    ? 'fs1 == 0 and fe1 == 0x00 and fm1 == 0x000000 and fs2 == 0 and fe2 == 0x83 and
      fm2 == 0x3e939b and fs3 == 0 and fe3 == 0x00 and fm3 == 0x000052 and  fcsr ==
      0x0 and rm_val == 7   #nosat'
    : 1
    ? 'fs1 == 0 and fe1 == 0x00 and fm1 == 0x000000 and fs2 == 1 and fe2 == 0x86 and
      fm2 == 0x11bc2c and fs3 == 0 and fe3 == 0x00 and fm3 == 0x000019 and  fcsr ==
      0x0 and rm_val == 7   #nosat'
    : 1
    ? 'fs1 == 0 and fe1 == 0x00 and fm1 == 0x000000 and fs2 == 1 and fe2 == 0x87 and
      fm2 == 0x08a069 and fs3 == 0 and fe3 == 0x00 and fm3 == 0x00003e and  fcsr ==
      0x0 and rm_val == 7   #nosat'
    : 1
    ? 'fs1 == 0 and fe1 == 0x00 and fm1 == 0x000000 and fs2 == 1 and fe2 == 0x88 and
      fm2 == 0x1f65d0 and fs3 == 0 and fe3 == 0x00 and fm3 == 0x00003a and  fcsr ==
      0x0 and rm_val == 7   #nosat'
    : 1
    ? 'fs1 == 0 and fe1 == 0x00 and fm1 == 0x000000 and fs2 == 1 and fe2 == 0x89 and
      fm2 == 0x28ae6a and fs3 == 0 and fe3 == 0x00 and fm3 == 0x00003e and  fcsr ==
      0x0 and rm_val == 7   #nosat'
    : 1
    ? 'fs1 == 0 and fe1 == 0x00 and fm1 == 0x000000 and fs2 == 1 and fe2 == 0x8a and
      fm2 == 0x30202e and fs3 == 0 and fe3 == 0x00 and fm3 == 0x000026 and  fcsr ==
      0x0 and rm_val == 7   #nosat'
    : 1
    ? 'fs1 == 0 and fe1 == 0x00 and fm1 == 0x000000 and fs2 == 1 and fe2 == 0x8b and
      fm2 == 0x31ca2d and fs3 == 0 and fe3 == 0x00 and fm3 == 0x000025 and  fcsr ==
      0x0 and rm_val == 7   #nosat'
    : 1
    ? 'fs1 == 0 and fe1 == 0x00 and fm1 == 0x000000 and fs2 == 1 and fe2 == 0x8c and
      fm2 == 0x334754 and fs3 == 0 and fe3 == 0x00 and fm3 == 0x000005 and  fcsr ==
      0x0 and rm_val == 7   #nosat'
    : 1
    ? 'fs1 == 0 and fe1 == 0x00 and fm1 == 0x000000 and fs2 == 1 and fe2 == 0x8d and
      fm2 == 0x32aa62 and fs3 == 0 and fe3 == 0x00 and fm3 == 0x000041 and  fcsr ==
      0x0 and rm_val == 7   #nosat'
    : 1
    ? 'fs1 == 0 and fe1 == 0x00 and fm1 == 0x000000 and fs2 == 1 and fe2 == 0x8e and
      fm2 == 0x332cb4 and fs3 == 0 and fe3 == 0x00 and fm3 == 0x000024 and  fcsr ==
      0x0 and rm_val == 7   #nosat'
    : 1
    ? 'fs1 == 0 and fe1 == 0x00 and fm1 == 0x000000 and fs2 == 1 and fe2 == 0x8f and
      fm2 == 0x3333b6 and fs3 == 0 and fe3 == 0x00 and fm3 == 0x00003d and  fcsr ==
      0x0 and rm_val == 7   #nosat'
    : 1
    ? 'fs1 == 0 and fe1 == 0x00 and fm1 == 0x000000 and fs2 == 1 and fe2 == 0x90 and
      fm2 == 0x334a21 and fs3 == 0 and fe3 == 0x00 and fm3 == 0x000039 and  fcsr ==
      0x0 and rm_val == 7   #nosat'
    : 1
    ? 'fs1 == 0 and fe1 == 0x00 and fm1 == 0x000000 and fs2 == 1 and fe2 == 0x91 and
      fm2 == 0x335d0c and fs3 == 0 and fe3 == 0x00 and fm3 == 0x000005 and  fcsr ==
      0x0 and rm_val == 7   #nosat'
    : 1
    ? 'fs1 == 0 and fe1 == 0x00 and fm1 == 0x000000 and fs2 == 1 and fe2 == 0x92 and
      fm2 == 0x335b08 and fs3 == 0 and fe3 == 0x00 and fm3 == 0x000020 and  fcsr ==
      0x0 and rm_val == 7   #nosat'
    : 1
    ? 'fs1 == 0 and fe1 == 0x00 and fm1 == 0x000000 and fs2 == 1 and fe2 == 0x93 and
      fm2 == 0x335ac5 and fs3 == 0 and fe3 == 0x00 and fm3 == 0x000045 and  fcsr ==
      0x0 and rm_val == 7   #nosat'
    : 1
    ? 'fs1 == 0 and fe1 == 0x00 and fm1 == 0x000000 and fs2 == 1 and fe2 == 0x94 and
      fm2 == 0x335bb1 and fs3 == 0 and fe3 == 0x00 and fm3 == 0x00005f and  fcsr ==
      0x0 and rm_val == 7   #nosat'
    : 1
    ? 'fs1 == 0 and fe1 == 0x00 and fm1 == 0x000000 and fs2 == 1 and fe2 == 0x95 and
      fm2 == 0x335d47 and fs3 == 0 and fe3 == 0x00 and fm3 == 0x00002c and  fcsr ==
      0x0 and rm_val == 7   #nosat'
    : 1
    ? 'fs1 == 0 and fe1 == 0x00 and fm1 == 0x000000 and fs2 == 0 and fe2 == 0x82 and
      fm2 == 0x001a98 and fs3 == 0 and fe3 == 0x00 and fm3 == 0x000005 and  fcsr ==
      0x0 and rm_val == 7   #nosat'
    : 1
    ? 'fs1 == 0 and fe1 == 0x00 and fm1 == 0x000000 and fs2 == 0 and fe2 == 0x86 and
      fm2 == 0x0953c7 and fs3 == 0 and fe3 == 0x00 and fm3 == 0x00005f and  fcsr ==
      0x0 and rm_val == 7   #nosat'
    : 1
    ? 'fs1 == 0 and fe1 == 0x00 and fm1 == 0x000000 and fs2 == 0 and fe2 == 0x86 and
      fm2 == 0x051f94 and fs3 == 0 and fe3 == 0x00 and fm3 == 0x00005a and  fcsr ==
      0x0 and rm_val == 7   #nosat'
    : 1
    ? 'fs1 == 0 and fe1 == 0x00 and fm1 == 0x000000 and fs2 == 0 and fe2 == 0x85 and
      fm2 == 0x1489a3 and fs3 == 0 and fe3 == 0x00 and fm3 == 0x00002c and  fcsr ==
      0x0 and rm_val == 7   #nosat'
    : 1
    ? 'fs1 == 0 and fe1 == 0x00 and fm1 == 0x000000 and fs2 == 0 and fe2 == 0x84 and
      fm2 == 0x54ff53 and fs3 == 0 and fe3 == 0x00 and fm3 == 0x000015 and  fcsr ==
      0x0 and rm_val == 7   #nosat'
    : 1
    ? 'fs1 == 0 and fe1 == 0x00 and fm1 == 0x000000 and fs2 == 0 and fe2 == 0x85 and
      fm2 == 0x6e3882 and fs3 == 0 and fe3 == 0x00 and fm3 == 0x000034 and  fcsr ==
      0x0 and rm_val == 7   #nosat'
    : 1
    ? 'fs1 == 0 and fe1 == 0x00 and fm1 == 0x000000 and fs2 == 0 and fe2 == 0x86 and
      fm2 == 0x2f298d and fs3 == 0 and fe3 == 0x00 and fm3 == 0x00003c and  fcsr ==
      0x0 and rm_val == 7   #nosat'
    : 1
    ? 'fs1 == 0 and fe1 == 0x00 and fm1 == 0x000000 and fs2 == 0 and fe2 == 0x87 and
      fm2 == 0x13d645 and fs3 == 0 and fe3 == 0x00 and fm3 == 0x000052 and  fcsr ==
      0x0 and rm_val == 7   #nosat'
    : 1
    ? 'fs1 == 0 and fe1 == 0x00 and fm1 == 0x000000 and fs2 == 0 and fe2 == 0x87 and
      fm2 == 0x3ffa57 and fs3 == 0 and fe3 == 0x00 and fm3 == 0x000011 and  fcsr ==
      0x0 and rm_val == 7   #nosat'
    : 1
    ? 'fs1 == 0 and fe1 == 0x00 and fm1 == 0x000000 and fs2 == 0 and fe2 == 0x88 and
      fm2 == 0x437b2c and fs3 == 0 and fe3 == 0x00 and fm3 == 0x00002d and  fcsr ==
      0x0 and rm_val == 7   #nosat'
    : 1
    ? 'fs1 == 0 and fe1 == 0x00 and fm1 == 0x000000 and fs2 == 0 and fe2 == 0x89 and
      fm2 == 0x37bec9 and fs3 == 0 and fe3 == 0x00 and fm3 == 0x000018 and  fcsr ==
      0x0 and rm_val == 7   #nosat'
    : 1
    ? 'fs1 == 0 and fe1 == 0x00 and fm1 == 0x000000 and fs2 == 0 and fe2 == 0x8a and
      fm2 == 0x358e44 and fs3 == 0 and fe3 == 0x00 and fm3 == 0x000018 and  fcsr ==
      0x0 and rm_val == 7   #nosat'
    : 1
    ? 'fs1 == 0 and fe1 == 0x00 and fm1 == 0x000000 and fs2 == 0 and fe2 == 0x8b and
      fm2 == 0x3791f2 and fs3 == 0 and fe3 == 0x00 and fm3 == 0x00005f and  fcsr ==
      0x0 and rm_val == 7   #nosat'
    : 1
    ? 'fs1 == 0 and fe1 == 0x00 and fm1 == 0x000000 and fs2 == 0 and fe2 == 0x8c and
      fm2 == 0x34cfb1 and fs3 == 0 and fe3 == 0x00 and fm3 == 0x000041 and  fcsr ==
      0x0 and rm_val == 7   #nosat'
    : 1
    ? 'fs1 == 0 and fe1 == 0x00 and fm1 == 0x000000 and fs2 == 0 and fe2 == 0x8d and
      fm2 == 0x33b1d3 and fs3 == 0 and fe3 == 0x00 and fm3 == 0x00001d and  fcsr ==
      0x0 and rm_val == 7   #nosat'
    : 1
    ? 'fs1 == 0 and fe1 == 0x00 and fm1 == 0x000000 and fs2 == 0 and fe2 == 0x8e and
      fm2 == 0x33dd44 and fs3 == 0 and fe3 == 0x00 and fm3 == 0x00005a and  fcsr ==
      0x0 and rm_val == 7   #nosat'
    : 1
    ? 'fs1 == 0 and fe1 == 0x00 and fm1 == 0x000000 and fs2 == 0 and fe2 == 0x8f and
      fm2 == 0x338449 and fs3 == 0 and fe3 == 0x00 and fm3 == 0x000036 and  fcsr ==
      0x0 and rm_val == 7   #nosat'
    : 1
    ? 'fs1 == 0 and fe1 == 0x00 and fm1 == 0x000000 and fs2 == 0 and fe2 == 0x90 and
      fm2 == 0x338014 and fs3 == 0 and fe3 == 0x00 and fm3 == 0x000061 and  fcsr ==
      0x0 and rm_val == 7   #nosat'
    : 1
    ? 'fs1 == 0 and fe1 == 0x00 and fm1 == 0x000000 and fs2 == 0 and fe2 == 0x91 and
      fm2 == 0x33635a and fs3 == 0 and fe3 == 0x00 and fm3 == 0x00001f and  fcsr ==
      0x0 and rm_val == 7   #nosat'
    : 1
    ? 'fs1 == 0 and fe1 == 0x00 and fm1 == 0x000000 and fs2 == 0 and fe2 == 0x92 and
      fm2 == 0x33643b and fs3 == 0 and fe3 == 0x00 and fm3 == 0x000049 and  fcsr ==
      0x0 and rm_val == 7   #nosat'
    : 1
    ? 'fs1 == 0 and fe1 == 0x00 and fm1 == 0x000000 and fs2 == 0 and fe2 == 0x93 and
      fm2 == 0x335ee3 and fs3 == 0 and fe3 == 0x00 and fm3 == 0x000019 and  fcsr ==
      0x0 and rm_val == 7   #nosat'
    : 1
    ? 'fs1 == 0 and fe1 == 0x00 and fm1 == 0x000000 and fs2 == 0 and fe2 == 0x94 and
      fm2 == 0x335ed8 and fs3 == 0 and fe3 == 0x00 and fm3 == 0x000031 and  fcsr ==
      0x0 and rm_val == 7   #nosat'
    : 1
    ? 'fs1 == 0 and fe1 == 0x00 and fm1 == 0x000000 and fs2 == 0 and fe2 == 0x95 and
      fm2 == 0x335dc8 and fs3 == 0 and fe3 == 0x00 and fm3 == 0x000002 and  fcsr ==
      0x0 and rm_val == 7   #nosat'
    : 1
    ? 'fs1 == 0 and fe1 == 0x00 and fm1 == 0x000000 and fs2 == 1 and fe2 == 0x96 and
      fm2 == 0x335d5d and fs3 == 0 and fe3 == 0x00 and fm3 == 0x000044 and  fcsr ==
      0x0 and rm_val == 7   #nosat'
    : 1
    ? 'fs1 == 0 and fe1 == 0x00 and fm1 == 0x000000 and fs2 == 1 and fe2 == 0x96 and
      fm2 == 0x335d3a and fs3 == 0 and fe3 == 0x00 and fm3 == 0x00005c and  fcsr ==
      0x0 and rm_val == 7   #nosat'
    : 1
    ? 'fs1 == 0 and fe1 == 0x00 and fm1 == 0x000000 and fs2 == 1 and fe2 == 0x96 and
      fm2 == 0x335d44 and fs3 == 0 and fe3 == 0x00 and fm3 == 0x000053 and  fcsr ==
      0x0 and rm_val == 7   #nosat'
    : 1
    ? 'fs1 == 0 and fe1 == 0x00 and fm1 == 0x000000 and fs2 == 1 and fe2 == 0x96 and
      fm2 == 0x335d82 and fs3 == 0 and fe3 == 0x00 and fm3 == 0x000023 and  fcsr ==
      0x0 and rm_val == 7   #nosat'
    : 1
    ? 'fs1 == 0 and fe1 == 0x00 and fm1 == 0x000000 and fs2 == 1 and fe2 == 0x96 and
      fm2 == 0x335d8c and fs3 == 0 and fe3 == 0x00 and fm3 == 0x000014 and  fcsr ==
      0x0 and rm_val == 7   #nosat'
    : 1
    ? 'fs1 == 0 and fe1 == 0x00 and fm1 == 0x000000 and fs2 == 1 and fe2 == 0x96 and
      fm2 == 0x335d15 and fs3 == 0 and fe3 == 0x00 and fm3 == 0x000059 and  fcsr ==
      0x0 and rm_val == 7   #nosat'
    : 1
    ? 'fs1 == 0 and fe1 == 0x00 and fm1 == 0x000000 and fs2 == 1 and fe2 == 0x96 and
      fm2 == 0x335d1e and fs3 == 0 and fe3 == 0x00 and fm3 == 0x000032 and  fcsr ==
      0x0 and rm_val == 7   #nosat'
    : 1
    ? 'fs1 == 0 and fe1 == 0x00 and fm1 == 0x000000 and fs2 == 1 and fe2 == 0x96 and
      fm2 == 0x335d00 and fs3 == 0 and fe3 == 0x00 and fm3 == 0x000008 and  fcsr ==
      0x0 and rm_val == 7   #nosat'
    : 1
    ? 'fs1 == 0 and fe1 == 0x00 and fm1 == 0x000000 and fs2 == 1 and fe2 == 0x96 and
      fm2 == 0x335c4f and fs3 == 0 and fe3 == 0x00 and fm3 == 0x000006 and  fcsr ==
      0x0 and rm_val == 7   #nosat'
    : 1
    ? 'fs1 == 0 and fe1 == 0x00 and fm1 == 0x000000 and fs2 == 1 and fe2 == 0x96 and
      fm2 == 0x335a67 and fs3 == 0 and fe3 == 0x00 and fm3 == 0x000062 and  fcsr ==
      0x0 and rm_val == 7   #nosat'
    : 1
    ? 'fs1 == 0 and fe1 == 0x00 and fm1 == 0x000000 and fs2 == 1 and fe2 == 0x96 and
      fm2 == 0x33580e and fs3 == 0 and fe3 == 0x00 and fm3 == 0x00000f and  fcsr ==
      0x0 and rm_val == 7   #nosat'
    : 1
    ? 'fs1 == 0 and fe1 == 0x00 and fm1 == 0x000000 and fs2 == 1 and fe2 == 0x96 and
      fm2 == 0x33520e and fs3 == 0 and fe3 == 0x00 and fm3 == 0x000057 and  fcsr ==
      0x0 and rm_val == 7   #nosat'
    : 1
    ? 'fs1 == 0 and fe1 == 0x00 and fm1 == 0x000000 and fs2 == 1 and fe2 == 0x96 and
      fm2 == 0x3346e6 and fs3 == 0 and fe3 == 0x00 and fm3 == 0x00004d and  fcsr ==
      0x0 and rm_val == 7   #nosat'
    : 1
    ? 'fs1 == 0 and fe1 == 0x00 and fm1 == 0x000000 and fs2 == 1 and fe2 == 0x96 and
      fm2 == 0x3330db and fs3 == 0 and fe3 == 0x00 and fm3 == 0x000008 and  fcsr ==
      0x0 and rm_val == 7   #nosat'
    : 1
    ? 'fs1 == 0 and fe1 == 0x00 and fm1 == 0x000000 and fs2 == 1 and fe2 == 0x96 and
      fm2 == 0x3303c5 and fs3 == 0 and fe3 == 0x00 and fm3 == 0x000035 and  fcsr ==
      0x0 and rm_val == 7   #nosat'
    : 1
    ? 'fs1 == 0 and fe1 == 0x00 and fm1 == 0x000000 and fs2 == 1 and fe2 == 0x96 and
      fm2 == 0x32a9d7 and fs3 == 0 and fe3 == 0x00 and fm3 == 0x000062 and  fcsr ==
      0x0 and rm_val == 7   #nosat'
    : 1
    ? 'fs1 == 0 and fe1 == 0x00 and fm1 == 0x000000 and fs2 == 1 and fe2 == 0x96 and
      fm2 == 0x31f6f2 and fs3 == 0 and fe3 == 0x00 and fm3 == 0x00000c and  fcsr ==
      0x0 and rm_val == 7   #nosat'
    : 1
    ? 'fs1 == 0 and fe1 == 0x00 and fm1 == 0x000000 and fs2 == 1 and fe2 == 0x96 and
      fm2 == 0x309039 and fs3 == 0 and fe3 == 0x00 and fm3 == 0x00000a and  fcsr ==
      0x0 and rm_val == 7   #nosat'
    : 1
    ? 'fs1 == 0 and fe1 == 0x00 and fm1 == 0x000000 and fs2 == 1 and fe2 == 0x96 and
      fm2 == 0x2dc2b1 and fs3 == 0 and fe3 == 0x00 and fm3 == 0x000016 and  fcsr ==
      0x0 and rm_val == 7   #nosat'
    : 1
    ? 'fs1 == 0 and fe1 == 0x00 and fm1 == 0x000000 and fs2 == 1 and fe2 == 0x96 and
      fm2 == 0x2827cc and fs3 == 0 and fe3 == 0x00 and fm3 == 0x000010 and  fcsr ==
      0x0 and rm_val == 7   #nosat'
    : 1
    ? 'fs1 == 0 and fe1 == 0x00 and fm1 == 0x000000 and fs2 == 1 and fe2 == 0x96 and
      fm2 == 0x1cf188 and fs3 == 0 and fe3 == 0x00 and fm3 == 0x00005a and  fcsr ==
      0x0 and rm_val == 7   #nosat'
    : 1
    ? 'fs1 == 0 and fe1 == 0x00 and fm1 == 0x000000 and fs2 == 1 and fe2 == 0x96 and
      fm2 == 0x068644 and fs3 == 0 and fe3 == 0x00 and fm3 == 0x000007 and  fcsr ==
      0x0 and rm_val == 7   #nosat'
    : 1
    ? 'fs1 == 0 and fe1 == 0x00 and fm1 == 0x000000 and fs2 == 1 and fe2 == 0x95 and
      fm2 == 0x335cad and fs3 == 0 and fe3 == 0x00 and fm3 == 0x000061 and  fcsr ==
      0x0 and rm_val == 7   #nosat'
    : 1
    ? 'fs1 == 0 and fe1 == 0x00 and fm1 == 0x000000 and fs2 == 0 and fe2 == 0x96 and
      fm2 == 0x335e32 and fs3 == 0 and fe3 == 0x00 and fm3 == 0x000054 and  fcsr ==
      0x0 and rm_val == 7   #nosat'
    : 1
    ? 'fs1 == 0 and fe1 == 0x00 and fm1 == 0x000000 and fs2 == 0 and fe2 == 0x96 and
      fm2 == 0x335dea and fs3 == 0 and fe3 == 0x00 and fm3 == 0x000021 and  fcsr ==
      0x0 and rm_val == 7   #nosat'
    : 1
    ? 'fs1 == 0 and fe1 == 0x00 and fm1 == 0x000000 and fs2 == 0 and fe2 == 0x96 and
      fm2 == 0x335de3 and fs3 == 0 and fe3 == 0x00 and fm3 == 0x00001e and  fcsr ==
      0x0 and rm_val == 7   #nosat'
    : 1
    ? 'fs1 == 0 and fe1 == 0x00 and fm1 == 0x000000 and fs2 == 0 and fe2 == 0x96 and
      fm2 == 0x335e29 and fs3 == 0 and fe3 == 0x00 and fm3 == 0x000054 and  fcsr ==
      0x0 and rm_val == 7   #nosat'
    : 1
    ? 'fs1 == 0 and fe1 == 0x00 and fm1 == 0x000000 and fs2 == 0 and fe2 == 0x96 and
      fm2 == 0x335dda and fs3 == 0 and fe3 == 0x00 and fm3 == 0x000024 and  fcsr ==
      0x0 and rm_val == 7   #nosat'
    : 1
    ? 'fs1 == 0 and fe1 == 0x00 and fm1 == 0x000000 and fs2 == 0 and fe2 == 0x96 and
      fm2 == 0x335dc0 and fs3 == 0 and fe3 == 0x00 and fm3 == 0x000021 and  fcsr ==
      0x0 and rm_val == 7   #nosat'
    : 1
    ? 'fs1 == 0 and fe1 == 0x00 and fm1 == 0x000000 and fs2 == 0 and fe2 == 0x96 and
      fm2 == 0x335dc2 and fs3 == 0 and fe3 == 0x00 and fm3 == 0x000043 and  fcsr ==
      0x0 and rm_val == 7   #nosat'
    : 1
    ? 'fs1 == 0 and fe1 == 0x00 and fm1 == 0x000000 and fs2 == 0 and fe2 == 0x96 and
      fm2 == 0x335d74 and fs3 == 0 and fe3 == 0x00 and fm3 == 0x00004b and  fcsr ==
      0x0 and rm_val == 7   #nosat'
    : 1
    ? 'fs1 == 0 and fe1 == 0x00 and fm1 == 0x000000 and fs2 == 0 and fe2 == 0x96 and
      fm2 == 0x335c99 and fs3 == 0 and fe3 == 0x00 and fm3 == 0x00002f and  fcsr ==
      0x0 and rm_val == 7   #nosat'
    : 1
    ? 'fs1 == 0 and fe1 == 0x00 and fm1 == 0x000000 and fs2 == 0 and fe2 == 0x96 and
      fm2 == 0x335b6d and fs3 == 0 and fe3 == 0x00 and fm3 == 0x000059 and  fcsr ==
      0x0 and rm_val == 7   #nosat'
    : 1
    ? 'fs1 == 0 and fe1 == 0x00 and fm1 == 0x000000 and fs2 == 0 and fe2 == 0x96 and
      fm2 == 0x33584c and fs3 == 0 and fe3 == 0x00 and fm3 == 0x00001d and  fcsr ==
      0x0 and rm_val == 7   #nosat'
    : 1
    ? 'fs1 == 0 and fe1 == 0x00 and fm1 == 0x000000 and fs2 == 0 and fe2 == 0x96 and
      fm2 == 0x3352ca and fs3 == 0 and fe3 == 0x00 and fm3 == 0x00002f and  fcsr ==
      0x0 and rm_val == 7   #nosat'
    : 1
    ? 'fs1 == 0 and fe1 == 0x00 and fm1 == 0x000000 and fs2 == 0 and fe2 == 0x96 and
      fm2 == 0x3347a1 and fs3 == 0 and fe3 == 0x00 and fm3 == 0x000038 and  fcsr ==
      0x0 and rm_val == 7   #nosat'
    : 1
    ? 'fs1 == 0 and fe1 == 0x00 and fm1 == 0x000000 and fs2 == 0 and fe2 == 0x96 and
      fm2 == 0x333126 and fs3 == 0 and fe3 == 0x00 and fm3 == 0x00002d and  fcsr ==
      0x0 and rm_val == 7   #nosat'
    : 1
    ? 'fs1 == 0 and fe1 == 0x00 and fm1 == 0x000000 and fs2 == 0 and fe2 == 0x96 and
      fm2 == 0x330415 and fs3 == 0 and fe3 == 0x00 and fm3 == 0x000004 and  fcsr ==
      0x0 and rm_val == 7   #nosat'
    : 1
    ? 'fs1 == 0 and fe1 == 0x00 and fm1 == 0x000000 and fs2 == 0 and fe2 == 0x96 and
      fm2 == 0x32aa9e and fs3 == 0 and fe3 == 0x00 and fm3 == 0x00002c and  fcsr ==
      0x0 and rm_val == 7   #nosat'
    : 1
    ? 'fs1 == 0 and fe1 == 0x00 and fm1 == 0x000000 and fs2 == 0 and fe2 == 0x96 and
      fm2 == 0x31f75b and fs3 == 0 and fe3 == 0x00 and fm3 == 0x00003f and  fcsr ==
      0x0 and rm_val == 7   #nosat'
    : 1
    ? 'fs1 == 0 and fe1 == 0x00 and fm1 == 0x000000 and fs2 == 0 and fe2 == 0x96 and
      fm2 == 0x30909b and fs3 == 0 and fe3 == 0x00 and fm3 == 0x00003c and  fcsr ==
      0x0 and rm_val == 7   #nosat'
    : 1
    ? 'fs1 == 0 and fe1 == 0x00 and fm1 == 0x000000 and fs2 == 0 and fe2 == 0x96 and
      fm2 == 0x2dc2e1 and fs3 == 0 and fe3 == 0x00 and fm3 == 0x00000c and  fcsr ==
      0x0 and rm_val == 7   #nosat'
    : 1
    ? 'fs1 == 0 and fe1 == 0x00 and fm1 == 0x000000 and fs2 == 0 and fe2 == 0x96 and
      fm2 == 0x28280c and fs3 == 0 and fe3 == 0x00 and fm3 == 0x00001e and  fcsr ==
      0x0 and rm_val == 7   #nosat'
    : 1
    ? 'fs1 == 0 and fe1 == 0x00 and fm1 == 0x000000 and fs2 == 0 and fe2 == 0x96 and
      fm2 == 0x1cf21e and fs3 == 0 and fe3 == 0x00 and fm3 == 0x000011 and  fcsr ==
      0x0 and rm_val == 7   #nosat'
    : 1
    ? 'fs1 == 0 and fe1 == 0x00 and fm1 == 0x000000 and fs2 == 0 and fe2 == 0x96 and
      fm2 == 0x0686b0 and fs3 == 0 and fe3 == 0x00 and fm3 == 0x000046 and  fcsr ==
      0x0 and rm_val == 7   #nosat'
    : 1
    ? 'fs1 == 0 and fe1 == 0x00 and fm1 == 0x000000 and fs2 == 0 and fe2 == 0x95 and
      fm2 == 0x335e16 and fs3 == 0 and fe3 == 0x00 and fm3 == 0x000020 and  fcsr ==
      0x0 and rm_val == 7   #nosat'
    : 1
    ? 'fs1 == 0 and fe1 == 0x01 and fm1 == 0x000000 and fs2 == 0 and fe2 == 0x6e and
      fm2 == 0x180000 and fs3 == 0 and fe3 == 0x01 and fm3 == 0x00004d and  fcsr ==
      0x0 and rm_val == 7   #nosat'
    : 1
    ? 'fs1 == 0 and fe1 == 0x01 and fm1 == 0x000000 and fs2 == 0 and fe2 == 0x6e and
      fm2 == 0x0e0000 and fs3 == 0 and fe3 == 0x01 and fm3 == 0x000049 and  fcsr ==
      0x0 and rm_val == 7   #nosat'
    : 1
    ? 'fs1 == 0 and fe1 == 0x01 and fm1 == 0x000000 and fs2 == 0 and fe2 == 0x6c and
      fm2 == 0x780000 and fs3 == 0 and fe3 == 0x01 and fm3 == 0x000023 and  fcsr ==
      0x0 and rm_val == 7   #nosat'
    : 1
    ? 'fs1 == 0 and fe1 == 0x01 and fm1 == 0x000000 and fs2 == 0 and fe2 == 0x6b and
      fm2 == 0x200000 and fs3 == 0 and fe3 == 0x01 and fm3 == 0x000012 and  fcsr ==
      0x0 and rm_val == 7   #nosat'
    : 1
    ? 'fs1 == 0 and fe1 == 0x01 and fm1 == 0x000000 and fs2 == 1 and fe2 == 0x6b and
      fm2 == 0x300000 and fs3 == 0 and fe3 == 0x01 and fm3 == 0x000005 and  fcsr ==
      0x0 and rm_val == 7   #nosat'
    : 1
    ? 'fs1 == 0 and fe1 == 0x01 and fm1 == 0x000000 and fs2 == 0 and fe2 == 0x6e and
      fm2 == 0x040000 and fs3 == 0 and fe3 == 0x01 and fm3 == 0x000062 and  fcsr ==
      0x0 and rm_val == 7   #nosat'
    : 1
    ? 'fs1 == 0 and fe1 == 0x01 and fm1 == 0x000000 and fs2 == 1 and fe2 == 0x6d and
      fm2 == 0x480000 and fs3 == 0 and fe3 == 0x01 and fm3 == 0x00000e and  fcsr ==
      0x0 and rm_val == 7   #nosat'
    : 1
    ? 'fs1 == 0 and fe1 == 0x01 and fm1 == 0x000000 and fs2 == 1 and fe2 == 0x6d and
      fm2 == 0x580000 and fs3 == 0 and fe3 == 0x01 and fm3 == 0x00004a and  fcsr ==
      0x0 and rm_val == 7   #nosat'
    : 1
    ? 'fs1 == 0 and fe1 == 0x01 and fm1 == 0x000000 and fs2 == 1 and fe2 == 0x6f and
      fm2 == 0x7f0000 and fs3 == 0 and fe3 == 0x01 and fm3 == 0x000001 and  fcsr ==
      0x0 and rm_val == 7   #nosat'
    : 1
    ? 'fs1 == 0 and fe1 == 0x01 and fm1 == 0x000000 and fs2 == 1 and fe2 == 0x70 and
      fm2 == 0x780000 and fs3 == 0 and fe3 == 0x01 and fm3 == 0x000010 and  fcsr ==
      0x0 and rm_val == 7   #nosat'
    : 1
    ? 'fs1 == 0 and fe1 == 0x01 and fm1 == 0x000000 and fs2 == 1 and fe2 == 0x71 and
      fm2 == 0x6d0000 and fs3 == 0 and fe3 == 0x01 and fm3 == 0x00004c and  fcsr ==
      0x0 and rm_val == 7   #nosat'
    : 1
    ? 'fs1 == 0 and fe1 == 0x01 and fm1 == 0x000000 and fs2 == 1 and fe2 == 0x72 and
      fm2 == 0x786000 and fs3 == 0 and fe3 == 0x01 and fm3 == 0x00003d and  fcsr ==
      0x0 and rm_val == 7   #nosat'
    : 1
    ? 'fs1 == 0 and fe1 == 0x01 and fm1 == 0x000000 and fs2 == 1 and fe2 == 0x73 and
      fm2 == 0x7bc000 and fs3 == 0 and fe3 == 0x01 and fm3 == 0x000044 and  fcsr ==
      0x0 and rm_val == 7   #nosat'
    : 1
    ? 'fs1 == 0 and fe1 == 0x01 and fm1 == 0x000000 and fs2 == 1 and fe2 == 0x74 and
      fm2 == 0x7f2000 and fs3 == 0 and fe3 == 0x01 and fm3 == 0x00001c and  fcsr ==
      0x0 and rm_val == 7   #nosat'
    : 1
    ? 'fs1 == 0 and fe1 == 0x01 and fm1 == 0x000000 and fs2 == 1 and fe2 == 0x75 and
      fm2 == 0x7fb000 and fs3 == 0 and fe3 == 0x01 and fm3 == 0x000014 and  fcsr ==
      0x0 and rm_val == 7   #nosat'
    : 1
    ? 'fs1 == 0 and fe1 == 0x01 and fm1 == 0x000000 and fs2 == 1 and fe2 == 0x76 and
      fm2 == 0x7ffc00 and fs3 == 0 and fe3 == 0x01 and fm3 == 0x000002 and  fcsr ==
      0x0 and rm_val == 7   #nosat'
    : 1
    ? 'fs1 == 0 and fe1 == 0x01 and fm1 == 0x000000 and fs2 == 1 and fe2 == 0x77 and
      fm2 == 0x7fca00 and fs3 == 0 and fe3 == 0x01 and fm3 == 0x000036 and  fcsr ==
      0x0 and rm_val == 7   #nosat'
    : 1
    ? 'fs1 == 0 and fe1 == 0x01 and fm1 == 0x000000 and fs2 == 1 and fe2 == 0x78 and
      fm2 == 0x7feb80 and fs3 == 0 and fe3 == 0x01 and fm3 == 0x000029 and  fcsr ==
      0x0 and rm_val == 7   #nosat'
    : 1
    ? 'fs1 == 0 and fe1 == 0x01 and fm1 == 0x000000 and fs2 == 1 and fe2 == 0x79 and
      fm2 == 0x7ff6c0 and fs3 == 0 and fe3 == 0x01 and fm3 == 0x000025 and  fcsr ==
      0x0 and rm_val == 7   #nosat'
    : 1
    ? 'fs1 == 0 and fe1 == 0x01 and fm1 == 0x000000 and fs2 == 1 and fe2 == 0x7a and
      fm2 == 0x7ff680 and fs3 == 0 and fe3 == 0x01 and fm3 == 0x00004c and  fcsr ==
      0x0 and rm_val == 7   #nosat'
    : 1
    ? 'fs1 == 0 and fe1 == 0x01 and fm1 == 0x000000 and fs2 == 1 and fe2 == 0x7b and
      fm2 == 0x7ffe30 and fs3 == 0 and fe3 == 0x01 and fm3 == 0x00001d and  fcsr ==
      0x0 and rm_val == 7   #nosat'
    : 1
    ? 'fs1 == 0 and fe1 == 0x01 and fm1 == 0x000000 and fs2 == 1 and fe2 == 0x7c and
      fm2 == 0x7ffec0 and fs3 == 0 and fe3 == 0x01 and fm3 == 0x000028 and  fcsr ==
      0x0 and rm_val == 7   #nosat'
    : 1
    ? 'fs1 == 0 and fe1 == 0x01 and fm1 == 0x000000 and fs2 == 1 and fe2 == 0x7d and
      fm2 == 0x7fffd4 and fs3 == 0 and fe3 == 0x01 and fm3 == 0x00000b and  fcsr ==
      0x0 and rm_val == 7   #nosat'
    : 1
    ? 'fs1 == 0 and fe1 == 0x01 and fm1 == 0x000000 and fs2 == 0 and fe2 == 0x80 and
      fm2 == 0x000028 and fs3 == 0 and fe3 == 0x01 and fm3 == 0x000050 and  fcsr ==
      0x0 and rm_val == 7   #nosat'
    : 1
    ? 'fs1 == 0 and fe1 == 0x01 and fm1 == 0x000000 and fs2 == 0 and fe2 == 0x80 and
      fm2 == 0x00002a and fs3 == 0 and fe3 == 0x01 and fm3 == 0x000053 and  fcsr ==
      0x0 and rm_val == 7   #nosat'
    : 1
    ? 'fs1 == 0 and fe1 == 0x01 and fm1 == 0x000000 and fs2 == 0 and fe2 == 0x80 and
      fm2 == 0x00000e and fs3 == 0 and fe3 == 0x01 and fm3 == 0x000019 and  fcsr ==
      0x0 and rm_val == 7   #nosat'
    : 1
    ? 'fs1 == 0 and fe1 == 0x01 and fm1 == 0x000000 and fs2 == 0 and fe2 == 0x80 and
      fm2 == 0x00001e and fs3 == 0 and fe3 == 0x01 and fm3 == 0x000035 and  fcsr ==
      0x0 and rm_val == 7   #nosat'
    : 1
    ? 'fs1 == 0 and fe1 == 0x01 and fm1 == 0x000000 and fs2 == 0 and fe2 == 0x80 and
      fm2 == 0x000038 and fs3 == 0 and fe3 == 0x01 and fm3 == 0x000061 and  fcsr ==
      0x0 and rm_val == 7   #nosat'
    : 1
    ? 'fs1 == 0 and fe1 == 0x01 and fm1 == 0x000000 and fs2 == 0 and fe2 == 0x80 and
      fm2 == 0x000032 and fs3 == 0 and fe3 == 0x01 and fm3 == 0x000043 and  fcsr ==
      0x0 and rm_val == 7   #nosat'
    : 1
    ? 'fs1 == 0 and fe1 == 0x01 and fm1 == 0x000000 and fs2 == 0 and fe2 == 0x80 and
      fm2 == 0x000042 and fs3 == 0 and fe3 == 0x01 and fm3 == 0x000043 and  fcsr ==
      0x0 and rm_val == 7   #nosat'
    : 1
    ? 'fs1 == 0 and fe1 == 0x01 and fm1 == 0x000000 and fs2 == 0 and fe2 == 0x80 and
      fm2 == 0x000058 and fs3 == 0 and fe3 == 0x01 and fm3 == 0x00002f and  fcsr ==
      0x0 and rm_val == 7   #nosat'
    : 1
    ? 'fs1 == 0 and fe1 == 0x01 and fm1 == 0x000000 and fs2 == 0 and fe2 == 0x80 and
      fm2 == 0x0000ae and fs3 == 0 and fe3 == 0x01 and fm3 == 0x00005c and  fcsr ==
      0x0 and rm_val == 7   #nosat'
    : 1
    ? 'fs1 == 0 and fe1 == 0x01 and fm1 == 0x000000 and fs2 == 0 and fe2 == 0x80 and
      fm2 == 0x000112 and fs3 == 0 and fe3 == 0x01 and fm3 == 0x000023 and  fcsr ==
      0x0 and rm_val == 7   #nosat'
    : 1
    ? 'fs1 == 0 and fe1 == 0x01 and fm1 == 0x000000 and fs2 == 0 and fe2 == 0x80 and
      fm2 == 0x000211 and fs3 == 0 and fe3 == 0x01 and fm3 == 0x000022 and  fcsr ==
      0x0 and rm_val == 7   #nosat'
    : 1
    ? 'fs1 == 0 and fe1 == 0x01 and fm1 == 0x000000 and fs2 == 0 and fe2 == 0x80 and
      fm2 == 0x000403 and fs3 == 0 and fe3 == 0x01 and fm3 == 0x000006 and  fcsr ==
      0x0 and rm_val == 7   #nosat'
    : 1
    ? 'fs1 == 0 and fe1 == 0x01 and fm1 == 0x000000 and fs2 == 0 and fe2 == 0x80 and
      fm2 == 0x000826 and fs3 == 0 and fe3 == 0x01 and fm3 == 0x00004c and  fcsr ==
      0x0 and rm_val == 7   #nosat'
    : 1
    ? 'fs1 == 0 and fe1 == 0x01 and fm1 == 0x000000 and fs2 == 0 and fe2 == 0x80 and
      fm2 == 0x001020 and fs3 == 0 and fe3 == 0x01 and fm3 == 0x000041 and  fcsr ==
      0x0 and rm_val == 7   #nosat'
    : 1
    ? 'fs1 == 0 and fe1 == 0x01 and fm1 == 0x000000 and fs2 == 0 and fe2 == 0x80 and
      fm2 == 0x00202c and fs3 == 0 and fe3 == 0x01 and fm3 == 0x000059 and  fcsr ==
      0x0 and rm_val == 7   #nosat'
    : 1
    ? 'fs1 == 0 and fe1 == 0x01 and fm1 == 0x000000 and fs2 == 0 and fe2 == 0x80 and
      fm2 == 0x004006 and fs3 == 0 and fe3 == 0x01 and fm3 == 0x00000c and  fcsr ==
      0x0 and rm_val == 7   #nosat'
    : 1
    ? 'fs1 == 0 and fe1 == 0x01 and fm1 == 0x000000 and fs2 == 0 and fe2 == 0x80 and
      fm2 == 0x00800e and fs3 == 0 and fe3 == 0x01 and fm3 == 0x00001c and  fcsr ==
      0x0 and rm_val == 7   #nosat'
    : 1
    ? 'fs1 == 0 and fe1 == 0x01 and fm1 == 0x000000 and fs2 == 0 and fe2 == 0x80 and
      fm2 == 0x010016 and fs3 == 0 and fe3 == 0x01 and fm3 == 0x00002c and  fcsr ==
      0x0 and rm_val == 7   #nosat'
    : 1
    ? 'fs1 == 0 and fe1 == 0x01 and fm1 == 0x000000 and fs2 == 0 and fe2 == 0x80 and
      fm2 == 0x02002f and fs3 == 0 and fe3 == 0x01 and fm3 == 0x00005e and  fcsr ==
      0x0 and rm_val == 7   #nosat'
    : 1
    ? 'fs1 == 0 and fe1 == 0x01 and fm1 == 0x000000 and fs2 == 0 and fe2 == 0x80 and
      fm2 == 0x04000c and fs3 == 0 and fe3 == 0x01 and fm3 == 0x000017 and  fcsr ==
      0x0 and rm_val == 7   #nosat'
    : 1
    ? 'fs1 == 0 and fe1 == 0x01 and fm1 == 0x000000 and fs2 == 0 and fe2 == 0x80 and
      fm2 == 0x08000e and fs3 == 0 and fe3 == 0x01 and fm3 == 0x00001d and  fcsr ==
      0x0 and rm_val == 7   #nosat'
    : 1
    ? 'fs1 == 0 and fe1 == 0x01 and fm1 == 0x000000 and fs2 == 0 and fe2 == 0x80 and
      fm2 == 0x10001f and fs3 == 0 and fe3 == 0x01 and fm3 == 0x00003e and  fcsr ==
      0x0 and rm_val == 7   #nosat'
    : 1
    ? 'fs1 == 0 and fe1 == 0x01 and fm1 == 0x000000 and fs2 == 0 and fe2 == 0x80 and
      fm2 == 0x200028 and fs3 == 0 and fe3 == 0x01 and fm3 == 0x000050 and  fcsr ==
      0x0 and rm_val == 7   #nosat'
    : 1
    ? 'fs1 == 0 and fe1 == 0xfe and fm1 == 0x000000 and fs2 == 1 and fe2 == 0x7e and
      fm2 == 0x7fff42 and fs3 == 0 and fe3 == 0xfe and fm3 == 0x00005d and  fcsr ==
      0x0 and rm_val == 7   #nosat'
    : 1
    ? 'fs1 == 0 and fe1 == 0xfe and fm1 == 0x000000 and fs2 == 1 and fe2 == 0x7e and
      fm2 == 0x7fff84 and fs3 == 0 and fe3 == 0xfe and fm3 == 0x00003b and  fcsr ==
      0x0 and rm_val == 7   #nosat'
    : 1
    ? 'fs1 == 0 and fe1 == 0xfe and fm1 == 0x000000 and fs2 == 1 and fe2 == 0x7e and
      fm2 == 0x7fff62 and fs3 == 0 and fe3 == 0xfe and fm3 == 0x00004a and  fcsr ==
      0x0 and rm_val == 7   #nosat'
    : 1
    ? 'fs1 == 0 and fe1 == 0xfe and fm1 == 0x000000 and fs2 == 1 and fe2 == 0x7e and
      fm2 == 0x7fff32 and fs3 == 0 and fe3 == 0xfe and fm3 == 0x00005e and  fcsr ==
      0x0 and rm_val == 7   #nosat'
    : 1
    ? 'fs1 == 0 and fe1 == 0xfe and fm1 == 0x000000 and fs2 == 1 and fe2 == 0x7e and
      fm2 == 0x7fff88 and fs3 == 0 and fe3 == 0xfe and fm3 == 0x00002b and  fcsr ==
      0x0 and rm_val == 7   #nosat'
    : 1
    ? 'fs1 == 0 and fe1 == 0xfe and fm1 == 0x000000 and fs2 == 1 and fe2 == 0x7e and
      fm2 == 0x7fffac and fs3 == 0 and fe3 == 0xfe and fm3 == 0x000009 and  fcsr ==
      0x0 and rm_val == 7   #nosat'
    : 1
    ? 'fs1 == 0 and fe1 == 0xfe and fm1 == 0x000000 and fs2 == 1 and fe2 == 0x7e and
      fm2 == 0x7ffebc and fs3 == 0 and fe3 == 0xfe and fm3 == 0x000061 and  fcsr ==
      0x0 and rm_val == 7   #nosat'
    : 1
    ? 'fs1 == 0 and fe1 == 0xfe and fm1 == 0x000000 and fs2 == 1 and fe2 == 0x7e and
      fm2 == 0x7ffeee and fs3 == 0 and fe3 == 0xfe and fm3 == 0x000008 and  fcsr ==
      0x0 and rm_val == 7   #nosat'
    : 1
    ? 'fs1 == 0 and fe1 == 0xfe and fm1 == 0x000000 and fs2 == 1 and fe2 == 0x7e and
      fm2 == 0x7ffd82 and fs3 == 0 and fe3 == 0xfe and fm3 == 0x00003e and  fcsr ==
      0x0 and rm_val == 7   #nosat'
    : 1
    ? 'fs1 == 0 and fe1 == 0xfe and fm1 == 0x000000 and fs2 == 1 and fe2 == 0x7e and
      fm2 == 0x7ffbac and fs3 == 0 and fe3 == 0xfe and fm3 == 0x000029 and  fcsr ==
      0x0 and rm_val == 7   #nosat'
    : 1
    ? 'fs1 == 0 and fe1 == 0xfe and fm1 == 0x000000 and fs2 == 1 and fe2 == 0x7e and
      fm2 == 0x7ff7fa and fs3 == 0 and fe3 == 0xfe and fm3 == 0x000002 and  fcsr ==
      0x0 and rm_val == 7   #nosat'
    : 1
    ? 'fs1 == 0 and fe1 == 0xfe and fm1 == 0x000000 and fs2 == 1 and fe2 == 0x7e and
      fm2 == 0x7fef44 and fs3 == 0 and fe3 == 0xfe and fm3 == 0x00005d and  fcsr ==
      0x0 and rm_val == 7   #nosat'
    : 1
    ? 'fs1 == 0 and fe1 == 0xfe and fm1 == 0x000000 and fs2 == 1 and fe2 == 0x7e and
      fm2 == 0x7fdf9a and fs3 == 0 and fe3 == 0xfe and fm3 == 0x000032 and  fcsr ==
      0x0 and rm_val == 7   #nosat'
    : 1
    ? 'fs1 == 0 and fe1 == 0xfe and fm1 == 0x000000 and fs2 == 1 and fe2 == 0x7e and
      fm2 == 0x7fbfe2 and fs3 == 0 and fe3 == 0xfe and fm3 == 0x00000e and  fcsr ==
      0x0 and rm_val == 7   #nosat'
    : 1
    ? 'fs1 == 0 and fe1 == 0xfe and fm1 == 0x000000 and fs2 == 1 and fe2 == 0x7e and
      fm2 == 0x7f7fd8 and fs3 == 0 and fe3 == 0xfe and fm3 == 0x000013 and  fcsr ==
      0x0 and rm_val == 7   #nosat'
    : 1
    ? 'fs1 == 0 and fe1 == 0xfe and fm1 == 0x000000 and fs2 == 1 and fe2 == 0x7e and
      fm2 == 0x7eff9e and fs3 == 0 and fe3 == 0xfe and fm3 == 0x000030 and  fcsr ==
      0x0 and rm_val == 7   #nosat'
    : 1
    ? 'fs1 == 0 and fe1 == 0xfe and fm1 == 0x000000 and fs2 == 1 and fe2 == 0x7e and
      fm2 == 0x7dff3e and fs3 == 0 and fe3 == 0xfe and fm3 == 0x000060 and  fcsr ==
      0x0 and rm_val == 7   #nosat'
    : 1
    ? 'fs1 == 0 and fe1 == 0xfe and fm1 == 0x000000 and fs2 == 1 and fe2 == 0x7e and
      fm2 == 0x7bfff8 and fs3 == 0 and fe3 == 0xfe and fm3 == 0x000003 and  fcsr ==
      0x0 and rm_val == 7   #nosat'
    : 1
    ? 'fs1 == 0 and fe1 == 0xfe and fm1 == 0x000000 and fs2 == 1 and fe2 == 0x7e and
      fm2 == 0x77ffe2 and fs3 == 0 and fe3 == 0xfe and fm3 == 0x00000e and  fcsr ==
      0x0 and rm_val == 7   #nosat'
    : 1
    ? 'fs1 == 0 and fe1 == 0xfe and fm1 == 0x000000 and fs2 == 1 and fe2 == 0x7e and
      fm2 == 0x6fff9e and fs3 == 0 and fe3 == 0xfe and fm3 == 0x000030 and  fcsr ==
      0x0 and rm_val == 7   #nosat'
    : 1
    ? 'fs1 == 0 and fe1 == 0xfe and fm1 == 0x000000 and fs2 == 1 and fe2 == 0x7e and
      fm2 == 0x5fffdc and fs3 == 0 and fe3 == 0xfe and fm3 == 0x000011 and  fcsr ==
      0x0 and rm_val == 7   #nosat'
    : 1
    ? 'fs1 == 0 and fe1 == 0xfe and fm1 == 0x000000 and fs2 == 1 and fe2 == 0x7e and
      fm2 == 0x3fffba and fs3 == 0 and fe3 == 0xfe and fm3 == 0x000022 and  fcsr ==
      0x0 and rm_val == 7   #nosat'
    : 1
    ? 'fs1 == 0 and fe1 == 0xfe and fm1 == 0x000000 and fs2 == 1 and fe2 == 0x7d and
      fm2 == 0x7fff04 and fs3 == 0 and fe3 == 0xfe and fm3 == 0x00003e and  fcsr ==
      0x0 and rm_val == 7   #nosat'
    : 1
    ? 'fs1 == 0 and fe1 == 0xfe and fm1 == 0x000000 and fs2 == 0 and fe2 == 0x80 and
      fm2 == 0x400019 and fs3 == 0 and fe3 == 0xfe and fm3 == 0x000034 and  fcsr ==
      0x0 and rm_val == 7   #nosat'
    : 1
    ? 'fs1 == 0 and fe1 == 0xfe and fm1 == 0x000000 and fs2 == 0 and fe2 == 0x80 and
      fm2 == 0x400022 and fs3 == 0 and fe3 == 0xfe and fm3 == 0x000046 and  fcsr ==
      0x0 and rm_val == 7   #nosat'
    : 1
    ? 'fs1 == 0 and fe1 == 0xfe and fm1 == 0x000000 and fs2 == 0 and fe2 == 0x80 and
      fm2 == 0x40001a and fs3 == 0 and fe3 == 0xfe and fm3 == 0x000039 and  fcsr ==
      0x0 and rm_val == 7   #nosat'
    : 1
    ? 'fs1 == 0 and fe1 == 0xfe and fm1 == 0x000000 and fs2 == 0 and fe2 == 0x80 and
      fm2 == 0x40000c and fs3 == 0 and fe3 == 0xfe and fm3 == 0x000021 and  fcsr ==
      0x0 and rm_val == 7   #nosat'
    : 1
    ? 'fs1 == 0 and fe1 == 0xfe and fm1 == 0x000000 and fs2 == 0 and fe2 == 0x80 and
      fm2 == 0x40000a and fs3 == 0 and fe3 == 0xfe and fm3 == 0x000026 and  fcsr ==
      0x0 and rm_val == 7   #nosat'
    : 1
    ? 'fs1 == 0 and fe1 == 0xfe and fm1 == 0x000000 and fs2 == 0 and fe2 == 0x80 and
      fm2 == 0x40000c and fs3 == 0 and fe3 == 0xfe and fm3 == 0x00003a and  fcsr ==
      0x0 and rm_val == 7   #nosat'
    : 1
    ? 'fs1 == 0 and fe1 == 0xfe and fm1 == 0x000000 and fs2 == 0 and fe2 == 0x80 and
      fm2 == 0x400000 and fs3 == 0 and fe3 == 0xfe and fm3 == 0x000041 and  fcsr ==
      0x0 and rm_val == 7   #nosat'
    : 1
    ? 'fs1 == 0 and fe1 == 0xfe and fm1 == 0x000000 and fs2 == 0 and fe2 == 0x80 and
      fm2 == 0x3fffea and fs3 == 0 and fe3 == 0xfe and fm3 == 0x000055 and  fcsr ==
      0x0 and rm_val == 7   #nosat'
    : 1
    ? 'fs1 == 0 and fe1 == 0xfe and fm1 == 0x000000 and fs2 == 0 and fe2 == 0x80 and
      fm2 == 0x3fffa2 and fs3 == 0 and fe3 == 0xfe and fm3 == 0x000044 and  fcsr ==
      0x0 and rm_val == 7   #nosat'
    : 1
    ? 'fs1 == 0 and fe1 == 0xfe and fm1 == 0x000000 and fs2 == 0 and fe2 == 0x80 and
      fm2 == 0x3fff24 and fs3 == 0 and fe3 == 0xfe and fm3 == 0x000048 and  fcsr ==
      0x0 and rm_val == 7   #nosat'
    : 1
    ? 'fs1 == 0 and fe1 == 0xfe and fm1 == 0x000000 and fs2 == 0 and fe2 == 0x80 and
      fm2 == 0x3ffe0a and fs3 == 0 and fe3 == 0xfe and fm3 == 0x000016 and  fcsr ==
      0x0 and rm_val == 7   #nosat'
    : 1
    ? 'fs1 == 0 and fe1 == 0xfe and fm1 == 0x000000 and fs2 == 0 and fe2 == 0x80 and
      fm2 == 0x3ffc14 and fs3 == 0 and fe3 == 0xfe and fm3 == 0x00002a and  fcsr ==
      0x0 and rm_val == 7   #nosat'
    : 1
    ? 'fs1 == 0 and fe1 == 0xfe and fm1 == 0x000000 and fs2 == 0 and fe2 == 0x80 and
      fm2 == 0x3ff80d and fs3 == 0 and fe3 == 0xfe and fm3 == 0x00001b and  fcsr ==
      0x0 and rm_val == 7   #nosat'
    : 1
    ? 'fs1 == 0 and fe1 == 0xfe and fm1 == 0x000000 and fs2 == 0 and fe2 == 0x80 and
      fm2 == 0x3ff00c and fs3 == 0 and fe3 == 0xfe and fm3 == 0x000019 and  fcsr ==
      0x0 and rm_val == 7   #nosat'
    : 1
    ? 'fs1 == 0 and fe1 == 0xfe and fm1 == 0x000000 and fs2 == 0 and fe2 == 0x80 and
      fm2 == 0x3fe012 and fs3 == 0 and fe3 == 0xfe and fm3 == 0x000024 and  fcsr ==
      0x0 and rm_val == 7   #nosat'
    : 1
    ? 'fs1 == 0 and fe1 == 0xfe and fm1 == 0x000000 and fs2 == 0 and fe2 == 0x80 and
      fm2 == 0x3fc011 and fs3 == 0 and fe3 == 0xfe and fm3 == 0x000023 and  fcsr ==
      0x0 and rm_val == 7   #nosat'
    : 1
    ? 'fs1 == 0 and fe1 == 0xfe and fm1 == 0x000000 and fs2 == 0 and fe2 == 0x80 and
      fm2 == 0x3f802c and fs3 == 0 and fe3 == 0xfe and fm3 == 0x00005a and  fcsr ==
      0x0 and rm_val == 7   #nosat'
    : 1
    ? 'fs1 == 0 and fe1 == 0xfe and fm1 == 0x000000 and fs2 == 0 and fe2 == 0x80 and
      fm2 == 0x3f000e and fs3 == 0 and fe3 == 0xfe and fm3 == 0x00001c and  fcsr ==
      0x0 and rm_val == 7   #nosat'
    : 1
    ? 'fs1 == 0 and fe1 == 0xfe and fm1 == 0x000000 and fs2 == 0 and fe2 == 0x80 and
      fm2 == 0x3e0026 and fs3 == 0 and fe3 == 0xfe and fm3 == 0x00004d and  fcsr ==
      0x0 and rm_val == 7   #nosat'
    : 1
    ? 'fs1 == 0 and fe1 == 0xfe and fm1 == 0x000000 and fs2 == 0 and fe2 == 0x80 and
      fm2 == 0x3c0006 and fs3 == 0 and fe3 == 0xfe and fm3 == 0x00000c and  fcsr ==
      0x0 and rm_val == 7   #nosat'
    : 1
    ? 'fs1 == 0 and fe1 == 0xfe and fm1 == 0x000000 and fs2 == 0 and fe2 == 0x80 and
      fm2 == 0x380024 and fs3 == 0 and fe3 == 0xfe and fm3 == 0x00004a and  fcsr ==
      0x0 and rm_val == 7   #nosat'
    : 1
    ? 'fs1 == 0 and fe1 == 0xfe and fm1 == 0x000000 and fs2 == 0 and fe2 == 0x80 and
      fm2 == 0x300016 and fs3 == 0 and fe3 == 0xfe and fm3 == 0x00002d and  fcsr ==
      0x0 and rm_val == 7   #nosat'
    : 1
    ? 'fs1 == 0 and fe1 == 0xfe and fm1 == 0x000000 and fs2 == 0 and fe2 == 0x80 and
      fm2 == 0x20001e and fs3 == 0 and fe3 == 0xfe and fm3 == 0x00003e and  fcsr ==
      0x0 and rm_val == 7   #nosat'
    : 1
    coverage: 276/276
  total_coverage: 417/417
