---
fmul_b9:
  config:
  - check ISA:=regex(.*I.*F.*Zfh.*)
  mnemonics:
    fmul.h: 136
    coverage: 1/1
  op_comb:
    rs1 != rs2  and rs1 != rd and rs2 != rd: 132
    rs1 == rd != rs2: 1
    rs1 == rs2 != rd: 1
    rs1 == rs2 == rd: 1
    rs2 == rd != rs1: 1
    coverage: 5/5
  rd:
    f0: 1
    f1: 1
    f10: 1
    f11: 1
    f12: 1
    f13: 1
    f14: 1
    f15: 1
    f16: 1
    f17: 1
    f18: 1
    f19: 1
    f2: 1
    f20: 1
    f21: 1
    f22: 1
    f23: 1
    f24: 1
    f25: 1
    f26: 1
    f27: 1
    f28: 1
    f29: 1
    f3: 1
    f30: 1
    f31: 105
    f4: 1
    f5: 1
    f6: 1
    f7: 1
    f8: 1
    f9: 1
    coverage: 32/32
  rs1:
    f0: 1
    f1: 1
    f10: 1
    f11: 1
    f12: 1
    f13: 1
    f14: 1
    f15: 1
    f16: 1
    f17: 1
    f18: 1
    f19: 1
    f2: 1
    f20: 1
    f21: 1
    f22: 1
    f23: 1
    f24: 1
    f25: 1
    f26: 1
    f27: 1
    f28: 1
    f29: 1
    f3: 1
    f30: 103
    f31: 3
    f4: 1
    f5: 1
    f6: 1
    f7: 1
    f8: 1
    f9: 1
    coverage: 32/32
  rs2:
    f0: 1
    f1: 1
    f10: 1
    f11: 1
    f12: 1
    f13: 1
    f14: 1
    f15: 1
    f16: 1
    f17: 1
    f18: 1
    f19: 1
    f2: 1
    f20: 1
    f21: 1
    f22: 1
    f23: 1
    f24: 1
    f25: 1
    f26: 1
    f27: 1
    f28: 1
    f29: 101
    f3: 1
    f30: 5
    f31: 1
    f4: 1
    f5: 1
    f6: 1
    f7: 1
    f8: 1
    f9: 1
    coverage: 32/32
  val_comb:
    ? 'fs1 == 0 and fe1 == 0x00 and fm1 == 0x000 and fs2 == 0 and fe2 == 0x00 and
      fm2 == 0x000 and  fcsr == 0x0 and rm_val == 7  and rs1_nan_prefix == 0xffff
      and rs2_nan_prefix == 0xffff  #nosat'
    : 1
    ? 'fs1 == 1 and fe1 == 0x00 and fm1 == 0x000 and fs2 == 1 and fe2 == 0x00 and
      fm2 == 0x000 and  fcsr == 0x0 and rm_val == 7  and rs1_nan_prefix == 0xffff
      and rs2_nan_prefix == 0xffff  #nosat'
    : 1
    ? 'fs1 == 0 and fe1 == 0x0f and fm1 == 0x000 and fs2 == 0 and fe2 == 0x08 and
      fm2 == 0x000 and  fcsr == 0x0 and rm_val == 7  and rs1_nan_prefix == 0xffff
      and rs2_nan_prefix == 0xffff  #nosat'
    : 1
    ? 'fs1 == 0 and fe1 == 0x08 and fm1 == 0x000 and fs2 == 0 and fe2 == 0x0f and
      fm2 == 0x000 and  fcsr == 0x0 and rm_val == 7  and rs1_nan_prefix == 0xffff
      and rs2_nan_prefix == 0xffff  #nosat'
    : 1
    ? 'fs1 == 0 and fe1 == 0x0f and fm1 == 0x000 and fs2 == 0 and fe2 == 0x0f and
      fm2 == 0x3f8 and  fcsr == 0x0 and rm_val == 7  and rs1_nan_prefix == 0xffff
      and rs2_nan_prefix == 0xffff  #nosat'
    : 1
    ? 'fs1 == 0 and fe1 == 0x0f and fm1 == 0x3f8 and fs2 == 0 and fe2 == 0x0f and
      fm2 == 0x000 and  fcsr == 0x0 and rm_val == 7  and rs1_nan_prefix == 0xffff
      and rs2_nan_prefix == 0xffff  #nosat'
    : 1
    ? 'fs1 == 0 and fe1 == 0x0f and fm1 == 0x000 and fs2 == 0 and fe2 == 0x0c and
      fm2 == 0x000 and  fcsr == 0x0 and rm_val == 7  and rs1_nan_prefix == 0xffff
      and rs2_nan_prefix == 0xffff  #nosat'
    : 1
    ? 'fs1 == 0 and fe1 == 0x0c and fm1 == 0x000 and fs2 == 0 and fe2 == 0x0f and
      fm2 == 0x000 and  fcsr == 0x0 and rm_val == 7  and rs1_nan_prefix == 0xffff
      and rs2_nan_prefix == 0xffff  #nosat'
    : 1
    ? 'fs1 == 0 and fe1 == 0x0f and fm1 == 0x000 and fs2 == 0 and fe2 == 0x0b and
      fm2 == 0x3f8 and  fcsr == 0x0 and rm_val == 7  and rs1_nan_prefix == 0xffff
      and rs2_nan_prefix == 0xffff  #nosat'
    : 1
    ? 'fs1 == 0 and fe1 == 0x0b and fm1 == 0x3f8 and fs2 == 0 and fe2 == 0x0f and
      fm2 == 0x000 and  fcsr == 0x0 and rm_val == 7  and rs1_nan_prefix == 0xffff
      and rs2_nan_prefix == 0xffff  #nosat'
    : 1
    ? 'fs1 == 0 and fe1 == 0x0f and fm1 == 0x000 and fs2 == 0 and fe2 == 0x0e and
      fm2 == 0x000 and  fcsr == 0x0 and rm_val == 7  and rs1_nan_prefix == 0xffff
      and rs2_nan_prefix == 0xffff  #nosat'
    : 1
    ? 'fs1 == 0 and fe1 == 0x0e and fm1 == 0x000 and fs2 == 0 and fe2 == 0x0f and
      fm2 == 0x000 and  fcsr == 0x0 and rm_val == 7  and rs1_nan_prefix == 0xffff
      and rs2_nan_prefix == 0xffff  #nosat'
    : 1
    ? 'fs1 == 0 and fe1 == 0x0f and fm1 == 0x000 and fs2 == 0 and fe2 == 0x09 and
      fm2 == 0x3f8 and  fcsr == 0x0 and rm_val == 7  and rs1_nan_prefix == 0xffff
      and rs2_nan_prefix == 0xffff  #nosat'
    : 1
    ? 'fs1 == 0 and fe1 == 0x09 and fm1 == 0x3f8 and fs2 == 0 and fe2 == 0x0f and
      fm2 == 0x000 and  fcsr == 0x0 and rm_val == 7  and rs1_nan_prefix == 0xffff
      and rs2_nan_prefix == 0xffff  #nosat'
    : 1
    ? 'fs1 == 0 and fe1 == 0x0f and fm1 == 0x000 and fs2 == 0 and fe2 == 0x0f and
      fm2 == 0x000 and  fcsr == 0x0 and rm_val == 7  and rs1_nan_prefix == 0xffff
      and rs2_nan_prefix == 0xffff  #nosat'
    : 2
    ? 'fs1 == 0 and fe1 == 0x0f and fm1 == 0x000 and fs2 == 0 and fe2 == 0x08 and
      fm2 == 0x3f8 and  fcsr == 0x0 and rm_val == 7  and rs1_nan_prefix == 0xffff
      and rs2_nan_prefix == 0xffff  #nosat'
    : 1
    ? 'fs1 == 0 and fe1 == 0x08 and fm1 == 0x3f8 and fs2 == 0 and fe2 == 0x0f and
      fm2 == 0x000 and  fcsr == 0x0 and rm_val == 7  and rs1_nan_prefix == 0xffff
      and rs2_nan_prefix == 0xffff  #nosat'
    : 1
    ? 'fs1 == 0 and fe1 == 0x0f and fm1 == 0x000 and fs2 == 0 and fe2 == 0x0f and
      fm2 == 0x200 and  fcsr == 0x0 and rm_val == 7  and rs1_nan_prefix == 0xffff
      and rs2_nan_prefix == 0xffff  #nosat'
    : 1
    ? 'fs1 == 0 and fe1 == 0x0f and fm1 == 0x200 and fs2 == 0 and fe2 == 0x0f and
      fm2 == 0x000 and  fcsr == 0x0 and rm_val == 7  and rs1_nan_prefix == 0xffff
      and rs2_nan_prefix == 0xffff  #nosat'
    : 1
    ? 'fs1 == 0 and fe1 == 0x0f and fm1 == 0x000 and fs2 == 0 and fe2 == 0x08 and
      fm2 == 0x1f8 and  fcsr == 0x0 and rm_val == 7  and rs1_nan_prefix == 0xffff
      and rs2_nan_prefix == 0xffff  #nosat'
    : 1
    ? 'fs1 == 0 and fe1 == 0x08 and fm1 == 0x1f8 and fs2 == 0 and fe2 == 0x0f and
      fm2 == 0x000 and  fcsr == 0x0 and rm_val == 7  and rs1_nan_prefix == 0xffff
      and rs2_nan_prefix == 0xffff  #nosat'
    : 1
    ? 'fs1 == 0 and fe1 == 0x0f and fm1 == 0x000 and fs2 == 0 and fe2 == 0x0f and
      fm2 == 0x300 and  fcsr == 0x0 and rm_val == 7  and rs1_nan_prefix == 0xffff
      and rs2_nan_prefix == 0xffff  #nosat'
    : 1
    ? 'fs1 == 0 and fe1 == 0x0f and fm1 == 0x300 and fs2 == 0 and fe2 == 0x0f and
      fm2 == 0x000 and  fcsr == 0x0 and rm_val == 7  and rs1_nan_prefix == 0xffff
      and rs2_nan_prefix == 0xffff  #nosat'
    : 1
    ? 'fs1 == 0 and fe1 == 0x0f and fm1 == 0x000 and fs2 == 0 and fe2 == 0x08 and
      fm2 == 0x0f8 and  fcsr == 0x0 and rm_val == 7  and rs1_nan_prefix == 0xffff
      and rs2_nan_prefix == 0xffff  #nosat'
    : 1
    ? 'fs1 == 0 and fe1 == 0x08 and fm1 == 0x0f8 and fs2 == 0 and fe2 == 0x0f and
      fm2 == 0x000 and  fcsr == 0x0 and rm_val == 7  and rs1_nan_prefix == 0xffff
      and rs2_nan_prefix == 0xffff  #nosat'
    : 1
    ? 'fs1 == 0 and fe1 == 0x0f and fm1 == 0x000 and fs2 == 0 and fe2 == 0x0f and
      fm2 == 0x380 and  fcsr == 0x0 and rm_val == 7  and rs1_nan_prefix == 0xffff
      and rs2_nan_prefix == 0xffff  #nosat'
    : 1
    ? 'fs1 == 0 and fe1 == 0x0f and fm1 == 0x380 and fs2 == 0 and fe2 == 0x0f and
      fm2 == 0x000 and  fcsr == 0x0 and rm_val == 7  and rs1_nan_prefix == 0xffff
      and rs2_nan_prefix == 0xffff  #nosat'
    : 1
    ? 'fs1 == 0 and fe1 == 0x0f and fm1 == 0x000 and fs2 == 0 and fe2 == 0x08 and
      fm2 == 0x078 and  fcsr == 0x0 and rm_val == 7  and rs1_nan_prefix == 0xffff
      and rs2_nan_prefix == 0xffff  #nosat'
    : 1
    ? 'fs1 == 0 and fe1 == 0x08 and fm1 == 0x078 and fs2 == 0 and fe2 == 0x0f and
      fm2 == 0x000 and  fcsr == 0x0 and rm_val == 7  and rs1_nan_prefix == 0xffff
      and rs2_nan_prefix == 0xffff  #nosat'
    : 1
    ? 'fs1 == 0 and fe1 == 0x0f and fm1 == 0x000 and fs2 == 0 and fe2 == 0x0f and
      fm2 == 0x3c0 and  fcsr == 0x0 and rm_val == 7  and rs1_nan_prefix == 0xffff
      and rs2_nan_prefix == 0xffff  #nosat'
    : 1
    ? 'fs1 == 0 and fe1 == 0x0f and fm1 == 0x3c0 and fs2 == 0 and fe2 == 0x0f and
      fm2 == 0x000 and  fcsr == 0x0 and rm_val == 7  and rs1_nan_prefix == 0xffff
      and rs2_nan_prefix == 0xffff  #nosat'
    : 1
    ? 'fs1 == 0 and fe1 == 0x0f and fm1 == 0x000 and fs2 == 0 and fe2 == 0x08 and
      fm2 == 0x038 and  fcsr == 0x0 and rm_val == 7  and rs1_nan_prefix == 0xffff
      and rs2_nan_prefix == 0xffff  #nosat'
    : 1
    ? 'fs1 == 0 and fe1 == 0x08 and fm1 == 0x038 and fs2 == 0 and fe2 == 0x0f and
      fm2 == 0x000 and  fcsr == 0x0 and rm_val == 7  and rs1_nan_prefix == 0xffff
      and rs2_nan_prefix == 0xffff  #nosat'
    : 1
    ? 'fs1 == 0 and fe1 == 0x0f and fm1 == 0x000 and fs2 == 0 and fe2 == 0x0f and
      fm2 == 0x3e0 and  fcsr == 0x0 and rm_val == 7  and rs1_nan_prefix == 0xffff
      and rs2_nan_prefix == 0xffff  #nosat'
    : 1
    ? 'fs1 == 0 and fe1 == 0x0f and fm1 == 0x3e0 and fs2 == 0 and fe2 == 0x0f and
      fm2 == 0x000 and  fcsr == 0x0 and rm_val == 7  and rs1_nan_prefix == 0xffff
      and rs2_nan_prefix == 0xffff  #nosat'
    : 1
    ? 'fs1 == 0 and fe1 == 0x0f and fm1 == 0x000 and fs2 == 0 and fe2 == 0x08 and
      fm2 == 0x018 and  fcsr == 0x0 and rm_val == 7  and rs1_nan_prefix == 0xffff
      and rs2_nan_prefix == 0xffff  #nosat'
    : 1
    ? 'fs1 == 0 and fe1 == 0x08 and fm1 == 0x018 and fs2 == 0 and fe2 == 0x0f and
      fm2 == 0x000 and  fcsr == 0x0 and rm_val == 7  and rs1_nan_prefix == 0xffff
      and rs2_nan_prefix == 0xffff  #nosat'
    : 1
    ? 'fs1 == 0 and fe1 == 0x0f and fm1 == 0x000 and fs2 == 0 and fe2 == 0x0f and
      fm2 == 0x3f0 and  fcsr == 0x0 and rm_val == 7  and rs1_nan_prefix == 0xffff
      and rs2_nan_prefix == 0xffff  #nosat'
    : 1
    ? 'fs1 == 0 and fe1 == 0x0f and fm1 == 0x3f0 and fs2 == 0 and fe2 == 0x0f and
      fm2 == 0x000 and  fcsr == 0x0 and rm_val == 7  and rs1_nan_prefix == 0xffff
      and rs2_nan_prefix == 0xffff  #nosat'
    : 1
    ? 'fs1 == 0 and fe1 == 0x0f and fm1 == 0x000 and fs2 == 0 and fe2 == 0x08 and
      fm2 == 0x008 and  fcsr == 0x0 and rm_val == 7  and rs1_nan_prefix == 0xffff
      and rs2_nan_prefix == 0xffff  #nosat'
    : 1
    ? 'fs1 == 0 and fe1 == 0x08 and fm1 == 0x008 and fs2 == 0 and fe2 == 0x0f and
      fm2 == 0x000 and  fcsr == 0x0 and rm_val == 7  and rs1_nan_prefix == 0xffff
      and rs2_nan_prefix == 0xffff  #nosat'
    : 1
    ? 'fs1 == 0 and fe1 == 0x0f and fm1 == 0x000 and fs2 == 0 and fe2 == 0x0b and
      fm2 == 0x1b0 and  fcsr == 0x0 and rm_val == 7  and rs1_nan_prefix == 0xffff
      and rs2_nan_prefix == 0xffff  #nosat'
    : 1
    ? 'fs1 == 0 and fe1 == 0x0b and fm1 == 0x1b0 and fs2 == 0 and fe2 == 0x0f and
      fm2 == 0x000 and  fcsr == 0x0 and rm_val == 7  and rs1_nan_prefix == 0xffff
      and rs2_nan_prefix == 0xffff  #nosat'
    : 1
    ? 'fs1 == 0 and fe1 == 0x0f and fm1 == 0x000 and fs2 == 0 and fe2 == 0x0e and
      fm2 == 0x368 and  fcsr == 0x0 and rm_val == 7  and rs1_nan_prefix == 0xffff
      and rs2_nan_prefix == 0xffff  #nosat'
    : 1
    ? 'fs1 == 0 and fe1 == 0x0e and fm1 == 0x368 and fs2 == 0 and fe2 == 0x0f and
      fm2 == 0x000 and  fcsr == 0x0 and rm_val == 7  and rs1_nan_prefix == 0xffff
      and rs2_nan_prefix == 0xffff  #nosat'
    : 1
    ? 'fs1 == 0 and fe1 == 0x0f and fm1 == 0x000 and fs2 == 0 and fe2 == 0x09 and
      fm2 == 0x260 and  fcsr == 0x0 and rm_val == 7  and rs1_nan_prefix == 0xffff
      and rs2_nan_prefix == 0xffff  #nosat'
    : 1
    ? 'fs1 == 0 and fe1 == 0x09 and fm1 == 0x260 and fs2 == 0 and fe2 == 0x0f and
      fm2 == 0x000 and  fcsr == 0x0 and rm_val == 7  and rs1_nan_prefix == 0xffff
      and rs2_nan_prefix == 0xffff  #nosat'
    : 1
    ? 'fs1 == 0 and fe1 == 0x0f and fm1 == 0x000 and fs2 == 0 and fe2 == 0x0e and
      fm2 == 0x198 and  fcsr == 0x0 and rm_val == 7  and rs1_nan_prefix == 0xffff
      and rs2_nan_prefix == 0xffff  #nosat'
    : 1
    ? 'fs1 == 0 and fe1 == 0x0e and fm1 == 0x198 and fs2 == 0 and fe2 == 0x0f and
      fm2 == 0x000 and  fcsr == 0x0 and rm_val == 7  and rs1_nan_prefix == 0xffff
      and rs2_nan_prefix == 0xffff  #nosat'
    : 1
    ? 'fs1 == 0 and fe1 == 0x0f and fm1 == 0x000 and fs2 == 0 and fe2 == 0x0b and
      fm2 == 0x2e8 and  fcsr == 0x0 and rm_val == 7  and rs1_nan_prefix == 0xffff
      and rs2_nan_prefix == 0xffff  #nosat'
    : 1
    ? 'fs1 == 0 and fe1 == 0x0b and fm1 == 0x2e8 and fs2 == 0 and fe2 == 0x0f and
      fm2 == 0x000 and  fcsr == 0x0 and rm_val == 7  and rs1_nan_prefix == 0xffff
      and rs2_nan_prefix == 0xffff  #nosat'
    : 1
    ? 'fs1 == 0 and fe1 == 0x0f and fm1 == 0x000 and fs2 == 0 and fe2 == 0x0c and
      fm2 == 0x110 and  fcsr == 0x0 and rm_val == 7  and rs1_nan_prefix == 0xffff
      and rs2_nan_prefix == 0xffff  #nosat'
    : 1
    ? 'fs1 == 0 and fe1 == 0x0c and fm1 == 0x110 and fs2 == 0 and fe2 == 0x0f and
      fm2 == 0x000 and  fcsr == 0x0 and rm_val == 7  and rs1_nan_prefix == 0xffff
      and rs2_nan_prefix == 0xffff  #nosat'
    : 1
    ? 'fs1 == 0 and fe1 == 0x0f and fm1 == 0x000 and fs2 == 0 and fe2 == 0x0a and
      fm2 == 0x120 and  fcsr == 0x0 and rm_val == 7  and rs1_nan_prefix == 0xffff
      and rs2_nan_prefix == 0xffff  #nosat'
    : 1
    ? 'fs1 == 0 and fe1 == 0x0a and fm1 == 0x120 and fs2 == 0 and fe2 == 0x0f and
      fm2 == 0x000 and  fcsr == 0x0 and rm_val == 7  and rs1_nan_prefix == 0xffff
      and rs2_nan_prefix == 0xffff  #nosat'
    : 1
    ? 'fs1 == 0 and fe1 == 0x0f and fm1 == 0x000 and fs2 == 0 and fe2 == 0x0d and
      fm2 == 0x2d8 and  fcsr == 0x0 and rm_val == 7  and rs1_nan_prefix == 0xffff
      and rs2_nan_prefix == 0xffff  #nosat'
    : 1
    ? 'fs1 == 0 and fe1 == 0x0d and fm1 == 0x2d8 and fs2 == 0 and fe2 == 0x0f and
      fm2 == 0x000 and  fcsr == 0x0 and rm_val == 7  and rs1_nan_prefix == 0xffff
      and rs2_nan_prefix == 0xffff  #nosat'
    : 1
    ? 'fs1 == 0 and fe1 == 0x0f and fm1 == 0x000 and fs2 == 0 and fe2 == 0x0b and
      fm2 == 0x0c8 and  fcsr == 0x0 and rm_val == 7  and rs1_nan_prefix == 0xffff
      and rs2_nan_prefix == 0xffff  #nosat'
    : 1
    ? 'fs1 == 0 and fe1 == 0x0b and fm1 == 0x0c8 and fs2 == 0 and fe2 == 0x0f and
      fm2 == 0x000 and  fcsr == 0x0 and rm_val == 7  and rs1_nan_prefix == 0xffff
      and rs2_nan_prefix == 0xffff  #nosat'
    : 1
    ? 'fs1 == 0 and fe1 == 0x0f and fm1 == 0x000 and fs2 == 0 and fe2 == 0x0c and
      fm2 == 0x330 and  fcsr == 0x0 and rm_val == 7  and rs1_nan_prefix == 0xffff
      and rs2_nan_prefix == 0xffff  #nosat'
    : 1
    ? 'fs1 == 0 and fe1 == 0x0c and fm1 == 0x330 and fs2 == 0 and fe2 == 0x0f and
      fm2 == 0x000 and  fcsr == 0x0 and rm_val == 7  and rs1_nan_prefix == 0xffff
      and rs2_nan_prefix == 0xffff  #nosat'
    : 1
    ? 'fs1 == 1 and fe1 == 0x0f and fm1 == 0x000 and fs2 == 1 and fe2 == 0x08 and
      fm2 == 0x000 and  fcsr == 0x0 and rm_val == 7  and rs1_nan_prefix == 0xffff
      and rs2_nan_prefix == 0xffff  #nosat'
    : 1
    ? 'fs1 == 1 and fe1 == 0x08 and fm1 == 0x000 and fs2 == 1 and fe2 == 0x0f and
      fm2 == 0x000 and  fcsr == 0x0 and rm_val == 7  and rs1_nan_prefix == 0xffff
      and rs2_nan_prefix == 0xffff  #nosat'
    : 1
    ? 'fs1 == 1 and fe1 == 0x0f and fm1 == 0x000 and fs2 == 1 and fe2 == 0x0f and
      fm2 == 0x3f8 and  fcsr == 0x0 and rm_val == 7  and rs1_nan_prefix == 0xffff
      and rs2_nan_prefix == 0xffff  #nosat'
    : 1
    ? 'fs1 == 1 and fe1 == 0x0f and fm1 == 0x3f8 and fs2 == 1 and fe2 == 0x0f and
      fm2 == 0x000 and  fcsr == 0x0 and rm_val == 7  and rs1_nan_prefix == 0xffff
      and rs2_nan_prefix == 0xffff  #nosat'
    : 1
    ? 'fs1 == 1 and fe1 == 0x0f and fm1 == 0x000 and fs2 == 1 and fe2 == 0x0c and
      fm2 == 0x000 and  fcsr == 0x0 and rm_val == 7  and rs1_nan_prefix == 0xffff
      and rs2_nan_prefix == 0xffff  #nosat'
    : 1
    ? 'fs1 == 1 and fe1 == 0x0c and fm1 == 0x000 and fs2 == 1 and fe2 == 0x0f and
      fm2 == 0x000 and  fcsr == 0x0 and rm_val == 7  and rs1_nan_prefix == 0xffff
      and rs2_nan_prefix == 0xffff  #nosat'
    : 1
    ? 'fs1 == 1 and fe1 == 0x0f and fm1 == 0x000 and fs2 == 1 and fe2 == 0x0b and
      fm2 == 0x3f8 and  fcsr == 0x0 and rm_val == 7  and rs1_nan_prefix == 0xffff
      and rs2_nan_prefix == 0xffff  #nosat'
    : 1
    ? 'fs1 == 1 and fe1 == 0x0b and fm1 == 0x3f8 and fs2 == 1 and fe2 == 0x0f and
      fm2 == 0x000 and  fcsr == 0x0 and rm_val == 7  and rs1_nan_prefix == 0xffff
      and rs2_nan_prefix == 0xffff  #nosat'
    : 1
    ? 'fs1 == 1 and fe1 == 0x0f and fm1 == 0x000 and fs2 == 1 and fe2 == 0x0e and
      fm2 == 0x000 and  fcsr == 0x0 and rm_val == 7  and rs1_nan_prefix == 0xffff
      and rs2_nan_prefix == 0xffff  #nosat'
    : 1
    ? 'fs1 == 1 and fe1 == 0x0e and fm1 == 0x000 and fs2 == 1 and fe2 == 0x0f and
      fm2 == 0x000 and  fcsr == 0x0 and rm_val == 7  and rs1_nan_prefix == 0xffff
      and rs2_nan_prefix == 0xffff  #nosat'
    : 1
    ? 'fs1 == 1 and fe1 == 0x0f and fm1 == 0x000 and fs2 == 1 and fe2 == 0x09 and
      fm2 == 0x3f8 and  fcsr == 0x0 and rm_val == 7  and rs1_nan_prefix == 0xffff
      and rs2_nan_prefix == 0xffff  #nosat'
    : 1
    ? 'fs1 == 1 and fe1 == 0x09 and fm1 == 0x3f8 and fs2 == 1 and fe2 == 0x0f and
      fm2 == 0x000 and  fcsr == 0x0 and rm_val == 7  and rs1_nan_prefix == 0xffff
      and rs2_nan_prefix == 0xffff  #nosat'
    : 1
    ? 'fs1 == 1 and fe1 == 0x0f and fm1 == 0x000 and fs2 == 1 and fe2 == 0x0f and
      fm2 == 0x000 and  fcsr == 0x0 and rm_val == 7  and rs1_nan_prefix == 0xffff
      and rs2_nan_prefix == 0xffff  #nosat'
    : 1
    ? 'fs1 == 1 and fe1 == 0x0f and fm1 == 0x000 and fs2 == 1 and fe2 == 0x08 and
      fm2 == 0x3f8 and  fcsr == 0x0 and rm_val == 7  and rs1_nan_prefix == 0xffff
      and rs2_nan_prefix == 0xffff  #nosat'
    : 1
    ? 'fs1 == 1 and fe1 == 0x08 and fm1 == 0x3f8 and fs2 == 1 and fe2 == 0x0f and
      fm2 == 0x000 and  fcsr == 0x0 and rm_val == 7  and rs1_nan_prefix == 0xffff
      and rs2_nan_prefix == 0xffff  #nosat'
    : 1
    ? 'fs1 == 1 and fe1 == 0x0f and fm1 == 0x000 and fs2 == 1 and fe2 == 0x0f and
      fm2 == 0x200 and  fcsr == 0x0 and rm_val == 7  and rs1_nan_prefix == 0xffff
      and rs2_nan_prefix == 0xffff  #nosat'
    : 1
    ? 'fs1 == 1 and fe1 == 0x0f and fm1 == 0x200 and fs2 == 1 and fe2 == 0x0f and
      fm2 == 0x000 and  fcsr == 0x0 and rm_val == 7  and rs1_nan_prefix == 0xffff
      and rs2_nan_prefix == 0xffff  #nosat'
    : 1
    ? 'fs1 == 1 and fe1 == 0x0f and fm1 == 0x000 and fs2 == 1 and fe2 == 0x08 and
      fm2 == 0x1f8 and  fcsr == 0x0 and rm_val == 7  and rs1_nan_prefix == 0xffff
      and rs2_nan_prefix == 0xffff  #nosat'
    : 1
    ? 'fs1 == 1 and fe1 == 0x08 and fm1 == 0x1f8 and fs2 == 1 and fe2 == 0x0f and
      fm2 == 0x000 and  fcsr == 0x0 and rm_val == 7  and rs1_nan_prefix == 0xffff
      and rs2_nan_prefix == 0xffff  #nosat'
    : 1
    ? 'fs1 == 1 and fe1 == 0x0f and fm1 == 0x000 and fs2 == 1 and fe2 == 0x0f and
      fm2 == 0x300 and  fcsr == 0x0 and rm_val == 7  and rs1_nan_prefix == 0xffff
      and rs2_nan_prefix == 0xffff  #nosat'
    : 1
    ? 'fs1 == 1 and fe1 == 0x0f and fm1 == 0x300 and fs2 == 1 and fe2 == 0x0f and
      fm2 == 0x000 and  fcsr == 0x0 and rm_val == 7  and rs1_nan_prefix == 0xffff
      and rs2_nan_prefix == 0xffff  #nosat'
    : 1
    ? 'fs1 == 1 and fe1 == 0x0f and fm1 == 0x000 and fs2 == 1 and fe2 == 0x08 and
      fm2 == 0x0f8 and  fcsr == 0x0 and rm_val == 7  and rs1_nan_prefix == 0xffff
      and rs2_nan_prefix == 0xffff  #nosat'
    : 1
    ? 'fs1 == 1 and fe1 == 0x08 and fm1 == 0x0f8 and fs2 == 1 and fe2 == 0x0f and
      fm2 == 0x000 and  fcsr == 0x0 and rm_val == 7  and rs1_nan_prefix == 0xffff
      and rs2_nan_prefix == 0xffff  #nosat'
    : 1
    ? 'fs1 == 1 and fe1 == 0x0f and fm1 == 0x000 and fs2 == 1 and fe2 == 0x0f and
      fm2 == 0x380 and  fcsr == 0x0 and rm_val == 7  and rs1_nan_prefix == 0xffff
      and rs2_nan_prefix == 0xffff  #nosat'
    : 1
    ? 'fs1 == 1 and fe1 == 0x0f and fm1 == 0x380 and fs2 == 1 and fe2 == 0x0f and
      fm2 == 0x000 and  fcsr == 0x0 and rm_val == 7  and rs1_nan_prefix == 0xffff
      and rs2_nan_prefix == 0xffff  #nosat'
    : 1
    ? 'fs1 == 1 and fe1 == 0x0f and fm1 == 0x000 and fs2 == 1 and fe2 == 0x08 and
      fm2 == 0x078 and  fcsr == 0x0 and rm_val == 7  and rs1_nan_prefix == 0xffff
      and rs2_nan_prefix == 0xffff  #nosat'
    : 1
    ? 'fs1 == 1 and fe1 == 0x08 and fm1 == 0x078 and fs2 == 1 and fe2 == 0x0f and
      fm2 == 0x000 and  fcsr == 0x0 and rm_val == 7  and rs1_nan_prefix == 0xffff
      and rs2_nan_prefix == 0xffff  #nosat'
    : 1
    ? 'fs1 == 1 and fe1 == 0x0f and fm1 == 0x000 and fs2 == 1 and fe2 == 0x0f and
      fm2 == 0x3c0 and  fcsr == 0x0 and rm_val == 7  and rs1_nan_prefix == 0xffff
      and rs2_nan_prefix == 0xffff  #nosat'
    : 1
    ? 'fs1 == 1 and fe1 == 0x0f and fm1 == 0x3c0 and fs2 == 1 and fe2 == 0x0f and
      fm2 == 0x000 and  fcsr == 0x0 and rm_val == 7  and rs1_nan_prefix == 0xffff
      and rs2_nan_prefix == 0xffff  #nosat'
    : 1
    ? 'fs1 == 1 and fe1 == 0x0f and fm1 == 0x000 and fs2 == 1 and fe2 == 0x08 and
      fm2 == 0x038 and  fcsr == 0x0 and rm_val == 7  and rs1_nan_prefix == 0xffff
      and rs2_nan_prefix == 0xffff  #nosat'
    : 1
    ? 'fs1 == 1 and fe1 == 0x08 and fm1 == 0x038 and fs2 == 1 and fe2 == 0x0f and
      fm2 == 0x000 and  fcsr == 0x0 and rm_val == 7  and rs1_nan_prefix == 0xffff
      and rs2_nan_prefix == 0xffff  #nosat'
    : 1
    ? 'fs1 == 1 and fe1 == 0x0f and fm1 == 0x000 and fs2 == 1 and fe2 == 0x0f and
      fm2 == 0x3e0 and  fcsr == 0x0 and rm_val == 7  and rs1_nan_prefix == 0xffff
      and rs2_nan_prefix == 0xffff  #nosat'
    : 1
    ? 'fs1 == 1 and fe1 == 0x0f and fm1 == 0x3e0 and fs2 == 1 and fe2 == 0x0f and
      fm2 == 0x000 and  fcsr == 0x0 and rm_val == 7  and rs1_nan_prefix == 0xffff
      and rs2_nan_prefix == 0xffff  #nosat'
    : 1
    ? 'fs1 == 1 and fe1 == 0x0f and fm1 == 0x000 and fs2 == 1 and fe2 == 0x08 and
      fm2 == 0x018 and  fcsr == 0x0 and rm_val == 7  and rs1_nan_prefix == 0xffff
      and rs2_nan_prefix == 0xffff  #nosat'
    : 1
    ? 'fs1 == 1 and fe1 == 0x08 and fm1 == 0x018 and fs2 == 1 and fe2 == 0x0f and
      fm2 == 0x000 and  fcsr == 0x0 and rm_val == 7  and rs1_nan_prefix == 0xffff
      and rs2_nan_prefix == 0xffff  #nosat'
    : 1
    ? 'fs1 == 1 and fe1 == 0x0f and fm1 == 0x000 and fs2 == 1 and fe2 == 0x0f and
      fm2 == 0x3f0 and  fcsr == 0x0 and rm_val == 7  and rs1_nan_prefix == 0xffff
      and rs2_nan_prefix == 0xffff  #nosat'
    : 1
    ? 'fs1 == 1 and fe1 == 0x0f and fm1 == 0x3f0 and fs2 == 1 and fe2 == 0x0f and
      fm2 == 0x000 and  fcsr == 0x0 and rm_val == 7  and rs1_nan_prefix == 0xffff
      and rs2_nan_prefix == 0xffff  #nosat'
    : 1
    ? 'fs1 == 1 and fe1 == 0x0f and fm1 == 0x000 and fs2 == 1 and fe2 == 0x08 and
      fm2 == 0x008 and  fcsr == 0x0 and rm_val == 7  and rs1_nan_prefix == 0xffff
      and rs2_nan_prefix == 0xffff  #nosat'
    : 1
    ? 'fs1 == 1 and fe1 == 0x08 and fm1 == 0x008 and fs2 == 1 and fe2 == 0x0f and
      fm2 == 0x000 and  fcsr == 0x0 and rm_val == 7  and rs1_nan_prefix == 0xffff
      and rs2_nan_prefix == 0xffff  #nosat'
    : 1
    ? 'fs1 == 1 and fe1 == 0x0f and fm1 == 0x000 and fs2 == 1 and fe2 == 0x0b and
      fm2 == 0x1b0 and  fcsr == 0x0 and rm_val == 7  and rs1_nan_prefix == 0xffff
      and rs2_nan_prefix == 0xffff  #nosat'
    : 1
    ? 'fs1 == 1 and fe1 == 0x0b and fm1 == 0x1b0 and fs2 == 1 and fe2 == 0x0f and
      fm2 == 0x000 and  fcsr == 0x0 and rm_val == 7  and rs1_nan_prefix == 0xffff
      and rs2_nan_prefix == 0xffff  #nosat'
    : 1
    ? 'fs1 == 1 and fe1 == 0x0f and fm1 == 0x000 and fs2 == 1 and fe2 == 0x0e and
      fm2 == 0x368 and  fcsr == 0x0 and rm_val == 7  and rs1_nan_prefix == 0xffff
      and rs2_nan_prefix == 0xffff  #nosat'
    : 1
    ? 'fs1 == 1 and fe1 == 0x0e and fm1 == 0x368 and fs2 == 1 and fe2 == 0x0f and
      fm2 == 0x000 and  fcsr == 0x0 and rm_val == 7  and rs1_nan_prefix == 0xffff
      and rs2_nan_prefix == 0xffff  #nosat'
    : 1
    ? 'fs1 == 1 and fe1 == 0x0f and fm1 == 0x000 and fs2 == 1 and fe2 == 0x09 and
      fm2 == 0x260 and  fcsr == 0x0 and rm_val == 7  and rs1_nan_prefix == 0xffff
      and rs2_nan_prefix == 0xffff  #nosat'
    : 1
    ? 'fs1 == 1 and fe1 == 0x09 and fm1 == 0x260 and fs2 == 1 and fe2 == 0x0f and
      fm2 == 0x000 and  fcsr == 0x0 and rm_val == 7  and rs1_nan_prefix == 0xffff
      and rs2_nan_prefix == 0xffff  #nosat'
    : 1
    ? 'fs1 == 1 and fe1 == 0x0f and fm1 == 0x000 and fs2 == 1 and fe2 == 0x0e and
      fm2 == 0x198 and  fcsr == 0x0 and rm_val == 7  and rs1_nan_prefix == 0xffff
      and rs2_nan_prefix == 0xffff  #nosat'
    : 1
    ? 'fs1 == 1 and fe1 == 0x0e and fm1 == 0x198 and fs2 == 1 and fe2 == 0x0f and
      fm2 == 0x000 and  fcsr == 0x0 and rm_val == 7  and rs1_nan_prefix == 0xffff
      and rs2_nan_prefix == 0xffff  #nosat'
    : 1
    ? 'fs1 == 1 and fe1 == 0x0f and fm1 == 0x000 and fs2 == 1 and fe2 == 0x0b and
      fm2 == 0x2e8 and  fcsr == 0x0 and rm_val == 7  and rs1_nan_prefix == 0xffff
      and rs2_nan_prefix == 0xffff  #nosat'
    : 1
    ? 'fs1 == 1 and fe1 == 0x0b and fm1 == 0x2e8 and fs2 == 1 and fe2 == 0x0f and
      fm2 == 0x000 and  fcsr == 0x0 and rm_val == 7  and rs1_nan_prefix == 0xffff
      and rs2_nan_prefix == 0xffff  #nosat'
    : 1
    ? 'fs1 == 1 and fe1 == 0x0f and fm1 == 0x000 and fs2 == 1 and fe2 == 0x0c and
      fm2 == 0x110 and  fcsr == 0x0 and rm_val == 7  and rs1_nan_prefix == 0xffff
      and rs2_nan_prefix == 0xffff  #nosat'
    : 1
    ? 'fs1 == 1 and fe1 == 0x0c and fm1 == 0x110 and fs2 == 1 and fe2 == 0x0f and
      fm2 == 0x000 and  fcsr == 0x0 and rm_val == 7  and rs1_nan_prefix == 0xffff
      and rs2_nan_prefix == 0xffff  #nosat'
    : 1
    ? 'fs1 == 1 and fe1 == 0x0f and fm1 == 0x000 and fs2 == 1 and fe2 == 0x0a and
      fm2 == 0x120 and  fcsr == 0x0 and rm_val == 7  and rs1_nan_prefix == 0xffff
      and rs2_nan_prefix == 0xffff  #nosat'
    : 1
    ? 'fs1 == 1 and fe1 == 0x0a and fm1 == 0x120 and fs2 == 1 and fe2 == 0x0f and
      fm2 == 0x000 and  fcsr == 0x0 and rm_val == 7  and rs1_nan_prefix == 0xffff
      and rs2_nan_prefix == 0xffff  #nosat'
    : 1
    ? 'fs1 == 1 and fe1 == 0x0f and fm1 == 0x000 and fs2 == 1 and fe2 == 0x0d and
      fm2 == 0x2d8 and  fcsr == 0x0 and rm_val == 7  and rs1_nan_prefix == 0xffff
      and rs2_nan_prefix == 0xffff  #nosat'
    : 1
    ? 'fs1 == 1 and fe1 == 0x0d and fm1 == 0x2d8 and fs2 == 1 and fe2 == 0x0f and
      fm2 == 0x000 and  fcsr == 0x0 and rm_val == 7  and rs1_nan_prefix == 0xffff
      and rs2_nan_prefix == 0xffff  #nosat'
    : 1
    ? 'fs1 == 1 and fe1 == 0x0f and fm1 == 0x000 and fs2 == 1 and fe2 == 0x0b and
      fm2 == 0x0c8 and  fcsr == 0x0 and rm_val == 7  and rs1_nan_prefix == 0xffff
      and rs2_nan_prefix == 0xffff  #nosat'
    : 1
    ? 'fs1 == 1 and fe1 == 0x0b and fm1 == 0x0c8 and fs2 == 1 and fe2 == 0x0f and
      fm2 == 0x000 and  fcsr == 0x0 and rm_val == 7  and rs1_nan_prefix == 0xffff
      and rs2_nan_prefix == 0xffff  #nosat'
    : 1
    ? 'fs1 == 1 and fe1 == 0x0f and fm1 == 0x000 and fs2 == 1 and fe2 == 0x0c and
      fm2 == 0x330 and  fcsr == 0x0 and rm_val == 7  and rs1_nan_prefix == 0xffff
      and rs2_nan_prefix == 0xffff  #nosat'
    : 1
    ? 'fs1 == 1 and fe1 == 0x0c and fm1 == 0x330 and fs2 == 1 and fe2 == 0x0f and
      fm2 == 0x000 and  fcsr == 0x0 and rm_val == 7  and rs1_nan_prefix == 0xffff
      and rs2_nan_prefix == 0xffff  #nosat'
    : 1
    ? 'fs1 == 0 and fe1 == 0x00 and fm1 == 0x001 and fs2 == 0 and fe2 == 0x00 and
      fm2 == 0x000 and  fcsr == 0x0 and rm_val == 7  and rs1_nan_prefix == 0xffff
      and rs2_nan_prefix == 0xffff  #nosat'
    : 1
    ? 'fs1 == 0 and fe1 == 0x00 and fm1 == 0x000 and fs2 == 0 and fe2 == 0x00 and
      fm2 == 0x001 and  fcsr == 0x0 and rm_val == 7  and rs1_nan_prefix == 0xffff
      and rs2_nan_prefix == 0xffff  #nosat'
    : 1
    ? 'fs1 == 1 and fe1 == 0x00 and fm1 == 0x001 and fs2 == 1 and fe2 == 0x00 and
      fm2 == 0x000 and  fcsr == 0x0 and rm_val == 7  and rs1_nan_prefix == 0xffff
      and rs2_nan_prefix == 0xffff  #nosat'
    : 1
    ? 'fs1 == 1 and fe1 == 0x00 and fm1 == 0x000 and fs2 == 1 and fe2 == 0x00 and
      fm2 == 0x001 and  fcsr == 0x0 and rm_val == 7  and rs1_nan_prefix == 0xffff
      and rs2_nan_prefix == 0xffff  #nosat'
    : 1
    ? 'fs1 == 0 and fe1 == 0x00 and fm1 == 0x3ff and fs2 == 0 and fe2 == 0x00 and
      fm2 == 0x000 and  fcsr == 0x0 and rm_val == 7  and rs1_nan_prefix == 0xffff
      and rs2_nan_prefix == 0xffff  #nosat'
    : 1
    ? 'fs1 == 0 and fe1 == 0x00 and fm1 == 0x000 and fs2 == 0 and fe2 == 0x00 and
      fm2 == 0x3ff and  fcsr == 0x0 and rm_val == 7  and rs1_nan_prefix == 0xffff
      and rs2_nan_prefix == 0xffff  #nosat'
    : 1
    ? 'fs1 == 1 and fe1 == 0x00 and fm1 == 0x3ff and fs2 == 1 and fe2 == 0x00 and
      fm2 == 0x000 and  fcsr == 0x0 and rm_val == 7  and rs1_nan_prefix == 0xffff
      and rs2_nan_prefix == 0xffff  #nosat'
    : 1
    ? 'fs1 == 1 and fe1 == 0x00 and fm1 == 0x000 and fs2 == 1 and fe2 == 0x00 and
      fm2 == 0x3ff and  fcsr == 0x0 and rm_val == 7  and rs1_nan_prefix == 0xffff
      and rs2_nan_prefix == 0xffff  #nosat'
    : 1
    ? 'fs1 == 0 and fe1 == 0x01 and fm1 == 0x000 and fs2 == 0 and fe2 == 0x00 and
      fm2 == 0x000 and  fcsr == 0x0 and rm_val == 7  and rs1_nan_prefix == 0xffff
      and rs2_nan_prefix == 0xffff  #nosat'
    : 1
    ? 'fs1 == 0 and fe1 == 0x00 and fm1 == 0x000 and fs2 == 0 and fe2 == 0x01 and
      fm2 == 0x000 and  fcsr == 0x0 and rm_val == 7  and rs1_nan_prefix == 0xffff
      and rs2_nan_prefix == 0xffff  #nosat'
    : 1
    ? 'fs1 == 1 and fe1 == 0x01 and fm1 == 0x000 and fs2 == 1 and fe2 == 0x00 and
      fm2 == 0x000 and  fcsr == 0x0 and rm_val == 7  and rs1_nan_prefix == 0xffff
      and rs2_nan_prefix == 0xffff  #nosat'
    : 1
    ? 'fs1 == 1 and fe1 == 0x00 and fm1 == 0x000 and fs2 == 1 and fe2 == 0x01 and
      fm2 == 0x000 and  fcsr == 0x0 and rm_val == 7  and rs1_nan_prefix == 0xffff
      and rs2_nan_prefix == 0xffff  #nosat'
    : 1
    ? 'fs1 == 0 and fe1 == 0x1e and fm1 == 0x3ff and fs2 == 0 and fe2 == 0x1e and
      fm2 == 0x3ff and  fcsr == 0x0 and rm_val == 7  and rs1_nan_prefix == 0xffff
      and rs2_nan_prefix == 0xffff  #nosat'
    : 1
    ? 'fs1 == 1 and fe1 == 0x1e and fm1 == 0x3ff and fs2 == 1 and fe2 == 0x1e and
      fm2 == 0x3ff and  fcsr == 0x0 and rm_val == 7  and rs1_nan_prefix == 0xffff
      and rs2_nan_prefix == 0xffff  #nosat'
    : 1
    coverage: 134/134
  total_coverage: 236/236
