---
fmadd_b6:
  config:
  - check ISA:=regex(.*I.*F.*)
  op_comb:
    rd == rs2 == rs3 != rs1: 1
    rs1 != rs2 and rs1 != rd and rs1 != rs3 and rs2 != rs3 and rs2 != rd and rs3 != rd: 138
    rs1 == rd != rs2 and rs1 == rd != rs3 and rs3 != rs2: 1
    rs1 == rd == rs3 != rs2: 1
    rs1 == rs2 != rs3 and rs1 == rs2 != rd and rd != rs3: 1
    rs1 == rs2 == rd != rs3: 1
    rs1 == rs2 == rs3 != rd: 1
    rs1 == rs2 == rs3 == rd: 1
    rs1 == rs3 != rs2 and rs1 == rs3 != rd and rd != rs2: 1
    rs2 == rd != rs1 and rs2 == rd != rs3 and rs3 != rs1: 1
    rs2 == rs3 != rs1 and rs2 == rs3 != rd and rd != rs1: 1
    rs3 == rd != rs1 and rs3 == rd != rs2 and rs2 != rs1: 1
    coverage: 12/12
  opcode:
    fmadd.s: 149
    coverage: 1/1
  rd:
    f0: 1
    f1: 1
    f10: 1
    f11: 1
    f12: 1
    f13: 1
    f14: 1
    f15: 1
    f16: 1
    f17: 1
    f18: 1
    f19: 1
    f2: 1
    f20: 1
    f21: 1
    f22: 1
    f23: 1
    f24: 1
    f25: 1
    f26: 1
    f27: 1
    f28: 1
    f29: 1
    f3: 1
    f30: 1
    f31: 118
    f4: 1
    f5: 1
    f6: 1
    f7: 1
    f8: 1
    f9: 1
    coverage: 32/32
  rs1:
    f0: 1
    f1: 1
    f10: 1
    f11: 1
    f12: 1
    f13: 1
    f14: 1
    f15: 1
    f16: 1
    f17: 1
    f18: 1
    f19: 1
    f2: 1
    f20: 1
    f21: 1
    f22: 1
    f23: 1
    f24: 1
    f25: 1
    f26: 1
    f27: 1
    f28: 1
    f29: 1
    f3: 1
    f30: 118
    f31: 1
    f4: 1
    f5: 1
    f6: 1
    f7: 1
    f8: 1
    f9: 1
    coverage: 32/32
  rs2:
    f0: 1
    f1: 1
    f10: 1
    f11: 1
    f12: 1
    f13: 1
    f14: 1
    f15: 1
    f16: 1
    f17: 1
    f18: 1
    f19: 1
    f2: 1
    f20: 1
    f21: 1
    f22: 1
    f23: 1
    f24: 1
    f25: 1
    f26: 1
    f27: 1
    f28: 1
    f29: 118
    f3: 1
    f30: 1
    f31: 1
    f4: 1
    f5: 1
    f6: 1
    f7: 1
    f8: 1
    f9: 1
    coverage: 32/32
  rs3:
    f0: 1
    f1: 1
    f10: 1
    f11: 1
    f12: 1
    f13: 1
    f14: 1
    f15: 1
    f16: 1
    f17: 1
    f18: 1
    f19: 1
    f2: 1
    f20: 1
    f21: 1
    f22: 1
    f23: 1
    f24: 1
    f25: 1
    f26: 1
    f27: 1
    f28: 118
    f29: 1
    f3: 1
    f30: 1
    f31: 1
    f4: 1
    f5: 1
    f6: 1
    f7: 1
    f8: 1
    f9: 1
    coverage: 32/32
  val_comb:
    ? 'fs1 == 0 and fe1 == 0x1b and fm1 == 0x079143 and fs2 == 1 and fe2 == 0x7e and
      fm2 == 0x618104 and fs3 == 0 and fe3 == 0x1a and fm3 == 0x6ed5fe and rm_val
      == 0  #nosat'
    : 1  #  rs1_val==fnorm(0x0d879143) and rs2_val==fnorm(0xbf618104) and rs3_val==fnorm(0x0d6ed5fe) | Guard = 0 Round = 0 Sticky = 1 --> IR ∈ (-MinSubNorm, -MinSubNorm / 2)
    ? 'fs1 == 0 and fe1 == 0x1a and fm1 == 0x383b17 and fs2 == 1 and fe2 == 0x7f and
      fm2 == 0x4f8193 and fs3 == 0 and fe3 == 0x1b and fm3 == 0x155507 and rm_val
      == 4  #nosat'
    : 1 #  rs1_val==fnorm(0x0d383b17) and rs2_val==fnorm(0xbfcf8193) and rs3_val==fnorm(0x0d955507) | Guard = 1 Round = 1 Sticky = 1 --> IR ∈ (+MinSubNorm / 2, +MinSubNorm)
    ? 'fs1 == 0 and fe1 == 0x1a and fm1 == 0x383b17 and fs2 == 1 and fe2 == 0x7f and
      fm2 == 0x4f8193 and fs3 == 0 and fe3 == 0x1b and fm3 == 0x155507 and rm_val
      == 3  #nosat'
    : 1 #  rs1_val==fnorm(0x0d383b17) and rs2_val==fnorm(0xbfcf8193) and rs3_val==fnorm(0x0d955507) | Guard = 1 Round = 1 Sticky = 1 --> IR ∈ (+MinSubNorm / 2, +MinSubNorm)
    ? 'fs1 == 0 and fe1 == 0x1a and fm1 == 0x383b17 and fs2 == 1 and fe2 == 0x7f and
      fm2 == 0x4f8193 and fs3 == 0 and fe3 == 0x1b and fm3 == 0x155507 and rm_val
      == 2  #nosat'
    : 1 #  rs1_val==fnorm(0x0d383b17) and rs2_val==fnorm(0xbfcf8193) and rs3_val==fnorm(0x0d955507) | Guard = 1 Round = 1 Sticky = 1 --> IR ∈ (+MinSubNorm / 2, +MinSubNorm)
    ? 'fs1 == 0 and fe1 == 0x1a and fm1 == 0x383b17 and fs2 == 1 and fe2 == 0x7f and
      fm2 == 0x4f8193 and fs3 == 0 and fe3 == 0x1b and fm3 == 0x155507 and rm_val
      == 1  #nosat'
    : 1 #  rs1_val==fnorm(0x0d383b17) and rs2_val==fnorm(0xbfcf8193) and rs3_val==fnorm(0x0d955507) | Guard = 1 Round = 1 Sticky = 1 --> IR ∈ (+MinSubNorm / 2, +MinSubNorm)
    ? 'fs1 == 0 and fe1 == 0x1a and fm1 == 0x383b17 and fs2 == 1 and fe2 == 0x7f and
      fm2 == 0x4f8193 and fs3 == 0 and fe3 == 0x1b and fm3 == 0x155507 and rm_val
      == 0  #nosat'
    : 1 #  rs1_val==fnorm(0x0d383b17) and rs2_val==fnorm(0xbfcf8193) and rs3_val==fnorm(0x0d955507) | Guard = 1 Round = 1 Sticky = 1 --> IR ∈ (+MinSubNorm / 2, +MinSubNorm)
    ? 'fs1 == 0 and fe1 == 0x1b and fm1 == 0x11fc19 and fs2 == 1 and fe2 == 0x7e and
      fm2 == 0x032d0d and fs3 == 0 and fe3 == 0x1a and fm3 == 0x159b64 and rm_val
      == 4  #nosat'
    : 1 #  rs1_val==fnorm(0x0d91fc19) and rs2_val==fnorm(0xbf032d0d) and rs3_val==fnorm(0x0d159b64) | Guard = 1 Round = 1 Sticky = 0 --> IR ∈ (+MinSubNorm / 2, +MinSubNorm)
    ? 'fs1 == 0 and fe1 == 0x1b and fm1 == 0x11fc19 and fs2 == 1 and fe2 == 0x7e and
      fm2 == 0x032d0d and fs3 == 0 and fe3 == 0x1a and fm3 == 0x159b64 and rm_val
      == 3  #nosat'
    : 2 #  rs1_val==fnorm(0x0d91fc19) and rs2_val==fnorm(0xbf032d0d) and rs3_val==fnorm(0x0d159b64) | Guard = 1 Round = 1 Sticky = 0 --> IR ∈ (+MinSubNorm / 2, +MinSubNorm)
    ? 'fs1 == 0 and fe1 == 0x1b and fm1 == 0x11fc19 and fs2 == 1 and fe2 == 0x7e and
      fm2 == 0x032d0d and fs3 == 0 and fe3 == 0x1a and fm3 == 0x159b64 and rm_val
      == 2  #nosat'
    : 1 #  rs1_val==fnorm(0x0d91fc19) and rs2_val==fnorm(0xbf032d0d) and rs3_val==fnorm(0x0d159b64) | Guard = 1 Round = 1 Sticky = 0 --> IR ∈ (+MinSubNorm / 2, +MinSubNorm)
    ? 'fs1 == 0 and fe1 == 0x1b and fm1 == 0x11fc19 and fs2 == 1 and fe2 == 0x7e and
      fm2 == 0x032d0d and fs3 == 0 and fe3 == 0x1a and fm3 == 0x159b64 and rm_val
      == 1  #nosat'
    : 1 #  rs1_val==fnorm(0x0d91fc19) and rs2_val==fnorm(0xbf032d0d) and rs3_val==fnorm(0x0d159b64) | Guard = 1 Round = 1 Sticky = 0 --> IR ∈ (+MinSubNorm / 2, +MinSubNorm)
    ? 'fs1 == 0 and fe1 == 0x1b and fm1 == 0x11fc19 and fs2 == 1 and fe2 == 0x7e and
      fm2 == 0x032d0d and fs3 == 0 and fe3 == 0x1a and fm3 == 0x159b64 and rm_val
      == 0  #nosat'
    : 1 #  rs1_val==fnorm(0x0d91fc19) and rs2_val==fnorm(0xbf032d0d) and rs3_val==fnorm(0x0d159b64) | Guard = 1 Round = 1 Sticky = 0 --> IR ∈ (+MinSubNorm / 2, +MinSubNorm)
    ? 'fs1 == 0 and fe1 == 0x19 and fm1 == 0x65b5be and fs2 == 1 and fe2 == 0x80 and
      fm2 == 0x1fa549 and fs3 == 0 and fe3 == 0x1b and fm3 == 0x0f4031 and rm_val
      == 4  #nosat'
    : 1 #  rs1_val==fnorm(0x0ce5b5be) and rs2_val==fnorm(0xc01fa549) and rs3_val==fnorm(0x0d8f4031) | Guard = 1 Round = 0 Sticky = 1 --> IR ∈ (+MinSubNorm / 2, +MinSubNorm)
    ? 'fs1 == 0 and fe1 == 0x19 and fm1 == 0x65b5be and fs2 == 1 and fe2 == 0x80 and
      fm2 == 0x1fa549 and fs3 == 0 and fe3 == 0x1b and fm3 == 0x0f4031 and rm_val
      == 3  #nosat'
    : 1 #  rs1_val==fnorm(0x0ce5b5be) and rs2_val==fnorm(0xc01fa549) and rs3_val==fnorm(0x0d8f4031) | Guard = 1 Round = 0 Sticky = 1 --> IR ∈ (+MinSubNorm / 2, +MinSubNorm)
    ? 'fs1 == 0 and fe1 == 0x19 and fm1 == 0x65b5be and fs2 == 1 and fe2 == 0x80 and
      fm2 == 0x1fa549 and fs3 == 0 and fe3 == 0x1b and fm3 == 0x0f4031 and rm_val
      == 2  #nosat'
    : 1 #  rs1_val==fnorm(0x0ce5b5be) and rs2_val==fnorm(0xc01fa549) and rs3_val==fnorm(0x0d8f4031) | Guard = 1 Round = 0 Sticky = 1 --> IR ∈ (+MinSubNorm / 2, +MinSubNorm)
    ? 'fs1 == 0 and fe1 == 0x19 and fm1 == 0x65b5be and fs2 == 1 and fe2 == 0x80 and
      fm2 == 0x1fa549 and fs3 == 0 and fe3 == 0x1b and fm3 == 0x0f4031 and rm_val
      == 1  #nosat'
    : 1 #  rs1_val==fnorm(0x0ce5b5be) and rs2_val==fnorm(0xc01fa549) and rs3_val==fnorm(0x0d8f4031) | Guard = 1 Round = 0 Sticky = 1 --> IR ∈ (+MinSubNorm / 2, +MinSubNorm)
    ? 'fs1 == 0 and fe1 == 0x19 and fm1 == 0x65b5be and fs2 == 1 and fe2 == 0x80 and
      fm2 == 0x1fa549 and fs3 == 0 and fe3 == 0x1b and fm3 == 0x0f4031 and rm_val
      == 0  #nosat'
    : 1 #  rs1_val==fnorm(0x0ce5b5be) and rs2_val==fnorm(0xc01fa549) and rs3_val==fnorm(0x0d8f4031) | Guard = 1 Round = 0 Sticky = 1 --> IR ∈ (+MinSubNorm / 2, +MinSubNorm)
    ? 'fs1 == 0 and fe1 == 0x1a and fm1 == 0x22883f and fs2 == 1 and fe2 == 0x7f and
      fm2 == 0x548346 and fs3 == 0 and fe3 == 0x1b and fm3 == 0x06ec2d and rm_val
      == 4  #nosat'
    : 1 #  rs1_val==fnorm(0x0d22883f) and rs2_val==fnorm(0xbfd48346) and rs3_val==fnorm(0x0d86ec2d) | Guard = 1 Round = 0 Sticky = 0 --> IR ∈ (+MinSubNorm / 2, +MinSubNorm)
    ? 'fs1 == 0 and fe1 == 0x1a and fm1 == 0x22883f and fs2 == 1 and fe2 == 0x7f and
      fm2 == 0x548346 and fs3 == 0 and fe3 == 0x1b and fm3 == 0x06ec2d and rm_val
      == 3  #nosat'
    : 1 #  rs1_val==fnorm(0x0d22883f) and rs2_val==fnorm(0xbfd48346) and rs3_val==fnorm(0x0d86ec2d) | Guard = 1 Round = 0 Sticky = 0 --> IR ∈ (+MinSubNorm / 2, +MinSubNorm)
    ? 'fs1 == 0 and fe1 == 0x1a and fm1 == 0x22883f and fs2 == 1 and fe2 == 0x7f and
      fm2 == 0x548346 and fs3 == 0 and fe3 == 0x1b and fm3 == 0x06ec2d and rm_val
      == 2  #nosat'
    : 1 #  rs1_val==fnorm(0x0d22883f) and rs2_val==fnorm(0xbfd48346) and rs3_val==fnorm(0x0d86ec2d) | Guard = 1 Round = 0 Sticky = 0 --> IR ∈ (+MinSubNorm / 2, +MinSubNorm)
    ? 'fs1 == 0 and fe1 == 0x1a and fm1 == 0x22883f and fs2 == 1 and fe2 == 0x7f and
      fm2 == 0x548346 and fs3 == 0 and fe3 == 0x1b and fm3 == 0x06ec2d and rm_val
      == 1  #nosat'
    : 1 #  rs1_val==fnorm(0x0d22883f) and rs2_val==fnorm(0xbfd48346) and rs3_val==fnorm(0x0d86ec2d) | Guard = 1 Round = 0 Sticky = 0 --> IR ∈ (+MinSubNorm / 2, +MinSubNorm)
    ? 'fs1 == 0 and fe1 == 0x1a and fm1 == 0x22883f and fs2 == 1 and fe2 == 0x7f and
      fm2 == 0x548346 and fs3 == 0 and fe3 == 0x1b and fm3 == 0x06ec2d and rm_val
      == 0  #nosat'
    : 1 #  rs1_val==fnorm(0x0d22883f) and rs2_val==fnorm(0xbfd48346) and rs3_val==fnorm(0x0d86ec2d) | Guard = 1 Round = 0 Sticky = 0 --> IR ∈ (+MinSubNorm / 2, +MinSubNorm)
    ? 'fs1 == 0 and fe1 == 0x1a and fm1 == 0x1f04c3 and fs2 == 1 and fe2 == 0x7f and
      fm2 == 0x7194f8 and fs3 == 0 and fe3 == 0x1b and fm3 == 0x161005 and rm_val
      == 4  #nosat'
    : 1 #  rs1_val==fnorm(0x0d1f04c3) and rs2_val==fnorm(0xbff194f8) and rs3_val==fnorm(0x0d961005) | Guard = 0 Round = 1 Sticky = 1 --> IR ∈ (+MinSubNorm / 2, +MinSubNorm)
    ? 'fs1 == 0 and fe1 == 0x1a and fm1 == 0x1f04c3 and fs2 == 1 and fe2 == 0x7f and
      fm2 == 0x7194f8 and fs3 == 0 and fe3 == 0x1b and fm3 == 0x161005 and rm_val
      == 3  #nosat'
    : 1 #  rs1_val==fnorm(0x0d1f04c3) and rs2_val==fnorm(0xbff194f8) and rs3_val==fnorm(0x0d961005) | Guard = 0 Round = 1 Sticky = 1 --> IR ∈ (+MinSubNorm / 2, +MinSubNorm)
    ? 'fs1 == 0 and fe1 == 0x1a and fm1 == 0x1f04c3 and fs2 == 1 and fe2 == 0x7f and
      fm2 == 0x7194f8 and fs3 == 0 and fe3 == 0x1b and fm3 == 0x161005 and rm_val
      == 2  #nosat'
    : 1 #  rs1_val==fnorm(0x0d1f04c3) and rs2_val==fnorm(0xbff194f8) and rs3_val==fnorm(0x0d961005) | Guard = 0 Round = 1 Sticky = 1 --> IR ∈ (+MinSubNorm / 2, +MinSubNorm)
    ? 'fs1 == 0 and fe1 == 0x1a and fm1 == 0x1f04c3 and fs2 == 1 and fe2 == 0x7f and
      fm2 == 0x7194f8 and fs3 == 0 and fe3 == 0x1b and fm3 == 0x161005 and rm_val
      == 1  #nosat'
    : 1 #  rs1_val==fnorm(0x0d1f04c3) and rs2_val==fnorm(0xbff194f8) and rs3_val==fnorm(0x0d961005) | Guard = 0 Round = 1 Sticky = 1 --> IR ∈ (+MinSubNorm / 2, +MinSubNorm)
    ? 'fs1 == 0 and fe1 == 0x1a and fm1 == 0x1f04c3 and fs2 == 1 and fe2 == 0x7f and
      fm2 == 0x7194f8 and fs3 == 0 and fe3 == 0x1b and fm3 == 0x161005 and rm_val
      == 0  #nosat'
    : 1 #  rs1_val==fnorm(0x0d1f04c3) and rs2_val==fnorm(0xbff194f8) and rs3_val==fnorm(0x0d961005) | Guard = 0 Round = 1 Sticky = 1 --> IR ∈ (+MinSubNorm / 2, +MinSubNorm)
    ? 'fs1 == 0 and fe1 == 0x1a and fm1 == 0x15bc2b and fs2 == 1 and fe2 == 0x7f and
      fm2 == 0x132098 and fs3 == 0 and fe3 == 0x1a and fm3 == 0x2c1c3a and rm_val
      == 4  #nosat'
    : 1 #  rs1_val==fnorm(0x0d15bc2b) and rs2_val==fnorm(0xbf932098) and rs3_val==fnorm(0x0d2c1c3a) | Guard = 0 Round = 1 Sticky = 0 --> IR ∈ (+MinSubNorm / 2, +MinSubNorm)
    ? 'fs1 == 0 and fe1 == 0x1a and fm1 == 0x15bc2b and fs2 == 1 and fe2 == 0x7f and
      fm2 == 0x132098 and fs3 == 0 and fe3 == 0x1a and fm3 == 0x2c1c3a and rm_val
      == 3  #nosat'
    : 1 #  rs1_val==fnorm(0x0d15bc2b) and rs2_val==fnorm(0xbf932098) and rs3_val==fnorm(0x0d2c1c3a) | Guard = 0 Round = 1 Sticky = 0 --> IR ∈ (+MinSubNorm / 2, +MinSubNorm)
    ? 'fs1 == 0 and fe1 == 0x1a and fm1 == 0x15bc2b and fs2 == 1 and fe2 == 0x7f and
      fm2 == 0x132098 and fs3 == 0 and fe3 == 0x1a and fm3 == 0x2c1c3a and rm_val
      == 2  #nosat'
    : 1 #  rs1_val==fnorm(0x0d15bc2b) and rs2_val==fnorm(0xbf932098) and rs3_val==fnorm(0x0d2c1c3a) | Guard = 0 Round = 1 Sticky = 0 --> IR ∈ (+MinSubNorm / 2, +MinSubNorm)
    ? 'fs1 == 0 and fe1 == 0x1a and fm1 == 0x15bc2b and fs2 == 1 and fe2 == 0x7f and
      fm2 == 0x132098 and fs3 == 0 and fe3 == 0x1a and fm3 == 0x2c1c3a and rm_val
      == 1  #nosat'
    : 1 #  rs1_val==fnorm(0x0d15bc2b) and rs2_val==fnorm(0xbf932098) and rs3_val==fnorm(0x0d2c1c3a) | Guard = 0 Round = 1 Sticky = 0 --> IR ∈ (+MinSubNorm / 2, +MinSubNorm)
    ? 'fs1 == 0 and fe1 == 0x1a and fm1 == 0x15bc2b and fs2 == 1 and fe2 == 0x7f and
      fm2 == 0x132098 and fs3 == 0 and fe3 == 0x1a and fm3 == 0x2c1c3a and rm_val
      == 0  #nosat'
    : 1 #  rs1_val==fnorm(0x0d15bc2b) and rs2_val==fnorm(0xbf932098) and rs3_val==fnorm(0x0d2c1c3a) | Guard = 0 Round = 1 Sticky = 0 --> IR ∈ (+MinSubNorm / 2, +MinSubNorm)
    ? 'fs1 == 0 and fe1 == 0x1a and fm1 == 0x74b035 and fs2 == 1 and fe2 == 0x7e and
      fm2 == 0x72cefc and fs3 == 0 and fe3 == 0x1a and fm3 == 0x681469 and rm_val
      == 4  #nosat'
    : 1 #  rs1_val==fnorm(0x0d74b035) and rs2_val==fnorm(0xbf72cefc) and rs3_val==fnorm(0x0d681469) | Guard = 0 Round = 0 Sticky = 1 --> IR ∈ (+MinSubNorm / 2, +MinSubNorm)
    ? 'fs1 == 0 and fe1 == 0x1a and fm1 == 0x74b035 and fs2 == 1 and fe2 == 0x7e and
      fm2 == 0x72cefc and fs3 == 0 and fe3 == 0x1a and fm3 == 0x681469 and rm_val
      == 3  #nosat'
    : 1 #  rs1_val==fnorm(0x0d74b035) and rs2_val==fnorm(0xbf72cefc) and rs3_val==fnorm(0x0d681469) | Guard = 0 Round = 0 Sticky = 1 --> IR ∈ (+MinSubNorm / 2, +MinSubNorm)
    ? 'fs1 == 0 and fe1 == 0x1a and fm1 == 0x74b035 and fs2 == 1 and fe2 == 0x7e and
      fm2 == 0x72cefc and fs3 == 0 and fe3 == 0x1a and fm3 == 0x681469 and rm_val
      == 2  #nosat'
    : 1 #  rs1_val==fnorm(0x0d74b035) and rs2_val==fnorm(0xbf72cefc) and rs3_val==fnorm(0x0d681469) | Guard = 0 Round = 0 Sticky = 1 --> IR ∈ (+MinSubNorm / 2, +MinSubNorm)
    ? 'fs1 == 0 and fe1 == 0x1a and fm1 == 0x74b035 and fs2 == 1 and fe2 == 0x7e and
      fm2 == 0x72cefc and fs3 == 0 and fe3 == 0x1a and fm3 == 0x681469 and rm_val
      == 1  #nosat'
    : 1 #  rs1_val==fnorm(0x0d74b035) and rs2_val==fnorm(0xbf72cefc) and rs3_val==fnorm(0x0d681469) | Guard = 0 Round = 0 Sticky = 1 --> IR ∈ (+MinSubNorm / 2, +MinSubNorm)
    ? 'fs1 == 0 and fe1 == 0x1a and fm1 == 0x74b035 and fs2 == 1 and fe2 == 0x7e and
      fm2 == 0x72cefc and fs3 == 0 and fe3 == 0x1a and fm3 == 0x681469 and rm_val
      == 0  #nosat'
    : 1 #  rs1_val==fnorm(0x0d74b035) and rs2_val==fnorm(0xbf72cefc) and rs3_val==fnorm(0x0d681469) | Guard = 0 Round = 0 Sticky = 1 --> IR ∈ (+MinSubNorm / 2, +MinSubNorm)
    ? 'fs1 == 0 and fe1 == 0x1b and fm1 == 0x1c13cd and fs2 == 1 and fe2 == 0x7c and
      fm2 == 0x2b972c and fs3 == 0 and fe3 == 0x18 and fm3 == 0x513ac9 and rm_val
      == 4  #nosat'
    : 1 #  rs1_val==fnorm(0x0d9c13cd) and rs2_val==fnorm(0xbe2b972c) and rs3_val==fnorm(0x0c513ac9) | Guard = 1 Round = 1 Sticky = 1 --> IR ∈ (0, +MinSubNorm / 2)
    ? 'fs1 == 0 and fe1 == 0x1b and fm1 == 0x1c13cd and fs2 == 1 and fe2 == 0x7c and
      fm2 == 0x2b972c and fs3 == 0 and fe3 == 0x18 and fm3 == 0x513ac9 and rm_val
      == 3  #nosat'
    : 1 #  rs1_val==fnorm(0x0d9c13cd) and rs2_val==fnorm(0xbe2b972c) and rs3_val==fnorm(0x0c513ac9) | Guard = 1 Round = 1 Sticky = 1 --> IR ∈ (0, +MinSubNorm / 2)
    ? 'fs1 == 0 and fe1 == 0x1b and fm1 == 0x1c13cd and fs2 == 1 and fe2 == 0x7c and
      fm2 == 0x2b972c and fs3 == 0 and fe3 == 0x18 and fm3 == 0x513ac9 and rm_val
      == 2  #nosat'
    : 1 #  rs1_val==fnorm(0x0d9c13cd) and rs2_val==fnorm(0xbe2b972c) and rs3_val==fnorm(0x0c513ac9) | Guard = 1 Round = 1 Sticky = 1 --> IR ∈ (0, +MinSubNorm / 2)
    ? 'fs1 == 0 and fe1 == 0x1b and fm1 == 0x1c13cd and fs2 == 1 and fe2 == 0x7c and
      fm2 == 0x2b972c and fs3 == 0 and fe3 == 0x18 and fm3 == 0x513ac9 and rm_val
      == 1  #nosat'
    : 1 #  rs1_val==fnorm(0x0d9c13cd) and rs2_val==fnorm(0xbe2b972c) and rs3_val==fnorm(0x0c513ac9) | Guard = 1 Round = 1 Sticky = 1 --> IR ∈ (0, +MinSubNorm / 2)
    ? 'fs1 == 0 and fe1 == 0x1b and fm1 == 0x1c13cd and fs2 == 1 and fe2 == 0x7c and
      fm2 == 0x2b972c and fs3 == 0 and fe3 == 0x18 and fm3 == 0x513ac9 and rm_val
      == 0  #nosat'
    : 1 #  rs1_val==fnorm(0x0d9c13cd) and rs2_val==fnorm(0xbe2b972c) and rs3_val==fnorm(0x0c513ac9) | Guard = 1 Round = 1 Sticky = 1 --> IR ∈ (0, +MinSubNorm / 2)
    ? 'fs1 == 0 and fe1 == 0x19 and fm1 == 0x659ef1 and fs2 == 1 and fe2 == 0x80 and
      fm2 == 0x31755f and fs3 == 0 and fe3 == 0x1b and fm3 == 0x1f2c2c and rm_val
      == 4  #nosat'
    : 1 #  rs1_val==fnorm(0x0ce59ef1) and rs2_val==fnorm(0xc031755f) and rs3_val==fnorm(0x0d9f2c2c) | Guard = 1 Round = 1 Sticky = 0 --> IR ∈ (0, +MinSubNorm / 2)
    ? 'fs1 == 0 and fe1 == 0x19 and fm1 == 0x659ef1 and fs2 == 1 and fe2 == 0x80 and
      fm2 == 0x31755f and fs3 == 0 and fe3 == 0x1b and fm3 == 0x1f2c2c and rm_val
      == 3  #nosat'
    : 1 #  rs1_val==fnorm(0x0ce59ef1) and rs2_val==fnorm(0xc031755f) and rs3_val==fnorm(0x0d9f2c2c) | Guard = 1 Round = 1 Sticky = 0 --> IR ∈ (0, +MinSubNorm / 2)
    ? 'fs1 == 0 and fe1 == 0x19 and fm1 == 0x659ef1 and fs2 == 1 and fe2 == 0x80 and
      fm2 == 0x31755f and fs3 == 0 and fe3 == 0x1b and fm3 == 0x1f2c2c and rm_val
      == 2  #nosat'
    : 1 #  rs1_val==fnorm(0x0ce59ef1) and rs2_val==fnorm(0xc031755f) and rs3_val==fnorm(0x0d9f2c2c) | Guard = 1 Round = 1 Sticky = 0 --> IR ∈ (0, +MinSubNorm / 2)
    ? 'fs1 == 0 and fe1 == 0x19 and fm1 == 0x659ef1 and fs2 == 1 and fe2 == 0x80 and
      fm2 == 0x31755f and fs3 == 0 and fe3 == 0x1b and fm3 == 0x1f2c2c and rm_val
      == 1  #nosat'
    : 1 #  rs1_val==fnorm(0x0ce59ef1) and rs2_val==fnorm(0xc031755f) and rs3_val==fnorm(0x0d9f2c2c) | Guard = 1 Round = 1 Sticky = 0 --> IR ∈ (0, +MinSubNorm / 2)
    ? 'fs1 == 0 and fe1 == 0x19 and fm1 == 0x659ef1 and fs2 == 1 and fe2 == 0x80 and
      fm2 == 0x31755f and fs3 == 0 and fe3 == 0x1b and fm3 == 0x1f2c2c and rm_val
      == 0  #nosat'
    : 1 #  rs1_val==fnorm(0x0ce59ef1) and rs2_val==fnorm(0xc031755f) and rs3_val==fnorm(0x0d9f2c2c) | Guard = 1 Round = 1 Sticky = 0 --> IR ∈ (0, +MinSubNorm / 2)
    ? 'fs1 == 0 and fe1 == 0x1a and fm1 == 0x77920b and fs2 == 1 and fe2 == 0x7f and
      fm2 == 0x0481cd and fs3 == 0 and fe3 == 0x1b and fm3 == 0x0024d5 and rm_val
      == 4  #nosat'
    : 1 #  rs1_val==fnorm(0x0d77920b) and rs2_val==fnorm(0xbf8481cd) and rs3_val==fnorm(0x0d8024d5) | Guard = 1 Round = 0 Sticky = 1 --> IR ∈ (0, +MinSubNorm / 2)
    ? 'fs1 == 0 and fe1 == 0x1a and fm1 == 0x77920b and fs2 == 1 and fe2 == 0x7f and
      fm2 == 0x0481cd and fs3 == 0 and fe3 == 0x1b and fm3 == 0x0024d5 and rm_val
      == 3  #nosat'
    : 1 #  rs1_val==fnorm(0x0d77920b) and rs2_val==fnorm(0xbf8481cd) and rs3_val==fnorm(0x0d8024d5) | Guard = 1 Round = 0 Sticky = 1 --> IR ∈ (0, +MinSubNorm / 2)
    ? 'fs1 == 0 and fe1 == 0x1a and fm1 == 0x77920b and fs2 == 1 and fe2 == 0x7f and
      fm2 == 0x0481cd and fs3 == 0 and fe3 == 0x1b and fm3 == 0x0024d5 and rm_val
      == 2  #nosat'
    : 1 #  rs1_val==fnorm(0x0d77920b) and rs2_val==fnorm(0xbf8481cd) and rs3_val==fnorm(0x0d8024d5) | Guard = 1 Round = 0 Sticky = 1 --> IR ∈ (0, +MinSubNorm / 2)
    ? 'fs1 == 0 and fe1 == 0x1a and fm1 == 0x77920b and fs2 == 1 and fe2 == 0x7f and
      fm2 == 0x0481cd and fs3 == 0 and fe3 == 0x1b and fm3 == 0x0024d5 and rm_val
      == 1  #nosat'
    : 1 #  rs1_val==fnorm(0x0d77920b) and rs2_val==fnorm(0xbf8481cd) and rs3_val==fnorm(0x0d8024d5) | Guard = 1 Round = 0 Sticky = 1 --> IR ∈ (0, +MinSubNorm / 2)
    ? 'fs1 == 0 and fe1 == 0x1a and fm1 == 0x77920b and fs2 == 1 and fe2 == 0x7f and
      fm2 == 0x0481cd and fs3 == 0 and fe3 == 0x1b and fm3 == 0x0024d5 and rm_val
      == 0  #nosat'
    : 1 #  rs1_val==fnorm(0x0d77920b) and rs2_val==fnorm(0xbf8481cd) and rs3_val==fnorm(0x0d8024d5) | Guard = 1 Round = 0 Sticky = 1 --> IR ∈ (0, +MinSubNorm / 2)
    ? 'fs1 == 0 and fe1 == 0x1a and fm1 == 0x6e53b4 and fs2 == 1 and fe2 == 0x7f and
      fm2 == 0x1e02f8 and fs3 == 0 and fe3 == 0x1b and fm3 == 0x131a6d and rm_val
      == 4  #nosat'
    : 1 #  rs1_val==fnorm(0x0d6e53b4) and rs2_val==fnorm(0xbf9e02f8) and rs3_val==fnorm(0x0d931a6d) | Guard = 1 Round = 0 Sticky = 0 --> IR ∈ (0, +MinSubNorm / 2)
    ? 'fs1 == 0 and fe1 == 0x1a and fm1 == 0x6e53b4 and fs2 == 1 and fe2 == 0x7f and
      fm2 == 0x1e02f8 and fs3 == 0 and fe3 == 0x1b and fm3 == 0x131a6d and rm_val
      == 3  #nosat'
    : 1 #  rs1_val==fnorm(0x0d6e53b4) and rs2_val==fnorm(0xbf9e02f8) and rs3_val==fnorm(0x0d931a6d) | Guard = 1 Round = 0 Sticky = 0 --> IR ∈ (0, +MinSubNorm / 2)
    ? 'fs1 == 0 and fe1 == 0x1a and fm1 == 0x6e53b4 and fs2 == 1 and fe2 == 0x7f and
      fm2 == 0x1e02f8 and fs3 == 0 and fe3 == 0x1b and fm3 == 0x131a6d and rm_val
      == 2  #nosat'
    : 1 #  rs1_val==fnorm(0x0d6e53b4) and rs2_val==fnorm(0xbf9e02f8) and rs3_val==fnorm(0x0d931a6d) | Guard = 1 Round = 0 Sticky = 0 --> IR ∈ (0, +MinSubNorm / 2)
    ? 'fs1 == 0 and fe1 == 0x1a and fm1 == 0x6e53b4 and fs2 == 1 and fe2 == 0x7f and
      fm2 == 0x1e02f8 and fs3 == 0 and fe3 == 0x1b and fm3 == 0x131a6d and rm_val
      == 1  #nosat'
    : 1 #  rs1_val==fnorm(0x0d6e53b4) and rs2_val==fnorm(0xbf9e02f8) and rs3_val==fnorm(0x0d931a6d) | Guard = 1 Round = 0 Sticky = 0 --> IR ∈ (0, +MinSubNorm / 2)
    ? 'fs1 == 0 and fe1 == 0x1a and fm1 == 0x6e53b4 and fs2 == 1 and fe2 == 0x7f and
      fm2 == 0x1e02f8 and fs3 == 0 and fe3 == 0x1b and fm3 == 0x131a6d and rm_val
      == 0  #nosat'
    : 1 #  rs1_val==fnorm(0x0d6e53b4) and rs2_val==fnorm(0xbf9e02f8) and rs3_val==fnorm(0x0d931a6d) | Guard = 1 Round = 0 Sticky = 0 --> IR ∈ (0, +MinSubNorm / 2)
    ? 'fs1 == 0 and fe1 == 0x1b and fm1 == 0x10fd82 and fs2 == 1 and fe2 == 0x7e and
      fm2 == 0x6443ad and fs3 == 0 and fe3 == 0x1b and fm3 == 0x01481c and rm_val
      == 4  #nosat'
    : 1 #  rs1_val==fnorm(0x0d90fd82) and rs2_val==fnorm(0xbf6443ad) and rs3_val==fnorm(0x0d81481c) | Guard = 0 Round = 1 Sticky = 1 --> IR ∈ (0, +MinSubNorm / 2)
    ? 'fs1 == 0 and fe1 == 0x1b and fm1 == 0x10fd82 and fs2 == 1 and fe2 == 0x7e and
      fm2 == 0x6443ad and fs3 == 0 and fe3 == 0x1b and fm3 == 0x01481c and rm_val
      == 3  #nosat'
    : 1 #  rs1_val==fnorm(0x0d90fd82) and rs2_val==fnorm(0xbf6443ad) and rs3_val==fnorm(0x0d81481c) | Guard = 0 Round = 1 Sticky = 1 --> IR ∈ (0, +MinSubNorm / 2)
    ? 'fs1 == 0 and fe1 == 0x1b and fm1 == 0x10fd82 and fs2 == 1 and fe2 == 0x7e and
      fm2 == 0x6443ad and fs3 == 0 and fe3 == 0x1b and fm3 == 0x01481c and rm_val
      == 2  #nosat'
    : 1 #  rs1_val==fnorm(0x0d90fd82) and rs2_val==fnorm(0xbf6443ad) and rs3_val==fnorm(0x0d81481c) | Guard = 0 Round = 1 Sticky = 1 --> IR ∈ (0, +MinSubNorm / 2)
    ? 'fs1 == 0 and fe1 == 0x1b and fm1 == 0x10fd82 and fs2 == 1 and fe2 == 0x7e and
      fm2 == 0x6443ad and fs3 == 0 and fe3 == 0x1b and fm3 == 0x01481c and rm_val
      == 1  #nosat'
    : 1 #  rs1_val==fnorm(0x0d90fd82) and rs2_val==fnorm(0xbf6443ad) and rs3_val==fnorm(0x0d81481c) | Guard = 0 Round = 1 Sticky = 1 --> IR ∈ (0, +MinSubNorm / 2)
    ? 'fs1 == 0 and fe1 == 0x1b and fm1 == 0x10fd82 and fs2 == 1 and fe2 == 0x7e and
      fm2 == 0x6443ad and fs3 == 0 and fe3 == 0x1b and fm3 == 0x01481c and rm_val
      == 0  #nosat'
    : 1 #  rs1_val==fnorm(0x0d90fd82) and rs2_val==fnorm(0xbf6443ad) and rs3_val==fnorm(0x0d81481c) | Guard = 0 Round = 1 Sticky = 1 --> IR ∈ (0, +MinSubNorm / 2)
    ? 'fs1 == 0 and fe1 == 0x1a and fm1 == 0x5ae194 and fs2 == 1 and fe2 == 0x7d and
      fm2 == 0x0a09be and fs3 == 0 and fe3 == 0x18 and fm3 == 0x6c0bdd and rm_val
      == 4  #nosat'
    : 1 #  rs1_val==fnorm(0x0d5ae194) and rs2_val==fnorm(0xbe8a09be) and rs3_val==fnorm(0x0c6c0bdd) | Guard = 0 Round = 1 Sticky = 0 --> IR ∈ (0, +MinSubNorm / 2)
    ? 'fs1 == 0 and fe1 == 0x1a and fm1 == 0x5ae194 and fs2 == 1 and fe2 == 0x7d and
      fm2 == 0x0a09be and fs3 == 0 and fe3 == 0x18 and fm3 == 0x6c0bdd and rm_val
      == 3  #nosat'
    : 1 #  rs1_val==fnorm(0x0d5ae194) and rs2_val==fnorm(0xbe8a09be) and rs3_val==fnorm(0x0c6c0bdd) | Guard = 0 Round = 1 Sticky = 0 --> IR ∈ (0, +MinSubNorm / 2)
    ? 'fs1 == 0 and fe1 == 0x1a and fm1 == 0x5ae194 and fs2 == 1 and fe2 == 0x7d and
      fm2 == 0x0a09be and fs3 == 0 and fe3 == 0x18 and fm3 == 0x6c0bdd and rm_val
      == 2  #nosat'
    : 1 #  rs1_val==fnorm(0x0d5ae194) and rs2_val==fnorm(0xbe8a09be) and rs3_val==fnorm(0x0c6c0bdd) | Guard = 0 Round = 1 Sticky = 0 --> IR ∈ (0, +MinSubNorm / 2)
    ? 'fs1 == 0 and fe1 == 0x1a and fm1 == 0x5ae194 and fs2 == 1 and fe2 == 0x7d and
      fm2 == 0x0a09be and fs3 == 0 and fe3 == 0x18 and fm3 == 0x6c0bdd and rm_val
      == 1  #nosat'
    : 1 #  rs1_val==fnorm(0x0d5ae194) and rs2_val==fnorm(0xbe8a09be) and rs3_val==fnorm(0x0c6c0bdd) | Guard = 0 Round = 1 Sticky = 0 --> IR ∈ (0, +MinSubNorm / 2)
    ? 'fs1 == 0 and fe1 == 0x1a and fm1 == 0x5ae194 and fs2 == 1 and fe2 == 0x7d and
      fm2 == 0x0a09be and fs3 == 0 and fe3 == 0x18 and fm3 == 0x6c0bdd and rm_val
      == 0  #nosat'
    : 1 #  rs1_val==fnorm(0x0d5ae194) and rs2_val==fnorm(0xbe8a09be) and rs3_val==fnorm(0x0c6c0bdd) | Guard = 0 Round = 1 Sticky = 0 --> IR ∈ (0, +MinSubNorm / 2)
    ? 'fs1 == 0 and fe1 == 0x1a and fm1 == 0x2593bd and fs2 == 1 and fe2 == 0x7f and
      fm2 == 0x7a8a3f and fs3 == 0 and fe3 == 0x1b and fm3 == 0x220bb1 and rm_val
      == 4  #nosat'
    : 1 #  rs1_val==fnorm(0x0d2593bd) and rs2_val==fnorm(0xbffa8a3f) and rs3_val==fnorm(0x0da20bb1) | Guard = 0 Round = 0 Sticky = 1 --> IR ∈ (0, +MinSubNorm / 2)
    ? 'fs1 == 0 and fe1 == 0x1a and fm1 == 0x2593bd and fs2 == 1 and fe2 == 0x7f and
      fm2 == 0x7a8a3f and fs3 == 0 and fe3 == 0x1b and fm3 == 0x220bb1 and rm_val
      == 3  #nosat'
    : 1 #  rs1_val==fnorm(0x0d2593bd) and rs2_val==fnorm(0xbffa8a3f) and rs3_val==fnorm(0x0da20bb1) | Guard = 0 Round = 0 Sticky = 1 --> IR ∈ (0, +MinSubNorm / 2)
    ? 'fs1 == 0 and fe1 == 0x1a and fm1 == 0x2593bd and fs2 == 1 and fe2 == 0x7f and
      fm2 == 0x7a8a3f and fs3 == 0 and fe3 == 0x1b and fm3 == 0x220bb1 and rm_val
      == 2  #nosat'
    : 1 #  rs1_val==fnorm(0x0d2593bd) and rs2_val==fnorm(0xbffa8a3f) and rs3_val==fnorm(0x0da20bb1) | Guard = 0 Round = 0 Sticky = 1 --> IR ∈ (0, +MinSubNorm / 2)
    ? 'fs1 == 0 and fe1 == 0x1a and fm1 == 0x2593bd and fs2 == 1 and fe2 == 0x7f and
      fm2 == 0x7a8a3f and fs3 == 0 and fe3 == 0x1b and fm3 == 0x220bb1 and rm_val
      == 1  #nosat'
    : 1 #  rs1_val==fnorm(0x0d2593bd) and rs2_val==fnorm(0xbffa8a3f) and rs3_val==fnorm(0x0da20bb1) | Guard = 0 Round = 0 Sticky = 1 --> IR ∈ (0, +MinSubNorm / 2)
    ? 'fs1 == 0 and fe1 == 0x1a and fm1 == 0x2593bd and fs2 == 1 and fe2 == 0x7f and
      fm2 == 0x7a8a3f and fs3 == 0 and fe3 == 0x1b and fm3 == 0x220bb1 and rm_val
      == 0  #nosat'
    : 1 #  rs1_val==fnorm(0x0d2593bd) and rs2_val==fnorm(0xbffa8a3f) and rs3_val==fnorm(0x0da20bb1) | Guard = 0 Round = 0 Sticky = 1 --> IR ∈ (0, +MinSubNorm / 2)
    ? 'fs1 == 0 and fe1 == 0x19 and fm1 == 0x5307a2 and fs2 == 1 and fe2 == 0x7d and
      fm2 == 0x57419d and fs3 == 0 and fe3 == 0x18 and fm3 == 0x317180 and rm_val
      == 4  #nosat'
    : 1 #  rs1_val==fnorm(0x0cd307a2) and rs2_val==fnorm(0xbed7419d) and rs3_val==fnorm(0x0c317180) | Guard = 1 Round = 1 Sticky = 1 --> IR ∈ (-MinSubNorm / 2, 0)
    ? 'fs1 == 0 and fe1 == 0x19 and fm1 == 0x5307a2 and fs2 == 1 and fe2 == 0x7d and
      fm2 == 0x57419d and fs3 == 0 and fe3 == 0x18 and fm3 == 0x317180 and rm_val
      == 3  #nosat'
    : 1 #  rs1_val==fnorm(0x0cd307a2) and rs2_val==fnorm(0xbed7419d) and rs3_val==fnorm(0x0c317180) | Guard = 1 Round = 1 Sticky = 1 --> IR ∈ (-MinSubNorm / 2, 0)
    ? 'fs1 == 0 and fe1 == 0x19 and fm1 == 0x5307a2 and fs2 == 1 and fe2 == 0x7d and
      fm2 == 0x57419d and fs3 == 0 and fe3 == 0x18 and fm3 == 0x317180 and rm_val
      == 2  #nosat'
    : 1 #  rs1_val==fnorm(0x0cd307a2) and rs2_val==fnorm(0xbed7419d) and rs3_val==fnorm(0x0c317180) | Guard = 1 Round = 1 Sticky = 1 --> IR ∈ (-MinSubNorm / 2, 0)
    ? 'fs1 == 0 and fe1 == 0x19 and fm1 == 0x5307a2 and fs2 == 1 and fe2 == 0x7d and
      fm2 == 0x57419d and fs3 == 0 and fe3 == 0x18 and fm3 == 0x317180 and rm_val
      == 1  #nosat'
    : 1 #  rs1_val==fnorm(0x0cd307a2) and rs2_val==fnorm(0xbed7419d) and rs3_val==fnorm(0x0c317180) | Guard = 1 Round = 1 Sticky = 1 --> IR ∈ (-MinSubNorm / 2, 0)
    ? 'fs1 == 0 and fe1 == 0x19 and fm1 == 0x5307a2 and fs2 == 1 and fe2 == 0x7d and
      fm2 == 0x57419d and fs3 == 0 and fe3 == 0x18 and fm3 == 0x317180 and rm_val
      == 0  #nosat'
    : 1 #  rs1_val==fnorm(0x0cd307a2) and rs2_val==fnorm(0xbed7419d) and rs3_val==fnorm(0x0c317180) | Guard = 1 Round = 1 Sticky = 1 --> IR ∈ (-MinSubNorm / 2, 0)
    ? 'fs1 == 0 and fe1 == 0x19 and fm1 == 0x1940ba and fs2 == 1 and fe2 == 0x7b and
      fm2 == 0x4eee6f and fs3 == 0 and fe3 == 0x15 and fm3 == 0x77c1a7 and rm_val
      == 4  #nosat'
    : 1 #  rs1_val==fnorm(0x0c9940ba) and rs2_val==fnorm(0xbdceee6f) and rs3_val==fnorm(0x0af7c1a7) | Guard = 1 Round = 1 Sticky = 0 --> IR ∈ (-MinSubNorm / 2, 0)
    ? 'fs1 == 0 and fe1 == 0x19 and fm1 == 0x1940ba and fs2 == 1 and fe2 == 0x7b and
      fm2 == 0x4eee6f and fs3 == 0 and fe3 == 0x15 and fm3 == 0x77c1a7 and rm_val
      == 3  #nosat'
    : 1 #  rs1_val==fnorm(0x0c9940ba) and rs2_val==fnorm(0xbdceee6f) and rs3_val==fnorm(0x0af7c1a7) | Guard = 1 Round = 1 Sticky = 0 --> IR ∈ (-MinSubNorm / 2, 0)
    ? 'fs1 == 0 and fe1 == 0x19 and fm1 == 0x1940ba and fs2 == 1 and fe2 == 0x7b and
      fm2 == 0x4eee6f and fs3 == 0 and fe3 == 0x15 and fm3 == 0x77c1a7 and rm_val
      == 2  #nosat'
    : 1 #  rs1_val==fnorm(0x0c9940ba) and rs2_val==fnorm(0xbdceee6f) and rs3_val==fnorm(0x0af7c1a7) | Guard = 1 Round = 1 Sticky = 0 --> IR ∈ (-MinSubNorm / 2, 0)
    ? 'fs1 == 0 and fe1 == 0x19 and fm1 == 0x1940ba and fs2 == 1 and fe2 == 0x7b and
      fm2 == 0x4eee6f and fs3 == 0 and fe3 == 0x15 and fm3 == 0x77c1a7 and rm_val
      == 1  #nosat'
    : 1 #  rs1_val==fnorm(0x0c9940ba) and rs2_val==fnorm(0xbdceee6f) and rs3_val==fnorm(0x0af7c1a7) | Guard = 1 Round = 1 Sticky = 0 --> IR ∈ (-MinSubNorm / 2, 0)
    ? 'fs1 == 0 and fe1 == 0x19 and fm1 == 0x1940ba and fs2 == 1 and fe2 == 0x7b and
      fm2 == 0x4eee6f and fs3 == 0 and fe3 == 0x15 and fm3 == 0x77c1a7 and rm_val
      == 0  #nosat'
    : 1 #  rs1_val==fnorm(0x0c9940ba) and rs2_val==fnorm(0xbdceee6f) and rs3_val==fnorm(0x0af7c1a7) | Guard = 1 Round = 1 Sticky = 0 --> IR ∈ (-MinSubNorm / 2, 0)
    ? 'fs1 == 0 and fe1 == 0x1a and fm1 == 0x2a9dd4 and fs2 == 1 and fe2 == 0x7f and
      fm2 == 0x08764c and fs3 == 0 and fe3 == 0x1a and fm3 == 0x35e561 and rm_val
      == 4  #nosat'
    : 1 #  rs1_val==fnorm(0x0d2a9dd4) and rs2_val==fnorm(0xbf88764c) and rs3_val==fnorm(0x0d35e561) | Guard = 1 Round = 0 Sticky = 1 --> IR ∈ (-MinSubNorm / 2, 0)
    ? 'fs1 == 0 and fe1 == 0x1a and fm1 == 0x2a9dd4 and fs2 == 1 and fe2 == 0x7f and
      fm2 == 0x08764c and fs3 == 0 and fe3 == 0x1a and fm3 == 0x35e561 and rm_val
      == 3  #nosat'
    : 1 #  rs1_val==fnorm(0x0d2a9dd4) and rs2_val==fnorm(0xbf88764c) and rs3_val==fnorm(0x0d35e561) | Guard = 1 Round = 0 Sticky = 1 --> IR ∈ (-MinSubNorm / 2, 0)
    ? 'fs1 == 0 and fe1 == 0x1a and fm1 == 0x2a9dd4 and fs2 == 1 and fe2 == 0x7f and
      fm2 == 0x08764c and fs3 == 0 and fe3 == 0x1a and fm3 == 0x35e561 and rm_val
      == 2  #nosat'
    : 1 #  rs1_val==fnorm(0x0d2a9dd4) and rs2_val==fnorm(0xbf88764c) and rs3_val==fnorm(0x0d35e561) | Guard = 1 Round = 0 Sticky = 1 --> IR ∈ (-MinSubNorm / 2, 0)
    ? 'fs1 == 0 and fe1 == 0x1a and fm1 == 0x2a9dd4 and fs2 == 1 and fe2 == 0x7f and
      fm2 == 0x08764c and fs3 == 0 and fe3 == 0x1a and fm3 == 0x35e561 and rm_val
      == 1  #nosat'
    : 1 #  rs1_val==fnorm(0x0d2a9dd4) and rs2_val==fnorm(0xbf88764c) and rs3_val==fnorm(0x0d35e561) | Guard = 1 Round = 0 Sticky = 1 --> IR ∈ (-MinSubNorm / 2, 0)
    ? 'fs1 == 0 and fe1 == 0x1a and fm1 == 0x2a9dd4 and fs2 == 1 and fe2 == 0x7f and
      fm2 == 0x08764c and fs3 == 0 and fe3 == 0x1a and fm3 == 0x35e561 and rm_val
      == 0  #nosat'
    : 1 #  rs1_val==fnorm(0x0d2a9dd4) and rs2_val==fnorm(0xbf88764c) and rs3_val==fnorm(0x0d35e561) | Guard = 1 Round = 0 Sticky = 1 --> IR ∈ (-MinSubNorm / 2, 0)
    ? 'fs1 == 0 and fe1 == 0x19 and fm1 == 0x76a4cf and fs2 == 1 and fe2 == 0x80 and
      fm2 == 0x1630b2 and fs3 == 0 and fe3 == 0x1b and fm3 == 0x10b37c and rm_val
      == 4  #nosat'
    : 1 #  rs1_val==fnorm(0x0cf6a4cf) and rs2_val==fnorm(0xc01630b2) and rs3_val==fnorm(0x0d90b37c) | Guard = 1 Round = 0 Sticky = 0 --> IR ∈ (-MinSubNorm / 2, 0)
    ? 'fs1 == 0 and fe1 == 0x19 and fm1 == 0x76a4cf and fs2 == 1 and fe2 == 0x80 and
      fm2 == 0x1630b2 and fs3 == 0 and fe3 == 0x1b and fm3 == 0x10b37c and rm_val
      == 3  #nosat'
    : 1 #  rs1_val==fnorm(0x0cf6a4cf) and rs2_val==fnorm(0xc01630b2) and rs3_val==fnorm(0x0d90b37c) | Guard = 1 Round = 0 Sticky = 0 --> IR ∈ (-MinSubNorm / 2, 0)
    ? 'fs1 == 0 and fe1 == 0x19 and fm1 == 0x76a4cf and fs2 == 1 and fe2 == 0x80 and
      fm2 == 0x1630b2 and fs3 == 0 and fe3 == 0x1b and fm3 == 0x10b37c and rm_val
      == 2  #nosat'
    : 1 #  rs1_val==fnorm(0x0cf6a4cf) and rs2_val==fnorm(0xc01630b2) and rs3_val==fnorm(0x0d90b37c) | Guard = 1 Round = 0 Sticky = 0 --> IR ∈ (-MinSubNorm / 2, 0)
    ? 'fs1 == 0 and fe1 == 0x19 and fm1 == 0x76a4cf and fs2 == 1 and fe2 == 0x80 and
      fm2 == 0x1630b2 and fs3 == 0 and fe3 == 0x1b and fm3 == 0x10b37c and rm_val
      == 1  #nosat'
    : 1 #  rs1_val==fnorm(0x0cf6a4cf) and rs2_val==fnorm(0xc01630b2) and rs3_val==fnorm(0x0d90b37c) | Guard = 1 Round = 0 Sticky = 0 --> IR ∈ (-MinSubNorm / 2, 0)
    ? 'fs1 == 0 and fe1 == 0x19 and fm1 == 0x76a4cf and fs2 == 1 and fe2 == 0x80 and
      fm2 == 0x1630b2 and fs3 == 0 and fe3 == 0x1b and fm3 == 0x10b37c and rm_val
      == 0  #nosat'
    : 1 #  rs1_val==fnorm(0x0cf6a4cf) and rs2_val==fnorm(0xc01630b2) and rs3_val==fnorm(0x0d90b37c) | Guard = 1 Round = 0 Sticky = 0 --> IR ∈ (-MinSubNorm / 2, 0)
    ? 'fs1 == 0 and fe1 == 0x1a and fm1 == 0x16ddde and fs2 == 1 and fe2 == 0x7e and
      fm2 == 0x2f5df8 and fs3 == 0 and fe3 == 0x19 and fm3 == 0x4eb218 and rm_val
      == 4  #nosat'
    : 1 #  rs1_val==fnorm(0x0d16ddde) and rs2_val==fnorm(0xbf2f5df8) and rs3_val==fnorm(0x0cceb218) | Guard = 0 Round = 1 Sticky = 1 --> IR ∈ (-MinSubNorm / 2, 0)
    ? 'fs1 == 0 and fe1 == 0x1a and fm1 == 0x16ddde and fs2 == 1 and fe2 == 0x7e and
      fm2 == 0x2f5df8 and fs3 == 0 and fe3 == 0x19 and fm3 == 0x4eb218 and rm_val
      == 3  #nosat'
    : 1 #  rs1_val==fnorm(0x0d16ddde) and rs2_val==fnorm(0xbf2f5df8) and rs3_val==fnorm(0x0cceb218) | Guard = 0 Round = 1 Sticky = 1 --> IR ∈ (-MinSubNorm / 2, 0)
    ? 'fs1 == 0 and fe1 == 0x1a and fm1 == 0x16ddde and fs2 == 1 and fe2 == 0x7e and
      fm2 == 0x2f5df8 and fs3 == 0 and fe3 == 0x19 and fm3 == 0x4eb218 and rm_val
      == 2  #nosat'
    : 1 #  rs1_val==fnorm(0x0d16ddde) and rs2_val==fnorm(0xbf2f5df8) and rs3_val==fnorm(0x0cceb218) | Guard = 0 Round = 1 Sticky = 1 --> IR ∈ (-MinSubNorm / 2, 0)
    ? 'fs1 == 0 and fe1 == 0x1a and fm1 == 0x16ddde and fs2 == 1 and fe2 == 0x7e and
      fm2 == 0x2f5df8 and fs3 == 0 and fe3 == 0x19 and fm3 == 0x4eb218 and rm_val
      == 1  #nosat'
    : 1 #  rs1_val==fnorm(0x0d16ddde) and rs2_val==fnorm(0xbf2f5df8) and rs3_val==fnorm(0x0cceb218) | Guard = 0 Round = 1 Sticky = 1 --> IR ∈ (-MinSubNorm / 2, 0)
    ? 'fs1 == 0 and fe1 == 0x1a and fm1 == 0x16ddde and fs2 == 1 and fe2 == 0x7e and
      fm2 == 0x2f5df8 and fs3 == 0 and fe3 == 0x19 and fm3 == 0x4eb218 and rm_val
      == 0  #nosat'
    : 1 #  rs1_val==fnorm(0x0d16ddde) and rs2_val==fnorm(0xbf2f5df8) and rs3_val==fnorm(0x0cceb218) | Guard = 0 Round = 1 Sticky = 1 --> IR ∈ (-MinSubNorm / 2, 0)
    ? 'fs1 == 0 and fe1 == 0x16 and fm1 == 0x3a879f and fs2 == 1 and fe2 == 0x7e and
      fm2 == 0x439313 and fs3 == 0 and fe3 == 0x16 and fm3 == 0x0e8078 and rm_val
      == 4  #nosat'
    : 1 #  rs1_val==fnorm(0x0b3a879f) and rs2_val==fnorm(0xbf439313) and rs3_val==fnorm(0x0b0e8078) | Guard = 0 Round = 1 Sticky = 0 --> IR ∈ (-MinSubNorm / 2, 0)
    ? 'fs1 == 0 and fe1 == 0x16 and fm1 == 0x3a879f and fs2 == 1 and fe2 == 0x7e and
      fm2 == 0x439313 and fs3 == 0 and fe3 == 0x16 and fm3 == 0x0e8078 and rm_val
      == 3  #nosat'
    : 1 #  rs1_val==fnorm(0x0b3a879f) and rs2_val==fnorm(0xbf439313) and rs3_val==fnorm(0x0b0e8078) | Guard = 0 Round = 1 Sticky = 0 --> IR ∈ (-MinSubNorm / 2, 0)
    ? 'fs1 == 0 and fe1 == 0x16 and fm1 == 0x3a879f and fs2 == 1 and fe2 == 0x7e and
      fm2 == 0x439313 and fs3 == 0 and fe3 == 0x16 and fm3 == 0x0e8078 and rm_val
      == 2  #nosat'
    : 1 #  rs1_val==fnorm(0x0b3a879f) and rs2_val==fnorm(0xbf439313) and rs3_val==fnorm(0x0b0e8078) | Guard = 0 Round = 1 Sticky = 0 --> IR ∈ (-MinSubNorm / 2, 0)
    ? 'fs1 == 0 and fe1 == 0x16 and fm1 == 0x3a879f and fs2 == 1 and fe2 == 0x7e and
      fm2 == 0x439313 and fs3 == 0 and fe3 == 0x16 and fm3 == 0x0e8078 and rm_val
      == 1  #nosat'
    : 1 #  rs1_val==fnorm(0x0b3a879f) and rs2_val==fnorm(0xbf439313) and rs3_val==fnorm(0x0b0e8078) | Guard = 0 Round = 1 Sticky = 0 --> IR ∈ (-MinSubNorm / 2, 0)
    ? 'fs1 == 0 and fe1 == 0x16 and fm1 == 0x3a879f and fs2 == 1 and fe2 == 0x7e and
      fm2 == 0x439313 and fs3 == 0 and fe3 == 0x16 and fm3 == 0x0e8078 and rm_val
      == 0  #nosat'
    : 1 #  rs1_val==fnorm(0x0b3a879f) and rs2_val==fnorm(0xbf439313) and rs3_val==fnorm(0x0b0e8078) | Guard = 0 Round = 1 Sticky = 0 --> IR ∈ (-MinSubNorm / 2, 0)
    ? 'fs1 == 0 and fe1 == 0x1a and fm1 == 0x105d0a and fs2 == 1 and fe2 == 0x7e and
      fm2 == 0x1a5d46 and fs3 == 0 and fe3 == 0x19 and fm3 == 0x2e1923 and rm_val
      == 4  #nosat'
    : 1 #  rs1_val==fnorm(0x0d105d0a) and rs2_val==fnorm(0xbf1a5d46) and rs3_val==fnorm(0x0cae1923) | Guard = 0 Round = 0 Sticky = 1 --> IR ∈ (-MinSubNorm / 2, 0)
    ? 'fs1 == 0 and fe1 == 0x1a and fm1 == 0x105d0a and fs2 == 1 and fe2 == 0x7e and
      fm2 == 0x1a5d46 and fs3 == 0 and fe3 == 0x19 and fm3 == 0x2e1923 and rm_val
      == 3  #nosat'
    : 1 #  rs1_val==fnorm(0x0d105d0a) and rs2_val==fnorm(0xbf1a5d46) and rs3_val==fnorm(0x0cae1923) | Guard = 0 Round = 0 Sticky = 1 --> IR ∈ (-MinSubNorm / 2, 0)
    ? 'fs1 == 0 and fe1 == 0x1a and fm1 == 0x105d0a and fs2 == 1 and fe2 == 0x7e and
      fm2 == 0x1a5d46 and fs3 == 0 and fe3 == 0x19 and fm3 == 0x2e1923 and rm_val
      == 2  #nosat'
    : 1 #  rs1_val==fnorm(0x0d105d0a) and rs2_val==fnorm(0xbf1a5d46) and rs3_val==fnorm(0x0cae1923) | Guard = 0 Round = 0 Sticky = 1 --> IR ∈ (-MinSubNorm / 2, 0)
    ? 'fs1 == 0 and fe1 == 0x1a and fm1 == 0x105d0a and fs2 == 1 and fe2 == 0x7e and
      fm2 == 0x1a5d46 and fs3 == 0 and fe3 == 0x19 and fm3 == 0x2e1923 and rm_val
      == 1  #nosat'
    : 1 #  rs1_val==fnorm(0x0d105d0a) and rs2_val==fnorm(0xbf1a5d46) and rs3_val==fnorm(0x0cae1923) | Guard = 0 Round = 0 Sticky = 1 --> IR ∈ (-MinSubNorm / 2, 0)
    ? 'fs1 == 0 and fe1 == 0x1a and fm1 == 0x105d0a and fs2 == 1 and fe2 == 0x7e and
      fm2 == 0x1a5d46 and fs3 == 0 and fe3 == 0x19 and fm3 == 0x2e1923 and rm_val
      == 0  #nosat'
    : 1 #  rs1_val==fnorm(0x0d105d0a) and rs2_val==fnorm(0xbf1a5d46) and rs3_val==fnorm(0x0cae1923) | Guard = 0 Round = 0 Sticky = 1 --> IR ∈ (-MinSubNorm / 2, 0)
    ? 'fs1 == 0 and fe1 == 0x1b and fm1 == 0x1a0c58 and fs2 == 1 and fe2 == 0x7e and
      fm2 == 0x12bc19 and fs3 == 0 and fe3 == 0x1a and fm3 == 0x309875 and rm_val
      == 4  #nosat'
    : 1 #  rs1_val==fnorm(0x0d9a0c58) and rs2_val==fnorm(0xbf12bc19) and rs3_val==fnorm(0x0d309875) | Guard = 1 Round = 1 Sticky = 1 --> IR ∈ (-MinSubNorm, -MinSubNorm / 2)
    ? 'fs1 == 0 and fe1 == 0x1b and fm1 == 0x1a0c58 and fs2 == 1 and fe2 == 0x7e and
      fm2 == 0x12bc19 and fs3 == 0 and fe3 == 0x1a and fm3 == 0x309875 and rm_val
      == 3  #nosat'
    : 1 #  rs1_val==fnorm(0x0d9a0c58) and rs2_val==fnorm(0xbf12bc19) and rs3_val==fnorm(0x0d309875) | Guard = 1 Round = 1 Sticky = 1 --> IR ∈ (-MinSubNorm, -MinSubNorm / 2)
    ? 'fs1 == 0 and fe1 == 0x1b and fm1 == 0x1a0c58 and fs2 == 1 and fe2 == 0x7e and
      fm2 == 0x12bc19 and fs3 == 0 and fe3 == 0x1a and fm3 == 0x309875 and rm_val
      == 2  #nosat'
    : 1 #  rs1_val==fnorm(0x0d9a0c58) and rs2_val==fnorm(0xbf12bc19) and rs3_val==fnorm(0x0d309875) | Guard = 1 Round = 1 Sticky = 1 --> IR ∈ (-MinSubNorm, -MinSubNorm / 2)
    ? 'fs1 == 0 and fe1 == 0x1b and fm1 == 0x1a0c58 and fs2 == 1 and fe2 == 0x7e and
      fm2 == 0x12bc19 and fs3 == 0 and fe3 == 0x1a and fm3 == 0x309875 and rm_val
      == 1  #nosat'
    : 1 #  rs1_val==fnorm(0x0d9a0c58) and rs2_val==fnorm(0xbf12bc19) and rs3_val==fnorm(0x0d309875) | Guard = 1 Round = 1 Sticky = 1 --> IR ∈ (-MinSubNorm, -MinSubNorm / 2)
    ? 'fs1 == 0 and fe1 == 0x1b and fm1 == 0x1a0c58 and fs2 == 1 and fe2 == 0x7e and
      fm2 == 0x12bc19 and fs3 == 0 and fe3 == 0x1a and fm3 == 0x309875 and rm_val
      == 0  #nosat'
    : 1 #  rs1_val==fnorm(0x0d9a0c58) and rs2_val==fnorm(0xbf12bc19) and rs3_val==fnorm(0x0d309875) | Guard = 1 Round = 1 Sticky = 1 --> IR ∈ (-MinSubNorm, -MinSubNorm / 2)
    ? 'fs1 == 0 and fe1 == 0x1a and fm1 == 0x6aa17e and fs2 == 1 and fe2 == 0x7f and
      fm2 == 0x301eb9 and fs3 == 0 and fe3 == 0x1b and fm3 == 0x216b30 and rm_val
      == 4  #nosat'
    : 1 #  rs1_val==fnorm(0x0d6aa17e) and rs2_val==fnorm(0xbfb01eb9) and rs3_val==fnorm(0x0da16b30) | Guard = 1 Round = 1 Sticky = 0 --> IR ∈ (-MinSubNorm, -MinSubNorm / 2)
    ? 'fs1 == 0 and fe1 == 0x1a and fm1 == 0x6aa17e and fs2 == 1 and fe2 == 0x7f and
      fm2 == 0x301eb9 and fs3 == 0 and fe3 == 0x1b and fm3 == 0x216b30 and rm_val
      == 3  #nosat'
    : 1 #  rs1_val==fnorm(0x0d6aa17e) and rs2_val==fnorm(0xbfb01eb9) and rs3_val==fnorm(0x0da16b30) | Guard = 1 Round = 1 Sticky = 0 --> IR ∈ (-MinSubNorm, -MinSubNorm / 2)
    ? 'fs1 == 0 and fe1 == 0x1a and fm1 == 0x6aa17e and fs2 == 1 and fe2 == 0x7f and
      fm2 == 0x301eb9 and fs3 == 0 and fe3 == 0x1b and fm3 == 0x216b30 and rm_val
      == 2  #nosat'
    : 1 #  rs1_val==fnorm(0x0d6aa17e) and rs2_val==fnorm(0xbfb01eb9) and rs3_val==fnorm(0x0da16b30) | Guard = 1 Round = 1 Sticky = 0 --> IR ∈ (-MinSubNorm, -MinSubNorm / 2)
    ? 'fs1 == 0 and fe1 == 0x1a and fm1 == 0x6aa17e and fs2 == 1 and fe2 == 0x7f and
      fm2 == 0x301eb9 and fs3 == 0 and fe3 == 0x1b and fm3 == 0x216b30 and rm_val
      == 1  #nosat'
    : 1 #  rs1_val==fnorm(0x0d6aa17e) and rs2_val==fnorm(0xbfb01eb9) and rs3_val==fnorm(0x0da16b30) | Guard = 1 Round = 1 Sticky = 0 --> IR ∈ (-MinSubNorm, -MinSubNorm / 2)
    ? 'fs1 == 0 and fe1 == 0x1a and fm1 == 0x6aa17e and fs2 == 1 and fe2 == 0x7f and
      fm2 == 0x301eb9 and fs3 == 0 and fe3 == 0x1b and fm3 == 0x216b30 and rm_val
      == 0  #nosat'
    : 1 #  rs1_val==fnorm(0x0d6aa17e) and rs2_val==fnorm(0xbfb01eb9) and rs3_val==fnorm(0x0da16b30) | Guard = 1 Round = 1 Sticky = 0 --> IR ∈ (-MinSubNorm, -MinSubNorm / 2)
    ? 'fs1 == 0 and fe1 == 0x1a and fm1 == 0x0bc2a2 and fs2 == 1 and fe2 == 0x7e and
      fm2 == 0x69eca6 and fs3 == 0 and fe3 == 0x19 and fm3 == 0x7f6ab0 and rm_val
      == 4  #nosat'
    : 1 #  rs1_val==fnorm(0x0d0bc2a2) and rs2_val==fnorm(0xbf69eca6) and rs3_val==fnorm(0x0cff6ab0) | Guard = 1 Round = 0 Sticky = 1 --> IR ∈ (-MinSubNorm, -MinSubNorm / 2)
    ? 'fs1 == 0 and fe1 == 0x1a and fm1 == 0x0bc2a2 and fs2 == 1 and fe2 == 0x7e and
      fm2 == 0x69eca6 and fs3 == 0 and fe3 == 0x19 and fm3 == 0x7f6ab0 and rm_val
      == 3  #nosat'
    : 1 #  rs1_val==fnorm(0x0d0bc2a2) and rs2_val==fnorm(0xbf69eca6) and rs3_val==fnorm(0x0cff6ab0) | Guard = 1 Round = 0 Sticky = 1 --> IR ∈ (-MinSubNorm, -MinSubNorm / 2)
    ? 'fs1 == 0 and fe1 == 0x1a and fm1 == 0x0bc2a2 and fs2 == 1 and fe2 == 0x7e and
      fm2 == 0x69eca6 and fs3 == 0 and fe3 == 0x19 and fm3 == 0x7f6ab0 and rm_val
      == 2  #nosat'
    : 1 #  rs1_val==fnorm(0x0d0bc2a2) and rs2_val==fnorm(0xbf69eca6) and rs3_val==fnorm(0x0cff6ab0) | Guard = 1 Round = 0 Sticky = 1 --> IR ∈ (-MinSubNorm, -MinSubNorm / 2)
    ? 'fs1 == 0 and fe1 == 0x1a and fm1 == 0x0bc2a2 and fs2 == 1 and fe2 == 0x7e and
      fm2 == 0x69eca6 and fs3 == 0 and fe3 == 0x19 and fm3 == 0x7f6ab0 and rm_val
      == 1  #nosat'
    : 1 #  rs1_val==fnorm(0x0d0bc2a2) and rs2_val==fnorm(0xbf69eca6) and rs3_val==fnorm(0x0cff6ab0) | Guard = 1 Round = 0 Sticky = 1 --> IR ∈ (-MinSubNorm, -MinSubNorm / 2)
    ? 'fs1 == 0 and fe1 == 0x1a and fm1 == 0x0bc2a2 and fs2 == 1 and fe2 == 0x7e and
      fm2 == 0x69eca6 and fs3 == 0 and fe3 == 0x19 and fm3 == 0x7f6ab0 and rm_val
      == 0  #nosat'
    : 1 #  rs1_val==fnorm(0x0d0bc2a2) and rs2_val==fnorm(0xbf69eca6) and rs3_val==fnorm(0x0cff6ab0) | Guard = 1 Round = 0 Sticky = 1 --> IR ∈ (-MinSubNorm, -MinSubNorm / 2)
    ? 'fs1 == 0 and fe1 == 0x1a and fm1 == 0x3c9c8a and fs2 == 1 and fe2 == 0x7d and
      fm2 == 0x0b8632 and fs3 == 0 and fe3 == 0x18 and fm3 == 0x4d97bc and rm_val
      == 4  #nosat'
    : 1 #  rs1_val==fnorm(0x0d3c9c8a) and rs2_val==fnorm(0xbe8b8632) and rs3_val==fnorm(0x0c4d97bc) | Guard = 1 Round = 0 Sticky = 0 --> IR ∈ (-MinSubNorm, -MinSubNorm / 2)
    ? 'fs1 == 0 and fe1 == 0x1a and fm1 == 0x3c9c8a and fs2 == 1 and fe2 == 0x7d and
      fm2 == 0x0b8632 and fs3 == 0 and fe3 == 0x18 and fm3 == 0x4d97bc and rm_val
      == 3  #nosat'
    : 1 #  rs1_val==fnorm(0x0d3c9c8a) and rs2_val==fnorm(0xbe8b8632) and rs3_val==fnorm(0x0c4d97bc) | Guard = 1 Round = 0 Sticky = 0 --> IR ∈ (-MinSubNorm, -MinSubNorm / 2)
    ? 'fs1 == 0 and fe1 == 0x1a and fm1 == 0x3c9c8a and fs2 == 1 and fe2 == 0x7d and
      fm2 == 0x0b8632 and fs3 == 0 and fe3 == 0x18 and fm3 == 0x4d97bc and rm_val
      == 2  #nosat'
    : 1 #  rs1_val==fnorm(0x0d3c9c8a) and rs2_val==fnorm(0xbe8b8632) and rs3_val==fnorm(0x0c4d97bc) | Guard = 1 Round = 0 Sticky = 0 --> IR ∈ (-MinSubNorm, -MinSubNorm / 2)
    ? 'fs1 == 0 and fe1 == 0x1a and fm1 == 0x3c9c8a and fs2 == 1 and fe2 == 0x7d and
      fm2 == 0x0b8632 and fs3 == 0 and fe3 == 0x18 and fm3 == 0x4d97bc and rm_val
      == 1  #nosat'
    : 1 #  rs1_val==fnorm(0x0d3c9c8a) and rs2_val==fnorm(0xbe8b8632) and rs3_val==fnorm(0x0c4d97bc) | Guard = 1 Round = 0 Sticky = 0 --> IR ∈ (-MinSubNorm, -MinSubNorm / 2)
    ? 'fs1 == 0 and fe1 == 0x1a and fm1 == 0x3c9c8a and fs2 == 1 and fe2 == 0x7d and
      fm2 == 0x0b8632 and fs3 == 0 and fe3 == 0x18 and fm3 == 0x4d97bc and rm_val
      == 0  #nosat'
    : 1 #  rs1_val==fnorm(0x0d3c9c8a) and rs2_val==fnorm(0xbe8b8632) and rs3_val==fnorm(0x0c4d97bc) | Guard = 1 Round = 0 Sticky = 0 --> IR ∈ (-MinSubNorm, -MinSubNorm / 2)
    ? 'fs1 == 0 and fe1 == 0x1a and fm1 == 0x44a3df and fs2 == 1 and fe2 == 0x7f and
      fm2 == 0x002e60 and fs3 == 0 and fe3 == 0x1a and fm3 == 0x44eb1d and rm_val
      == 4  #nosat'
    : 1 #  rs1_val==fnorm(0x0d44a3df) and rs2_val==fnorm(0xbf802e60) and rs3_val==fnorm(0x0d44eb1d) | Guard = 0 Round = 1 Sticky = 1 --> IR ∈ (-MinSubNorm, -MinSubNorm / 2)
    ? 'fs1 == 0 and fe1 == 0x1a and fm1 == 0x44a3df and fs2 == 1 and fe2 == 0x7f and
      fm2 == 0x002e60 and fs3 == 0 and fe3 == 0x1a and fm3 == 0x44eb1d and rm_val
      == 3  #nosat'
    : 1 #  rs1_val==fnorm(0x0d44a3df) and rs2_val==fnorm(0xbf802e60) and rs3_val==fnorm(0x0d44eb1d) | Guard = 0 Round = 1 Sticky = 1 --> IR ∈ (-MinSubNorm, -MinSubNorm / 2)
    ? 'fs1 == 0 and fe1 == 0x1a and fm1 == 0x44a3df and fs2 == 1 and fe2 == 0x7f and
      fm2 == 0x002e60 and fs3 == 0 and fe3 == 0x1a and fm3 == 0x44eb1d and rm_val
      == 2  #nosat'
    : 1 #  rs1_val==fnorm(0x0d44a3df) and rs2_val==fnorm(0xbf802e60) and rs3_val==fnorm(0x0d44eb1d) | Guard = 0 Round = 1 Sticky = 1 --> IR ∈ (-MinSubNorm, -MinSubNorm / 2)
    ? 'fs1 == 0 and fe1 == 0x1a and fm1 == 0x44a3df and fs2 == 1 and fe2 == 0x7f and
      fm2 == 0x002e60 and fs3 == 0 and fe3 == 0x1a and fm3 == 0x44eb1d and rm_val
      == 1  #nosat'
    : 1 #  rs1_val==fnorm(0x0d44a3df) and rs2_val==fnorm(0xbf802e60) and rs3_val==fnorm(0x0d44eb1d) | Guard = 0 Round = 1 Sticky = 1 --> IR ∈ (-MinSubNorm, -MinSubNorm / 2)
    ? 'fs1 == 0 and fe1 == 0x1a and fm1 == 0x44a3df and fs2 == 1 and fe2 == 0x7f and
      fm2 == 0x002e60 and fs3 == 0 and fe3 == 0x1a and fm3 == 0x44eb1d and rm_val
      == 0  #nosat'
    : 1 #  rs1_val==fnorm(0x0d44a3df) and rs2_val==fnorm(0xbf802e60) and rs3_val==fnorm(0x0d44eb1d) | Guard = 0 Round = 1 Sticky = 1 --> IR ∈ (-MinSubNorm, -MinSubNorm / 2)
    ? 'fs1 == 0 and fe1 == 0x1a and fm1 == 0x595706 and fs2 == 1 and fe2 == 0x7d and
      fm2 == 0x6b90f4 and fs3 == 0 and fe3 == 0x19 and fm3 == 0x47fdf3 and rm_val
      == 4  #nosat'
    : 1 #  rs1_val==fnorm(0x0d595706) and rs2_val==fnorm(0xbeeb90f4) and rs3_val==fnorm(0x0cc7fdf3) | Guard = 0 Round = 1 Sticky = 0 --> IR ∈ (-MinSubNorm, -MinSubNorm / 2)
    ? 'fs1 == 0 and fe1 == 0x1a and fm1 == 0x595706 and fs2 == 1 and fe2 == 0x7d and
      fm2 == 0x6b90f4 and fs3 == 0 and fe3 == 0x19 and fm3 == 0x47fdf3 and rm_val
      == 3  #nosat'
    : 1 #  rs1_val==fnorm(0x0d595706) and rs2_val==fnorm(0xbeeb90f4) and rs3_val==fnorm(0x0cc7fdf3) | Guard = 0 Round = 1 Sticky = 0 --> IR ∈ (-MinSubNorm, -MinSubNorm / 2)
    ? 'fs1 == 0 and fe1 == 0x1a and fm1 == 0x595706 and fs2 == 1 and fe2 == 0x7d and
      fm2 == 0x6b90f4 and fs3 == 0 and fe3 == 0x19 and fm3 == 0x47fdf3 and rm_val
      == 2  #nosat'
    : 1 #  rs1_val==fnorm(0x0d595706) and rs2_val==fnorm(0xbeeb90f4) and rs3_val==fnorm(0x0cc7fdf3) | Guard = 0 Round = 1 Sticky = 0 --> IR ∈ (-MinSubNorm, -MinSubNorm / 2)
    ? 'fs1 == 0 and fe1 == 0x1a and fm1 == 0x595706 and fs2 == 1 and fe2 == 0x7d and
      fm2 == 0x6b90f4 and fs3 == 0 and fe3 == 0x19 and fm3 == 0x47fdf3 and rm_val
      == 1  #nosat'
    : 1 #  rs1_val==fnorm(0x0d595706) and rs2_val==fnorm(0xbeeb90f4) and rs3_val==fnorm(0x0cc7fdf3) | Guard = 0 Round = 1 Sticky = 0 --> IR ∈ (-MinSubNorm, -MinSubNorm / 2)
    ? 'fs1 == 0 and fe1 == 0x1a and fm1 == 0x595706 and fs2 == 1 and fe2 == 0x7d and
      fm2 == 0x6b90f4 and fs3 == 0 and fe3 == 0x19 and fm3 == 0x47fdf3 and rm_val
      == 0  #nosat'
    : 1 #  rs1_val==fnorm(0x0d595706) and rs2_val==fnorm(0xbeeb90f4) and rs3_val==fnorm(0x0cc7fdf3) | Guard = 0 Round = 1 Sticky = 0 --> IR ∈ (-MinSubNorm, -MinSubNorm / 2)
    ? 'fs1 == 0 and fe1 == 0x1b and fm1 == 0x079143 and fs2 == 1 and fe2 == 0x7e and
      fm2 == 0x618104 and fs3 == 0 and fe3 == 0x1a and fm3 == 0x6ed5fe and rm_val
      == 4  #nosat'
    : 1 #  rs1_val==fnorm(0x0d879143) and rs2_val==fnorm(0xbf618104) and rs3_val==fnorm(0x0d6ed5fe) | Guard = 0 Round = 0 Sticky = 1 --> IR ∈ (-MinSubNorm, -MinSubNorm / 2)
    ? 'fs1 == 0 and fe1 == 0x1b and fm1 == 0x079143 and fs2 == 1 and fe2 == 0x7e and
      fm2 == 0x618104 and fs3 == 0 and fe3 == 0x1a and fm3 == 0x6ed5fe and rm_val
      == 3  #nosat'
    : 1 #  rs1_val==fnorm(0x0d879143) and rs2_val==fnorm(0xbf618104) and rs3_val==fnorm(0x0d6ed5fe) | Guard = 0 Round = 0 Sticky = 1 --> IR ∈ (-MinSubNorm, -MinSubNorm / 2)
    ? 'fs1 == 0 and fe1 == 0x1b and fm1 == 0x079143 and fs2 == 1 and fe2 == 0x7e and
      fm2 == 0x618104 and fs3 == 0 and fe3 == 0x1a and fm3 == 0x6ed5fe and rm_val
      == 2  #nosat'
    : 1 #  rs1_val==fnorm(0x0d879143) and rs2_val==fnorm(0xbf618104) and rs3_val==fnorm(0x0d6ed5fe) | Guard = 0 Round = 0 Sticky = 1 --> IR ∈ (-MinSubNorm, -MinSubNorm / 2)
    ? 'fs1 == 0 and fe1 == 0x1b and fm1 == 0x079143 and fs2 == 1 and fe2 == 0x7e and
      fm2 == 0x618104 and fs3 == 0 and fe3 == 0x1a and fm3 == 0x6ed5fe and rm_val
      == 1  #nosat'
    : 1 #  rs1_val==fnorm(0x0d879143) and rs2_val==fnorm(0xbf618104) and rs3_val==fnorm(0x0d6ed5fe) | Guard = 0 Round = 0 Sticky = 1 --> IR ∈ (-MinSubNorm, -MinSubNorm / 2)
    coverage: 140/140
  total_coverage: 281/281
