datasets:
  all_fregs:
    f0: 0
    f1: 0
    f10: 0
    f11: 0
    f12: 0
    f13: 0
    f14: 0
    f15: 0
    f16: 0
    f17: 0
    f18: 0
    f19: 0
    f2: 0
    f20: 0
    f21: 0
    f22: 0
    f23: 0
    f24: 0
    f25: 0
    f26: 0
    f27: 0
    f28: 0
    f29: 0
    f3: 0
    f30: 0
    f31: 0
    f4: 0
    f5: 0
    f6: 0
    f7: 0
    f8: 0
    f9: 0
  all_regs:
    x0: 0
    x1: 0
    x10: 0
    x11: 0
    x12: 0
    x13: 0
    x14: 0
    x15: 0
    x16: 0
    x17: 0
    x18: 0
    x19: 0
    x2: 0
    x20: 0
    x21: 0
    x22: 0
    x23: 0
    x24: 0
    x25: 0
    x26: 0
    x27: 0
    x28: 0
    x29: 0
    x3: 0
    x30: 0
    x31: 0
    x4: 0
    x5: 0
    x6: 0
    x7: 0
    x8: 0
    x9: 0
  all_regs_mx0:
    x1: 0
    x10: 0
    x11: 0
    x12: 0
    x13: 0
    x14: 0
    x15: 0
    x16: 0
    x17: 0
    x18: 0
    x19: 0
    x2: 0
    x20: 0
    x21: 0
    x22: 0
    x23: 0
    x24: 0
    x25: 0
    x26: 0
    x27: 0
    x28: 0
    x29: 0
    x3: 0
    x30: 0
    x31: 0
    x4: 0
    x5: 0
    x6: 0
    x7: 0
    x8: 0
    x9: 0
  all_regs_mx2:
    x1: 0
    x10: 0
    x11: 0
    x12: 0
    x13: 0
    x14: 0
    x15: 0
    x16: 0
    x17: 0
    x18: 0
    x19: 0
    x20: 0
    x21: 0
    x22: 0
    x23: 0
    x24: 0
    x25: 0
    x26: 0
    x27: 0
    x28: 0
    x29: 0
    x3: 0
    x30: 0
    x31: 0
    x4: 0
    x5: 0
    x6: 0
    x7: 0
    x8: 0
    x9: 0
  base_rs1val_sgn:
    rs1_val == (-2**(xlen-1)): 0
    rs1_val == (2**(xlen-1)-1): 0
    rs1_val == 0: 0
    rs1_val == 1: 0
  base_rs1val_unsgn:
    rs1_val == (2**(xlen)-1): 0
    rs1_val == 0: 0
    rs1_val == 1: 0
  base_rs2val_sgn:
    rs2_val == (-2**(xlen-1)): 0
    rs2_val == (2**(xlen-1)-1): 0
    rs2_val == 0: 0
    rs2_val == 1: 0
  base_rs2val_unsgn:
    rs2_val == (2**(xlen)-1): 0
    rs2_val == 0: 0
    rs2_val == 1: 0
  base_rs3val_sgn:
    rs3_val == (-2**(xlen-1)): 0
    rs3_val == (2**(xlen-1)-1): 0
    rs3_val == 0: 0
    rs3_val == 1: 0
  base_rs3val_unsgn:
    rs3_val == (2**(xlen)-1): 0
    rs3_val == 0: 0
    rs3_val == 1: 0
  bfmt_base_branch_val_align_sgn:
    rs1_val < 0 and rs2_val < 0 and imm_val & 0x03 == 0: 0
    rs1_val < 0 and rs2_val > 0 and imm_val & 0x03 == 0: 0
    rs1_val < rs2_val and imm_val < 0 and imm_val & 0x03 == 0: 0
    rs1_val < rs2_val and imm_val > 0 and imm_val & 0x03 == 0: 0
    rs1_val == rs2_val and imm_val < 0 and imm_val & 0x03 == 0: 0
    rs1_val == rs2_val and imm_val > 0 and imm_val & 0x03 == 0: 0
    rs1_val > 0 and rs2_val < 0 and imm_val & 0x03 == 0: 0
    rs1_val > 0 and rs2_val > 0 and imm_val & 0x03 == 0: 0
    rs1_val > rs2_val and imm_val < 0 and imm_val & 0x03 == 0: 0
    rs1_val > rs2_val and imm_val > 0 and imm_val & 0x03 == 0: 0
  bfmt_base_branch_val_align_unsgn:
    rs1_val > 0 and rs2_val > 0: 0
    'rs1_val > 0 and rs2_val > 0 and rs1_val < rs2_val and imm_val < 0 ': 0
    'rs1_val > 0 and rs2_val > 0 and rs1_val < rs2_val and imm_val > 0 ': 0
    rs1_val > 0 and rs2_val > 0 and rs1_val == rs2_val and imm_val < 0: 0
    rs1_val > 0 and rs2_val > 0 and rs1_val == rs2_val and imm_val > 0: 0
    'rs1_val > 0 and rs2_val > 0 and rs1_val > rs2_val and imm_val < 0 ': 0
    'rs1_val > 0 and rs2_val > 0 and rs1_val > rs2_val and imm_val > 0 ': 0
  c_regs:
    x10: 0
    x11: 0
    x12: 0
    x13: 0
    x14: 0
    x15: 0
    x8: 0
    x9: 0
  cbfmt_immval_sgn:
    imm_val == (-2**(6-1)): 0
    imm_val == (2**(6-1)-1): 0
    imm_val == 0: 0
    imm_val == 1: 0
  cbimm_val_walking:
    alternate("imm_val",6): 0
    walking_ones("imm_val", 6): 0
    walking_zeros("imm_val", 6): 0
  crfmt_val_comb_sgn:
    rs2_val < 0: 0
    rs2_val > 0: 0
  ifmt_base_immval_sgn:
    imm_val == (-2**(12-1)): 0
    imm_val == (2**(12-1)-1): 0
    imm_val == 0: 0
    imm_val == 1: 0
  ifmt_base_immval_sgn_len:
    imm_val == (-2**(ceil(log(xlen,2))-1)): 0
    imm_val == (2**(ceil(log(xlen,2))-1)-1): 0
    imm_val == 0: 0
    imm_val == 1: 0
  ifmt_base_immval_unsgn:
    imm_val == (2**(12)-1): 0
    imm_val == 0: 0
    imm_val == 1: 0
  ifmt_base_immval_unsgn_len_sub_3:
    imm_val == (2**(ceil(log(xlen,2))-3)-1): 0
    imm_val == 0: 0
    imm_val == 1: 0
  ifmt_base_shift:
    rs1_val < 0 and imm_val == (xlen-1): 0
    rs1_val < 0 and imm_val == 0: 0
    rs1_val < 0 and imm_val > 0 and imm_val < xlen: 0
    rs1_val == (-2**(xlen-1)) and imm_val >= 0 and imm_val < xlen: 0
    rs1_val == (2**(xlen-1)-1) and imm_val >= 0 and imm_val < xlen: 0
    rs1_val == 0 and imm_val >= 0 and imm_val < xlen: 0
    rs1_val == 1 and imm_val >= 0 and imm_val < xlen: 0
    rs1_val == imm_val and imm_val > 0 and imm_val < xlen: 0
    rs1_val > 0 and imm_val == (xlen-1): 0
    rs1_val > 0 and imm_val == 0: 0
    rs1_val > 0 and imm_val > 0 and imm_val < xlen: 0
  ifmt_base_shift_32w:
    rs1_val < 0 and imm_val == 0: 0
    rs1_val < 0 and imm_val == 31: 0
    rs1_val < 0 and imm_val > 0 and imm_val < 32: 0
    rs1_val == (-2**(xlen-1)) and imm_val >= 0 and imm_val < 32: 0
    rs1_val == (2**(xlen-1)-1) and imm_val >= 0 and imm_val < 32: 0
    rs1_val == 0 and imm_val >= 0 and imm_val < 32: 0
    rs1_val == 1 and imm_val >= 0 and imm_val < 32: 0
    rs1_val == imm_val and imm_val > 0 and imm_val < 32: 0
    rs1_val > 0 and imm_val == 0: 0
    rs1_val > 0 and imm_val == 31: 0
    rs1_val > 0 and imm_val > 0 and imm_val < 32: 0
  ifmt_immval_walking:
    alternate("imm_val",12): 0
    walking_ones("imm_val", 12): 0
    walking_zeros("imm_val", 12): 0
  ifmt_immval_walking_5u:
    alternate("imm_val", 5, False): 0
    walking_ones("imm_val", 5, False): 0
    walking_zeros("imm_val", 5, False): 0
  ifmt_immval_walking_len:
    alternate("imm_val",ceil(log(xlen,2)), False): 0
    walking_ones("imm_val", ceil(log(xlen,2)), False): 0
    walking_zeros("imm_val", ceil(log(xlen,2)), False): 0
  ifmt_immval_walking_len_sub_3:
    alternate("imm_val", ceil(log(xlen,2))-3, False): 0
    walking_ones("imm_val", ceil(log(xlen,2))-3, False): 0
    walking_zeros("imm_val", ceil(log(xlen,2))-3, False): 0
  ifmt_immval_walking_unsgn:
    alternate("imm_val",12,False): 0
    walking_ones("imm_val", 12,False): 0
    walking_zeros("imm_val", 12,False): 0
  ifmt_op_comb:
    rs1 != rd: 0
    rs1 == rd: 0
  ifmt_val_comb_sgn:
    rs1_val != imm_val: 0
    rs1_val < 0 and imm_val < 0: 0
    rs1_val < 0 and imm_val > 0: 0
    rs1_val == imm_val: 0
    rs1_val > 0 and imm_val < 0: 0
    rs1_val > 0 and imm_val > 0: 0
  ifmt_val_comb_unsgn:
    rs1_val != imm_val and rs1_val > 0 and imm_val > 0: 0
    rs1_val == imm_val and rs1_val > 0 and imm_val > 0: 0
  pair_regs:
    x10: 0
    x12: 0
    x14: 0
    x16: 0
    x18: 0
    x2: 0
    x20: 0
    x22: 0
    x24: 0
    x26: 0
    x28: 0
    x30: 0
    x4: 0
    x6: 0
    x8: 0
  r4fmt_op_comb:
    rd == rs2 == rs3 != rs1: 0
    rs1 != rs2 and rs1 != rd and rs1 != rs3 and rs2 != rs3 and rs2 != rd and rs3 != rd: 0
    rs1 == rd != rs2 and rs1 == rd != rs3 and rs3 != rs2: 0
    rs1 == rd == rs3 != rs2: 0
    rs1 == rs2 != rs3 and rs1 == rs2 != rd and rd != rs3: 0
    rs1 == rs2 == rd != rs3: 0
    rs1 == rs2 == rs3 != rd: 0
    rs1 == rs2 == rs3 == rd: 0
    rs1 == rs3 != rs2 and rs1 == rs3 != rd and rd != rs2: 0
    rs2 == rd != rs1 and rs2 == rd != rs3 and rs3 != rs1: 0
    rs2 == rs3 != rs1 and rs2 == rs3 != rd and rd != rs1: 0
    rs3 == rd != rs1 and rs3 == rd != rs2 and rs2 != rs1: 0
  rfmt_base_shift:
    rs1_val < 0 and rs2_val == 0: 0
    rs1_val < 0 and rs2_val > 0 and rs2_val < xlen: 0
    rs1_val == (-2**(xlen-1)) and rs2_val >= 0 and rs2_val < xlen: 0
    rs1_val == (2**(xlen-1)-1) and rs2_val >= 0 and rs2_val < xlen: 0
    rs1_val == 0 and rs2_val >= 0 and rs2_val < xlen: 0
    rs1_val == 1 and rs2_val >= 0 and rs2_val < xlen: 0
    rs1_val == rs2_val and rs2_val > 0 and rs2_val < xlen: 0
    rs1_val > 0 and rs2_val == 0: 0
    rs1_val > 0 and rs2_val > 0 and rs2_val < xlen: 0
  rfmt_op_comb:
    rs1 != rs2  and rs1 != rd and rs2 != rd: 0
    rs1 == rd != rs2: 0
    rs1 == rs2 != rd: 0
    rs1 == rs2 == rd: 0
    rs2 == rd != rs1: 0
  rfmt_val_comb_sgn:
    rs1_val != rs2_val: 0
    rs1_val < 0 and rs2_val < 0: 0
    rs1_val < 0 and rs2_val > 0: 0
    rs1_val == rs2_val: 0
    rs1_val > 0 and rs2_val < 0: 0
    rs1_val > 0 and rs2_val > 0: 0
  rfmt_val_comb_unsgn:
    rs1_val != rs2_val and rs1_val > 0 and rs2_val > 0: 0
    rs1_val == rs2_val and rs1_val > 0 and rs2_val > 0: 0
    rs1_val > 0 and rs2_val > 0: 0
  rs1val_walking:
    alternate("rs1_val",xlen): 0
    walking_ones("rs1_val", xlen): 0
    walking_zeros("rs1_val", xlen): 0
  rs1val_walking_unsgn:
    alternate("rs1_val",xlen,False): 0
    walking_ones("rs1_val", xlen,False): 0
    walking_zeros("rs1_val", xlen,False): 0
  rs2val_walking:
    alternate("rs2_val",xlen): 0
    walking_ones("rs2_val", xlen): 0
    walking_zeros("rs2_val", xlen): 0
  rs2val_walking_unsgn:
    alternate("rs2_val",xlen,False): 0
    walking_ones("rs2_val", xlen,False): 0
    walking_zeros("rs2_val", xlen,False): 0
  rs3val_walking:
    alternate("rs3_val",xlen): 0
    walking_ones("rs3_val", xlen): 0
    walking_zeros("rs3_val", xlen): 0
  rv32e_regs:
    x0: 0
    x1: 0
    x10: 0
    x11: 0
    x12: 0
    x13: 0
    x14: 0
    x15: 0
    x2: 0
    x3: 0
    x4: 0
    x5: 0
    x6: 0
    x7: 0
    x8: 0
    x9: 0
  rv32e_regs_mx0:
    x1: 0
    x10: 0
    x11: 0
    x12: 0
    x13: 0
    x14: 0
    x15: 0
    x2: 0
    x3: 0
    x4: 0
    x5: 0
    x6: 0
    x7: 0
    x8: 0
    x9: 0
  rv32e_regs_mx2:
    x1: 0
    x10: 0
    x11: 0
    x12: 0
    x13: 0
    x14: 0
    x15: 0
    x3: 0
    x4: 0
    x5: 0
    x6: 0
    x7: 0
    x8: 0
    x9: 0
  rvp64_rs1val_sgn:
    rs1_val == (-2**63): 0
    rs1_val == (2**63-1): 0
    rs1_val == 0: 0
    rs1_val == 1: 0
  rvp64_rs1val_unsgn:
    rs1_val == (2**64-1): 0
    rs1_val == 0: 0
    rs1_val == 1: 0
  rvp64_rs1val_walking_sgn:
    alternate("rs1_val",64): 0
    walking_ones("rs1_val", 64): 0
    walking_zeros("rs1_val", 64): 0
  rvp64_rs1val_walking_unsgn:
    alternate("rs1_val",64, signed=False): 0
    walking_ones("rs1_val", 64, signed=False): 0
    walking_zeros("rs1_val", 64, signed=False): 0
  rvp64_rs2val_sgn:
    rs2_val == (-2**63): 0
    rs2_val == (2**63-1): 0
    rs2_val == 0: 0
    rs2_val == 1: 0
  rvp64_rs2val_unsgn:
    rs2_val == (2**64-1): 0
    rs2_val == 0: 0
    rs2_val == 1: 0
  rvp64_rs2val_walking_sgn:
    alternate("rs2_val",64): 0
    walking_ones("rs2_val", 64): 0
    walking_zeros("rs2_val", 64): 0
  rvp64_rs2val_walking_unsgn:
    alternate("rs2_val",64, signed=False): 0
    walking_ones("rs2_val", 64, signed=False): 0
    walking_zeros("rs2_val", 64, signed=False): 0
  sfmt_op_comb:
    rs1 != rs2: 0
    rs1 == rs2: 0
fcvt.lu.d_b1:
  config:
  - check ISA:=regex(.*I.*F.*)
  opcode:
    fcvt.lu.d: 33
    coverage: 1/1
  rd:
    x0: 1
    x1: 1
    x10: 1
    x11: 1
    x12: 1
    x13: 1
    x14: 1
    x15: 1
    x16: 1
    x17: 1
    x18: 1
    x19: 1
    x2: 1
    x20: 1
    x21: 1
    x22: 1
    x23: 1
    x24: 1
    x25: 1
    x26: 1
    x27: 1
    x28: 1
    x29: 1
    x3: 1
    x30: 1
    x31: 2
    x4: 1
    x5: 1
    x6: 1
    x7: 1
    x8: 1
    x9: 1
    coverage: 32/32
  rs1:
    f0: 1
    f1: 1
    f10: 1
    f11: 1
    f12: 1
    f13: 1
    f14: 1
    f15: 1
    f16: 1
    f17: 1
    f18: 1
    f19: 1
    f2: 1
    f20: 1
    f21: 1
    f22: 1
    f23: 1
    f24: 1
    f25: 1
    f26: 1
    f27: 1
    f28: 1
    f29: 1
    f3: 1
    f30: 1
    f31: 2
    f4: 1
    f5: 1
    f6: 1
    f7: 1
    f8: 1
    f9: 1
    coverage: 32/32
  val_comb:
    'fs1 == 0 and fe1 == 0x000 and fm1 == 0x0000000000000 and rm_val == 0  #nosat': 9  #  rs1_val==dzero(0x0000000000000000)
    'fs1 == 1 and fe1 == 0x3f8 and fm1 == 0x0000000000000 and rm_val == 0  #nosat': 1 #  rs1_val==done(0xBF80000000000000)
    'fs1 == 0 and fe1 == 0x3ff and fm1 == 0x0000000000000 and rm_val == 0  #nosat': 2 #  rs1_val==done(0x3FF0000000000000)
    'fs1 == 1 and fe1 == 0x7ff and fm1 == 0x0000000000001 and rm_val == 0  #nosat': 1 #  rs1_val==dsnan(0xFFF0000000000001)
    'fs1 == 0 and fe1 == 0x7ff and fm1 == 0x0000000000001 and rm_val == 0  #nosat': 1 #  rs1_val==dsnan(0x7FF0000000000001)
    'fs1 == 1 and fe1 == 0x7ff and fm1 == 0x8000000000001 and rm_val == 0  #nosat': 1 #  rs1_val==dqnan(0xFFF8000000000001)
    'fs1 == 0 and fe1 == 0x7ff and fm1 == 0x8000000000001 and rm_val == 0  #nosat': 1 #  rs1_val==dqnan(0x7FF8000000000001)
    'fs1 == 1 and fe1 == 0x7ff and fm1 == 0x8000000000000 and rm_val == 0  #nosat': 1 #  rs1_val==ddefaultnan(0xFFF8000000000000)
    'fs1 == 0 and fe1 == 0x7ff and fm1 == 0x8000000000000 and rm_val == 0  #nosat': 1 #  rs1_val==ddefaultnan(0x7FF8000000000000)
    'fs1 == 1 and fe1 == 0x7ff and fm1 == 0x0000000000000 and rm_val == 0  #nosat': 1 #  rs1_val==dinfinity(0xFFF0000000000000)
    'fs1 == 0 and fe1 == 0x7ff and fm1 == 0x0000000000000 and rm_val == 0  #nosat': 1 #  rs1_val==dinfinity(0x7FF0000000000000)
    'fs1 == 1 and fe1 == 0x7fe and fm1 == 0xfffffffffffff and rm_val == 0  #nosat': 1 #  rs1_val==dmaxnorm(0xFFEFFFFFFFFFFFFF)
    'fs1 == 0 and fe1 == 0x7fe and fm1 == 0xfffffffffffff and rm_val == 0  #nosat': 1 #  rs1_val==dmaxnorm(0x7FEFFFFFFFFFFFFF)
    'fs1 == 1 and fe1 == 0x001 and fm1 == 0x0000000000002 and rm_val == 0  #nosat': 1 #  rs1_val==dnorm(0x8010000000000002)
    'fs1 == 0 and fe1 == 0x001 and fm1 == 0x0000000000002 and rm_val == 0  #nosat': 1 #  rs1_val==dnorm(0x0010000000000002)
    'fs1 == 1 and fe1 == 0x001 and fm1 == 0x0000000000000 and rm_val == 0  #nosat': 1 #  rs1_val==dminnorm(0x8010000000000000)
    'fs1 == 0 and fe1 == 0x001 and fm1 == 0x0000000000000 and rm_val == 0  #nosat': 1 #  rs1_val==dminnorm(0x0010000000000000)
    'fs1 == 1 and fe1 == 0x000 and fm1 == 0xfffffffffffff and rm_val == 0  #nosat': 1 #  rs1_val==dmaxsubnorm(0x800FFFFFFFFFFFFF)
    'fs1 == 0 and fe1 == 0x000 and fm1 == 0xfffffffffffff and rm_val == 0  #nosat': 1 #  rs1_val==dmaxsubnorm(0x000FFFFFFFFFFFFF)
    'fs1 == 1 and fe1 == 0x000 and fm1 == 0x0000000000002 and rm_val == 0  #nosat': 1 #  rs1_val==dsubnorm(0x8000000000000002)
    'fs1 == 0 and fe1 == 0x000 and fm1 == 0x0000000000002 and rm_val == 0  #nosat': 1 #  rs1_val==dsubnorm(0x0000000000000002)
    'fs1 == 1 and fe1 == 0x000 and fm1 == 0x0000000000001 and rm_val == 0  #nosat': 1 #  rs1_val==dminsubnorm(0x8000000000000001)
    'fs1 == 0 and fe1 == 0x000 and fm1 == 0x0000000000001 and rm_val == 0  #nosat': 1 #  rs1_val==dminsubnorm(0x0000000000000001)
    'fs1 == 1 and fe1 == 0x000 and fm1 == 0x0000000000000 and rm_val == 0  #nosat': 1 #  rs1_val==dzero(0x8000000000000000)
    coverage: 24/24
  total_coverage: 89/89
fcvt.lu.d_b22:
  config:
  - check ISA:=regex(.*I.*F.*)
  opcode:
    fcvt.lu.d: 73
    coverage: 1/1
  rd:
    x0: 1
    x1: 1
    x10: 1
    x11: 1
    x12: 1
    x13: 1
    x14: 1
    x15: 1
    x16: 1
    x17: 1
    x18: 1
    x19: 1
    x2: 1
    x20: 1
    x21: 1
    x22: 1
    x23: 1
    x24: 1
    x25: 1
    x26: 1
    x27: 1
    x28: 1
    x29: 1
    x3: 1
    x30: 1
    x31: 42
    x4: 1
    x5: 1
    x6: 1
    x7: 1
    x8: 1
    x9: 1
    coverage: 32/32
  rs1:
    f0: 1
    f1: 1
    f10: 1
    f11: 1
    f12: 1
    f13: 1
    f14: 1
    f15: 1
    f16: 1
    f17: 1
    f18: 1
    f19: 1
    f2: 1
    f20: 1
    f21: 1
    f22: 1
    f23: 1
    f24: 1
    f25: 1
    f26: 1
    f27: 1
    f28: 1
    f29: 1
    f3: 1
    f30: 1
    f31: 42
    f4: 1
    f5: 1
    f6: 1
    f7: 1
    f8: 1
    f9: 1
    coverage: 32/32
  val_comb:
    'fs1 == 0 and fe1 == 0x3fc and fm1 == 0x08577924770d3 and rm_val == 0  #nosat': 1  #  rs1_val==dnorm(0x3fc08577924770d3) | Exponent: -3, Exponent in the range [-3, integer width+3]
    'fs1 == 0 and fe1 == 0x774 and fm1 == 0xd55d1743e7a34 and rm_val == 0  #nosat': 1 #  rs1_val==dnorm(0x774d55d1743e7a34) | Exponent: 885, Exponent greater than (integer width+3)
    'fs1 == 1 and fe1 == 0x06f and fm1 == 0x26ea417be082f and rm_val == 0  #nosat': 1 #  rs1_val==dnorm(0x86f26ea417be082f) | Exponent: -912, Exponent less than -3
    'fs1 == 0 and fe1 == 0x441 and fm1 == 0x0cf25109ff475 and rm_val == 0  #nosat': 1 #  rs1_val==dnorm(0x4410cf25109ff475) | Exponent: 66, Exponent in the range [-3, integer width+3]
    'fs1 == 1 and fe1 == 0x440 and fm1 == 0x7046a00b97ea6 and rm_val == 0  #nosat': 1 #  rs1_val==dnorm(0xc407046a00b97ea6) | Exponent: 65, Exponent in the range [-3, integer width+3]
    'fs1 == 1 and fe1 == 0x43f and fm1 == 0x090a9d43db43e and rm_val == 0  #nosat': 1 #  rs1_val==dnorm(0xc3f090a9d43db43e) | Exponent: 64, Exponent in the range [-3, integer width+3]
    'fs1 == 0 and fe1 == 0x43e and fm1 == 0xf956ef7fb4b49 and rm_val == 0  #nosat': 1 #  rs1_val==dnorm(0x43ef956ef7fb4b49) | Exponent: 63, Exponent in the range [-3, integer width+3]
    'fs1 == 0 and fe1 == 0x43d and fm1 == 0x70fc18f0846a2 and rm_val == 0  #nosat': 1 #  rs1_val==dnorm(0x43d70fc18f0846a2) | Exponent: 62, Exponent in the range [-3, integer width+3]
    'fs1 == 0 and fe1 == 0x43c and fm1 == 0xb3a637d69ceef and rm_val == 0  #nosat': 2 #  rs1_val==dnorm(0x43cb3a637d69ceef) | Exponent: 61, Exponent in the range [-3, integer width+3]
    'fs1 == 0 and fe1 == 0x43b and fm1 == 0x89e6159672bd6 and rm_val == 0  #nosat': 1 #  rs1_val==dnorm(0x43b89e6159672bd6) | Exponent: 60, Exponent in the range [-3, integer width+3]
    'fs1 == 1 and fe1 == 0x43a and fm1 == 0x8a9226ba1a6ca and rm_val == 0  #nosat': 1 #  rs1_val==dnorm(0xc3a8a9226ba1a6ca) | Exponent: 59, Exponent in the range [-3, integer width+3]
    'fs1 == 0 and fe1 == 0x439 and fm1 == 0x66b07e5e290be and rm_val == 0  #nosat': 1 #  rs1_val==dnorm(0x43966b07e5e290be) | Exponent: 58, Exponent in the range [-3, integer width+3]
    'fs1 == 0 and fe1 == 0x438 and fm1 == 0xac9e97d486895 and rm_val == 0  #nosat': 1 #  rs1_val==dnorm(0x438ac9e97d486895) | Exponent: 57, Exponent in the range [-3, integer width+3]
    'fs1 == 0 and fe1 == 0x437 and fm1 == 0x1011e7ff822ed and rm_val == 0  #nosat': 1 #  rs1_val==dnorm(0x4371011e7ff822ed) | Exponent: 56, Exponent in the range [-3, integer width+3]
    'fs1 == 1 and fe1 == 0x436 and fm1 == 0x7b8b58525e8a8 and rm_val == 0  #nosat': 1 #  rs1_val==dnorm(0xc367b8b58525e8a8) | Exponent: 55, Exponent in the range [-3, integer width+3]
    'fs1 == 0 and fe1 == 0x435 and fm1 == 0xe918bfe057dc5 and rm_val == 0  #nosat': 1 #  rs1_val==dnorm(0x435e918bfe057dc5) | Exponent: 54, Exponent in the range [-3, integer width+3]
    'fs1 == 1 and fe1 == 0x434 and fm1 == 0xbc7f83dccee2a and rm_val == 0  #nosat': 1 #  rs1_val==dnorm(0xc34bc7f83dccee2a) | Exponent: 53, Exponent in the range [-3, integer width+3]
    'fs1 == 1 and fe1 == 0x433 and fm1 == 0xac60e7eea2531 and rm_val == 0  #nosat': 1 #  rs1_val==dnorm(0xc33ac60e7eea2531) | Exponent: 52, Exponent in the range [-3, integer width+3]
    'fs1 == 1 and fe1 == 0x432 and fm1 == 0xebadc63fd817f and rm_val == 0  #nosat': 1 #  rs1_val==dnorm(0xc32ebadc63fd817f) | Exponent: 51, Exponent in the range [-3, integer width+3]
    'fs1 == 0 and fe1 == 0x431 and fm1 == 0x9535967a07b54 and rm_val == 0  #nosat': 1 #  rs1_val==dnorm(0x4319535967a07b54) | Exponent: 50, Exponent in the range [-3, integer width+3]
    'fs1 == 0 and fe1 == 0x430 and fm1 == 0x430321475f78d and rm_val == 0  #nosat': 1 #  rs1_val==dnorm(0x430430321475f78d) | Exponent: 49, Exponent in the range [-3, integer width+3]
    'fs1 == 0 and fe1 == 0x42f and fm1 == 0x51c5be59cf78f and rm_val == 0  #nosat': 1 #  rs1_val==dnorm(0x42f51c5be59cf78f) | Exponent: 48, Exponent in the range [-3, integer width+3]
    'fs1 == 0 and fe1 == 0x42e and fm1 == 0x0b2e2b66b3284 and rm_val == 0  #nosat': 1 #  rs1_val==dnorm(0x42e0b2e2b66b3284) | Exponent: 47, Exponent in the range [-3, integer width+3]
    'fs1 == 1 and fe1 == 0x42d and fm1 == 0x0148339422745 and rm_val == 0  #nosat': 1 #  rs1_val==dnorm(0xc2d0148339422745) | Exponent: 46, Exponent in the range [-3, integer width+3]
    'fs1 == 0 and fe1 == 0x42c and fm1 == 0x53fbf58fa6e1c and rm_val == 0  #nosat': 1 #  rs1_val==dnorm(0x42c53fbf58fa6e1c) | Exponent: 45, Exponent in the range [-3, integer width+3]
    'fs1 == 1 and fe1 == 0x42b and fm1 == 0x7aea02d143295 and rm_val == 0  #nosat': 1 #  rs1_val==dnorm(0xc2b7aea02d143295) | Exponent: 44, Exponent in the range [-3, integer width+3]
    'fs1 == 1 and fe1 == 0x42a and fm1 == 0x2c9f7d230b46c and rm_val == 0  #nosat': 1 #  rs1_val==dnorm(0xc2a2c9f7d230b46c) | Exponent: 43, Exponent in the range [-3, integer width+3]
    'fs1 == 1 and fe1 == 0x429 and fm1 == 0xa612da911655e and rm_val == 0  #nosat': 1 #  rs1_val==dnorm(0xc29a612da911655e) | Exponent: 42, Exponent in the range [-3, integer width+3]
    'fs1 == 0 and fe1 == 0x428 and fm1 == 0x4d75374ab0a38 and rm_val == 0  #nosat': 1 #  rs1_val==dnorm(0x4284d75374ab0a38) | Exponent: 41, Exponent in the range [-3, integer width+3]
    'fs1 == 0 and fe1 == 0x427 and fm1 == 0x1e966dd68f201 and rm_val == 0  #nosat': 1 #  rs1_val==dnorm(0x4271e966dd68f201) | Exponent: 40, Exponent in the range [-3, integer width+3]
    'fs1 == 0 and fe1 == 0x426 and fm1 == 0x859869e044706 and rm_val == 0  #nosat': 1 #  rs1_val==dnorm(0x426859869e044706) | Exponent: 39, Exponent in the range [-3, integer width+3]
    'fs1 == 0 and fe1 == 0x425 and fm1 == 0x4652fae4839a1 and rm_val == 0  #nosat': 1 #  rs1_val==dnorm(0x4254652fae4839a1) | Exponent: 38, Exponent in the range [-3, integer width+3]
    'fs1 == 0 and fe1 == 0x424 and fm1 == 0x721356a013380 and rm_val == 0  #nosat': 1 #  rs1_val==dnorm(0x424721356a013380) | Exponent: 37, Exponent in the range [-3, integer width+3]
    'fs1 == 1 and fe1 == 0x423 and fm1 == 0x6ee8459432a19 and rm_val == 0  #nosat': 1 #  rs1_val==dnorm(0xc236ee8459432a19) | Exponent: 36, Exponent in the range [-3, integer width+3]
    'fs1 == 1 and fe1 == 0x422 and fm1 == 0x30e08ceb506f6 and rm_val == 0  #nosat': 1 #  rs1_val==dnorm(0xc2230e08ceb506f6) | Exponent: 35, Exponent in the range [-3, integer width+3]
    'fs1 == 1 and fe1 == 0x421 and fm1 == 0x2a96d71097999 and rm_val == 0  #nosat': 1 #  rs1_val==dnorm(0xc212a96d71097999) | Exponent: 34, Exponent in the range [-3, integer width+3]
    'fs1 == 0 and fe1 == 0x420 and fm1 == 0xc5ec6c6880007 and rm_val == 0  #nosat': 1 #  rs1_val==dnorm(0x420c5ec6c6880007) | Exponent: 33, Exponent in the range [-3, integer width+3]
    'fs1 == 1 and fe1 == 0x41f and fm1 == 0x1ce80265039f6 and rm_val == 0  #nosat': 1 #  rs1_val==dnorm(0xc1f1ce80265039f6) | Exponent: 32, Exponent in the range [-3, integer width+3]
    'fs1 == 1 and fe1 == 0x41e and fm1 == 0xe9b7e5fc9eba4 and rm_val == 0  #nosat': 1 #  rs1_val==dnorm(0xc1ee9b7e5fc9eba4) | Exponent: 31, Exponent in the range [-3, integer width+3]
    'fs1 == 1 and fe1 == 0x41d and fm1 == 0x9136562694646 and rm_val == 0  #nosat': 1 #  rs1_val==dnorm(0xc1d9136562694646) | Exponent: 30, Exponent in the range [-3, integer width+3]
    'fs1 == 0 and fe1 == 0x41c and fm1 == 0x14b91dae98554 and rm_val == 0  #nosat': 1 #  rs1_val==dnorm(0x41c14b91dae98554) | Exponent: 29, Exponent in the range [-3, integer width+3]
    'fs1 == 1 and fe1 == 0x41b and fm1 == 0x889261270dee2 and rm_val == 0  #nosat': 1 #  rs1_val==dnorm(0xc1b889261270dee2) | Exponent: 28, Exponent in the range [-3, integer width+3]
    'fs1 == 1 and fe1 == 0x41a and fm1 == 0x9b4f3d167533a and rm_val == 0  #nosat': 1 #  rs1_val==dnorm(0xc1a9b4f3d167533a) | Exponent: 27, Exponent in the range [-3, integer width+3]
    'fs1 == 0 and fe1 == 0x419 and fm1 == 0x7f21608208d09 and rm_val == 0  #nosat': 1 #  rs1_val==dnorm(0x4197f21608208d09) | Exponent: 26, Exponent in the range [-3, integer width+3]
    'fs1 == 0 and fe1 == 0x418 and fm1 == 0x3d06169b1dcbf and rm_val == 0  #nosat': 1 #  rs1_val==dnorm(0x4183d06169b1dcbf) | Exponent: 25, Exponent in the range [-3, integer width+3]
    'fs1 == 1 and fe1 == 0x417 and fm1 == 0x396bad798c9cf and rm_val == 0  #nosat': 1 #  rs1_val==dnorm(0xc17396bad798c9cf) | Exponent: 24, Exponent in the range [-3, integer width+3]
    'fs1 == 0 and fe1 == 0x416 and fm1 == 0x807dad814d575 and rm_val == 0  #nosat': 1 #  rs1_val==dnorm(0x416807dad814d575) | Exponent: 23, Exponent in the range [-3, integer width+3]
    'fs1 == 0 and fe1 == 0x415 and fm1 == 0x95a4da7298c66 and rm_val == 0  #nosat': 1 #  rs1_val==dnorm(0x41595a4da7298c66) | Exponent: 22, Exponent in the range [-3, integer width+3]
    'fs1 == 0 and fe1 == 0x414 and fm1 == 0x785036f9fb997 and rm_val == 0  #nosat': 1 #  rs1_val==dnorm(0x414785036f9fb997) | Exponent: 21, Exponent in the range [-3, integer width+3]
    'fs1 == 0 and fe1 == 0x413 and fm1 == 0x8c8a1aaac3142 and rm_val == 0  #nosat': 1 #  rs1_val==dnorm(0x4138c8a1aaac3142) | Exponent: 20, Exponent in the range [-3, integer width+3]
    'fs1 == 0 and fe1 == 0x412 and fm1 == 0x3d7c9e5f0307e and rm_val == 0  #nosat': 1 #  rs1_val==dnorm(0x4123d7c9e5f0307e) | Exponent: 19, Exponent in the range [-3, integer width+3]
    'fs1 == 1 and fe1 == 0x411 and fm1 == 0x5dbbb894deab4 and rm_val == 0  #nosat': 1 #  rs1_val==dnorm(0xc115dbbb894deab4) | Exponent: 18, Exponent in the range [-3, integer width+3]
    'fs1 == 0 and fe1 == 0x410 and fm1 == 0xe8dacf0e58650 and rm_val == 0  #nosat': 1 #  rs1_val==dnorm(0x410e8dacf0e58650) | Exponent: 17, Exponent in the range [-3, integer width+3]
    'fs1 == 0 and fe1 == 0x40f and fm1 == 0x224c03c53d0e3 and rm_val == 0  #nosat': 1 #  rs1_val==dnorm(0x40f224c03c53d0e3) | Exponent: 16, Exponent in the range [-3, integer width+3]
    'fs1 == 0 and fe1 == 0x40e and fm1 == 0x953b00b54aa22 and rm_val == 0  #nosat': 1 #  rs1_val==dnorm(0x40e953b00b54aa22) | Exponent: 15, Exponent in the range [-3, integer width+3]
    'fs1 == 0 and fe1 == 0x40d and fm1 == 0x9d02f708cc1b6 and rm_val == 0  #nosat': 1 #  rs1_val==dnorm(0x40d9d02f708cc1b6) | Exponent: 14, Exponent in the range [-3, integer width+3]
    'fs1 == 1 and fe1 == 0x40c and fm1 == 0x3d480fb7f6f5d and rm_val == 0  #nosat': 1 #  rs1_val==dnorm(0xc0c3d480fb7f6f5d) | Exponent: 13, Exponent in the range [-3, integer width+3]
    'fs1 == 1 and fe1 == 0x40b and fm1 == 0xc491074f942cb and rm_val == 0  #nosat': 1 #  rs1_val==dnorm(0xc0bc491074f942cb) | Exponent: 12, Exponent in the range [-3, integer width+3]
    'fs1 == 0 and fe1 == 0x40a and fm1 == 0x5cd28a96ec2b3 and rm_val == 0  #nosat': 1 #  rs1_val==dnorm(0x40a5cd28a96ec2b3) | Exponent: 11, Exponent in the range [-3, integer width+3]
    'fs1 == 0 and fe1 == 0x409 and fm1 == 0xaf9492cb7362c and rm_val == 0  #nosat': 1 #  rs1_val==dnorm(0x409af9492cb7362c) | Exponent: 10, Exponent in the range [-3, integer width+3]
    'fs1 == 0 and fe1 == 0x408 and fm1 == 0x43277acca7f0d and rm_val == 0  #nosat': 1 #  rs1_val==dnorm(0x40843277acca7f0d) | Exponent: 9, Exponent in the range [-3, integer width+3]
    'fs1 == 1 and fe1 == 0x407 and fm1 == 0x489b36bd7f503 and rm_val == 0  #nosat': 1 #  rs1_val==dnorm(0xc07489b36bd7f503) | Exponent: 8, Exponent in the range [-3, integer width+3]
    'fs1 == 0 and fe1 == 0x406 and fm1 == 0x5ae6a9a6ab329 and rm_val == 0  #nosat': 1 #  rs1_val==dnorm(0x4065ae6a9a6ab329) | Exponent: 7, Exponent in the range [-3, integer width+3]
    'fs1 == 0 and fe1 == 0x405 and fm1 == 0xdc3386b9f15c4 and rm_val == 0  #nosat': 1 #  rs1_val==dnorm(0x405dc3386b9f15c4) | Exponent: 6, Exponent in the range [-3, integer width+3]
    'fs1 == 0 and fe1 == 0x404 and fm1 == 0x5c74eff1e5bef and rm_val == 0  #nosat': 1 #  rs1_val==dnorm(0x4045c74eff1e5bef) | Exponent: 5, Exponent in the range [-3, integer width+3]
    'fs1 == 1 and fe1 == 0x403 and fm1 == 0xf3ebcf3d06f86 and rm_val == 0  #nosat': 1 #  rs1_val==dnorm(0xc03f3ebcf3d06f86) | Exponent: 4, Exponent in the range [-3, integer width+3]
    'fs1 == 0 and fe1 == 0x402 and fm1 == 0x137a953e8eb43 and rm_val == 0  #nosat': 1 #  rs1_val==dnorm(0x402137a953e8eb43) | Exponent: 3, Exponent in the range [-3, integer width+3]
    'fs1 == 0 and fe1 == 0x401 and fm1 == 0x854a908ceac39 and rm_val == 0  #nosat': 1 #  rs1_val==dnorm(0x401854a908ceac39) | Exponent: 2, Exponent in the range [-3, integer width+3]
    'fs1 == 0 and fe1 == 0x400 and fm1 == 0xcf84ba749f9c5 and rm_val == 0  #nosat': 1 #  rs1_val==dnorm(0x400cf84ba749f9c5) | Exponent: 1, Exponent in the range [-3, integer width+3]
    'fs1 == 0 and fe1 == 0x3ff and fm1 == 0xd2d6b7dc59a3a and rm_val == 0  #nosat': 1 #  rs1_val==dnorm(0x3ffd2d6b7dc59a3a) | Exponent: 0, Exponent in the range [-3, integer width+3]
    'fs1 == 1 and fe1 == 0x3fe and fm1 == 0x766ba34c2da80 and rm_val == 0  #nosat': 1 #  rs1_val==dnorm(0xbfe766ba34c2da80) | Exponent: -1, Exponent in the range [-3, integer width+3]
    'fs1 == 0 and fe1 == 0x3fd and fm1 == 0x93fdc7b89296c and rm_val == 0  #nosat': 1 #  rs1_val==dnorm(0x3fd93fdc7b89296c) | Exponent: -2, Exponent in the range [-3, integer width+3]
    coverage: 72/72
  total_coverage: 137/137
fcvt.lu.d_b23:
  config:
  - check ISA:=regex(.*I.*F.*)
  opcode:
    fcvt.lu.d: 46
    coverage: 1/1
  rd:
    x0: 1
    x1: 1
    x10: 1
    x11: 1
    x12: 1
    x13: 1
    x14: 1
    x15: 1
    x16: 1
    x17: 1
    x18: 1
    x19: 1
    x2: 1
    x20: 1
    x21: 1
    x22: 1
    x23: 1
    x24: 1
    x25: 1
    x26: 1
    x27: 1
    x28: 1
    x29: 1
    x3: 1
    x30: 1
    x31: 15
    x4: 1
    x5: 1
    x6: 1
    x7: 1
    x8: 1
    x9: 1
    coverage: 32/32
  rs1:
    f0: 1
    f1: 1
    f10: 1
    f11: 1
    f12: 1
    f13: 1
    f14: 1
    f15: 1
    f16: 1
    f17: 1
    f18: 1
    f19: 1
    f2: 1
    f20: 1
    f21: 1
    f22: 1
    f23: 1
    f24: 1
    f25: 1
    f26: 1
    f27: 1
    f28: 1
    f29: 1
    f3: 1
    f30: 1
    f31: 15
    f4: 1
    f5: 1
    f6: 1
    f7: 1
    f8: 1
    f9: 1
    coverage: 32/32
  val_comb:
    'fs1 == 0 and fe1 == 0x43d and fm1 == 0xffffffffffffc and rm_val == 0  #nosat': 1  #  rs1_val==dnorm(0x43dffffffffffffc) | MaxInt + (-4)
    'fs1 == 0 and fe1 == 0x43e and fm1 == 0x0000000000004 and rm_val == 4  #nosat': 1 #  rs1_val==dnorm(0x43e0000000000004) | MaxInt + (4)
    'fs1 == 0 and fe1 == 0x43e and fm1 == 0x0000000000004 and rm_val == 3  #nosat': 1 #  rs1_val==dnorm(0x43e0000000000004) | MaxInt + (4)
    'fs1 == 0 and fe1 == 0x43e and fm1 == 0x0000000000004 and rm_val == 2  #nosat': 1 #  rs1_val==dnorm(0x43e0000000000004) | MaxInt + (4)
    'fs1 == 0 and fe1 == 0x43e and fm1 == 0x0000000000004 and rm_val == 1  #nosat': 1 #  rs1_val==dnorm(0x43e0000000000004) | MaxInt + (4)
    'fs1 == 0 and fe1 == 0x43e and fm1 == 0x0000000000004 and rm_val == 0  #nosat': 1 #  rs1_val==dnorm(0x43e0000000000004) | MaxInt + (4)
    'fs1 == 0 and fe1 == 0x43e and fm1 == 0x0000000000003 and rm_val == 4  #nosat': 1 #  rs1_val==dnorm(0x43e0000000000003) | MaxInt + (3)
    'fs1 == 0 and fe1 == 0x43e and fm1 == 0x0000000000003 and rm_val == 3  #nosat': 1 #  rs1_val==dnorm(0x43e0000000000003) | MaxInt + (3)
    'fs1 == 0 and fe1 == 0x43e and fm1 == 0x0000000000003 and rm_val == 2  #nosat': 1 #  rs1_val==dnorm(0x43e0000000000003) | MaxInt + (3)
    'fs1 == 0 and fe1 == 0x43e and fm1 == 0x0000000000003 and rm_val == 1  #nosat': 1 #  rs1_val==dnorm(0x43e0000000000003) | MaxInt + (3)
    'fs1 == 0 and fe1 == 0x43e and fm1 == 0x0000000000003 and rm_val == 0  #nosat': 1 #  rs1_val==dnorm(0x43e0000000000003) | MaxInt + (3)
    'fs1 == 0 and fe1 == 0x43e and fm1 == 0x0000000000002 and rm_val == 4  #nosat': 1 #  rs1_val==dnorm(0x43e0000000000002) | MaxInt + (2)
    'fs1 == 0 and fe1 == 0x43e and fm1 == 0x0000000000002 and rm_val == 3  #nosat': 1 #  rs1_val==dnorm(0x43e0000000000002) | MaxInt + (2)
    'fs1 == 0 and fe1 == 0x43e and fm1 == 0x0000000000002 and rm_val == 2  #nosat': 1 #  rs1_val==dnorm(0x43e0000000000002) | MaxInt + (2)
    'fs1 == 0 and fe1 == 0x43e and fm1 == 0x0000000000002 and rm_val == 1  #nosat': 1 #  rs1_val==dnorm(0x43e0000000000002) | MaxInt + (2)
    'fs1 == 0 and fe1 == 0x43e and fm1 == 0x0000000000002 and rm_val == 0  #nosat': 1 #  rs1_val==dnorm(0x43e0000000000002) | MaxInt + (2)
    'fs1 == 0 and fe1 == 0x43e and fm1 == 0x0000000000001 and rm_val == 4  #nosat': 1 #  rs1_val==dnorm(0x43e0000000000001) | MaxInt + (1)
    'fs1 == 0 and fe1 == 0x43e and fm1 == 0x0000000000001 and rm_val == 3  #nosat': 1 #  rs1_val==dnorm(0x43e0000000000001) | MaxInt + (1)
    'fs1 == 0 and fe1 == 0x43e and fm1 == 0x0000000000001 and rm_val == 2  #nosat': 1 #  rs1_val==dnorm(0x43e0000000000001) | MaxInt + (1)
    'fs1 == 0 and fe1 == 0x43e and fm1 == 0x0000000000001 and rm_val == 1  #nosat': 2 #  rs1_val==dnorm(0x43e0000000000001) | MaxInt + (1)
    'fs1 == 0 and fe1 == 0x43e and fm1 == 0x0000000000001 and rm_val == 0  #nosat': 1 #  rs1_val==dnorm(0x43e0000000000001) | MaxInt + (1)
    'fs1 == 0 and fe1 == 0x43e and fm1 == 0x0000000000000 and rm_val == 4  #nosat': 1 #  rs1_val==dnorm(0x43e0000000000000) | MaxInt + (0)
    'fs1 == 0 and fe1 == 0x43e and fm1 == 0x0000000000000 and rm_val == 3  #nosat': 1 #  rs1_val==dnorm(0x43e0000000000000) | MaxInt + (0)
    'fs1 == 0 and fe1 == 0x43e and fm1 == 0x0000000000000 and rm_val == 2  #nosat': 1 #  rs1_val==dnorm(0x43e0000000000000) | MaxInt + (0)
    'fs1 == 0 and fe1 == 0x43e and fm1 == 0x0000000000000 and rm_val == 1  #nosat': 1 #  rs1_val==dnorm(0x43e0000000000000) | MaxInt + (0)
    'fs1 == 0 and fe1 == 0x43e and fm1 == 0x0000000000000 and rm_val == 0  #nosat': 1 #  rs1_val==dnorm(0x43e0000000000000) | MaxInt + (0)
    'fs1 == 0 and fe1 == 0x43d and fm1 == 0xfffffffffffff and rm_val == 4  #nosat': 1 #  rs1_val==dnorm(0x43dfffffffffffff) | MaxInt + (-1)
    'fs1 == 0 and fe1 == 0x43d and fm1 == 0xfffffffffffff and rm_val == 3  #nosat': 1 #  rs1_val==dnorm(0x43dfffffffffffff) | MaxInt + (-1)
    'fs1 == 0 and fe1 == 0x43d and fm1 == 0xfffffffffffff and rm_val == 2  #nosat': 1 #  rs1_val==dnorm(0x43dfffffffffffff) | MaxInt + (-1)
    'fs1 == 0 and fe1 == 0x43d and fm1 == 0xfffffffffffff and rm_val == 1  #nosat': 1 #  rs1_val==dnorm(0x43dfffffffffffff) | MaxInt + (-1)
    'fs1 == 0 and fe1 == 0x43d and fm1 == 0xfffffffffffff and rm_val == 0  #nosat': 1 #  rs1_val==dnorm(0x43dfffffffffffff) | MaxInt + (-1)
    'fs1 == 0 and fe1 == 0x43d and fm1 == 0xffffffffffffe and rm_val == 4  #nosat': 1 #  rs1_val==dnorm(0x43dffffffffffffe) | MaxInt + (-2)
    'fs1 == 0 and fe1 == 0x43d and fm1 == 0xffffffffffffe and rm_val == 3  #nosat': 1 #  rs1_val==dnorm(0x43dffffffffffffe) | MaxInt + (-2)
    'fs1 == 0 and fe1 == 0x43d and fm1 == 0xffffffffffffe and rm_val == 2  #nosat': 1 #  rs1_val==dnorm(0x43dffffffffffffe) | MaxInt + (-2)
    'fs1 == 0 and fe1 == 0x43d and fm1 == 0xffffffffffffe and rm_val == 1  #nosat': 1 #  rs1_val==dnorm(0x43dffffffffffffe) | MaxInt + (-2)
    'fs1 == 0 and fe1 == 0x43d and fm1 == 0xffffffffffffe and rm_val == 0  #nosat': 1 #  rs1_val==dnorm(0x43dffffffffffffe) | MaxInt + (-2)
    'fs1 == 0 and fe1 == 0x43d and fm1 == 0xffffffffffffd and rm_val == 4  #nosat': 1 #  rs1_val==dnorm(0x43dffffffffffffd) | MaxInt + (-3)
    'fs1 == 0 and fe1 == 0x43d and fm1 == 0xffffffffffffd and rm_val == 3  #nosat': 1 #  rs1_val==dnorm(0x43dffffffffffffd) | MaxInt + (-3)
    'fs1 == 0 and fe1 == 0x43d and fm1 == 0xffffffffffffd and rm_val == 2  #nosat': 1 #  rs1_val==dnorm(0x43dffffffffffffd) | MaxInt + (-3)
    'fs1 == 0 and fe1 == 0x43d and fm1 == 0xffffffffffffd and rm_val == 1  #nosat': 1 #  rs1_val==dnorm(0x43dffffffffffffd) | MaxInt + (-3)
    'fs1 == 0 and fe1 == 0x43d and fm1 == 0xffffffffffffd and rm_val == 0  #nosat': 1 #  rs1_val==dnorm(0x43dffffffffffffd) | MaxInt + (-3)
    'fs1 == 0 and fe1 == 0x43d and fm1 == 0xffffffffffffc and rm_val == 4  #nosat': 1 #  rs1_val==dnorm(0x43dffffffffffffc) | MaxInt + (-4)
    'fs1 == 0 and fe1 == 0x43d and fm1 == 0xffffffffffffc and rm_val == 3  #nosat': 1 #  rs1_val==dnorm(0x43dffffffffffffc) | MaxInt + (-4)
    'fs1 == 0 and fe1 == 0x43d and fm1 == 0xffffffffffffc and rm_val == 2  #nosat': 1 #  rs1_val==dnorm(0x43dffffffffffffc) | MaxInt + (-4)
    'fs1 == 0 and fe1 == 0x43d and fm1 == 0xffffffffffffc and rm_val == 1  #nosat': 1 #  rs1_val==dnorm(0x43dffffffffffffc) | MaxInt + (-4)
    coverage: 45/45
  total_coverage: 110/110
fcvt.lu.d_b24:
  config:
  - check ISA:=regex(.*I.*F.*)
  opcode:
    fcvt.lu.d: 106
    coverage: 1/1
  rd:
    x0: 1
    x1: 1
    x10: 1
    x11: 1
    x12: 1
    x13: 1
    x14: 1
    x15: 1
    x16: 1
    x17: 1
    x18: 1
    x19: 1
    x2: 1
    x20: 1
    x21: 1
    x22: 1
    x23: 1
    x24: 1
    x25: 1
    x26: 1
    x27: 1
    x28: 1
    x29: 1
    x3: 1
    x30: 1
    x31: 75
    x4: 1
    x5: 1
    x6: 1
    x7: 1
    x8: 1
    x9: 1
    coverage: 32/32
  rs1:
    f0: 1
    f1: 1
    f10: 1
    f11: 1
    f12: 1
    f13: 1
    f14: 1
    f15: 1
    f16: 1
    f17: 1
    f18: 1
    f19: 1
    f2: 1
    f20: 1
    f21: 1
    f22: 1
    f23: 1
    f24: 1
    f25: 1
    f26: 1
    f27: 1
    f28: 1
    f29: 1
    f3: 1
    f30: 1
    f31: 75
    f4: 1
    f5: 1
    f6: 1
    f7: 1
    f8: 1
    f9: 1
    coverage: 32/32
  val_comb:
    'fs1 == 1 and fe1 == 0x3f8 and fm1 == 0x47ae147ae147b and rm_val == 0  #nosat': 1  #  rs1_val==dnorm(0xbf847ae147ae147b) | -0-0.01
    'fs1 == 1 and fe1 == 0x3fb and fm1 == 0x999999999999a and rm_val == 4  #nosat': 1 #  rs1_val==dnorm(0xbfb999999999999a) | +0-0.1
    'fs1 == 1 and fe1 == 0x3fb and fm1 == 0x999999999999a and rm_val == 3  #nosat': 1 #  rs1_val==dnorm(0xbfb999999999999a) | +0-0.1
    'fs1 == 1 and fe1 == 0x3fb and fm1 == 0x999999999999a and rm_val == 2  #nosat': 1 #  rs1_val==dnorm(0xbfb999999999999a) | +0-0.1
    'fs1 == 1 and fe1 == 0x3fb and fm1 == 0x999999999999a and rm_val == 1  #nosat': 1 #  rs1_val==dnorm(0xbfb999999999999a) | +0-0.1
    'fs1 == 1 and fe1 == 0x3fb and fm1 == 0x999999999999a and rm_val == 0  #nosat': 1 #  rs1_val==dnorm(0xbfb999999999999a) | +0-0.1
    'fs1 == 0 and fe1 == 0x000 and fm1 == 0x0000000000000 and rm_val == 4  #nosat': 1 #  rs1_val==dzero(0x0000000000000000) | +0-0
    'fs1 == 0 and fe1 == 0x000 and fm1 == 0x0000000000000 and rm_val == 3  #nosat': 1 #  rs1_val==dzero(0x0000000000000000) | +0-0
    'fs1 == 0 and fe1 == 0x000 and fm1 == 0x0000000000000 and rm_val == 2  #nosat': 1 #  rs1_val==dzero(0x0000000000000000) | +0-0
    'fs1 == 0 and fe1 == 0x000 and fm1 == 0x0000000000000 and rm_val == 1  #nosat': 1 #  rs1_val==dzero(0x0000000000000000) | +0-0
    'fs1 == 0 and fe1 == 0x000 and fm1 == 0x0000000000000 and rm_val == 0  #nosat': 1 #  rs1_val==dzero(0x0000000000000000) | +0-0
    'fs1 == 1 and fe1 == 0x3ff and fm1 == 0x1c28f5c28f5c3 and rm_val == 4  #nosat': 1 #  rs1_val==dnorm(0xbff1c28f5c28f5c3) | -1-0.11
    'fs1 == 1 and fe1 == 0x3ff and fm1 == 0x1c28f5c28f5c3 and rm_val == 3  #nosat': 1 #  rs1_val==dnorm(0xbff1c28f5c28f5c3) | -1-0.11
    'fs1 == 1 and fe1 == 0x3ff and fm1 == 0x1c28f5c28f5c3 and rm_val == 2  #nosat': 1 #  rs1_val==dnorm(0xbff1c28f5c28f5c3) | -1-0.11
    'fs1 == 1 and fe1 == 0x3ff and fm1 == 0x1c28f5c28f5c3 and rm_val == 1  #nosat': 1 #  rs1_val==dnorm(0xbff1c28f5c28f5c3) | -1-0.11
    'fs1 == 1 and fe1 == 0x3ff and fm1 == 0x1c28f5c28f5c3 and rm_val == 0  #nosat': 1 #  rs1_val==dnorm(0xbff1c28f5c28f5c3) | -1-0.11
    'fs1 == 1 and fe1 == 0x3fb and fm1 == 0xc28f5c28f5c29 and rm_val == 4  #nosat': 1 #  rs1_val==dnorm(0xbfbc28f5c28f5c29) | +0-0.11
    'fs1 == 1 and fe1 == 0x3fb and fm1 == 0xc28f5c28f5c29 and rm_val == 3  #nosat': 1 #  rs1_val==dnorm(0xbfbc28f5c28f5c29) | +0-0.11
    'fs1 == 1 and fe1 == 0x3fb and fm1 == 0xc28f5c28f5c29 and rm_val == 2  #nosat': 1 #  rs1_val==dnorm(0xbfbc28f5c28f5c29) | +0-0.11
    'fs1 == 1 and fe1 == 0x3fb and fm1 == 0xc28f5c28f5c29 and rm_val == 1  #nosat': 1 #  rs1_val==dnorm(0xbfbc28f5c28f5c29) | +0-0.11
    'fs1 == 1 and fe1 == 0x3fb and fm1 == 0xc28f5c28f5c29 and rm_val == 0  #nosat': 1 #  rs1_val==dnorm(0xbfbc28f5c28f5c29) | +0-0.11
    'fs1 == 1 and fe1 == 0x3ff and fm1 == 0x028f5c28f5c29 and rm_val == 4  #nosat': 1 #  rs1_val==dnorm(0xbff028f5c28f5c29) | -1-0.01
    'fs1 == 1 and fe1 == 0x3ff and fm1 == 0x028f5c28f5c29 and rm_val == 3  #nosat': 1 #  rs1_val==dnorm(0xbff028f5c28f5c29) | -1-0.01
    'fs1 == 1 and fe1 == 0x3ff and fm1 == 0x028f5c28f5c29 and rm_val == 2  #nosat': 1 #  rs1_val==dnorm(0xbff028f5c28f5c29) | -1-0.01
    'fs1 == 1 and fe1 == 0x3ff and fm1 == 0x028f5c28f5c29 and rm_val == 1  #nosat': 1 #  rs1_val==dnorm(0xbff028f5c28f5c29) | -1-0.01
    'fs1 == 1 and fe1 == 0x3ff and fm1 == 0x028f5c28f5c29 and rm_val == 0  #nosat': 1 #  rs1_val==dnorm(0xbff028f5c28f5c29) | -1-0.01
    'fs1 == 1 and fe1 == 0x3ff and fm1 == 0x199999999999a and rm_val == 4  #nosat': 1 #  rs1_val==dnorm(0xbff199999999999a) | -1-0.1
    'fs1 == 1 and fe1 == 0x3ff and fm1 == 0x199999999999a and rm_val == 3  #nosat': 1 #  rs1_val==dnorm(0xbff199999999999a) | -1-0.1
    'fs1 == 1 and fe1 == 0x3ff and fm1 == 0x199999999999a and rm_val == 2  #nosat': 1 #  rs1_val==dnorm(0xbff199999999999a) | -1-0.1
    'fs1 == 1 and fe1 == 0x3ff and fm1 == 0x199999999999a and rm_val == 1  #nosat': 1 #  rs1_val==dnorm(0xbff199999999999a) | -1-0.1
    'fs1 == 1 and fe1 == 0x3ff and fm1 == 0x199999999999a and rm_val == 0  #nosat': 1 #  rs1_val==dnorm(0xbff199999999999a) | -1-0.1
    'fs1 == 0 and fe1 == 0x3ff and fm1 == 0x0000000000000 and rm_val == 4  #nosat': 1 #  rs1_val==done(0x3ff0000000000000) | +1-0
    'fs1 == 0 and fe1 == 0x3ff and fm1 == 0x0000000000000 and rm_val == 3  #nosat': 1 #  rs1_val==done(0x3ff0000000000000) | +1-0
    'fs1 == 0 and fe1 == 0x3ff and fm1 == 0x0000000000000 and rm_val == 2  #nosat': 1 #  rs1_val==done(0x3ff0000000000000) | +1-0
    'fs1 == 0 and fe1 == 0x3ff and fm1 == 0x0000000000000 and rm_val == 1  #nosat': 1 #  rs1_val==done(0x3ff0000000000000) | +1-0
    'fs1 == 0 and fe1 == 0x3ff and fm1 == 0x0000000000000 and rm_val == 0  #nosat': 1 #  rs1_val==done(0x3ff0000000000000) | +1-0
    'fs1 == 0 and fe1 == 0x3ff and fm1 == 0x199999999999a and rm_val == 4  #nosat': 1 #  rs1_val==dnorm(0x3ff199999999999a) | +1+0.1
    'fs1 == 0 and fe1 == 0x3ff and fm1 == 0x199999999999a and rm_val == 3  #nosat': 1 #  rs1_val==dnorm(0x3ff199999999999a) | +1+0.1
    'fs1 == 0 and fe1 == 0x3ff and fm1 == 0x199999999999a and rm_val == 2  #nosat': 1 #  rs1_val==dnorm(0x3ff199999999999a) | +1+0.1
    'fs1 == 0 and fe1 == 0x3ff and fm1 == 0x199999999999a and rm_val == 1  #nosat': 1 #  rs1_val==dnorm(0x3ff199999999999a) | +1+0.1
    'fs1 == 0 and fe1 == 0x3ff and fm1 == 0x199999999999a and rm_val == 0  #nosat': 1 #  rs1_val==dnorm(0x3ff199999999999a) | +1+0.1
    'fs1 == 0 and fe1 == 0x3fe and fm1 == 0xc7ae147ae147b and rm_val == 4  #nosat': 1 #  rs1_val==dnorm(0x3fec7ae147ae147b) | +1-0.11
    'fs1 == 0 and fe1 == 0x3fe and fm1 == 0xc7ae147ae147b and rm_val == 3  #nosat': 1 #  rs1_val==dnorm(0x3fec7ae147ae147b) | +1-0.11
    'fs1 == 0 and fe1 == 0x3fe and fm1 == 0xc7ae147ae147b and rm_val == 2  #nosat': 1 #  rs1_val==dnorm(0x3fec7ae147ae147b) | +1-0.11
    'fs1 == 0 and fe1 == 0x3fe and fm1 == 0xc7ae147ae147b and rm_val == 1  #nosat': 1 #  rs1_val==dnorm(0x3fec7ae147ae147b) | +1-0.11
    'fs1 == 0 and fe1 == 0x3fe and fm1 == 0xc7ae147ae147b and rm_val == 0  #nosat': 1 #  rs1_val==dnorm(0x3fec7ae147ae147b) | +1-0.11
    'fs1 == 0 and fe1 == 0x3fb and fm1 == 0xc28f5c28f5c29 and rm_val == 4  #nosat': 1 #  rs1_val==dnorm(0x3fbc28f5c28f5c29) | +0+0.11
    'fs1 == 0 and fe1 == 0x3fb and fm1 == 0xc28f5c28f5c29 and rm_val == 3  #nosat': 1 #  rs1_val==dnorm(0x3fbc28f5c28f5c29) | +0+0.11
    'fs1 == 0 and fe1 == 0x3fb and fm1 == 0xc28f5c28f5c29 and rm_val == 2  #nosat': 1 #  rs1_val==dnorm(0x3fbc28f5c28f5c29) | +0+0.11
    'fs1 == 0 and fe1 == 0x3fb and fm1 == 0xc28f5c28f5c29 and rm_val == 1  #nosat': 1 #  rs1_val==dnorm(0x3fbc28f5c28f5c29) | +0+0.11
    'fs1 == 0 and fe1 == 0x3fb and fm1 == 0xc28f5c28f5c29 and rm_val == 0  #nosat': 1 #  rs1_val==dnorm(0x3fbc28f5c28f5c29) | +0+0.11
    'fs1 == 1 and fe1 == 0x3f8 and fm1 == 0x47ae147ae147b and rm_val == 4  #nosat': 1 #  rs1_val==dnorm(0xbf847ae147ae147b) | -0-0.01
    'fs1 == 1 and fe1 == 0x3f8 and fm1 == 0x47ae147ae147b and rm_val == 3  #nosat': 1 #  rs1_val==dnorm(0xbf847ae147ae147b) | -0-0.01
    'fs1 == 1 and fe1 == 0x3f8 and fm1 == 0x47ae147ae147b and rm_val == 2  #nosat': 1 #  rs1_val==dnorm(0xbf847ae147ae147b) | -0-0.01
    'fs1 == 1 and fe1 == 0x3f8 and fm1 == 0x47ae147ae147b and rm_val == 1  #nosat': 1 #  rs1_val==dnorm(0xbf847ae147ae147b) | -0-0.01
    'fs1 == 0 and fe1 == 0x3fe and fm1 == 0xfae147ae147ae and rm_val == 4  #nosat': 1 #  rs1_val==dnorm(0x3fefae147ae147ae) | +1-0.01
    'fs1 == 0 and fe1 == 0x3fe and fm1 == 0xfae147ae147ae and rm_val == 3  #nosat': 1 #  rs1_val==dnorm(0x3fefae147ae147ae) | +1-0.01
    'fs1 == 0 and fe1 == 0x3fe and fm1 == 0xfae147ae147ae and rm_val == 2  #nosat': 1 #  rs1_val==dnorm(0x3fefae147ae147ae) | +1-0.01
    'fs1 == 0 and fe1 == 0x3fe and fm1 == 0xfae147ae147ae and rm_val == 1  #nosat': 1 #  rs1_val==dnorm(0x3fefae147ae147ae) | +1-0.01
    'fs1 == 0 and fe1 == 0x3fe and fm1 == 0xfae147ae147ae and rm_val == 0  #nosat': 1 #  rs1_val==dnorm(0x3fefae147ae147ae) | +1-0.01
    'fs1 == 0 and fe1 == 0x3ff and fm1 == 0x028f5c28f5c29 and rm_val == 4  #nosat': 1 #  rs1_val==dnorm(0x3ff028f5c28f5c29) | +1+0.01
    'fs1 == 0 and fe1 == 0x3ff and fm1 == 0x028f5c28f5c29 and rm_val == 3  #nosat': 1 #  rs1_val==dnorm(0x3ff028f5c28f5c29) | +1+0.01
    'fs1 == 0 and fe1 == 0x3ff and fm1 == 0x028f5c28f5c29 and rm_val == 2  #nosat': 1 #  rs1_val==dnorm(0x3ff028f5c28f5c29) | +1+0.01
    'fs1 == 0 and fe1 == 0x3ff and fm1 == 0x028f5c28f5c29 and rm_val == 1  #nosat': 1 #  rs1_val==dnorm(0x3ff028f5c28f5c29) | +1+0.01
    'fs1 == 0 and fe1 == 0x3ff and fm1 == 0x028f5c28f5c29 and rm_val == 0  #nosat': 1 #  rs1_val==dnorm(0x3ff028f5c28f5c29) | +1+0.01
    'fs1 == 0 and fe1 == 0x3fb and fm1 == 0x999999999999a and rm_val == 4  #nosat': 1 #  rs1_val==dnorm(0x3fb999999999999a) | -0+0.1
    'fs1 == 0 and fe1 == 0x3fb and fm1 == 0x999999999999a and rm_val == 3  #nosat': 1 #  rs1_val==dnorm(0x3fb999999999999a) | -0+0.1
    'fs1 == 0 and fe1 == 0x3fb and fm1 == 0x999999999999a and rm_val == 2  #nosat': 1 #  rs1_val==dnorm(0x3fb999999999999a) | -0+0.1
    'fs1 == 0 and fe1 == 0x3fb and fm1 == 0x999999999999a and rm_val == 1  #nosat': 1 #  rs1_val==dnorm(0x3fb999999999999a) | -0+0.1
    'fs1 == 0 and fe1 == 0x3fb and fm1 == 0x999999999999a and rm_val == 0  #nosat': 1 #  rs1_val==dnorm(0x3fb999999999999a) | -0+0.1
    'fs1 == 1 and fe1 == 0x3fe and fm1 == 0xc7ae147ae147b and rm_val == 4  #nosat': 1 #  rs1_val==dnorm(0xbfec7ae147ae147b) | -1+0.11
    'fs1 == 1 and fe1 == 0x3fe and fm1 == 0xc7ae147ae147b and rm_val == 3  #nosat': 2 #  rs1_val==dnorm(0xbfec7ae147ae147b) | -1+0.11
    'fs1 == 1 and fe1 == 0x3fe and fm1 == 0xc7ae147ae147b and rm_val == 2  #nosat': 1 #  rs1_val==dnorm(0xbfec7ae147ae147b) | -1+0.11
    'fs1 == 1 and fe1 == 0x3fe and fm1 == 0xc7ae147ae147b and rm_val == 1  #nosat': 1 #  rs1_val==dnorm(0xbfec7ae147ae147b) | -1+0.11
    'fs1 == 1 and fe1 == 0x3fe and fm1 == 0xc7ae147ae147b and rm_val == 0  #nosat': 1 #  rs1_val==dnorm(0xbfec7ae147ae147b) | -1+0.11
    'fs1 == 1 and fe1 == 0x3ff and fm1 == 0x0000000000000 and rm_val == 4  #nosat': 1 #  rs1_val==dnorm(0xbff0000000000000) | -1+0
    'fs1 == 1 and fe1 == 0x3ff and fm1 == 0x0000000000000 and rm_val == 3  #nosat': 1 #  rs1_val==dnorm(0xbff0000000000000) | -1+0
    'fs1 == 1 and fe1 == 0x3ff and fm1 == 0x0000000000000 and rm_val == 2  #nosat': 1 #  rs1_val==dnorm(0xbff0000000000000) | -1+0
    'fs1 == 1 and fe1 == 0x3ff and fm1 == 0x0000000000000 and rm_val == 1  #nosat': 1 #  rs1_val==dnorm(0xbff0000000000000) | -1+0
    'fs1 == 1 and fe1 == 0x3ff and fm1 == 0x0000000000000 and rm_val == 0  #nosat': 1 #  rs1_val==dnorm(0xbff0000000000000) | -1+0
    'fs1 == 0 and fe1 == 0x3f8 and fm1 == 0x47ae147ae147b and rm_val == 4  #nosat': 1 #  rs1_val==dnorm(0x3f847ae147ae147b) | -0+0.01
    'fs1 == 0 and fe1 == 0x3f8 and fm1 == 0x47ae147ae147b and rm_val == 3  #nosat': 1 #  rs1_val==dnorm(0x3f847ae147ae147b) | -0+0.01
    'fs1 == 0 and fe1 == 0x3f8 and fm1 == 0x47ae147ae147b and rm_val == 2  #nosat': 1 #  rs1_val==dnorm(0x3f847ae147ae147b) | -0+0.01
    'fs1 == 0 and fe1 == 0x3f8 and fm1 == 0x47ae147ae147b and rm_val == 1  #nosat': 1 #  rs1_val==dnorm(0x3f847ae147ae147b) | -0+0.01
    'fs1 == 0 and fe1 == 0x3f8 and fm1 == 0x47ae147ae147b and rm_val == 0  #nosat': 1 #  rs1_val==dnorm(0x3f847ae147ae147b) | -0+0.01
    'fs1 == 0 and fe1 == 0x3ff and fm1 == 0x1c28f5c28f5c3 and rm_val == 4  #nosat': 1 #  rs1_val==dnorm(0x3ff1c28f5c28f5c3) | +1+0.11
    'fs1 == 0 and fe1 == 0x3ff and fm1 == 0x1c28f5c28f5c3 and rm_val == 3  #nosat': 1 #  rs1_val==dnorm(0x3ff1c28f5c28f5c3) | +1+0.11
    'fs1 == 0 and fe1 == 0x3ff and fm1 == 0x1c28f5c28f5c3 and rm_val == 2  #nosat': 1 #  rs1_val==dnorm(0x3ff1c28f5c28f5c3) | +1+0.11
    'fs1 == 0 and fe1 == 0x3ff and fm1 == 0x1c28f5c28f5c3 and rm_val == 1  #nosat': 1 #  rs1_val==dnorm(0x3ff1c28f5c28f5c3) | +1+0.11
    'fs1 == 0 and fe1 == 0x3ff and fm1 == 0x1c28f5c28f5c3 and rm_val == 0  #nosat': 1 #  rs1_val==dnorm(0x3ff1c28f5c28f5c3) | +1+0.11
    'fs1 == 0 and fe1 == 0x3fe and fm1 == 0xccccccccccccd and rm_val == 4  #nosat': 1 #  rs1_val==dnorm(0x3feccccccccccccd) | +1-0.1
    'fs1 == 0 and fe1 == 0x3fe and fm1 == 0xccccccccccccd and rm_val == 3  #nosat': 1 #  rs1_val==dnorm(0x3feccccccccccccd) | +1-0.1
    'fs1 == 0 and fe1 == 0x3fe and fm1 == 0xccccccccccccd and rm_val == 2  #nosat': 1 #  rs1_val==dnorm(0x3feccccccccccccd) | +1-0.1
    'fs1 == 0 and fe1 == 0x3fe and fm1 == 0xccccccccccccd and rm_val == 1  #nosat': 1 #  rs1_val==dnorm(0x3feccccccccccccd) | +1-0.1
    'fs1 == 0 and fe1 == 0x3fe and fm1 == 0xccccccccccccd and rm_val == 0  #nosat': 1 #  rs1_val==dnorm(0x3feccccccccccccd) | +1-0.1
    'fs1 == 1 and fe1 == 0x3fe and fm1 == 0xccccccccccccd and rm_val == 4  #nosat': 1 #  rs1_val==dnorm(0xbfeccccccccccccd) | -1+0.1
    'fs1 == 1 and fe1 == 0x3fe and fm1 == 0xccccccccccccd and rm_val == 3  #nosat': 1 #  rs1_val==dnorm(0xbfeccccccccccccd) | -1+0.1
    'fs1 == 1 and fe1 == 0x3fe and fm1 == 0xccccccccccccd and rm_val == 2  #nosat': 1 #  rs1_val==dnorm(0xbfeccccccccccccd) | -1+0.1
    'fs1 == 1 and fe1 == 0x3fe and fm1 == 0xccccccccccccd and rm_val == 1  #nosat': 1 #  rs1_val==dnorm(0xbfeccccccccccccd) | -1+0.1
    'fs1 == 1 and fe1 == 0x3fe and fm1 == 0xccccccccccccd and rm_val == 0  #nosat': 1 #  rs1_val==dnorm(0xbfeccccccccccccd) | -1+0.1
    'fs1 == 1 and fe1 == 0x3fe and fm1 == 0xfae147ae147ae and rm_val == 4  #nosat': 1 #  rs1_val==dnorm(0xbfefae147ae147ae) | -1+0.01
    'fs1 == 1 and fe1 == 0x3fe and fm1 == 0xfae147ae147ae and rm_val == 3  #nosat': 1 #  rs1_val==dnorm(0xbfefae147ae147ae) | -1+0.01
    'fs1 == 1 and fe1 == 0x3fe and fm1 == 0xfae147ae147ae and rm_val == 2  #nosat': 1 #  rs1_val==dnorm(0xbfefae147ae147ae) | -1+0.01
    'fs1 == 1 and fe1 == 0x3fe and fm1 == 0xfae147ae147ae and rm_val == 1  #nosat': 1 #  rs1_val==dnorm(0xbfefae147ae147ae) | -1+0.01
    'fs1 == 1 and fe1 == 0x3fe and fm1 == 0xfae147ae147ae and rm_val == 0  #nosat': 1 #  rs1_val==dnorm(0xbfefae147ae147ae) | -1+0.01
    coverage: 105/105
  total_coverage: 170/170
fcvt.lu.d_b27:
  config:
  - check ISA:=regex(.*I.*F.*)
  opcode:
    fcvt.lu.d: 32
    coverage: 1/1
  rd:
    x0: 1
    x1: 1
    x10: 1
    x11: 1
    x12: 1
    x13: 1
    x14: 1
    x15: 1
    x16: 1
    x17: 1
    x18: 1
    x19: 1
    x2: 1
    x20: 1
    x21: 1
    x22: 1
    x23: 1
    x24: 1
    x25: 1
    x26: 1
    x27: 1
    x28: 1
    x29: 1
    x3: 1
    x30: 1
    x31: 1
    x4: 1
    x5: 1
    x6: 1
    x7: 1
    x8: 1
    x9: 1
    coverage: 32/32
  rs1:
    f0: 1
    f1: 1
    f10: 1
    f11: 1
    f12: 1
    f13: 1
    f14: 1
    f15: 1
    f16: 1
    f17: 1
    f18: 1
    f19: 1
    f2: 1
    f20: 1
    f21: 1
    f22: 1
    f23: 1
    f24: 1
    f25: 1
    f26: 1
    f27: 1
    f28: 1
    f29: 1
    f3: 1
    f30: 1
    f31: 1
    f4: 1
    f5: 1
    f6: 1
    f7: 1
    f8: 1
    f9: 1
    coverage: 32/32
  val_comb:
    'fs1 == 0 and fe1 == 0x7ff and fm1 == 0x0000000000001 and rm_val == 0  #nosat': 1  #  rs1_val==dsnan(0x7FF0000000000001)
    'fs1 == 1 and fe1 == 0x7ff and fm1 == 0xc000000000001 and rm_val == 0  #nosat': 1 #  rs1_val==dqnan(0xFFFC000000000001)
    'fs1 == 0 and fe1 == 0x7ff and fm1 == 0xc000000000001 and rm_val == 0  #nosat': 1 #  rs1_val==dqnan(0x7FFC000000000001)
    'fs1 == 1 and fe1 == 0x7ff and fm1 == 0x8000000000001 and rm_val == 0  #nosat': 1 #  rs1_val==dqnan(0xFFF8000000000001)
    'fs1 == 0 and fe1 == 0x7ff and fm1 == 0x8000000000001 and rm_val == 0  #nosat': 1 #  rs1_val==dqnan(0x7FF8000000000001)
    'fs1 == 1 and fe1 == 0x7ff and fm1 == 0x4aaaaaaaaaaaa and rm_val == 0  #nosat': 1 #  rs1_val==dsnan(0xFFF4AAAAAAAAAAAA)
    'fs1 == 0 and fe1 == 0x7ff and fm1 == 0x4aaaaaaaaaaaa and rm_val == 0  #nosat': 1 #  rs1_val==dsnan(0x7FF4AAAAAAAAAAAA)
    'fs1 == 1 and fe1 == 0x7ff and fm1 == 0x0000000000001 and rm_val == 0  #nosat': 1 #  rs1_val==dsnan(0xFFF0000000000001)
    coverage: 8/8
  total_coverage: 73/73
fcvt.lu.d_b28:
  config:
  - check ISA:=regex(.*I.*F.*)
  opcode:
    fcvt.lu.d: 32
    coverage: 1/1
  rd:
    x0: 1
    x1: 1
    x10: 1
    x11: 1
    x12: 1
    x13: 1
    x14: 1
    x15: 1
    x16: 1
    x17: 1
    x18: 1
    x19: 1
    x2: 1
    x20: 1
    x21: 1
    x22: 1
    x23: 1
    x24: 1
    x25: 1
    x26: 1
    x27: 1
    x28: 1
    x29: 1
    x3: 1
    x30: 1
    x31: 1
    x4: 1
    x5: 1
    x6: 1
    x7: 1
    x8: 1
    x9: 1
    coverage: 32/32
  rs1:
    f0: 1
    f1: 1
    f10: 1
    f11: 1
    f12: 1
    f13: 1
    f14: 1
    f15: 1
    f16: 1
    f17: 1
    f18: 1
    f19: 1
    f2: 1
    f20: 1
    f21: 1
    f22: 1
    f23: 1
    f24: 1
    f25: 1
    f26: 1
    f27: 1
    f28: 1
    f29: 1
    f3: 1
    f30: 1
    f31: 1
    f4: 1
    f5: 1
    f6: 1
    f7: 1
    f8: 1
    f9: 1
    coverage: 32/32
  val_comb:
    'fs1 == 0 and fe1 == 0x000 and fm1 == 0x0000000000000 and rm_val == 0  #nosat': 5  #  rs1_val==dzero(0x0000000000000000) | +0
    'fs1 == 1 and fe1 == 0x7ff and fm1 == 0x0000000000000 and rm_val == 0  #nosat': 1 #  rs1_val==dinfinity(0xFFF0000000000000) | -Infinity
    'fs1 == 1 and fe1 == 0x43e and fm1 == 0x0000000000000 and rm_val == 0  #nosat': 1 #  rs1_val==dnorm(0xc3e0000000000000) | -MaxInt
    'fs1 == 1 and fe1 == 0x43d and fm1 == 0x967a4ae26514c and rm_val == 0  #nosat': 1 #  rs1_val==dnorm(0xc3d967a4ae26514c) | A random number in the range (-1.11..11*2^precision, -1)
    'fs1 == 1 and fe1 == 0x3ff and fm1 == 0x4000000000000 and rm_val == 0  #nosat': 1 #  rs1_val==dnorm(0xbff4000000000000) | Number = -1.25 => Number ∈ [-2.75,-1)
    'fs1 == 1 and fe1 == 0x3ff and fm1 == 0x8000000000000 and rm_val == 0  #nosat': 1 #  rs1_val==dnorm(0xbff8000000000000) | Number = -1.5 => Number ∈ [-2.75,-1)
    'fs1 == 1 and fe1 == 0x3ff and fm1 == 0xc000000000000 and rm_val == 0  #nosat': 1 #  rs1_val==dnorm(0xbffc000000000000) | Number = -1.75 => Number ∈ [-2.75,-1)
    'fs1 == 1 and fe1 == 0x400 and fm1 == 0x0000000000000 and rm_val == 0  #nosat': 1 #  rs1_val==dnorm(0xc000000000000000) | Number = -2.0 => Number ∈ [-2.75,-1)
    'fs1 == 1 and fe1 == 0x400 and fm1 == 0x2000000000000 and rm_val == 0  #nosat': 1 #  rs1_val==dnorm(0xc002000000000000) | Number = -2.25 => Number ∈ [-2.75,-1)
    'fs1 == 1 and fe1 == 0x400 and fm1 == 0x4000000000000 and rm_val == 0  #nosat': 1 #  rs1_val==dnorm(0xc004000000000000) | Number = -2.5 => Number ∈ [-2.75,-1)
    'fs1 == 1 and fe1 == 0x400 and fm1 == 0x6000000000000 and rm_val == 0  #nosat': 1 #  rs1_val==dnorm(0xc006000000000000) | Number = -2.75 => Number ∈ [-2.75,-1)
    'fs1 == 1 and fe1 == 0x3f8 and fm1 == 0x0000000000000 and rm_val == 0  #nosat': 1 #  rs1_val==done(0xBF80000000000000) | -1
    'fs1 == 1 and fe1 == 0x3fd and fm1 == 0xb008d57e19f88 and rm_val == 0  #nosat': 1 #  rs1_val==dnorm(0xbfdb008d57e19f88) | A random number in the range (-1, -0)
    'fs1 == 1 and fe1 == 0x000 and fm1 == 0x0000000000000 and rm_val == 0  #nosat': 1 #  rs1_val==dzero(0x8000000000000000) | -0
    'fs1 == 0 and fe1 == 0x7ff and fm1 == 0x8000000000001 and rm_val == 0  #nosat': 1 #  rs1_val==dqnan(0x7FF8000000000001) | Quiet NaN
    'fs1 == 0 and fe1 == 0x7ff and fm1 == 0x0000000000001 and rm_val == 0  #nosat': 1 #  rs1_val==dsnan(0x7FF0000000000001) | Signaling NaN
    'fs1 == 0 and fe1 == 0x7ff and fm1 == 0x0000000000000 and rm_val == 0  #nosat': 1 #  rs1_val==dinfinity(0x7FF0000000000000) | +Infinity
    'fs1 == 0 and fe1 == 0x43e and fm1 == 0x0000000000000 and rm_val == 0  #nosat': 1 #  rs1_val==dnorm(0x43e0000000000000) | MaxInt
    'fs1 == 0 and fe1 == 0x43c and fm1 == 0xb72eb13dc494a and rm_val == 0  #nosat': 1 #  rs1_val==dnorm(0x43cb72eb13dc494a) | A random number in the range (+1, +1.11..11*2^precision)
    'fs1 == 0 and fe1 == 0x400 and fm1 == 0x6000000000000 and rm_val == 0  #nosat': 1 #  rs1_val==dnorm(0x4006000000000000) | Number = 2.75 => Number ∈ (1,2.75]
    'fs1 == 0 and fe1 == 0x400 and fm1 == 0x4000000000000 and rm_val == 0  #nosat': 1 #  rs1_val==dnorm(0x4004000000000000) | Number = 2.5 => Number ∈ (1,2.75]
    'fs1 == 0 and fe1 == 0x400 and fm1 == 0x2000000000000 and rm_val == 0  #nosat': 1 #  rs1_val==dnorm(0x4002000000000000) | Number = 2.25 => Number ∈ (1,2.75]
    'fs1 == 0 and fe1 == 0x400 and fm1 == 0x0000000000000 and rm_val == 0  #nosat': 1 #  rs1_val==dnorm(0x4000000000000000) | Number = 2.0 => Number ∈ (1,2.75]
    'fs1 == 0 and fe1 == 0x3ff and fm1 == 0xc000000000000 and rm_val == 0  #nosat': 1 #  rs1_val==dnorm(0x3ffc000000000000) | Number = 1.75 => Number ∈ (1,2.75]
    'fs1 == 0 and fe1 == 0x3ff and fm1 == 0x8000000000000 and rm_val == 0  #nosat': 1 #  rs1_val==dnorm(0x3ff8000000000000) | Number = 1.5 => Number ∈ (1,2.75]
    'fs1 == 0 and fe1 == 0x3ff and fm1 == 0x4000000000000 and rm_val == 0  #nosat': 1 #  rs1_val==dnorm(0x3ff4000000000000) | Number = 1.25 => Number ∈ (1,2.75]
    'fs1 == 0 and fe1 == 0x3ff and fm1 == 0x0000000000000 and rm_val == 0  #nosat': 1 #  rs1_val==done(0x3FF0000000000000) | +1
    'fs1 == 0 and fe1 == 0x3fe and fm1 == 0x248ee18215dfa and rm_val == 0  #nosat': 1 #  rs1_val==dnorm(0x3fe248ee18215dfa) | A random number in the range (+0, +1)
    coverage: 28/28
  total_coverage: 93/93
fcvt.lu.d_b29:
  config:
  - check ISA:=regex(.*I.*F.*)
  opcode:
    fcvt.lu.d: 81
    coverage: 1/1
  rd:
    x0: 1
    x1: 1
    x10: 1
    x11: 1
    x12: 1
    x13: 1
    x14: 1
    x15: 1
    x16: 1
    x17: 1
    x18: 1
    x19: 1
    x2: 1
    x20: 1
    x21: 1
    x22: 1
    x23: 1
    x24: 1
    x25: 1
    x26: 1
    x27: 1
    x28: 1
    x29: 1
    x3: 1
    x30: 1
    x31: 50
    x4: 1
    x5: 1
    x6: 1
    x7: 1
    x8: 1
    x9: 1
    coverage: 32/32
  rs1:
    f0: 1
    f1: 1
    f10: 1
    f11: 1
    f12: 1
    f13: 1
    f14: 1
    f15: 1
    f16: 1
    f17: 1
    f18: 1
    f19: 1
    f2: 1
    f20: 1
    f21: 1
    f22: 1
    f23: 1
    f24: 1
    f25: 1
    f26: 1
    f27: 1
    f28: 1
    f29: 1
    f3: 1
    f30: 1
    f31: 50
    f4: 1
    f5: 1
    f6: 1
    f7: 1
    f8: 1
    f9: 1
    coverage: 32/32
  val_comb:
    'fs1 == 0 and fe1 == 0x3fc and fm1 == 0x08574923b8698 and rm_val == 0  #nosat': 1  #  rs1_val==dnorm(0x3fc08574923b8698) | Exp = -3; Sign = 0; LSB = 0; Guard = 0; Sticky = 0
    'fs1 == 1 and fe1 == 0x3fc and fm1 == 0x08574923b869f and rm_val == 4  #nosat': 1 #  rs1_val==dnorm(0xbfc08574923b869f) | Exp = -3; Sign = 1; LSB = 1; Guard = 1; Sticky = 1
    'fs1 == 1 and fe1 == 0x3fc and fm1 == 0x08574923b869f and rm_val == 3  #nosat': 1 #  rs1_val==dnorm(0xbfc08574923b869f) | Exp = -3; Sign = 1; LSB = 1; Guard = 1; Sticky = 1
    'fs1 == 1 and fe1 == 0x3fc and fm1 == 0x08574923b869f and rm_val == 2  #nosat': 2 #  rs1_val==dnorm(0xbfc08574923b869f) | Exp = -3; Sign = 1; LSB = 1; Guard = 1; Sticky = 1
    'fs1 == 1 and fe1 == 0x3fc and fm1 == 0x08574923b869f and rm_val == 1  #nosat': 1 #  rs1_val==dnorm(0xbfc08574923b869f) | Exp = -3; Sign = 1; LSB = 1; Guard = 1; Sticky = 1
    'fs1 == 1 and fe1 == 0x3fc and fm1 == 0x08574923b869f and rm_val == 0  #nosat': 1 #  rs1_val==dnorm(0xbfc08574923b869f) | Exp = -3; Sign = 1; LSB = 1; Guard = 1; Sticky = 1
    'fs1 == 1 and fe1 == 0x3fc and fm1 == 0x08574923b869e and rm_val == 4  #nosat': 1 #  rs1_val==dnorm(0xbfc08574923b869e) | Exp = -3; Sign = 1; LSB = 1; Guard = 1; Sticky = 0
    'fs1 == 1 and fe1 == 0x3fc and fm1 == 0x08574923b869e and rm_val == 3  #nosat': 1 #  rs1_val==dnorm(0xbfc08574923b869e) | Exp = -3; Sign = 1; LSB = 1; Guard = 1; Sticky = 0
    'fs1 == 1 and fe1 == 0x3fc and fm1 == 0x08574923b869e and rm_val == 2  #nosat': 1 #  rs1_val==dnorm(0xbfc08574923b869e) | Exp = -3; Sign = 1; LSB = 1; Guard = 1; Sticky = 0
    'fs1 == 1 and fe1 == 0x3fc and fm1 == 0x08574923b869e and rm_val == 1  #nosat': 1 #  rs1_val==dnorm(0xbfc08574923b869e) | Exp = -3; Sign = 1; LSB = 1; Guard = 1; Sticky = 0
    'fs1 == 1 and fe1 == 0x3fc and fm1 == 0x08574923b869e and rm_val == 0  #nosat': 1 #  rs1_val==dnorm(0xbfc08574923b869e) | Exp = -3; Sign = 1; LSB = 1; Guard = 1; Sticky = 0
    'fs1 == 1 and fe1 == 0x3fc and fm1 == 0x08574923b869d and rm_val == 4  #nosat': 1 #  rs1_val==dnorm(0xbfc08574923b869d) | Exp = -3; Sign = 1; LSB = 1; Guard = 0; Sticky = 1
    'fs1 == 1 and fe1 == 0x3fc and fm1 == 0x08574923b869d and rm_val == 3  #nosat': 1 #  rs1_val==dnorm(0xbfc08574923b869d) | Exp = -3; Sign = 1; LSB = 1; Guard = 0; Sticky = 1
    'fs1 == 1 and fe1 == 0x3fc and fm1 == 0x08574923b869d and rm_val == 2  #nosat': 1 #  rs1_val==dnorm(0xbfc08574923b869d) | Exp = -3; Sign = 1; LSB = 1; Guard = 0; Sticky = 1
    'fs1 == 1 and fe1 == 0x3fc and fm1 == 0x08574923b869d and rm_val == 1  #nosat': 1 #  rs1_val==dnorm(0xbfc08574923b869d) | Exp = -3; Sign = 1; LSB = 1; Guard = 0; Sticky = 1
    'fs1 == 1 and fe1 == 0x3fc and fm1 == 0x08574923b869d and rm_val == 0  #nosat': 1 #  rs1_val==dnorm(0xbfc08574923b869d) | Exp = -3; Sign = 1; LSB = 1; Guard = 0; Sticky = 1
    'fs1 == 1 and fe1 == 0x3fc and fm1 == 0x08574923b869c and rm_val == 4  #nosat': 1 #  rs1_val==dnorm(0xbfc08574923b869c) | Exp = -3; Sign = 1; LSB = 1; Guard = 0; Sticky = 0
    'fs1 == 1 and fe1 == 0x3fc and fm1 == 0x08574923b869c and rm_val == 3  #nosat': 1 #  rs1_val==dnorm(0xbfc08574923b869c) | Exp = -3; Sign = 1; LSB = 1; Guard = 0; Sticky = 0
    'fs1 == 1 and fe1 == 0x3fc and fm1 == 0x08574923b869c and rm_val == 2  #nosat': 1 #  rs1_val==dnorm(0xbfc08574923b869c) | Exp = -3; Sign = 1; LSB = 1; Guard = 0; Sticky = 0
    'fs1 == 1 and fe1 == 0x3fc and fm1 == 0x08574923b869c and rm_val == 1  #nosat': 1 #  rs1_val==dnorm(0xbfc08574923b869c) | Exp = -3; Sign = 1; LSB = 1; Guard = 0; Sticky = 0
    'fs1 == 1 and fe1 == 0x3fc and fm1 == 0x08574923b869c and rm_val == 0  #nosat': 1 #  rs1_val==dnorm(0xbfc08574923b869c) | Exp = -3; Sign = 1; LSB = 1; Guard = 0; Sticky = 0
    'fs1 == 1 and fe1 == 0x3fc and fm1 == 0x08574923b869b and rm_val == 4  #nosat': 1 #  rs1_val==dnorm(0xbfc08574923b869b) | Exp = -3; Sign = 1; LSB = 0; Guard = 1; Sticky = 1
    'fs1 == 1 and fe1 == 0x3fc and fm1 == 0x08574923b869b and rm_val == 3  #nosat': 1 #  rs1_val==dnorm(0xbfc08574923b869b) | Exp = -3; Sign = 1; LSB = 0; Guard = 1; Sticky = 1
    'fs1 == 1 and fe1 == 0x3fc and fm1 == 0x08574923b869b and rm_val == 2  #nosat': 1 #  rs1_val==dnorm(0xbfc08574923b869b) | Exp = -3; Sign = 1; LSB = 0; Guard = 1; Sticky = 1
    'fs1 == 1 and fe1 == 0x3fc and fm1 == 0x08574923b869b and rm_val == 1  #nosat': 1 #  rs1_val==dnorm(0xbfc08574923b869b) | Exp = -3; Sign = 1; LSB = 0; Guard = 1; Sticky = 1
    'fs1 == 1 and fe1 == 0x3fc and fm1 == 0x08574923b869b and rm_val == 0  #nosat': 1 #  rs1_val==dnorm(0xbfc08574923b869b) | Exp = -3; Sign = 1; LSB = 0; Guard = 1; Sticky = 1
    'fs1 == 1 and fe1 == 0x3fc and fm1 == 0x08574923b869a and rm_val == 4  #nosat': 1 #  rs1_val==dnorm(0xbfc08574923b869a) | Exp = -3; Sign = 1; LSB = 0; Guard = 1; Sticky = 0
    'fs1 == 1 and fe1 == 0x3fc and fm1 == 0x08574923b869a and rm_val == 3  #nosat': 1 #  rs1_val==dnorm(0xbfc08574923b869a) | Exp = -3; Sign = 1; LSB = 0; Guard = 1; Sticky = 0
    'fs1 == 1 and fe1 == 0x3fc and fm1 == 0x08574923b869a and rm_val == 2  #nosat': 1 #  rs1_val==dnorm(0xbfc08574923b869a) | Exp = -3; Sign = 1; LSB = 0; Guard = 1; Sticky = 0
    'fs1 == 1 and fe1 == 0x3fc and fm1 == 0x08574923b869a and rm_val == 1  #nosat': 1 #  rs1_val==dnorm(0xbfc08574923b869a) | Exp = -3; Sign = 1; LSB = 0; Guard = 1; Sticky = 0
    'fs1 == 1 and fe1 == 0x3fc and fm1 == 0x08574923b869a and rm_val == 0  #nosat': 1 #  rs1_val==dnorm(0xbfc08574923b869a) | Exp = -3; Sign = 1; LSB = 0; Guard = 1; Sticky = 0
    'fs1 == 1 and fe1 == 0x3fc and fm1 == 0x08574923b8699 and rm_val == 4  #nosat': 1 #  rs1_val==dnorm(0xbfc08574923b8699) | Exp = -3; Sign = 1; LSB = 0; Guard = 0; Sticky = 1
    'fs1 == 1 and fe1 == 0x3fc and fm1 == 0x08574923b8699 and rm_val == 3  #nosat': 1 #  rs1_val==dnorm(0xbfc08574923b8699) | Exp = -3; Sign = 1; LSB = 0; Guard = 0; Sticky = 1
    'fs1 == 1 and fe1 == 0x3fc and fm1 == 0x08574923b8699 and rm_val == 2  #nosat': 1 #  rs1_val==dnorm(0xbfc08574923b8699) | Exp = -3; Sign = 1; LSB = 0; Guard = 0; Sticky = 1
    'fs1 == 1 and fe1 == 0x3fc and fm1 == 0x08574923b8699 and rm_val == 1  #nosat': 1 #  rs1_val==dnorm(0xbfc08574923b8699) | Exp = -3; Sign = 1; LSB = 0; Guard = 0; Sticky = 1
    'fs1 == 1 and fe1 == 0x3fc and fm1 == 0x08574923b8699 and rm_val == 0  #nosat': 1 #  rs1_val==dnorm(0xbfc08574923b8699) | Exp = -3; Sign = 1; LSB = 0; Guard = 0; Sticky = 1
    'fs1 == 1 and fe1 == 0x3fc and fm1 == 0x08574923b8698 and rm_val == 4  #nosat': 1 #  rs1_val==dnorm(0xbfc08574923b8698) | Exp = -3; Sign = 1; LSB = 0; Guard = 0; Sticky = 0
    'fs1 == 1 and fe1 == 0x3fc and fm1 == 0x08574923b8698 and rm_val == 3  #nosat': 1 #  rs1_val==dnorm(0xbfc08574923b8698) | Exp = -3; Sign = 1; LSB = 0; Guard = 0; Sticky = 0
    'fs1 == 1 and fe1 == 0x3fc and fm1 == 0x08574923b8698 and rm_val == 2  #nosat': 1 #  rs1_val==dnorm(0xbfc08574923b8698) | Exp = -3; Sign = 1; LSB = 0; Guard = 0; Sticky = 0
    'fs1 == 1 and fe1 == 0x3fc and fm1 == 0x08574923b8698 and rm_val == 1  #nosat': 1 #  rs1_val==dnorm(0xbfc08574923b8698) | Exp = -3; Sign = 1; LSB = 0; Guard = 0; Sticky = 0
    'fs1 == 1 and fe1 == 0x3fc and fm1 == 0x08574923b8698 and rm_val == 0  #nosat': 1 #  rs1_val==dnorm(0xbfc08574923b8698) | Exp = -3; Sign = 1; LSB = 0; Guard = 0; Sticky = 0
    'fs1 == 0 and fe1 == 0x3fc and fm1 == 0x08574923b869f and rm_val == 4  #nosat': 1 #  rs1_val==dnorm(0x3fc08574923b869f) | Exp = -3; Sign = 0; LSB = 1; Guard = 1; Sticky = 1
    'fs1 == 0 and fe1 == 0x3fc and fm1 == 0x08574923b869f and rm_val == 3  #nosat': 1 #  rs1_val==dnorm(0x3fc08574923b869f) | Exp = -3; Sign = 0; LSB = 1; Guard = 1; Sticky = 1
    'fs1 == 0 and fe1 == 0x3fc and fm1 == 0x08574923b869f and rm_val == 2  #nosat': 1 #  rs1_val==dnorm(0x3fc08574923b869f) | Exp = -3; Sign = 0; LSB = 1; Guard = 1; Sticky = 1
    'fs1 == 0 and fe1 == 0x3fc and fm1 == 0x08574923b869f and rm_val == 1  #nosat': 1 #  rs1_val==dnorm(0x3fc08574923b869f) | Exp = -3; Sign = 0; LSB = 1; Guard = 1; Sticky = 1
    'fs1 == 0 and fe1 == 0x3fc and fm1 == 0x08574923b869f and rm_val == 0  #nosat': 1 #  rs1_val==dnorm(0x3fc08574923b869f) | Exp = -3; Sign = 0; LSB = 1; Guard = 1; Sticky = 1
    'fs1 == 0 and fe1 == 0x3fc and fm1 == 0x08574923b869e and rm_val == 4  #nosat': 1 #  rs1_val==dnorm(0x3fc08574923b869e) | Exp = -3; Sign = 0; LSB = 1; Guard = 1; Sticky = 0
    'fs1 == 0 and fe1 == 0x3fc and fm1 == 0x08574923b869e and rm_val == 3  #nosat': 1 #  rs1_val==dnorm(0x3fc08574923b869e) | Exp = -3; Sign = 0; LSB = 1; Guard = 1; Sticky = 0
    'fs1 == 0 and fe1 == 0x3fc and fm1 == 0x08574923b869e and rm_val == 2  #nosat': 1 #  rs1_val==dnorm(0x3fc08574923b869e) | Exp = -3; Sign = 0; LSB = 1; Guard = 1; Sticky = 0
    'fs1 == 0 and fe1 == 0x3fc and fm1 == 0x08574923b869e and rm_val == 1  #nosat': 1 #  rs1_val==dnorm(0x3fc08574923b869e) | Exp = -3; Sign = 0; LSB = 1; Guard = 1; Sticky = 0
    'fs1 == 0 and fe1 == 0x3fc and fm1 == 0x08574923b869e and rm_val == 0  #nosat': 1 #  rs1_val==dnorm(0x3fc08574923b869e) | Exp = -3; Sign = 0; LSB = 1; Guard = 1; Sticky = 0
    'fs1 == 0 and fe1 == 0x3fc and fm1 == 0x08574923b869d and rm_val == 4  #nosat': 1 #  rs1_val==dnorm(0x3fc08574923b869d) | Exp = -3; Sign = 0; LSB = 1; Guard = 0; Sticky = 1
    'fs1 == 0 and fe1 == 0x3fc and fm1 == 0x08574923b869d and rm_val == 3  #nosat': 1 #  rs1_val==dnorm(0x3fc08574923b869d) | Exp = -3; Sign = 0; LSB = 1; Guard = 0; Sticky = 1
    'fs1 == 0 and fe1 == 0x3fc and fm1 == 0x08574923b869d and rm_val == 2  #nosat': 1 #  rs1_val==dnorm(0x3fc08574923b869d) | Exp = -3; Sign = 0; LSB = 1; Guard = 0; Sticky = 1
    'fs1 == 0 and fe1 == 0x3fc and fm1 == 0x08574923b869d and rm_val == 1  #nosat': 1 #  rs1_val==dnorm(0x3fc08574923b869d) | Exp = -3; Sign = 0; LSB = 1; Guard = 0; Sticky = 1
    'fs1 == 0 and fe1 == 0x3fc and fm1 == 0x08574923b869d and rm_val == 0  #nosat': 1 #  rs1_val==dnorm(0x3fc08574923b869d) | Exp = -3; Sign = 0; LSB = 1; Guard = 0; Sticky = 1
    'fs1 == 0 and fe1 == 0x3fc and fm1 == 0x08574923b869c and rm_val == 4  #nosat': 1 #  rs1_val==dnorm(0x3fc08574923b869c) | Exp = -3; Sign = 0; LSB = 1; Guard = 0; Sticky = 0
    'fs1 == 0 and fe1 == 0x3fc and fm1 == 0x08574923b869c and rm_val == 3  #nosat': 1 #  rs1_val==dnorm(0x3fc08574923b869c) | Exp = -3; Sign = 0; LSB = 1; Guard = 0; Sticky = 0
    'fs1 == 0 and fe1 == 0x3fc and fm1 == 0x08574923b869c and rm_val == 2  #nosat': 1 #  rs1_val==dnorm(0x3fc08574923b869c) | Exp = -3; Sign = 0; LSB = 1; Guard = 0; Sticky = 0
    'fs1 == 0 and fe1 == 0x3fc and fm1 == 0x08574923b869c and rm_val == 1  #nosat': 1 #  rs1_val==dnorm(0x3fc08574923b869c) | Exp = -3; Sign = 0; LSB = 1; Guard = 0; Sticky = 0
    'fs1 == 0 and fe1 == 0x3fc and fm1 == 0x08574923b869c and rm_val == 0  #nosat': 1 #  rs1_val==dnorm(0x3fc08574923b869c) | Exp = -3; Sign = 0; LSB = 1; Guard = 0; Sticky = 0
    'fs1 == 0 and fe1 == 0x3fc and fm1 == 0x08574923b869b and rm_val == 4  #nosat': 1 #  rs1_val==dnorm(0x3fc08574923b869b) | Exp = -3; Sign = 0; LSB = 0; Guard = 1; Sticky = 1
    'fs1 == 0 and fe1 == 0x3fc and fm1 == 0x08574923b869b and rm_val == 3  #nosat': 1 #  rs1_val==dnorm(0x3fc08574923b869b) | Exp = -3; Sign = 0; LSB = 0; Guard = 1; Sticky = 1
    'fs1 == 0 and fe1 == 0x3fc and fm1 == 0x08574923b869b and rm_val == 2  #nosat': 1 #  rs1_val==dnorm(0x3fc08574923b869b) | Exp = -3; Sign = 0; LSB = 0; Guard = 1; Sticky = 1
    'fs1 == 0 and fe1 == 0x3fc and fm1 == 0x08574923b869b and rm_val == 1  #nosat': 1 #  rs1_val==dnorm(0x3fc08574923b869b) | Exp = -3; Sign = 0; LSB = 0; Guard = 1; Sticky = 1
    'fs1 == 0 and fe1 == 0x3fc and fm1 == 0x08574923b869b and rm_val == 0  #nosat': 1 #  rs1_val==dnorm(0x3fc08574923b869b) | Exp = -3; Sign = 0; LSB = 0; Guard = 1; Sticky = 1
    'fs1 == 0 and fe1 == 0x3fc and fm1 == 0x08574923b869a and rm_val == 4  #nosat': 1 #  rs1_val==dnorm(0x3fc08574923b869a) | Exp = -3; Sign = 0; LSB = 0; Guard = 1; Sticky = 0
    'fs1 == 0 and fe1 == 0x3fc and fm1 == 0x08574923b869a and rm_val == 3  #nosat': 1 #  rs1_val==dnorm(0x3fc08574923b869a) | Exp = -3; Sign = 0; LSB = 0; Guard = 1; Sticky = 0
    'fs1 == 0 and fe1 == 0x3fc and fm1 == 0x08574923b869a and rm_val == 2  #nosat': 1 #  rs1_val==dnorm(0x3fc08574923b869a) | Exp = -3; Sign = 0; LSB = 0; Guard = 1; Sticky = 0
    'fs1 == 0 and fe1 == 0x3fc and fm1 == 0x08574923b869a and rm_val == 1  #nosat': 1 #  rs1_val==dnorm(0x3fc08574923b869a) | Exp = -3; Sign = 0; LSB = 0; Guard = 1; Sticky = 0
    'fs1 == 0 and fe1 == 0x3fc and fm1 == 0x08574923b869a and rm_val == 0  #nosat': 1 #  rs1_val==dnorm(0x3fc08574923b869a) | Exp = -3; Sign = 0; LSB = 0; Guard = 1; Sticky = 0
    'fs1 == 0 and fe1 == 0x3fc and fm1 == 0x08574923b8699 and rm_val == 4  #nosat': 1 #  rs1_val==dnorm(0x3fc08574923b8699) | Exp = -3; Sign = 0; LSB = 0; Guard = 0; Sticky = 1
    'fs1 == 0 and fe1 == 0x3fc and fm1 == 0x08574923b8699 and rm_val == 3  #nosat': 1 #  rs1_val==dnorm(0x3fc08574923b8699) | Exp = -3; Sign = 0; LSB = 0; Guard = 0; Sticky = 1
    'fs1 == 0 and fe1 == 0x3fc and fm1 == 0x08574923b8699 and rm_val == 2  #nosat': 1 #  rs1_val==dnorm(0x3fc08574923b8699) | Exp = -3; Sign = 0; LSB = 0; Guard = 0; Sticky = 1
    'fs1 == 0 and fe1 == 0x3fc and fm1 == 0x08574923b8699 and rm_val == 1  #nosat': 1 #  rs1_val==dnorm(0x3fc08574923b8699) | Exp = -3; Sign = 0; LSB = 0; Guard = 0; Sticky = 1
    'fs1 == 0 and fe1 == 0x3fc and fm1 == 0x08574923b8699 and rm_val == 0  #nosat': 1 #  rs1_val==dnorm(0x3fc08574923b8699) | Exp = -3; Sign = 0; LSB = 0; Guard = 0; Sticky = 1
    'fs1 == 0 and fe1 == 0x3fc and fm1 == 0x08574923b8698 and rm_val == 4  #nosat': 1 #  rs1_val==dnorm(0x3fc08574923b8698) | Exp = -3; Sign = 0; LSB = 0; Guard = 0; Sticky = 0
    'fs1 == 0 and fe1 == 0x3fc and fm1 == 0x08574923b8698 and rm_val == 3  #nosat': 1 #  rs1_val==dnorm(0x3fc08574923b8698) | Exp = -3; Sign = 0; LSB = 0; Guard = 0; Sticky = 0
    'fs1 == 0 and fe1 == 0x3fc and fm1 == 0x08574923b8698 and rm_val == 2  #nosat': 1 #  rs1_val==dnorm(0x3fc08574923b8698) | Exp = -3; Sign = 0; LSB = 0; Guard = 0; Sticky = 0
    'fs1 == 0 and fe1 == 0x3fc and fm1 == 0x08574923b8698 and rm_val == 1  #nosat': 1 #  rs1_val==dnorm(0x3fc08574923b8698) | Exp = -3; Sign = 0; LSB = 0; Guard = 0; Sticky = 0
    coverage: 80/80
  total_coverage: 145/145
