---
fcvt.w.d_b22:
  config:
  - check ISA:=regex(.*I.*F.*)
  opcode:
    fcvt.w.d: 41
    coverage: 1/1
  rd:
    x0: 1
    x1: 1
    x10: 1
    x11: 1
    x12: 1
    x13: 1
    x14: 1
    x15: 1
    x16: 1
    x17: 1
    x18: 1
    x19: 1
    x2: 1
    x20: 1
    x21: 1
    x22: 1
    x23: 1
    x24: 1
    x25: 1
    x26: 1
    x27: 1
    x28: 1
    x29: 1
    x3: 1
    x30: 1
    x31: 10
    x4: 1
    x5: 1
    x6: 1
    x7: 1
    x8: 1
    x9: 1
    coverage: 32/32
  rs1:
    f0: 1
    f1: 1
    f10: 1
    f11: 1
    f12: 1
    f13: 1
    f14: 1
    f15: 1
    f16: 1
    f17: 1
    f18: 1
    f19: 1
    f2: 1
    f20: 1
    f21: 1
    f22: 1
    f23: 1
    f24: 1
    f25: 1
    f26: 1
    f27: 1
    f28: 1
    f29: 1
    f3: 1
    f30: 1
    f31: 10
    f4: 1
    f5: 1
    f6: 1
    f7: 1
    f8: 1
    f9: 1
    coverage: 32/32
  val_comb:
    'fs1 == 0 and fe1 == 0x3fc and fm1 == 0x08577924770d3 and rm_val == 0  #nosat': 1  #  rs1_val==dnorm(0x3fc08577924770d3) | Exponent: -3, Exponent in the range [-3, integer width+3]
    'fs1 == 0 and fe1 == 0x5ca and fm1 == 0xf871c6ee84270 and rm_val == 0  #nosat': 1 #  rs1_val==dnorm(0x5caf871c6ee84270) | Exponent: 459, Exponent greater than (integer width+3)
    'fs1 == 0 and fe1 == 0x3ca and fm1 == 0x30e08ceb506f6 and rm_val == 0  #nosat': 1 #  rs1_val==dnorm(0x3ca30e08ceb506f6) | Exponent: -53, Exponent less than -3
    'fs1 == 1 and fe1 == 0x421 and fm1 == 0x2a96d71097999 and rm_val == 0  #nosat': 1 #  rs1_val==dnorm(0xc212a96d71097999) | Exponent: 34, Exponent in the range [-3, integer width+3]
    'fs1 == 0 and fe1 == 0x420 and fm1 == 0xc5ec6c6880007 and rm_val == 0  #nosat': 1 #  rs1_val==dnorm(0x420c5ec6c6880007) | Exponent: 33, Exponent in the range [-3, integer width+3]
    'fs1 == 1 and fe1 == 0x41f and fm1 == 0x1ce80265039f6 and rm_val == 0  #nosat': 2 #  rs1_val==dnorm(0xc1f1ce80265039f6) | Exponent: 32, Exponent in the range [-3, integer width+3]
    'fs1 == 1 and fe1 == 0x41e and fm1 == 0xe9b7e5fc9eba4 and rm_val == 0  #nosat': 1 #  rs1_val==dnorm(0xc1ee9b7e5fc9eba4) | Exponent: 31, Exponent in the range [-3, integer width+3]
    'fs1 == 1 and fe1 == 0x41d and fm1 == 0x9136562694646 and rm_val == 0  #nosat': 1 #  rs1_val==dnorm(0xc1d9136562694646) | Exponent: 30, Exponent in the range [-3, integer width+3]
    'fs1 == 0 and fe1 == 0x41c and fm1 == 0x14b91dae98554 and rm_val == 0  #nosat': 1 #  rs1_val==dnorm(0x41c14b91dae98554) | Exponent: 29, Exponent in the range [-3, integer width+3]
    'fs1 == 1 and fe1 == 0x41b and fm1 == 0x889261270dee2 and rm_val == 0  #nosat': 1 #  rs1_val==dnorm(0xc1b889261270dee2) | Exponent: 28, Exponent in the range [-3, integer width+3]
    'fs1 == 1 and fe1 == 0x41a and fm1 == 0x9b4f3d167533a and rm_val == 0  #nosat': 1 #  rs1_val==dnorm(0xc1a9b4f3d167533a) | Exponent: 27, Exponent in the range [-3, integer width+3]
    'fs1 == 0 and fe1 == 0x419 and fm1 == 0x7f21608208d09 and rm_val == 0  #nosat': 1 #  rs1_val==dnorm(0x4197f21608208d09) | Exponent: 26, Exponent in the range [-3, integer width+3]
    'fs1 == 0 and fe1 == 0x418 and fm1 == 0x3d06169b1dcbf and rm_val == 0  #nosat': 1 #  rs1_val==dnorm(0x4183d06169b1dcbf) | Exponent: 25, Exponent in the range [-3, integer width+3]
    'fs1 == 1 and fe1 == 0x417 and fm1 == 0x396bad798c9cf and rm_val == 0  #nosat': 1 #  rs1_val==dnorm(0xc17396bad798c9cf) | Exponent: 24, Exponent in the range [-3, integer width+3]
    'fs1 == 0 and fe1 == 0x416 and fm1 == 0x807dad814d575 and rm_val == 0  #nosat': 1 #  rs1_val==dnorm(0x416807dad814d575) | Exponent: 23, Exponent in the range [-3, integer width+3]
    'fs1 == 0 and fe1 == 0x415 and fm1 == 0x95a4da7298c66 and rm_val == 0  #nosat': 1 #  rs1_val==dnorm(0x41595a4da7298c66) | Exponent: 22, Exponent in the range [-3, integer width+3]
    'fs1 == 0 and fe1 == 0x414 and fm1 == 0x785036f9fb997 and rm_val == 0  #nosat': 1 #  rs1_val==dnorm(0x414785036f9fb997) | Exponent: 21, Exponent in the range [-3, integer width+3]
    'fs1 == 0 and fe1 == 0x413 and fm1 == 0x8c8a1aaac3142 and rm_val == 0  #nosat': 1 #  rs1_val==dnorm(0x4138c8a1aaac3142) | Exponent: 20, Exponent in the range [-3, integer width+3]
    'fs1 == 0 and fe1 == 0x412 and fm1 == 0x3d7c9e5f0307e and rm_val == 0  #nosat': 1 #  rs1_val==dnorm(0x4123d7c9e5f0307e) | Exponent: 19, Exponent in the range [-3, integer width+3]
    'fs1 == 1 and fe1 == 0x411 and fm1 == 0x5dbbb894deab4 and rm_val == 0  #nosat': 1 #  rs1_val==dnorm(0xc115dbbb894deab4) | Exponent: 18, Exponent in the range [-3, integer width+3]
    'fs1 == 0 and fe1 == 0x410 and fm1 == 0xe8dacf0e58650 and rm_val == 0  #nosat': 1 #  rs1_val==dnorm(0x410e8dacf0e58650) | Exponent: 17, Exponent in the range [-3, integer width+3]
    'fs1 == 0 and fe1 == 0x40f and fm1 == 0x224c03c53d0e3 and rm_val == 0  #nosat': 1 #  rs1_val==dnorm(0x40f224c03c53d0e3) | Exponent: 16, Exponent in the range [-3, integer width+3]
    'fs1 == 0 and fe1 == 0x40e and fm1 == 0x953b00b54aa22 and rm_val == 0  #nosat': 1 #  rs1_val==dnorm(0x40e953b00b54aa22) | Exponent: 15, Exponent in the range [-3, integer width+3]
    'fs1 == 0 and fe1 == 0x40d and fm1 == 0x9d02f708cc1b6 and rm_val == 0  #nosat': 1 #  rs1_val==dnorm(0x40d9d02f708cc1b6) | Exponent: 14, Exponent in the range [-3, integer width+3]
    'fs1 == 1 and fe1 == 0x40c and fm1 == 0x3d480fb7f6f5d and rm_val == 0  #nosat': 1 #  rs1_val==dnorm(0xc0c3d480fb7f6f5d) | Exponent: 13, Exponent in the range [-3, integer width+3]
    'fs1 == 1 and fe1 == 0x40b and fm1 == 0xc491074f942cb and rm_val == 0  #nosat': 1 #  rs1_val==dnorm(0xc0bc491074f942cb) | Exponent: 12, Exponent in the range [-3, integer width+3]
    'fs1 == 0 and fe1 == 0x40a and fm1 == 0x5cd28a96ec2b3 and rm_val == 0  #nosat': 1 #  rs1_val==dnorm(0x40a5cd28a96ec2b3) | Exponent: 11, Exponent in the range [-3, integer width+3]
    'fs1 == 0 and fe1 == 0x409 and fm1 == 0xaf9492cb7362c and rm_val == 0  #nosat': 1 #  rs1_val==dnorm(0x409af9492cb7362c) | Exponent: 10, Exponent in the range [-3, integer width+3]
    'fs1 == 0 and fe1 == 0x408 and fm1 == 0x43277acca7f0d and rm_val == 0  #nosat': 1 #  rs1_val==dnorm(0x40843277acca7f0d) | Exponent: 9, Exponent in the range [-3, integer width+3]
    'fs1 == 1 and fe1 == 0x407 and fm1 == 0x489b36bd7f503 and rm_val == 0  #nosat': 1 #  rs1_val==dnorm(0xc07489b36bd7f503) | Exponent: 8, Exponent in the range [-3, integer width+3]
    'fs1 == 0 and fe1 == 0x406 and fm1 == 0x5ae6a9a6ab329 and rm_val == 0  #nosat': 1 #  rs1_val==dnorm(0x4065ae6a9a6ab329) | Exponent: 7, Exponent in the range [-3, integer width+3]
    'fs1 == 0 and fe1 == 0x405 and fm1 == 0xdc3386b9f15c4 and rm_val == 0  #nosat': 1 #  rs1_val==dnorm(0x405dc3386b9f15c4) | Exponent: 6, Exponent in the range [-3, integer width+3]
    'fs1 == 0 and fe1 == 0x404 and fm1 == 0x5c74eff1e5bef and rm_val == 0  #nosat': 1 #  rs1_val==dnorm(0x4045c74eff1e5bef) | Exponent: 5, Exponent in the range [-3, integer width+3]
    'fs1 == 1 and fe1 == 0x403 and fm1 == 0xf3ebcf3d06f86 and rm_val == 0  #nosat': 1 #  rs1_val==dnorm(0xc03f3ebcf3d06f86) | Exponent: 4, Exponent in the range [-3, integer width+3]
    'fs1 == 0 and fe1 == 0x402 and fm1 == 0x137a953e8eb43 and rm_val == 0  #nosat': 1 #  rs1_val==dnorm(0x402137a953e8eb43) | Exponent: 3, Exponent in the range [-3, integer width+3]
    'fs1 == 0 and fe1 == 0x401 and fm1 == 0x854a908ceac39 and rm_val == 0  #nosat': 1 #  rs1_val==dnorm(0x401854a908ceac39) | Exponent: 2, Exponent in the range [-3, integer width+3]
    'fs1 == 0 and fe1 == 0x400 and fm1 == 0xcf84ba749f9c5 and rm_val == 0  #nosat': 1 #  rs1_val==dnorm(0x400cf84ba749f9c5) | Exponent: 1, Exponent in the range [-3, integer width+3]
    'fs1 == 0 and fe1 == 0x3ff and fm1 == 0xd2d6b7dc59a3a and rm_val == 0  #nosat': 1 #  rs1_val==dnorm(0x3ffd2d6b7dc59a3a) | Exponent: 0, Exponent in the range [-3, integer width+3]
    'fs1 == 1 and fe1 == 0x3fe and fm1 == 0x766ba34c2da80 and rm_val == 0  #nosat': 1 #  rs1_val==dnorm(0xbfe766ba34c2da80) | Exponent: -1, Exponent in the range [-3, integer width+3]
    'fs1 == 0 and fe1 == 0x3fd and fm1 == 0x93fdc7b89296c and rm_val == 0  #nosat': 1 #  rs1_val==dnorm(0x3fd93fdc7b89296c) | Exponent: -2, Exponent in the range [-3, integer width+3]
    coverage: 40/40
  total_coverage: 105/105
