disabling floating point (F and D extensions).
enabling Zfinx support.
using Reference-sail_c_simulator.signature for test-signature output.
[Sail] Allocating new block 0x80000000
tohost located at 0x80001000
[Sail] Allocating new block 0x0

Running file ref.elf.
ELF Entry @ 0x80000000
begin_signature: 0x80002310
end_signature: 0x80002430
CSR mstatus <- 0x00000000 (input: 0x00000000)
mem[X,0x00001000] -> 0x0297
mem[X,0x00001002] -> 0x0000
[0] [M]: 0x00001000 (0x00000297) auipc t0, 0
x5 <- 0x00001000


mem[X,0x00001004] -> 0x8593
mem[X,0x00001006] -> 0x0202
[1] [M]: 0x00001004 (0x02028593) addi a1, t0, 32
x11 <- 0x00001020


mem[X,0x00001008] -> 0x2573
mem[X,0x0000100A] -> 0xF140
[2] [M]: 0x00001008 (0xF1402573) csrrs a0, mhartid, zero
CSR mhartid -> 0x00000000
x10 <- 0x00000000


mem[X,0x0000100C] -> 0xA283
mem[X,0x0000100E] -> 0x0182
[3] [M]: 0x0000100C (0x0182A283) lw t0, 24(t0)
mem[R,0x00001018] -> 0x80000000
x5 <- 0x80000000


mem[X,0x00001010] -> 0x8067
mem[X,0x00001012] -> 0x0002
[4] [M]: 0x00001010 (0x00028067) jalr zero, t0, 0


mem[X,0x80000000] -> 0xC0B7
mem[X,0x80000002] -> 0xFEED
[5] [M]: 0x80000000 (0xFEEDC0B7) lui ra, 1044188
x1 <- 0xFEEDC000


mem[X,0x80000004] -> 0x8093
mem[X,0x80000006] -> 0xEAD0
[6] [M]: 0x80000004 (0xEAD08093) addi ra, ra, 3757
x1 <- 0xFEEDBEAD


mem[X,0x80000008] -> 0xE137
mem[X,0x8000000A] -> 0xFF76
[7] [M]: 0x80000008 (0xFF76E137) lui sp, 1046382
x2 <- 0xFF76E000


mem[X,0x8000000C] -> 0x0113
mem[X,0x8000000E] -> 0xF561
[8] [M]: 0x8000000C (0xF5610113) addi sp, sp, 3926
x2 <- 0xFF76DF56


mem[X,0x80000010] -> 0x71B7
mem[X,0x80000012] -> 0x7FBB
[9] [M]: 0x80000010 (0x7FBB71B7) lui gp, 523191
x3 <- 0x7FBB7000


mem[X,0x80000014] -> 0x8193
mem[X,0x80000016] -> 0xFAB1
[10] [M]: 0x80000014 (0xFAB18193) addi gp, gp, 4011
x3 <- 0x7FBB6FAB


mem[X,0x80000018] -> 0xB237
mem[X,0x8000001A] -> 0xBFDD
[11] [M]: 0x80000018 (0xBFDDB237) lui tp, 785883
x4 <- 0xBFDDB000


mem[X,0x8000001C] -> 0x0213
mem[X,0x8000001E] -> 0x7D52
[12] [M]: 0x8000001C (0x7D520213) addi tp, tp, 2005
x4 <- 0xBFDDB7D5


mem[X,0x80000020] -> 0x0297
mem[X,0x80000022] -> 0x0000
[13] [M]: 0x80000020 (0x00000297) auipc t0, 0
x5 <- 0x80000020


mem[X,0x80000024] -> 0x8293
mem[X,0x80000026] -> 0x0D82
[14] [M]: 0x80000024 (0x0D828293) addi t0, t0, 216
x5 <- 0x800000F8


mem[X,0x80000028] -> 0x2317
mem[X,0x8000002A] -> 0x0000
[15] [M]: 0x80000028 (0x00002317) auipc t1, 2
x6 <- 0x80002028


mem[X,0x8000002C] -> 0x0313
mem[X,0x8000002E] -> 0xFD83
[16] [M]: 0x8000002C (0xFD830313) addi t1, t1, 4056
x6 <- 0x80002000


mem[X,0x80000030] -> 0xB3B7
mem[X,0x80000032] -> 0xB7FB
[17] [M]: 0x80000030 (0xB7FBB3B7) lui t2, 753595
x7 <- 0xB7FBB000


mem[X,0x80000034] -> 0x8393
mem[X,0x80000036] -> 0x6FA3
[18] [M]: 0x80000034 (0x6FA38393) addi t2, t2, 1786
x7 <- 0xB7FBB6FA


mem[X,0x80000038] -> 0xE437
mem[X,0x8000003A] -> 0x5BFD
[19] [M]: 0x80000038 (0x5BFDE437) lui fp, 376798
x8 <- 0x5BFDE000


mem[X,0x8000003C] -> 0x0413
mem[X,0x8000003E] -> 0xB7D4
[20] [M]: 0x8000003C (0xB7D40413) addi fp, fp, 2941
x8 <- 0x5BFDDB7D


mem[X,0x80000040] -> 0xF4B7
mem[X,0x80000042] -> 0xADFE
[21] [M]: 0x80000040 (0xADFEF4B7) lui s1, 712687
x9 <- 0xADFEF000


mem[X,0x80000044] -> 0x8493
mem[X,0x80000046] -> 0xDBE4
[22] [M]: 0x80000044 (0xDBE48493) addi s1, s1, 3518
x9 <- 0xADFEEDBE


mem[X,0x80000048] -> 0x7537
mem[X,0x8000004A] -> 0x56FF
[23] [M]: 0x80000048 (0x56FF7537) lui a0, 356343
x10 <- 0x56FF7000


mem[X,0x8000004C] -> 0x0513
mem[X,0x8000004E] -> 0x6DF5
[24] [M]: 0x8000004C (0x6DF50513) addi a0, a0, 1759
x10 <- 0x56FF76DF


mem[X,0x80000050] -> 0xC5B7
mem[X,0x80000052] -> 0xAB7F
[25] [M]: 0x80000050 (0xAB7FC5B7) lui a1, 702460
x11 <- 0xAB7FC000


mem[X,0x80000054] -> 0x8593
mem[X,0x80000056] -> 0xB6F5
[26] [M]: 0x80000054 (0xB6F58593) addi a1, a1, 2927
x11 <- 0xAB7FBB6F


mem[X,0x80000058] -> 0xE637
mem[X,0x8000005A] -> 0xD5BF
[27] [M]: 0x80000058 (0xD5BFE637) lui a2, 875518
x12 <- 0xD5BFE000


mem[X,0x8000005C] -> 0x0613
mem[X,0x8000005E] -> 0xDB76
[28] [M]: 0x8000005C (0xDB760613) addi a2, a2, 3511
x12 <- 0xD5BFDDB7


mem[X,0x80000060] -> 0xF6B7
mem[X,0x80000062] -> 0xEADF
[29] [M]: 0x80000060 (0xEADFF6B7) lui a3, 962047
x13 <- 0xEADFF000


mem[X,0x80000064] -> 0x8693
mem[X,0x80000066] -> 0xEDB6
[30] [M]: 0x80000064 (0xEDB68693) addi a3, a3, 3803
x13 <- 0xEADFEEDB


mem[X,0x80000068] -> 0xF737
mem[X,0x8000006A] -> 0xF56F
[31] [M]: 0x80000068 (0xF56FF737) lui a4, 1005311
x14 <- 0xF56FF000


mem[X,0x8000006C] -> 0x0713
mem[X,0x8000006E] -> 0x76D7
[32] [M]: 0x8000006C (0x76D70713) addi a4, a4, 1901
x14 <- 0xF56FF76D


mem[X,0x80000070] -> 0x07B7
mem[X,0x80000072] -> 0xFAB8
[33] [M]: 0x80000070 (0xFAB807B7) lui a5, 1026944
x15 <- 0xFAB80000


mem[X,0x80000074] -> 0x8793
mem[X,0x80000076] -> 0xBB67
[34] [M]: 0x80000074 (0xBB678793) addi a5, a5, 2998
x15 <- 0xFAB7FBB6


mem[X,0x80000078] -> 0x0837
mem[X,0x8000007A] -> 0x7D5C
[35] [M]: 0x80000078 (0x7D5C0837) lui a6, 513472
x16 <- 0x7D5C0000


mem[X,0x8000007C] -> 0x0813
mem[X,0x8000007E] -> 0xDDB8
[36] [M]: 0x8000007C (0xDDB80813) addi a6, a6, 3547
x16 <- 0x7D5BFDDB


mem[X,0x80000080] -> 0x08B7
mem[X,0x80000082] -> 0xBEAE
[37] [M]: 0x80000080 (0xBEAE08B7) lui a7, 781024
x17 <- 0xBEAE0000


mem[X,0x80000084] -> 0x8893
mem[X,0x80000086] -> 0xEED8
[38] [M]: 0x80000084 (0xEED88893) addi a7, a7, 3821
x17 <- 0xBEADFEED


mem[X,0x80000088] -> 0x0937
mem[X,0x8000008A] -> 0xDF57
[39] [M]: 0x80000088 (0xDF570937) lui s2, 914800
x18 <- 0xDF570000


mem[X,0x8000008C] -> 0x0913
mem[X,0x8000008E] -> 0xF769
[40] [M]: 0x8000008C (0xF7690913) addi s2, s2, 3958
x18 <- 0xDF56FF76


mem[X,0x80000090] -> 0x89B7
mem[X,0x80000092] -> 0x6FAB
[41] [M]: 0x80000090 (0x6FAB89B7) lui s3, 457400
x19 <- 0x6FAB8000


mem[X,0x80000094] -> 0x8993
mem[X,0x80000096] -> 0xFBB9
[42] [M]: 0x80000094 (0xFBB98993) addi s3, s3, 4027
x19 <- 0x6FAB7FBB


mem[X,0x80000098] -> 0xCA37
mem[X,0x8000009A] -> 0xB7D5
[43] [M]: 0x80000098 (0xB7D5CA37) lui s4, 752988
x20 <- 0xB7D5C000


mem[X,0x8000009C] -> 0x0A13
mem[X,0x8000009E] -> 0xFDDA
[44] [M]: 0x8000009C (0xFDDA0A13) addi s4, s4, 4061
x20 <- 0xB7D5BFDD


mem[X,0x800000A0] -> 0xEAB7
mem[X,0x800000A2] -> 0xDBEA
[45] [M]: 0x800000A0 (0xDBEAEAB7) lui s5, 900782
x21 <- 0xDBEAE000


mem[X,0x800000A4] -> 0x8A93
mem[X,0x800000A6] -> 0xFEEA
[46] [M]: 0x800000A4 (0xFEEA8A93) addi s5, s5, 4078
x21 <- 0xDBEADFEE


mem[X,0x800000A8] -> 0x7B37
mem[X,0x800000AA] -> 0x6DF5
[47] [M]: 0x800000A8 (0x6DF57B37) lui s6, 450391
x22 <- 0x6DF57000


mem[X,0x800000AC] -> 0x0B13
mem[X,0x800000AE] -> 0xFF7B
[48] [M]: 0x800000AC (0xFF7B0B13) addi s6, s6, 4087
x22 <- 0x6DF56FF7


mem[X,0x800000B0] -> 0xBBB7
mem[X,0x800000B2] -> 0xB6FA
[49] [M]: 0x800000B0 (0xB6FABBB7) lui s7, 749483
x23 <- 0xB6FAB000


mem[X,0x800000B4] -> 0x8B93
mem[X,0x800000B6] -> 0x7FBB
[50] [M]: 0x800000B4 (0x7FBB8B93) addi s7, s7, 2043
x23 <- 0xB6FAB7FB


mem[X,0x800000B8] -> 0x6C37
mem[X,0x800000BA] -> 0xDB7D
[51] [M]: 0x800000B8 (0xDB7D6C37) lui s8, 899030
x24 <- 0xDB7D6000


mem[X,0x800000BC] -> 0x0C13
mem[X,0x800000BE] -> 0xBFDC
[52] [M]: 0x800000BC (0xBFDC0C13) addi s8, s8, 3069
x24 <- 0xDB7D5BFD


mem[X,0x800000C0] -> 0xBCB7
mem[X,0x800000C2] -> 0xEDBE
[53] [M]: 0x800000C0 (0xEDBEBCB7) lui s9, 973803
x25 <- 0xEDBEB000


mem[X,0x800000C4] -> 0x8C93
mem[X,0x800000C6] -> 0xDFEC
[54] [M]: 0x800000C4 (0xDFEC8C93) addi s9, s9, 3582
x25 <- 0xEDBEADFE


mem[X,0x800000C8] -> 0x5D37
mem[X,0x800000CA] -> 0x76DF
[55] [M]: 0x800000C8 (0x76DF5D37) lui s10, 486901
x26 <- 0x76DF5000


mem[X,0x800000CC] -> 0x0D13
mem[X,0x800000CE] -> 0x6FFD
[56] [M]: 0x800000CC (0x6FFD0D13) addi s10, s10, 1791
x26 <- 0x76DF56FF


mem[X,0x800000D0] -> 0xBDB7
mem[X,0x800000D2] -> 0xBB6F
[57] [M]: 0x800000D0 (0xBB6FBDB7) lui s11, 767739
x27 <- 0xBB6FB000


mem[X,0x800000D4] -> 0x8D93
mem[X,0x800000D6] -> 0xB7FD
[58] [M]: 0x800000D4 (0xB7FD8D93) addi s11, s11, 2943
x27 <- 0xBB6FAB7F


mem[X,0x800000D8] -> 0xDE37
mem[X,0x800000DA] -> 0xDDB7
[59] [M]: 0x800000D8 (0xDDB7DE37) lui t3, 908157
x28 <- 0xDDB7D000


mem[X,0x800000DC] -> 0x0E13
mem[X,0x800000DE] -> 0x5BFE
[60] [M]: 0x800000DC (0x5BFE0E13) addi t3, t3, 1471
x28 <- 0xDDB7D5BF


mem[X,0x800000E0] -> 0xFEB7
mem[X,0x800000E2] -> 0xEEDB
[61] [M]: 0x800000E0 (0xEEDBFEB7) lui t4, 978367
x29 <- 0xEEDBF000


mem[X,0x800000E4] -> 0x8E93
mem[X,0x800000E6] -> 0xADFE
[62] [M]: 0x800000E4 (0xADFE8E93) addi t4, t4, 2783
x29 <- 0xEEDBEADF


mem[X,0x800000E8] -> 0xFF37
mem[X,0x800000EA] -> 0xF76D
[63] [M]: 0x800000E8 (0xF76DFF37) lui t5, 1013471
x30 <- 0xF76DF000


mem[X,0x800000EC] -> 0x0F13
mem[X,0x800000EE] -> 0x56FF
[64] [M]: 0x800000EC (0x56FF0F13) addi t5, t5, 1391
x30 <- 0xF76DF56F


mem[X,0x800000F0] -> 0x0FB7
mem[X,0x800000F2] -> 0xFBB7
[65] [M]: 0x800000F0 (0xFBB70FB7) lui t6, 1031024
x31 <- 0xFBB70000


mem[X,0x800000F4] -> 0x8F93
mem[X,0x800000F6] -> 0xAB7F
[66] [M]: 0x800000F4 (0xAB7F8F93) addi t6, t6, 2743
x31 <- 0xFBB6FAB7


mem[X,0x800000F8] -> 0x2537
mem[X,0x800000FA] -> 0x0000
[67] [M]: 0x800000F8 (0x00002537) lui a0, 2
x10 <- 0x00002000


mem[X,0x800000FC] -> 0x2073
mem[X,0x800000FE] -> 0x3005
[68] [M]: 0x800000FC (0x30052073) csrrs zero, mstatus, a0
CSR mstatus -> 0x00000000
CSR mstatus <- 0x00000000 (input: 0x00002000)


mem[X,0x80000100] -> 0x5073
mem[X,0x80000102] -> 0x0030
[69] [M]: 0x80000100 (0x00305073) csrrwi zero, fcsr, 0
CSR fcsr -> 0x00000000
CSR fcsr <- 0x00000000 (input: 0x00000000)


mem[X,0x80000104] -> 0x2197
mem[X,0x80000106] -> 0x0000
[70] [M]: 0x80000104 (0x00002197) auipc gp, 2
x3 <- 0x80002104


mem[X,0x80000108] -> 0x8193
mem[X,0x8000010A] -> 0xF0C1
[71] [M]: 0x80000108 (0xF0C18193) addi gp, gp, 3852
x3 <- 0x80002010


mem[X,0x8000010C] -> 0x2097
mem[X,0x8000010E] -> 0x0000
[72] [M]: 0x8000010C (0x00002097) auipc ra, 2
x1 <- 0x8000210C


mem[X,0x80000110] -> 0x8093
mem[X,0x80000112] -> 0x2080
[73] [M]: 0x80000110 (0x20808093) addi ra, ra, 520
x1 <- 0x80002314


mem[X,0x80000114] -> 0xAF03
mem[X,0x80000116] -> 0x0001
[74] [M]: 0x80000114 (0x0001AF03) lw t5, 0(gp)
mem[R,0x80002010] -> 0xFFFF48D5
x30 <- 0xFFFF48D5


mem[X,0x80000118] -> 0xAE83
mem[X,0x8000011A] -> 0x0041
[75] [M]: 0x80000118 (0x0041AE83) lw t4, 4(gp)
mem[R,0x80002014] -> 0xFFFF0000
x29 <- 0xFFFF0000


mem[X,0x8000011C] -> 0x0113
mem[X,0x8000011E] -> 0x0000
[76] [M]: 0x8000011C (0x00000113) addi sp, zero, 0
x2 <- 0x00000000


mem[X,0x80000120] -> 0x1073
mem[X,0x80000122] -> 0x0031
[77] [M]: 0x80000120 (0x00311073) csrrw zero, fcsr, sp
CSR fcsr -> 0x00000000
CSR fcsr <- 0x00000000 (input: 0x00000000)


mem[X,0x80000124] -> 0x7FD3
mem[X,0x80000126] -> 0x0DDF
[78] [M]: 0x80000124 (0x0DDF7FD3) fsub.h t6, t5, t4, dyn
x31 <- 0x000048D5


mem[X,0x80000128] -> 0x2273
mem[X,0x8000012A] -> 0x0030
[79] [M]: 0x80000128 (0x00302273) csrrs tp, fcsr, zero
CSR fcsr -> 0x00000000
x4 <- 0x00000000


mem[X,0x8000012C] -> 0xA023
mem[X,0x8000012E] -> 0x01F0
[80] [M]: 0x8000012C (0x01F0A023) sw t6, 0(ra)
mem[0x80002314] <- 0x000048D5


mem[X,0x80000130] -> 0xA223
mem[X,0x80000132] -> 0x0040
[81] [M]: 0x80000130 (0x0040A223) sw tp, 4(ra)
mem[0x80002318] <- 0x00000000


mem[X,0x80000134] -> 0xAF83
mem[X,0x80000136] -> 0x0081
[82] [M]: 0x80000134 (0x0081AF83) lw t6, 8(gp)
mem[R,0x80002018] -> 0xFFFF48D5
x31 <- 0xFFFF48D5


mem[X,0x80000138] -> 0xAF03
mem[X,0x8000013A] -> 0x00C1
[83] [M]: 0x80000138 (0x00C1AF03) lw t5, 12(gp)
mem[R,0x8000201C] -> 0xFFFF3873
x30 <- 0xFFFF3873


mem[X,0x8000013C] -> 0x0113
mem[X,0x8000013E] -> 0x0000
[84] [M]: 0x8000013C (0x00000113) addi sp, zero, 0
x2 <- 0x00000000


mem[X,0x80000140] -> 0x1073
mem[X,0x80000142] -> 0x0031
[85] [M]: 0x80000140 (0x00311073) csrrw zero, fcsr, sp
CSR fcsr -> 0x00000000
CSR fcsr <- 0x00000000 (input: 0x00000000)


mem[X,0x80000144] -> 0xFF53
mem[X,0x80000146] -> 0x0DEF
[86] [M]: 0x80000144 (0x0DEFFF53) fsub.h t5, t6, t5, dyn
x30 <- 0x0000488E


mem[X,0x80000148] -> 0x2273
mem[X,0x8000014A] -> 0x0030
[87] [M]: 0x80000148 (0x00302273) csrrs tp, fcsr, zero
CSR fcsr -> 0x00000001
x4 <- 0x00000001


mem[X,0x8000014C] -> 0xA423
mem[X,0x8000014E] -> 0x01E0
[88] [M]: 0x8000014C (0x01E0A423) sw t5, 8(ra)
mem[0x8000231C] <- 0x0000488E


mem[X,0x80000150] -> 0xA623
mem[X,0x80000152] -> 0x0040
[89] [M]: 0x80000150 (0x0040A623) sw tp, 12(ra)
mem[0x80002320] <- 0x00000001


mem[X,0x80000154] -> 0xAE83
mem[X,0x80000156] -> 0x0101
[90] [M]: 0x80000154 (0x0101AE83) lw t4, 16(gp)
mem[R,0x80002020] -> 0xFFFF48D5
x29 <- 0xFFFF48D5


mem[X,0x80000158] -> 0xAF83
mem[X,0x8000015A] -> 0x0141
[91] [M]: 0x80000158 (0x0141AF83) lw t6, 20(gp)
mem[R,0x80002024] -> 0xFFFF4590
x31 <- 0xFFFF4590


mem[X,0x8000015C] -> 0x0113
mem[X,0x8000015E] -> 0x0000
[92] [M]: 0x8000015C (0x00000113) addi sp, zero, 0
x2 <- 0x00000000


mem[X,0x80000160] -> 0x1073
mem[X,0x80000162] -> 0x0031
[93] [M]: 0x80000160 (0x00311073) csrrw zero, fcsr, sp
CSR fcsr -> 0x00000001
CSR fcsr <- 0x00000000 (input: 0x00000000)


mem[X,0x80000164] -> 0xFED3
mem[X,0x80000166] -> 0x0DFE
[94] [M]: 0x80000164 (0x0DFEFED3) fsub.h t4, t4, t6, dyn
x29 <- 0x0000441A


mem[X,0x80000168] -> 0x2273
mem[X,0x8000016A] -> 0x0030
[95] [M]: 0x80000168 (0x00302273) csrrs tp, fcsr, zero
CSR fcsr -> 0x00000000
x4 <- 0x00000000


mem[X,0x8000016C] -> 0xA823
mem[X,0x8000016E] -> 0x01D0
[96] [M]: 0x8000016C (0x01D0A823) sw t4, 16(ra)
mem[0x80002324] <- 0x0000441A


mem[X,0x80000170] -> 0xAA23
mem[X,0x80000172] -> 0x0040
[97] [M]: 0x80000170 (0x0040AA23) sw tp, 20(ra)
mem[0x80002328] <- 0x00000000


mem[X,0x80000174] -> 0xAD83
mem[X,0x80000176] -> 0x0181
[98] [M]: 0x80000174 (0x0181AD83) lw s11, 24(gp)
mem[R,0x80002028] -> 0xFFFF48D5
x27 <- 0xFFFF48D5


mem[X,0x80000178] -> 0xAD83
mem[X,0x8000017A] -> 0x01C1
[99] [M]: 0x80000178 (0x01C1AD83) lw s11, 28(gp)
mem[R,0x8000202C] -> 0xFFFF48D5
x27 <- 0xFFFF48D5


clint::tick mtime <- 0x0000000000000001
 clint timer pending at mtime 0x0000000000000001
htif::tick 0x0000000000000000
mem[X,0x8000017C] -> 0x0113
mem[X,0x8000017E] -> 0x0000
[100] [M]: 0x8000017C (0x00000113) addi sp, zero, 0
x2 <- 0x00000000


mem[X,0x80000180] -> 0x1073
mem[X,0x80000182] -> 0x0031
[101] [M]: 0x80000180 (0x00311073) csrrw zero, fcsr, sp
CSR fcsr -> 0x00000000
CSR fcsr <- 0x00000000 (input: 0x00000000)


mem[X,0x80000184] -> 0xFE53
mem[X,0x80000186] -> 0x0DBD
[102] [M]: 0x80000184 (0x0DBDFE53) fsub.h t3, s11, s11, dyn
x28 <- 0x00000000


mem[X,0x80000188] -> 0x2273
mem[X,0x8000018A] -> 0x0030
[103] [M]: 0x80000188 (0x00302273) csrrs tp, fcsr, zero
CSR fcsr -> 0x00000000
x4 <- 0x00000000


mem[X,0x8000018C] -> 0xAC23
mem[X,0x8000018E] -> 0x01C0
[104] [M]: 0x8000018C (0x01C0AC23) sw t3, 24(ra)
mem[0x8000232C] <- 0x00000000


mem[X,0x80000190] -> 0xAE23
mem[X,0x80000192] -> 0x0040
[105] [M]: 0x80000190 (0x0040AE23) sw tp, 28(ra)
mem[0x80002330] <- 0x00000000


mem[X,0x80000194] -> 0xAD03
mem[X,0x80000196] -> 0x0201
[106] [M]: 0x80000194 (0x0201AD03) lw s10, 32(gp)
mem[R,0x80002030] -> 0xFFFF0000
x26 <- 0xFFFF0000


mem[X,0x80000198] -> 0xAD03
mem[X,0x8000019A] -> 0x0241
[107] [M]: 0x80000198 (0x0241AD03) lw s10, 36(gp)
mem[R,0x80002034] -> 0xFFFF0000
x26 <- 0xFFFF0000


mem[X,0x8000019C] -> 0x0113
mem[X,0x8000019E] -> 0x0000
[108] [M]: 0x8000019C (0x00000113) addi sp, zero, 0
x2 <- 0x00000000


mem[X,0x800001A0] -> 0x1073
mem[X,0x800001A2] -> 0x0031
[109] [M]: 0x800001A0 (0x00311073) csrrw zero, fcsr, sp
CSR fcsr -> 0x00000000
CSR fcsr <- 0x00000000 (input: 0x00000000)


mem[X,0x800001A4] -> 0x7D53
mem[X,0x800001A6] -> 0x0DAD
[110] [M]: 0x800001A4 (0x0DAD7D53) fsub.h s10, s10, s10, dyn
x26 <- 0x00000000


mem[X,0x800001A8] -> 0x2273
mem[X,0x800001AA] -> 0x0030
[111] [M]: 0x800001A8 (0x00302273) csrrs tp, fcsr, zero
CSR fcsr -> 0x00000000
x4 <- 0x00000000


mem[X,0x800001AC] -> 0xA023
mem[X,0x800001AE] -> 0x03A0
[112] [M]: 0x800001AC (0x03A0A023) sw s10, 32(ra)
mem[0x80002334] <- 0x00000000


mem[X,0x800001B0] -> 0xA223
mem[X,0x800001B2] -> 0x0240
[113] [M]: 0x800001B0 (0x0240A223) sw tp, 36(ra)
mem[0x80002338] <- 0x00000000


mem[X,0x800001B4] -> 0xAE03
mem[X,0x800001B6] -> 0x0281
[114] [M]: 0x800001B4 (0x0281AE03) lw t3, 40(gp)
mem[R,0x80002038] -> 0xFFFF0000
x28 <- 0xFFFF0000


mem[X,0x800001B8] -> 0xAC83
mem[X,0x800001BA] -> 0x02C1
[115] [M]: 0x800001B8 (0x02C1AC83) lw s9, 44(gp)
mem[R,0x8000203C] -> 0xFFFF0000
x25 <- 0xFFFF0000


mem[X,0x800001BC] -> 0x0113
mem[X,0x800001BE] -> 0x0000
[116] [M]: 0x800001BC (0x00000113) addi sp, zero, 0
x2 <- 0x00000000


mem[X,0x800001C0] -> 0x1073
mem[X,0x800001C2] -> 0x0031
[117] [M]: 0x800001C0 (0x00311073) csrrw zero, fcsr, sp
CSR fcsr -> 0x00000000
CSR fcsr <- 0x00000000 (input: 0x00000000)


mem[X,0x800001C4] -> 0x7DD3
mem[X,0x800001C6] -> 0x0D9E
[118] [M]: 0x800001C4 (0x0D9E7DD3) fsub.h s11, t3, s9, dyn
x27 <- 0x00000000


mem[X,0x800001C8] -> 0x2273
mem[X,0x800001CA] -> 0x0030
[119] [M]: 0x800001C8 (0x00302273) csrrs tp, fcsr, zero
CSR fcsr -> 0x00000000
x4 <- 0x00000000


mem[X,0x800001CC] -> 0xA423
mem[X,0x800001CE] -> 0x03B0
[120] [M]: 0x800001CC (0x03B0A423) sw s11, 40(ra)
mem[0x8000233C] <- 0x00000000


mem[X,0x800001D0] -> 0xA623
mem[X,0x800001D2] -> 0x0240
[121] [M]: 0x800001D0 (0x0240A623) sw tp, 44(ra)
mem[0x80002340] <- 0x00000000


mem[X,0x800001D4] -> 0xAC03
mem[X,0x800001D6] -> 0x0301
[122] [M]: 0x800001D4 (0x0301AC03) lw s8, 48(gp)
mem[R,0x80002040] -> 0xFFFF0000
x24 <- 0xFFFF0000


mem[X,0x800001D8] -> 0xAE03
mem[X,0x800001DA] -> 0x0341
[123] [M]: 0x800001D8 (0x0341AE03) lw t3, 52(gp)
mem[R,0x80002044] -> 0xFFFF0000
x28 <- 0xFFFF0000


mem[X,0x800001DC] -> 0x0113
mem[X,0x800001DE] -> 0x0000
[124] [M]: 0x800001DC (0x00000113) addi sp, zero, 0
x2 <- 0x00000000


mem[X,0x800001E0] -> 0x1073
mem[X,0x800001E2] -> 0x0031
[125] [M]: 0x800001E0 (0x00311073) csrrw zero, fcsr, sp
CSR fcsr -> 0x00000000
CSR fcsr <- 0x00000000 (input: 0x00000000)


mem[X,0x800001E4] -> 0x7CD3
mem[X,0x800001E6] -> 0x0DCC
[126] [M]: 0x800001E4 (0x0DCC7CD3) fsub.h s9, s8, t3, dyn
x25 <- 0x00000000


mem[X,0x800001E8] -> 0x2273
mem[X,0x800001EA] -> 0x0030
[127] [M]: 0x800001E8 (0x00302273) csrrs tp, fcsr, zero
CSR fcsr -> 0x00000000
x4 <- 0x00000000


mem[X,0x800001EC] -> 0xA823
mem[X,0x800001EE] -> 0x0390
[128] [M]: 0x800001EC (0x0390A823) sw s9, 48(ra)
mem[0x80002344] <- 0x00000000


mem[X,0x800001F0] -> 0xAA23
mem[X,0x800001F2] -> 0x0240
[129] [M]: 0x800001F0 (0x0240AA23) sw tp, 52(ra)
mem[0x80002348] <- 0x00000000


mem[X,0x800001F4] -> 0xAC83
mem[X,0x800001F6] -> 0x0381
[130] [M]: 0x800001F4 (0x0381AC83) lw s9, 56(gp)
mem[R,0x80002048] -> 0xFFFF0000
x25 <- 0xFFFF0000


mem[X,0x800001F8] -> 0xAB83
mem[X,0x800001FA] -> 0x03C1
[131] [M]: 0x800001F8 (0x03C1AB83) lw s7, 60(gp)
mem[R,0x8000204C] -> 0xFFFF0000
x23 <- 0xFFFF0000


mem[X,0x800001FC] -> 0x0113
mem[X,0x800001FE] -> 0x0000
[132] [M]: 0x800001FC (0x00000113) addi sp, zero, 0
x2 <- 0x00000000


mem[X,0x80000200] -> 0x1073
mem[X,0x80000202] -> 0x0031
[133] [M]: 0x80000200 (0x00311073) csrrw zero, fcsr, sp
CSR fcsr -> 0x00000000
CSR fcsr <- 0x00000000 (input: 0x00000000)


mem[X,0x80000204] -> 0xFC53
mem[X,0x80000206] -> 0x0D7C
[134] [M]: 0x80000204 (0x0D7CFC53) fsub.h s8, s9, s7, dyn
x24 <- 0x00000000


mem[X,0x80000208] -> 0x2273
mem[X,0x8000020A] -> 0x0030
[135] [M]: 0x80000208 (0x00302273) csrrs tp, fcsr, zero
CSR fcsr -> 0x00000000
x4 <- 0x00000000


mem[X,0x8000020C] -> 0xAC23
mem[X,0x8000020E] -> 0x0380
[136] [M]: 0x8000020C (0x0380AC23) sw s8, 56(ra)
mem[0x8000234C] <- 0x00000000


mem[X,0x80000210] -> 0xAE23
mem[X,0x80000212] -> 0x0240
[137] [M]: 0x80000210 (0x0240AE23) sw tp, 60(ra)
mem[0x80002350] <- 0x00000000


mem[X,0x80000214] -> 0xAB03
mem[X,0x80000216] -> 0x0401
[138] [M]: 0x80000214 (0x0401AB03) lw s6, 64(gp)
mem[R,0x80002050] -> 0xFFFF0000
x22 <- 0xFFFF0000


mem[X,0x80000218] -> 0xAC03
mem[X,0x8000021A] -> 0x0441
[139] [M]: 0x80000218 (0x0441AC03) lw s8, 68(gp)
mem[R,0x80002054] -> 0xFFFF0000
x24 <- 0xFFFF0000


mem[X,0x8000021C] -> 0x0113
mem[X,0x8000021E] -> 0x0000
[140] [M]: 0x8000021C (0x00000113) addi sp, zero, 0
x2 <- 0x00000000


mem[X,0x80000220] -> 0x1073
mem[X,0x80000222] -> 0x0031
[141] [M]: 0x80000220 (0x00311073) csrrw zero, fcsr, sp
CSR fcsr -> 0x00000000
CSR fcsr <- 0x00000000 (input: 0x00000000)


mem[X,0x80000224] -> 0x7BD3
mem[X,0x80000226] -> 0x0D8B
[142] [M]: 0x80000224 (0x0D8B7BD3) fsub.h s7, s6, s8, dyn
x23 <- 0x00000000


mem[X,0x80000228] -> 0x2273
mem[X,0x8000022A] -> 0x0030
[143] [M]: 0x80000228 (0x00302273) csrrs tp, fcsr, zero
CSR fcsr -> 0x00000000
x4 <- 0x00000000


mem[X,0x8000022C] -> 0xA023
mem[X,0x8000022E] -> 0x0570
[144] [M]: 0x8000022C (0x0570A023) sw s7, 64(ra)
mem[0x80002354] <- 0x00000000


mem[X,0x80000230] -> 0xA223
mem[X,0x80000232] -> 0x0440
[145] [M]: 0x80000230 (0x0440A223) sw tp, 68(ra)
mem[0x80002358] <- 0x00000000


mem[X,0x80000234] -> 0xAB83
mem[X,0x80000236] -> 0x0481
[146] [M]: 0x80000234 (0x0481AB83) lw s7, 72(gp)
mem[R,0x80002058] -> 0xFFFF0000
x23 <- 0xFFFF0000


mem[X,0x80000238] -> 0xAA83
mem[X,0x8000023A] -> 0x04C1
[147] [M]: 0x80000238 (0x04C1AA83) lw s5, 76(gp)
mem[R,0x8000205C] -> 0xFFFF0000
x21 <- 0xFFFF0000


mem[X,0x8000023C] -> 0x0113
mem[X,0x8000023E] -> 0x0000
[148] [M]: 0x8000023C (0x00000113) addi sp, zero, 0
x2 <- 0x00000000


mem[X,0x80000240] -> 0x1073
mem[X,0x80000242] -> 0x0031
[149] [M]: 0x80000240 (0x00311073) csrrw zero, fcsr, sp
CSR fcsr -> 0x00000000
CSR fcsr <- 0x00000000 (input: 0x00000000)


mem[X,0x80000244] -> 0xFB53
mem[X,0x80000246] -> 0x0D5B
[150] [M]: 0x80000244 (0x0D5BFB53) fsub.h s6, s7, s5, dyn
x22 <- 0x00000000


mem[X,0x80000248] -> 0x2273
mem[X,0x8000024A] -> 0x0030
[151] [M]: 0x80000248 (0x00302273) csrrs tp, fcsr, zero
CSR fcsr -> 0x00000000
x4 <- 0x00000000


mem[X,0x8000024C] -> 0xA423
mem[X,0x8000024E] -> 0x0560
[152] [M]: 0x8000024C (0x0560A423) sw s6, 72(ra)
mem[0x8000235C] <- 0x00000000


mem[X,0x80000250] -> 0xA623
mem[X,0x80000252] -> 0x0440
[153] [M]: 0x80000250 (0x0440A623) sw tp, 76(ra)
mem[0x80002360] <- 0x00000000


mem[X,0x80000254] -> 0xAA03
mem[X,0x80000256] -> 0x0501
[154] [M]: 0x80000254 (0x0501AA03) lw s4, 80(gp)
mem[R,0x80002060] -> 0xFFFF0000
x20 <- 0xFFFF0000


mem[X,0x80000258] -> 0xAB03
mem[X,0x8000025A] -> 0x0541
[155] [M]: 0x80000258 (0x0541AB03) lw s6, 84(gp)
mem[R,0x80002064] -> 0xFFFF0000
x22 <- 0xFFFF0000


mem[X,0x8000025C] -> 0x0113
mem[X,0x8000025E] -> 0x0000
[156] [M]: 0x8000025C (0x00000113) addi sp, zero, 0
x2 <- 0x00000000


mem[X,0x80000260] -> 0x1073
mem[X,0x80000262] -> 0x0031
[157] [M]: 0x80000260 (0x00311073) csrrw zero, fcsr, sp
CSR fcsr -> 0x00000000
CSR fcsr <- 0x00000000 (input: 0x00000000)


mem[X,0x80000264] -> 0x7AD3
mem[X,0x80000266] -> 0x0D6A
[158] [M]: 0x80000264 (0x0D6A7AD3) fsub.h s5, s4, s6, dyn
x21 <- 0x00000000


mem[X,0x80000268] -> 0x2273
mem[X,0x8000026A] -> 0x0030
[159] [M]: 0x80000268 (0x00302273) csrrs tp, fcsr, zero
CSR fcsr -> 0x00000000
x4 <- 0x00000000


mem[X,0x8000026C] -> 0xA823
mem[X,0x8000026E] -> 0x0550
[160] [M]: 0x8000026C (0x0550A823) sw s5, 80(ra)
mem[0x80002364] <- 0x00000000


mem[X,0x80000270] -> 0xAA23
mem[X,0x80000272] -> 0x0440
[161] [M]: 0x80000270 (0x0440AA23) sw tp, 84(ra)
mem[0x80002368] <- 0x00000000


mem[X,0x80000274] -> 0xAA83
mem[X,0x80000276] -> 0x0581
[162] [M]: 0x80000274 (0x0581AA83) lw s5, 88(gp)
mem[R,0x80002068] -> 0xFFFF0000
x21 <- 0xFFFF0000


mem[X,0x80000278] -> 0xA983
mem[X,0x8000027A] -> 0x05C1
[163] [M]: 0x80000278 (0x05C1A983) lw s3, 92(gp)
mem[R,0x8000206C] -> 0xFFFF0000
x19 <- 0xFFFF0000


mem[X,0x8000027C] -> 0x0113
mem[X,0x8000027E] -> 0x0000
[164] [M]: 0x8000027C (0x00000113) addi sp, zero, 0
x2 <- 0x00000000


mem[X,0x80000280] -> 0x1073
mem[X,0x80000282] -> 0x0031
[165] [M]: 0x80000280 (0x00311073) csrrw zero, fcsr, sp
CSR fcsr -> 0x00000000
CSR fcsr <- 0x00000000 (input: 0x00000000)


mem[X,0x80000284] -> 0xFA53
mem[X,0x80000286] -> 0x0D3A
[166] [M]: 0x80000284 (0x0D3AFA53) fsub.h s4, s5, s3, dyn
x20 <- 0x00000000


mem[X,0x80000288] -> 0x2273
mem[X,0x8000028A] -> 0x0030
[167] [M]: 0x80000288 (0x00302273) csrrs tp, fcsr, zero
CSR fcsr -> 0x00000000
x4 <- 0x00000000


mem[X,0x8000028C] -> 0xAC23
mem[X,0x8000028E] -> 0x0540
[168] [M]: 0x8000028C (0x0540AC23) sw s4, 88(ra)
mem[0x8000236C] <- 0x00000000


mem[X,0x80000290] -> 0xAE23
mem[X,0x80000292] -> 0x0440
[169] [M]: 0x80000290 (0x0440AE23) sw tp, 92(ra)
mem[0x80002370] <- 0x00000000


mem[X,0x80000294] -> 0xA903
mem[X,0x80000296] -> 0x0601
[170] [M]: 0x80000294 (0x0601A903) lw s2, 96(gp)
mem[R,0x80002070] -> 0xFFFF0000
x18 <- 0xFFFF0000


mem[X,0x80000298] -> 0xAA03
mem[X,0x8000029A] -> 0x0641
[171] [M]: 0x80000298 (0x0641AA03) lw s4, 100(gp)
mem[R,0x80002074] -> 0xFFFF0000
x20 <- 0xFFFF0000


mem[X,0x8000029C] -> 0x0113
mem[X,0x8000029E] -> 0x0000
[172] [M]: 0x8000029C (0x00000113) addi sp, zero, 0
x2 <- 0x00000000


mem[X,0x800002A0] -> 0x1073
mem[X,0x800002A2] -> 0x0031
[173] [M]: 0x800002A0 (0x00311073) csrrw zero, fcsr, sp
CSR fcsr -> 0x00000000
CSR fcsr <- 0x00000000 (input: 0x00000000)


mem[X,0x800002A4] -> 0x79D3
mem[X,0x800002A6] -> 0x0D49
[174] [M]: 0x800002A4 (0x0D4979D3) fsub.h s3, s2, s4, dyn
x19 <- 0x00000000


mem[X,0x800002A8] -> 0x2273
mem[X,0x800002AA] -> 0x0030
[175] [M]: 0x800002A8 (0x00302273) csrrs tp, fcsr, zero
CSR fcsr -> 0x00000000
x4 <- 0x00000000


mem[X,0x800002AC] -> 0xA023
mem[X,0x800002AE] -> 0x0730
[176] [M]: 0x800002AC (0x0730A023) sw s3, 96(ra)
mem[0x80002374] <- 0x00000000


mem[X,0x800002B0] -> 0xA223
mem[X,0x800002B2] -> 0x0640
[177] [M]: 0x800002B0 (0x0640A223) sw tp, 100(ra)
mem[0x80002378] <- 0x00000000


mem[X,0x800002B4] -> 0xA983
mem[X,0x800002B6] -> 0x0681
[178] [M]: 0x800002B4 (0x0681A983) lw s3, 104(gp)
mem[R,0x80002078] -> 0xFFFF0000
x19 <- 0xFFFF0000


mem[X,0x800002B8] -> 0xA883
mem[X,0x800002BA] -> 0x06C1
[179] [M]: 0x800002B8 (0x06C1A883) lw a7, 108(gp)
mem[R,0x8000207C] -> 0xFFFF0000
x17 <- 0xFFFF0000


mem[X,0x800002BC] -> 0x0113
mem[X,0x800002BE] -> 0x0000
[180] [M]: 0x800002BC (0x00000113) addi sp, zero, 0
x2 <- 0x00000000


mem[X,0x800002C0] -> 0x1073
mem[X,0x800002C2] -> 0x0031
[181] [M]: 0x800002C0 (0x00311073) csrrw zero, fcsr, sp
CSR fcsr -> 0x00000000
CSR fcsr <- 0x00000000 (input: 0x00000000)


mem[X,0x800002C4] -> 0xF953
mem[X,0x800002C6] -> 0x0D19
[182] [M]: 0x800002C4 (0x0D19F953) fsub.h s2, s3, a7, dyn
x18 <- 0x00000000


mem[X,0x800002C8] -> 0x2273
mem[X,0x800002CA] -> 0x0030
[183] [M]: 0x800002C8 (0x00302273) csrrs tp, fcsr, zero
CSR fcsr -> 0x00000000
x4 <- 0x00000000


mem[X,0x800002CC] -> 0xA423
mem[X,0x800002CE] -> 0x0720
[184] [M]: 0x800002CC (0x0720A423) sw s2, 104(ra)
mem[0x8000237C] <- 0x00000000


mem[X,0x800002D0] -> 0xA623
mem[X,0x800002D2] -> 0x0640
[185] [M]: 0x800002D0 (0x0640A623) sw tp, 108(ra)
mem[0x80002380] <- 0x00000000


mem[X,0x800002D4] -> 0xA803
mem[X,0x800002D6] -> 0x0701
[186] [M]: 0x800002D4 (0x0701A803) lw a6, 112(gp)
mem[R,0x80002080] -> 0xFFFF0000
x16 <- 0xFFFF0000


mem[X,0x800002D8] -> 0xA903
mem[X,0x800002DA] -> 0x0741
[187] [M]: 0x800002D8 (0x0741A903) lw s2, 116(gp)
mem[R,0x80002084] -> 0xFFFF0000
x18 <- 0xFFFF0000


mem[X,0x800002DC] -> 0x0113
mem[X,0x800002DE] -> 0x0000
[188] [M]: 0x800002DC (0x00000113) addi sp, zero, 0
x2 <- 0x00000000


mem[X,0x800002E0] -> 0x1073
mem[X,0x800002E2] -> 0x0031
[189] [M]: 0x800002E0 (0x00311073) csrrw zero, fcsr, sp
CSR fcsr -> 0x00000000
CSR fcsr <- 0x00000000 (input: 0x00000000)


mem[X,0x800002E4] -> 0x78D3
mem[X,0x800002E6] -> 0x0D28
[190] [M]: 0x800002E4 (0x0D2878D3) fsub.h a7, a6, s2, dyn
x17 <- 0x00000000


mem[X,0x800002E8] -> 0x2273
mem[X,0x800002EA] -> 0x0030
[191] [M]: 0x800002E8 (0x00302273) csrrs tp, fcsr, zero
CSR fcsr -> 0x00000000
x4 <- 0x00000000


mem[X,0x800002EC] -> 0xA823
mem[X,0x800002EE] -> 0x0710
[192] [M]: 0x800002EC (0x0710A823) sw a7, 112(ra)
mem[0x80002384] <- 0x00000000


mem[X,0x800002F0] -> 0xAA23
mem[X,0x800002F2] -> 0x0640
[193] [M]: 0x800002F0 (0x0640AA23) sw tp, 116(ra)
mem[0x80002388] <- 0x00000000


mem[X,0x800002F4] -> 0xA883
mem[X,0x800002F6] -> 0x0781
[194] [M]: 0x800002F4 (0x0781A883) lw a7, 120(gp)
mem[R,0x80002088] -> 0xFFFF0000
x17 <- 0xFFFF0000


mem[X,0x800002F8] -> 0xA783
mem[X,0x800002FA] -> 0x07C1
[195] [M]: 0x800002F8 (0x07C1A783) lw a5, 124(gp)
mem[R,0x8000208C] -> 0xFFFF0000
x15 <- 0xFFFF0000


mem[X,0x800002FC] -> 0x0113
mem[X,0x800002FE] -> 0x0000
[196] [M]: 0x800002FC (0x00000113) addi sp, zero, 0
x2 <- 0x00000000


mem[X,0x80000300] -> 0x1073
mem[X,0x80000302] -> 0x0031
[197] [M]: 0x80000300 (0x00311073) csrrw zero, fcsr, sp
CSR fcsr -> 0x00000000
CSR fcsr <- 0x00000000 (input: 0x00000000)


mem[X,0x80000304] -> 0xF853
mem[X,0x80000306] -> 0x0CF8
[198] [M]: 0x80000304 (0x0CF8F853) fsub.h a6, a7, a5, dyn
x16 <- 0x00000000


mem[X,0x80000308] -> 0x2273
mem[X,0x8000030A] -> 0x0030
[199] [M]: 0x80000308 (0x00302273) csrrs tp, fcsr, zero
CSR fcsr -> 0x00000000
x4 <- 0x00000000


clint::tick mtime <- 0x0000000000000002
 clint timer pending at mtime 0x0000000000000002
htif::tick 0x0000000000000000
mem[X,0x8000030C] -> 0xAC23
mem[X,0x8000030E] -> 0x0700
[200] [M]: 0x8000030C (0x0700AC23) sw a6, 120(ra)
mem[0x8000238C] <- 0x00000000


mem[X,0x80000310] -> 0xAE23
mem[X,0x80000312] -> 0x0640
[201] [M]: 0x80000310 (0x0640AE23) sw tp, 124(ra)
mem[0x80002390] <- 0x00000000


mem[X,0x80000314] -> 0xA703
mem[X,0x80000316] -> 0x0801
[202] [M]: 0x80000314 (0x0801A703) lw a4, 128(gp)
mem[R,0x80002090] -> 0xFFFF0000
x14 <- 0xFFFF0000


mem[X,0x80000318] -> 0xA803
mem[X,0x8000031A] -> 0x0841
[203] [M]: 0x80000318 (0x0841A803) lw a6, 132(gp)
mem[R,0x80002094] -> 0xFFFF0000
x16 <- 0xFFFF0000


mem[X,0x8000031C] -> 0x0113
mem[X,0x8000031E] -> 0x0000
[204] [M]: 0x8000031C (0x00000113) addi sp, zero, 0
x2 <- 0x00000000


mem[X,0x80000320] -> 0x1073
mem[X,0x80000322] -> 0x0031
[205] [M]: 0x80000320 (0x00311073) csrrw zero, fcsr, sp
CSR fcsr -> 0x00000000
CSR fcsr <- 0x00000000 (input: 0x00000000)


mem[X,0x80000324] -> 0x77D3
mem[X,0x80000326] -> 0x0D07
[206] [M]: 0x80000324 (0x0D0777D3) fsub.h a5, a4, a6, dyn
x15 <- 0x00000000


mem[X,0x80000328] -> 0x2273
mem[X,0x8000032A] -> 0x0030
[207] [M]: 0x80000328 (0x00302273) csrrs tp, fcsr, zero
CSR fcsr -> 0x00000000
x4 <- 0x00000000


mem[X,0x8000032C] -> 0xA023
mem[X,0x8000032E] -> 0x08F0
[208] [M]: 0x8000032C (0x08F0A023) sw a5, 128(ra)
mem[0x80002394] <- 0x00000000


mem[X,0x80000330] -> 0xA223
mem[X,0x80000332] -> 0x0840
[209] [M]: 0x80000330 (0x0840A223) sw tp, 132(ra)
mem[0x80002398] <- 0x00000000


mem[X,0x80000334] -> 0xA783
mem[X,0x80000336] -> 0x0881
[210] [M]: 0x80000334 (0x0881A783) lw a5, 136(gp)
mem[R,0x80002098] -> 0xFFFF0000
x15 <- 0xFFFF0000


mem[X,0x80000338] -> 0xA683
mem[X,0x8000033A] -> 0x08C1
[211] [M]: 0x80000338 (0x08C1A683) lw a3, 140(gp)
mem[R,0x8000209C] -> 0xFFFF0000
x13 <- 0xFFFF0000


mem[X,0x8000033C] -> 0x0113
mem[X,0x8000033E] -> 0x0000
[212] [M]: 0x8000033C (0x00000113) addi sp, zero, 0
x2 <- 0x00000000


mem[X,0x80000340] -> 0x1073
mem[X,0x80000342] -> 0x0031
[213] [M]: 0x80000340 (0x00311073) csrrw zero, fcsr, sp
CSR fcsr -> 0x00000000
CSR fcsr <- 0x00000000 (input: 0x00000000)


mem[X,0x80000344] -> 0xF753
mem[X,0x80000346] -> 0x0CD7
[214] [M]: 0x80000344 (0x0CD7F753) fsub.h a4, a5, a3, dyn
x14 <- 0x00000000


mem[X,0x80000348] -> 0x2273
mem[X,0x8000034A] -> 0x0030
[215] [M]: 0x80000348 (0x00302273) csrrs tp, fcsr, zero
CSR fcsr -> 0x00000000
x4 <- 0x00000000


mem[X,0x8000034C] -> 0xA423
mem[X,0x8000034E] -> 0x08E0
[216] [M]: 0x8000034C (0x08E0A423) sw a4, 136(ra)
mem[0x8000239C] <- 0x00000000


mem[X,0x80000350] -> 0xA623
mem[X,0x80000352] -> 0x0840
[217] [M]: 0x80000350 (0x0840A623) sw tp, 140(ra)
mem[0x800023A0] <- 0x00000000


mem[X,0x80000354] -> 0xA603
mem[X,0x80000356] -> 0x0901
[218] [M]: 0x80000354 (0x0901A603) lw a2, 144(gp)
mem[R,0x800020A0] -> 0xFFFF0000
x12 <- 0xFFFF0000


mem[X,0x80000358] -> 0xA703
mem[X,0x8000035A] -> 0x0941
[219] [M]: 0x80000358 (0x0941A703) lw a4, 148(gp)
mem[R,0x800020A4] -> 0xFFFF0000
x14 <- 0xFFFF0000


mem[X,0x8000035C] -> 0x0113
mem[X,0x8000035E] -> 0x0000
[220] [M]: 0x8000035C (0x00000113) addi sp, zero, 0
x2 <- 0x00000000


mem[X,0x80000360] -> 0x1073
mem[X,0x80000362] -> 0x0031
[221] [M]: 0x80000360 (0x00311073) csrrw zero, fcsr, sp
CSR fcsr -> 0x00000000
CSR fcsr <- 0x00000000 (input: 0x00000000)


mem[X,0x80000364] -> 0x76D3
mem[X,0x80000366] -> 0x0CE6
[222] [M]: 0x80000364 (0x0CE676D3) fsub.h a3, a2, a4, dyn
x13 <- 0x00000000


mem[X,0x80000368] -> 0x2273
mem[X,0x8000036A] -> 0x0030
[223] [M]: 0x80000368 (0x00302273) csrrs tp, fcsr, zero
CSR fcsr -> 0x00000000
x4 <- 0x00000000


mem[X,0x8000036C] -> 0xA823
mem[X,0x8000036E] -> 0x08D0
[224] [M]: 0x8000036C (0x08D0A823) sw a3, 144(ra)
mem[0x800023A4] <- 0x00000000


mem[X,0x80000370] -> 0xAA23
mem[X,0x80000372] -> 0x0840
[225] [M]: 0x80000370 (0x0840AA23) sw tp, 148(ra)
mem[0x800023A8] <- 0x00000000


mem[X,0x80000374] -> 0xA683
mem[X,0x80000376] -> 0x0981
[226] [M]: 0x80000374 (0x0981A683) lw a3, 152(gp)
mem[R,0x800020A8] -> 0xFFFF0000
x13 <- 0xFFFF0000


mem[X,0x80000378] -> 0xA583
mem[X,0x8000037A] -> 0x09C1
[227] [M]: 0x80000378 (0x09C1A583) lw a1, 156(gp)
mem[R,0x800020AC] -> 0xFFFF0000
x11 <- 0xFFFF0000


mem[X,0x8000037C] -> 0x0113
mem[X,0x8000037E] -> 0x0000
[228] [M]: 0x8000037C (0x00000113) addi sp, zero, 0
x2 <- 0x00000000


mem[X,0x80000380] -> 0x1073
mem[X,0x80000382] -> 0x0031
[229] [M]: 0x80000380 (0x00311073) csrrw zero, fcsr, sp
CSR fcsr -> 0x00000000
CSR fcsr <- 0x00000000 (input: 0x00000000)


mem[X,0x80000384] -> 0xF653
mem[X,0x80000386] -> 0x0CB6
[230] [M]: 0x80000384 (0x0CB6F653) fsub.h a2, a3, a1, dyn
x12 <- 0x00000000


mem[X,0x80000388] -> 0x2273
mem[X,0x8000038A] -> 0x0030
[231] [M]: 0x80000388 (0x00302273) csrrs tp, fcsr, zero
CSR fcsr -> 0x00000000
x4 <- 0x00000000


mem[X,0x8000038C] -> 0xAC23
mem[X,0x8000038E] -> 0x08C0
[232] [M]: 0x8000038C (0x08C0AC23) sw a2, 152(ra)
mem[0x800023AC] <- 0x00000000


mem[X,0x80000390] -> 0xAE23
mem[X,0x80000392] -> 0x0840
[233] [M]: 0x80000390 (0x0840AE23) sw tp, 156(ra)
mem[0x800023B0] <- 0x00000000


mem[X,0x80000394] -> 0xA503
mem[X,0x80000396] -> 0x0A01
[234] [M]: 0x80000394 (0x0A01A503) lw a0, 160(gp)
mem[R,0x800020B0] -> 0xFFFF0000
x10 <- 0xFFFF0000


mem[X,0x80000398] -> 0xA603
mem[X,0x8000039A] -> 0x0A41
[235] [M]: 0x80000398 (0x0A41A603) lw a2, 164(gp)
mem[R,0x800020B4] -> 0xFFFF0000
x12 <- 0xFFFF0000


mem[X,0x8000039C] -> 0x0113
mem[X,0x8000039E] -> 0x0000
[236] [M]: 0x8000039C (0x00000113) addi sp, zero, 0
x2 <- 0x00000000


mem[X,0x800003A0] -> 0x1073
mem[X,0x800003A2] -> 0x0031
[237] [M]: 0x800003A0 (0x00311073) csrrw zero, fcsr, sp
CSR fcsr -> 0x00000000
CSR fcsr <- 0x00000000 (input: 0x00000000)


mem[X,0x800003A4] -> 0x75D3
mem[X,0x800003A6] -> 0x0CC5
[238] [M]: 0x800003A4 (0x0CC575D3) fsub.h a1, a0, a2, dyn
x11 <- 0x00000000


mem[X,0x800003A8] -> 0x2273
mem[X,0x800003AA] -> 0x0030
[239] [M]: 0x800003A8 (0x00302273) csrrs tp, fcsr, zero
CSR fcsr -> 0x00000000
x4 <- 0x00000000


mem[X,0x800003AC] -> 0xA023
mem[X,0x800003AE] -> 0x0AB0
[240] [M]: 0x800003AC (0x0AB0A023) sw a1, 160(ra)
mem[0x800023B4] <- 0x00000000


mem[X,0x800003B0] -> 0xA223
mem[X,0x800003B2] -> 0x0A40
[241] [M]: 0x800003B0 (0x0A40A223) sw tp, 164(ra)
mem[0x800023B8] <- 0x00000000


mem[X,0x800003B4] -> 0xA583
mem[X,0x800003B6] -> 0x0A81
[242] [M]: 0x800003B4 (0x0A81A583) lw a1, 168(gp)
mem[R,0x800020B8] -> 0xFFFF0000
x11 <- 0xFFFF0000


mem[X,0x800003B8] -> 0xA483
mem[X,0x800003BA] -> 0x0AC1
[243] [M]: 0x800003B8 (0x0AC1A483) lw s1, 172(gp)
mem[R,0x800020BC] -> 0xFFFF0000
x9 <- 0xFFFF0000


mem[X,0x800003BC] -> 0x0113
mem[X,0x800003BE] -> 0x0000
[244] [M]: 0x800003BC (0x00000113) addi sp, zero, 0
x2 <- 0x00000000


mem[X,0x800003C0] -> 0x1073
mem[X,0x800003C2] -> 0x0031
[245] [M]: 0x800003C0 (0x00311073) csrrw zero, fcsr, sp
CSR fcsr -> 0x00000000
CSR fcsr <- 0x00000000 (input: 0x00000000)


mem[X,0x800003C4] -> 0xF553
mem[X,0x800003C6] -> 0x0C95
[246] [M]: 0x800003C4 (0x0C95F553) fsub.h a0, a1, s1, dyn
x10 <- 0x00000000


mem[X,0x800003C8] -> 0x2273
mem[X,0x800003CA] -> 0x0030
[247] [M]: 0x800003C8 (0x00302273) csrrs tp, fcsr, zero
CSR fcsr -> 0x00000000
x4 <- 0x00000000


mem[X,0x800003CC] -> 0xA423
mem[X,0x800003CE] -> 0x0AA0
[248] [M]: 0x800003CC (0x0AA0A423) sw a0, 168(ra)
mem[0x800023BC] <- 0x00000000


mem[X,0x800003D0] -> 0xA623
mem[X,0x800003D2] -> 0x0A40
[249] [M]: 0x800003D0 (0x0A40A623) sw tp, 172(ra)
mem[0x800023C0] <- 0x00000000


mem[X,0x800003D4] -> 0x2597
mem[X,0x800003D6] -> 0x0000
[250] [M]: 0x800003D4 (0x00002597) auipc a1, 2
x11 <- 0x800023D4


mem[X,0x800003D8] -> 0x8593
mem[X,0x800003DA] -> 0xCEC5
[251] [M]: 0x800003D8 (0xCEC58593) addi a1, a1, 3308
x11 <- 0x800020C0


mem[X,0x800003DC] -> 0xA403
mem[X,0x800003DE] -> 0x0005
[252] [M]: 0x800003DC (0x0005A403) lw fp, 0(a1)
mem[R,0x800020C0] -> 0x00000000
x8 <- 0x00000000


mem[X,0x800003E0] -> 0xA503
mem[X,0x800003E2] -> 0x0045
[253] [M]: 0x800003E0 (0x0045A503) lw a0, 4(a1)
mem[R,0x800020C4] -> 0x00000000
x10 <- 0x00000000


mem[X,0x800003E4] -> 0x0113
mem[X,0x800003E6] -> 0x0000
[254] [M]: 0x800003E4 (0x00000113) addi sp, zero, 0
x2 <- 0x00000000


mem[X,0x800003E8] -> 0x1073
mem[X,0x800003EA] -> 0x0031
[255] [M]: 0x800003E8 (0x00311073) csrrw zero, fcsr, sp
CSR fcsr -> 0x00000000
CSR fcsr <- 0x00000000 (input: 0x00000000)


mem[X,0x800003EC] -> 0x74D3
mem[X,0x800003EE] -> 0x0CA4
[256] [M]: 0x800003EC (0x0CA474D3) fsub.h s1, fp, a0, dyn
x9 <- 0x00000000


mem[X,0x800003F0] -> 0x2673
mem[X,0x800003F2] -> 0x0030
[257] [M]: 0x800003F0 (0x00302673) csrrs a2, fcsr, zero
CSR fcsr -> 0x00000000
x12 <- 0x00000000


mem[X,0x800003F4] -> 0xA823
mem[X,0x800003F6] -> 0x0A90
[258] [M]: 0x800003F4 (0x0A90A823) sw s1, 176(ra)
mem[0x800023C4] <- 0x00000000


mem[X,0x800003F8] -> 0xAA23
mem[X,0x800003FA] -> 0x0AC0
[259] [M]: 0x800003F8 (0x0AC0AA23) sw a2, 180(ra)
mem[0x800023C8] <- 0x00000000


mem[X,0x800003FC] -> 0xA483
mem[X,0x800003FE] -> 0x0085
[260] [M]: 0x800003FC (0x0085A483) lw s1, 8(a1)
mem[R,0x800020C8] -> 0x00000000
x9 <- 0x00000000


mem[X,0x80000400] -> 0xA383
mem[X,0x80000402] -> 0x00C5
[261] [M]: 0x80000400 (0x00C5A383) lw t2, 12(a1)
mem[R,0x800020CC] -> 0x00000000
x7 <- 0x00000000


mem[X,0x80000404] -> 0x0113
mem[X,0x80000406] -> 0x0000
[262] [M]: 0x80000404 (0x00000113) addi sp, zero, 0
x2 <- 0x00000000


mem[X,0x80000408] -> 0x1073
mem[X,0x8000040A] -> 0x0031
[263] [M]: 0x80000408 (0x00311073) csrrw zero, fcsr, sp
CSR fcsr -> 0x00000000
CSR fcsr <- 0x00000000 (input: 0x00000000)


mem[X,0x8000040C] -> 0xF453
mem[X,0x8000040E] -> 0x0C74
[264] [M]: 0x8000040C (0x0C74F453) fsub.h fp, s1, t2, dyn
x8 <- 0x00000000


mem[X,0x80000410] -> 0x2673
mem[X,0x80000412] -> 0x0030
[265] [M]: 0x80000410 (0x00302673) csrrs a2, fcsr, zero
CSR fcsr -> 0x00000000
x12 <- 0x00000000


mem[X,0x80000414] -> 0xAC23
mem[X,0x80000416] -> 0x0A80
[266] [M]: 0x80000414 (0x0A80AC23) sw fp, 184(ra)
mem[0x800023CC] <- 0x00000000


mem[X,0x80000418] -> 0xAE23
mem[X,0x8000041A] -> 0x0AC0
[267] [M]: 0x80000418 (0x0AC0AE23) sw a2, 188(ra)
mem[0x800023D0] <- 0x00000000


mem[X,0x8000041C] -> 0xA303
mem[X,0x8000041E] -> 0x0105
[268] [M]: 0x8000041C (0x0105A303) lw t1, 16(a1)
mem[R,0x800020D0] -> 0x00000000
x6 <- 0x00000000


mem[X,0x80000420] -> 0xA403
mem[X,0x80000422] -> 0x0145
[269] [M]: 0x80000420 (0x0145A403) lw fp, 20(a1)
mem[R,0x800020D4] -> 0x00000000
x8 <- 0x00000000


mem[X,0x80000424] -> 0x0493
mem[X,0x80000426] -> 0x0000
[270] [M]: 0x80000424 (0x00000493) addi s1, zero, 0
x9 <- 0x00000000


mem[X,0x80000428] -> 0x9073
mem[X,0x8000042A] -> 0x0034
[271] [M]: 0x80000428 (0x00349073) csrrw zero, fcsr, s1
CSR fcsr -> 0x00000000
CSR fcsr <- 0x00000000 (input: 0x00000000)


mem[X,0x8000042C] -> 0x73D3
mem[X,0x8000042E] -> 0x0C83
[272] [M]: 0x8000042C (0x0C8373D3) fsub.h t2, t1, fp, dyn
x7 <- 0x00000000


mem[X,0x80000430] -> 0x2673
mem[X,0x80000432] -> 0x0030
[273] [M]: 0x80000430 (0x00302673) csrrs a2, fcsr, zero
CSR fcsr -> 0x00000000
x12 <- 0x00000000


mem[X,0x80000434] -> 0xA023
mem[X,0x80000436] -> 0x0C70
[274] [M]: 0x80000434 (0x0C70A023) sw t2, 192(ra)
mem[0x800023D4] <- 0x00000000


mem[X,0x80000438] -> 0xA223
mem[X,0x8000043A] -> 0x0CC0
[275] [M]: 0x80000438 (0x0CC0A223) sw a2, 196(ra)
mem[0x800023D8] <- 0x00000000


mem[X,0x8000043C] -> 0x2417
mem[X,0x8000043E] -> 0x0000
[276] [M]: 0x8000043C (0x00002417) auipc fp, 2
x8 <- 0x8000243C


mem[X,0x80000440] -> 0x0413
mem[X,0x80000442] -> 0xFA04
[277] [M]: 0x80000440 (0xFA040413) addi fp, fp, 4000
x8 <- 0x800023DC


mem[X,0x80000444] -> 0xA383
mem[X,0x80000446] -> 0x0185
[278] [M]: 0x80000444 (0x0185A383) lw t2, 24(a1)
mem[R,0x800020D8] -> 0x00000000
x7 <- 0x00000000


mem[X,0x80000448] -> 0xA283
mem[X,0x8000044A] -> 0x01C5
[279] [M]: 0x80000448 (0x01C5A283) lw t0, 28(a1)
mem[R,0x800020DC] -> 0x00000000
x5 <- 0x00000000


mem[X,0x8000044C] -> 0x0493
mem[X,0x8000044E] -> 0x0000
[280] [M]: 0x8000044C (0x00000493) addi s1, zero, 0
x9 <- 0x00000000


mem[X,0x80000450] -> 0x9073
mem[X,0x80000452] -> 0x0034
[281] [M]: 0x80000450 (0x00349073) csrrw zero, fcsr, s1
CSR fcsr -> 0x00000000
CSR fcsr <- 0x00000000 (input: 0x00000000)


mem[X,0x80000454] -> 0xF353
mem[X,0x80000456] -> 0x0C53
[282] [M]: 0x80000454 (0x0C53F353) fsub.h t1, t2, t0, dyn
x6 <- 0x00000000


mem[X,0x80000458] -> 0x2673
mem[X,0x8000045A] -> 0x0030
[283] [M]: 0x80000458 (0x00302673) csrrs a2, fcsr, zero
CSR fcsr -> 0x00000000
x12 <- 0x00000000


mem[X,0x8000045C] -> 0x2023
mem[X,0x8000045E] -> 0x0064
[284] [M]: 0x8000045C (0x00642023) sw t1, 0(fp)
mem[0x800023DC] <- 0x00000000


mem[X,0x80000460] -> 0x2223
mem[X,0x80000462] -> 0x00C4
[285] [M]: 0x80000460 (0x00C42223) sw a2, 4(fp)
mem[0x800023E0] <- 0x00000000


mem[X,0x80000464] -> 0xA203
mem[X,0x80000466] -> 0x0205
[286] [M]: 0x80000464 (0x0205A203) lw tp, 32(a1)
mem[R,0x800020E0] -> 0x00000000
x4 <- 0x00000000


mem[X,0x80000468] -> 0xA303
mem[X,0x8000046A] -> 0x0245
[287] [M]: 0x80000468 (0x0245A303) lw t1, 36(a1)
mem[R,0x800020E4] -> 0x00000000
x6 <- 0x00000000


mem[X,0x8000046C] -> 0x0493
mem[X,0x8000046E] -> 0x0000
[288] [M]: 0x8000046C (0x00000493) addi s1, zero, 0
x9 <- 0x00000000


mem[X,0x80000470] -> 0x9073
mem[X,0x80000472] -> 0x0034
[289] [M]: 0x80000470 (0x00349073) csrrw zero, fcsr, s1
CSR fcsr -> 0x00000000
CSR fcsr <- 0x00000000 (input: 0x00000000)


mem[X,0x80000474] -> 0x72D3
mem[X,0x80000476] -> 0x0C62
[290] [M]: 0x80000474 (0x0C6272D3) fsub.h t0, tp, t1, dyn
x5 <- 0x00000000


mem[X,0x80000478] -> 0x2673
mem[X,0x8000047A] -> 0x0030
[291] [M]: 0x80000478 (0x00302673) csrrs a2, fcsr, zero
CSR fcsr -> 0x00000000
x12 <- 0x00000000


mem[X,0x8000047C] -> 0x2423
mem[X,0x8000047E] -> 0x0054
[292] [M]: 0x8000047C (0x00542423) sw t0, 8(fp)
mem[0x800023E4] <- 0x00000000


mem[X,0x80000480] -> 0x2623
mem[X,0x80000482] -> 0x00C4
[293] [M]: 0x80000480 (0x00C42623) sw a2, 12(fp)
mem[0x800023E8] <- 0x00000000


mem[X,0x80000484] -> 0xA283
mem[X,0x80000486] -> 0x0285
[294] [M]: 0x80000484 (0x0285A283) lw t0, 40(a1)
mem[R,0x800020E8] -> 0x00000000
x5 <- 0x00000000


mem[X,0x80000488] -> 0xA183
mem[X,0x8000048A] -> 0x02C5
[295] [M]: 0x80000488 (0x02C5A183) lw gp, 44(a1)
mem[R,0x800020EC] -> 0x00000000
x3 <- 0x00000000


mem[X,0x8000048C] -> 0x0493
mem[X,0x8000048E] -> 0x0000
[296] [M]: 0x8000048C (0x00000493) addi s1, zero, 0
x9 <- 0x00000000


mem[X,0x80000490] -> 0x9073
mem[X,0x80000492] -> 0x0034
[297] [M]: 0x80000490 (0x00349073) csrrw zero, fcsr, s1
CSR fcsr -> 0x00000000
CSR fcsr <- 0x00000000 (input: 0x00000000)


mem[X,0x80000494] -> 0xF253
mem[X,0x80000496] -> 0x0C32
[298] [M]: 0x80000494 (0x0C32F253) fsub.h tp, t0, gp, dyn
x4 <- 0x00000000


mem[X,0x80000498] -> 0x2673
mem[X,0x8000049A] -> 0x0030
[299] [M]: 0x80000498 (0x00302673) csrrs a2, fcsr, zero
CSR fcsr -> 0x00000000
x12 <- 0x00000000


clint::tick mtime <- 0x0000000000000003
 clint timer pending at mtime 0x0000000000000003
htif::tick 0x0000000000000000
mem[X,0x8000049C] -> 0x2823
mem[X,0x8000049E] -> 0x0044
[300] [M]: 0x8000049C (0x00442823) sw tp, 16(fp)
mem[0x800023EC] <- 0x00000000


mem[X,0x800004A0] -> 0x2A23
mem[X,0x800004A2] -> 0x00C4
[301] [M]: 0x800004A0 (0x00C42A23) sw a2, 20(fp)
mem[0x800023F0] <- 0x00000000


mem[X,0x800004A4] -> 0xA103
mem[X,0x800004A6] -> 0x0305
[302] [M]: 0x800004A4 (0x0305A103) lw sp, 48(a1)
mem[R,0x800020F0] -> 0x00000000
x2 <- 0x00000000


mem[X,0x800004A8] -> 0xA203
mem[X,0x800004AA] -> 0x0345
[303] [M]: 0x800004A8 (0x0345A203) lw tp, 52(a1)
mem[R,0x800020F4] -> 0x00000000
x4 <- 0x00000000


mem[X,0x800004AC] -> 0x0493
mem[X,0x800004AE] -> 0x0000
[304] [M]: 0x800004AC (0x00000493) addi s1, zero, 0
x9 <- 0x00000000


mem[X,0x800004B0] -> 0x9073
mem[X,0x800004B2] -> 0x0034
[305] [M]: 0x800004B0 (0x00349073) csrrw zero, fcsr, s1
CSR fcsr -> 0x00000000
CSR fcsr <- 0x00000000 (input: 0x00000000)


mem[X,0x800004B4] -> 0x71D3
mem[X,0x800004B6] -> 0x0C41
[306] [M]: 0x800004B4 (0x0C4171D3) fsub.h gp, sp, tp, dyn
x3 <- 0x00000000


mem[X,0x800004B8] -> 0x2673
mem[X,0x800004BA] -> 0x0030
[307] [M]: 0x800004B8 (0x00302673) csrrs a2, fcsr, zero
CSR fcsr -> 0x00000000
x12 <- 0x00000000


mem[X,0x800004BC] -> 0x2C23
mem[X,0x800004BE] -> 0x0034
[308] [M]: 0x800004BC (0x00342C23) sw gp, 24(fp)
mem[0x800023F4] <- 0x00000000


mem[X,0x800004C0] -> 0x2E23
mem[X,0x800004C2] -> 0x00C4
[309] [M]: 0x800004C0 (0x00C42E23) sw a2, 28(fp)
mem[0x800023F8] <- 0x00000000


mem[X,0x800004C4] -> 0xA183
mem[X,0x800004C6] -> 0x0385
[310] [M]: 0x800004C4 (0x0385A183) lw gp, 56(a1)
mem[R,0x800020F8] -> 0x00000000
x3 <- 0x00000000


mem[X,0x800004C8] -> 0xA083
mem[X,0x800004CA] -> 0x03C5
[311] [M]: 0x800004C8 (0x03C5A083) lw ra, 60(a1)
mem[R,0x800020FC] -> 0x00000000
x1 <- 0x00000000


mem[X,0x800004CC] -> 0x0493
mem[X,0x800004CE] -> 0x0000
[312] [M]: 0x800004CC (0x00000493) addi s1, zero, 0
x9 <- 0x00000000


mem[X,0x800004D0] -> 0x9073
mem[X,0x800004D2] -> 0x0034
[313] [M]: 0x800004D0 (0x00349073) csrrw zero, fcsr, s1
CSR fcsr -> 0x00000000
CSR fcsr <- 0x00000000 (input: 0x00000000)


mem[X,0x800004D4] -> 0xF153
mem[X,0x800004D6] -> 0x0C11
[314] [M]: 0x800004D4 (0x0C11F153) fsub.h sp, gp, ra, dyn
x2 <- 0x00000000


mem[X,0x800004D8] -> 0x2673
mem[X,0x800004DA] -> 0x0030
[315] [M]: 0x800004D8 (0x00302673) csrrs a2, fcsr, zero
CSR fcsr -> 0x00000000
x12 <- 0x00000000


mem[X,0x800004DC] -> 0x2023
mem[X,0x800004DE] -> 0x0224
[316] [M]: 0x800004DC (0x02242023) sw sp, 32(fp)
mem[0x800023FC] <- 0x00000000


mem[X,0x800004E0] -> 0x2223
mem[X,0x800004E2] -> 0x02C4
[317] [M]: 0x800004E0 (0x02C42223) sw a2, 36(fp)
mem[0x80002400] <- 0x00000000


mem[X,0x800004E4] -> 0xA003
mem[X,0x800004E6] -> 0x0405
[318] [M]: 0x800004E4 (0x0405A003) lw zero, 64(a1)
mem[R,0x80002100] -> 0x00000000


mem[X,0x800004E8] -> 0xA103
mem[X,0x800004EA] -> 0x0445
[319] [M]: 0x800004E8 (0x0445A103) lw sp, 68(a1)
mem[R,0x80002104] -> 0x00000000
x2 <- 0x00000000


mem[X,0x800004EC] -> 0x0493
mem[X,0x800004EE] -> 0x0000
[320] [M]: 0x800004EC (0x00000493) addi s1, zero, 0
x9 <- 0x00000000


mem[X,0x800004F0] -> 0x9073
mem[X,0x800004F2] -> 0x0034
[321] [M]: 0x800004F0 (0x00349073) csrrw zero, fcsr, s1
CSR fcsr -> 0x00000000
CSR fcsr <- 0x00000000 (input: 0x00000000)


mem[X,0x800004F4] -> 0x70D3
mem[X,0x800004F6] -> 0x0C20
[322] [M]: 0x800004F4 (0x0C2070D3) fsub.h ra, zero, sp, dyn
x1 <- 0x00000000


mem[X,0x800004F8] -> 0x2673
mem[X,0x800004FA] -> 0x0030
[323] [M]: 0x800004F8 (0x00302673) csrrs a2, fcsr, zero
CSR fcsr -> 0x00000000
x12 <- 0x00000000


mem[X,0x800004FC] -> 0x2423
mem[X,0x800004FE] -> 0x0214
[324] [M]: 0x800004FC (0x02142423) sw ra, 40(fp)
mem[0x80002404] <- 0x00000000


mem[X,0x80000500] -> 0x2623
mem[X,0x80000502] -> 0x02C4
[325] [M]: 0x80000500 (0x02C42623) sw a2, 44(fp)
mem[0x80002408] <- 0x00000000


mem[X,0x80000504] -> 0xA083
mem[X,0x80000506] -> 0x0485
[326] [M]: 0x80000504 (0x0485A083) lw ra, 72(a1)
mem[R,0x80002108] -> 0x00000000
x1 <- 0x00000000


mem[X,0x80000508] -> 0xAF03
mem[X,0x8000050A] -> 0x04C5
[327] [M]: 0x80000508 (0x04C5AF03) lw t5, 76(a1)
mem[R,0x8000210C] -> 0x00000000
x30 <- 0x00000000


mem[X,0x8000050C] -> 0x0493
mem[X,0x8000050E] -> 0x0000
[328] [M]: 0x8000050C (0x00000493) addi s1, zero, 0
x9 <- 0x00000000


mem[X,0x80000510] -> 0x9073
mem[X,0x80000512] -> 0x0034
[329] [M]: 0x80000510 (0x00349073) csrrw zero, fcsr, s1
CSR fcsr -> 0x00000000
CSR fcsr <- 0x00000000 (input: 0x00000000)


mem[X,0x80000514] -> 0xFFD3
mem[X,0x80000516] -> 0x0DE0
[330] [M]: 0x80000514 (0x0DE0FFD3) fsub.h t6, ra, t5, dyn
x31 <- 0x00000000


mem[X,0x80000518] -> 0x2673
mem[X,0x8000051A] -> 0x0030
[331] [M]: 0x80000518 (0x00302673) csrrs a2, fcsr, zero
CSR fcsr -> 0x00000000
x12 <- 0x00000000


mem[X,0x8000051C] -> 0x2823
mem[X,0x8000051E] -> 0x03F4
[332] [M]: 0x8000051C (0x03F42823) sw t6, 48(fp)
mem[0x8000240C] <- 0x00000000


mem[X,0x80000520] -> 0x2A23
mem[X,0x80000522] -> 0x02C4
[333] [M]: 0x80000520 (0x02C42A23) sw a2, 52(fp)
mem[0x80002410] <- 0x00000000


mem[X,0x80000524] -> 0xAF03
mem[X,0x80000526] -> 0x0505
[334] [M]: 0x80000524 (0x0505AF03) lw t5, 80(a1)
mem[R,0x80002110] -> 0x00000000
x30 <- 0x00000000


mem[X,0x80000528] -> 0xA003
mem[X,0x8000052A] -> 0x0545
[335] [M]: 0x80000528 (0x0545A003) lw zero, 84(a1)
mem[R,0x80002114] -> 0x00000000


mem[X,0x8000052C] -> 0x0493
mem[X,0x8000052E] -> 0x0000
[336] [M]: 0x8000052C (0x00000493) addi s1, zero, 0
x9 <- 0x00000000


mem[X,0x80000530] -> 0x9073
mem[X,0x80000532] -> 0x0034
[337] [M]: 0x80000530 (0x00349073) csrrw zero, fcsr, s1
CSR fcsr -> 0x00000000
CSR fcsr <- 0x00000000 (input: 0x00000000)


mem[X,0x80000534] -> 0x7FD3
mem[X,0x80000536] -> 0x0C0F
[338] [M]: 0x80000534 (0x0C0F7FD3) fsub.h t6, t5, zero, dyn
x31 <- 0x00000000


mem[X,0x80000538] -> 0x2673
mem[X,0x8000053A] -> 0x0030
[339] [M]: 0x80000538 (0x00302673) csrrs a2, fcsr, zero
CSR fcsr -> 0x00000000
x12 <- 0x00000000


mem[X,0x8000053C] -> 0x2C23
mem[X,0x8000053E] -> 0x03F4
[340] [M]: 0x8000053C (0x03F42C23) sw t6, 56(fp)
mem[0x80002414] <- 0x00000000


mem[X,0x80000540] -> 0x2E23
mem[X,0x80000542] -> 0x02C4
[341] [M]: 0x80000540 (0x02C42E23) sw a2, 60(fp)
mem[0x80002418] <- 0x00000000


mem[X,0x80000544] -> 0xAF83
mem[X,0x80000546] -> 0x0585
[342] [M]: 0x80000544 (0x0585AF83) lw t6, 88(a1)
mem[R,0x80002118] -> 0x00000000
x31 <- 0x00000000


mem[X,0x80000548] -> 0xAF03
mem[X,0x8000054A] -> 0x05C5
[343] [M]: 0x80000548 (0x05C5AF03) lw t5, 92(a1)
mem[R,0x8000211C] -> 0x00000000
x30 <- 0x00000000


mem[X,0x8000054C] -> 0x0493
mem[X,0x8000054E] -> 0x0000
[344] [M]: 0x8000054C (0x00000493) addi s1, zero, 0
x9 <- 0x00000000


mem[X,0x80000550] -> 0x9073
mem[X,0x80000552] -> 0x0034
[345] [M]: 0x80000550 (0x00349073) csrrw zero, fcsr, s1
CSR fcsr -> 0x00000000
CSR fcsr <- 0x00000000 (input: 0x00000000)


mem[X,0x80000554] -> 0xF053
mem[X,0x80000556] -> 0x0DEF
[346] [M]: 0x80000554 (0x0DEFF053) fsub.h zero, t6, t5, dyn


mem[X,0x80000558] -> 0x2673
mem[X,0x8000055A] -> 0x0030
[347] [M]: 0x80000558 (0x00302673) csrrs a2, fcsr, zero
CSR fcsr -> 0x00000000
x12 <- 0x00000000


mem[X,0x8000055C] -> 0x2023
mem[X,0x8000055E] -> 0x0404
[348] [M]: 0x8000055C (0x04042023) sw zero, 64(fp)
mem[0x8000241C] <- 0x00000000


mem[X,0x80000560] -> 0x2223
mem[X,0x80000562] -> 0x04C4
[349] [M]: 0x80000560 (0x04C42223) sw a2, 68(fp)
mem[0x80002420] <- 0x00000000


mem[X,0x80000564] -> 0xAF03
mem[X,0x80000566] -> 0x0605
[350] [M]: 0x80000564 (0x0605AF03) lw t5, 96(a1)
mem[R,0x80002120] -> 0xFFFF48D5
x30 <- 0xFFFF48D5


mem[X,0x80000568] -> 0xAE83
mem[X,0x8000056A] -> 0x0645
[351] [M]: 0x80000568 (0x0645AE83) lw t4, 100(a1)
mem[R,0x80002124] -> 0xFFFF52F5
x29 <- 0xFFFF52F5


mem[X,0x8000056C] -> 0x0493
mem[X,0x8000056E] -> 0x0000
[352] [M]: 0x8000056C (0x00000493) addi s1, zero, 0
x9 <- 0x00000000


mem[X,0x80000570] -> 0x9073
mem[X,0x80000572] -> 0x0034
[353] [M]: 0x80000570 (0x00349073) csrrw zero, fcsr, s1
CSR fcsr -> 0x00000000
CSR fcsr <- 0x00000000 (input: 0x00000000)


mem[X,0x80000574] -> 0x7FD3
mem[X,0x80000576] -> 0x0DDF
[354] [M]: 0x80000574 (0x0DDF7FD3) fsub.h t6, t5, t4, dyn
x31 <- 0xFFFFD1C0


mem[X,0x80000578] -> 0x2673
mem[X,0x8000057A] -> 0x0030
[355] [M]: 0x80000578 (0x00302673) csrrs a2, fcsr, zero
CSR fcsr -> 0x00000001
x12 <- 0x00000001


mem[X,0x8000057C] -> 0x2423
mem[X,0x8000057E] -> 0x05F4
[356] [M]: 0x8000057C (0x05F42423) sw t6, 72(fp)
mem[0x80002424] <- 0xFFFFD1C0


mem[X,0x80000580] -> 0x2623
mem[X,0x80000582] -> 0x04C4
[357] [M]: 0x80000580 (0x04C42623) sw a2, 76(fp)
mem[0x80002428] <- 0x00000001


mem[X,0x80000584] -> 0x0013
mem[X,0x80000586] -> 0x0000
[358] [M]: 0x80000584 (0x00000013) addi zero, zero, 0


mem[X,0x80000588] -> 0x0013
mem[X,0x8000058A] -> 0x0000
[359] [M]: 0x80000588 (0x00000013) addi zero, zero, 0


mem[X,0x8000058C] -> 0x0013
mem[X,0x8000058E] -> 0x0000
[360] [M]: 0x8000058C (0x00000013) addi zero, zero, 0


mem[X,0x80000590] -> 0x0093
mem[X,0x80000592] -> 0x0010
[361] [M]: 0x80000590 (0x00100093) addi ra, zero, 1
x1 <- 0x00000001


mem[X,0x80000594] -> 0x1F17
mem[X,0x80000596] -> 0x0000
[362] [M]: 0x80000594 (0x00001F17) auipc t5, 1
x30 <- 0x80001594


mem[X,0x80000598] -> 0x2623
mem[X,0x8000059A] -> 0xA61F
[363] [M]: 0x80000598 (0xA61F2623) sw ra, 2668(t5)
htif[0x80001000] <- 0x00000001


mem[X,0x8000059C] -> 0xF06F
mem[X,0x8000059E] -> 0xFF9F
[364] [M]: 0x8000059C (0xFF9FF06F) jal zero, 2097144


mem[X,0x80000594] -> 0x1F17
mem[X,0x80000596] -> 0x0000
[365] [M]: 0x80000594 (0x00001F17) auipc t5, 1
x30 <- 0x80001594


mem[X,0x80000598] -> 0x2623
mem[X,0x8000059A] -> 0xA61F
[366] [M]: 0x80000598 (0xA61F2623) sw ra, 2668(t5)
htif[0x80001000] <- 0x00000001


mem[X,0x8000059C] -> 0xF06F
mem[X,0x8000059E] -> 0xFF9F
[367] [M]: 0x8000059C (0xFF9FF06F) jal zero, 2097144


mem[X,0x80000594] -> 0x1F17
mem[X,0x80000596] -> 0x0000
[368] [M]: 0x80000594 (0x00001F17) auipc t5, 1
x30 <- 0x80001594


mem[X,0x80000598] -> 0x2623
mem[X,0x8000059A] -> 0xA61F
[369] [M]: 0x80000598 (0xA61F2623) sw ra, 2668(t5)
htif[0x80001000] <- 0x00000001
htif-syscall-proxy cmd: 0x000000000001

SUCCESS
