using Reference-sail_c_simulator.signature for test-signature output.
[Sail] Allocating new block 0x80000000
tohost located at 0x80001000
[Sail] Allocating new block 0x0

Running file ref.elf.
ELF Entry @ 0x80000000
begin_signature: 0x80002210
end_signature: 0x80002320
CSR mstatus <- 0x00000000 (input: 0x00000000)
mem[X,0x00001000] -> 0x0297
mem[X,0x00001002] -> 0x0000
[0] [M]: 0x00001000 (0x00000297) auipc t0, 0
x5 <- 0x00001000


mem[X,0x00001004] -> 0x8593
mem[X,0x00001006] -> 0x0202
[1] [M]: 0x00001004 (0x02028593) addi a1, t0, 32
x11 <- 0x00001020


mem[X,0x00001008] -> 0x2573
mem[X,0x0000100A] -> 0xF140
[2] [M]: 0x00001008 (0xF1402573) csrrs a0, mhartid, zero
CSR mhartid -> 0x00000000
x10 <- 0x00000000


mem[X,0x0000100C] -> 0xA283
mem[X,0x0000100E] -> 0x0182
[3] [M]: 0x0000100C (0x0182A283) lw t0, 24(t0)
mem[R,0x00001018] -> 0x80000000
x5 <- 0x80000000


mem[X,0x00001010] -> 0x8067
mem[X,0x00001012] -> 0x0002
[4] [M]: 0x00001010 (0x00028067) jalr zero, t0, 0


mem[X,0x80000000] -> 0xC0B7
mem[X,0x80000002] -> 0xFEED
[5] [M]: 0x80000000 (0xFEEDC0B7) lui ra, 1044188
x1 <- 0xFEEDC000


mem[X,0x80000004] -> 0x8093
mem[X,0x80000006] -> 0xEAD0
[6] [M]: 0x80000004 (0xEAD08093) addi ra, ra, 3757
x1 <- 0xFEEDBEAD


mem[X,0x80000008] -> 0xE137
mem[X,0x8000000A] -> 0xFF76
[7] [M]: 0x80000008 (0xFF76E137) lui sp, 1046382
x2 <- 0xFF76E000


mem[X,0x8000000C] -> 0x0113
mem[X,0x8000000E] -> 0xF561
[8] [M]: 0x8000000C (0xF5610113) addi sp, sp, 3926
x2 <- 0xFF76DF56


mem[X,0x80000010] -> 0x71B7
mem[X,0x80000012] -> 0x7FBB
[9] [M]: 0x80000010 (0x7FBB71B7) lui gp, 523191
x3 <- 0x7FBB7000


mem[X,0x80000014] -> 0x8193
mem[X,0x80000016] -> 0xFAB1
[10] [M]: 0x80000014 (0xFAB18193) addi gp, gp, 4011
x3 <- 0x7FBB6FAB


mem[X,0x80000018] -> 0xB237
mem[X,0x8000001A] -> 0xBFDD
[11] [M]: 0x80000018 (0xBFDDB237) lui tp, 785883
x4 <- 0xBFDDB000


mem[X,0x8000001C] -> 0x0213
mem[X,0x8000001E] -> 0x7D52
[12] [M]: 0x8000001C (0x7D520213) addi tp, tp, 2005
x4 <- 0xBFDDB7D5


mem[X,0x80000020] -> 0x0297
mem[X,0x80000022] -> 0x0000
[13] [M]: 0x80000020 (0x00000297) auipc t0, 0
x5 <- 0x80000020


mem[X,0x80000024] -> 0x8293
mem[X,0x80000026] -> 0x0D82
[14] [M]: 0x80000024 (0x0D828293) addi t0, t0, 216
x5 <- 0x800000F8


mem[X,0x80000028] -> 0x2317
mem[X,0x8000002A] -> 0x0000
[15] [M]: 0x80000028 (0x00002317) auipc t1, 2
x6 <- 0x80002028


mem[X,0x8000002C] -> 0x0313
mem[X,0x8000002E] -> 0xFD83
[16] [M]: 0x8000002C (0xFD830313) addi t1, t1, 4056
x6 <- 0x80002000


mem[X,0x80000030] -> 0xB3B7
mem[X,0x80000032] -> 0xB7FB
[17] [M]: 0x80000030 (0xB7FBB3B7) lui t2, 753595
x7 <- 0xB7FBB000


mem[X,0x80000034] -> 0x8393
mem[X,0x80000036] -> 0x6FA3
[18] [M]: 0x80000034 (0x6FA38393) addi t2, t2, 1786
x7 <- 0xB7FBB6FA


mem[X,0x80000038] -> 0xE437
mem[X,0x8000003A] -> 0x5BFD
[19] [M]: 0x80000038 (0x5BFDE437) lui fp, 376798
x8 <- 0x5BFDE000


mem[X,0x8000003C] -> 0x0413
mem[X,0x8000003E] -> 0xB7D4
[20] [M]: 0x8000003C (0xB7D40413) addi fp, fp, 2941
x8 <- 0x5BFDDB7D


mem[X,0x80000040] -> 0xF4B7
mem[X,0x80000042] -> 0xADFE
[21] [M]: 0x80000040 (0xADFEF4B7) lui s1, 712687
x9 <- 0xADFEF000


mem[X,0x80000044] -> 0x8493
mem[X,0x80000046] -> 0xDBE4
[22] [M]: 0x80000044 (0xDBE48493) addi s1, s1, 3518
x9 <- 0xADFEEDBE


mem[X,0x80000048] -> 0x7537
mem[X,0x8000004A] -> 0x56FF
[23] [M]: 0x80000048 (0x56FF7537) lui a0, 356343
x10 <- 0x56FF7000


mem[X,0x8000004C] -> 0x0513
mem[X,0x8000004E] -> 0x6DF5
[24] [M]: 0x8000004C (0x6DF50513) addi a0, a0, 1759
x10 <- 0x56FF76DF


mem[X,0x80000050] -> 0xC5B7
mem[X,0x80000052] -> 0xAB7F
[25] [M]: 0x80000050 (0xAB7FC5B7) lui a1, 702460
x11 <- 0xAB7FC000


mem[X,0x80000054] -> 0x8593
mem[X,0x80000056] -> 0xB6F5
[26] [M]: 0x80000054 (0xB6F58593) addi a1, a1, 2927
x11 <- 0xAB7FBB6F


mem[X,0x80000058] -> 0xE637
mem[X,0x8000005A] -> 0xD5BF
[27] [M]: 0x80000058 (0xD5BFE637) lui a2, 875518
x12 <- 0xD5BFE000


mem[X,0x8000005C] -> 0x0613
mem[X,0x8000005E] -> 0xDB76
[28] [M]: 0x8000005C (0xDB760613) addi a2, a2, 3511
x12 <- 0xD5BFDDB7


mem[X,0x80000060] -> 0xF6B7
mem[X,0x80000062] -> 0xEADF
[29] [M]: 0x80000060 (0xEADFF6B7) lui a3, 962047
x13 <- 0xEADFF000


mem[X,0x80000064] -> 0x8693
mem[X,0x80000066] -> 0xEDB6
[30] [M]: 0x80000064 (0xEDB68693) addi a3, a3, 3803
x13 <- 0xEADFEEDB


mem[X,0x80000068] -> 0xF737
mem[X,0x8000006A] -> 0xF56F
[31] [M]: 0x80000068 (0xF56FF737) lui a4, 1005311
x14 <- 0xF56FF000


mem[X,0x8000006C] -> 0x0713
mem[X,0x8000006E] -> 0x76D7
[32] [M]: 0x8000006C (0x76D70713) addi a4, a4, 1901
x14 <- 0xF56FF76D


mem[X,0x80000070] -> 0x07B7
mem[X,0x80000072] -> 0xFAB8
[33] [M]: 0x80000070 (0xFAB807B7) lui a5, 1026944
x15 <- 0xFAB80000


mem[X,0x80000074] -> 0x8793
mem[X,0x80000076] -> 0xBB67
[34] [M]: 0x80000074 (0xBB678793) addi a5, a5, 2998
x15 <- 0xFAB7FBB6


mem[X,0x80000078] -> 0x0837
mem[X,0x8000007A] -> 0x7D5C
[35] [M]: 0x80000078 (0x7D5C0837) lui a6, 513472
x16 <- 0x7D5C0000


mem[X,0x8000007C] -> 0x0813
mem[X,0x8000007E] -> 0xDDB8
[36] [M]: 0x8000007C (0xDDB80813) addi a6, a6, 3547
x16 <- 0x7D5BFDDB


mem[X,0x80000080] -> 0x08B7
mem[X,0x80000082] -> 0xBEAE
[37] [M]: 0x80000080 (0xBEAE08B7) lui a7, 781024
x17 <- 0xBEAE0000


mem[X,0x80000084] -> 0x8893
mem[X,0x80000086] -> 0xEED8
[38] [M]: 0x80000084 (0xEED88893) addi a7, a7, 3821
x17 <- 0xBEADFEED


mem[X,0x80000088] -> 0x0937
mem[X,0x8000008A] -> 0xDF57
[39] [M]: 0x80000088 (0xDF570937) lui s2, 914800
x18 <- 0xDF570000


mem[X,0x8000008C] -> 0x0913
mem[X,0x8000008E] -> 0xF769
[40] [M]: 0x8000008C (0xF7690913) addi s2, s2, 3958
x18 <- 0xDF56FF76


mem[X,0x80000090] -> 0x89B7
mem[X,0x80000092] -> 0x6FAB
[41] [M]: 0x80000090 (0x6FAB89B7) lui s3, 457400
x19 <- 0x6FAB8000


mem[X,0x80000094] -> 0x8993
mem[X,0x80000096] -> 0xFBB9
[42] [M]: 0x80000094 (0xFBB98993) addi s3, s3, 4027
x19 <- 0x6FAB7FBB


mem[X,0x80000098] -> 0xCA37
mem[X,0x8000009A] -> 0xB7D5
[43] [M]: 0x80000098 (0xB7D5CA37) lui s4, 752988
x20 <- 0xB7D5C000


mem[X,0x8000009C] -> 0x0A13
mem[X,0x8000009E] -> 0xFDDA
[44] [M]: 0x8000009C (0xFDDA0A13) addi s4, s4, 4061
x20 <- 0xB7D5BFDD


mem[X,0x800000A0] -> 0xEAB7
mem[X,0x800000A2] -> 0xDBEA
[45] [M]: 0x800000A0 (0xDBEAEAB7) lui s5, 900782
x21 <- 0xDBEAE000


mem[X,0x800000A4] -> 0x8A93
mem[X,0x800000A6] -> 0xFEEA
[46] [M]: 0x800000A4 (0xFEEA8A93) addi s5, s5, 4078
x21 <- 0xDBEADFEE


mem[X,0x800000A8] -> 0x7B37
mem[X,0x800000AA] -> 0x6DF5
[47] [M]: 0x800000A8 (0x6DF57B37) lui s6, 450391
x22 <- 0x6DF57000


mem[X,0x800000AC] -> 0x0B13
mem[X,0x800000AE] -> 0xFF7B
[48] [M]: 0x800000AC (0xFF7B0B13) addi s6, s6, 4087
x22 <- 0x6DF56FF7


mem[X,0x800000B0] -> 0xBBB7
mem[X,0x800000B2] -> 0xB6FA
[49] [M]: 0x800000B0 (0xB6FABBB7) lui s7, 749483
x23 <- 0xB6FAB000


mem[X,0x800000B4] -> 0x8B93
mem[X,0x800000B6] -> 0x7FBB
[50] [M]: 0x800000B4 (0x7FBB8B93) addi s7, s7, 2043
x23 <- 0xB6FAB7FB


mem[X,0x800000B8] -> 0x6C37
mem[X,0x800000BA] -> 0xDB7D
[51] [M]: 0x800000B8 (0xDB7D6C37) lui s8, 899030
x24 <- 0xDB7D6000


mem[X,0x800000BC] -> 0x0C13
mem[X,0x800000BE] -> 0xBFDC
[52] [M]: 0x800000BC (0xBFDC0C13) addi s8, s8, 3069
x24 <- 0xDB7D5BFD


mem[X,0x800000C0] -> 0xBCB7
mem[X,0x800000C2] -> 0xEDBE
[53] [M]: 0x800000C0 (0xEDBEBCB7) lui s9, 973803
x25 <- 0xEDBEB000


mem[X,0x800000C4] -> 0x8C93
mem[X,0x800000C6] -> 0xDFEC
[54] [M]: 0x800000C4 (0xDFEC8C93) addi s9, s9, 3582
x25 <- 0xEDBEADFE


mem[X,0x800000C8] -> 0x5D37
mem[X,0x800000CA] -> 0x76DF
[55] [M]: 0x800000C8 (0x76DF5D37) lui s10, 486901
x26 <- 0x76DF5000


mem[X,0x800000CC] -> 0x0D13
mem[X,0x800000CE] -> 0x6FFD
[56] [M]: 0x800000CC (0x6FFD0D13) addi s10, s10, 1791
x26 <- 0x76DF56FF


mem[X,0x800000D0] -> 0xBDB7
mem[X,0x800000D2] -> 0xBB6F
[57] [M]: 0x800000D0 (0xBB6FBDB7) lui s11, 767739
x27 <- 0xBB6FB000


mem[X,0x800000D4] -> 0x8D93
mem[X,0x800000D6] -> 0xB7FD
[58] [M]: 0x800000D4 (0xB7FD8D93) addi s11, s11, 2943
x27 <- 0xBB6FAB7F


mem[X,0x800000D8] -> 0xDE37
mem[X,0x800000DA] -> 0xDDB7
[59] [M]: 0x800000D8 (0xDDB7DE37) lui t3, 908157
x28 <- 0xDDB7D000


mem[X,0x800000DC] -> 0x0E13
mem[X,0x800000DE] -> 0x5BFE
[60] [M]: 0x800000DC (0x5BFE0E13) addi t3, t3, 1471
x28 <- 0xDDB7D5BF


mem[X,0x800000E0] -> 0xFEB7
mem[X,0x800000E2] -> 0xEEDB
[61] [M]: 0x800000E0 (0xEEDBFEB7) lui t4, 978367
x29 <- 0xEEDBF000


mem[X,0x800000E4] -> 0x8E93
mem[X,0x800000E6] -> 0xADFE
[62] [M]: 0x800000E4 (0xADFE8E93) addi t4, t4, 2783
x29 <- 0xEEDBEADF


mem[X,0x800000E8] -> 0xFF37
mem[X,0x800000EA] -> 0xF76D
[63] [M]: 0x800000E8 (0xF76DFF37) lui t5, 1013471
x30 <- 0xF76DF000


mem[X,0x800000EC] -> 0x0F13
mem[X,0x800000EE] -> 0x56FF
[64] [M]: 0x800000EC (0x56FF0F13) addi t5, t5, 1391
x30 <- 0xF76DF56F


mem[X,0x800000F0] -> 0x0FB7
mem[X,0x800000F2] -> 0xFBB7
[65] [M]: 0x800000F0 (0xFBB70FB7) lui t6, 1031024
x31 <- 0xFBB70000


mem[X,0x800000F4] -> 0x8F93
mem[X,0x800000F6] -> 0xAB7F
[66] [M]: 0x800000F4 (0xAB7F8F93) addi t6, t6, 2743
x31 <- 0xFBB6FAB7


mem[X,0x800000F8] -> 0x2537
mem[X,0x800000FA] -> 0x0000
[67] [M]: 0x800000F8 (0x00002537) lui a0, 2
x10 <- 0x00002000


mem[X,0x800000FC] -> 0x2073
mem[X,0x800000FE] -> 0x3005
[68] [M]: 0x800000FC (0x30052073) csrrs zero, mstatus, a0
CSR mstatus -> 0x00000000
CSR mstatus <- 0x00002000 (input: 0x00002000)


mem[X,0x80000100] -> 0x5073
mem[X,0x80000102] -> 0x0030
[69] [M]: 0x80000100 (0x00305073) csrrwi zero, fcsr, 0
CSR fcsr -> 0x00000000
CSR fcsr <- 0x00000000 (input: 0x00000000)


mem[X,0x80000104] -> 0x2197
mem[X,0x80000106] -> 0x0000
[70] [M]: 0x80000104 (0x00002197) auipc gp, 2
x3 <- 0x80002104


mem[X,0x80000108] -> 0x8193
mem[X,0x8000010A] -> 0xF0C1
[71] [M]: 0x80000108 (0xF0C18193) addi gp, gp, 3852
x3 <- 0x80002010


mem[X,0x8000010C] -> 0x2097
mem[X,0x8000010E] -> 0x0000
[72] [M]: 0x8000010C (0x00002097) auipc ra, 2
x1 <- 0x8000210C


mem[X,0x80000110] -> 0x8093
mem[X,0x80000112] -> 0x1080
[73] [M]: 0x80000110 (0x10808093) addi ra, ra, 264
x1 <- 0x80002214


mem[X,0x80000114] -> 0xAF07
mem[X,0x80000116] -> 0x0001
[74] [M]: 0x80000114 (0x0001AF07) flw ft10, 0(gp)
mem[R,0x80002010] -> 0xFFFF0000
f30 <- 0xFFFFFFFFFFFF0000


mem[X,0x80000118] -> 0x0113
mem[X,0x8000011A] -> 0x0000
[75] [M]: 0x80000118 (0x00000113) addi sp, zero, 0
x2 <- 0x00000000


mem[X,0x8000011C] -> 0x1073
mem[X,0x8000011E] -> 0x0031
[76] [M]: 0x8000011C (0x00311073) csrrw zero, fcsr, sp
CSR fcsr -> 0x00000000
CSR fcsr <- 0x00000000 (input: 0x00000000)


mem[X,0x80000120] -> 0x7FD3
mem[X,0x80000122] -> 0x5C0F
[77] [M]: 0x80000120 (0x5C0F7FD3) fsqrt.h ft11, ft10, dyn
f31 <- 0xFFFFFFFFFFFF0000


mem[X,0x80000124] -> 0x2273
mem[X,0x80000126] -> 0x0030
[78] [M]: 0x80000124 (0x00302273) csrrs tp, fcsr, zero
CSR fcsr -> 0x00000000
x4 <- 0x00000000


mem[X,0x80000128] -> 0xA027
mem[X,0x8000012A] -> 0x01F0
[79] [M]: 0x80000128 (0x01F0A027) fsw ft11, 0(ra)
mem[0x80002214] <- 0xFFFF0000


mem[X,0x8000012C] -> 0xA223
mem[X,0x8000012E] -> 0x0040
[80] [M]: 0x8000012C (0x0040A223) sw tp, 4(ra)
mem[0x80002218] <- 0x00000000


mem[X,0x80000130] -> 0xAE87
mem[X,0x80000132] -> 0x0041
[81] [M]: 0x80000130 (0x0041AE87) flw ft9, 4(gp)
mem[R,0x80002014] -> 0xFFFF2000
f29 <- 0xFFFFFFFFFFFF2000


mem[X,0x80000134] -> 0x0113
mem[X,0x80000136] -> 0x0000
[82] [M]: 0x80000134 (0x00000113) addi sp, zero, 0
x2 <- 0x00000000


mem[X,0x80000138] -> 0x1073
mem[X,0x8000013A] -> 0x0031
[83] [M]: 0x80000138 (0x00311073) csrrw zero, fcsr, sp
CSR fcsr -> 0x00000000
CSR fcsr <- 0x00000000 (input: 0x00000000)


mem[X,0x8000013C] -> 0xFED3
mem[X,0x8000013E] -> 0x5C0E
[84] [M]: 0x8000013C (0x5C0EFED3) fsqrt.h ft9, ft9, dyn
f29 <- 0xFFFFFFFFFFFF2DA8


mem[X,0x80000140] -> 0x2273
mem[X,0x80000142] -> 0x0030
[85] [M]: 0x80000140 (0x00302273) csrrs tp, fcsr, zero
CSR fcsr -> 0x00000001
x4 <- 0x00000001


mem[X,0x80000144] -> 0xA427
mem[X,0x80000146] -> 0x01D0
[86] [M]: 0x80000144 (0x01D0A427) fsw ft9, 8(ra)
mem[0x8000221C] <- 0xFFFF2DA8


mem[X,0x80000148] -> 0xA623
mem[X,0x8000014A] -> 0x0040
[87] [M]: 0x80000148 (0x0040A623) sw tp, 12(ra)
mem[0x80002220] <- 0x00000001


mem[X,0x8000014C] -> 0xAF87
mem[X,0x8000014E] -> 0x0081
[88] [M]: 0x8000014C (0x0081AF87) flw ft11, 8(gp)
mem[R,0x80002018] -> 0xFFFF3FF8
f31 <- 0xFFFFFFFFFFFF3FF8


mem[X,0x80000150] -> 0x0113
mem[X,0x80000152] -> 0x0000
[89] [M]: 0x80000150 (0x00000113) addi sp, zero, 0
x2 <- 0x00000000


mem[X,0x80000154] -> 0x1073
mem[X,0x80000156] -> 0x0031
[90] [M]: 0x80000154 (0x00311073) csrrw zero, fcsr, sp
CSR fcsr -> 0x00000001
CSR fcsr <- 0x00000000 (input: 0x00000000)


mem[X,0x80000158] -> 0xFF53
mem[X,0x8000015A] -> 0x5C0F
[91] [M]: 0x80000158 (0x5C0FFF53) fsqrt.h ft10, ft11, dyn
f30 <- 0xFFFFFFFFFFFF3DA5


mem[X,0x8000015C] -> 0x2273
mem[X,0x8000015E] -> 0x0030
[92] [M]: 0x8000015C (0x00302273) csrrs tp, fcsr, zero
CSR fcsr -> 0x00000001
x4 <- 0x00000001


mem[X,0x80000160] -> 0xA827
mem[X,0x80000162] -> 0x01E0
[93] [M]: 0x80000160 (0x01E0A827) fsw ft10, 16(ra)
mem[0x80002224] <- 0xFFFF3DA5


mem[X,0x80000164] -> 0xAA23
mem[X,0x80000166] -> 0x0040
[94] [M]: 0x80000164 (0x0040AA23) sw tp, 20(ra)
mem[0x80002228] <- 0x00000001


mem[X,0x80000168] -> 0xAD87
mem[X,0x8000016A] -> 0x00C1
[95] [M]: 0x80000168 (0x00C1AD87) flw fs11, 12(gp)
mem[R,0x8000201C] -> 0xFFFF3000
f27 <- 0xFFFFFFFFFFFF3000


mem[X,0x8000016C] -> 0x0113
mem[X,0x8000016E] -> 0x0000
[96] [M]: 0x8000016C (0x00000113) addi sp, zero, 0
x2 <- 0x00000000


mem[X,0x80000170] -> 0x1073
mem[X,0x80000172] -> 0x0031
[97] [M]: 0x80000170 (0x00311073) csrrw zero, fcsr, sp
CSR fcsr -> 0x00000001
CSR fcsr <- 0x00000000 (input: 0x00000000)


mem[X,0x80000174] -> 0xFE53
mem[X,0x80000176] -> 0x5C0D
[98] [M]: 0x80000174 (0x5C0DFE53) fsqrt.h ft8, fs11, dyn
f28 <- 0xFFFFFFFFFFFF35A8


mem[X,0x80000178] -> 0x2273
mem[X,0x8000017A] -> 0x0030
[99] [M]: 0x80000178 (0x00302273) csrrs tp, fcsr, zero
CSR fcsr -> 0x00000001
x4 <- 0x00000001


clint::tick mtime <- 0x0000000000000001
 clint timer pending at mtime 0x0000000000000001
htif::tick 0x0000000000000000
mem[X,0x8000017C] -> 0xAC27
mem[X,0x8000017E] -> 0x01C0
[100] [M]: 0x8000017C (0x01C0AC27) fsw ft8, 24(ra)
mem[0x8000222C] <- 0xFFFF35A8


mem[X,0x80000180] -> 0xAE23
mem[X,0x80000182] -> 0x0040
[101] [M]: 0x80000180 (0x0040AE23) sw tp, 28(ra)
mem[0x80002230] <- 0x00000001


mem[X,0x80000184] -> 0xAE07
mem[X,0x80000186] -> 0x0101
[102] [M]: 0x80000184 (0x0101AE07) flw ft8, 16(gp)
mem[R,0x80002020] -> 0xFFFF2FF8
f28 <- 0xFFFFFFFFFFFF2FF8


mem[X,0x80000188] -> 0x0113
mem[X,0x8000018A] -> 0x0000
[103] [M]: 0x80000188 (0x00000113) addi sp, zero, 0
x2 <- 0x00000000


mem[X,0x8000018C] -> 0x1073
mem[X,0x8000018E] -> 0x0031
[104] [M]: 0x8000018C (0x00311073) csrrw zero, fcsr, sp
CSR fcsr -> 0x00000001
CSR fcsr <- 0x00000000 (input: 0x00000000)


mem[X,0x80000190] -> 0x7DD3
mem[X,0x80000192] -> 0x5C0E
[105] [M]: 0x80000190 (0x5C0E7DD3) fsqrt.h fs11, ft8, dyn
f27 <- 0xFFFFFFFFFFFF35A5


mem[X,0x80000194] -> 0x2273
mem[X,0x80000196] -> 0x0030
[106] [M]: 0x80000194 (0x00302273) csrrs tp, fcsr, zero
CSR fcsr -> 0x00000001
x4 <- 0x00000001


mem[X,0x80000198] -> 0xA027
mem[X,0x8000019A] -> 0x03B0
[107] [M]: 0x80000198 (0x03B0A027) fsw fs11, 32(ra)
mem[0x80002234] <- 0xFFFF35A5


mem[X,0x8000019C] -> 0xA223
mem[X,0x8000019E] -> 0x0240
[108] [M]: 0x8000019C (0x0240A223) sw tp, 36(ra)
mem[0x80002238] <- 0x00000001


mem[X,0x800001A0] -> 0xAC87
mem[X,0x800001A2] -> 0x0141
[109] [M]: 0x800001A0 (0x0141AC87) flw fs9, 20(gp)
mem[R,0x80002024] -> 0xFFFF3800
f25 <- 0xFFFFFFFFFFFF3800


mem[X,0x800001A4] -> 0x0113
mem[X,0x800001A6] -> 0x0000
[110] [M]: 0x800001A4 (0x00000113) addi sp, zero, 0
x2 <- 0x00000000


mem[X,0x800001A8] -> 0x1073
mem[X,0x800001AA] -> 0x0031
[111] [M]: 0x800001A8 (0x00311073) csrrw zero, fcsr, sp
CSR fcsr -> 0x00000001
CSR fcsr <- 0x00000000 (input: 0x00000000)


mem[X,0x800001AC] -> 0xFD53
mem[X,0x800001AE] -> 0x5C0C
[112] [M]: 0x800001AC (0x5C0CFD53) fsqrt.h fs10, fs9, dyn
f26 <- 0xFFFFFFFFFFFF39A8


mem[X,0x800001B0] -> 0x2273
mem[X,0x800001B2] -> 0x0030
[113] [M]: 0x800001B0 (0x00302273) csrrs tp, fcsr, zero
CSR fcsr -> 0x00000001
x4 <- 0x00000001


mem[X,0x800001B4] -> 0xA427
mem[X,0x800001B6] -> 0x03A0
[114] [M]: 0x800001B4 (0x03A0A427) fsw fs10, 40(ra)
mem[0x8000223C] <- 0xFFFF39A8


mem[X,0x800001B8] -> 0xA623
mem[X,0x800001BA] -> 0x0240
[115] [M]: 0x800001B8 (0x0240A623) sw tp, 44(ra)
mem[0x80002240] <- 0x00000001


mem[X,0x800001BC] -> 0xAD07
mem[X,0x800001BE] -> 0x0181
[116] [M]: 0x800001BC (0x0181AD07) flw fs10, 24(gp)
mem[R,0x80002028] -> 0xFFFF27F8
f26 <- 0xFFFFFFFFFFFF27F8


mem[X,0x800001C0] -> 0x0113
mem[X,0x800001C2] -> 0x0000
[117] [M]: 0x800001C0 (0x00000113) addi sp, zero, 0
x2 <- 0x00000000


mem[X,0x800001C4] -> 0x1073
mem[X,0x800001C6] -> 0x0031
[118] [M]: 0x800001C4 (0x00311073) csrrw zero, fcsr, sp
CSR fcsr -> 0x00000001
CSR fcsr <- 0x00000000 (input: 0x00000000)


mem[X,0x800001C8] -> 0x7CD3
mem[X,0x800001CA] -> 0x5C0D
[119] [M]: 0x800001C8 (0x5C0D7CD3) fsqrt.h fs9, fs10, dyn
f25 <- 0xFFFFFFFFFFFF31A5


mem[X,0x800001CC] -> 0x2273
mem[X,0x800001CE] -> 0x0030
[120] [M]: 0x800001CC (0x00302273) csrrs tp, fcsr, zero
CSR fcsr -> 0x00000001
x4 <- 0x00000001


mem[X,0x800001D0] -> 0xA827
mem[X,0x800001D2] -> 0x0390
[121] [M]: 0x800001D0 (0x0390A827) fsw fs9, 48(ra)
mem[0x80002244] <- 0xFFFF31A5


mem[X,0x800001D4] -> 0xAA23
mem[X,0x800001D6] -> 0x0240
[122] [M]: 0x800001D4 (0x0240AA23) sw tp, 52(ra)
mem[0x80002248] <- 0x00000001


mem[X,0x800001D8] -> 0xAB87
mem[X,0x800001DA] -> 0x01C1
[123] [M]: 0x800001D8 (0x01C1AB87) flw fs7, 28(gp)
mem[R,0x8000202C] -> 0xFFFF3C00
f23 <- 0xFFFFFFFFFFFF3C00


mem[X,0x800001DC] -> 0x0113
mem[X,0x800001DE] -> 0x0000
[124] [M]: 0x800001DC (0x00000113) addi sp, zero, 0
x2 <- 0x00000000


mem[X,0x800001E0] -> 0x1073
mem[X,0x800001E2] -> 0x0031
[125] [M]: 0x800001E0 (0x00311073) csrrw zero, fcsr, sp
CSR fcsr -> 0x00000001
CSR fcsr <- 0x00000000 (input: 0x00000000)


mem[X,0x800001E4] -> 0xFC53
mem[X,0x800001E6] -> 0x5C0B
[126] [M]: 0x800001E4 (0x5C0BFC53) fsqrt.h fs8, fs7, dyn
f24 <- 0xFFFFFFFFFFFF3C00


mem[X,0x800001E8] -> 0x2273
mem[X,0x800001EA] -> 0x0030
[127] [M]: 0x800001E8 (0x00302273) csrrs tp, fcsr, zero
CSR fcsr -> 0x00000000
x4 <- 0x00000000


mem[X,0x800001EC] -> 0xAC27
mem[X,0x800001EE] -> 0x0380
[128] [M]: 0x800001EC (0x0380AC27) fsw fs8, 56(ra)
mem[0x8000224C] <- 0xFFFF3C00


mem[X,0x800001F0] -> 0xAE23
mem[X,0x800001F2] -> 0x0240
[129] [M]: 0x800001F0 (0x0240AE23) sw tp, 60(ra)
mem[0x80002250] <- 0x00000000


mem[X,0x800001F4] -> 0xAC07
mem[X,0x800001F6] -> 0x0201
[130] [M]: 0x800001F4 (0x0201AC07) flw fs8, 32(gp)
mem[R,0x80002030] -> 0xFFFF23F8
f24 <- 0xFFFFFFFFFFFF23F8


mem[X,0x800001F8] -> 0x0113
mem[X,0x800001FA] -> 0x0000
[131] [M]: 0x800001F8 (0x00000113) addi sp, zero, 0
x2 <- 0x00000000


mem[X,0x800001FC] -> 0x1073
mem[X,0x800001FE] -> 0x0031
[132] [M]: 0x800001FC (0x00311073) csrrw zero, fcsr, sp
CSR fcsr -> 0x00000000
CSR fcsr <- 0x00000000 (input: 0x00000000)


mem[X,0x80000200] -> 0x7BD3
mem[X,0x80000202] -> 0x5C0C
[133] [M]: 0x80000200 (0x5C0C7BD3) fsqrt.h fs7, fs8, dyn
f23 <- 0xFFFFFFFFFFFF2FFC


mem[X,0x80000204] -> 0x2273
mem[X,0x80000206] -> 0x0030
[134] [M]: 0x80000204 (0x00302273) csrrs tp, fcsr, zero
CSR fcsr -> 0x00000001
x4 <- 0x00000001


mem[X,0x80000208] -> 0xA027
mem[X,0x8000020A] -> 0x0570
[135] [M]: 0x80000208 (0x0570A027) fsw fs7, 64(ra)
mem[0x80002254] <- 0xFFFF2FFC


mem[X,0x8000020C] -> 0xA223
mem[X,0x8000020E] -> 0x0440
[136] [M]: 0x8000020C (0x0440A223) sw tp, 68(ra)
mem[0x80002258] <- 0x00000001


mem[X,0x80000210] -> 0xAA87
mem[X,0x80000212] -> 0x0241
[137] [M]: 0x80000210 (0x0241AA87) flw fs5, 36(gp)
mem[R,0x80002034] -> 0xFFFF3E00
f21 <- 0xFFFFFFFFFFFF3E00


mem[X,0x80000214] -> 0x0113
mem[X,0x80000216] -> 0x0000
[138] [M]: 0x80000214 (0x00000113) addi sp, zero, 0
x2 <- 0x00000000


mem[X,0x80000218] -> 0x1073
mem[X,0x8000021A] -> 0x0031
[139] [M]: 0x80000218 (0x00311073) csrrw zero, fcsr, sp
CSR fcsr -> 0x00000001
CSR fcsr <- 0x00000000 (input: 0x00000000)


mem[X,0x8000021C] -> 0xFB53
mem[X,0x8000021E] -> 0x5C0A
[140] [M]: 0x8000021C (0x5C0AFB53) fsqrt.h fs6, fs5, dyn
f22 <- 0xFFFFFFFFFFFF3CE6


mem[X,0x80000220] -> 0x2273
mem[X,0x80000222] -> 0x0030
[141] [M]: 0x80000220 (0x00302273) csrrs tp, fcsr, zero
CSR fcsr -> 0x00000001
x4 <- 0x00000001


mem[X,0x80000224] -> 0xA427
mem[X,0x80000226] -> 0x0560
[142] [M]: 0x80000224 (0x0560A427) fsw fs6, 72(ra)
mem[0x8000225C] <- 0xFFFF3CE6


mem[X,0x80000228] -> 0xA623
mem[X,0x8000022A] -> 0x0440
[143] [M]: 0x80000228 (0x0440A623) sw tp, 76(ra)
mem[0x80002260] <- 0x00000001


mem[X,0x8000022C] -> 0xAB07
mem[X,0x8000022E] -> 0x0281
[144] [M]: 0x8000022C (0x0281AB07) flw fs6, 40(gp)
mem[R,0x80002038] -> 0xFFFF21F8
f22 <- 0xFFFFFFFFFFFF21F8


mem[X,0x80000230] -> 0x0113
mem[X,0x80000232] -> 0x0000
[145] [M]: 0x80000230 (0x00000113) addi sp, zero, 0
x2 <- 0x00000000


mem[X,0x80000234] -> 0x1073
mem[X,0x80000236] -> 0x0031
[146] [M]: 0x80000234 (0x00311073) csrrw zero, fcsr, sp
CSR fcsr -> 0x00000001
CSR fcsr <- 0x00000000 (input: 0x00000000)


mem[X,0x80000238] -> 0x7AD3
mem[X,0x8000023A] -> 0x5C0B
[147] [M]: 0x80000238 (0x5C0B7AD3) fsqrt.h fs5, fs6, dyn
f21 <- 0xFFFFFFFFFFFF2EE9


mem[X,0x8000023C] -> 0x2273
mem[X,0x8000023E] -> 0x0030
[148] [M]: 0x8000023C (0x00302273) csrrs tp, fcsr, zero
CSR fcsr -> 0x00000001
x4 <- 0x00000001


mem[X,0x80000240] -> 0xA827
mem[X,0x80000242] -> 0x0550
[149] [M]: 0x80000240 (0x0550A827) fsw fs5, 80(ra)
mem[0x80002264] <- 0xFFFF2EE9


mem[X,0x80000244] -> 0xAA23
mem[X,0x80000246] -> 0x0440
[150] [M]: 0x80000244 (0x0440AA23) sw tp, 84(ra)
mem[0x80002268] <- 0x00000001


mem[X,0x80000248] -> 0xA987
mem[X,0x8000024A] -> 0x02C1
[151] [M]: 0x80000248 (0x02C1A987) flw fs3, 44(gp)
mem[R,0x8000203C] -> 0xFFFF3F00
f19 <- 0xFFFFFFFFFFFF3F00


mem[X,0x8000024C] -> 0x0113
mem[X,0x8000024E] -> 0x0000
[152] [M]: 0x8000024C (0x00000113) addi sp, zero, 0
x2 <- 0x00000000


mem[X,0x80000250] -> 0x1073
mem[X,0x80000252] -> 0x0031
[153] [M]: 0x80000250 (0x00311073) csrrw zero, fcsr, sp
CSR fcsr -> 0x00000001
CSR fcsr <- 0x00000000 (input: 0x00000000)


mem[X,0x80000254] -> 0xFA53
mem[X,0x80000256] -> 0x5C09
[154] [M]: 0x80000254 (0x5C09FA53) fsqrt.h fs4, fs3, dyn
f20 <- 0xFFFFFFFFFFFF3D4B


mem[X,0x80000258] -> 0x2273
mem[X,0x8000025A] -> 0x0030
[155] [M]: 0x80000258 (0x00302273) csrrs tp, fcsr, zero
CSR fcsr -> 0x00000001
x4 <- 0x00000001


mem[X,0x8000025C] -> 0xAC27
mem[X,0x8000025E] -> 0x0540
[156] [M]: 0x8000025C (0x0540AC27) fsw fs4, 88(ra)
mem[0x8000226C] <- 0xFFFF3D4B


mem[X,0x80000260] -> 0xAE23
mem[X,0x80000262] -> 0x0440
[157] [M]: 0x80000260 (0x0440AE23) sw tp, 92(ra)
mem[0x80002270] <- 0x00000001


mem[X,0x80000264] -> 0xAA07
mem[X,0x80000266] -> 0x0301
[158] [M]: 0x80000264 (0x0301AA07) flw fs4, 48(gp)
mem[R,0x80002040] -> 0xFFFF20F8
f20 <- 0xFFFFFFFFFFFF20F8


mem[X,0x80000268] -> 0x0113
mem[X,0x8000026A] -> 0x0000
[159] [M]: 0x80000268 (0x00000113) addi sp, zero, 0
x2 <- 0x00000000


mem[X,0x8000026C] -> 0x1073
mem[X,0x8000026E] -> 0x0031
[160] [M]: 0x8000026C (0x00311073) csrrw zero, fcsr, sp
CSR fcsr -> 0x00000001
CSR fcsr <- 0x00000000 (input: 0x00000000)


mem[X,0x80000270] -> 0x79D3
mem[X,0x80000272] -> 0x5C0A
[161] [M]: 0x80000270 (0x5C0A79D3) fsqrt.h fs3, fs4, dyn
f19 <- 0xFFFFFFFFFFFF2E4E


mem[X,0x80000274] -> 0x2273
mem[X,0x80000276] -> 0x0030
[162] [M]: 0x80000274 (0x00302273) csrrs tp, fcsr, zero
CSR fcsr -> 0x00000001
x4 <- 0x00000001


mem[X,0x80000278] -> 0xA027
mem[X,0x8000027A] -> 0x0730
[163] [M]: 0x80000278 (0x0730A027) fsw fs3, 96(ra)
mem[0x80002274] <- 0xFFFF2E4E


mem[X,0x8000027C] -> 0xA223
mem[X,0x8000027E] -> 0x0640
[164] [M]: 0x8000027C (0x0640A223) sw tp, 100(ra)
mem[0x80002278] <- 0x00000001


mem[X,0x80000280] -> 0xA887
mem[X,0x80000282] -> 0x0341
[165] [M]: 0x80000280 (0x0341A887) flw fa7, 52(gp)
mem[R,0x80002044] -> 0xFFFF3F80
f17 <- 0xFFFFFFFFFFFF3F80


mem[X,0x80000284] -> 0x0113
mem[X,0x80000286] -> 0x0000
[166] [M]: 0x80000284 (0x00000113) addi sp, zero, 0
x2 <- 0x00000000


mem[X,0x80000288] -> 0x1073
mem[X,0x8000028A] -> 0x0031
[167] [M]: 0x80000288 (0x00311073) csrrw zero, fcsr, sp
CSR fcsr -> 0x00000001
CSR fcsr <- 0x00000000 (input: 0x00000000)


mem[X,0x8000028C] -> 0xF953
mem[X,0x8000028E] -> 0x5C08
[168] [M]: 0x8000028C (0x5C08F953) fsqrt.h fs2, fa7, dyn
f18 <- 0xFFFFFFFFFFFF3D7A


mem[X,0x80000290] -> 0x2273
mem[X,0x80000292] -> 0x0030
[169] [M]: 0x80000290 (0x00302273) csrrs tp, fcsr, zero
CSR fcsr -> 0x00000001
x4 <- 0x00000001


mem[X,0x80000294] -> 0xA427
mem[X,0x80000296] -> 0x0720
[170] [M]: 0x80000294 (0x0720A427) fsw fs2, 104(ra)
mem[0x8000227C] <- 0xFFFF3D7A


mem[X,0x80000298] -> 0xA623
mem[X,0x8000029A] -> 0x0640
[171] [M]: 0x80000298 (0x0640A623) sw tp, 108(ra)
mem[0x80002280] <- 0x00000001


mem[X,0x8000029C] -> 0xA907
mem[X,0x8000029E] -> 0x0381
[172] [M]: 0x8000029C (0x0381A907) flw fs2, 56(gp)
mem[R,0x80002048] -> 0xFFFF2078
f18 <- 0xFFFFFFFFFFFF2078


mem[X,0x800002A0] -> 0x0113
mem[X,0x800002A2] -> 0x0000
[173] [M]: 0x800002A0 (0x00000113) addi sp, zero, 0
x2 <- 0x00000000


mem[X,0x800002A4] -> 0x1073
mem[X,0x800002A6] -> 0x0031
[174] [M]: 0x800002A4 (0x00311073) csrrw zero, fcsr, sp
CSR fcsr -> 0x00000001
CSR fcsr <- 0x00000000 (input: 0x00000000)


mem[X,0x800002A8] -> 0x78D3
mem[X,0x800002AA] -> 0x5C09
[175] [M]: 0x800002A8 (0x5C0978D3) fsqrt.h fa7, fs2, dyn
f17 <- 0xFFFFFFFFFFFF2DFB


mem[X,0x800002AC] -> 0x2273
mem[X,0x800002AE] -> 0x0030
[176] [M]: 0x800002AC (0x00302273) csrrs tp, fcsr, zero
CSR fcsr -> 0x00000001
x4 <- 0x00000001


mem[X,0x800002B0] -> 0xA827
mem[X,0x800002B2] -> 0x0710
[177] [M]: 0x800002B0 (0x0710A827) fsw fa7, 112(ra)
mem[0x80002284] <- 0xFFFF2DFB


mem[X,0x800002B4] -> 0xAA23
mem[X,0x800002B6] -> 0x0640
[178] [M]: 0x800002B4 (0x0640AA23) sw tp, 116(ra)
mem[0x80002288] <- 0x00000001


mem[X,0x800002B8] -> 0xA787
mem[X,0x800002BA] -> 0x03C1
[179] [M]: 0x800002B8 (0x03C1A787) flw fa5, 60(gp)
mem[R,0x8000204C] -> 0xFFFF3FC0
f15 <- 0xFFFFFFFFFFFF3FC0


mem[X,0x800002BC] -> 0x0113
mem[X,0x800002BE] -> 0x0000
[180] [M]: 0x800002BC (0x00000113) addi sp, zero, 0
x2 <- 0x00000000


mem[X,0x800002C0] -> 0x1073
mem[X,0x800002C2] -> 0x0031
[181] [M]: 0x800002C0 (0x00311073) csrrw zero, fcsr, sp
CSR fcsr -> 0x00000001
CSR fcsr <- 0x00000000 (input: 0x00000000)


mem[X,0x800002C4] -> 0xF853
mem[X,0x800002C6] -> 0x5C07
[182] [M]: 0x800002C4 (0x5C07F853) fsqrt.h fa6, fa5, dyn
f16 <- 0xFFFFFFFFFFFF3D91


mem[X,0x800002C8] -> 0x2273
mem[X,0x800002CA] -> 0x0030
[183] [M]: 0x800002C8 (0x00302273) csrrs tp, fcsr, zero
CSR fcsr -> 0x00000001
x4 <- 0x00000001


mem[X,0x800002CC] -> 0xAC27
mem[X,0x800002CE] -> 0x0700
[184] [M]: 0x800002CC (0x0700AC27) fsw fa6, 120(ra)
mem[0x8000228C] <- 0xFFFF3D91


mem[X,0x800002D0] -> 0xAE23
mem[X,0x800002D2] -> 0x0640
[185] [M]: 0x800002D0 (0x0640AE23) sw tp, 124(ra)
mem[0x80002290] <- 0x00000001


mem[X,0x800002D4] -> 0xA807
mem[X,0x800002D6] -> 0x0401
[186] [M]: 0x800002D4 (0x0401A807) flw fa6, 64(gp)
mem[R,0x80002050] -> 0xFFFF2038
f16 <- 0xFFFFFFFFFFFF2038


mem[X,0x800002D8] -> 0x0113
mem[X,0x800002DA] -> 0x0000
[187] [M]: 0x800002D8 (0x00000113) addi sp, zero, 0
x2 <- 0x00000000


mem[X,0x800002DC] -> 0x1073
mem[X,0x800002DE] -> 0x0031
[188] [M]: 0x800002DC (0x00311073) csrrw zero, fcsr, sp
CSR fcsr -> 0x00000001
CSR fcsr <- 0x00000000 (input: 0x00000000)


mem[X,0x800002E0] -> 0x77D3
mem[X,0x800002E2] -> 0x5C08
[189] [M]: 0x800002E0 (0x5C0877D3) fsqrt.h fa5, fa6, dyn
f15 <- 0xFFFFFFFFFFFF2DCF


mem[X,0x800002E4] -> 0x2273
mem[X,0x800002E6] -> 0x0030
[190] [M]: 0x800002E4 (0x00302273) csrrs tp, fcsr, zero
CSR fcsr -> 0x00000001
x4 <- 0x00000001


mem[X,0x800002E8] -> 0xA027
mem[X,0x800002EA] -> 0x08F0
[191] [M]: 0x800002E8 (0x08F0A027) fsw fa5, 128(ra)
mem[0x80002294] <- 0xFFFF2DCF


mem[X,0x800002EC] -> 0xA223
mem[X,0x800002EE] -> 0x0840
[192] [M]: 0x800002EC (0x0840A223) sw tp, 132(ra)
mem[0x80002298] <- 0x00000001


mem[X,0x800002F0] -> 0xA687
mem[X,0x800002F2] -> 0x0441
[193] [M]: 0x800002F0 (0x0441A687) flw fa3, 68(gp)
mem[R,0x80002054] -> 0xFFFF3FE0
f13 <- 0xFFFFFFFFFFFF3FE0


mem[X,0x800002F4] -> 0x0113
mem[X,0x800002F6] -> 0x0000
[194] [M]: 0x800002F4 (0x00000113) addi sp, zero, 0
x2 <- 0x00000000


mem[X,0x800002F8] -> 0x1073
mem[X,0x800002FA] -> 0x0031
[195] [M]: 0x800002F8 (0x00311073) csrrw zero, fcsr, sp
CSR fcsr -> 0x00000001
CSR fcsr <- 0x00000000 (input: 0x00000000)


mem[X,0x800002FC] -> 0xF753
mem[X,0x800002FE] -> 0x5C06
[196] [M]: 0x800002FC (0x5C06F753) fsqrt.h fa4, fa3, dyn
f14 <- 0xFFFFFFFFFFFF3D9D


mem[X,0x80000300] -> 0x2273
mem[X,0x80000302] -> 0x0030
[197] [M]: 0x80000300 (0x00302273) csrrs tp, fcsr, zero
CSR fcsr -> 0x00000001
x4 <- 0x00000001


mem[X,0x80000304] -> 0xA427
mem[X,0x80000306] -> 0x08E0
[198] [M]: 0x80000304 (0x08E0A427) fsw fa4, 136(ra)
mem[0x8000229C] <- 0xFFFF3D9D


mem[X,0x80000308] -> 0xA623
mem[X,0x8000030A] -> 0x0840
[199] [M]: 0x80000308 (0x0840A623) sw tp, 140(ra)
mem[0x800022A0] <- 0x00000001


clint::tick mtime <- 0x0000000000000002
 clint timer pending at mtime 0x0000000000000002
htif::tick 0x0000000000000000
mem[X,0x8000030C] -> 0xA707
mem[X,0x8000030E] -> 0x0481
[200] [M]: 0x8000030C (0x0481A707) flw fa4, 72(gp)
mem[R,0x80002058] -> 0xFFFF2018
f14 <- 0xFFFFFFFFFFFF2018


mem[X,0x80000310] -> 0x0113
mem[X,0x80000312] -> 0x0000
[201] [M]: 0x80000310 (0x00000113) addi sp, zero, 0
x2 <- 0x00000000


mem[X,0x80000314] -> 0x1073
mem[X,0x80000316] -> 0x0031
[202] [M]: 0x80000314 (0x00311073) csrrw zero, fcsr, sp
CSR fcsr -> 0x00000001
CSR fcsr <- 0x00000000 (input: 0x00000000)


mem[X,0x80000318] -> 0x76D3
mem[X,0x8000031A] -> 0x5C07
[203] [M]: 0x80000318 (0x5C0776D3) fsqrt.h fa3, fa4, dyn
f13 <- 0xFFFFFFFFFFFF2DB9


mem[X,0x8000031C] -> 0x2273
mem[X,0x8000031E] -> 0x0030
[204] [M]: 0x8000031C (0x00302273) csrrs tp, fcsr, zero
CSR fcsr -> 0x00000001
x4 <- 0x00000001


mem[X,0x80000320] -> 0xA827
mem[X,0x80000322] -> 0x08D0
[205] [M]: 0x80000320 (0x08D0A827) fsw fa3, 144(ra)
mem[0x800022A4] <- 0xFFFF2DB9


mem[X,0x80000324] -> 0xAA23
mem[X,0x80000326] -> 0x0840
[206] [M]: 0x80000324 (0x0840AA23) sw tp, 148(ra)
mem[0x800022A8] <- 0x00000001


mem[X,0x80000328] -> 0xA587
mem[X,0x8000032A] -> 0x04C1
[207] [M]: 0x80000328 (0x04C1A587) flw fa1, 76(gp)
mem[R,0x8000205C] -> 0xFFFF3FF0
f11 <- 0xFFFFFFFFFFFF3FF0


mem[X,0x8000032C] -> 0x0113
mem[X,0x8000032E] -> 0x0000
[208] [M]: 0x8000032C (0x00000113) addi sp, zero, 0
x2 <- 0x00000000


mem[X,0x80000330] -> 0x1073
mem[X,0x80000332] -> 0x0031
[209] [M]: 0x80000330 (0x00311073) csrrw zero, fcsr, sp
CSR fcsr -> 0x00000001
CSR fcsr <- 0x00000000 (input: 0x00000000)


mem[X,0x80000334] -> 0xF653
mem[X,0x80000336] -> 0x5C05
[210] [M]: 0x80000334 (0x5C05F653) fsqrt.h fa2, fa1, dyn
f12 <- 0xFFFFFFFFFFFF3DA2


mem[X,0x80000338] -> 0x2273
mem[X,0x8000033A] -> 0x0030
[211] [M]: 0x80000338 (0x00302273) csrrs tp, fcsr, zero
CSR fcsr -> 0x00000001
x4 <- 0x00000001


mem[X,0x8000033C] -> 0xAC27
mem[X,0x8000033E] -> 0x08C0
[212] [M]: 0x8000033C (0x08C0AC27) fsw fa2, 152(ra)
mem[0x800022AC] <- 0xFFFF3DA2


mem[X,0x80000340] -> 0xAE23
mem[X,0x80000342] -> 0x0840
[213] [M]: 0x80000340 (0x0840AE23) sw tp, 156(ra)
mem[0x800022B0] <- 0x00000001


mem[X,0x80000344] -> 0xA607
mem[X,0x80000346] -> 0x0501
[214] [M]: 0x80000344 (0x0501A607) flw fa2, 80(gp)
mem[R,0x80002060] -> 0xFFFF2008
f12 <- 0xFFFFFFFFFFFF2008


mem[X,0x80000348] -> 0x0113
mem[X,0x8000034A] -> 0x0000
[215] [M]: 0x80000348 (0x00000113) addi sp, zero, 0
x2 <- 0x00000000


mem[X,0x8000034C] -> 0x1073
mem[X,0x8000034E] -> 0x0031
[216] [M]: 0x8000034C (0x00311073) csrrw zero, fcsr, sp
CSR fcsr -> 0x00000001
CSR fcsr <- 0x00000000 (input: 0x00000000)


mem[X,0x80000350] -> 0x75D3
mem[X,0x80000352] -> 0x5C06
[217] [M]: 0x80000350 (0x5C0675D3) fsqrt.h fa1, fa2, dyn
f11 <- 0xFFFFFFFFFFFF2DAE


mem[X,0x80000354] -> 0x2273
mem[X,0x80000356] -> 0x0030
[218] [M]: 0x80000354 (0x00302273) csrrs tp, fcsr, zero
CSR fcsr -> 0x00000001
x4 <- 0x00000001


mem[X,0x80000358] -> 0xA027
mem[X,0x8000035A] -> 0x0AB0
[219] [M]: 0x80000358 (0x0AB0A027) fsw fa1, 160(ra)
mem[0x800022B4] <- 0xFFFF2DAE


mem[X,0x8000035C] -> 0xA223
mem[X,0x8000035E] -> 0x0A40
[220] [M]: 0x8000035C (0x0A40A223) sw tp, 164(ra)
mem[0x800022B8] <- 0x00000001


mem[X,0x80000360] -> 0xA487
mem[X,0x80000362] -> 0x0541
[221] [M]: 0x80000360 (0x0541A487) flw fs1, 84(gp)
mem[R,0x80002064] -> 0xFFFF7BFF
f9 <- 0xFFFFFFFFFFFF7BFF


mem[X,0x80000364] -> 0x0113
mem[X,0x80000366] -> 0x0000
[222] [M]: 0x80000364 (0x00000113) addi sp, zero, 0
x2 <- 0x00000000


mem[X,0x80000368] -> 0x1073
mem[X,0x8000036A] -> 0x0031
[223] [M]: 0x80000368 (0x00311073) csrrw zero, fcsr, sp
CSR fcsr -> 0x00000001
CSR fcsr <- 0x00000000 (input: 0x00000000)


mem[X,0x8000036C] -> 0xF553
mem[X,0x8000036E] -> 0x5C04
[224] [M]: 0x8000036C (0x5C04F553) fsqrt.h fa0, fs1, dyn
f10 <- 0xFFFFFFFFFFFF5BFF


mem[X,0x80000370] -> 0x2273
mem[X,0x80000372] -> 0x0030
[225] [M]: 0x80000370 (0x00302273) csrrs tp, fcsr, zero
CSR fcsr -> 0x00000001
x4 <- 0x00000001


mem[X,0x80000374] -> 0xA427
mem[X,0x80000376] -> 0x0AA0
[226] [M]: 0x80000374 (0x0AA0A427) fsw fa0, 168(ra)
mem[0x800022BC] <- 0xFFFF5BFF


mem[X,0x80000378] -> 0xA623
mem[X,0x8000037A] -> 0x0A40
[227] [M]: 0x80000378 (0x0A40A623) sw tp, 172(ra)
mem[0x800022C0] <- 0x00000001


mem[X,0x8000037C] -> 0xA507
mem[X,0x8000037E] -> 0x0581
[228] [M]: 0x8000037C (0x0581A507) flw fa0, 88(gp)
mem[R,0x80002068] -> 0x00000000
f10 <- 0xFFFFFFFF00000000


mem[X,0x80000380] -> 0x0113
mem[X,0x80000382] -> 0x0000
[229] [M]: 0x80000380 (0x00000113) addi sp, zero, 0
x2 <- 0x00000000


mem[X,0x80000384] -> 0x1073
mem[X,0x80000386] -> 0x0031
[230] [M]: 0x80000384 (0x00311073) csrrw zero, fcsr, sp
CSR fcsr -> 0x00000001
CSR fcsr <- 0x00000000 (input: 0x00000000)


mem[X,0x80000388] -> 0x74D3
mem[X,0x8000038A] -> 0x5C05
[231] [M]: 0x80000388 (0x5C0574D3) fsqrt.h fs1, fa0, dyn
f9 <- 0xFFFFFFFFFFFF7E00


mem[X,0x8000038C] -> 0x2273
mem[X,0x8000038E] -> 0x0030
[232] [M]: 0x8000038C (0x00302273) csrrs tp, fcsr, zero
CSR fcsr -> 0x00000000
x4 <- 0x00000000


mem[X,0x80000390] -> 0xA827
mem[X,0x80000392] -> 0x0A90
[233] [M]: 0x80000390 (0x0A90A827) fsw fs1, 176(ra)
mem[0x800022C4] <- 0xFFFF7E00


mem[X,0x80000394] -> 0xAA23
mem[X,0x80000396] -> 0x0A40
[234] [M]: 0x80000394 (0x0A40AA23) sw tp, 180(ra)
mem[0x800022C8] <- 0x00000000


mem[X,0x80000398] -> 0xA387
mem[X,0x8000039A] -> 0x05C1
[235] [M]: 0x80000398 (0x05C1A387) flw ft7, 92(gp)
mem[R,0x8000206C] -> 0x00000000
f7 <- 0xFFFFFFFF00000000


mem[X,0x8000039C] -> 0x0113
mem[X,0x8000039E] -> 0x0000
[236] [M]: 0x8000039C (0x00000113) addi sp, zero, 0
x2 <- 0x00000000


mem[X,0x800003A0] -> 0x1073
mem[X,0x800003A2] -> 0x0031
[237] [M]: 0x800003A0 (0x00311073) csrrw zero, fcsr, sp
CSR fcsr -> 0x00000000
CSR fcsr <- 0x00000000 (input: 0x00000000)


mem[X,0x800003A4] -> 0xF453
mem[X,0x800003A6] -> 0x5C03
[238] [M]: 0x800003A4 (0x5C03F453) fsqrt.h fs0, ft7, dyn
f8 <- 0xFFFFFFFFFFFF7E00


mem[X,0x800003A8] -> 0x2273
mem[X,0x800003AA] -> 0x0030
[239] [M]: 0x800003A8 (0x00302273) csrrs tp, fcsr, zero
CSR fcsr -> 0x00000000
x4 <- 0x00000000


mem[X,0x800003AC] -> 0xAC27
mem[X,0x800003AE] -> 0x0A80
[240] [M]: 0x800003AC (0x0A80AC27) fsw fs0, 184(ra)
mem[0x800022CC] <- 0xFFFF7E00


mem[X,0x800003B0] -> 0xAE23
mem[X,0x800003B2] -> 0x0A40
[241] [M]: 0x800003B0 (0x0A40AE23) sw tp, 188(ra)
mem[0x800022D0] <- 0x00000000


mem[X,0x800003B4] -> 0xA407
mem[X,0x800003B6] -> 0x0601
[242] [M]: 0x800003B4 (0x0601A407) flw fs0, 96(gp)
mem[R,0x80002070] -> 0x00000000
f8 <- 0xFFFFFFFF00000000


mem[X,0x800003B8] -> 0x0113
mem[X,0x800003BA] -> 0x0000
[243] [M]: 0x800003B8 (0x00000113) addi sp, zero, 0
x2 <- 0x00000000


mem[X,0x800003BC] -> 0x1073
mem[X,0x800003BE] -> 0x0031
[244] [M]: 0x800003BC (0x00311073) csrrw zero, fcsr, sp
CSR fcsr -> 0x00000000
CSR fcsr <- 0x00000000 (input: 0x00000000)


mem[X,0x800003C0] -> 0x73D3
mem[X,0x800003C2] -> 0x5C04
[245] [M]: 0x800003C0 (0x5C0473D3) fsqrt.h ft7, fs0, dyn
f7 <- 0xFFFFFFFFFFFF7E00


mem[X,0x800003C4] -> 0x2273
mem[X,0x800003C6] -> 0x0030
[246] [M]: 0x800003C4 (0x00302273) csrrs tp, fcsr, zero
CSR fcsr -> 0x00000000
x4 <- 0x00000000


mem[X,0x800003C8] -> 0xA027
mem[X,0x800003CA] -> 0x0C70
[247] [M]: 0x800003C8 (0x0C70A027) fsw ft7, 192(ra)
mem[0x800022D4] <- 0xFFFF7E00


mem[X,0x800003CC] -> 0xA223
mem[X,0x800003CE] -> 0x0C40
[248] [M]: 0x800003CC (0x0C40A223) sw tp, 196(ra)
mem[0x800022D8] <- 0x00000000


mem[X,0x800003D0] -> 0xA287
mem[X,0x800003D2] -> 0x0641
[249] [M]: 0x800003D0 (0x0641A287) flw ft5, 100(gp)
mem[R,0x80002074] -> 0x00000000
f5 <- 0xFFFFFFFF00000000


mem[X,0x800003D4] -> 0x0113
mem[X,0x800003D6] -> 0x0000
[250] [M]: 0x800003D4 (0x00000113) addi sp, zero, 0
x2 <- 0x00000000


mem[X,0x800003D8] -> 0x1073
mem[X,0x800003DA] -> 0x0031
[251] [M]: 0x800003D8 (0x00311073) csrrw zero, fcsr, sp
CSR fcsr -> 0x00000000
CSR fcsr <- 0x00000000 (input: 0x00000000)


mem[X,0x800003DC] -> 0xF353
mem[X,0x800003DE] -> 0x5C02
[252] [M]: 0x800003DC (0x5C02F353) fsqrt.h ft6, ft5, dyn
f6 <- 0xFFFFFFFFFFFF7E00


mem[X,0x800003E0] -> 0x2273
mem[X,0x800003E2] -> 0x0030
[253] [M]: 0x800003E0 (0x00302273) csrrs tp, fcsr, zero
CSR fcsr -> 0x00000000
x4 <- 0x00000000


mem[X,0x800003E4] -> 0xA427
mem[X,0x800003E6] -> 0x0C60
[254] [M]: 0x800003E4 (0x0C60A427) fsw ft6, 200(ra)
mem[0x800022DC] <- 0xFFFF7E00


mem[X,0x800003E8] -> 0xA623
mem[X,0x800003EA] -> 0x0C40
[255] [M]: 0x800003E8 (0x0C40A623) sw tp, 204(ra)
mem[0x800022E0] <- 0x00000000


mem[X,0x800003EC] -> 0xA307
mem[X,0x800003EE] -> 0x0681
[256] [M]: 0x800003EC (0x0681A307) flw ft6, 104(gp)
mem[R,0x80002078] -> 0x00000000
f6 <- 0xFFFFFFFF00000000


mem[X,0x800003F0] -> 0x0113
mem[X,0x800003F2] -> 0x0000
[257] [M]: 0x800003F0 (0x00000113) addi sp, zero, 0
x2 <- 0x00000000


mem[X,0x800003F4] -> 0x1073
mem[X,0x800003F6] -> 0x0031
[258] [M]: 0x800003F4 (0x00311073) csrrw zero, fcsr, sp
CSR fcsr -> 0x00000000
CSR fcsr <- 0x00000000 (input: 0x00000000)


mem[X,0x800003F8] -> 0x72D3
mem[X,0x800003FA] -> 0x5C03
[259] [M]: 0x800003F8 (0x5C0372D3) fsqrt.h ft5, ft6, dyn
f5 <- 0xFFFFFFFFFFFF7E00


mem[X,0x800003FC] -> 0x2273
mem[X,0x800003FE] -> 0x0030
[260] [M]: 0x800003FC (0x00302273) csrrs tp, fcsr, zero
CSR fcsr -> 0x00000000
x4 <- 0x00000000


mem[X,0x80000400] -> 0xA827
mem[X,0x80000402] -> 0x0C50
[261] [M]: 0x80000400 (0x0C50A827) fsw ft5, 208(ra)
mem[0x800022E4] <- 0xFFFF7E00


mem[X,0x80000404] -> 0xAA23
mem[X,0x80000406] -> 0x0C40
[262] [M]: 0x80000404 (0x0C40AA23) sw tp, 212(ra)
mem[0x800022E8] <- 0x00000000


mem[X,0x80000408] -> 0xA187
mem[X,0x8000040A] -> 0x06C1
[263] [M]: 0x80000408 (0x06C1A187) flw ft3, 108(gp)
mem[R,0x8000207C] -> 0x00000000
f3 <- 0xFFFFFFFF00000000


mem[X,0x8000040C] -> 0x0113
mem[X,0x8000040E] -> 0x0000
[264] [M]: 0x8000040C (0x00000113) addi sp, zero, 0
x2 <- 0x00000000


mem[X,0x80000410] -> 0x1073
mem[X,0x80000412] -> 0x0031
[265] [M]: 0x80000410 (0x00311073) csrrw zero, fcsr, sp
CSR fcsr -> 0x00000000
CSR fcsr <- 0x00000000 (input: 0x00000000)


mem[X,0x80000414] -> 0xF253
mem[X,0x80000416] -> 0x5C01
[266] [M]: 0x80000414 (0x5C01F253) fsqrt.h ft4, ft3, dyn
f4 <- 0xFFFFFFFFFFFF7E00


mem[X,0x80000418] -> 0x2273
mem[X,0x8000041A] -> 0x0030
[267] [M]: 0x80000418 (0x00302273) csrrs tp, fcsr, zero
CSR fcsr -> 0x00000000
x4 <- 0x00000000


mem[X,0x8000041C] -> 0xAC27
mem[X,0x8000041E] -> 0x0C40
[268] [M]: 0x8000041C (0x0C40AC27) fsw ft4, 216(ra)
mem[0x800022EC] <- 0xFFFF7E00


mem[X,0x80000420] -> 0xAE23
mem[X,0x80000422] -> 0x0C40
[269] [M]: 0x80000420 (0x0C40AE23) sw tp, 220(ra)
mem[0x800022F0] <- 0x00000000


mem[X,0x80000424] -> 0xA207
mem[X,0x80000426] -> 0x0701
[270] [M]: 0x80000424 (0x0701A207) flw ft4, 112(gp)
mem[R,0x80002080] -> 0x00000000
f4 <- 0xFFFFFFFF00000000


mem[X,0x80000428] -> 0x0113
mem[X,0x8000042A] -> 0x0000
[271] [M]: 0x80000428 (0x00000113) addi sp, zero, 0
x2 <- 0x00000000


mem[X,0x8000042C] -> 0x1073
mem[X,0x8000042E] -> 0x0031
[272] [M]: 0x8000042C (0x00311073) csrrw zero, fcsr, sp
CSR fcsr -> 0x00000000
CSR fcsr <- 0x00000000 (input: 0x00000000)


mem[X,0x80000430] -> 0x71D3
mem[X,0x80000432] -> 0x5C02
[273] [M]: 0x80000430 (0x5C0271D3) fsqrt.h ft3, ft4, dyn
f3 <- 0xFFFFFFFFFFFF7E00


mem[X,0x80000434] -> 0x2273
mem[X,0x80000436] -> 0x0030
[274] [M]: 0x80000434 (0x00302273) csrrs tp, fcsr, zero
CSR fcsr -> 0x00000000
x4 <- 0x00000000


mem[X,0x80000438] -> 0xA027
mem[X,0x8000043A] -> 0x0E30
[275] [M]: 0x80000438 (0x0E30A027) fsw ft3, 224(ra)
mem[0x800022F4] <- 0xFFFF7E00


mem[X,0x8000043C] -> 0xA223
mem[X,0x8000043E] -> 0x0E40
[276] [M]: 0x8000043C (0x0E40A223) sw tp, 228(ra)
mem[0x800022F8] <- 0x00000000


mem[X,0x80000440] -> 0xA087
mem[X,0x80000442] -> 0x0741
[277] [M]: 0x80000440 (0x0741A087) flw ft1, 116(gp)
mem[R,0x80002084] -> 0x00000000
f1 <- 0xFFFFFFFF00000000


mem[X,0x80000444] -> 0x0113
mem[X,0x80000446] -> 0x0000
[278] [M]: 0x80000444 (0x00000113) addi sp, zero, 0
x2 <- 0x00000000


mem[X,0x80000448] -> 0x1073
mem[X,0x8000044A] -> 0x0031
[279] [M]: 0x80000448 (0x00311073) csrrw zero, fcsr, sp
CSR fcsr -> 0x00000000
CSR fcsr <- 0x00000000 (input: 0x00000000)


mem[X,0x8000044C] -> 0xF153
mem[X,0x8000044E] -> 0x5C00
[280] [M]: 0x8000044C (0x5C00F153) fsqrt.h ft2, ft1, dyn
f2 <- 0xFFFFFFFFFFFF7E00


mem[X,0x80000450] -> 0x2273
mem[X,0x80000452] -> 0x0030
[281] [M]: 0x80000450 (0x00302273) csrrs tp, fcsr, zero
CSR fcsr -> 0x00000000
x4 <- 0x00000000


mem[X,0x80000454] -> 0xA427
mem[X,0x80000456] -> 0x0E20
[282] [M]: 0x80000454 (0x0E20A427) fsw ft2, 232(ra)
mem[0x800022FC] <- 0xFFFF7E00


mem[X,0x80000458] -> 0xA623
mem[X,0x8000045A] -> 0x0E40
[283] [M]: 0x80000458 (0x0E40A623) sw tp, 236(ra)
mem[0x80002300] <- 0x00000000


mem[X,0x8000045C] -> 0xA107
mem[X,0x8000045E] -> 0x0781
[284] [M]: 0x8000045C (0x0781A107) flw ft2, 120(gp)
mem[R,0x80002088] -> 0x00000000
f2 <- 0xFFFFFFFF00000000


mem[X,0x80000460] -> 0x0113
mem[X,0x80000462] -> 0x0000
[285] [M]: 0x80000460 (0x00000113) addi sp, zero, 0
x2 <- 0x00000000


mem[X,0x80000464] -> 0x1073
mem[X,0x80000466] -> 0x0031
[286] [M]: 0x80000464 (0x00311073) csrrw zero, fcsr, sp
CSR fcsr -> 0x00000000
CSR fcsr <- 0x00000000 (input: 0x00000000)


mem[X,0x80000468] -> 0x70D3
mem[X,0x8000046A] -> 0x5C01
[287] [M]: 0x80000468 (0x5C0170D3) fsqrt.h ft1, ft2, dyn
f1 <- 0xFFFFFFFFFFFF7E00


mem[X,0x8000046C] -> 0x2273
mem[X,0x8000046E] -> 0x0030
[288] [M]: 0x8000046C (0x00302273) csrrs tp, fcsr, zero
CSR fcsr -> 0x00000000
x4 <- 0x00000000


mem[X,0x80000470] -> 0xA827
mem[X,0x80000472] -> 0x0E10
[289] [M]: 0x80000470 (0x0E10A827) fsw ft1, 240(ra)
mem[0x80002304] <- 0xFFFF7E00


mem[X,0x80000474] -> 0xAA23
mem[X,0x80000476] -> 0x0E40
[290] [M]: 0x80000474 (0x0E40AA23) sw tp, 244(ra)
mem[0x80002308] <- 0x00000000


mem[X,0x80000478] -> 0xA007
mem[X,0x8000047A] -> 0x07C1
[291] [M]: 0x80000478 (0x07C1A007) flw ft0, 124(gp)
mem[R,0x8000208C] -> 0x00000000
f0 <- 0xFFFFFFFF00000000


mem[X,0x8000047C] -> 0x0113
mem[X,0x8000047E] -> 0x0000
[292] [M]: 0x8000047C (0x00000113) addi sp, zero, 0
x2 <- 0x00000000


mem[X,0x80000480] -> 0x1073
mem[X,0x80000482] -> 0x0031
[293] [M]: 0x80000480 (0x00311073) csrrw zero, fcsr, sp
CSR fcsr -> 0x00000000
CSR fcsr <- 0x00000000 (input: 0x00000000)


mem[X,0x80000484] -> 0x7FD3
mem[X,0x80000486] -> 0x5C00
[294] [M]: 0x80000484 (0x5C007FD3) fsqrt.h ft11, ft0, dyn
f31 <- 0xFFFFFFFFFFFF7E00


mem[X,0x80000488] -> 0x2273
mem[X,0x8000048A] -> 0x0030
[295] [M]: 0x80000488 (0x00302273) csrrs tp, fcsr, zero
CSR fcsr -> 0x00000000
x4 <- 0x00000000


mem[X,0x8000048C] -> 0xAC27
mem[X,0x8000048E] -> 0x0FF0
[296] [M]: 0x8000048C (0x0FF0AC27) fsw ft11, 248(ra)
mem[0x8000230C] <- 0xFFFF7E00


mem[X,0x80000490] -> 0xAE23
mem[X,0x80000492] -> 0x0E40
[297] [M]: 0x80000490 (0x0E40AE23) sw tp, 252(ra)
mem[0x80002310] <- 0x00000000


mem[X,0x80000494] -> 0xAF87
mem[X,0x80000496] -> 0x0801
[298] [M]: 0x80000494 (0x0801AF87) flw ft11, 128(gp)
mem[R,0x80002090] -> 0x00000000
f31 <- 0xFFFFFFFF00000000


mem[X,0x80000498] -> 0x0113
mem[X,0x8000049A] -> 0x0000
[299] [M]: 0x80000498 (0x00000113) addi sp, zero, 0
x2 <- 0x00000000


clint::tick mtime <- 0x0000000000000003
 clint timer pending at mtime 0x0000000000000003
htif::tick 0x0000000000000000
mem[X,0x8000049C] -> 0x1073
mem[X,0x8000049E] -> 0x0031
[300] [M]: 0x8000049C (0x00311073) csrrw zero, fcsr, sp
CSR fcsr -> 0x00000000
CSR fcsr <- 0x00000000 (input: 0x00000000)


mem[X,0x800004A0] -> 0xF053
mem[X,0x800004A2] -> 0x5C0F
[301] [M]: 0x800004A0 (0x5C0FF053) fsqrt.h ft0, ft11, dyn
f0 <- 0xFFFFFFFFFFFF7E00


mem[X,0x800004A4] -> 0x2273
mem[X,0x800004A6] -> 0x0030
[302] [M]: 0x800004A4 (0x00302273) csrrs tp, fcsr, zero
CSR fcsr -> 0x00000000
x4 <- 0x00000000


mem[X,0x800004A8] -> 0xA027
mem[X,0x800004AA] -> 0x1000
[303] [M]: 0x800004A8 (0x1000A027) fsw ft0, 256(ra)
mem[0x80002314] <- 0xFFFF7E00


mem[X,0x800004AC] -> 0xA223
mem[X,0x800004AE] -> 0x1040
[304] [M]: 0x800004AC (0x1040A223) sw tp, 260(ra)
mem[0x80002318] <- 0x00000000


mem[X,0x800004B0] -> 0x0093
mem[X,0x800004B2] -> 0x0010
[305] [M]: 0x800004B0 (0x00100093) addi ra, zero, 1
x1 <- 0x00000001


mem[X,0x800004B4] -> 0x1F17
mem[X,0x800004B6] -> 0x0000
[306] [M]: 0x800004B4 (0x00001F17) auipc t5, 1
x30 <- 0x800014B4


mem[X,0x800004B8] -> 0x2623
mem[X,0x800004BA] -> 0xB41F
[307] [M]: 0x800004B8 (0xB41F2623) sw ra, 2892(t5)
htif[0x80001000] <- 0x00000001


mem[X,0x800004BC] -> 0xF06F
mem[X,0x800004BE] -> 0xFF9F
[308] [M]: 0x800004BC (0xFF9FF06F) jal zero, 2097144


mem[X,0x800004B4] -> 0x1F17
mem[X,0x800004B6] -> 0x0000
[309] [M]: 0x800004B4 (0x00001F17) auipc t5, 1
x30 <- 0x800014B4


mem[X,0x800004B8] -> 0x2623
mem[X,0x800004BA] -> 0xB41F
[310] [M]: 0x800004B8 (0xB41F2623) sw ra, 2892(t5)
htif[0x80001000] <- 0x00000001


mem[X,0x800004BC] -> 0xF06F
mem[X,0x800004BE] -> 0xFF9F
[311] [M]: 0x800004BC (0xFF9FF06F) jal zero, 2097144


mem[X,0x800004B4] -> 0x1F17
mem[X,0x800004B6] -> 0x0000
[312] [M]: 0x800004B4 (0x00001F17) auipc t5, 1
x30 <- 0x800014B4


mem[X,0x800004B8] -> 0x2623
mem[X,0x800004BA] -> 0xB41F
[313] [M]: 0x800004B8 (0xB41F2623) sw ra, 2892(t5)
htif[0x80001000] <- 0x00000001
htif-syscall-proxy cmd: 0x000000000001

SUCCESS
