---
fadd_b10:
  config:
  - check ISA:=regex(.*I.*Zfinx.*)
  mnemonics:
    fadd.s: 79
    coverage: 1/1
  op_comb:
    rs1 != rs2  and rs1 != rd and rs2 != rd: 75
    rs1 == rd != rs2: 1
    rs1 == rs2 != rd: 1
    rs1 == rs2 == rd: 1
    rs2 == rd != rs1: 1
    coverage: 5/5
  rd:
    x0: 1
    x1: 1
    x10: 1
    x11: 1
    x12: 1
    x13: 1
    x14: 1
    x15: 1
    x16: 1
    x17: 1
    x18: 1
    x19: 1
    x2: 1
    x20: 1
    x21: 1
    x22: 1
    x23: 1
    x24: 1
    x25: 1
    x26: 1
    x27: 1
    x28: 1
    x29: 1
    x3: 1
    x30: 1
    x31: 48
    x4: 1
    x5: 1
    x6: 1
    x7: 1
    x8: 1
    x9: 1
    coverage: 32/32
  rs1:
    x0: 1
    x1: 1
    x10: 1
    x11: 1
    x12: 1
    x13: 1
    x14: 1
    x15: 1
    x16: 1
    x17: 1
    x18: 1
    x19: 1
    x2: 1
    x20: 1
    x21: 1
    x22: 1
    x23: 1
    x24: 1
    x25: 1
    x26: 1
    x27: 1
    x28: 1
    x29: 1
    x3: 1
    x30: 47
    x31: 2
    x4: 1
    x5: 1
    x6: 1
    x7: 1
    x8: 1
    x9: 1
    coverage: 32/32
  rs2:
    x0: 1
    x1: 1
    x10: 1
    x11: 1
    x12: 1
    x13: 1
    x14: 1
    x15: 1
    x16: 1
    x17: 1
    x18: 1
    x19: 1
    x2: 1
    x20: 1
    x21: 1
    x22: 1
    x23: 1
    x24: 1
    x25: 1
    x26: 1
    x27: 1
    x28: 1
    x29: 46
    x3: 1
    x30: 3
    x31: 1
    x4: 1
    x5: 1
    x6: 1
    x7: 1
    x8: 1
    x9: 1
    coverage: 32/32
  val_comb:
    ? 'fs1 == 0 and fe1 == 0xf4 and fm1 == 0x260524 and fs2 == 0 and fe2 == 0x00 and
      fm2 == 0x000000 and  fcsr == 0x0 and rm_val == 7  and rs1_sgn_prefix == 0x00000000
      and rs2_sgn_prefix == 0x00000000  #nosat'
    : 2
    ? 'fs1 == 0 and fe1 == 0xf4 and fm1 == 0x260524 and fs2 == 0 and fe2 == 0x08 and
      fm2 == 0x248f41 and  fcsr == 0x0 and rm_val == 7  and rs1_sgn_prefix == 0x00000000
      and rs2_sgn_prefix == 0x00000000  #nosat'
    : 1
    ? 'fs1 == 0 and fe1 == 0xf4 and fm1 == 0x260524 and fs2 == 0 and fe2 == 0x0b and
      fm2 == 0x4db312 and  fcsr == 0x0 and rm_val == 7  and rs1_sgn_prefix == 0x00000000
      and rs2_sgn_prefix == 0x00000000  #nosat'
    : 1
    ? 'fs1 == 0 and fe1 == 0xf4 and fm1 == 0x260524 and fs2 == 0 and fe2 == 0x0f and
      fm2 == 0x008feb and  fcsr == 0x0 and rm_val == 7  and rs1_sgn_prefix == 0x00000000
      and rs2_sgn_prefix == 0x00000000  #nosat'
    : 1
    ? 'fs1 == 0 and fe1 == 0xf4 and fm1 == 0x260524 and fs2 == 0 and fe2 == 0x12 and
      fm2 == 0x20b3e6 and  fcsr == 0x0 and rm_val == 7  and rs1_sgn_prefix == 0x00000000
      and rs2_sgn_prefix == 0x00000000  #nosat'
    : 1
    ? 'fs1 == 0 and fe1 == 0xf4 and fm1 == 0x260524 and fs2 == 0 and fe2 == 0x15 and
      fm2 == 0x48e0e0 and  fcsr == 0x0 and rm_val == 7  and rs1_sgn_prefix == 0x00000000
      and rs2_sgn_prefix == 0x00000000  #nosat'
    : 1
    ? 'fs1 == 0 and fe1 == 0xf4 and fm1 == 0x260524 and fs2 == 0 and fe2 == 0x18 and
      fm2 == 0x7b1918 and  fcsr == 0x0 and rm_val == 7  and rs1_sgn_prefix == 0x00000000
      and rs2_sgn_prefix == 0x00000000  #nosat'
    : 1
    ? 'fs1 == 0 and fe1 == 0xf4 and fm1 == 0x260524 and fs2 == 0 and fe2 == 0x1c and
      fm2 == 0x1cefaf and  fcsr == 0x0 and rm_val == 7  and rs1_sgn_prefix == 0x00000000
      and rs2_sgn_prefix == 0x00000000  #nosat'
    : 1
    ? 'fs1 == 0 and fe1 == 0xf4 and fm1 == 0x260524 and fs2 == 0 and fe2 == 0x1f and
      fm2 == 0x442b9a and  fcsr == 0x0 and rm_val == 7  and rs1_sgn_prefix == 0x00000000
      and rs2_sgn_prefix == 0x00000000  #nosat'
    : 1
    ? 'fs1 == 0 and fe1 == 0xf4 and fm1 == 0x260524 and fs2 == 0 and fe2 == 0x22 and
      fm2 == 0x753681 and  fcsr == 0x0 and rm_val == 7  and rs1_sgn_prefix == 0x00000000
      and rs2_sgn_prefix == 0x00000000  #nosat'
    : 1
    ? 'fs1 == 0 and fe1 == 0xf4 and fm1 == 0x260524 and fs2 == 0 and fe2 == 0x26 and
      fm2 == 0x194210 and  fcsr == 0x0 and rm_val == 7  and rs1_sgn_prefix == 0x00000000
      and rs2_sgn_prefix == 0x00000000  #nosat'
    : 1
    ? 'fs1 == 0 and fe1 == 0xf4 and fm1 == 0x260524 and fs2 == 0 and fe2 == 0x29 and
      fm2 == 0x3f9295 and  fcsr == 0x0 and rm_val == 7  and rs1_sgn_prefix == 0x00000000
      and rs2_sgn_prefix == 0x00000000  #nosat'
    : 1
    ? 'fs1 == 0 and fe1 == 0xf4 and fm1 == 0x260524 and fs2 == 0 and fe2 == 0x2c and
      fm2 == 0x6f773a and  fcsr == 0x0 and rm_val == 7  and rs1_sgn_prefix == 0x00000000
      and rs2_sgn_prefix == 0x00000000  #nosat'
    : 1
    ? 'fs1 == 0 and fe1 == 0xf4 and fm1 == 0x260524 and fs2 == 0 and fe2 == 0x30 and
      fm2 == 0x15aa84 and  fcsr == 0x0 and rm_val == 7  and rs1_sgn_prefix == 0x00000000
      and rs2_sgn_prefix == 0x00000000  #nosat'
    : 1
    ? 'fs1 == 0 and fe1 == 0xf4 and fm1 == 0x260524 and fs2 == 0 and fe2 == 0x33 and
      fm2 == 0x3b1525 and  fcsr == 0x0 and rm_val == 7  and rs1_sgn_prefix == 0x00000000
      and rs2_sgn_prefix == 0x00000000  #nosat'
    : 1
    ? 'fs1 == 0 and fe1 == 0xf4 and fm1 == 0x260524 and fs2 == 0 and fe2 == 0x36 and
      fm2 == 0x69da6f and  fcsr == 0x0 and rm_val == 7  and rs1_sgn_prefix == 0x00000000
      and rs2_sgn_prefix == 0x00000000  #nosat'
    : 1
    ? 'fs1 == 0 and fe1 == 0xf4 and fm1 == 0x260524 and fs2 == 0 and fe2 == 0x3a and
      fm2 == 0x122885 and  fcsr == 0x0 and rm_val == 7  and rs1_sgn_prefix == 0x00000000
      and rs2_sgn_prefix == 0x00000000  #nosat'
    : 1
    ? 'fs1 == 0 and fe1 == 0xf4 and fm1 == 0x260524 and fs2 == 0 and fe2 == 0x3d and
      fm2 == 0x36b2a6 and  fcsr == 0x0 and rm_val == 7  and rs1_sgn_prefix == 0x00000000
      and rs2_sgn_prefix == 0x00000000  #nosat'
    : 1
    ? 'fs1 == 0 and fe1 == 0xf4 and fm1 == 0x260524 and fs2 == 0 and fe2 == 0x40 and
      fm2 == 0x645f50 and  fcsr == 0x0 and rm_val == 7  and rs1_sgn_prefix == 0x00000000
      and rs2_sgn_prefix == 0x00000000  #nosat'
    : 1
    ? 'fs1 == 0 and fe1 == 0xf4 and fm1 == 0x260524 and fs2 == 0 and fe2 == 0x44 and
      fm2 == 0x0ebb92 and  fcsr == 0x0 and rm_val == 7  and rs1_sgn_prefix == 0x00000000
      and rs2_sgn_prefix == 0x00000000  #nosat'
    : 1
    ? 'fs1 == 0 and fe1 == 0xf4 and fm1 == 0x260524 and fs2 == 0 and fe2 == 0x47 and
      fm2 == 0x326a76 and  fcsr == 0x0 and rm_val == 7  and rs1_sgn_prefix == 0x00000000
      and rs2_sgn_prefix == 0x00000000  #nosat'
    : 1
    ? 'fs1 == 0 and fe1 == 0xf4 and fm1 == 0x260524 and fs2 == 0 and fe2 == 0x4a and
      fm2 == 0x5f0514 and  fcsr == 0x0 and rm_val == 7  and rs1_sgn_prefix == 0x00000000
      and rs2_sgn_prefix == 0x00000000  #nosat'
    : 1
    ? 'fs1 == 0 and fe1 == 0xf4 and fm1 == 0x260524 and fs2 == 0 and fe2 == 0x4e and
      fm2 == 0x0b632c and  fcsr == 0x0 and rm_val == 7  and rs1_sgn_prefix == 0x00000000
      and rs2_sgn_prefix == 0x00000000  #nosat'
    : 1
    ? 'fs1 == 0 and fe1 == 0xf4 and fm1 == 0x260524 and fs2 == 0 and fe2 == 0x51 and
      fm2 == 0x2e3bf8 and  fcsr == 0x0 and rm_val == 7  and rs1_sgn_prefix == 0x00000000
      and rs2_sgn_prefix == 0x00000000  #nosat'
    : 1
    ? 'fs1 == 0 and fe1 == 0xf4 and fm1 == 0x260524 and fs2 == 0 and fe2 == 0x54 and
      fm2 == 0x59caf6 and  fcsr == 0x0 and rm_val == 7  and rs1_sgn_prefix == 0x00000000
      and rs2_sgn_prefix == 0x00000000  #nosat'
    : 1
    ? 'fs1 == 0 and fe1 == 0xf4 and fm1 == 0x260524 and fs2 == 0 and fe2 == 0x58 and
      fm2 == 0x081ed9 and  fcsr == 0x0 and rm_val == 7  and rs1_sgn_prefix == 0x00000000
      and rs2_sgn_prefix == 0x00000000  #nosat'
    : 1
    ? 'fs1 == 0 and fe1 == 0xf4 and fm1 == 0x260524 and fs2 == 0 and fe2 == 0x5b and
      fm2 == 0x2a2690 and  fcsr == 0x0 and rm_val == 7  and rs1_sgn_prefix == 0x00000000
      and rs2_sgn_prefix == 0x00000000  #nosat'
    : 1
    ? 'fs1 == 0 and fe1 == 0xf4 and fm1 == 0x260524 and fs2 == 0 and fe2 == 0x5e and
      fm2 == 0x54b034 and  fcsr == 0x0 and rm_val == 7  and rs1_sgn_prefix == 0x00000000
      and rs2_sgn_prefix == 0x00000000  #nosat'
    : 1
    ? 'fs1 == 0 and fe1 == 0xf4 and fm1 == 0x260524 and fs2 == 0 and fe2 == 0x62 and
      fm2 == 0x04ee20 and  fcsr == 0x0 and rm_val == 7  and rs1_sgn_prefix == 0x00000000
      and rs2_sgn_prefix == 0x00000000  #nosat'
    : 1
    ? 'fs1 == 0 and fe1 == 0xf4 and fm1 == 0x260524 and fs2 == 0 and fe2 == 0x65 and
      fm2 == 0x2629a8 and  fcsr == 0x0 and rm_val == 7  and rs1_sgn_prefix == 0x00000000
      and rs2_sgn_prefix == 0x00000000  #nosat'
    : 1
    ? 'fs1 == 0 and fe1 == 0xf4 and fm1 == 0x260524 and fs2 == 0 and fe2 == 0x68 and
      fm2 == 0x4fb413 and  fcsr == 0x0 and rm_val == 7  and rs1_sgn_prefix == 0x00000000
      and rs2_sgn_prefix == 0x00000000  #nosat'
    : 1
    ? 'fs1 == 0 and fe1 == 0xf4 and fm1 == 0x260524 and fs2 == 0 and fe2 == 0x6c and
      fm2 == 0x01d08b and  fcsr == 0x0 and rm_val == 7  and rs1_sgn_prefix == 0x00000000
      and rs2_sgn_prefix == 0x00000000  #nosat'
    : 1
    ? 'fs1 == 0 and fe1 == 0xf4 and fm1 == 0x260524 and fs2 == 0 and fe2 == 0x6f and
      fm2 == 0x2244ae and  fcsr == 0x0 and rm_val == 7  and rs1_sgn_prefix == 0x00000000
      and rs2_sgn_prefix == 0x00000000  #nosat'
    : 1
    ? 'fs1 == 0 and fe1 == 0xf4 and fm1 == 0x260524 and fs2 == 0 and fe2 == 0x72 and
      fm2 == 0x4ad5da and  fcsr == 0x0 and rm_val == 7  and rs1_sgn_prefix == 0x00000000
      and rs2_sgn_prefix == 0x00000000  #nosat'
    : 2
    ? 'fs1 == 0 and fe1 == 0xf4 and fm1 == 0x260524 and fs2 == 0 and fe2 == 0x75 and
      fm2 == 0x7d8b51 and  fcsr == 0x0 and rm_val == 7  and rs1_sgn_prefix == 0x00000000
      and rs2_sgn_prefix == 0x00000000  #nosat'
    : 1
    ? 'fs1 == 0 and fe1 == 0xf4 and fm1 == 0x260524 and fs2 == 0 and fe2 == 0x79 and
      fm2 == 0x1e7712 and  fcsr == 0x0 and rm_val == 7  and rs1_sgn_prefix == 0x00000000
      and rs2_sgn_prefix == 0x00000000  #nosat'
    : 1
    ? 'fs1 == 0 and fe1 == 0xf4 and fm1 == 0x260524 and fs2 == 0 and fe2 == 0x7c and
      fm2 == 0x4614d7 and  fcsr == 0x0 and rm_val == 7  and rs1_sgn_prefix == 0x00000000
      and rs2_sgn_prefix == 0x00000000  #nosat'
    : 1
    ? 'fs1 == 0 and fe1 == 0xf4 and fm1 == 0x260524 and fs2 == 0 and fe2 == 0x7f and
      fm2 == 0x779a0d and  fcsr == 0x0 and rm_val == 7  and rs1_sgn_prefix == 0x00000000
      and rs2_sgn_prefix == 0x00000000  #nosat'
    : 1
    ? 'fs1 == 0 and fe1 == 0xf4 and fm1 == 0x260524 and fs2 == 0 and fe2 == 0x83 and
      fm2 == 0x1ac048 and  fcsr == 0x0 and rm_val == 7  and rs1_sgn_prefix == 0x00000000
      and rs2_sgn_prefix == 0x00000000  #nosat'
    : 1
    ? 'fs1 == 0 and fe1 == 0xf4 and fm1 == 0x260524 and fs2 == 0 and fe2 == 0x86 and
      fm2 == 0x41705a and  fcsr == 0x0 and rm_val == 7  and rs1_sgn_prefix == 0x00000000
      and rs2_sgn_prefix == 0x00000000  #nosat'
    : 1
    ? 'fs1 == 0 and fe1 == 0xf4 and fm1 == 0x260524 and fs2 == 0 and fe2 == 0x89 and
      fm2 == 0x71cc71 and  fcsr == 0x0 and rm_val == 7  and rs1_sgn_prefix == 0x00000000
      and rs2_sgn_prefix == 0x00000000  #nosat'
    : 1
    ? 'fs1 == 0 and fe1 == 0xf4 and fm1 == 0x260524 and fs2 == 0 and fe2 == 0x8d and
      fm2 == 0x171fc6 and  fcsr == 0x0 and rm_val == 7  and rs1_sgn_prefix == 0x00000000
      and rs2_sgn_prefix == 0x00000000  #nosat'
    : 1
    ? 'fs1 == 0 and fe1 == 0xf4 and fm1 == 0x260524 and fs2 == 0 and fe2 == 0x90 and
      fm2 == 0x3ce7b8 and  fcsr == 0x0 and rm_val == 7  and rs1_sgn_prefix == 0x00000000
      and rs2_sgn_prefix == 0x00000000  #nosat'
    : 1
    ? 'fs1 == 0 and fe1 == 0xf4 and fm1 == 0x260524 and fs2 == 0 and fe2 == 0x93 and
      fm2 == 0x6c21a6 and  fcsr == 0x0 and rm_val == 7  and rs1_sgn_prefix == 0x00000000
      and rs2_sgn_prefix == 0x00000000  #nosat'
    : 1
    ? 'fs1 == 0 and fe1 == 0xf4 and fm1 == 0x260524 and fs2 == 0 and fe2 == 0x97 and
      fm2 == 0x139508 and  fcsr == 0x0 and rm_val == 7  and rs1_sgn_prefix == 0x00000000
      and rs2_sgn_prefix == 0x00000000  #nosat'
    : 1
    ? 'fs1 == 0 and fe1 == 0xf4 and fm1 == 0x260524 and fs2 == 0 and fe2 == 0x9a and
      fm2 == 0x387a4a and  fcsr == 0x0 and rm_val == 7  and rs1_sgn_prefix == 0x00000000
      and rs2_sgn_prefix == 0x00000000  #nosat'
    : 1
    ? 'fs1 == 0 and fe1 == 0xf4 and fm1 == 0x260524 and fs2 == 0 and fe2 == 0x9d and
      fm2 == 0x6698dc and  fcsr == 0x0 and rm_val == 7  and rs1_sgn_prefix == 0x00000000
      and rs2_sgn_prefix == 0x00000000  #nosat'
    : 1
    ? 'fs1 == 0 and fe1 == 0xf4 and fm1 == 0x260524 and fs2 == 0 and fe2 == 0xa1 and
      fm2 == 0x101f89 and  fcsr == 0x0 and rm_val == 7  and rs1_sgn_prefix == 0x00000000
      and rs2_sgn_prefix == 0x00000000  #nosat'
    : 1
    ? 'fs1 == 0 and fe1 == 0xf4 and fm1 == 0x260524 and fs2 == 0 and fe2 == 0xa4 and
      fm2 == 0x34276c and  fcsr == 0x0 and rm_val == 7  and rs1_sgn_prefix == 0x00000000
      and rs2_sgn_prefix == 0x00000000  #nosat'
    : 1
    ? 'fs1 == 0 and fe1 == 0xf4 and fm1 == 0x260524 and fs2 == 0 and fe2 == 0xa7 and
      fm2 == 0x613147 and  fcsr == 0x0 and rm_val == 7  and rs1_sgn_prefix == 0x00000000
      and rs2_sgn_prefix == 0x00000000  #nosat'
    : 1
    ? 'fs1 == 0 and fe1 == 0xf4 and fm1 == 0x260524 and fs2 == 0 and fe2 == 0xab and
      fm2 == 0x0cbecc and  fcsr == 0x0 and rm_val == 7  and rs1_sgn_prefix == 0x00000000
      and rs2_sgn_prefix == 0x00000000  #nosat'
    : 1
    ? 'fs1 == 0 and fe1 == 0xf4 and fm1 == 0x260524 and fs2 == 0 and fe2 == 0xae and
      fm2 == 0x2fee7f and  fcsr == 0x0 and rm_val == 7  and rs1_sgn_prefix == 0x00000000
      and rs2_sgn_prefix == 0x00000000  #nosat'
    : 1
    ? 'fs1 == 0 and fe1 == 0xf4 and fm1 == 0x260524 and fs2 == 0 and fe2 == 0xb1 and
      fm2 == 0x5bea1f and  fcsr == 0x0 and rm_val == 7  and rs1_sgn_prefix == 0x00000000
      and rs2_sgn_prefix == 0x00000000  #nosat'
    : 1
    ? 'fs1 == 0 and fe1 == 0xf4 and fm1 == 0x260524 and fs2 == 0 and fe2 == 0xb5 and
      fm2 == 0x097253 and  fcsr == 0x0 and rm_val == 7  and rs1_sgn_prefix == 0x00000000
      and rs2_sgn_prefix == 0x00000000  #nosat'
    : 1
    ? 'fs1 == 0 and fe1 == 0xf4 and fm1 == 0x260524 and fs2 == 0 and fe2 == 0xb8 and
      fm2 == 0x2bcee8 and  fcsr == 0x0 and rm_val == 7  and rs1_sgn_prefix == 0x00000000
      and rs2_sgn_prefix == 0x00000000  #nosat'
    : 1
    ? 'fs1 == 0 and fe1 == 0xf4 and fm1 == 0x260524 and fs2 == 0 and fe2 == 0xbb and
      fm2 == 0x56c2a2 and  fcsr == 0x0 and rm_val == 7  and rs1_sgn_prefix == 0x00000000
      and rs2_sgn_prefix == 0x00000000  #nosat'
    : 1
    ? 'fs1 == 0 and fe1 == 0xf4 and fm1 == 0x260524 and fs2 == 0 and fe2 == 0xbf and
      fm2 == 0x0639a5 and  fcsr == 0x0 and rm_val == 7  and rs1_sgn_prefix == 0x00000000
      and rs2_sgn_prefix == 0x00000000  #nosat'
    : 1
    ? 'fs1 == 0 and fe1 == 0xf4 and fm1 == 0x260524 and fs2 == 0 and fe2 == 0xc2 and
      fm2 == 0x27c80f and  fcsr == 0x0 and rm_val == 7  and rs1_sgn_prefix == 0x00000000
      and rs2_sgn_prefix == 0x00000000  #nosat'
    : 1
    ? 'fs1 == 0 and fe1 == 0xf4 and fm1 == 0x260524 and fs2 == 0 and fe2 == 0xc5 and
      fm2 == 0x51ba13 and  fcsr == 0x0 and rm_val == 7  and rs1_sgn_prefix == 0x00000000
      and rs2_sgn_prefix == 0x00000000  #nosat'
    : 1
    ? 'fs1 == 0 and fe1 == 0xf4 and fm1 == 0x260524 and fs2 == 0 and fe2 == 0xc9 and
      fm2 == 0x03144b and  fcsr == 0x0 and rm_val == 7  and rs1_sgn_prefix == 0x00000000
      and rs2_sgn_prefix == 0x00000000  #nosat'
    : 1
    ? 'fs1 == 0 and fe1 == 0xf4 and fm1 == 0x260524 and fs2 == 0 and fe2 == 0xcc and
      fm2 == 0x23d95e and  fcsr == 0x0 and rm_val == 7  and rs1_sgn_prefix == 0x00000000
      and rs2_sgn_prefix == 0x00000000  #nosat'
    : 1
    ? 'fs1 == 0 and fe1 == 0xf4 and fm1 == 0x260524 and fs2 == 0 and fe2 == 0xcf and
      fm2 == 0x4ccfb6 and  fcsr == 0x0 and rm_val == 7  and rs1_sgn_prefix == 0x00000000
      and rs2_sgn_prefix == 0x00000000  #nosat'
    : 1
    ? 'fs1 == 0 and fe1 == 0xf4 and fm1 == 0x260524 and fs2 == 0 and fe2 == 0xd3 and
      fm2 == 0x0001d2 and  fcsr == 0x0 and rm_val == 7  and rs1_sgn_prefix == 0x00000000
      and rs2_sgn_prefix == 0x00000000  #nosat'
    : 1
    ? 'fs1 == 0 and fe1 == 0xf4 and fm1 == 0x260524 and fs2 == 0 and fe2 == 0xd6 and
      fm2 == 0x200246 and  fcsr == 0x0 and rm_val == 7  and rs1_sgn_prefix == 0x00000000
      and rs2_sgn_prefix == 0x00000000  #nosat'
    : 1
    ? 'fs1 == 0 and fe1 == 0xf4 and fm1 == 0x260524 and fs2 == 0 and fe2 == 0xd9 and
      fm2 == 0x4802d8 and  fcsr == 0x0 and rm_val == 7  and rs1_sgn_prefix == 0x00000000
      and rs2_sgn_prefix == 0x00000000  #nosat'
    : 1
    ? 'fs1 == 0 and fe1 == 0xf4 and fm1 == 0x260524 and fs2 == 0 and fe2 == 0xdc and
      fm2 == 0x7a038e and  fcsr == 0x0 and rm_val == 7  and rs1_sgn_prefix == 0x00000000
      and rs2_sgn_prefix == 0x00000000  #nosat'
    : 1
    ? 'fs1 == 0 and fe1 == 0xf4 and fm1 == 0x260524 and fs2 == 0 and fe2 == 0xe0 and
      fm2 == 0x1c4239 and  fcsr == 0x0 and rm_val == 7  and rs1_sgn_prefix == 0x00000000
      and rs2_sgn_prefix == 0x00000000  #nosat'
    : 1
    ? 'fs1 == 0 and fe1 == 0xf4 and fm1 == 0x260524 and fs2 == 0 and fe2 == 0xe3 and
      fm2 == 0x4352c7 and  fcsr == 0x0 and rm_val == 7  and rs1_sgn_prefix == 0x00000000
      and rs2_sgn_prefix == 0x00000000  #nosat'
    : 1
    ? 'fs1 == 0 and fe1 == 0xf4 and fm1 == 0x260524 and fs2 == 0 and fe2 == 0xe6 and
      fm2 == 0x742779 and  fcsr == 0x0 and rm_val == 7  and rs1_sgn_prefix == 0x00000000
      and rs2_sgn_prefix == 0x00000000  #nosat'
    : 1
    ? 'fs1 == 0 and fe1 == 0xf4 and fm1 == 0x260524 and fs2 == 0 and fe2 == 0xea and
      fm2 == 0x1898ab and  fcsr == 0x0 and rm_val == 7  and rs1_sgn_prefix == 0x00000000
      and rs2_sgn_prefix == 0x00000000  #nosat'
    : 1
    ? 'fs1 == 0 and fe1 == 0xf4 and fm1 == 0x260524 and fs2 == 0 and fe2 == 0xed and
      fm2 == 0x3ebed6 and  fcsr == 0x0 and rm_val == 7  and rs1_sgn_prefix == 0x00000000
      and rs2_sgn_prefix == 0x00000000  #nosat'
    : 1
    ? 'fs1 == 0 and fe1 == 0xf4 and fm1 == 0x260524 and fs2 == 0 and fe2 == 0xf0 and
      fm2 == 0x6e6e8c and  fcsr == 0x0 and rm_val == 7  and rs1_sgn_prefix == 0x00000000
      and rs2_sgn_prefix == 0x00000000  #nosat'
    : 1
    ? 'fs1 == 0 and fe1 == 0xf4 and fm1 == 0x260524 and fs2 == 0 and fe2 == 0xf4 and
      fm2 == 0x150517 and  fcsr == 0x0 and rm_val == 7  and rs1_sgn_prefix == 0x00000000
      and rs2_sgn_prefix == 0x00000000  #nosat'
    : 1
    ? 'fs1 == 0 and fe1 == 0xf4 and fm1 == 0x260524 and fs2 == 0 and fe2 == 0xfe and
      fm2 == 0x7fffff and  fcsr == 0x0 and rm_val == 7  and rs1_sgn_prefix == 0x00000000
      and rs2_sgn_prefix == 0x00000000  #nosat'
    : 1
    coverage: 74/74
  total_coverage: 176/176
