---
fcvt.wu.d_b1:
  config:
  - check ISA:=regex(.*I.*F.*)
  opcode:
    fcvt.wu.d: 33
    coverage: 1/1
  rd:
    x0: 1
    x1: 1
    x10: 1
    x11: 1
    x12: 1
    x13: 1
    x14: 1
    x15: 1
    x16: 1
    x17: 1
    x18: 1
    x19: 1
    x2: 1
    x20: 1
    x21: 1
    x22: 1
    x23: 1
    x24: 1
    x25: 1
    x26: 1
    x27: 1
    x28: 1
    x29: 1
    x3: 1
    x30: 1
    x31: 2
    x4: 1
    x5: 1
    x6: 1
    x7: 1
    x8: 1
    x9: 1
    coverage: 32/32
  rs1:
    f0: 1
    f1: 1
    f10: 1
    f11: 1
    f12: 1
    f13: 1
    f14: 1
    f15: 1
    f16: 1
    f17: 1
    f18: 1
    f19: 1
    f2: 1
    f20: 1
    f21: 1
    f22: 1
    f23: 1
    f24: 1
    f25: 1
    f26: 1
    f27: 1
    f28: 1
    f29: 1
    f3: 1
    f30: 1
    f31: 2
    f4: 1
    f5: 1
    f6: 1
    f7: 1
    f8: 1
    f9: 1
    coverage: 32/32
  val_comb:
    'fs1 == 0 and fe1 == 0x000 and fm1 == 0x0000000000000 and rm_val == 0  #nosat': 9  #  rs1_val==dzero(0x0000000000000000)
    'fs1 == 1 and fe1 == 0x3f8 and fm1 == 0x0000000000000 and rm_val == 0  #nosat': 1 #  rs1_val==done(0xBF80000000000000)
    'fs1 == 0 and fe1 == 0x3ff and fm1 == 0x0000000000000 and rm_val == 0  #nosat': 1 #  rs1_val==done(0x3FF0000000000000)
    'fs1 == 1 and fe1 == 0x7ff and fm1 == 0x0000000000001 and rm_val == 0  #nosat': 1 #  rs1_val==dsnan(0xFFF0000000000001)
    'fs1 == 0 and fe1 == 0x7ff and fm1 == 0x0000000000001 and rm_val == 0  #nosat': 1 #  rs1_val==dsnan(0x7FF0000000000001)
    'fs1 == 1 and fe1 == 0x7ff and fm1 == 0x8000000000001 and rm_val == 0  #nosat': 1 #  rs1_val==dqnan(0xFFF8000000000001)
    'fs1 == 0 and fe1 == 0x7ff and fm1 == 0x8000000000001 and rm_val == 0  #nosat': 1 #  rs1_val==dqnan(0x7FF8000000000001)
    'fs1 == 1 and fe1 == 0x7ff and fm1 == 0x8000000000000 and rm_val == 0  #nosat': 1 #  rs1_val==ddefaultnan(0xFFF8000000000000)
    'fs1 == 0 and fe1 == 0x7ff and fm1 == 0x8000000000000 and rm_val == 0  #nosat': 1 #  rs1_val==ddefaultnan(0x7FF8000000000000)
    'fs1 == 1 and fe1 == 0x7ff and fm1 == 0x0000000000000 and rm_val == 0  #nosat': 1 #  rs1_val==dinfinity(0xFFF0000000000000)
    'fs1 == 0 and fe1 == 0x7ff and fm1 == 0x0000000000000 and rm_val == 0  #nosat': 1 #  rs1_val==dinfinity(0x7FF0000000000000)
    'fs1 == 1 and fe1 == 0x7fe and fm1 == 0xfffffffffffff and rm_val == 0  #nosat': 1 #  rs1_val==dmaxnorm(0xFFEFFFFFFFFFFFFF)
    'fs1 == 0 and fe1 == 0x7fe and fm1 == 0xfffffffffffff and rm_val == 0  #nosat': 1 #  rs1_val==dmaxnorm(0x7FEFFFFFFFFFFFFF)
    'fs1 == 1 and fe1 == 0x001 and fm1 == 0x0000000000002 and rm_val == 0  #nosat': 2 #  rs1_val==dnorm(0x8010000000000002)
    'fs1 == 0 and fe1 == 0x001 and fm1 == 0x0000000000002 and rm_val == 0  #nosat': 1 #  rs1_val==dnorm(0x0010000000000002)
    'fs1 == 1 and fe1 == 0x001 and fm1 == 0x0000000000000 and rm_val == 0  #nosat': 1 #  rs1_val==dminnorm(0x8010000000000000)
    'fs1 == 0 and fe1 == 0x001 and fm1 == 0x0000000000000 and rm_val == 0  #nosat': 1 #  rs1_val==dminnorm(0x0010000000000000)
    'fs1 == 1 and fe1 == 0x000 and fm1 == 0xfffffffffffff and rm_val == 0  #nosat': 1 #  rs1_val==dmaxsubnorm(0x800FFFFFFFFFFFFF)
    'fs1 == 0 and fe1 == 0x000 and fm1 == 0xfffffffffffff and rm_val == 0  #nosat': 1 #  rs1_val==dmaxsubnorm(0x000FFFFFFFFFFFFF)
    'fs1 == 1 and fe1 == 0x000 and fm1 == 0x0000000000002 and rm_val == 0  #nosat': 1 #  rs1_val==dsubnorm(0x8000000000000002)
    'fs1 == 0 and fe1 == 0x000 and fm1 == 0x0000000000002 and rm_val == 0  #nosat': 1 #  rs1_val==dsubnorm(0x0000000000000002)
    'fs1 == 1 and fe1 == 0x000 and fm1 == 0x0000000000001 and rm_val == 0  #nosat': 1 #  rs1_val==dminsubnorm(0x8000000000000001)
    'fs1 == 0 and fe1 == 0x000 and fm1 == 0x0000000000001 and rm_val == 0  #nosat': 1 #  rs1_val==dminsubnorm(0x0000000000000001)
    'fs1 == 1 and fe1 == 0x000 and fm1 == 0x0000000000000 and rm_val == 0  #nosat': 1 #  rs1_val==dzero(0x8000000000000000)
    coverage: 24/24
  total_coverage: 89/89
