---
fsqrt_b9:
  config:
  - check ISA:=regex(.*I.*Zfinx.*)
  mnemonics:
    fsqrt.s: 196
    coverage: 1/1
  op_comb:
    rs1 != rd: 195
    rs1 == rd: 1
    coverage: 2/2
  rd:
    x0: 1
    x1: 1
    x10: 1
    x11: 1
    x12: 1
    x13: 1
    x14: 1
    x15: 1
    x16: 1
    x17: 1
    x18: 1
    x19: 1
    x2: 1
    x20: 1
    x21: 1
    x22: 1
    x23: 1
    x24: 1
    x25: 1
    x26: 1
    x27: 1
    x28: 1
    x29: 1
    x3: 1
    x30: 1
    x31: 165
    x4: 1
    x5: 1
    x6: 1
    x7: 1
    x8: 1
    x9: 1
    coverage: 32/32
  rs1:
    x0: 1
    x1: 1
    x10: 1
    x11: 1
    x12: 1
    x13: 1
    x14: 1
    x15: 1
    x16: 1
    x17: 1
    x18: 1
    x19: 1
    x2: 1
    x20: 1
    x21: 1
    x22: 1
    x23: 1
    x24: 1
    x25: 1
    x26: 1
    x27: 1
    x28: 1
    x29: 1
    x3: 1
    x30: 164
    x31: 2
    x4: 1
    x5: 1
    x6: 1
    x7: 1
    x8: 1
    x9: 1
    coverage: 32/32
  val_comb:
    'fs1 == 0 and fe1 == 0x00 and fm1 == 0x000000 and  fcsr == 0x0 and rm_val == 7  and rs1_sgn_prefix == 0x00000000  #nosat': 2
    'fs1 == 0 and fe1 == 0x00 and fm1 == 0x7fffff and  fcsr == 0x0 and rm_val == 7  and rs1_sgn_prefix == 0x00000000  #nosat': 1
    'fs1 == 0 and fe1 == 0x00 and fm1 == 0x400000 and  fcsr == 0x0 and rm_val == 7  and rs1_sgn_prefix == 0x00000000  #nosat': 1
    'fs1 == 0 and fe1 == 0x00 and fm1 == 0x3fffff and  fcsr == 0x0 and rm_val == 7  and rs1_sgn_prefix == 0x00000000  #nosat': 1
    'fs1 == 0 and fe1 == 0x00 and fm1 == 0x600000 and  fcsr == 0x0 and rm_val == 7  and rs1_sgn_prefix == 0x00000000  #nosat': 1
    'fs1 == 0 and fe1 == 0x00 and fm1 == 0x1fffff and  fcsr == 0x0 and rm_val == 7  and rs1_sgn_prefix == 0x00000000  #nosat': 1
    'fs1 == 0 and fe1 == 0x00 and fm1 == 0x700000 and  fcsr == 0x0 and rm_val == 7  and rs1_sgn_prefix == 0x00000000  #nosat': 1
    'fs1 == 0 and fe1 == 0x00 and fm1 == 0x0fffff and  fcsr == 0x0 and rm_val == 7  and rs1_sgn_prefix == 0x00000000  #nosat': 1
    'fs1 == 0 and fe1 == 0x00 and fm1 == 0x780000 and  fcsr == 0x0 and rm_val == 7  and rs1_sgn_prefix == 0x00000000  #nosat': 1
    'fs1 == 0 and fe1 == 0x00 and fm1 == 0x07ffff and  fcsr == 0x0 and rm_val == 7  and rs1_sgn_prefix == 0x00000000  #nosat': 1
    'fs1 == 0 and fe1 == 0x00 and fm1 == 0x7c0000 and  fcsr == 0x0 and rm_val == 7  and rs1_sgn_prefix == 0x00000000  #nosat': 1
    'fs1 == 0 and fe1 == 0x00 and fm1 == 0x03ffff and  fcsr == 0x0 and rm_val == 7  and rs1_sgn_prefix == 0x00000000  #nosat': 1
    'fs1 == 0 and fe1 == 0x00 and fm1 == 0x7e0000 and  fcsr == 0x0 and rm_val == 7  and rs1_sgn_prefix == 0x00000000  #nosat': 1
    'fs1 == 0 and fe1 == 0x00 and fm1 == 0x01ffff and  fcsr == 0x0 and rm_val == 7  and rs1_sgn_prefix == 0x00000000  #nosat': 1
    'fs1 == 0 and fe1 == 0x00 and fm1 == 0x7f0000 and  fcsr == 0x0 and rm_val == 7  and rs1_sgn_prefix == 0x00000000  #nosat': 1
    'fs1 == 0 and fe1 == 0x00 and fm1 == 0x00ffff and  fcsr == 0x0 and rm_val == 7  and rs1_sgn_prefix == 0x00000000  #nosat': 1
    'fs1 == 0 and fe1 == 0x00 and fm1 == 0x7f8000 and  fcsr == 0x0 and rm_val == 7  and rs1_sgn_prefix == 0x00000000  #nosat': 1
    'fs1 == 0 and fe1 == 0x00 and fm1 == 0x007fff and  fcsr == 0x0 and rm_val == 7  and rs1_sgn_prefix == 0x00000000  #nosat': 1
    'fs1 == 0 and fe1 == 0x00 and fm1 == 0x7fc000 and  fcsr == 0x0 and rm_val == 7  and rs1_sgn_prefix == 0x00000000  #nosat': 1
    'fs1 == 0 and fe1 == 0x00 and fm1 == 0x003fff and  fcsr == 0x0 and rm_val == 7  and rs1_sgn_prefix == 0x00000000  #nosat': 1
    'fs1 == 0 and fe1 == 0x00 and fm1 == 0x7fe000 and  fcsr == 0x0 and rm_val == 7  and rs1_sgn_prefix == 0x00000000  #nosat': 1
    'fs1 == 0 and fe1 == 0x00 and fm1 == 0x001fff and  fcsr == 0x0 and rm_val == 7  and rs1_sgn_prefix == 0x00000000  #nosat': 1
    'fs1 == 0 and fe1 == 0x00 and fm1 == 0x7ff000 and  fcsr == 0x0 and rm_val == 7  and rs1_sgn_prefix == 0x00000000  #nosat': 1
    'fs1 == 0 and fe1 == 0x00 and fm1 == 0x000fff and  fcsr == 0x0 and rm_val == 7  and rs1_sgn_prefix == 0x00000000  #nosat': 1
    'fs1 == 0 and fe1 == 0x00 and fm1 == 0x7ff800 and  fcsr == 0x0 and rm_val == 7  and rs1_sgn_prefix == 0x00000000  #nosat': 1
    'fs1 == 0 and fe1 == 0x00 and fm1 == 0x0007ff and  fcsr == 0x0 and rm_val == 7  and rs1_sgn_prefix == 0x00000000  #nosat': 1
    'fs1 == 0 and fe1 == 0x00 and fm1 == 0x7ffc00 and  fcsr == 0x0 and rm_val == 7  and rs1_sgn_prefix == 0x00000000  #nosat': 1
    'fs1 == 0 and fe1 == 0x00 and fm1 == 0x0003ff and  fcsr == 0x0 and rm_val == 7  and rs1_sgn_prefix == 0x00000000  #nosat': 1
    'fs1 == 0 and fe1 == 0x00 and fm1 == 0x7ffe00 and  fcsr == 0x0 and rm_val == 7  and rs1_sgn_prefix == 0x00000000  #nosat': 1
    'fs1 == 0 and fe1 == 0x00 and fm1 == 0x0001ff and  fcsr == 0x0 and rm_val == 7  and rs1_sgn_prefix == 0x00000000  #nosat': 1
    'fs1 == 0 and fe1 == 0x00 and fm1 == 0x7fff00 and  fcsr == 0x0 and rm_val == 7  and rs1_sgn_prefix == 0x00000000  #nosat': 1
    'fs1 == 0 and fe1 == 0x00 and fm1 == 0x0000ff and  fcsr == 0x0 and rm_val == 7  and rs1_sgn_prefix == 0x00000000  #nosat': 1
    'fs1 == 0 and fe1 == 0x00 and fm1 == 0x7fff80 and  fcsr == 0x0 and rm_val == 7  and rs1_sgn_prefix == 0x00000000  #nosat': 2
    'fs1 == 0 and fe1 == 0x00 and fm1 == 0x00007f and  fcsr == 0x0 and rm_val == 7  and rs1_sgn_prefix == 0x00000000  #nosat': 1
    'fs1 == 0 and fe1 == 0x00 and fm1 == 0x7fffc0 and  fcsr == 0x0 and rm_val == 7  and rs1_sgn_prefix == 0x00000000  #nosat': 1
    'fs1 == 0 and fe1 == 0x00 and fm1 == 0x00003f and  fcsr == 0x0 and rm_val == 7  and rs1_sgn_prefix == 0x00000000  #nosat': 1
    'fs1 == 0 and fe1 == 0x00 and fm1 == 0x7fffe0 and  fcsr == 0x0 and rm_val == 7  and rs1_sgn_prefix == 0x00000000  #nosat': 1
    'fs1 == 0 and fe1 == 0x00 and fm1 == 0x00001f and  fcsr == 0x0 and rm_val == 7  and rs1_sgn_prefix == 0x00000000  #nosat': 1
    'fs1 == 0 and fe1 == 0x00 and fm1 == 0x7ffff0 and  fcsr == 0x0 and rm_val == 7  and rs1_sgn_prefix == 0x00000000  #nosat': 1
    'fs1 == 0 and fe1 == 0x00 and fm1 == 0x00000f and  fcsr == 0x0 and rm_val == 7  and rs1_sgn_prefix == 0x00000000  #nosat': 1
    'fs1 == 0 and fe1 == 0x00 and fm1 == 0x7ffff8 and  fcsr == 0x0 and rm_val == 7  and rs1_sgn_prefix == 0x00000000  #nosat': 1
    'fs1 == 0 and fe1 == 0x00 and fm1 == 0x000007 and  fcsr == 0x0 and rm_val == 7  and rs1_sgn_prefix == 0x00000000  #nosat': 1
    'fs1 == 0 and fe1 == 0x00 and fm1 == 0x7ffffc and  fcsr == 0x0 and rm_val == 7  and rs1_sgn_prefix == 0x00000000  #nosat': 1
    'fs1 == 0 and fe1 == 0x00 and fm1 == 0x000003 and  fcsr == 0x0 and rm_val == 7  and rs1_sgn_prefix == 0x00000000  #nosat': 1
    'fs1 == 0 and fe1 == 0x00 and fm1 == 0x7ffffe and  fcsr == 0x0 and rm_val == 7  and rs1_sgn_prefix == 0x00000000  #nosat': 1
    'fs1 == 0 and fe1 == 0x00 and fm1 == 0x000001 and  fcsr == 0x0 and rm_val == 7  and rs1_sgn_prefix == 0x00000000  #nosat': 1
    'fs1 == 0 and fe1 == 0x7f and fm1 == 0x000000 and  fcsr == 0x0 and rm_val == 7  and rs1_sgn_prefix == 0x00000000  #nosat': 1
    'fs1 == 0 and fe1 == 0x7f and fm1 == 0x7fffff and  fcsr == 0x0 and rm_val == 7  and rs1_sgn_prefix == 0x00000000  #nosat': 1
    'fs1 == 0 and fe1 == 0x7f and fm1 == 0x400000 and  fcsr == 0x0 and rm_val == 7  and rs1_sgn_prefix == 0x00000000  #nosat': 1
    'fs1 == 0 and fe1 == 0x7f and fm1 == 0x3fffff and  fcsr == 0x0 and rm_val == 7  and rs1_sgn_prefix == 0x00000000  #nosat': 1
    'fs1 == 0 and fe1 == 0x7f and fm1 == 0x600000 and  fcsr == 0x0 and rm_val == 7  and rs1_sgn_prefix == 0x00000000  #nosat': 1
    'fs1 == 0 and fe1 == 0x7f and fm1 == 0x1fffff and  fcsr == 0x0 and rm_val == 7  and rs1_sgn_prefix == 0x00000000  #nosat': 1
    'fs1 == 0 and fe1 == 0x7f and fm1 == 0x700000 and  fcsr == 0x0 and rm_val == 7  and rs1_sgn_prefix == 0x00000000  #nosat': 1
    'fs1 == 0 and fe1 == 0x7f and fm1 == 0x0fffff and  fcsr == 0x0 and rm_val == 7  and rs1_sgn_prefix == 0x00000000  #nosat': 1
    'fs1 == 0 and fe1 == 0x7f and fm1 == 0x780000 and  fcsr == 0x0 and rm_val == 7  and rs1_sgn_prefix == 0x00000000  #nosat': 1
    'fs1 == 0 and fe1 == 0x7f and fm1 == 0x07ffff and  fcsr == 0x0 and rm_val == 7  and rs1_sgn_prefix == 0x00000000  #nosat': 1
    'fs1 == 0 and fe1 == 0x7f and fm1 == 0x7c0000 and  fcsr == 0x0 and rm_val == 7  and rs1_sgn_prefix == 0x00000000  #nosat': 1
    'fs1 == 0 and fe1 == 0x7f and fm1 == 0x03ffff and  fcsr == 0x0 and rm_val == 7  and rs1_sgn_prefix == 0x00000000  #nosat': 1
    'fs1 == 0 and fe1 == 0x7f and fm1 == 0x7e0000 and  fcsr == 0x0 and rm_val == 7  and rs1_sgn_prefix == 0x00000000  #nosat': 1
    'fs1 == 0 and fe1 == 0x7f and fm1 == 0x01ffff and  fcsr == 0x0 and rm_val == 7  and rs1_sgn_prefix == 0x00000000  #nosat': 1
    'fs1 == 0 and fe1 == 0x7f and fm1 == 0x7f0000 and  fcsr == 0x0 and rm_val == 7  and rs1_sgn_prefix == 0x00000000  #nosat': 1
    'fs1 == 0 and fe1 == 0x7f and fm1 == 0x00ffff and  fcsr == 0x0 and rm_val == 7  and rs1_sgn_prefix == 0x00000000  #nosat': 1
    'fs1 == 0 and fe1 == 0x7f and fm1 == 0x7f8000 and  fcsr == 0x0 and rm_val == 7  and rs1_sgn_prefix == 0x00000000  #nosat': 1
    'fs1 == 0 and fe1 == 0x7f and fm1 == 0x007fff and  fcsr == 0x0 and rm_val == 7  and rs1_sgn_prefix == 0x00000000  #nosat': 1
    'fs1 == 0 and fe1 == 0x7f and fm1 == 0x7fc000 and  fcsr == 0x0 and rm_val == 7  and rs1_sgn_prefix == 0x00000000  #nosat': 1
    'fs1 == 0 and fe1 == 0x7f and fm1 == 0x003fff and  fcsr == 0x0 and rm_val == 7  and rs1_sgn_prefix == 0x00000000  #nosat': 1
    'fs1 == 0 and fe1 == 0x7f and fm1 == 0x7fe000 and  fcsr == 0x0 and rm_val == 7  and rs1_sgn_prefix == 0x00000000  #nosat': 1
    'fs1 == 0 and fe1 == 0x7f and fm1 == 0x001fff and  fcsr == 0x0 and rm_val == 7  and rs1_sgn_prefix == 0x00000000  #nosat': 1
    'fs1 == 0 and fe1 == 0x7f and fm1 == 0x7ff000 and  fcsr == 0x0 and rm_val == 7  and rs1_sgn_prefix == 0x00000000  #nosat': 1
    'fs1 == 0 and fe1 == 0x7f and fm1 == 0x000fff and  fcsr == 0x0 and rm_val == 7  and rs1_sgn_prefix == 0x00000000  #nosat': 1
    'fs1 == 0 and fe1 == 0x7f and fm1 == 0x7ff800 and  fcsr == 0x0 and rm_val == 7  and rs1_sgn_prefix == 0x00000000  #nosat': 1
    'fs1 == 0 and fe1 == 0x7f and fm1 == 0x0007ff and  fcsr == 0x0 and rm_val == 7  and rs1_sgn_prefix == 0x00000000  #nosat': 1
    'fs1 == 0 and fe1 == 0x7f and fm1 == 0x7ffc00 and  fcsr == 0x0 and rm_val == 7  and rs1_sgn_prefix == 0x00000000  #nosat': 1
    'fs1 == 0 and fe1 == 0x7f and fm1 == 0x0003ff and  fcsr == 0x0 and rm_val == 7  and rs1_sgn_prefix == 0x00000000  #nosat': 1
    'fs1 == 0 and fe1 == 0x7f and fm1 == 0x7ffe00 and  fcsr == 0x0 and rm_val == 7  and rs1_sgn_prefix == 0x00000000  #nosat': 1
    'fs1 == 0 and fe1 == 0x7f and fm1 == 0x0001ff and  fcsr == 0x0 and rm_val == 7  and rs1_sgn_prefix == 0x00000000  #nosat': 1
    'fs1 == 0 and fe1 == 0x7f and fm1 == 0x7fff00 and  fcsr == 0x0 and rm_val == 7  and rs1_sgn_prefix == 0x00000000  #nosat': 1
    'fs1 == 0 and fe1 == 0x7f and fm1 == 0x0000ff and  fcsr == 0x0 and rm_val == 7  and rs1_sgn_prefix == 0x00000000  #nosat': 1
    'fs1 == 0 and fe1 == 0x7f and fm1 == 0x7fff80 and  fcsr == 0x0 and rm_val == 7  and rs1_sgn_prefix == 0x00000000  #nosat': 1
    'fs1 == 0 and fe1 == 0x7f and fm1 == 0x00007f and  fcsr == 0x0 and rm_val == 7  and rs1_sgn_prefix == 0x00000000  #nosat': 1
    'fs1 == 0 and fe1 == 0x7f and fm1 == 0x7fffc0 and  fcsr == 0x0 and rm_val == 7  and rs1_sgn_prefix == 0x00000000  #nosat': 1
    'fs1 == 0 and fe1 == 0x7f and fm1 == 0x00003f and  fcsr == 0x0 and rm_val == 7  and rs1_sgn_prefix == 0x00000000  #nosat': 1
    'fs1 == 0 and fe1 == 0x7f and fm1 == 0x7fffe0 and  fcsr == 0x0 and rm_val == 7  and rs1_sgn_prefix == 0x00000000  #nosat': 1
    'fs1 == 0 and fe1 == 0x7f and fm1 == 0x00001f and  fcsr == 0x0 and rm_val == 7  and rs1_sgn_prefix == 0x00000000  #nosat': 1
    'fs1 == 0 and fe1 == 0x7f and fm1 == 0x7ffff0 and  fcsr == 0x0 and rm_val == 7  and rs1_sgn_prefix == 0x00000000  #nosat': 1
    'fs1 == 0 and fe1 == 0x7f and fm1 == 0x00000f and  fcsr == 0x0 and rm_val == 7  and rs1_sgn_prefix == 0x00000000  #nosat': 1
    'fs1 == 0 and fe1 == 0x7f and fm1 == 0x7ffff8 and  fcsr == 0x0 and rm_val == 7  and rs1_sgn_prefix == 0x00000000  #nosat': 1
    'fs1 == 0 and fe1 == 0x7f and fm1 == 0x000007 and  fcsr == 0x0 and rm_val == 7  and rs1_sgn_prefix == 0x00000000  #nosat': 1
    'fs1 == 0 and fe1 == 0x7f and fm1 == 0x7ffffc and  fcsr == 0x0 and rm_val == 7  and rs1_sgn_prefix == 0x00000000  #nosat': 1
    'fs1 == 0 and fe1 == 0x7f and fm1 == 0x000003 and  fcsr == 0x0 and rm_val == 7  and rs1_sgn_prefix == 0x00000000  #nosat': 1
    'fs1 == 0 and fe1 == 0x7f and fm1 == 0x7ffffe and  fcsr == 0x0 and rm_val == 7  and rs1_sgn_prefix == 0x00000000  #nosat': 1
    'fs1 == 0 and fe1 == 0x7f and fm1 == 0x000001 and  fcsr == 0x0 and rm_val == 7  and rs1_sgn_prefix == 0x00000000  #nosat': 1
    'fs1 == 0 and fe1 == 0x01 and fm1 == 0x000000 and  fcsr == 0x0 and rm_val == 7  and rs1_sgn_prefix == 0x00000000  #nosat': 1
    'fs1 == 0 and fe1 == 0x01 and fm1 == 0x7fffff and  fcsr == 0x0 and rm_val == 7  and rs1_sgn_prefix == 0x00000000  #nosat': 1
    'fs1 == 0 and fe1 == 0x01 and fm1 == 0x400000 and  fcsr == 0x0 and rm_val == 7  and rs1_sgn_prefix == 0x00000000  #nosat': 1
    'fs1 == 0 and fe1 == 0x01 and fm1 == 0x3fffff and  fcsr == 0x0 and rm_val == 7  and rs1_sgn_prefix == 0x00000000  #nosat': 1
    'fs1 == 0 and fe1 == 0x01 and fm1 == 0x600000 and  fcsr == 0x0 and rm_val == 7  and rs1_sgn_prefix == 0x00000000  #nosat': 1
    'fs1 == 0 and fe1 == 0x01 and fm1 == 0x1fffff and  fcsr == 0x0 and rm_val == 7  and rs1_sgn_prefix == 0x00000000  #nosat': 1
    'fs1 == 0 and fe1 == 0x01 and fm1 == 0x700000 and  fcsr == 0x0 and rm_val == 7  and rs1_sgn_prefix == 0x00000000  #nosat': 1
    'fs1 == 0 and fe1 == 0x01 and fm1 == 0x0fffff and  fcsr == 0x0 and rm_val == 7  and rs1_sgn_prefix == 0x00000000  #nosat': 1
    'fs1 == 0 and fe1 == 0x01 and fm1 == 0x780000 and  fcsr == 0x0 and rm_val == 7  and rs1_sgn_prefix == 0x00000000  #nosat': 1
    'fs1 == 0 and fe1 == 0x01 and fm1 == 0x07ffff and  fcsr == 0x0 and rm_val == 7  and rs1_sgn_prefix == 0x00000000  #nosat': 1
    'fs1 == 0 and fe1 == 0x01 and fm1 == 0x7c0000 and  fcsr == 0x0 and rm_val == 7  and rs1_sgn_prefix == 0x00000000  #nosat': 1
    'fs1 == 0 and fe1 == 0x01 and fm1 == 0x03ffff and  fcsr == 0x0 and rm_val == 7  and rs1_sgn_prefix == 0x00000000  #nosat': 1
    'fs1 == 0 and fe1 == 0x01 and fm1 == 0x7e0000 and  fcsr == 0x0 and rm_val == 7  and rs1_sgn_prefix == 0x00000000  #nosat': 1
    'fs1 == 0 and fe1 == 0x01 and fm1 == 0x01ffff and  fcsr == 0x0 and rm_val == 7  and rs1_sgn_prefix == 0x00000000  #nosat': 1
    'fs1 == 0 and fe1 == 0x01 and fm1 == 0x7f0000 and  fcsr == 0x0 and rm_val == 7  and rs1_sgn_prefix == 0x00000000  #nosat': 1
    'fs1 == 0 and fe1 == 0x01 and fm1 == 0x00ffff and  fcsr == 0x0 and rm_val == 7  and rs1_sgn_prefix == 0x00000000  #nosat': 1
    'fs1 == 0 and fe1 == 0x01 and fm1 == 0x7f8000 and  fcsr == 0x0 and rm_val == 7  and rs1_sgn_prefix == 0x00000000  #nosat': 1
    'fs1 == 0 and fe1 == 0x01 and fm1 == 0x007fff and  fcsr == 0x0 and rm_val == 7  and rs1_sgn_prefix == 0x00000000  #nosat': 1
    'fs1 == 0 and fe1 == 0x01 and fm1 == 0x7fc000 and  fcsr == 0x0 and rm_val == 7  and rs1_sgn_prefix == 0x00000000  #nosat': 1
    'fs1 == 0 and fe1 == 0x01 and fm1 == 0x003fff and  fcsr == 0x0 and rm_val == 7  and rs1_sgn_prefix == 0x00000000  #nosat': 1
    'fs1 == 0 and fe1 == 0x01 and fm1 == 0x7fe000 and  fcsr == 0x0 and rm_val == 7  and rs1_sgn_prefix == 0x00000000  #nosat': 1
    'fs1 == 0 and fe1 == 0x01 and fm1 == 0x001fff and  fcsr == 0x0 and rm_val == 7  and rs1_sgn_prefix == 0x00000000  #nosat': 1
    'fs1 == 0 and fe1 == 0x01 and fm1 == 0x7ff000 and  fcsr == 0x0 and rm_val == 7  and rs1_sgn_prefix == 0x00000000  #nosat': 1
    'fs1 == 0 and fe1 == 0x01 and fm1 == 0x000fff and  fcsr == 0x0 and rm_val == 7  and rs1_sgn_prefix == 0x00000000  #nosat': 1
    'fs1 == 0 and fe1 == 0x01 and fm1 == 0x7ff800 and  fcsr == 0x0 and rm_val == 7  and rs1_sgn_prefix == 0x00000000  #nosat': 1
    'fs1 == 0 and fe1 == 0x01 and fm1 == 0x0007ff and  fcsr == 0x0 and rm_val == 7  and rs1_sgn_prefix == 0x00000000  #nosat': 1
    'fs1 == 0 and fe1 == 0x01 and fm1 == 0x7ffc00 and  fcsr == 0x0 and rm_val == 7  and rs1_sgn_prefix == 0x00000000  #nosat': 1
    'fs1 == 0 and fe1 == 0x01 and fm1 == 0x0003ff and  fcsr == 0x0 and rm_val == 7  and rs1_sgn_prefix == 0x00000000  #nosat': 1
    'fs1 == 0 and fe1 == 0x01 and fm1 == 0x7ffe00 and  fcsr == 0x0 and rm_val == 7  and rs1_sgn_prefix == 0x00000000  #nosat': 1
    'fs1 == 0 and fe1 == 0x01 and fm1 == 0x0001ff and  fcsr == 0x0 and rm_val == 7  and rs1_sgn_prefix == 0x00000000  #nosat': 1
    'fs1 == 0 and fe1 == 0x01 and fm1 == 0x7fff00 and  fcsr == 0x0 and rm_val == 7  and rs1_sgn_prefix == 0x00000000  #nosat': 1
    'fs1 == 0 and fe1 == 0x01 and fm1 == 0x0000ff and  fcsr == 0x0 and rm_val == 7  and rs1_sgn_prefix == 0x00000000  #nosat': 1
    'fs1 == 0 and fe1 == 0x01 and fm1 == 0x7fff80 and  fcsr == 0x0 and rm_val == 7  and rs1_sgn_prefix == 0x00000000  #nosat': 1
    'fs1 == 0 and fe1 == 0x01 and fm1 == 0x00007f and  fcsr == 0x0 and rm_val == 7  and rs1_sgn_prefix == 0x00000000  #nosat': 1
    'fs1 == 0 and fe1 == 0x01 and fm1 == 0x7fffc0 and  fcsr == 0x0 and rm_val == 7  and rs1_sgn_prefix == 0x00000000  #nosat': 1
    'fs1 == 0 and fe1 == 0x01 and fm1 == 0x00003f and  fcsr == 0x0 and rm_val == 7  and rs1_sgn_prefix == 0x00000000  #nosat': 1
    'fs1 == 0 and fe1 == 0x01 and fm1 == 0x7fffe0 and  fcsr == 0x0 and rm_val == 7  and rs1_sgn_prefix == 0x00000000  #nosat': 1
    'fs1 == 0 and fe1 == 0x01 and fm1 == 0x00001f and  fcsr == 0x0 and rm_val == 7  and rs1_sgn_prefix == 0x00000000  #nosat': 1
    'fs1 == 0 and fe1 == 0x01 and fm1 == 0x7ffff0 and  fcsr == 0x0 and rm_val == 7  and rs1_sgn_prefix == 0x00000000  #nosat': 1
    'fs1 == 0 and fe1 == 0x01 and fm1 == 0x00000f and  fcsr == 0x0 and rm_val == 7  and rs1_sgn_prefix == 0x00000000  #nosat': 1
    'fs1 == 0 and fe1 == 0x01 and fm1 == 0x7ffff8 and  fcsr == 0x0 and rm_val == 7  and rs1_sgn_prefix == 0x00000000  #nosat': 1
    'fs1 == 0 and fe1 == 0x01 and fm1 == 0x000007 and  fcsr == 0x0 and rm_val == 7  and rs1_sgn_prefix == 0x00000000  #nosat': 1
    'fs1 == 0 and fe1 == 0x01 and fm1 == 0x7ffffc and  fcsr == 0x0 and rm_val == 7  and rs1_sgn_prefix == 0x00000000  #nosat': 1
    'fs1 == 0 and fe1 == 0x01 and fm1 == 0x000003 and  fcsr == 0x0 and rm_val == 7  and rs1_sgn_prefix == 0x00000000  #nosat': 1
    'fs1 == 0 and fe1 == 0x01 and fm1 == 0x7ffffe and  fcsr == 0x0 and rm_val == 7  and rs1_sgn_prefix == 0x00000000  #nosat': 1
    'fs1 == 0 and fe1 == 0x01 and fm1 == 0x000001 and  fcsr == 0x0 and rm_val == 7  and rs1_sgn_prefix == 0x00000000  #nosat': 1
    'fs1 == 0 and fe1 == 0xfe and fm1 == 0x7fffff and  fcsr == 0x0 and rm_val == 7  and rs1_sgn_prefix == 0x00000000  #nosat': 1
    'fs1 == 0 and fe1 == 0xfe and fm1 == 0x000000 and  fcsr == 0x0 and rm_val == 7  and rs1_sgn_prefix == 0x00000000  #nosat': 1
    'fs1 == 0 and fe1 == 0xfe and fm1 == 0x3fffff and  fcsr == 0x0 and rm_val == 7  and rs1_sgn_prefix == 0x00000000  #nosat': 1
    'fs1 == 0 and fe1 == 0xfe and fm1 == 0x400000 and  fcsr == 0x0 and rm_val == 7  and rs1_sgn_prefix == 0x00000000  #nosat': 1
    'fs1 == 0 and fe1 == 0xfe and fm1 == 0x1fffff and  fcsr == 0x0 and rm_val == 7  and rs1_sgn_prefix == 0x00000000  #nosat': 1
    'fs1 == 0 and fe1 == 0xfe and fm1 == 0x600000 and  fcsr == 0x0 and rm_val == 7  and rs1_sgn_prefix == 0x00000000  #nosat': 1
    'fs1 == 0 and fe1 == 0xfe and fm1 == 0x0fffff and  fcsr == 0x0 and rm_val == 7  and rs1_sgn_prefix == 0x00000000  #nosat': 1
    'fs1 == 0 and fe1 == 0xfe and fm1 == 0x700000 and  fcsr == 0x0 and rm_val == 7  and rs1_sgn_prefix == 0x00000000  #nosat': 1
    'fs1 == 0 and fe1 == 0xfe and fm1 == 0x07ffff and  fcsr == 0x0 and rm_val == 7  and rs1_sgn_prefix == 0x00000000  #nosat': 1
    'fs1 == 0 and fe1 == 0xfe and fm1 == 0x780000 and  fcsr == 0x0 and rm_val == 7  and rs1_sgn_prefix == 0x00000000  #nosat': 1
    'fs1 == 0 and fe1 == 0xfe and fm1 == 0x03ffff and  fcsr == 0x0 and rm_val == 7  and rs1_sgn_prefix == 0x00000000  #nosat': 1
    'fs1 == 0 and fe1 == 0xfe and fm1 == 0x7c0000 and  fcsr == 0x0 and rm_val == 7  and rs1_sgn_prefix == 0x00000000  #nosat': 1
    'fs1 == 0 and fe1 == 0xfe and fm1 == 0x01ffff and  fcsr == 0x0 and rm_val == 7  and rs1_sgn_prefix == 0x00000000  #nosat': 1
    'fs1 == 0 and fe1 == 0xfe and fm1 == 0x7e0000 and  fcsr == 0x0 and rm_val == 7  and rs1_sgn_prefix == 0x00000000  #nosat': 1
    'fs1 == 0 and fe1 == 0xfe and fm1 == 0x00ffff and  fcsr == 0x0 and rm_val == 7  and rs1_sgn_prefix == 0x00000000  #nosat': 1
    'fs1 == 0 and fe1 == 0xfe and fm1 == 0x7f0000 and  fcsr == 0x0 and rm_val == 7  and rs1_sgn_prefix == 0x00000000  #nosat': 1
    'fs1 == 0 and fe1 == 0xfe and fm1 == 0x007fff and  fcsr == 0x0 and rm_val == 7  and rs1_sgn_prefix == 0x00000000  #nosat': 1
    'fs1 == 0 and fe1 == 0xfe and fm1 == 0x7f8000 and  fcsr == 0x0 and rm_val == 7  and rs1_sgn_prefix == 0x00000000  #nosat': 1
    'fs1 == 0 and fe1 == 0xfe and fm1 == 0x003fff and  fcsr == 0x0 and rm_val == 7  and rs1_sgn_prefix == 0x00000000  #nosat': 1
    'fs1 == 0 and fe1 == 0xfe and fm1 == 0x7fc000 and  fcsr == 0x0 and rm_val == 7  and rs1_sgn_prefix == 0x00000000  #nosat': 1
    'fs1 == 0 and fe1 == 0xfe and fm1 == 0x001fff and  fcsr == 0x0 and rm_val == 7  and rs1_sgn_prefix == 0x00000000  #nosat': 1
    'fs1 == 0 and fe1 == 0xfe and fm1 == 0x7fe000 and  fcsr == 0x0 and rm_val == 7  and rs1_sgn_prefix == 0x00000000  #nosat': 1
    'fs1 == 0 and fe1 == 0xfe and fm1 == 0x000fff and  fcsr == 0x0 and rm_val == 7  and rs1_sgn_prefix == 0x00000000  #nosat': 1
    'fs1 == 0 and fe1 == 0xfe and fm1 == 0x7ff000 and  fcsr == 0x0 and rm_val == 7  and rs1_sgn_prefix == 0x00000000  #nosat': 1
    'fs1 == 0 and fe1 == 0xfe and fm1 == 0x0007ff and  fcsr == 0x0 and rm_val == 7  and rs1_sgn_prefix == 0x00000000  #nosat': 1
    'fs1 == 0 and fe1 == 0xfe and fm1 == 0x7ff800 and  fcsr == 0x0 and rm_val == 7  and rs1_sgn_prefix == 0x00000000  #nosat': 1
    'fs1 == 0 and fe1 == 0xfe and fm1 == 0x0003ff and  fcsr == 0x0 and rm_val == 7  and rs1_sgn_prefix == 0x00000000  #nosat': 1
    'fs1 == 0 and fe1 == 0xfe and fm1 == 0x7ffc00 and  fcsr == 0x0 and rm_val == 7  and rs1_sgn_prefix == 0x00000000  #nosat': 1
    'fs1 == 0 and fe1 == 0xfe and fm1 == 0x0001ff and  fcsr == 0x0 and rm_val == 7  and rs1_sgn_prefix == 0x00000000  #nosat': 1
    'fs1 == 0 and fe1 == 0xfe and fm1 == 0x7ffe00 and  fcsr == 0x0 and rm_val == 7  and rs1_sgn_prefix == 0x00000000  #nosat': 1
    'fs1 == 0 and fe1 == 0xfe and fm1 == 0x0000ff and  fcsr == 0x0 and rm_val == 7  and rs1_sgn_prefix == 0x00000000  #nosat': 1
    'fs1 == 0 and fe1 == 0xfe and fm1 == 0x7fff00 and  fcsr == 0x0 and rm_val == 7  and rs1_sgn_prefix == 0x00000000  #nosat': 1
    'fs1 == 0 and fe1 == 0xfe and fm1 == 0x00007f and  fcsr == 0x0 and rm_val == 7  and rs1_sgn_prefix == 0x00000000  #nosat': 1
    'fs1 == 0 and fe1 == 0xfe and fm1 == 0x7fff80 and  fcsr == 0x0 and rm_val == 7  and rs1_sgn_prefix == 0x00000000  #nosat': 1
    'fs1 == 0 and fe1 == 0xfe and fm1 == 0x00003f and  fcsr == 0x0 and rm_val == 7  and rs1_sgn_prefix == 0x00000000  #nosat': 1
    'fs1 == 0 and fe1 == 0xfe and fm1 == 0x7fffc0 and  fcsr == 0x0 and rm_val == 7  and rs1_sgn_prefix == 0x00000000  #nosat': 1
    'fs1 == 0 and fe1 == 0xfe and fm1 == 0x00001f and  fcsr == 0x0 and rm_val == 7  and rs1_sgn_prefix == 0x00000000  #nosat': 1
    'fs1 == 0 and fe1 == 0xfe and fm1 == 0x7fffe0 and  fcsr == 0x0 and rm_val == 7  and rs1_sgn_prefix == 0x00000000  #nosat': 1
    'fs1 == 0 and fe1 == 0xfe and fm1 == 0x00000f and  fcsr == 0x0 and rm_val == 7  and rs1_sgn_prefix == 0x00000000  #nosat': 1
    'fs1 == 0 and fe1 == 0xfe and fm1 == 0x7ffff0 and  fcsr == 0x0 and rm_val == 7  and rs1_sgn_prefix == 0x00000000  #nosat': 1
    'fs1 == 0 and fe1 == 0xfe and fm1 == 0x000007 and  fcsr == 0x0 and rm_val == 7  and rs1_sgn_prefix == 0x00000000  #nosat': 1
    'fs1 == 0 and fe1 == 0xfe and fm1 == 0x7ffff8 and  fcsr == 0x0 and rm_val == 7  and rs1_sgn_prefix == 0x00000000  #nosat': 1
    'fs1 == 0 and fe1 == 0xfe and fm1 == 0x000003 and  fcsr == 0x0 and rm_val == 7  and rs1_sgn_prefix == 0x00000000  #nosat': 1
    'fs1 == 0 and fe1 == 0xfe and fm1 == 0x7ffffc and  fcsr == 0x0 and rm_val == 7  and rs1_sgn_prefix == 0x00000000  #nosat': 1
    'fs1 == 0 and fe1 == 0xfe and fm1 == 0x000001 and  fcsr == 0x0 and rm_val == 7  and rs1_sgn_prefix == 0x00000000  #nosat': 1
    'fs1 == 0 and fe1 == 0xfe and fm1 == 0x7ffffe and  fcsr == 0x0 and rm_val == 7  and rs1_sgn_prefix == 0x00000000  #nosat': 1
    'fs1 == 0 and fe1 == 0xfe and fm1 == 0x36db6d and  fcsr == 0x0 and rm_val == 7  and rs1_sgn_prefix == 0x00000000  #nosat': 1
    'fs1 == 0 and fe1 == 0xfe and fm1 == 0x6db6db and  fcsr == 0x0 and rm_val == 7  and rs1_sgn_prefix == 0x00000000  #nosat': 1
    'fs1 == 0 and fe1 == 0xfe and fm1 == 0x199999 and  fcsr == 0x0 and rm_val == 7  and rs1_sgn_prefix == 0x00000000  #nosat': 1
    'fs1 == 0 and fe1 == 0xfe and fm1 == 0x666666 and  fcsr == 0x0 and rm_val == 7  and rs1_sgn_prefix == 0x00000000  #nosat': 1
    'fs1 == 0 and fe1 == 0xfe and fm1 == 0x3bbbbb and  fcsr == 0x0 and rm_val == 7  and rs1_sgn_prefix == 0x00000000  #nosat': 1
    'fs1 == 0 and fe1 == 0xfe and fm1 == 0x444444 and  fcsr == 0x0 and rm_val == 7  and rs1_sgn_prefix == 0x00000000  #nosat': 1
    'fs1 == 0 and fe1 == 0xfe and fm1 == 0x249249 and  fcsr == 0x0 and rm_val == 7  and rs1_sgn_prefix == 0x00000000  #nosat': 1
    'fs1 == 0 and fe1 == 0xfe and fm1 == 0x5b6db6 and  fcsr == 0x0 and rm_val == 7  and rs1_sgn_prefix == 0x00000000  #nosat': 1
    'fs1 == 0 and fe1 == 0xfe and fm1 == 0x333333 and  fcsr == 0x0 and rm_val == 7  and rs1_sgn_prefix == 0x00000000  #nosat': 1
    'fs1 == 0 and fe1 == 0xfe and fm1 == 0x4ccccc and  fcsr == 0x0 and rm_val == 7  and rs1_sgn_prefix == 0x00000000  #nosat': 1
    coverage: 194/194
  total_coverage: 261/261
