---
fmul_b6:
  config:
  - check ISA:=regex(.*I.*F.*)
  op_comb:
    rs1 != rs2  and rs1 != rd and rs2 != rd: 138
    rs1 == rd != rs2: 1
    rs1 == rs2 != rd: 1
    rs1 == rs2 == rd: 1
    rs2 == rd != rs1: 1
    coverage: 5/5
  opcode:
    fmul.s: 142
    coverage: 1/1
  rd:
    f0: 1
    f1: 1
    f10: 1
    f11: 1
    f12: 1
    f13: 1
    f14: 1
    f15: 1
    f16: 1
    f17: 1
    f18: 1
    f19: 1
    f2: 1
    f20: 1
    f21: 1
    f22: 1
    f23: 1
    f24: 1
    f25: 1
    f26: 1
    f27: 1
    f28: 1
    f29: 1
    f3: 1
    f30: 1
    f31: 111
    f4: 1
    f5: 1
    f6: 1
    f7: 1
    f8: 1
    f9: 1
    coverage: 32/32
  rs1:
    f0: 1
    f1: 1
    f10: 1
    f11: 1
    f12: 1
    f13: 1
    f14: 1
    f15: 1
    f16: 1
    f17: 1
    f18: 1
    f19: 1
    f2: 1
    f20: 1
    f21: 1
    f22: 1
    f23: 1
    f24: 1
    f25: 1
    f26: 1
    f27: 1
    f28: 1
    f29: 1
    f3: 1
    f30: 111
    f31: 1
    f4: 1
    f5: 1
    f6: 1
    f7: 1
    f8: 1
    f9: 1
    coverage: 32/32
  rs2:
    f0: 1
    f1: 1
    f10: 1
    f11: 1
    f12: 1
    f13: 1
    f14: 1
    f15: 1
    f16: 1
    f17: 1
    f18: 1
    f19: 1
    f2: 1
    f20: 1
    f21: 1
    f22: 1
    f23: 1
    f24: 1
    f25: 1
    f26: 1
    f27: 1
    f28: 1
    f29: 111
    f3: 1
    f30: 1
    f31: 1
    f4: 1
    f5: 1
    f6: 1
    f7: 1
    f8: 1
    f9: 1
    coverage: 32/32
  val_comb:
    'fs1 == 0 and fe1 == 0x1a and fm1 == 0x25eb0a and fs2 == 1 and fe2 == 0x4b and fm2 == 0x64388c and rm_val == 0  #nosat': 1  #  rs1_val==fnorm(0x0d25eb0a) and rs2_val==fnorm(0xa5e4388c) | Guard = 0 Round = 0 Sticky = 1 --> IR ∈ (-MinSubNorm, -MinSubNorm / 2)
    'fs1 == 0 and fe1 == 0x1a and fm1 == 0x654ad3 and fs2 == 0 and fe2 == 0x4b and fm2 == 0x33e931 and rm_val == 4  #nosat': 1 #  rs1_val==fnorm(0x0d654ad3) and rs2_val==fnorm(0x25b3e931) | Guard = 1 Round = 1 Sticky = 1 --> IR ∈ (+MinSubNorm / 2, +MinSubNorm)
    'fs1 == 0 and fe1 == 0x1a and fm1 == 0x654ad3 and fs2 == 0 and fe2 == 0x4b and fm2 == 0x33e931 and rm_val == 3  #nosat': 1 #  rs1_val==fnorm(0x0d654ad3) and rs2_val==fnorm(0x25b3e931) | Guard = 1 Round = 1 Sticky = 1 --> IR ∈ (+MinSubNorm / 2, +MinSubNorm)
    'fs1 == 0 and fe1 == 0x1a and fm1 == 0x654ad3 and fs2 == 0 and fe2 == 0x4b and fm2 == 0x33e931 and rm_val == 2  #nosat': 1 #  rs1_val==fnorm(0x0d654ad3) and rs2_val==fnorm(0x25b3e931) | Guard = 1 Round = 1 Sticky = 1 --> IR ∈ (+MinSubNorm / 2, +MinSubNorm)
    'fs1 == 0 and fe1 == 0x1a and fm1 == 0x654ad3 and fs2 == 0 and fe2 == 0x4b and fm2 == 0x33e931 and rm_val == 1  #nosat': 1 #  rs1_val==fnorm(0x0d654ad3) and rs2_val==fnorm(0x25b3e931) | Guard = 1 Round = 1 Sticky = 1 --> IR ∈ (+MinSubNorm / 2, +MinSubNorm)
    'fs1 == 0 and fe1 == 0x1a and fm1 == 0x654ad3 and fs2 == 0 and fe2 == 0x4b and fm2 == 0x33e931 and rm_val == 0  #nosat': 1 #  rs1_val==fnorm(0x0d654ad3) and rs2_val==fnorm(0x25b3e931) | Guard = 1 Round = 1 Sticky = 1 --> IR ∈ (+MinSubNorm / 2, +MinSubNorm)
    'fs1 == 0 and fe1 == 0x18 and fm1 == 0x0d90af and fs2 == 0 and fe2 == 0x4e and fm2 == 0x11b348 and rm_val == 4  #nosat': 1 #  rs1_val==fnorm(0x0c0d90af) and rs2_val==fnorm(0x2711b348) | Guard = 1 Round = 1 Sticky = 0 --> IR ∈ (+MinSubNorm / 2, +MinSubNorm)
    'fs1 == 0 and fe1 == 0x18 and fm1 == 0x0d90af and fs2 == 0 and fe2 == 0x4e and fm2 == 0x11b348 and rm_val == 3  #nosat': 1 #  rs1_val==fnorm(0x0c0d90af) and rs2_val==fnorm(0x2711b348) | Guard = 1 Round = 1 Sticky = 0 --> IR ∈ (+MinSubNorm / 2, +MinSubNorm)
    'fs1 == 0 and fe1 == 0x18 and fm1 == 0x0d90af and fs2 == 0 and fe2 == 0x4e and fm2 == 0x11b348 and rm_val == 2  #nosat': 1 #  rs1_val==fnorm(0x0c0d90af) and rs2_val==fnorm(0x2711b348) | Guard = 1 Round = 1 Sticky = 0 --> IR ∈ (+MinSubNorm / 2, +MinSubNorm)
    'fs1 == 0 and fe1 == 0x18 and fm1 == 0x0d90af and fs2 == 0 and fe2 == 0x4e and fm2 == 0x11b348 and rm_val == 1  #nosat': 1 #  rs1_val==fnorm(0x0c0d90af) and rs2_val==fnorm(0x2711b348) | Guard = 1 Round = 1 Sticky = 0 --> IR ∈ (+MinSubNorm / 2, +MinSubNorm)
    'fs1 == 0 and fe1 == 0x18 and fm1 == 0x0d90af and fs2 == 0 and fe2 == 0x4e and fm2 == 0x11b348 and rm_val == 0  #nosat': 1 #  rs1_val==fnorm(0x0c0d90af) and rs2_val==fnorm(0x2711b348) | Guard = 1 Round = 1 Sticky = 0 --> IR ∈ (+MinSubNorm / 2, +MinSubNorm)
    'fs1 == 0 and fe1 == 0x1a and fm1 == 0x24d60e and fs2 == 0 and fe2 == 0x4b and fm2 == 0x7a4301 and rm_val == 4  #nosat': 1 #  rs1_val==fnorm(0x0d24d60e) and rs2_val==fnorm(0x25fa4301) | Guard = 1 Round = 0 Sticky = 1 --> IR ∈ (+MinSubNorm / 2, +MinSubNorm)
    'fs1 == 0 and fe1 == 0x1a and fm1 == 0x24d60e and fs2 == 0 and fe2 == 0x4b and fm2 == 0x7a4301 and rm_val == 3  #nosat': 1 #  rs1_val==fnorm(0x0d24d60e) and rs2_val==fnorm(0x25fa4301) | Guard = 1 Round = 0 Sticky = 1 --> IR ∈ (+MinSubNorm / 2, +MinSubNorm)
    'fs1 == 0 and fe1 == 0x1a and fm1 == 0x24d60e and fs2 == 0 and fe2 == 0x4b and fm2 == 0x7a4301 and rm_val == 2  #nosat': 1 #  rs1_val==fnorm(0x0d24d60e) and rs2_val==fnorm(0x25fa4301) | Guard = 1 Round = 0 Sticky = 1 --> IR ∈ (+MinSubNorm / 2, +MinSubNorm)
    'fs1 == 0 and fe1 == 0x1a and fm1 == 0x24d60e and fs2 == 0 and fe2 == 0x4b and fm2 == 0x7a4301 and rm_val == 1  #nosat': 1 #  rs1_val==fnorm(0x0d24d60e) and rs2_val==fnorm(0x25fa4301) | Guard = 1 Round = 0 Sticky = 1 --> IR ∈ (+MinSubNorm / 2, +MinSubNorm)
    'fs1 == 0 and fe1 == 0x1a and fm1 == 0x24d60e and fs2 == 0 and fe2 == 0x4b and fm2 == 0x7a4301 and rm_val == 0  #nosat': 1 #  rs1_val==fnorm(0x0d24d60e) and rs2_val==fnorm(0x25fa4301) | Guard = 1 Round = 0 Sticky = 1 --> IR ∈ (+MinSubNorm / 2, +MinSubNorm)
    'fs1 == 0 and fe1 == 0x17 and fm1 == 0x50d96a and fs2 == 0 and fe2 == 0x4e and fm2 == 0x458574 and rm_val == 4  #nosat': 1 #  rs1_val==fnorm(0x0bd0d96a) and rs2_val==fnorm(0x27458574) | Guard = 1 Round = 0 Sticky = 0 --> IR ∈ (+MinSubNorm / 2, +MinSubNorm)
    'fs1 == 0 and fe1 == 0x17 and fm1 == 0x50d96a and fs2 == 0 and fe2 == 0x4e and fm2 == 0x458574 and rm_val == 3  #nosat': 1 #  rs1_val==fnorm(0x0bd0d96a) and rs2_val==fnorm(0x27458574) | Guard = 1 Round = 0 Sticky = 0 --> IR ∈ (+MinSubNorm / 2, +MinSubNorm)
    'fs1 == 0 and fe1 == 0x17 and fm1 == 0x50d96a and fs2 == 0 and fe2 == 0x4e and fm2 == 0x458574 and rm_val == 2  #nosat': 1 #  rs1_val==fnorm(0x0bd0d96a) and rs2_val==fnorm(0x27458574) | Guard = 1 Round = 0 Sticky = 0 --> IR ∈ (+MinSubNorm / 2, +MinSubNorm)
    'fs1 == 0 and fe1 == 0x17 and fm1 == 0x50d96a and fs2 == 0 and fe2 == 0x4e and fm2 == 0x458574 and rm_val == 1  #nosat': 1 #  rs1_val==fnorm(0x0bd0d96a) and rs2_val==fnorm(0x27458574) | Guard = 1 Round = 0 Sticky = 0 --> IR ∈ (+MinSubNorm / 2, +MinSubNorm)
    'fs1 == 0 and fe1 == 0x17 and fm1 == 0x50d96a and fs2 == 0 and fe2 == 0x4e and fm2 == 0x458574 and rm_val == 0  #nosat': 1 #  rs1_val==fnorm(0x0bd0d96a) and rs2_val==fnorm(0x27458574) | Guard = 1 Round = 0 Sticky = 0 --> IR ∈ (+MinSubNorm / 2, +MinSubNorm)
    'fs1 == 0 and fe1 == 0x1b and fm1 == 0x0252c5 and fs2 == 0 and fe2 == 0x4b and fm2 == 0x1e44c4 and rm_val == 4  #nosat': 1 #  rs1_val==fnorm(0x0d8252c5) and rs2_val==fnorm(0x259e44c4) | Guard = 0 Round = 1 Sticky = 1 --> IR ∈ (+MinSubNorm / 2, +MinSubNorm)
    'fs1 == 0 and fe1 == 0x1b and fm1 == 0x0252c5 and fs2 == 0 and fe2 == 0x4b and fm2 == 0x1e44c4 and rm_val == 3  #nosat': 1 #  rs1_val==fnorm(0x0d8252c5) and rs2_val==fnorm(0x259e44c4) | Guard = 0 Round = 1 Sticky = 1 --> IR ∈ (+MinSubNorm / 2, +MinSubNorm)
    'fs1 == 0 and fe1 == 0x1b and fm1 == 0x0252c5 and fs2 == 0 and fe2 == 0x4b and fm2 == 0x1e44c4 and rm_val == 2  #nosat': 1 #  rs1_val==fnorm(0x0d8252c5) and rs2_val==fnorm(0x259e44c4) | Guard = 0 Round = 1 Sticky = 1 --> IR ∈ (+MinSubNorm / 2, +MinSubNorm)
    'fs1 == 0 and fe1 == 0x1b and fm1 == 0x0252c5 and fs2 == 0 and fe2 == 0x4b and fm2 == 0x1e44c4 and rm_val == 1  #nosat': 1 #  rs1_val==fnorm(0x0d8252c5) and rs2_val==fnorm(0x259e44c4) | Guard = 0 Round = 1 Sticky = 1 --> IR ∈ (+MinSubNorm / 2, +MinSubNorm)
    'fs1 == 0 and fe1 == 0x1b and fm1 == 0x0252c5 and fs2 == 0 and fe2 == 0x4b and fm2 == 0x1e44c4 and rm_val == 0  #nosat': 1 #  rs1_val==fnorm(0x0d8252c5) and rs2_val==fnorm(0x259e44c4) | Guard = 0 Round = 1 Sticky = 1 --> IR ∈ (+MinSubNorm / 2, +MinSubNorm)
    'fs1 == 0 and fe1 == 0x19 and fm1 == 0x1adedf and fs2 == 0 and fe2 == 0x4d and fm2 == 0x052ec8 and rm_val == 4  #nosat': 1 #  rs1_val==fnorm(0x0c9adedf) and rs2_val==fnorm(0x26852ec8) | Guard = 0 Round = 1 Sticky = 0 --> IR ∈ (+MinSubNorm / 2, +MinSubNorm)
    'fs1 == 0 and fe1 == 0x19 and fm1 == 0x1adedf and fs2 == 0 and fe2 == 0x4d and fm2 == 0x052ec8 and rm_val == 3  #nosat': 1 #  rs1_val==fnorm(0x0c9adedf) and rs2_val==fnorm(0x26852ec8) | Guard = 0 Round = 1 Sticky = 0 --> IR ∈ (+MinSubNorm / 2, +MinSubNorm)
    'fs1 == 0 and fe1 == 0x19 and fm1 == 0x1adedf and fs2 == 0 and fe2 == 0x4d and fm2 == 0x052ec8 and rm_val == 2  #nosat': 1 #  rs1_val==fnorm(0x0c9adedf) and rs2_val==fnorm(0x26852ec8) | Guard = 0 Round = 1 Sticky = 0 --> IR ∈ (+MinSubNorm / 2, +MinSubNorm)
    'fs1 == 0 and fe1 == 0x19 and fm1 == 0x1adedf and fs2 == 0 and fe2 == 0x4d and fm2 == 0x052ec8 and rm_val == 1  #nosat': 1 #  rs1_val==fnorm(0x0c9adedf) and rs2_val==fnorm(0x26852ec8) | Guard = 0 Round = 1 Sticky = 0 --> IR ∈ (+MinSubNorm / 2, +MinSubNorm)
    'fs1 == 0 and fe1 == 0x19 and fm1 == 0x1adedf and fs2 == 0 and fe2 == 0x4d and fm2 == 0x052ec8 and rm_val == 0  #nosat': 1 #  rs1_val==fnorm(0x0c9adedf) and rs2_val==fnorm(0x26852ec8) | Guard = 0 Round = 1 Sticky = 0 --> IR ∈ (+MinSubNorm / 2, +MinSubNorm)
    'fs1 == 0 and fe1 == 0x18 and fm1 == 0x7804ee and fs2 == 0 and fe2 == 0x4d and fm2 == 0x265397 and rm_val == 4  #nosat': 1 #  rs1_val==fnorm(0x0c7804ee) and rs2_val==fnorm(0x26a65397) | Guard = 0 Round = 0 Sticky = 1 --> IR ∈ (+MinSubNorm / 2, +MinSubNorm)
    'fs1 == 0 and fe1 == 0x18 and fm1 == 0x7804ee and fs2 == 0 and fe2 == 0x4d and fm2 == 0x265397 and rm_val == 3  #nosat': 1 #  rs1_val==fnorm(0x0c7804ee) and rs2_val==fnorm(0x26a65397) | Guard = 0 Round = 0 Sticky = 1 --> IR ∈ (+MinSubNorm / 2, +MinSubNorm)
    'fs1 == 0 and fe1 == 0x18 and fm1 == 0x7804ee and fs2 == 0 and fe2 == 0x4d and fm2 == 0x265397 and rm_val == 2  #nosat': 1 #  rs1_val==fnorm(0x0c7804ee) and rs2_val==fnorm(0x26a65397) | Guard = 0 Round = 0 Sticky = 1 --> IR ∈ (+MinSubNorm / 2, +MinSubNorm)
    'fs1 == 0 and fe1 == 0x18 and fm1 == 0x7804ee and fs2 == 0 and fe2 == 0x4d and fm2 == 0x265397 and rm_val == 1  #nosat': 1 #  rs1_val==fnorm(0x0c7804ee) and rs2_val==fnorm(0x26a65397) | Guard = 0 Round = 0 Sticky = 1 --> IR ∈ (+MinSubNorm / 2, +MinSubNorm)
    'fs1 == 0 and fe1 == 0x18 and fm1 == 0x7804ee and fs2 == 0 and fe2 == 0x4d and fm2 == 0x265397 and rm_val == 0  #nosat': 1 #  rs1_val==fnorm(0x0c7804ee) and rs2_val==fnorm(0x26a65397) | Guard = 0 Round = 0 Sticky = 1 --> IR ∈ (+MinSubNorm / 2, +MinSubNorm)
    'fs1 == 0 and fe1 == 0x19 and fm1 == 0x5311d7 and fs2 == 0 and fe2 == 0x4b and fm2 == 0x0295cf and rm_val == 4  #nosat': 1 #  rs1_val==fnorm(0x0cd311d7) and rs2_val==fnorm(0x258295cf) | Guard = 1 Round = 1 Sticky = 1 --> IR ∈ (0, +MinSubNorm / 2)
    'fs1 == 0 and fe1 == 0x19 and fm1 == 0x5311d7 and fs2 == 0 and fe2 == 0x4b and fm2 == 0x0295cf and rm_val == 3  #nosat': 1 #  rs1_val==fnorm(0x0cd311d7) and rs2_val==fnorm(0x258295cf) | Guard = 1 Round = 1 Sticky = 1 --> IR ∈ (0, +MinSubNorm / 2)
    'fs1 == 0 and fe1 == 0x19 and fm1 == 0x5311d7 and fs2 == 0 and fe2 == 0x4b and fm2 == 0x0295cf and rm_val == 2  #nosat': 1 #  rs1_val==fnorm(0x0cd311d7) and rs2_val==fnorm(0x258295cf) | Guard = 1 Round = 1 Sticky = 1 --> IR ∈ (0, +MinSubNorm / 2)
    'fs1 == 0 and fe1 == 0x19 and fm1 == 0x5311d7 and fs2 == 0 and fe2 == 0x4b and fm2 == 0x0295cf and rm_val == 1  #nosat': 1 #  rs1_val==fnorm(0x0cd311d7) and rs2_val==fnorm(0x258295cf) | Guard = 1 Round = 1 Sticky = 1 --> IR ∈ (0, +MinSubNorm / 2)
    'fs1 == 0 and fe1 == 0x19 and fm1 == 0x5311d7 and fs2 == 0 and fe2 == 0x4b and fm2 == 0x0295cf and rm_val == 0  #nosat': 1 #  rs1_val==fnorm(0x0cd311d7) and rs2_val==fnorm(0x258295cf) | Guard = 1 Round = 1 Sticky = 1 --> IR ∈ (0, +MinSubNorm / 2)
    'fs1 == 0 and fe1 == 0x1b and fm1 == 0x0cc6cf and fs2 == 0 and fe2 == 0x49 and fm2 == 0x43ca1c and rm_val == 4  #nosat': 1 #  rs1_val==fnorm(0x0d8cc6cf) and rs2_val==fnorm(0x24c3ca1c) | Guard = 1 Round = 1 Sticky = 0 --> IR ∈ (0, +MinSubNorm / 2)
    'fs1 == 0 and fe1 == 0x1b and fm1 == 0x0cc6cf and fs2 == 0 and fe2 == 0x49 and fm2 == 0x43ca1c and rm_val == 3  #nosat': 1 #  rs1_val==fnorm(0x0d8cc6cf) and rs2_val==fnorm(0x24c3ca1c) | Guard = 1 Round = 1 Sticky = 0 --> IR ∈ (0, +MinSubNorm / 2)
    'fs1 == 0 and fe1 == 0x1b and fm1 == 0x0cc6cf and fs2 == 0 and fe2 == 0x49 and fm2 == 0x43ca1c and rm_val == 2  #nosat': 1 #  rs1_val==fnorm(0x0d8cc6cf) and rs2_val==fnorm(0x24c3ca1c) | Guard = 1 Round = 1 Sticky = 0 --> IR ∈ (0, +MinSubNorm / 2)
    'fs1 == 0 and fe1 == 0x1b and fm1 == 0x0cc6cf and fs2 == 0 and fe2 == 0x49 and fm2 == 0x43ca1c and rm_val == 1  #nosat': 1 #  rs1_val==fnorm(0x0d8cc6cf) and rs2_val==fnorm(0x24c3ca1c) | Guard = 1 Round = 1 Sticky = 0 --> IR ∈ (0, +MinSubNorm / 2)
    'fs1 == 0 and fe1 == 0x1b and fm1 == 0x0cc6cf and fs2 == 0 and fe2 == 0x49 and fm2 == 0x43ca1c and rm_val == 0  #nosat': 1 #  rs1_val==fnorm(0x0d8cc6cf) and rs2_val==fnorm(0x24c3ca1c) | Guard = 1 Round = 1 Sticky = 0 --> IR ∈ (0, +MinSubNorm / 2)
    'fs1 == 0 and fe1 == 0x11 and fm1 == 0x3de228 and fs2 == 0 and fe2 == 0x53 and fm2 == 0x1127bf and rm_val == 4  #nosat': 1 #  rs1_val==fnorm(0x08bde228) and rs2_val==fnorm(0x299127bf) | Guard = 1 Round = 0 Sticky = 1 --> IR ∈ (0, +MinSubNorm / 2)
    'fs1 == 0 and fe1 == 0x11 and fm1 == 0x3de228 and fs2 == 0 and fe2 == 0x53 and fm2 == 0x1127bf and rm_val == 3  #nosat': 1 #  rs1_val==fnorm(0x08bde228) and rs2_val==fnorm(0x299127bf) | Guard = 1 Round = 0 Sticky = 1 --> IR ∈ (0, +MinSubNorm / 2)
    'fs1 == 0 and fe1 == 0x11 and fm1 == 0x3de228 and fs2 == 0 and fe2 == 0x53 and fm2 == 0x1127bf and rm_val == 2  #nosat': 1 #  rs1_val==fnorm(0x08bde228) and rs2_val==fnorm(0x299127bf) | Guard = 1 Round = 0 Sticky = 1 --> IR ∈ (0, +MinSubNorm / 2)
    'fs1 == 0 and fe1 == 0x11 and fm1 == 0x3de228 and fs2 == 0 and fe2 == 0x53 and fm2 == 0x1127bf and rm_val == 1  #nosat': 1 #  rs1_val==fnorm(0x08bde228) and rs2_val==fnorm(0x299127bf) | Guard = 1 Round = 0 Sticky = 1 --> IR ∈ (0, +MinSubNorm / 2)
    'fs1 == 0 and fe1 == 0x11 and fm1 == 0x3de228 and fs2 == 0 and fe2 == 0x53 and fm2 == 0x1127bf and rm_val == 0  #nosat': 1 #  rs1_val==fnorm(0x08bde228) and rs2_val==fnorm(0x299127bf) | Guard = 1 Round = 0 Sticky = 1 --> IR ∈ (0, +MinSubNorm / 2)
    'fs1 == 0 and fe1 == 0x1b and fm1 == 0x05d6b8 and fs2 == 0 and fe2 == 0x49 and fm2 == 0x4df04f and rm_val == 4  #nosat': 1 #  rs1_val==fnorm(0x0d85d6b8) and rs2_val==fnorm(0x24cdf04f) | Guard = 1 Round = 0 Sticky = 0 --> IR ∈ (0, +MinSubNorm / 2)
    'fs1 == 0 and fe1 == 0x1b and fm1 == 0x05d6b8 and fs2 == 0 and fe2 == 0x49 and fm2 == 0x4df04f and rm_val == 3  #nosat': 1 #  rs1_val==fnorm(0x0d85d6b8) and rs2_val==fnorm(0x24cdf04f) | Guard = 1 Round = 0 Sticky = 0 --> IR ∈ (0, +MinSubNorm / 2)
    'fs1 == 0 and fe1 == 0x1b and fm1 == 0x05d6b8 and fs2 == 0 and fe2 == 0x49 and fm2 == 0x4df04f and rm_val == 2  #nosat': 1 #  rs1_val==fnorm(0x0d85d6b8) and rs2_val==fnorm(0x24cdf04f) | Guard = 1 Round = 0 Sticky = 0 --> IR ∈ (0, +MinSubNorm / 2)
    'fs1 == 0 and fe1 == 0x1b and fm1 == 0x05d6b8 and fs2 == 0 and fe2 == 0x49 and fm2 == 0x4df04f and rm_val == 1  #nosat': 1 #  rs1_val==fnorm(0x0d85d6b8) and rs2_val==fnorm(0x24cdf04f) | Guard = 1 Round = 0 Sticky = 0 --> IR ∈ (0, +MinSubNorm / 2)
    'fs1 == 0 and fe1 == 0x1b and fm1 == 0x05d6b8 and fs2 == 0 and fe2 == 0x49 and fm2 == 0x4df04f and rm_val == 0  #nosat': 1 #  rs1_val==fnorm(0x0d85d6b8) and rs2_val==fnorm(0x24cdf04f) | Guard = 1 Round = 0 Sticky = 0 --> IR ∈ (0, +MinSubNorm / 2)
    'fs1 == 0 and fe1 == 0x1a and fm1 == 0x698eb9 and fs2 == 0 and fe2 == 0x49 and fm2 == 0x6c061e and rm_val == 4  #nosat': 1 #  rs1_val==fnorm(0x0d698eb9) and rs2_val==fnorm(0x24ec061e) | Guard = 0 Round = 1 Sticky = 1 --> IR ∈ (0, +MinSubNorm / 2)
    'fs1 == 0 and fe1 == 0x1a and fm1 == 0x698eb9 and fs2 == 0 and fe2 == 0x49 and fm2 == 0x6c061e and rm_val == 3  #nosat': 1 #  rs1_val==fnorm(0x0d698eb9) and rs2_val==fnorm(0x24ec061e) | Guard = 0 Round = 1 Sticky = 1 --> IR ∈ (0, +MinSubNorm / 2)
    'fs1 == 0 and fe1 == 0x1a and fm1 == 0x698eb9 and fs2 == 0 and fe2 == 0x49 and fm2 == 0x6c061e and rm_val == 2  #nosat': 1 #  rs1_val==fnorm(0x0d698eb9) and rs2_val==fnorm(0x24ec061e) | Guard = 0 Round = 1 Sticky = 1 --> IR ∈ (0, +MinSubNorm / 2)
    'fs1 == 0 and fe1 == 0x1a and fm1 == 0x698eb9 and fs2 == 0 and fe2 == 0x49 and fm2 == 0x6c061e and rm_val == 1  #nosat': 1 #  rs1_val==fnorm(0x0d698eb9) and rs2_val==fnorm(0x24ec061e) | Guard = 0 Round = 1 Sticky = 1 --> IR ∈ (0, +MinSubNorm / 2)
    'fs1 == 0 and fe1 == 0x1a and fm1 == 0x698eb9 and fs2 == 0 and fe2 == 0x49 and fm2 == 0x6c061e and rm_val == 0  #nosat': 1 #  rs1_val==fnorm(0x0d698eb9) and rs2_val==fnorm(0x24ec061e) | Guard = 0 Round = 1 Sticky = 1 --> IR ∈ (0, +MinSubNorm / 2)
    'fs1 == 0 and fe1 == 0x1a and fm1 == 0x321027 and fs2 == 0 and fe2 == 0x4a and fm2 == 0x1aca83 and rm_val == 4  #nosat': 1 #  rs1_val==fnorm(0x0d321027) and rs2_val==fnorm(0x251aca83) | Guard = 0 Round = 1 Sticky = 0 --> IR ∈ (0, +MinSubNorm / 2)
    'fs1 == 0 and fe1 == 0x1a and fm1 == 0x321027 and fs2 == 0 and fe2 == 0x4a and fm2 == 0x1aca83 and rm_val == 3  #nosat': 1 #  rs1_val==fnorm(0x0d321027) and rs2_val==fnorm(0x251aca83) | Guard = 0 Round = 1 Sticky = 0 --> IR ∈ (0, +MinSubNorm / 2)
    'fs1 == 0 and fe1 == 0x1a and fm1 == 0x321027 and fs2 == 0 and fe2 == 0x4a and fm2 == 0x1aca83 and rm_val == 2  #nosat': 1 #  rs1_val==fnorm(0x0d321027) and rs2_val==fnorm(0x251aca83) | Guard = 0 Round = 1 Sticky = 0 --> IR ∈ (0, +MinSubNorm / 2)
    'fs1 == 0 and fe1 == 0x1a and fm1 == 0x321027 and fs2 == 0 and fe2 == 0x4a and fm2 == 0x1aca83 and rm_val == 1  #nosat': 1 #  rs1_val==fnorm(0x0d321027) and rs2_val==fnorm(0x251aca83) | Guard = 0 Round = 1 Sticky = 0 --> IR ∈ (0, +MinSubNorm / 2)
    'fs1 == 0 and fe1 == 0x1a and fm1 == 0x321027 and fs2 == 0 and fe2 == 0x4a and fm2 == 0x1aca83 and rm_val == 0  #nosat': 1 #  rs1_val==fnorm(0x0d321027) and rs2_val==fnorm(0x251aca83) | Guard = 0 Round = 1 Sticky = 0 --> IR ∈ (0, +MinSubNorm / 2)
    'fs1 == 0 and fe1 == 0x19 and fm1 == 0x2911b5 and fs2 == 0 and fe2 == 0x4b and fm2 == 0x230684 and rm_val == 4  #nosat': 1 #  rs1_val==fnorm(0x0ca911b5) and rs2_val==fnorm(0x25a30684) | Guard = 0 Round = 0 Sticky = 1 --> IR ∈ (0, +MinSubNorm / 2)
    'fs1 == 0 and fe1 == 0x19 and fm1 == 0x2911b5 and fs2 == 0 and fe2 == 0x4b and fm2 == 0x230684 and rm_val == 3  #nosat': 1 #  rs1_val==fnorm(0x0ca911b5) and rs2_val==fnorm(0x25a30684) | Guard = 0 Round = 0 Sticky = 1 --> IR ∈ (0, +MinSubNorm / 2)
    'fs1 == 0 and fe1 == 0x19 and fm1 == 0x2911b5 and fs2 == 0 and fe2 == 0x4b and fm2 == 0x230684 and rm_val == 2  #nosat': 1 #  rs1_val==fnorm(0x0ca911b5) and rs2_val==fnorm(0x25a30684) | Guard = 0 Round = 0 Sticky = 1 --> IR ∈ (0, +MinSubNorm / 2)
    'fs1 == 0 and fe1 == 0x19 and fm1 == 0x2911b5 and fs2 == 0 and fe2 == 0x4b and fm2 == 0x230684 and rm_val == 1  #nosat': 1 #  rs1_val==fnorm(0x0ca911b5) and rs2_val==fnorm(0x25a30684) | Guard = 0 Round = 0 Sticky = 1 --> IR ∈ (0, +MinSubNorm / 2)
    'fs1 == 0 and fe1 == 0x19 and fm1 == 0x2911b5 and fs2 == 0 and fe2 == 0x4b and fm2 == 0x230684 and rm_val == 0  #nosat': 1 #  rs1_val==fnorm(0x0ca911b5) and rs2_val==fnorm(0x25a30684) | Guard = 0 Round = 0 Sticky = 1 --> IR ∈ (0, +MinSubNorm / 2)
    'fs1 == 0 and fe1 == 0x1a and fm1 == 0x1acc6b and fs2 == 1 and fe2 == 0x49 and fm2 == 0x4cf247 and rm_val == 4  #nosat': 1 #  rs1_val==fnorm(0x0d1acc6b) and rs2_val==fnorm(0xa4ccf247) | Guard = 1 Round = 1 Sticky = 1 --> IR ∈ (-MinSubNorm / 2, 0)
    'fs1 == 0 and fe1 == 0x1a and fm1 == 0x1acc6b and fs2 == 1 and fe2 == 0x49 and fm2 == 0x4cf247 and rm_val == 3  #nosat': 1 #  rs1_val==fnorm(0x0d1acc6b) and rs2_val==fnorm(0xa4ccf247) | Guard = 1 Round = 1 Sticky = 1 --> IR ∈ (-MinSubNorm / 2, 0)
    'fs1 == 0 and fe1 == 0x1a and fm1 == 0x1acc6b and fs2 == 1 and fe2 == 0x49 and fm2 == 0x4cf247 and rm_val == 2  #nosat': 1 #  rs1_val==fnorm(0x0d1acc6b) and rs2_val==fnorm(0xa4ccf247) | Guard = 1 Round = 1 Sticky = 1 --> IR ∈ (-MinSubNorm / 2, 0)
    'fs1 == 0 and fe1 == 0x1a and fm1 == 0x1acc6b and fs2 == 1 and fe2 == 0x49 and fm2 == 0x4cf247 and rm_val == 1  #nosat': 1 #  rs1_val==fnorm(0x0d1acc6b) and rs2_val==fnorm(0xa4ccf247) | Guard = 1 Round = 1 Sticky = 1 --> IR ∈ (-MinSubNorm / 2, 0)
    'fs1 == 0 and fe1 == 0x1a and fm1 == 0x1acc6b and fs2 == 1 and fe2 == 0x49 and fm2 == 0x4cf247 and rm_val == 0  #nosat': 1 #  rs1_val==fnorm(0x0d1acc6b) and rs2_val==fnorm(0xa4ccf247) | Guard = 1 Round = 1 Sticky = 1 --> IR ∈ (-MinSubNorm / 2, 0)
    'fs1 == 0 and fe1 == 0x1b and fm1 == 0x1424fe and fs2 == 1 and fe2 == 0x48 and fm2 == 0x5626d6 and rm_val == 4  #nosat': 1 #  rs1_val==fnorm(0x0d9424fe) and rs2_val==fnorm(0xa45626d6) | Guard = 1 Round = 1 Sticky = 0 --> IR ∈ (-MinSubNorm / 2, 0)
    'fs1 == 0 and fe1 == 0x1b and fm1 == 0x1424fe and fs2 == 1 and fe2 == 0x48 and fm2 == 0x5626d6 and rm_val == 3  #nosat': 1 #  rs1_val==fnorm(0x0d9424fe) and rs2_val==fnorm(0xa45626d6) | Guard = 1 Round = 1 Sticky = 0 --> IR ∈ (-MinSubNorm / 2, 0)
    'fs1 == 0 and fe1 == 0x1b and fm1 == 0x1424fe and fs2 == 1 and fe2 == 0x48 and fm2 == 0x5626d6 and rm_val == 2  #nosat': 1 #  rs1_val==fnorm(0x0d9424fe) and rs2_val==fnorm(0xa45626d6) | Guard = 1 Round = 1 Sticky = 0 --> IR ∈ (-MinSubNorm / 2, 0)
    'fs1 == 0 and fe1 == 0x1b and fm1 == 0x1424fe and fs2 == 1 and fe2 == 0x48 and fm2 == 0x5626d6 and rm_val == 1  #nosat': 1 #  rs1_val==fnorm(0x0d9424fe) and rs2_val==fnorm(0xa45626d6) | Guard = 1 Round = 1 Sticky = 0 --> IR ∈ (-MinSubNorm / 2, 0)
    'fs1 == 0 and fe1 == 0x1b and fm1 == 0x1424fe and fs2 == 1 and fe2 == 0x48 and fm2 == 0x5626d6 and rm_val == 0  #nosat': 1 #  rs1_val==fnorm(0x0d9424fe) and rs2_val==fnorm(0xa45626d6) | Guard = 1 Round = 1 Sticky = 0 --> IR ∈ (-MinSubNorm / 2, 0)
    'fs1 == 0 and fe1 == 0x1a and fm1 == 0x0ce595 and fs2 == 1 and fe2 == 0x49 and fm2 == 0x612ae9 and rm_val == 4  #nosat': 1 #  rs1_val==fnorm(0x0d0ce595) and rs2_val==fnorm(0xa4e12ae9) | Guard = 1 Round = 0 Sticky = 1 --> IR ∈ (-MinSubNorm / 2, 0)
    'fs1 == 0 and fe1 == 0x1a and fm1 == 0x0ce595 and fs2 == 1 and fe2 == 0x49 and fm2 == 0x612ae9 and rm_val == 3  #nosat': 1 #  rs1_val==fnorm(0x0d0ce595) and rs2_val==fnorm(0xa4e12ae9) | Guard = 1 Round = 0 Sticky = 1 --> IR ∈ (-MinSubNorm / 2, 0)
    'fs1 == 0 and fe1 == 0x1a and fm1 == 0x0ce595 and fs2 == 1 and fe2 == 0x49 and fm2 == 0x612ae9 and rm_val == 2  #nosat': 1 #  rs1_val==fnorm(0x0d0ce595) and rs2_val==fnorm(0xa4e12ae9) | Guard = 1 Round = 0 Sticky = 1 --> IR ∈ (-MinSubNorm / 2, 0)
    'fs1 == 0 and fe1 == 0x1a and fm1 == 0x0ce595 and fs2 == 1 and fe2 == 0x49 and fm2 == 0x612ae9 and rm_val == 1  #nosat': 1 #  rs1_val==fnorm(0x0d0ce595) and rs2_val==fnorm(0xa4e12ae9) | Guard = 1 Round = 0 Sticky = 1 --> IR ∈ (-MinSubNorm / 2, 0)
    'fs1 == 0 and fe1 == 0x1a and fm1 == 0x0ce595 and fs2 == 1 and fe2 == 0x49 and fm2 == 0x612ae9 and rm_val == 0  #nosat': 1 #  rs1_val==fnorm(0x0d0ce595) and rs2_val==fnorm(0xa4e12ae9) | Guard = 1 Round = 0 Sticky = 1 --> IR ∈ (-MinSubNorm / 2, 0)
    'fs1 == 0 and fe1 == 0x1a and fm1 == 0x193815 and fs2 == 1 and fe2 == 0x49 and fm2 == 0x4f0f20 and rm_val == 4  #nosat': 1 #  rs1_val==fnorm(0x0d193815) and rs2_val==fnorm(0xa4cf0f20) | Guard = 1 Round = 0 Sticky = 0 --> IR ∈ (-MinSubNorm / 2, 0)
    'fs1 == 0 and fe1 == 0x1a and fm1 == 0x193815 and fs2 == 1 and fe2 == 0x49 and fm2 == 0x4f0f20 and rm_val == 3  #nosat': 1 #  rs1_val==fnorm(0x0d193815) and rs2_val==fnorm(0xa4cf0f20) | Guard = 1 Round = 0 Sticky = 0 --> IR ∈ (-MinSubNorm / 2, 0)
    'fs1 == 0 and fe1 == 0x1a and fm1 == 0x193815 and fs2 == 1 and fe2 == 0x49 and fm2 == 0x4f0f20 and rm_val == 2  #nosat': 1 #  rs1_val==fnorm(0x0d193815) and rs2_val==fnorm(0xa4cf0f20) | Guard = 1 Round = 0 Sticky = 0 --> IR ∈ (-MinSubNorm / 2, 0)
    'fs1 == 0 and fe1 == 0x1a and fm1 == 0x193815 and fs2 == 1 and fe2 == 0x49 and fm2 == 0x4f0f20 and rm_val == 1  #nosat': 1 #  rs1_val==fnorm(0x0d193815) and rs2_val==fnorm(0xa4cf0f20) | Guard = 1 Round = 0 Sticky = 0 --> IR ∈ (-MinSubNorm / 2, 0)
    'fs1 == 0 and fe1 == 0x1a and fm1 == 0x193815 and fs2 == 1 and fe2 == 0x49 and fm2 == 0x4f0f20 and rm_val == 0  #nosat': 1 #  rs1_val==fnorm(0x0d193815) and rs2_val==fnorm(0xa4cf0f20) | Guard = 1 Round = 0 Sticky = 0 --> IR ∈ (-MinSubNorm / 2, 0)
    'fs1 == 0 and fe1 == 0x1b and fm1 == 0x11d848 and fs2 == 1 and fe2 == 0x48 and fm2 == 0x598746 and rm_val == 4  #nosat': 1 #  rs1_val==fnorm(0x0d91d848) and rs2_val==fnorm(0xa4598746) | Guard = 0 Round = 1 Sticky = 1 --> IR ∈ (-MinSubNorm / 2, 0)
    'fs1 == 0 and fe1 == 0x1b and fm1 == 0x11d848 and fs2 == 1 and fe2 == 0x48 and fm2 == 0x598746 and rm_val == 3  #nosat': 1 #  rs1_val==fnorm(0x0d91d848) and rs2_val==fnorm(0xa4598746) | Guard = 0 Round = 1 Sticky = 1 --> IR ∈ (-MinSubNorm / 2, 0)
    'fs1 == 0 and fe1 == 0x1b and fm1 == 0x11d848 and fs2 == 1 and fe2 == 0x48 and fm2 == 0x598746 and rm_val == 2  #nosat': 1 #  rs1_val==fnorm(0x0d91d848) and rs2_val==fnorm(0xa4598746) | Guard = 0 Round = 1 Sticky = 1 --> IR ∈ (-MinSubNorm / 2, 0)
    'fs1 == 0 and fe1 == 0x1b and fm1 == 0x11d848 and fs2 == 1 and fe2 == 0x48 and fm2 == 0x598746 and rm_val == 1  #nosat': 1 #  rs1_val==fnorm(0x0d91d848) and rs2_val==fnorm(0xa4598746) | Guard = 0 Round = 1 Sticky = 1 --> IR ∈ (-MinSubNorm / 2, 0)
    'fs1 == 0 and fe1 == 0x1b and fm1 == 0x11d848 and fs2 == 1 and fe2 == 0x48 and fm2 == 0x598746 and rm_val == 0  #nosat': 1 #  rs1_val==fnorm(0x0d91d848) and rs2_val==fnorm(0xa4598746) | Guard = 0 Round = 1 Sticky = 1 --> IR ∈ (-MinSubNorm / 2, 0)
    'fs1 == 0 and fe1 == 0x19 and fm1 == 0x494c1a and fs2 == 1 and fe2 == 0x4a and fm2 == 0x1d9ace and rm_val == 4  #nosat': 1 #  rs1_val==fnorm(0x0cc94c1a) and rs2_val==fnorm(0xa51d9ace) | Guard = 0 Round = 1 Sticky = 0 --> IR ∈ (-MinSubNorm / 2, 0)
    'fs1 == 0 and fe1 == 0x19 and fm1 == 0x494c1a and fs2 == 1 and fe2 == 0x4a and fm2 == 0x1d9ace and rm_val == 3  #nosat': 1 #  rs1_val==fnorm(0x0cc94c1a) and rs2_val==fnorm(0xa51d9ace) | Guard = 0 Round = 1 Sticky = 0 --> IR ∈ (-MinSubNorm / 2, 0)
    'fs1 == 0 and fe1 == 0x19 and fm1 == 0x494c1a and fs2 == 1 and fe2 == 0x4a and fm2 == 0x1d9ace and rm_val == 2  #nosat': 1 #  rs1_val==fnorm(0x0cc94c1a) and rs2_val==fnorm(0xa51d9ace) | Guard = 0 Round = 1 Sticky = 0 --> IR ∈ (-MinSubNorm / 2, 0)
    'fs1 == 0 and fe1 == 0x19 and fm1 == 0x494c1a and fs2 == 1 and fe2 == 0x4a and fm2 == 0x1d9ace and rm_val == 1  #nosat': 1 #  rs1_val==fnorm(0x0cc94c1a) and rs2_val==fnorm(0xa51d9ace) | Guard = 0 Round = 1 Sticky = 0 --> IR ∈ (-MinSubNorm / 2, 0)
    'fs1 == 0 and fe1 == 0x19 and fm1 == 0x494c1a and fs2 == 1 and fe2 == 0x4a and fm2 == 0x1d9ace and rm_val == 0  #nosat': 1 #  rs1_val==fnorm(0x0cc94c1a) and rs2_val==fnorm(0xa51d9ace) | Guard = 0 Round = 1 Sticky = 0 --> IR ∈ (-MinSubNorm / 2, 0)
    'fs1 == 0 and fe1 == 0x1b and fm1 == 0x03771b and fs2 == 1 and fe2 == 0x48 and fm2 == 0x715250 and rm_val == 4  #nosat': 1 #  rs1_val==fnorm(0x0d83771b) and rs2_val==fnorm(0xa4715250) | Guard = 0 Round = 0 Sticky = 1 --> IR ∈ (-MinSubNorm / 2, 0)
    'fs1 == 0 and fe1 == 0x1b and fm1 == 0x03771b and fs2 == 1 and fe2 == 0x48 and fm2 == 0x715250 and rm_val == 3  #nosat': 1 #  rs1_val==fnorm(0x0d83771b) and rs2_val==fnorm(0xa4715250) | Guard = 0 Round = 0 Sticky = 1 --> IR ∈ (-MinSubNorm / 2, 0)
    'fs1 == 0 and fe1 == 0x1b and fm1 == 0x03771b and fs2 == 1 and fe2 == 0x48 and fm2 == 0x715250 and rm_val == 2  #nosat': 1 #  rs1_val==fnorm(0x0d83771b) and rs2_val==fnorm(0xa4715250) | Guard = 0 Round = 0 Sticky = 1 --> IR ∈ (-MinSubNorm / 2, 0)
    'fs1 == 0 and fe1 == 0x1b and fm1 == 0x03771b and fs2 == 1 and fe2 == 0x48 and fm2 == 0x715250 and rm_val == 1  #nosat': 1 #  rs1_val==fnorm(0x0d83771b) and rs2_val==fnorm(0xa4715250) | Guard = 0 Round = 0 Sticky = 1 --> IR ∈ (-MinSubNorm / 2, 0)
    'fs1 == 0 and fe1 == 0x1b and fm1 == 0x03771b and fs2 == 1 and fe2 == 0x48 and fm2 == 0x715250 and rm_val == 0  #nosat': 1 #  rs1_val==fnorm(0x0d83771b) and rs2_val==fnorm(0xa4715250) | Guard = 0 Round = 0 Sticky = 1 --> IR ∈ (-MinSubNorm / 2, 0)
    'fs1 == 0 and fe1 == 0x1b and fm1 == 0x139d61 and fs2 == 1 and fe2 == 0x4b and fm2 == 0x00426c and rm_val == 4  #nosat': 1 #  rs1_val==fnorm(0x0d939d61) and rs2_val==fnorm(0xa580426c) | Guard = 1 Round = 1 Sticky = 1 --> IR ∈ (-MinSubNorm, -MinSubNorm / 2)
    'fs1 == 0 and fe1 == 0x1b and fm1 == 0x139d61 and fs2 == 1 and fe2 == 0x4b and fm2 == 0x00426c and rm_val == 3  #nosat': 1 #  rs1_val==fnorm(0x0d939d61) and rs2_val==fnorm(0xa580426c) | Guard = 1 Round = 1 Sticky = 1 --> IR ∈ (-MinSubNorm, -MinSubNorm / 2)
    'fs1 == 0 and fe1 == 0x1b and fm1 == 0x139d61 and fs2 == 1 and fe2 == 0x4b and fm2 == 0x00426c and rm_val == 2  #nosat': 1 #  rs1_val==fnorm(0x0d939d61) and rs2_val==fnorm(0xa580426c) | Guard = 1 Round = 1 Sticky = 1 --> IR ∈ (-MinSubNorm, -MinSubNorm / 2)
    'fs1 == 0 and fe1 == 0x1b and fm1 == 0x139d61 and fs2 == 1 and fe2 == 0x4b and fm2 == 0x00426c and rm_val == 1  #nosat': 1 #  rs1_val==fnorm(0x0d939d61) and rs2_val==fnorm(0xa580426c) | Guard = 1 Round = 1 Sticky = 1 --> IR ∈ (-MinSubNorm, -MinSubNorm / 2)
    'fs1 == 0 and fe1 == 0x1b and fm1 == 0x139d61 and fs2 == 1 and fe2 == 0x4b and fm2 == 0x00426c and rm_val == 0  #nosat': 1 #  rs1_val==fnorm(0x0d939d61) and rs2_val==fnorm(0xa580426c) | Guard = 1 Round = 1 Sticky = 1 --> IR ∈ (-MinSubNorm, -MinSubNorm / 2)
    'fs1 == 0 and fe1 == 0x1a and fm1 == 0x48ac16 and fs2 == 1 and fe2 == 0x4b and fm2 == 0x3cb219 and rm_val == 4  #nosat': 1 #  rs1_val==fnorm(0x0d48ac16) and rs2_val==fnorm(0xa5bcb219) | Guard = 1 Round = 1 Sticky = 0 --> IR ∈ (-MinSubNorm, -MinSubNorm / 2)
    'fs1 == 0 and fe1 == 0x1a and fm1 == 0x48ac16 and fs2 == 1 and fe2 == 0x4b and fm2 == 0x3cb219 and rm_val == 3  #nosat': 1 #  rs1_val==fnorm(0x0d48ac16) and rs2_val==fnorm(0xa5bcb219) | Guard = 1 Round = 1 Sticky = 0 --> IR ∈ (-MinSubNorm, -MinSubNorm / 2)
    'fs1 == 0 and fe1 == 0x1a and fm1 == 0x48ac16 and fs2 == 1 and fe2 == 0x4b and fm2 == 0x3cb219 and rm_val == 2  #nosat': 1 #  rs1_val==fnorm(0x0d48ac16) and rs2_val==fnorm(0xa5bcb219) | Guard = 1 Round = 1 Sticky = 0 --> IR ∈ (-MinSubNorm, -MinSubNorm / 2)
    'fs1 == 0 and fe1 == 0x1a and fm1 == 0x48ac16 and fs2 == 1 and fe2 == 0x4b and fm2 == 0x3cb219 and rm_val == 1  #nosat': 1 #  rs1_val==fnorm(0x0d48ac16) and rs2_val==fnorm(0xa5bcb219) | Guard = 1 Round = 1 Sticky = 0 --> IR ∈ (-MinSubNorm, -MinSubNorm / 2)
    'fs1 == 0 and fe1 == 0x1a and fm1 == 0x48ac16 and fs2 == 1 and fe2 == 0x4b and fm2 == 0x3cb219 and rm_val == 0  #nosat': 1 #  rs1_val==fnorm(0x0d48ac16) and rs2_val==fnorm(0xa5bcb219) | Guard = 1 Round = 1 Sticky = 0 --> IR ∈ (-MinSubNorm, -MinSubNorm / 2)
    'fs1 == 0 and fe1 == 0x19 and fm1 == 0x36ec58 and fs2 == 1 and fe2 == 0x4c and fm2 == 0x4f013a and rm_val == 4  #nosat': 1 #  rs1_val==fnorm(0x0cb6ec58) and rs2_val==fnorm(0xa64f013a) | Guard = 1 Round = 0 Sticky = 1 --> IR ∈ (-MinSubNorm, -MinSubNorm / 2)
    'fs1 == 0 and fe1 == 0x19 and fm1 == 0x36ec58 and fs2 == 1 and fe2 == 0x4c and fm2 == 0x4f013a and rm_val == 3  #nosat': 1 #  rs1_val==fnorm(0x0cb6ec58) and rs2_val==fnorm(0xa64f013a) | Guard = 1 Round = 0 Sticky = 1 --> IR ∈ (-MinSubNorm, -MinSubNorm / 2)
    'fs1 == 0 and fe1 == 0x19 and fm1 == 0x36ec58 and fs2 == 1 and fe2 == 0x4c and fm2 == 0x4f013a and rm_val == 2  #nosat': 1 #  rs1_val==fnorm(0x0cb6ec58) and rs2_val==fnorm(0xa64f013a) | Guard = 1 Round = 0 Sticky = 1 --> IR ∈ (-MinSubNorm, -MinSubNorm / 2)
    'fs1 == 0 and fe1 == 0x19 and fm1 == 0x36ec58 and fs2 == 1 and fe2 == 0x4c and fm2 == 0x4f013a and rm_val == 1  #nosat': 1 #  rs1_val==fnorm(0x0cb6ec58) and rs2_val==fnorm(0xa64f013a) | Guard = 1 Round = 0 Sticky = 1 --> IR ∈ (-MinSubNorm, -MinSubNorm / 2)
    'fs1 == 0 and fe1 == 0x19 and fm1 == 0x36ec58 and fs2 == 1 and fe2 == 0x4c and fm2 == 0x4f013a and rm_val == 0  #nosat': 1 #  rs1_val==fnorm(0x0cb6ec58) and rs2_val==fnorm(0xa64f013a) | Guard = 1 Round = 0 Sticky = 1 --> IR ∈ (-MinSubNorm, -MinSubNorm / 2)
    'fs1 == 0 and fe1 == 0x1b and fm1 == 0x135988 and fs2 == 1 and fe2 == 0x4b and fm2 == 0x007d7b and rm_val == 4  #nosat': 1 #  rs1_val==fnorm(0x0d935988) and rs2_val==fnorm(0xa5807d7b) | Guard = 1 Round = 0 Sticky = 0 --> IR ∈ (-MinSubNorm, -MinSubNorm / 2)
    'fs1 == 0 and fe1 == 0x1b and fm1 == 0x135988 and fs2 == 1 and fe2 == 0x4b and fm2 == 0x007d7b and rm_val == 3  #nosat': 1 #  rs1_val==fnorm(0x0d935988) and rs2_val==fnorm(0xa5807d7b) | Guard = 1 Round = 0 Sticky = 0 --> IR ∈ (-MinSubNorm, -MinSubNorm / 2)
    'fs1 == 0 and fe1 == 0x1b and fm1 == 0x135988 and fs2 == 1 and fe2 == 0x4b and fm2 == 0x007d7b and rm_val == 2  #nosat': 1 #  rs1_val==fnorm(0x0d935988) and rs2_val==fnorm(0xa5807d7b) | Guard = 1 Round = 0 Sticky = 0 --> IR ∈ (-MinSubNorm, -MinSubNorm / 2)
    'fs1 == 0 and fe1 == 0x1b and fm1 == 0x135988 and fs2 == 1 and fe2 == 0x4b and fm2 == 0x007d7b and rm_val == 1  #nosat': 1 #  rs1_val==fnorm(0x0d935988) and rs2_val==fnorm(0xa5807d7b) | Guard = 1 Round = 0 Sticky = 0 --> IR ∈ (-MinSubNorm, -MinSubNorm / 2)
    'fs1 == 0 and fe1 == 0x1b and fm1 == 0x135988 and fs2 == 1 and fe2 == 0x4b and fm2 == 0x007d7b and rm_val == 0  #nosat': 1 #  rs1_val==fnorm(0x0d935988) and rs2_val==fnorm(0xa5807d7b) | Guard = 1 Round = 0 Sticky = 0 --> IR ∈ (-MinSubNorm, -MinSubNorm / 2)
    'fs1 == 0 and fe1 == 0x1a and fm1 == 0x1aaa20 and fs2 == 1 and fe2 == 0x4b and fm2 == 0x74d396 and rm_val == 4  #nosat': 1 #  rs1_val==fnorm(0x0d1aaa20) and rs2_val==fnorm(0xa5f4d396) | Guard = 0 Round = 1 Sticky = 1 --> IR ∈ (-MinSubNorm, -MinSubNorm / 2)
    'fs1 == 0 and fe1 == 0x1a and fm1 == 0x1aaa20 and fs2 == 1 and fe2 == 0x4b and fm2 == 0x74d396 and rm_val == 3  #nosat': 1 #  rs1_val==fnorm(0x0d1aaa20) and rs2_val==fnorm(0xa5f4d396) | Guard = 0 Round = 1 Sticky = 1 --> IR ∈ (-MinSubNorm, -MinSubNorm / 2)
    'fs1 == 0 and fe1 == 0x1a and fm1 == 0x1aaa20 and fs2 == 1 and fe2 == 0x4b and fm2 == 0x74d396 and rm_val == 2  #nosat': 1 #  rs1_val==fnorm(0x0d1aaa20) and rs2_val==fnorm(0xa5f4d396) | Guard = 0 Round = 1 Sticky = 1 --> IR ∈ (-MinSubNorm, -MinSubNorm / 2)
    'fs1 == 0 and fe1 == 0x1a and fm1 == 0x1aaa20 and fs2 == 1 and fe2 == 0x4b and fm2 == 0x74d396 and rm_val == 1  #nosat': 1 #  rs1_val==fnorm(0x0d1aaa20) and rs2_val==fnorm(0xa5f4d396) | Guard = 0 Round = 1 Sticky = 1 --> IR ∈ (-MinSubNorm, -MinSubNorm / 2)
    'fs1 == 0 and fe1 == 0x1a and fm1 == 0x1aaa20 and fs2 == 1 and fe2 == 0x4b and fm2 == 0x74d396 and rm_val == 0  #nosat': 1 #  rs1_val==fnorm(0x0d1aaa20) and rs2_val==fnorm(0xa5f4d396) | Guard = 0 Round = 1 Sticky = 1 --> IR ∈ (-MinSubNorm, -MinSubNorm / 2)
    'fs1 == 0 and fe1 == 0x1a and fm1 == 0x7e5b70 and fs2 == 1 and fe2 == 0x4b and fm2 == 0x14de8c and rm_val == 4  #nosat': 1 #  rs1_val==fnorm(0x0d7e5b70) and rs2_val==fnorm(0xa594de8c) | Guard = 0 Round = 1 Sticky = 0 --> IR ∈ (-MinSubNorm, -MinSubNorm / 2)
    'fs1 == 0 and fe1 == 0x1a and fm1 == 0x7e5b70 and fs2 == 1 and fe2 == 0x4b and fm2 == 0x14de8c and rm_val == 3  #nosat': 1 #  rs1_val==fnorm(0x0d7e5b70) and rs2_val==fnorm(0xa594de8c) | Guard = 0 Round = 1 Sticky = 0 --> IR ∈ (-MinSubNorm, -MinSubNorm / 2)
    'fs1 == 0 and fe1 == 0x1a and fm1 == 0x7e5b70 and fs2 == 1 and fe2 == 0x4b and fm2 == 0x14de8c and rm_val == 2  #nosat': 1 #  rs1_val==fnorm(0x0d7e5b70) and rs2_val==fnorm(0xa594de8c) | Guard = 0 Round = 1 Sticky = 0 --> IR ∈ (-MinSubNorm, -MinSubNorm / 2)
    'fs1 == 0 and fe1 == 0x1a and fm1 == 0x7e5b70 and fs2 == 1 and fe2 == 0x4b and fm2 == 0x14de8c and rm_val == 1  #nosat': 1 #  rs1_val==fnorm(0x0d7e5b70) and rs2_val==fnorm(0xa594de8c) | Guard = 0 Round = 1 Sticky = 0 --> IR ∈ (-MinSubNorm, -MinSubNorm / 2)
    'fs1 == 0 and fe1 == 0x1a and fm1 == 0x7e5b70 and fs2 == 1 and fe2 == 0x4b and fm2 == 0x14de8c and rm_val == 0  #nosat': 1 #  rs1_val==fnorm(0x0d7e5b70) and rs2_val==fnorm(0xa594de8c) | Guard = 0 Round = 1 Sticky = 0 --> IR ∈ (-MinSubNorm, -MinSubNorm / 2)
    'fs1 == 0 and fe1 == 0x1a and fm1 == 0x25eb0a and fs2 == 1 and fe2 == 0x4b and fm2 == 0x64388c and rm_val == 4  #nosat': 1 #  rs1_val==fnorm(0x0d25eb0a) and rs2_val==fnorm(0xa5e4388c) | Guard = 0 Round = 0 Sticky = 1 --> IR ∈ (-MinSubNorm, -MinSubNorm / 2)
    'fs1 == 0 and fe1 == 0x1a and fm1 == 0x25eb0a and fs2 == 1 and fe2 == 0x4b and fm2 == 0x64388c and rm_val == 3  #nosat': 1 #  rs1_val==fnorm(0x0d25eb0a) and rs2_val==fnorm(0xa5e4388c) | Guard = 0 Round = 0 Sticky = 1 --> IR ∈ (-MinSubNorm, -MinSubNorm / 2)
    'fs1 == 0 and fe1 == 0x1a and fm1 == 0x25eb0a and fs2 == 1 and fe2 == 0x4b and fm2 == 0x64388c and rm_val == 2  #nosat': 1 #  rs1_val==fnorm(0x0d25eb0a) and rs2_val==fnorm(0xa5e4388c) | Guard = 0 Round = 0 Sticky = 1 --> IR ∈ (-MinSubNorm, -MinSubNorm / 2)
    'fs1 == 0 and fe1 == 0x1a and fm1 == 0x25eb0a and fs2 == 1 and fe2 == 0x4b and fm2 == 0x64388c and rm_val == 1  #nosat': 1 #  rs1_val==fnorm(0x0d25eb0a) and rs2_val==fnorm(0xa5e4388c) | Guard = 0 Round = 0 Sticky = 1 --> IR ∈ (-MinSubNorm, -MinSubNorm / 2)
    coverage: 140/140
  total_coverage: 242/242
