---
fcvt.s.l_b25:
  config:
  - check ISA:=regex(.*RV64.*I.*Zfinx.*)
  mnemonics:
    fcvt.s.l: 34
    coverage: 1/1
  rd:
    x0: 1
    x1: 1
    x10: 1
    x11: 1
    x12: 1
    x13: 1
    x14: 1
    x15: 1
    x16: 1
    x17: 1
    x18: 1
    x19: 1
    x2: 1
    x20: 1
    x21: 1
    x22: 1
    x23: 1
    x24: 1
    x25: 1
    x26: 1
    x27: 1
    x28: 1
    x29: 1
    x3: 1
    x30: 1
    x31: 3
    x4: 1
    x5: 1
    x6: 1
    x7: 1
    x8: 1
    x9: 1
    coverage: 32/32
  rs1:
    x0: 1
    x1: 1
    x10: 1
    x11: 1
    x12: 1
    x13: 1
    x14: 1
    x15: 1
    x16: 1
    x17: 1
    x18: 1
    x19: 1
    x2: 1
    x20: 1
    x21: 1
    x22: 1
    x23: 1
    x24: 1
    x25: 1
    x26: 1
    x27: 1
    x28: 1
    x29: 1
    x3: 1
    x30: 3
    x31: 1
    x4: 1
    x5: 1
    x6: 1
    x7: 1
    x8: 1
    x9: 1
    coverage: 32/32
  val_comb:
    'rs1_val == 0 and  fcsr == 0 and rm_val == 7  #nosat': 28
    'rs1_val == 1 and  fcsr == 0 and rm_val == 7  #nosat': 1
    'rs1_val == -1 and  fcsr == 0 and rm_val == 7  #nosat': 0
    'rs1_val == 9223372036854775807 and  fcsr == 0 and rm_val == 7  #nosat': 1
    'rs1_val == -9223372036854775807 and  fcsr == 0 and rm_val == 7  #nosat': 0
    'rs1_val == 5270258713649211392 and  fcsr == 0 and rm_val == 7  #nosat': 1
    'rs1_val == -5270258713649211392 and  fcsr == 0 and rm_val == 7  #nosat': 0
    coverage: 4/7
  total_coverage: 69/72
