---
fnmsub_b5:
  config:
  - check ISA:=regex(.*I.*F.*Zfh.*)
  mnemonics:
    fnmsub.h: 228
    coverage: 1/1
  op_comb:
    rd == rs2 == rs3 != rs1: 1
    rs1 != rs2 and rs1 != rd and rs1 != rs3 and rs2 != rs3 and rs2 != rd and rs3 != rd: 217
    rs1 == rd != rs2 and rs1 == rd != rs3 and rs3 != rs2: 1
    rs1 == rd == rs3 != rs2: 1
    rs1 == rs2 != rs3 and rs1 == rs2 != rd and rd != rs3: 1
    rs1 == rs2 == rd != rs3: 1
    rs1 == rs2 == rs3 != rd: 1
    rs1 == rs2 == rs3 == rd: 1
    rs1 == rs3 != rs2 and rs1 == rs3 != rd and rd != rs2: 1
    rs2 == rd != rs1 and rs2 == rd != rs3 and rs3 != rs1: 1
    rs2 == rs3 != rs1 and rs2 == rs3 != rd and rd != rs1: 1
    rs3 == rd != rs1 and rs3 == rd != rs2 and rs2 != rs1: 1
    coverage: 12/12
  rd:
    f0: 1
    f1: 1
    f10: 1
    f11: 1
    f12: 1
    f13: 1
    f14: 1
    f15: 1
    f16: 1
    f17: 1
    f18: 1
    f19: 1
    f2: 1
    f20: 1
    f21: 1
    f22: 1
    f23: 1
    f24: 1
    f25: 1
    f26: 1
    f27: 1
    f28: 1
    f29: 1
    f3: 1
    f30: 1
    f31: 197
    f4: 1
    f5: 1
    f6: 1
    f7: 1
    f8: 1
    f9: 1
    coverage: 32/32
  rs1:
    f0: 1
    f1: 1
    f10: 1
    f11: 1
    f12: 1
    f13: 1
    f14: 1
    f15: 1
    f16: 1
    f17: 1
    f18: 1
    f19: 1
    f2: 1
    f20: 1
    f21: 1
    f22: 1
    f23: 1
    f24: 1
    f25: 1
    f26: 1
    f27: 1
    f28: 1
    f29: 1
    f3: 1
    f30: 195
    f31: 3
    f4: 1
    f5: 1
    f6: 1
    f7: 1
    f8: 1
    f9: 1
    coverage: 32/32
  rs2:
    f0: 1
    f1: 1
    f10: 1
    f11: 1
    f12: 1
    f13: 1
    f14: 1
    f15: 1
    f16: 1
    f17: 1
    f18: 1
    f19: 1
    f2: 1
    f20: 1
    f21: 1
    f22: 1
    f23: 1
    f24: 1
    f25: 1
    f26: 1
    f27: 1
    f28: 1
    f29: 193
    f3: 1
    f30: 5
    f31: 1
    f4: 1
    f5: 1
    f6: 1
    f7: 1
    f8: 1
    f9: 1
    coverage: 32/32
  rs3:
    f0: 1
    f1: 1
    f10: 1
    f11: 1
    f12: 1
    f13: 1
    f14: 1
    f15: 1
    f16: 1
    f17: 1
    f18: 1
    f19: 1
    f2: 1
    f20: 1
    f21: 1
    f22: 1
    f23: 1
    f24: 1
    f25: 1
    f26: 1
    f27: 1
    f28: 191
    f29: 7
    f3: 1
    f30: 1
    f31: 1
    f4: 1
    f5: 1
    f6: 1
    f7: 1
    f8: 1
    f9: 1
    coverage: 32/32
  val_comb:
    ? 'fs1 == 0 and fe1 == 0x1c and fm1 == 0x340 and fs2 == 1 and fe2 == 0x11 and
      fm2 == 0x03e and fs3 == 0 and fe3 == 0x1e and fm3 == 0x3b1 and fcsr == 0x2 and
      rm_val == 7  and rs1_nan_prefix == 0xffff and rs2_nan_prefix == 0xffff and rs3_nan_prefix
      == 0xffff  #nosat'
    : 1
    ? 'fs1 == 0 and fe1 == 0x1c and fm1 == 0x340 and fs2 == 1 and fe2 == 0x11 and
      fm2 == 0x03e and fs3 == 0 and fe3 == 0x1e and fm3 == 0x3b1 and fcsr == 0x22
      and rm_val == 7  and rs1_nan_prefix == 0xffff and rs2_nan_prefix == 0xffff and
      rs3_nan_prefix == 0xffff  #nosat'
    : 1
    ? 'fs1 == 0 and fe1 == 0x1c and fm1 == 0x340 and fs2 == 1 and fe2 == 0x11 and
      fm2 == 0x03e and fs3 == 0 and fe3 == 0x1e and fm3 == 0x3b1 and fcsr == 0x42
      and rm_val == 7  and rs1_nan_prefix == 0xffff and rs2_nan_prefix == 0xffff and
      rs3_nan_prefix == 0xffff  #nosat'
    : 1
    ? 'fs1 == 0 and fe1 == 0x1c and fm1 == 0x340 and fs2 == 1 and fe2 == 0x11 and
      fm2 == 0x03e and fs3 == 0 and fe3 == 0x1e and fm3 == 0x3b1 and fcsr == 0x62
      and rm_val == 7  and rs1_nan_prefix == 0xffff and rs2_nan_prefix == 0xffff and
      rs3_nan_prefix == 0xffff  #nosat'
    : 1
    ? 'fs1 == 0 and fe1 == 0x1c and fm1 == 0x340 and fs2 == 1 and fe2 == 0x11 and
      fm2 == 0x03e and fs3 == 0 and fe3 == 0x1e and fm3 == 0x3b1 and fcsr == 0x82
      and rm_val == 7  and rs1_nan_prefix == 0xffff and rs2_nan_prefix == 0xffff and
      rs3_nan_prefix == 0xffff  #nosat'
    : 1
    ? 'fs1 == 0 and fe1 == 0x1c and fm1 == 0x00a and fs2 == 1 and fe2 == 0x11 and
      fm2 == 0x194 and fs3 == 0 and fe3 == 0x1e and fm3 == 0x1a2 and fcsr == 0x2 and
      rm_val == 7  and rs1_nan_prefix == 0xffff and rs2_nan_prefix == 0xffff and rs3_nan_prefix
      == 0xffff  #nosat'
    : 1
    ? 'fs1 == 0 and fe1 == 0x1c and fm1 == 0x00a and fs2 == 1 and fe2 == 0x11 and
      fm2 == 0x194 and fs3 == 0 and fe3 == 0x1e and fm3 == 0x1a2 and fcsr == 0x22
      and rm_val == 7  and rs1_nan_prefix == 0xffff and rs2_nan_prefix == 0xffff and
      rs3_nan_prefix == 0xffff  #nosat'
    : 1
    ? 'fs1 == 0 and fe1 == 0x1c and fm1 == 0x00a and fs2 == 1 and fe2 == 0x11 and
      fm2 == 0x194 and fs3 == 0 and fe3 == 0x1e and fm3 == 0x1a2 and fcsr == 0x42
      and rm_val == 7  and rs1_nan_prefix == 0xffff and rs2_nan_prefix == 0xffff and
      rs3_nan_prefix == 0xffff  #nosat'
    : 1
    ? 'fs1 == 0 and fe1 == 0x1c and fm1 == 0x00a and fs2 == 1 and fe2 == 0x11 and
      fm2 == 0x194 and fs3 == 0 and fe3 == 0x1e and fm3 == 0x1a2 and fcsr == 0x62
      and rm_val == 7  and rs1_nan_prefix == 0xffff and rs2_nan_prefix == 0xffff and
      rs3_nan_prefix == 0xffff  #nosat'
    : 1
    ? 'fs1 == 0 and fe1 == 0x1c and fm1 == 0x00a and fs2 == 1 and fe2 == 0x11 and
      fm2 == 0x194 and fs3 == 0 and fe3 == 0x1e and fm3 == 0x1a2 and fcsr == 0x82
      and rm_val == 7  and rs1_nan_prefix == 0xffff and rs2_nan_prefix == 0xffff and
      rs3_nan_prefix == 0xffff  #nosat'
    : 1
    ? 'fs1 == 0 and fe1 == 0x1b and fm1 == 0x173 and fs2 == 1 and fe2 == 0x10 and
      fm2 == 0x1cf and fs3 == 0 and fe3 == 0x1c and fm3 == 0x3ea and fcsr == 0x2 and
      rm_val == 7  and rs1_nan_prefix == 0xffff and rs2_nan_prefix == 0xffff and rs3_nan_prefix
      == 0xffff  #nosat'
    : 1
    ? 'fs1 == 0 and fe1 == 0x1b and fm1 == 0x173 and fs2 == 1 and fe2 == 0x10 and
      fm2 == 0x1cf and fs3 == 0 and fe3 == 0x1c and fm3 == 0x3ea and fcsr == 0x22
      and rm_val == 7  and rs1_nan_prefix == 0xffff and rs2_nan_prefix == 0xffff and
      rs3_nan_prefix == 0xffff  #nosat'
    : 1
    ? 'fs1 == 0 and fe1 == 0x1b and fm1 == 0x173 and fs2 == 1 and fe2 == 0x10 and
      fm2 == 0x1cf and fs3 == 0 and fe3 == 0x1c and fm3 == 0x3ea and fcsr == 0x42
      and rm_val == 7  and rs1_nan_prefix == 0xffff and rs2_nan_prefix == 0xffff and
      rs3_nan_prefix == 0xffff  #nosat'
    : 1
    ? 'fs1 == 0 and fe1 == 0x1b and fm1 == 0x173 and fs2 == 1 and fe2 == 0x10 and
      fm2 == 0x1cf and fs3 == 0 and fe3 == 0x1c and fm3 == 0x3ea and fcsr == 0x62
      and rm_val == 7  and rs1_nan_prefix == 0xffff and rs2_nan_prefix == 0xffff and
      rs3_nan_prefix == 0xffff  #nosat'
    : 1
    ? 'fs1 == 0 and fe1 == 0x1b and fm1 == 0x173 and fs2 == 1 and fe2 == 0x10 and
      fm2 == 0x1cf and fs3 == 0 and fe3 == 0x1c and fm3 == 0x3ea and fcsr == 0x82
      and rm_val == 7  and rs1_nan_prefix == 0xffff and rs2_nan_prefix == 0xffff and
      rs3_nan_prefix == 0xffff  #nosat'
    : 1
    ? 'fs1 == 0 and fe1 == 0x1e and fm1 == 0x3fd and fs2 == 1 and fe2 == 0x0c and
      fm2 == 0x2b4 and fs3 == 0 and fe3 == 0x1c and fm3 == 0x2b2 and fcsr == 0x2 and
      rm_val == 7  and rs1_nan_prefix == 0xffff and rs2_nan_prefix == 0xffff and rs3_nan_prefix
      == 0xffff  #nosat'
    : 1
    ? 'fs1 == 0 and fe1 == 0x1e and fm1 == 0x3fd and fs2 == 1 and fe2 == 0x0c and
      fm2 == 0x2b4 and fs3 == 0 and fe3 == 0x1c and fm3 == 0x2b2 and fcsr == 0x22
      and rm_val == 7  and rs1_nan_prefix == 0xffff and rs2_nan_prefix == 0xffff and
      rs3_nan_prefix == 0xffff  #nosat'
    : 1
    ? 'fs1 == 0 and fe1 == 0x1e and fm1 == 0x3fd and fs2 == 1 and fe2 == 0x0c and
      fm2 == 0x2b4 and fs3 == 0 and fe3 == 0x1c and fm3 == 0x2b2 and fcsr == 0x42
      and rm_val == 7  and rs1_nan_prefix == 0xffff and rs2_nan_prefix == 0xffff and
      rs3_nan_prefix == 0xffff  #nosat'
    : 1
    ? 'fs1 == 0 and fe1 == 0x1e and fm1 == 0x3fd and fs2 == 1 and fe2 == 0x0c and
      fm2 == 0x2b4 and fs3 == 0 and fe3 == 0x1c and fm3 == 0x2b2 and fcsr == 0x62
      and rm_val == 7  and rs1_nan_prefix == 0xffff and rs2_nan_prefix == 0xffff and
      rs3_nan_prefix == 0xffff  #nosat'
    : 1
    ? 'fs1 == 0 and fe1 == 0x1e and fm1 == 0x3fd and fs2 == 1 and fe2 == 0x0c and
      fm2 == 0x2b4 and fs3 == 0 and fe3 == 0x1c and fm3 == 0x2b2 and fcsr == 0x82
      and rm_val == 7  and rs1_nan_prefix == 0xffff and rs2_nan_prefix == 0xffff and
      rs3_nan_prefix == 0xffff  #nosat'
    : 1
    ? 'fs1 == 0 and fe1 == 0x1e and fm1 == 0x121 and fs2 == 1 and fe2 == 0x0e and
      fm2 == 0x1b8 and fs3 == 0 and fe3 == 0x1d and fm3 == 0x357 and fcsr == 0x2 and
      rm_val == 7  and rs1_nan_prefix == 0xffff and rs2_nan_prefix == 0xffff and rs3_nan_prefix
      == 0xffff  #nosat'
    : 1
    ? 'fs1 == 0 and fe1 == 0x1e and fm1 == 0x121 and fs2 == 1 and fe2 == 0x0e and
      fm2 == 0x1b8 and fs3 == 0 and fe3 == 0x1d and fm3 == 0x357 and fcsr == 0x22
      and rm_val == 7  and rs1_nan_prefix == 0xffff and rs2_nan_prefix == 0xffff and
      rs3_nan_prefix == 0xffff  #nosat'
    : 1
    ? 'fs1 == 0 and fe1 == 0x1e and fm1 == 0x121 and fs2 == 1 and fe2 == 0x0e and
      fm2 == 0x1b8 and fs3 == 0 and fe3 == 0x1d and fm3 == 0x357 and fcsr == 0x42
      and rm_val == 7  and rs1_nan_prefix == 0xffff and rs2_nan_prefix == 0xffff and
      rs3_nan_prefix == 0xffff  #nosat'
    : 1
    ? 'fs1 == 0 and fe1 == 0x1e and fm1 == 0x121 and fs2 == 1 and fe2 == 0x0e and
      fm2 == 0x1b8 and fs3 == 0 and fe3 == 0x1d and fm3 == 0x357 and fcsr == 0x62
      and rm_val == 7  and rs1_nan_prefix == 0xffff and rs2_nan_prefix == 0xffff and
      rs3_nan_prefix == 0xffff  #nosat'
    : 1
    ? 'fs1 == 0 and fe1 == 0x1e and fm1 == 0x121 and fs2 == 1 and fe2 == 0x0e and
      fm2 == 0x1b8 and fs3 == 0 and fe3 == 0x1d and fm3 == 0x357 and fcsr == 0x82
      and rm_val == 7  and rs1_nan_prefix == 0xffff and rs2_nan_prefix == 0xffff and
      rs3_nan_prefix == 0xffff  #nosat'
    : 1
    ? 'fs1 == 0 and fe1 == 0x1d and fm1 == 0x33f and fs2 == 1 and fe2 == 0x0f and
      fm2 == 0x05e and fs3 == 0 and fe3 == 0x1d and fm3 == 0x3ea and fcsr == 0x2 and
      rm_val == 7  and rs1_nan_prefix == 0xffff and rs2_nan_prefix == 0xffff and rs3_nan_prefix
      == 0xffff  #nosat'
    : 1
    ? 'fs1 == 0 and fe1 == 0x1d and fm1 == 0x33f and fs2 == 1 and fe2 == 0x0f and
      fm2 == 0x05e and fs3 == 0 and fe3 == 0x1d and fm3 == 0x3ea and fcsr == 0x22
      and rm_val == 7  and rs1_nan_prefix == 0xffff and rs2_nan_prefix == 0xffff and
      rs3_nan_prefix == 0xffff  #nosat'
    : 1
    ? 'fs1 == 0 and fe1 == 0x1d and fm1 == 0x33f and fs2 == 1 and fe2 == 0x0f and
      fm2 == 0x05e and fs3 == 0 and fe3 == 0x1d and fm3 == 0x3ea and fcsr == 0x42
      and rm_val == 7  and rs1_nan_prefix == 0xffff and rs2_nan_prefix == 0xffff and
      rs3_nan_prefix == 0xffff  #nosat'
    : 1
    ? 'fs1 == 0 and fe1 == 0x1d and fm1 == 0x33f and fs2 == 1 and fe2 == 0x0f and
      fm2 == 0x05e and fs3 == 0 and fe3 == 0x1d and fm3 == 0x3ea and fcsr == 0x62
      and rm_val == 7  and rs1_nan_prefix == 0xffff and rs2_nan_prefix == 0xffff and
      rs3_nan_prefix == 0xffff  #nosat'
    : 1
    ? 'fs1 == 0 and fe1 == 0x1d and fm1 == 0x33f and fs2 == 1 and fe2 == 0x0f and
      fm2 == 0x05e and fs3 == 0 and fe3 == 0x1d and fm3 == 0x3ea and fcsr == 0x82
      and rm_val == 7  and rs1_nan_prefix == 0xffff and rs2_nan_prefix == 0xffff and
      rs3_nan_prefix == 0xffff  #nosat'
    : 1
    ? 'fs1 == 0 and fe1 == 0x1c and fm1 == 0x226 and fs2 == 1 and fe2 == 0x11 and
      fm2 == 0x051 and fs3 == 0 and fe3 == 0x1e and fm3 == 0x2a4 and fcsr == 0x2 and
      rm_val == 7  and rs1_nan_prefix == 0xffff and rs2_nan_prefix == 0xffff and rs3_nan_prefix
      == 0xffff  #nosat'
    : 1
    ? 'fs1 == 0 and fe1 == 0x1c and fm1 == 0x226 and fs2 == 1 and fe2 == 0x11 and
      fm2 == 0x051 and fs3 == 0 and fe3 == 0x1e and fm3 == 0x2a4 and fcsr == 0x22
      and rm_val == 7  and rs1_nan_prefix == 0xffff and rs2_nan_prefix == 0xffff and
      rs3_nan_prefix == 0xffff  #nosat'
    : 1
    ? 'fs1 == 0 and fe1 == 0x1c and fm1 == 0x226 and fs2 == 1 and fe2 == 0x11 and
      fm2 == 0x051 and fs3 == 0 and fe3 == 0x1e and fm3 == 0x2a4 and fcsr == 0x42
      and rm_val == 7  and rs1_nan_prefix == 0xffff and rs2_nan_prefix == 0xffff and
      rs3_nan_prefix == 0xffff  #nosat'
    : 1
    ? 'fs1 == 0 and fe1 == 0x1c and fm1 == 0x226 and fs2 == 1 and fe2 == 0x11 and
      fm2 == 0x051 and fs3 == 0 and fe3 == 0x1e and fm3 == 0x2a4 and fcsr == 0x62
      and rm_val == 7  and rs1_nan_prefix == 0xffff and rs2_nan_prefix == 0xffff and
      rs3_nan_prefix == 0xffff  #nosat'
    : 1
    ? 'fs1 == 0 and fe1 == 0x1c and fm1 == 0x226 and fs2 == 1 and fe2 == 0x11 and
      fm2 == 0x051 and fs3 == 0 and fe3 == 0x1e and fm3 == 0x2a4 and fcsr == 0x82
      and rm_val == 7  and rs1_nan_prefix == 0xffff and rs2_nan_prefix == 0xffff and
      rs3_nan_prefix == 0xffff  #nosat'
    : 1
    ? 'fs1 == 0 and fe1 == 0x1b and fm1 == 0x1ba and fs2 == 1 and fe2 == 0x10 and
      fm2 == 0x13a and fs3 == 0 and fe3 == 0x1c and fm3 == 0x37d and fcsr == 0x2 and
      rm_val == 7  and rs1_nan_prefix == 0xffff and rs2_nan_prefix == 0xffff and rs3_nan_prefix
      == 0xffff  #nosat'
    : 1
    ? 'fs1 == 0 and fe1 == 0x1b and fm1 == 0x1ba and fs2 == 1 and fe2 == 0x10 and
      fm2 == 0x13a and fs3 == 0 and fe3 == 0x1c and fm3 == 0x37d and fcsr == 0x22
      and rm_val == 7  and rs1_nan_prefix == 0xffff and rs2_nan_prefix == 0xffff and
      rs3_nan_prefix == 0xffff  #nosat'
    : 1
    ? 'fs1 == 0 and fe1 == 0x1b and fm1 == 0x1ba and fs2 == 1 and fe2 == 0x10 and
      fm2 == 0x13a and fs3 == 0 and fe3 == 0x1c and fm3 == 0x37d and fcsr == 0x42
      and rm_val == 7  and rs1_nan_prefix == 0xffff and rs2_nan_prefix == 0xffff and
      rs3_nan_prefix == 0xffff  #nosat'
    : 1
    ? 'fs1 == 0 and fe1 == 0x1b and fm1 == 0x1ba and fs2 == 1 and fe2 == 0x10 and
      fm2 == 0x13a and fs3 == 0 and fe3 == 0x1c and fm3 == 0x37d and fcsr == 0x62
      and rm_val == 7  and rs1_nan_prefix == 0xffff and rs2_nan_prefix == 0xffff and
      rs3_nan_prefix == 0xffff  #nosat'
    : 1
    ? 'fs1 == 0 and fe1 == 0x1b and fm1 == 0x1ba and fs2 == 1 and fe2 == 0x10 and
      fm2 == 0x13a and fs3 == 0 and fe3 == 0x1c and fm3 == 0x37d and fcsr == 0x82
      and rm_val == 7  and rs1_nan_prefix == 0xffff and rs2_nan_prefix == 0xffff and
      rs3_nan_prefix == 0xffff  #nosat'
    : 1
    ? 'fs1 == 0 and fe1 == 0x19 and fm1 == 0x11e and fs2 == 1 and fe2 == 0x12 and
      fm2 == 0x2aa and fs3 == 0 and fe3 == 0x1d and fm3 == 0x044 and fcsr == 0x2 and
      rm_val == 7  and rs1_nan_prefix == 0xffff and rs2_nan_prefix == 0xffff and rs3_nan_prefix
      == 0xffff  #nosat'
    : 1
    ? 'fs1 == 0 and fe1 == 0x19 and fm1 == 0x11e and fs2 == 1 and fe2 == 0x12 and
      fm2 == 0x2aa and fs3 == 0 and fe3 == 0x1d and fm3 == 0x044 and fcsr == 0x22
      and rm_val == 7  and rs1_nan_prefix == 0xffff and rs2_nan_prefix == 0xffff and
      rs3_nan_prefix == 0xffff  #nosat'
    : 1
    ? 'fs1 == 0 and fe1 == 0x19 and fm1 == 0x11e and fs2 == 1 and fe2 == 0x12 and
      fm2 == 0x2aa and fs3 == 0 and fe3 == 0x1d and fm3 == 0x044 and fcsr == 0x42
      and rm_val == 7  and rs1_nan_prefix == 0xffff and rs2_nan_prefix == 0xffff and
      rs3_nan_prefix == 0xffff  #nosat'
    : 1
    ? 'fs1 == 0 and fe1 == 0x19 and fm1 == 0x11e and fs2 == 1 and fe2 == 0x12 and
      fm2 == 0x2aa and fs3 == 0 and fe3 == 0x1d and fm3 == 0x044 and fcsr == 0x62
      and rm_val == 7  and rs1_nan_prefix == 0xffff and rs2_nan_prefix == 0xffff and
      rs3_nan_prefix == 0xffff  #nosat'
    : 1
    ? 'fs1 == 0 and fe1 == 0x19 and fm1 == 0x11e and fs2 == 1 and fe2 == 0x12 and
      fm2 == 0x2aa and fs3 == 0 and fe3 == 0x1d and fm3 == 0x044 and fcsr == 0x82
      and rm_val == 7  and rs1_nan_prefix == 0xffff and rs2_nan_prefix == 0xffff and
      rs3_nan_prefix == 0xffff  #nosat'
    : 1
    ? 'fs1 == 0 and fe1 == 0x1d and fm1 == 0x285 and fs2 == 1 and fe2 == 0x10 and
      fm2 == 0x06c and fs3 == 0 and fe3 == 0x1e and fm3 == 0x336 and fcsr == 0x2 and
      rm_val == 7  and rs1_nan_prefix == 0xffff and rs2_nan_prefix == 0xffff and rs3_nan_prefix
      == 0xffff  #nosat'
    : 1
    ? 'fs1 == 0 and fe1 == 0x1d and fm1 == 0x285 and fs2 == 1 and fe2 == 0x10 and
      fm2 == 0x06c and fs3 == 0 and fe3 == 0x1e and fm3 == 0x336 and fcsr == 0x22
      and rm_val == 7  and rs1_nan_prefix == 0xffff and rs2_nan_prefix == 0xffff and
      rs3_nan_prefix == 0xffff  #nosat'
    : 1
    ? 'fs1 == 0 and fe1 == 0x1d and fm1 == 0x285 and fs2 == 1 and fe2 == 0x10 and
      fm2 == 0x06c and fs3 == 0 and fe3 == 0x1e and fm3 == 0x336 and fcsr == 0x42
      and rm_val == 7  and rs1_nan_prefix == 0xffff and rs2_nan_prefix == 0xffff and
      rs3_nan_prefix == 0xffff  #nosat'
    : 1
    ? 'fs1 == 0 and fe1 == 0x1d and fm1 == 0x285 and fs2 == 1 and fe2 == 0x10 and
      fm2 == 0x06c and fs3 == 0 and fe3 == 0x1e and fm3 == 0x336 and fcsr == 0x62
      and rm_val == 7  and rs1_nan_prefix == 0xffff and rs2_nan_prefix == 0xffff and
      rs3_nan_prefix == 0xffff  #nosat'
    : 1
    ? 'fs1 == 0 and fe1 == 0x1d and fm1 == 0x285 and fs2 == 1 and fe2 == 0x10 and
      fm2 == 0x06c and fs3 == 0 and fe3 == 0x1e and fm3 == 0x336 and fcsr == 0x82
      and rm_val == 7  and rs1_nan_prefix == 0xffff and rs2_nan_prefix == 0xffff and
      rs3_nan_prefix == 0xffff  #nosat'
    : 1
    ? 'fs1 == 0 and fe1 == 0x1d and fm1 == 0x20f and fs2 == 1 and fe2 == 0x0d and
      fm2 == 0x0cd and fs3 == 0 and fe3 == 0x1b and fm3 == 0x346 and fcsr == 0x2 and
      rm_val == 7  and rs1_nan_prefix == 0xffff and rs2_nan_prefix == 0xffff and rs3_nan_prefix
      == 0xffff  #nosat'
    : 1
    ? 'fs1 == 0 and fe1 == 0x1d and fm1 == 0x20f and fs2 == 1 and fe2 == 0x0d and
      fm2 == 0x0cd and fs3 == 0 and fe3 == 0x1b and fm3 == 0x346 and fcsr == 0x22
      and rm_val == 7  and rs1_nan_prefix == 0xffff and rs2_nan_prefix == 0xffff and
      rs3_nan_prefix == 0xffff  #nosat'
    : 1
    ? 'fs1 == 0 and fe1 == 0x1d and fm1 == 0x20f and fs2 == 1 and fe2 == 0x0d and
      fm2 == 0x0cd and fs3 == 0 and fe3 == 0x1b and fm3 == 0x346 and fcsr == 0x42
      and rm_val == 7  and rs1_nan_prefix == 0xffff and rs2_nan_prefix == 0xffff and
      rs3_nan_prefix == 0xffff  #nosat'
    : 1
    ? 'fs1 == 0 and fe1 == 0x1d and fm1 == 0x20f and fs2 == 1 and fe2 == 0x0d and
      fm2 == 0x0cd and fs3 == 0 and fe3 == 0x1b and fm3 == 0x346 and fcsr == 0x62
      and rm_val == 7  and rs1_nan_prefix == 0xffff and rs2_nan_prefix == 0xffff and
      rs3_nan_prefix == 0xffff  #nosat'
    : 1
    ? 'fs1 == 0 and fe1 == 0x1d and fm1 == 0x20f and fs2 == 1 and fe2 == 0x0d and
      fm2 == 0x0cd and fs3 == 0 and fe3 == 0x1b and fm3 == 0x346 and fcsr == 0x82
      and rm_val == 7  and rs1_nan_prefix == 0xffff and rs2_nan_prefix == 0xffff and
      rs3_nan_prefix == 0xffff  #nosat'
    : 1
    ? 'fs1 == 0 and fe1 == 0x1d and fm1 == 0x021 and fs2 == 1 and fe2 == 0x10 and
      fm2 == 0x3ad and fs3 == 0 and fe3 == 0x1e and fm3 == 0x3ed and fcsr == 0x2 and
      rm_val == 7  and rs1_nan_prefix == 0xffff and rs2_nan_prefix == 0xffff and rs3_nan_prefix
      == 0xffff  #nosat'
    : 1
    ? 'fs1 == 0 and fe1 == 0x1d and fm1 == 0x021 and fs2 == 1 and fe2 == 0x10 and
      fm2 == 0x3ad and fs3 == 0 and fe3 == 0x1e and fm3 == 0x3ed and fcsr == 0x22
      and rm_val == 7  and rs1_nan_prefix == 0xffff and rs2_nan_prefix == 0xffff and
      rs3_nan_prefix == 0xffff  #nosat'
    : 1
    ? 'fs1 == 0 and fe1 == 0x1d and fm1 == 0x021 and fs2 == 1 and fe2 == 0x10 and
      fm2 == 0x3ad and fs3 == 0 and fe3 == 0x1e and fm3 == 0x3ed and fcsr == 0x42
      and rm_val == 7  and rs1_nan_prefix == 0xffff and rs2_nan_prefix == 0xffff and
      rs3_nan_prefix == 0xffff  #nosat'
    : 1
    ? 'fs1 == 0 and fe1 == 0x1d and fm1 == 0x021 and fs2 == 1 and fe2 == 0x10 and
      fm2 == 0x3ad and fs3 == 0 and fe3 == 0x1e and fm3 == 0x3ed and fcsr == 0x62
      and rm_val == 7  and rs1_nan_prefix == 0xffff and rs2_nan_prefix == 0xffff and
      rs3_nan_prefix == 0xffff  #nosat'
    : 1
    ? 'fs1 == 0 and fe1 == 0x1d and fm1 == 0x021 and fs2 == 1 and fe2 == 0x10 and
      fm2 == 0x3ad and fs3 == 0 and fe3 == 0x1e and fm3 == 0x3ed and fcsr == 0x82
      and rm_val == 7  and rs1_nan_prefix == 0xffff and rs2_nan_prefix == 0xffff and
      rs3_nan_prefix == 0xffff  #nosat'
    : 1
    ? 'fs1 == 0 and fe1 == 0x1b and fm1 == 0x009 and fs2 == 1 and fe2 == 0x12 and
      fm2 == 0x0e9 and fs3 == 0 and fe3 == 0x1e and fm3 == 0x0f5 and fcsr == 0x2 and
      rm_val == 7  and rs1_nan_prefix == 0xffff and rs2_nan_prefix == 0xffff and rs3_nan_prefix
      == 0xffff  #nosat'
    : 1
    ? 'fs1 == 0 and fe1 == 0x1b and fm1 == 0x009 and fs2 == 1 and fe2 == 0x12 and
      fm2 == 0x0e9 and fs3 == 0 and fe3 == 0x1e and fm3 == 0x0f5 and fcsr == 0x22
      and rm_val == 7  and rs1_nan_prefix == 0xffff and rs2_nan_prefix == 0xffff and
      rs3_nan_prefix == 0xffff  #nosat'
    : 1
    ? 'fs1 == 0 and fe1 == 0x1b and fm1 == 0x009 and fs2 == 1 and fe2 == 0x12 and
      fm2 == 0x0e9 and fs3 == 0 and fe3 == 0x1e and fm3 == 0x0f5 and fcsr == 0x42
      and rm_val == 7  and rs1_nan_prefix == 0xffff and rs2_nan_prefix == 0xffff and
      rs3_nan_prefix == 0xffff  #nosat'
    : 1
    ? 'fs1 == 0 and fe1 == 0x1b and fm1 == 0x009 and fs2 == 1 and fe2 == 0x12 and
      fm2 == 0x0e9 and fs3 == 0 and fe3 == 0x1e and fm3 == 0x0f5 and fcsr == 0x62
      and rm_val == 7  and rs1_nan_prefix == 0xffff and rs2_nan_prefix == 0xffff and
      rs3_nan_prefix == 0xffff  #nosat'
    : 1
    ? 'fs1 == 0 and fe1 == 0x1b and fm1 == 0x009 and fs2 == 1 and fe2 == 0x12 and
      fm2 == 0x0e9 and fs3 == 0 and fe3 == 0x1e and fm3 == 0x0f5 and fcsr == 0x82
      and rm_val == 7  and rs1_nan_prefix == 0xffff and rs2_nan_prefix == 0xffff and
      rs3_nan_prefix == 0xffff  #nosat'
    : 1
    ? 'fs1 == 0 and fe1 == 0x1d and fm1 == 0x208 and fs2 == 1 and fe2 == 0x0f and
      fm2 == 0x301 and fs3 == 0 and fe3 == 0x1e and fm3 == 0x148 and fcsr == 0x2 and
      rm_val == 7  and rs1_nan_prefix == 0xffff and rs2_nan_prefix == 0xffff and rs3_nan_prefix
      == 0xffff  #nosat'
    : 1
    ? 'fs1 == 0 and fe1 == 0x1d and fm1 == 0x208 and fs2 == 1 and fe2 == 0x0f and
      fm2 == 0x301 and fs3 == 0 and fe3 == 0x1e and fm3 == 0x148 and fcsr == 0x22
      and rm_val == 7  and rs1_nan_prefix == 0xffff and rs2_nan_prefix == 0xffff and
      rs3_nan_prefix == 0xffff  #nosat'
    : 1
    ? 'fs1 == 0 and fe1 == 0x1d and fm1 == 0x208 and fs2 == 1 and fe2 == 0x0f and
      fm2 == 0x301 and fs3 == 0 and fe3 == 0x1e and fm3 == 0x148 and fcsr == 0x42
      and rm_val == 7  and rs1_nan_prefix == 0xffff and rs2_nan_prefix == 0xffff and
      rs3_nan_prefix == 0xffff  #nosat'
    : 1
    ? 'fs1 == 0 and fe1 == 0x1d and fm1 == 0x208 and fs2 == 1 and fe2 == 0x0f and
      fm2 == 0x301 and fs3 == 0 and fe3 == 0x1e and fm3 == 0x148 and fcsr == 0x62
      and rm_val == 7  and rs1_nan_prefix == 0xffff and rs2_nan_prefix == 0xffff and
      rs3_nan_prefix == 0xffff  #nosat'
    : 1
    ? 'fs1 == 0 and fe1 == 0x1d and fm1 == 0x208 and fs2 == 1 and fe2 == 0x0f and
      fm2 == 0x301 and fs3 == 0 and fe3 == 0x1e and fm3 == 0x148 and fcsr == 0x82
      and rm_val == 7  and rs1_nan_prefix == 0xffff and rs2_nan_prefix == 0xffff and
      rs3_nan_prefix == 0xffff  #nosat'
    : 1
    ? 'fs1 == 0 and fe1 == 0x1d and fm1 == 0x169 and fs2 == 1 and fe2 == 0x10 and
      fm2 == 0x015 and fs3 == 0 and fe3 == 0x1e and fm3 == 0x187 and fcsr == 0x2 and
      rm_val == 7  and rs1_nan_prefix == 0xffff and rs2_nan_prefix == 0xffff and rs3_nan_prefix
      == 0xffff  #nosat'
    : 1
    ? 'fs1 == 0 and fe1 == 0x1d and fm1 == 0x169 and fs2 == 1 and fe2 == 0x10 and
      fm2 == 0x015 and fs3 == 0 and fe3 == 0x1e and fm3 == 0x187 and fcsr == 0x22
      and rm_val == 7  and rs1_nan_prefix == 0xffff and rs2_nan_prefix == 0xffff and
      rs3_nan_prefix == 0xffff  #nosat'
    : 1
    ? 'fs1 == 0 and fe1 == 0x1d and fm1 == 0x169 and fs2 == 1 and fe2 == 0x10 and
      fm2 == 0x015 and fs3 == 0 and fe3 == 0x1e and fm3 == 0x187 and fcsr == 0x42
      and rm_val == 7  and rs1_nan_prefix == 0xffff and rs2_nan_prefix == 0xffff and
      rs3_nan_prefix == 0xffff  #nosat'
    : 1
    ? 'fs1 == 0 and fe1 == 0x1d and fm1 == 0x169 and fs2 == 1 and fe2 == 0x10 and
      fm2 == 0x015 and fs3 == 0 and fe3 == 0x1e and fm3 == 0x187 and fcsr == 0x62
      and rm_val == 7  and rs1_nan_prefix == 0xffff and rs2_nan_prefix == 0xffff and
      rs3_nan_prefix == 0xffff  #nosat'
    : 1
    ? 'fs1 == 0 and fe1 == 0x1d and fm1 == 0x169 and fs2 == 1 and fe2 == 0x10 and
      fm2 == 0x015 and fs3 == 0 and fe3 == 0x1e and fm3 == 0x187 and fcsr == 0x82
      and rm_val == 7  and rs1_nan_prefix == 0xffff and rs2_nan_prefix == 0xffff and
      rs3_nan_prefix == 0xffff  #nosat'
    : 1
    ? 'fs1 == 0 and fe1 == 0x1d and fm1 == 0x3f5 and fs2 == 1 and fe2 == 0x0f and
      fm2 == 0x139 and fs3 == 0 and fe3 == 0x1e and fm3 == 0x131 and fcsr == 0x2 and
      rm_val == 7  and rs1_nan_prefix == 0xffff and rs2_nan_prefix == 0xffff and rs3_nan_prefix
      == 0xffff  #nosat'
    : 1
    ? 'fs1 == 0 and fe1 == 0x1d and fm1 == 0x3f5 and fs2 == 1 and fe2 == 0x0f and
      fm2 == 0x139 and fs3 == 0 and fe3 == 0x1e and fm3 == 0x131 and fcsr == 0x22
      and rm_val == 7  and rs1_nan_prefix == 0xffff and rs2_nan_prefix == 0xffff and
      rs3_nan_prefix == 0xffff  #nosat'
    : 1
    ? 'fs1 == 0 and fe1 == 0x1d and fm1 == 0x3f5 and fs2 == 1 and fe2 == 0x0f and
      fm2 == 0x139 and fs3 == 0 and fe3 == 0x1e and fm3 == 0x131 and fcsr == 0x42
      and rm_val == 7  and rs1_nan_prefix == 0xffff and rs2_nan_prefix == 0xffff and
      rs3_nan_prefix == 0xffff  #nosat'
    : 1
    ? 'fs1 == 0 and fe1 == 0x1d and fm1 == 0x3f5 and fs2 == 1 and fe2 == 0x0f and
      fm2 == 0x139 and fs3 == 0 and fe3 == 0x1e and fm3 == 0x131 and fcsr == 0x62
      and rm_val == 7  and rs1_nan_prefix == 0xffff and rs2_nan_prefix == 0xffff and
      rs3_nan_prefix == 0xffff  #nosat'
    : 1
    ? 'fs1 == 0 and fe1 == 0x1d and fm1 == 0x3f5 and fs2 == 1 and fe2 == 0x0f and
      fm2 == 0x139 and fs3 == 0 and fe3 == 0x1e and fm3 == 0x131 and fcsr == 0x82
      and rm_val == 7  and rs1_nan_prefix == 0xffff and rs2_nan_prefix == 0xffff and
      rs3_nan_prefix == 0xffff  #nosat'
    : 1
    ? 'fs1 == 0 and fe1 == 0x1e and fm1 == 0x335 and fs2 == 1 and fe2 == 0x0e and
      fm2 == 0x129 and fs3 == 0 and fe3 == 0x1e and fm3 == 0x0a6 and fcsr == 0x2 and
      rm_val == 7  and rs1_nan_prefix == 0xffff and rs2_nan_prefix == 0xffff and rs3_nan_prefix
      == 0xffff  #nosat'
    : 1
    ? 'fs1 == 0 and fe1 == 0x1e and fm1 == 0x335 and fs2 == 1 and fe2 == 0x0e and
      fm2 == 0x129 and fs3 == 0 and fe3 == 0x1e and fm3 == 0x0a6 and fcsr == 0x22
      and rm_val == 7  and rs1_nan_prefix == 0xffff and rs2_nan_prefix == 0xffff and
      rs3_nan_prefix == 0xffff  #nosat'
    : 1
    ? 'fs1 == 0 and fe1 == 0x1e and fm1 == 0x335 and fs2 == 1 and fe2 == 0x0e and
      fm2 == 0x129 and fs3 == 0 and fe3 == 0x1e and fm3 == 0x0a6 and fcsr == 0x42
      and rm_val == 7  and rs1_nan_prefix == 0xffff and rs2_nan_prefix == 0xffff and
      rs3_nan_prefix == 0xffff  #nosat'
    : 1
    ? 'fs1 == 0 and fe1 == 0x1e and fm1 == 0x335 and fs2 == 1 and fe2 == 0x0e and
      fm2 == 0x129 and fs3 == 0 and fe3 == 0x1e and fm3 == 0x0a6 and fcsr == 0x62
      and rm_val == 7  and rs1_nan_prefix == 0xffff and rs2_nan_prefix == 0xffff and
      rs3_nan_prefix == 0xffff  #nosat'
    : 1
    ? 'fs1 == 0 and fe1 == 0x1e and fm1 == 0x335 and fs2 == 1 and fe2 == 0x0e and
      fm2 == 0x129 and fs3 == 0 and fe3 == 0x1e and fm3 == 0x0a6 and fcsr == 0x82
      and rm_val == 7  and rs1_nan_prefix == 0xffff and rs2_nan_prefix == 0xffff and
      rs3_nan_prefix == 0xffff  #nosat'
    : 1
    ? 'fs1 == 0 and fe1 == 0x1c and fm1 == 0x08b and fs2 == 1 and fe2 == 0x0d and
      fm2 == 0x33f and fs3 == 0 and fe3 == 0x1b and fm3 == 0x01e and fcsr == 0x2 and
      rm_val == 7  and rs1_nan_prefix == 0xffff and rs2_nan_prefix == 0xffff and rs3_nan_prefix
      == 0xffff  #nosat'
    : 1
    ? 'fs1 == 0 and fe1 == 0x1c and fm1 == 0x08b and fs2 == 1 and fe2 == 0x0d and
      fm2 == 0x33f and fs3 == 0 and fe3 == 0x1b and fm3 == 0x01e and fcsr == 0x22
      and rm_val == 7  and rs1_nan_prefix == 0xffff and rs2_nan_prefix == 0xffff and
      rs3_nan_prefix == 0xffff  #nosat'
    : 1
    ? 'fs1 == 0 and fe1 == 0x1c and fm1 == 0x08b and fs2 == 1 and fe2 == 0x0d and
      fm2 == 0x33f and fs3 == 0 and fe3 == 0x1b and fm3 == 0x01e and fcsr == 0x42
      and rm_val == 7  and rs1_nan_prefix == 0xffff and rs2_nan_prefix == 0xffff and
      rs3_nan_prefix == 0xffff  #nosat'
    : 1
    ? 'fs1 == 0 and fe1 == 0x1c and fm1 == 0x08b and fs2 == 1 and fe2 == 0x0d and
      fm2 == 0x33f and fs3 == 0 and fe3 == 0x1b and fm3 == 0x01e and fcsr == 0x62
      and rm_val == 7  and rs1_nan_prefix == 0xffff and rs2_nan_prefix == 0xffff and
      rs3_nan_prefix == 0xffff  #nosat'
    : 1
    ? 'fs1 == 0 and fe1 == 0x1c and fm1 == 0x08b and fs2 == 1 and fe2 == 0x0d and
      fm2 == 0x33f and fs3 == 0 and fe3 == 0x1b and fm3 == 0x01e and fcsr == 0x82
      and rm_val == 7  and rs1_nan_prefix == 0xffff and rs2_nan_prefix == 0xffff and
      rs3_nan_prefix == 0xffff  #nosat'
    : 1
    ? 'fs1 == 0 and fe1 == 0x1e and fm1 == 0x390 and fs2 == 1 and fe2 == 0x0e and
      fm2 == 0x021 and fs3 == 0 and fe3 == 0x1d and fm3 == 0x3d0 and fcsr == 0x2 and
      rm_val == 7  and rs1_nan_prefix == 0xffff and rs2_nan_prefix == 0xffff and rs3_nan_prefix
      == 0xffff  #nosat'
    : 1
    ? 'fs1 == 0 and fe1 == 0x1e and fm1 == 0x390 and fs2 == 1 and fe2 == 0x0e and
      fm2 == 0x021 and fs3 == 0 and fe3 == 0x1d and fm3 == 0x3d0 and fcsr == 0x22
      and rm_val == 7  and rs1_nan_prefix == 0xffff and rs2_nan_prefix == 0xffff and
      rs3_nan_prefix == 0xffff  #nosat'
    : 1
    ? 'fs1 == 0 and fe1 == 0x1e and fm1 == 0x390 and fs2 == 1 and fe2 == 0x0e and
      fm2 == 0x021 and fs3 == 0 and fe3 == 0x1d and fm3 == 0x3d0 and fcsr == 0x42
      and rm_val == 7  and rs1_nan_prefix == 0xffff and rs2_nan_prefix == 0xffff and
      rs3_nan_prefix == 0xffff  #nosat'
    : 1
    ? 'fs1 == 0 and fe1 == 0x1e and fm1 == 0x390 and fs2 == 1 and fe2 == 0x0e and
      fm2 == 0x021 and fs3 == 0 and fe3 == 0x1d and fm3 == 0x3d0 and fcsr == 0x62
      and rm_val == 7  and rs1_nan_prefix == 0xffff and rs2_nan_prefix == 0xffff and
      rs3_nan_prefix == 0xffff  #nosat'
    : 1
    ? 'fs1 == 0 and fe1 == 0x1e and fm1 == 0x390 and fs2 == 1 and fe2 == 0x0e and
      fm2 == 0x021 and fs3 == 0 and fe3 == 0x1d and fm3 == 0x3d0 and fcsr == 0x82
      and rm_val == 7  and rs1_nan_prefix == 0xffff and rs2_nan_prefix == 0xffff and
      rs3_nan_prefix == 0xffff  #nosat'
    : 1
    ? 'fs1 == 0 and fe1 == 0x1c and fm1 == 0x233 and fs2 == 1 and fe2 == 0x11 and
      fm2 == 0x0e1 and fs3 == 0 and fe3 == 0x1e and fm3 == 0x390 and fcsr == 0x2 and
      rm_val == 7  and rs1_nan_prefix == 0xffff and rs2_nan_prefix == 0xffff and rs3_nan_prefix
      == 0xffff  #nosat'
    : 1
    ? 'fs1 == 0 and fe1 == 0x1c and fm1 == 0x233 and fs2 == 1 and fe2 == 0x11 and
      fm2 == 0x0e1 and fs3 == 0 and fe3 == 0x1e and fm3 == 0x390 and fcsr == 0x22
      and rm_val == 7  and rs1_nan_prefix == 0xffff and rs2_nan_prefix == 0xffff and
      rs3_nan_prefix == 0xffff  #nosat'
    : 1
    ? 'fs1 == 0 and fe1 == 0x1c and fm1 == 0x233 and fs2 == 1 and fe2 == 0x11 and
      fm2 == 0x0e1 and fs3 == 0 and fe3 == 0x1e and fm3 == 0x390 and fcsr == 0x42
      and rm_val == 7  and rs1_nan_prefix == 0xffff and rs2_nan_prefix == 0xffff and
      rs3_nan_prefix == 0xffff  #nosat'
    : 1
    ? 'fs1 == 0 and fe1 == 0x1c and fm1 == 0x233 and fs2 == 1 and fe2 == 0x11 and
      fm2 == 0x0e1 and fs3 == 0 and fe3 == 0x1e and fm3 == 0x390 and fcsr == 0x62
      and rm_val == 7  and rs1_nan_prefix == 0xffff and rs2_nan_prefix == 0xffff and
      rs3_nan_prefix == 0xffff  #nosat'
    : 1
    ? 'fs1 == 0 and fe1 == 0x1c and fm1 == 0x233 and fs2 == 1 and fe2 == 0x11 and
      fm2 == 0x0e1 and fs3 == 0 and fe3 == 0x1e and fm3 == 0x390 and fcsr == 0x82
      and rm_val == 7  and rs1_nan_prefix == 0xffff and rs2_nan_prefix == 0xffff and
      rs3_nan_prefix == 0xffff  #nosat'
    : 1
    ? 'fs1 == 0 and fe1 == 0x1e and fm1 == 0x0a1 and fs2 == 1 and fe2 == 0x0f and
      fm2 == 0x109 and fs3 == 0 and fe3 == 0x1e and fm3 == 0x1d4 and fcsr == 0x2 and
      rm_val == 7  and rs1_nan_prefix == 0xffff and rs2_nan_prefix == 0xffff and rs3_nan_prefix
      == 0xffff  #nosat'
    : 1
    ? 'fs1 == 0 and fe1 == 0x1e and fm1 == 0x0a1 and fs2 == 1 and fe2 == 0x0f and
      fm2 == 0x109 and fs3 == 0 and fe3 == 0x1e and fm3 == 0x1d4 and fcsr == 0x22
      and rm_val == 7  and rs1_nan_prefix == 0xffff and rs2_nan_prefix == 0xffff and
      rs3_nan_prefix == 0xffff  #nosat'
    : 1
    ? 'fs1 == 0 and fe1 == 0x1e and fm1 == 0x0a1 and fs2 == 1 and fe2 == 0x0f and
      fm2 == 0x109 and fs3 == 0 and fe3 == 0x1e and fm3 == 0x1d4 and fcsr == 0x42
      and rm_val == 7  and rs1_nan_prefix == 0xffff and rs2_nan_prefix == 0xffff and
      rs3_nan_prefix == 0xffff  #nosat'
    : 1
    ? 'fs1 == 0 and fe1 == 0x1e and fm1 == 0x0a1 and fs2 == 1 and fe2 == 0x0f and
      fm2 == 0x109 and fs3 == 0 and fe3 == 0x1e and fm3 == 0x1d4 and fcsr == 0x62
      and rm_val == 7  and rs1_nan_prefix == 0xffff and rs2_nan_prefix == 0xffff and
      rs3_nan_prefix == 0xffff  #nosat'
    : 1
    ? 'fs1 == 0 and fe1 == 0x1e and fm1 == 0x0a1 and fs2 == 1 and fe2 == 0x0f and
      fm2 == 0x109 and fs3 == 0 and fe3 == 0x1e and fm3 == 0x1d4 and fcsr == 0x82
      and rm_val == 7  and rs1_nan_prefix == 0xffff and rs2_nan_prefix == 0xffff and
      rs3_nan_prefix == 0xffff  #nosat'
    : 1
    ? 'fs1 == 0 and fe1 == 0x1e and fm1 == 0x30b and fs2 == 1 and fe2 == 0x0d and
      fm2 == 0x130 and fs3 == 0 and fe3 == 0x1d and fm3 == 0x091 and fcsr == 0x2 and
      rm_val == 7  and rs1_nan_prefix == 0xffff and rs2_nan_prefix == 0xffff and rs3_nan_prefix
      == 0xffff  #nosat'
    : 1
    ? 'fs1 == 0 and fe1 == 0x1e and fm1 == 0x30b and fs2 == 1 and fe2 == 0x0d and
      fm2 == 0x130 and fs3 == 0 and fe3 == 0x1d and fm3 == 0x091 and fcsr == 0x22
      and rm_val == 7  and rs1_nan_prefix == 0xffff and rs2_nan_prefix == 0xffff and
      rs3_nan_prefix == 0xffff  #nosat'
    : 1
    ? 'fs1 == 0 and fe1 == 0x1e and fm1 == 0x30b and fs2 == 1 and fe2 == 0x0d and
      fm2 == 0x130 and fs3 == 0 and fe3 == 0x1d and fm3 == 0x091 and fcsr == 0x42
      and rm_val == 7  and rs1_nan_prefix == 0xffff and rs2_nan_prefix == 0xffff and
      rs3_nan_prefix == 0xffff  #nosat'
    : 1
    ? 'fs1 == 0 and fe1 == 0x1e and fm1 == 0x30b and fs2 == 1 and fe2 == 0x0d and
      fm2 == 0x130 and fs3 == 0 and fe3 == 0x1d and fm3 == 0x091 and fcsr == 0x62
      and rm_val == 7  and rs1_nan_prefix == 0xffff and rs2_nan_prefix == 0xffff and
      rs3_nan_prefix == 0xffff  #nosat'
    : 1
    ? 'fs1 == 0 and fe1 == 0x1e and fm1 == 0x30b and fs2 == 1 and fe2 == 0x0d and
      fm2 == 0x130 and fs3 == 0 and fe3 == 0x1d and fm3 == 0x091 and fcsr == 0x82
      and rm_val == 7  and rs1_nan_prefix == 0xffff and rs2_nan_prefix == 0xffff and
      rs3_nan_prefix == 0xffff  #nosat'
    : 1
    ? 'fs1 == 0 and fe1 == 0x1d and fm1 == 0x1b4 and fs2 == 1 and fe2 == 0x10 and
      fm2 == 0x0ec and fs3 == 0 and fe3 == 0x1e and fm3 == 0x305 and fcsr == 0x2 and
      rm_val == 7  and rs1_nan_prefix == 0xffff and rs2_nan_prefix == 0xffff and rs3_nan_prefix
      == 0xffff  #nosat'
    : 1
    ? 'fs1 == 0 and fe1 == 0x1d and fm1 == 0x1b4 and fs2 == 1 and fe2 == 0x10 and
      fm2 == 0x0ec and fs3 == 0 and fe3 == 0x1e and fm3 == 0x305 and fcsr == 0x22
      and rm_val == 7  and rs1_nan_prefix == 0xffff and rs2_nan_prefix == 0xffff and
      rs3_nan_prefix == 0xffff  #nosat'
    : 1
    ? 'fs1 == 0 and fe1 == 0x1d and fm1 == 0x1b4 and fs2 == 1 and fe2 == 0x10 and
      fm2 == 0x0ec and fs3 == 0 and fe3 == 0x1e and fm3 == 0x305 and fcsr == 0x42
      and rm_val == 7  and rs1_nan_prefix == 0xffff and rs2_nan_prefix == 0xffff and
      rs3_nan_prefix == 0xffff  #nosat'
    : 1
    ? 'fs1 == 0 and fe1 == 0x1d and fm1 == 0x1b4 and fs2 == 1 and fe2 == 0x10 and
      fm2 == 0x0ec and fs3 == 0 and fe3 == 0x1e and fm3 == 0x305 and fcsr == 0x62
      and rm_val == 7  and rs1_nan_prefix == 0xffff and rs2_nan_prefix == 0xffff and
      rs3_nan_prefix == 0xffff  #nosat'
    : 1
    ? 'fs1 == 0 and fe1 == 0x1d and fm1 == 0x1b4 and fs2 == 1 and fe2 == 0x10 and
      fm2 == 0x0ec and fs3 == 0 and fe3 == 0x1e and fm3 == 0x305 and fcsr == 0x82
      and rm_val == 7  and rs1_nan_prefix == 0xffff and rs2_nan_prefix == 0xffff and
      rs3_nan_prefix == 0xffff  #nosat'
    : 1
    ? 'fs1 == 0 and fe1 == 0x1c and fm1 == 0x051 and fs2 == 1 and fe2 == 0x11 and
      fm2 == 0x1a9 and fs3 == 0 and fe3 == 0x1e and fm3 == 0x21c and fcsr == 0x2 and
      rm_val == 7  and rs1_nan_prefix == 0xffff and rs2_nan_prefix == 0xffff and rs3_nan_prefix
      == 0xffff  #nosat'
    : 1
    ? 'fs1 == 0 and fe1 == 0x1c and fm1 == 0x051 and fs2 == 1 and fe2 == 0x11 and
      fm2 == 0x1a9 and fs3 == 0 and fe3 == 0x1e and fm3 == 0x21c and fcsr == 0x22
      and rm_val == 7  and rs1_nan_prefix == 0xffff and rs2_nan_prefix == 0xffff and
      rs3_nan_prefix == 0xffff  #nosat'
    : 1
    ? 'fs1 == 0 and fe1 == 0x1c and fm1 == 0x051 and fs2 == 1 and fe2 == 0x11 and
      fm2 == 0x1a9 and fs3 == 0 and fe3 == 0x1e and fm3 == 0x21c and fcsr == 0x42
      and rm_val == 7  and rs1_nan_prefix == 0xffff and rs2_nan_prefix == 0xffff and
      rs3_nan_prefix == 0xffff  #nosat'
    : 1
    ? 'fs1 == 0 and fe1 == 0x1c and fm1 == 0x051 and fs2 == 1 and fe2 == 0x11 and
      fm2 == 0x1a9 and fs3 == 0 and fe3 == 0x1e and fm3 == 0x21c and fcsr == 0x62
      and rm_val == 7  and rs1_nan_prefix == 0xffff and rs2_nan_prefix == 0xffff and
      rs3_nan_prefix == 0xffff  #nosat'
    : 1
    ? 'fs1 == 0 and fe1 == 0x1c and fm1 == 0x051 and fs2 == 1 and fe2 == 0x11 and
      fm2 == 0x1a9 and fs3 == 0 and fe3 == 0x1e and fm3 == 0x21c and fcsr == 0x82
      and rm_val == 7  and rs1_nan_prefix == 0xffff and rs2_nan_prefix == 0xffff and
      rs3_nan_prefix == 0xffff  #nosat'
    : 1
    ? 'fs1 == 0 and fe1 == 0x1b and fm1 == 0x23e and fs2 == 1 and fe2 == 0x11 and
      fm2 == 0x311 and fs3 == 0 and fe3 == 0x1e and fm3 == 0x184 and fcsr == 0x2 and
      rm_val == 7  and rs1_nan_prefix == 0xffff and rs2_nan_prefix == 0xffff and rs3_nan_prefix
      == 0xffff  #nosat'
    : 1
    ? 'fs1 == 0 and fe1 == 0x1b and fm1 == 0x23e and fs2 == 1 and fe2 == 0x11 and
      fm2 == 0x311 and fs3 == 0 and fe3 == 0x1e and fm3 == 0x184 and fcsr == 0x22
      and rm_val == 7  and rs1_nan_prefix == 0xffff and rs2_nan_prefix == 0xffff and
      rs3_nan_prefix == 0xffff  #nosat'
    : 1
    ? 'fs1 == 0 and fe1 == 0x1b and fm1 == 0x23e and fs2 == 1 and fe2 == 0x11 and
      fm2 == 0x311 and fs3 == 0 and fe3 == 0x1e and fm3 == 0x184 and fcsr == 0x42
      and rm_val == 7  and rs1_nan_prefix == 0xffff and rs2_nan_prefix == 0xffff and
      rs3_nan_prefix == 0xffff  #nosat'
    : 1
    ? 'fs1 == 0 and fe1 == 0x1b and fm1 == 0x23e and fs2 == 1 and fe2 == 0x11 and
      fm2 == 0x311 and fs3 == 0 and fe3 == 0x1e and fm3 == 0x184 and fcsr == 0x62
      and rm_val == 7  and rs1_nan_prefix == 0xffff and rs2_nan_prefix == 0xffff and
      rs3_nan_prefix == 0xffff  #nosat'
    : 1
    ? 'fs1 == 0 and fe1 == 0x1b and fm1 == 0x23e and fs2 == 1 and fe2 == 0x11 and
      fm2 == 0x311 and fs3 == 0 and fe3 == 0x1e and fm3 == 0x184 and fcsr == 0x82
      and rm_val == 7  and rs1_nan_prefix == 0xffff and rs2_nan_prefix == 0xffff and
      rs3_nan_prefix == 0xffff  #nosat'
    : 1
    ? 'fs1 == 0 and fe1 == 0x1e and fm1 == 0x19d and fs2 == 1 and fe2 == 0x0f and
      fm2 == 0x169 and fs3 == 0 and fe3 == 0x1e and fm3 == 0x398 and fcsr == 0x2 and
      rm_val == 7  and rs1_nan_prefix == 0xffff and rs2_nan_prefix == 0xffff and rs3_nan_prefix
      == 0xffff  #nosat'
    : 1
    ? 'fs1 == 0 and fe1 == 0x1e and fm1 == 0x19d and fs2 == 1 and fe2 == 0x0f and
      fm2 == 0x169 and fs3 == 0 and fe3 == 0x1e and fm3 == 0x398 and fcsr == 0x22
      and rm_val == 7  and rs1_nan_prefix == 0xffff and rs2_nan_prefix == 0xffff and
      rs3_nan_prefix == 0xffff  #nosat'
    : 1
    ? 'fs1 == 0 and fe1 == 0x1e and fm1 == 0x19d and fs2 == 1 and fe2 == 0x0f and
      fm2 == 0x169 and fs3 == 0 and fe3 == 0x1e and fm3 == 0x398 and fcsr == 0x42
      and rm_val == 7  and rs1_nan_prefix == 0xffff and rs2_nan_prefix == 0xffff and
      rs3_nan_prefix == 0xffff  #nosat'
    : 1
    ? 'fs1 == 0 and fe1 == 0x1e and fm1 == 0x19d and fs2 == 1 and fe2 == 0x0f and
      fm2 == 0x169 and fs3 == 0 and fe3 == 0x1e and fm3 == 0x398 and fcsr == 0x62
      and rm_val == 7  and rs1_nan_prefix == 0xffff and rs2_nan_prefix == 0xffff and
      rs3_nan_prefix == 0xffff  #nosat'
    : 1
    ? 'fs1 == 0 and fe1 == 0x1e and fm1 == 0x19d and fs2 == 1 and fe2 == 0x0f and
      fm2 == 0x169 and fs3 == 0 and fe3 == 0x1e and fm3 == 0x398 and fcsr == 0x82
      and rm_val == 7  and rs1_nan_prefix == 0xffff and rs2_nan_prefix == 0xffff and
      rs3_nan_prefix == 0xffff  #nosat'
    : 1
    ? 'fs1 == 0 and fe1 == 0x1e and fm1 == 0x2be and fs2 == 1 and fe2 == 0x0e and
      fm2 == 0x0c6 and fs3 == 0 and fe3 == 0x1e and fm3 == 0x006 and fcsr == 0x2 and
      rm_val == 7  and rs1_nan_prefix == 0xffff and rs2_nan_prefix == 0xffff and rs3_nan_prefix
      == 0xffff  #nosat'
    : 1
    ? 'fs1 == 0 and fe1 == 0x1e and fm1 == 0x2be and fs2 == 1 and fe2 == 0x0e and
      fm2 == 0x0c6 and fs3 == 0 and fe3 == 0x1e and fm3 == 0x006 and fcsr == 0x22
      and rm_val == 7  and rs1_nan_prefix == 0xffff and rs2_nan_prefix == 0xffff and
      rs3_nan_prefix == 0xffff  #nosat'
    : 1
    ? 'fs1 == 0 and fe1 == 0x1e and fm1 == 0x2be and fs2 == 1 and fe2 == 0x0e and
      fm2 == 0x0c6 and fs3 == 0 and fe3 == 0x1e and fm3 == 0x006 and fcsr == 0x42
      and rm_val == 7  and rs1_nan_prefix == 0xffff and rs2_nan_prefix == 0xffff and
      rs3_nan_prefix == 0xffff  #nosat'
    : 1
    ? 'fs1 == 0 and fe1 == 0x1e and fm1 == 0x2be and fs2 == 1 and fe2 == 0x0e and
      fm2 == 0x0c6 and fs3 == 0 and fe3 == 0x1e and fm3 == 0x006 and fcsr == 0x62
      and rm_val == 7  and rs1_nan_prefix == 0xffff and rs2_nan_prefix == 0xffff and
      rs3_nan_prefix == 0xffff  #nosat'
    : 1
    ? 'fs1 == 0 and fe1 == 0x1e and fm1 == 0x2be and fs2 == 1 and fe2 == 0x0e and
      fm2 == 0x0c6 and fs3 == 0 and fe3 == 0x1e and fm3 == 0x006 and fcsr == 0x82
      and rm_val == 7  and rs1_nan_prefix == 0xffff and rs2_nan_prefix == 0xffff and
      rs3_nan_prefix == 0xffff  #nosat'
    : 1
    ? 'fs1 == 0 and fe1 == 0x1c and fm1 == 0x252 and fs2 == 1 and fe2 == 0x0e and
      fm2 == 0x213 and fs3 == 0 and fe3 == 0x1c and fm3 == 0x0cd and fcsr == 0x2 and
      rm_val == 7  and rs1_nan_prefix == 0xffff and rs2_nan_prefix == 0xffff and rs3_nan_prefix
      == 0xffff  #nosat'
    : 1
    ? 'fs1 == 0 and fe1 == 0x1c and fm1 == 0x252 and fs2 == 1 and fe2 == 0x0e and
      fm2 == 0x213 and fs3 == 0 and fe3 == 0x1c and fm3 == 0x0cd and fcsr == 0x22
      and rm_val == 7  and rs1_nan_prefix == 0xffff and rs2_nan_prefix == 0xffff and
      rs3_nan_prefix == 0xffff  #nosat'
    : 1
    ? 'fs1 == 0 and fe1 == 0x1c and fm1 == 0x252 and fs2 == 1 and fe2 == 0x0e and
      fm2 == 0x213 and fs3 == 0 and fe3 == 0x1c and fm3 == 0x0cd and fcsr == 0x42
      and rm_val == 7  and rs1_nan_prefix == 0xffff and rs2_nan_prefix == 0xffff and
      rs3_nan_prefix == 0xffff  #nosat'
    : 1
    ? 'fs1 == 0 and fe1 == 0x1c and fm1 == 0x252 and fs2 == 1 and fe2 == 0x0e and
      fm2 == 0x213 and fs3 == 0 and fe3 == 0x1c and fm3 == 0x0cd and fcsr == 0x62
      and rm_val == 7  and rs1_nan_prefix == 0xffff and rs2_nan_prefix == 0xffff and
      rs3_nan_prefix == 0xffff  #nosat'
    : 1
    ? 'fs1 == 0 and fe1 == 0x1c and fm1 == 0x252 and fs2 == 1 and fe2 == 0x0e and
      fm2 == 0x213 and fs3 == 0 and fe3 == 0x1c and fm3 == 0x0cd and fcsr == 0x82
      and rm_val == 7  and rs1_nan_prefix == 0xffff and rs2_nan_prefix == 0xffff and
      rs3_nan_prefix == 0xffff  #nosat'
    : 1
    ? 'fs1 == 0 and fe1 == 0x1e and fm1 == 0x03a and fs2 == 1 and fe2 == 0x0e and
      fm2 == 0x3b6 and fs3 == 0 and fe3 == 0x1e and fm3 == 0x013 and fcsr == 0x2 and
      rm_val == 7  and rs1_nan_prefix == 0xffff and rs2_nan_prefix == 0xffff and rs3_nan_prefix
      == 0xffff  #nosat'
    : 1
    ? 'fs1 == 0 and fe1 == 0x1e and fm1 == 0x03a and fs2 == 1 and fe2 == 0x0e and
      fm2 == 0x3b6 and fs3 == 0 and fe3 == 0x1e and fm3 == 0x013 and fcsr == 0x22
      and rm_val == 7  and rs1_nan_prefix == 0xffff and rs2_nan_prefix == 0xffff and
      rs3_nan_prefix == 0xffff  #nosat'
    : 1
    ? 'fs1 == 0 and fe1 == 0x1e and fm1 == 0x03a and fs2 == 1 and fe2 == 0x0e and
      fm2 == 0x3b6 and fs3 == 0 and fe3 == 0x1e and fm3 == 0x013 and fcsr == 0x42
      and rm_val == 7  and rs1_nan_prefix == 0xffff and rs2_nan_prefix == 0xffff and
      rs3_nan_prefix == 0xffff  #nosat'
    : 1
    ? 'fs1 == 0 and fe1 == 0x1e and fm1 == 0x03a and fs2 == 1 and fe2 == 0x0e and
      fm2 == 0x3b6 and fs3 == 0 and fe3 == 0x1e and fm3 == 0x013 and fcsr == 0x62
      and rm_val == 7  and rs1_nan_prefix == 0xffff and rs2_nan_prefix == 0xffff and
      rs3_nan_prefix == 0xffff  #nosat'
    : 1
    ? 'fs1 == 0 and fe1 == 0x1e and fm1 == 0x03a and fs2 == 1 and fe2 == 0x0e and
      fm2 == 0x3b6 and fs3 == 0 and fe3 == 0x1e and fm3 == 0x013 and fcsr == 0x82
      and rm_val == 7  and rs1_nan_prefix == 0xffff and rs2_nan_prefix == 0xffff and
      rs3_nan_prefix == 0xffff  #nosat'
    : 1
    ? 'fs1 == 0 and fe1 == 0x1b and fm1 == 0x091 and fs2 == 1 and fe2 == 0x12 and
      fm2 == 0x252 and fs3 == 0 and fe3 == 0x1e and fm3 == 0x338 and fcsr == 0x2 and
      rm_val == 7  and rs1_nan_prefix == 0xffff and rs2_nan_prefix == 0xffff and rs3_nan_prefix
      == 0xffff  #nosat'
    : 1
    ? 'fs1 == 0 and fe1 == 0x1b and fm1 == 0x091 and fs2 == 1 and fe2 == 0x12 and
      fm2 == 0x252 and fs3 == 0 and fe3 == 0x1e and fm3 == 0x338 and fcsr == 0x22
      and rm_val == 7  and rs1_nan_prefix == 0xffff and rs2_nan_prefix == 0xffff and
      rs3_nan_prefix == 0xffff  #nosat'
    : 1
    ? 'fs1 == 0 and fe1 == 0x1b and fm1 == 0x091 and fs2 == 1 and fe2 == 0x12 and
      fm2 == 0x252 and fs3 == 0 and fe3 == 0x1e and fm3 == 0x338 and fcsr == 0x42
      and rm_val == 7  and rs1_nan_prefix == 0xffff and rs2_nan_prefix == 0xffff and
      rs3_nan_prefix == 0xffff  #nosat'
    : 1
    ? 'fs1 == 0 and fe1 == 0x1b and fm1 == 0x091 and fs2 == 1 and fe2 == 0x12 and
      fm2 == 0x252 and fs3 == 0 and fe3 == 0x1e and fm3 == 0x338 and fcsr == 0x62
      and rm_val == 7  and rs1_nan_prefix == 0xffff and rs2_nan_prefix == 0xffff and
      rs3_nan_prefix == 0xffff  #nosat'
    : 1
    ? 'fs1 == 0 and fe1 == 0x1b and fm1 == 0x091 and fs2 == 1 and fe2 == 0x12 and
      fm2 == 0x252 and fs3 == 0 and fe3 == 0x1e and fm3 == 0x338 and fcsr == 0x82
      and rm_val == 7  and rs1_nan_prefix == 0xffff and rs2_nan_prefix == 0xffff and
      rs3_nan_prefix == 0xffff  #nosat'
    : 1
    ? 'fs1 == 0 and fe1 == 0x1e and fm1 == 0x00e and fs2 == 1 and fe2 == 0x0f and
      fm2 == 0x187 and fs3 == 0 and fe3 == 0x1e and fm3 == 0x19b and fcsr == 0x2 and
      rm_val == 7  and rs1_nan_prefix == 0xffff and rs2_nan_prefix == 0xffff and rs3_nan_prefix
      == 0xffff  #nosat'
    : 1
    ? 'fs1 == 0 and fe1 == 0x1e and fm1 == 0x00e and fs2 == 1 and fe2 == 0x0f and
      fm2 == 0x187 and fs3 == 0 and fe3 == 0x1e and fm3 == 0x19b and fcsr == 0x22
      and rm_val == 7  and rs1_nan_prefix == 0xffff and rs2_nan_prefix == 0xffff and
      rs3_nan_prefix == 0xffff  #nosat'
    : 1
    ? 'fs1 == 0 and fe1 == 0x1e and fm1 == 0x00e and fs2 == 1 and fe2 == 0x0f and
      fm2 == 0x187 and fs3 == 0 and fe3 == 0x1e and fm3 == 0x19b and fcsr == 0x42
      and rm_val == 7  and rs1_nan_prefix == 0xffff and rs2_nan_prefix == 0xffff and
      rs3_nan_prefix == 0xffff  #nosat'
    : 1
    ? 'fs1 == 0 and fe1 == 0x1e and fm1 == 0x00e and fs2 == 1 and fe2 == 0x0f and
      fm2 == 0x187 and fs3 == 0 and fe3 == 0x1e and fm3 == 0x19b and fcsr == 0x62
      and rm_val == 7  and rs1_nan_prefix == 0xffff and rs2_nan_prefix == 0xffff and
      rs3_nan_prefix == 0xffff  #nosat'
    : 1
    ? 'fs1 == 0 and fe1 == 0x1e and fm1 == 0x00e and fs2 == 1 and fe2 == 0x0f and
      fm2 == 0x187 and fs3 == 0 and fe3 == 0x1e and fm3 == 0x19b and fcsr == 0x82
      and rm_val == 7  and rs1_nan_prefix == 0xffff and rs2_nan_prefix == 0xffff and
      rs3_nan_prefix == 0xffff  #nosat'
    : 1
    ? 'fs1 == 0 and fe1 == 0x1c and fm1 == 0x309 and fs2 == 1 and fe2 == 0x0f and
      fm2 == 0x06f and fs3 == 0 and fe3 == 0x1c and fm3 == 0x3cd and fcsr == 0x2 and
      rm_val == 7  and rs1_nan_prefix == 0xffff and rs2_nan_prefix == 0xffff and rs3_nan_prefix
      == 0xffff  #nosat'
    : 1
    ? 'fs1 == 0 and fe1 == 0x1c and fm1 == 0x309 and fs2 == 1 and fe2 == 0x0f and
      fm2 == 0x06f and fs3 == 0 and fe3 == 0x1c and fm3 == 0x3cd and fcsr == 0x22
      and rm_val == 7  and rs1_nan_prefix == 0xffff and rs2_nan_prefix == 0xffff and
      rs3_nan_prefix == 0xffff  #nosat'
    : 1
    ? 'fs1 == 0 and fe1 == 0x1c and fm1 == 0x309 and fs2 == 1 and fe2 == 0x0f and
      fm2 == 0x06f and fs3 == 0 and fe3 == 0x1c and fm3 == 0x3cd and fcsr == 0x42
      and rm_val == 7  and rs1_nan_prefix == 0xffff and rs2_nan_prefix == 0xffff and
      rs3_nan_prefix == 0xffff  #nosat'
    : 1
    ? 'fs1 == 0 and fe1 == 0x1c and fm1 == 0x309 and fs2 == 1 and fe2 == 0x0f and
      fm2 == 0x06f and fs3 == 0 and fe3 == 0x1c and fm3 == 0x3cd and fcsr == 0x62
      and rm_val == 7  and rs1_nan_prefix == 0xffff and rs2_nan_prefix == 0xffff and
      rs3_nan_prefix == 0xffff  #nosat'
    : 1
    ? 'fs1 == 0 and fe1 == 0x1c and fm1 == 0x309 and fs2 == 1 and fe2 == 0x0f and
      fm2 == 0x06f and fs3 == 0 and fe3 == 0x1c and fm3 == 0x3cd and fcsr == 0x82
      and rm_val == 7  and rs1_nan_prefix == 0xffff and rs2_nan_prefix == 0xffff and
      rs3_nan_prefix == 0xffff  #nosat'
    : 1
    ? 'fs1 == 0 and fe1 == 0x18 and fm1 == 0x21b and fs2 == 1 and fe2 == 0x13 and
      fm2 == 0x331 and fs3 == 0 and fe3 == 0x1d and fm3 == 0x17d and fcsr == 0x2 and
      rm_val == 7  and rs1_nan_prefix == 0xffff and rs2_nan_prefix == 0xffff and rs3_nan_prefix
      == 0xffff  #nosat'
    : 1
    ? 'fs1 == 0 and fe1 == 0x18 and fm1 == 0x21b and fs2 == 1 and fe2 == 0x13 and
      fm2 == 0x331 and fs3 == 0 and fe3 == 0x1d and fm3 == 0x17d and fcsr == 0x22
      and rm_val == 7  and rs1_nan_prefix == 0xffff and rs2_nan_prefix == 0xffff and
      rs3_nan_prefix == 0xffff  #nosat'
    : 1
    ? 'fs1 == 0 and fe1 == 0x18 and fm1 == 0x21b and fs2 == 1 and fe2 == 0x13 and
      fm2 == 0x331 and fs3 == 0 and fe3 == 0x1d and fm3 == 0x17d and fcsr == 0x42
      and rm_val == 7  and rs1_nan_prefix == 0xffff and rs2_nan_prefix == 0xffff and
      rs3_nan_prefix == 0xffff  #nosat'
    : 1
    ? 'fs1 == 0 and fe1 == 0x18 and fm1 == 0x21b and fs2 == 1 and fe2 == 0x13 and
      fm2 == 0x331 and fs3 == 0 and fe3 == 0x1d and fm3 == 0x17d and fcsr == 0x62
      and rm_val == 7  and rs1_nan_prefix == 0xffff and rs2_nan_prefix == 0xffff and
      rs3_nan_prefix == 0xffff  #nosat'
    : 1
    ? 'fs1 == 0 and fe1 == 0x18 and fm1 == 0x21b and fs2 == 1 and fe2 == 0x13 and
      fm2 == 0x331 and fs3 == 0 and fe3 == 0x1d and fm3 == 0x17d and fcsr == 0x82
      and rm_val == 7  and rs1_nan_prefix == 0xffff and rs2_nan_prefix == 0xffff and
      rs3_nan_prefix == 0xffff  #nosat'
    : 1
    ? 'fs1 == 0 and fe1 == 0x1d and fm1 == 0x044 and fs2 == 1 and fe2 == 0x0f and
      fm2 == 0x258 and fs3 == 0 and fe3 == 0x1d and fm3 == 0x2c5 and fcsr == 0x2 and
      rm_val == 7  and rs1_nan_prefix == 0xffff and rs2_nan_prefix == 0xffff and rs3_nan_prefix
      == 0xffff  #nosat'
    : 1
    ? 'fs1 == 0 and fe1 == 0x1d and fm1 == 0x044 and fs2 == 1 and fe2 == 0x0f and
      fm2 == 0x258 and fs3 == 0 and fe3 == 0x1d and fm3 == 0x2c5 and fcsr == 0x22
      and rm_val == 7  and rs1_nan_prefix == 0xffff and rs2_nan_prefix == 0xffff and
      rs3_nan_prefix == 0xffff  #nosat'
    : 1
    ? 'fs1 == 0 and fe1 == 0x1d and fm1 == 0x044 and fs2 == 1 and fe2 == 0x0f and
      fm2 == 0x258 and fs3 == 0 and fe3 == 0x1d and fm3 == 0x2c5 and fcsr == 0x42
      and rm_val == 7  and rs1_nan_prefix == 0xffff and rs2_nan_prefix == 0xffff and
      rs3_nan_prefix == 0xffff  #nosat'
    : 1
    ? 'fs1 == 0 and fe1 == 0x1d and fm1 == 0x044 and fs2 == 1 and fe2 == 0x0f and
      fm2 == 0x258 and fs3 == 0 and fe3 == 0x1d and fm3 == 0x2c5 and fcsr == 0x62
      and rm_val == 7  and rs1_nan_prefix == 0xffff and rs2_nan_prefix == 0xffff and
      rs3_nan_prefix == 0xffff  #nosat'
    : 1
    ? 'fs1 == 0 and fe1 == 0x1d and fm1 == 0x044 and fs2 == 1 and fe2 == 0x0f and
      fm2 == 0x258 and fs3 == 0 and fe3 == 0x1d and fm3 == 0x2c5 and fcsr == 0x82
      and rm_val == 7  and rs1_nan_prefix == 0xffff and rs2_nan_prefix == 0xffff and
      rs3_nan_prefix == 0xffff  #nosat'
    : 1
    ? 'fs1 == 0 and fe1 == 0x1d and fm1 == 0x207 and fs2 == 1 and fe2 == 0x10 and
      fm2 == 0x06d and fs3 == 0 and fe3 == 0x1e and fm3 == 0x2ab and fcsr == 0x2 and
      rm_val == 7  and rs1_nan_prefix == 0xffff and rs2_nan_prefix == 0xffff and rs3_nan_prefix
      == 0xffff  #nosat'
    : 1
    ? 'fs1 == 0 and fe1 == 0x1d and fm1 == 0x207 and fs2 == 1 and fe2 == 0x10 and
      fm2 == 0x06d and fs3 == 0 and fe3 == 0x1e and fm3 == 0x2ab and fcsr == 0x22
      and rm_val == 7  and rs1_nan_prefix == 0xffff and rs2_nan_prefix == 0xffff and
      rs3_nan_prefix == 0xffff  #nosat'
    : 1
    ? 'fs1 == 0 and fe1 == 0x1d and fm1 == 0x207 and fs2 == 1 and fe2 == 0x10 and
      fm2 == 0x06d and fs3 == 0 and fe3 == 0x1e and fm3 == 0x2ab and fcsr == 0x42
      and rm_val == 7  and rs1_nan_prefix == 0xffff and rs2_nan_prefix == 0xffff and
      rs3_nan_prefix == 0xffff  #nosat'
    : 1
    ? 'fs1 == 0 and fe1 == 0x1d and fm1 == 0x207 and fs2 == 1 and fe2 == 0x10 and
      fm2 == 0x06d and fs3 == 0 and fe3 == 0x1e and fm3 == 0x2ab and fcsr == 0x62
      and rm_val == 7  and rs1_nan_prefix == 0xffff and rs2_nan_prefix == 0xffff and
      rs3_nan_prefix == 0xffff  #nosat'
    : 1
    ? 'fs1 == 0 and fe1 == 0x1d and fm1 == 0x207 and fs2 == 1 and fe2 == 0x10 and
      fm2 == 0x06d and fs3 == 0 and fe3 == 0x1e and fm3 == 0x2ab and fcsr == 0x82
      and rm_val == 7  and rs1_nan_prefix == 0xffff and rs2_nan_prefix == 0xffff and
      rs3_nan_prefix == 0xffff  #nosat'
    : 1
    ? 'fs1 == 0 and fe1 == 0x1e and fm1 == 0x320 and fs2 == 1 and fe2 == 0x0c and
      fm2 == 0x24a and fs3 == 0 and fe3 == 0x1c and fm3 == 0x19b and fcsr == 0x2 and
      rm_val == 7  and rs1_nan_prefix == 0xffff and rs2_nan_prefix == 0xffff and rs3_nan_prefix
      == 0xffff  #nosat'
    : 1
    ? 'fs1 == 0 and fe1 == 0x1e and fm1 == 0x320 and fs2 == 1 and fe2 == 0x0c and
      fm2 == 0x24a and fs3 == 0 and fe3 == 0x1c and fm3 == 0x19b and fcsr == 0x22
      and rm_val == 7  and rs1_nan_prefix == 0xffff and rs2_nan_prefix == 0xffff and
      rs3_nan_prefix == 0xffff  #nosat'
    : 1
    ? 'fs1 == 0 and fe1 == 0x1e and fm1 == 0x320 and fs2 == 1 and fe2 == 0x0c and
      fm2 == 0x24a and fs3 == 0 and fe3 == 0x1c and fm3 == 0x19b and fcsr == 0x42
      and rm_val == 7  and rs1_nan_prefix == 0xffff and rs2_nan_prefix == 0xffff and
      rs3_nan_prefix == 0xffff  #nosat'
    : 1
    ? 'fs1 == 0 and fe1 == 0x1e and fm1 == 0x320 and fs2 == 1 and fe2 == 0x0c and
      fm2 == 0x24a and fs3 == 0 and fe3 == 0x1c and fm3 == 0x19b and fcsr == 0x62
      and rm_val == 7  and rs1_nan_prefix == 0xffff and rs2_nan_prefix == 0xffff and
      rs3_nan_prefix == 0xffff  #nosat'
    : 1
    ? 'fs1 == 0 and fe1 == 0x1e and fm1 == 0x320 and fs2 == 1 and fe2 == 0x0c and
      fm2 == 0x24a and fs3 == 0 and fe3 == 0x1c and fm3 == 0x19b and fcsr == 0x82
      and rm_val == 7  and rs1_nan_prefix == 0xffff and rs2_nan_prefix == 0xffff and
      rs3_nan_prefix == 0xffff  #nosat'
    : 1
    ? 'fs1 == 0 and fe1 == 0x1d and fm1 == 0x256 and fs2 == 1 and fe2 == 0x0d and
      fm2 == 0x2b5 and fs3 == 0 and fe3 == 0x1c and fm3 == 0x150 and fcsr == 0x2 and
      rm_val == 7  and rs1_nan_prefix == 0xffff and rs2_nan_prefix == 0xffff and rs3_nan_prefix
      == 0xffff  #nosat'
    : 1
    ? 'fs1 == 0 and fe1 == 0x1d and fm1 == 0x256 and fs2 == 1 and fe2 == 0x0d and
      fm2 == 0x2b5 and fs3 == 0 and fe3 == 0x1c and fm3 == 0x150 and fcsr == 0x22
      and rm_val == 7  and rs1_nan_prefix == 0xffff and rs2_nan_prefix == 0xffff and
      rs3_nan_prefix == 0xffff  #nosat'
    : 1
    ? 'fs1 == 0 and fe1 == 0x1d and fm1 == 0x256 and fs2 == 1 and fe2 == 0x0d and
      fm2 == 0x2b5 and fs3 == 0 and fe3 == 0x1c and fm3 == 0x150 and fcsr == 0x42
      and rm_val == 7  and rs1_nan_prefix == 0xffff and rs2_nan_prefix == 0xffff and
      rs3_nan_prefix == 0xffff  #nosat'
    : 1
    ? 'fs1 == 0 and fe1 == 0x1d and fm1 == 0x256 and fs2 == 1 and fe2 == 0x0d and
      fm2 == 0x2b5 and fs3 == 0 and fe3 == 0x1c and fm3 == 0x150 and fcsr == 0x62
      and rm_val == 7  and rs1_nan_prefix == 0xffff and rs2_nan_prefix == 0xffff and
      rs3_nan_prefix == 0xffff  #nosat'
    : 1
    ? 'fs1 == 0 and fe1 == 0x1d and fm1 == 0x256 and fs2 == 1 and fe2 == 0x0d and
      fm2 == 0x2b5 and fs3 == 0 and fe3 == 0x1c and fm3 == 0x150 and fcsr == 0x82
      and rm_val == 7  and rs1_nan_prefix == 0xffff and rs2_nan_prefix == 0xffff and
      rs3_nan_prefix == 0xffff  #nosat'
    : 1
    ? 'fs1 == 0 and fe1 == 0x1e and fm1 == 0x14d and fs2 == 1 and fe2 == 0x0f and
      fm2 == 0x1e1 and fs3 == 0 and fe3 == 0x1e and fm3 == 0x3cb and fcsr == 0x2 and
      rm_val == 7  and rs1_nan_prefix == 0xffff and rs2_nan_prefix == 0xffff and rs3_nan_prefix
      == 0xffff  #nosat'
    : 1
    ? 'fs1 == 0 and fe1 == 0x1e and fm1 == 0x14d and fs2 == 1 and fe2 == 0x0f and
      fm2 == 0x1e1 and fs3 == 0 and fe3 == 0x1e and fm3 == 0x3cb and fcsr == 0x22
      and rm_val == 7  and rs1_nan_prefix == 0xffff and rs2_nan_prefix == 0xffff and
      rs3_nan_prefix == 0xffff  #nosat'
    : 1
    ? 'fs1 == 0 and fe1 == 0x1e and fm1 == 0x14d and fs2 == 1 and fe2 == 0x0f and
      fm2 == 0x1e1 and fs3 == 0 and fe3 == 0x1e and fm3 == 0x3cb and fcsr == 0x42
      and rm_val == 7  and rs1_nan_prefix == 0xffff and rs2_nan_prefix == 0xffff and
      rs3_nan_prefix == 0xffff  #nosat'
    : 1
    ? 'fs1 == 0 and fe1 == 0x1e and fm1 == 0x14d and fs2 == 1 and fe2 == 0x0f and
      fm2 == 0x1e1 and fs3 == 0 and fe3 == 0x1e and fm3 == 0x3cb and fcsr == 0x62
      and rm_val == 7  and rs1_nan_prefix == 0xffff and rs2_nan_prefix == 0xffff and
      rs3_nan_prefix == 0xffff  #nosat'
    : 1
    ? 'fs1 == 0 and fe1 == 0x1e and fm1 == 0x14d and fs2 == 1 and fe2 == 0x0f and
      fm2 == 0x1e1 and fs3 == 0 and fe3 == 0x1e and fm3 == 0x3cb and fcsr == 0x82
      and rm_val == 7  and rs1_nan_prefix == 0xffff and rs2_nan_prefix == 0xffff and
      rs3_nan_prefix == 0xffff  #nosat'
    : 1
    ? 'fs1 == 0 and fe1 == 0x1c and fm1 == 0x274 and fs2 == 1 and fe2 == 0x10 and
      fm2 == 0x398 and fs3 == 0 and fe3 == 0x1e and fm3 == 0x220 and fcsr == 0x2 and
      rm_val == 7  and rs1_nan_prefix == 0xffff and rs2_nan_prefix == 0xffff and rs3_nan_prefix
      == 0xffff  #nosat'
    : 1
    ? 'fs1 == 0 and fe1 == 0x1c and fm1 == 0x274 and fs2 == 1 and fe2 == 0x10 and
      fm2 == 0x398 and fs3 == 0 and fe3 == 0x1e and fm3 == 0x220 and fcsr == 0x22
      and rm_val == 7  and rs1_nan_prefix == 0xffff and rs2_nan_prefix == 0xffff and
      rs3_nan_prefix == 0xffff  #nosat'
    : 1
    ? 'fs1 == 0 and fe1 == 0x1c and fm1 == 0x274 and fs2 == 1 and fe2 == 0x10 and
      fm2 == 0x398 and fs3 == 0 and fe3 == 0x1e and fm3 == 0x220 and fcsr == 0x42
      and rm_val == 7  and rs1_nan_prefix == 0xffff and rs2_nan_prefix == 0xffff and
      rs3_nan_prefix == 0xffff  #nosat'
    : 1
    ? 'fs1 == 0 and fe1 == 0x1c and fm1 == 0x274 and fs2 == 1 and fe2 == 0x10 and
      fm2 == 0x398 and fs3 == 0 and fe3 == 0x1e and fm3 == 0x220 and fcsr == 0x62
      and rm_val == 7  and rs1_nan_prefix == 0xffff and rs2_nan_prefix == 0xffff and
      rs3_nan_prefix == 0xffff  #nosat'
    : 1
    ? 'fs1 == 0 and fe1 == 0x1c and fm1 == 0x274 and fs2 == 1 and fe2 == 0x10 and
      fm2 == 0x398 and fs3 == 0 and fe3 == 0x1e and fm3 == 0x220 and fcsr == 0x82
      and rm_val == 7  and rs1_nan_prefix == 0xffff and rs2_nan_prefix == 0xffff and
      rs3_nan_prefix == 0xffff  #nosat'
    : 1
    ? 'fs1 == 0 and fe1 == 0x1d and fm1 == 0x0cc and fs2 == 1 and fe2 == 0x0a and
      fm2 == 0x1a5 and fs3 == 0 and fe3 == 0x18 and fm3 == 0x2c5 and fcsr == 0x2 and
      rm_val == 7  and rs1_nan_prefix == 0xffff and rs2_nan_prefix == 0xffff and rs3_nan_prefix
      == 0xffff  #nosat'
    : 1
    ? 'fs1 == 0 and fe1 == 0x1d and fm1 == 0x0cc and fs2 == 1 and fe2 == 0x0a and
      fm2 == 0x1a5 and fs3 == 0 and fe3 == 0x18 and fm3 == 0x2c5 and fcsr == 0x22
      and rm_val == 7  and rs1_nan_prefix == 0xffff and rs2_nan_prefix == 0xffff and
      rs3_nan_prefix == 0xffff  #nosat'
    : 1
    ? 'fs1 == 0 and fe1 == 0x1d and fm1 == 0x0cc and fs2 == 1 and fe2 == 0x0a and
      fm2 == 0x1a5 and fs3 == 0 and fe3 == 0x18 and fm3 == 0x2c5 and fcsr == 0x42
      and rm_val == 7  and rs1_nan_prefix == 0xffff and rs2_nan_prefix == 0xffff and
      rs3_nan_prefix == 0xffff  #nosat'
    : 1
    ? 'fs1 == 0 and fe1 == 0x1d and fm1 == 0x0cc and fs2 == 1 and fe2 == 0x0a and
      fm2 == 0x1a5 and fs3 == 0 and fe3 == 0x18 and fm3 == 0x2c5 and fcsr == 0x62
      and rm_val == 7  and rs1_nan_prefix == 0xffff and rs2_nan_prefix == 0xffff and
      rs3_nan_prefix == 0xffff  #nosat'
    : 1
    ? 'fs1 == 0 and fe1 == 0x1d and fm1 == 0x0cc and fs2 == 1 and fe2 == 0x0a and
      fm2 == 0x1a5 and fs3 == 0 and fe3 == 0x18 and fm3 == 0x2c5 and fcsr == 0x82
      and rm_val == 7  and rs1_nan_prefix == 0xffff and rs2_nan_prefix == 0xffff and
      rs3_nan_prefix == 0xffff  #nosat'
    : 1
    ? 'fs1 == 0 and fe1 == 0x1e and fm1 == 0x21c and fs2 == 1 and fe2 == 0x0d and
      fm2 == 0x327 and fs3 == 0 and fe3 == 0x1d and fm3 == 0x177 and fcsr == 0x2 and
      rm_val == 7  and rs1_nan_prefix == 0xffff and rs2_nan_prefix == 0xffff and rs3_nan_prefix
      == 0xffff  #nosat'
    : 1
    ? 'fs1 == 0 and fe1 == 0x1e and fm1 == 0x21c and fs2 == 1 and fe2 == 0x0d and
      fm2 == 0x327 and fs3 == 0 and fe3 == 0x1d and fm3 == 0x177 and fcsr == 0x22
      and rm_val == 7  and rs1_nan_prefix == 0xffff and rs2_nan_prefix == 0xffff and
      rs3_nan_prefix == 0xffff  #nosat'
    : 1
    ? 'fs1 == 0 and fe1 == 0x1e and fm1 == 0x21c and fs2 == 1 and fe2 == 0x0d and
      fm2 == 0x327 and fs3 == 0 and fe3 == 0x1d and fm3 == 0x177 and fcsr == 0x42
      and rm_val == 7  and rs1_nan_prefix == 0xffff and rs2_nan_prefix == 0xffff and
      rs3_nan_prefix == 0xffff  #nosat'
    : 1
    ? 'fs1 == 0 and fe1 == 0x1e and fm1 == 0x21c and fs2 == 1 and fe2 == 0x0d and
      fm2 == 0x327 and fs3 == 0 and fe3 == 0x1d and fm3 == 0x177 and fcsr == 0x62
      and rm_val == 7  and rs1_nan_prefix == 0xffff and rs2_nan_prefix == 0xffff and
      rs3_nan_prefix == 0xffff  #nosat'
    : 1
    ? 'fs1 == 0 and fe1 == 0x1e and fm1 == 0x21c and fs2 == 1 and fe2 == 0x0d and
      fm2 == 0x327 and fs3 == 0 and fe3 == 0x1d and fm3 == 0x177 and fcsr == 0x82
      and rm_val == 7  and rs1_nan_prefix == 0xffff and rs2_nan_prefix == 0xffff and
      rs3_nan_prefix == 0xffff  #nosat'
    : 1
    ? 'fs1 == 0 and fe1 == 0x1c and fm1 == 0x171 and fs2 == 1 and fe2 == 0x10 and
      fm2 == 0x11e and fs3 == 0 and fe3 == 0x1d and fm3 == 0x2f7 and fcsr == 0x2 and
      rm_val == 7  and rs1_nan_prefix == 0xffff and rs2_nan_prefix == 0xffff and rs3_nan_prefix
      == 0xffff  #nosat'
    : 1
    ? 'fs1 == 0 and fe1 == 0x1c and fm1 == 0x171 and fs2 == 1 and fe2 == 0x10 and
      fm2 == 0x11e and fs3 == 0 and fe3 == 0x1d and fm3 == 0x2f7 and fcsr == 0x22
      and rm_val == 7  and rs1_nan_prefix == 0xffff and rs2_nan_prefix == 0xffff and
      rs3_nan_prefix == 0xffff  #nosat'
    : 1
    ? 'fs1 == 0 and fe1 == 0x1c and fm1 == 0x171 and fs2 == 1 and fe2 == 0x10 and
      fm2 == 0x11e and fs3 == 0 and fe3 == 0x1d and fm3 == 0x2f7 and fcsr == 0x42
      and rm_val == 7  and rs1_nan_prefix == 0xffff and rs2_nan_prefix == 0xffff and
      rs3_nan_prefix == 0xffff  #nosat'
    : 1
    ? 'fs1 == 0 and fe1 == 0x1c and fm1 == 0x171 and fs2 == 1 and fe2 == 0x10 and
      fm2 == 0x11e and fs3 == 0 and fe3 == 0x1d and fm3 == 0x2f7 and fcsr == 0x62
      and rm_val == 7  and rs1_nan_prefix == 0xffff and rs2_nan_prefix == 0xffff and
      rs3_nan_prefix == 0xffff  #nosat'
    : 1
    ? 'fs1 == 0 and fe1 == 0x1c and fm1 == 0x171 and fs2 == 1 and fe2 == 0x10 and
      fm2 == 0x11e and fs3 == 0 and fe3 == 0x1d and fm3 == 0x2f7 and fcsr == 0x82
      and rm_val == 7  and rs1_nan_prefix == 0xffff and rs2_nan_prefix == 0xffff and
      rs3_nan_prefix == 0xffff  #nosat'
    : 1
    ? 'fs1 == 0 and fe1 == 0x1c and fm1 == 0x369 and fs2 == 1 and fe2 == 0x0f and
      fm2 == 0x314 and fs3 == 0 and fe3 == 0x1d and fm3 == 0x28e and fcsr == 0x2 and
      rm_val == 7  and rs1_nan_prefix == 0xffff and rs2_nan_prefix == 0xffff and rs3_nan_prefix
      == 0xffff  #nosat'
    : 1
    ? 'fs1 == 0 and fe1 == 0x1c and fm1 == 0x369 and fs2 == 1 and fe2 == 0x0f and
      fm2 == 0x314 and fs3 == 0 and fe3 == 0x1d and fm3 == 0x28e and fcsr == 0x22
      and rm_val == 7  and rs1_nan_prefix == 0xffff and rs2_nan_prefix == 0xffff and
      rs3_nan_prefix == 0xffff  #nosat'
    : 1
    ? 'fs1 == 0 and fe1 == 0x1c and fm1 == 0x369 and fs2 == 1 and fe2 == 0x0f and
      fm2 == 0x314 and fs3 == 0 and fe3 == 0x1d and fm3 == 0x28e and fcsr == 0x42
      and rm_val == 7  and rs1_nan_prefix == 0xffff and rs2_nan_prefix == 0xffff and
      rs3_nan_prefix == 0xffff  #nosat'
    : 1
    ? 'fs1 == 0 and fe1 == 0x1c and fm1 == 0x369 and fs2 == 1 and fe2 == 0x0f and
      fm2 == 0x314 and fs3 == 0 and fe3 == 0x1d and fm3 == 0x28e and fcsr == 0x62
      and rm_val == 7  and rs1_nan_prefix == 0xffff and rs2_nan_prefix == 0xffff and
      rs3_nan_prefix == 0xffff  #nosat'
    : 1
    ? 'fs1 == 0 and fe1 == 0x1c and fm1 == 0x369 and fs2 == 1 and fe2 == 0x0f and
      fm2 == 0x314 and fs3 == 0 and fe3 == 0x1d and fm3 == 0x28e and fcsr == 0x82
      and rm_val == 7  and rs1_nan_prefix == 0xffff and rs2_nan_prefix == 0xffff and
      rs3_nan_prefix == 0xffff  #nosat'
    : 1
    ? 'fs1 == 0 and fe1 == 0x1d and fm1 == 0x322 and fs2 == 1 and fe2 == 0x0e and
      fm2 == 0x37f and fs3 == 0 and fe3 == 0x1d and fm3 == 0x2af and fcsr == 0x2 and
      rm_val == 7  and rs1_nan_prefix == 0xffff and rs2_nan_prefix == 0xffff and rs3_nan_prefix
      == 0xffff  #nosat'
    : 1
    ? 'fs1 == 0 and fe1 == 0x1d and fm1 == 0x322 and fs2 == 1 and fe2 == 0x0e and
      fm2 == 0x37f and fs3 == 0 and fe3 == 0x1d and fm3 == 0x2af and fcsr == 0x22
      and rm_val == 7  and rs1_nan_prefix == 0xffff and rs2_nan_prefix == 0xffff and
      rs3_nan_prefix == 0xffff  #nosat'
    : 1
    ? 'fs1 == 0 and fe1 == 0x1d and fm1 == 0x322 and fs2 == 1 and fe2 == 0x0e and
      fm2 == 0x37f and fs3 == 0 and fe3 == 0x1d and fm3 == 0x2af and fcsr == 0x42
      and rm_val == 7  and rs1_nan_prefix == 0xffff and rs2_nan_prefix == 0xffff and
      rs3_nan_prefix == 0xffff  #nosat'
    : 1
    ? 'fs1 == 0 and fe1 == 0x1d and fm1 == 0x322 and fs2 == 1 and fe2 == 0x0e and
      fm2 == 0x37f and fs3 == 0 and fe3 == 0x1d and fm3 == 0x2af and fcsr == 0x62
      and rm_val == 7  and rs1_nan_prefix == 0xffff and rs2_nan_prefix == 0xffff and
      rs3_nan_prefix == 0xffff  #nosat'
    : 1
    ? 'fs1 == 0 and fe1 == 0x1d and fm1 == 0x322 and fs2 == 1 and fe2 == 0x0e and
      fm2 == 0x37f and fs3 == 0 and fe3 == 0x1d and fm3 == 0x2af and fcsr == 0x82
      and rm_val == 7  and rs1_nan_prefix == 0xffff and rs2_nan_prefix == 0xffff and
      rs3_nan_prefix == 0xffff  #nosat'
    : 1
    coverage: 220/220
  total_coverage: 361/361
