---
fclass_b1:
  config:
  - check ISA:=regex(.*I.*Zfinx.*)
  mnemonics:
    fclass.s: 32
    coverage: 1/1
  rd:
    x0: 1
    x1: 1
    x10: 1
    x11: 1
    x12: 1
    x13: 1
    x14: 1
    x15: 1
    x16: 1
    x17: 1
    x18: 1
    x19: 1
    x2: 1
    x20: 1
    x21: 1
    x22: 1
    x23: 1
    x24: 1
    x25: 1
    x26: 1
    x27: 1
    x28: 1
    x29: 1
    x3: 1
    x30: 1
    x31: 1
    x4: 1
    x5: 1
    x6: 1
    x7: 1
    x8: 1
    x9: 1
    coverage: 32/32
  rs1:
    x0: 1
    x1: 1
    x10: 1
    x11: 1
    x12: 1
    x13: 1
    x14: 1
    x15: 1
    x16: 1
    x17: 1
    x18: 1
    x19: 1
    x2: 1
    x20: 1
    x21: 1
    x22: 1
    x23: 1
    x24: 1
    x25: 1
    x26: 1
    x27: 1
    x28: 1
    x29: 1
    x3: 1
    x30: 1
    x31: 1
    x4: 1
    x5: 1
    x6: 1
    x7: 1
    x8: 1
    x9: 1
    coverage: 32/32
  val_comb:
    'fs1 == 0 and fe1 == 0x00 and fm1 == 0x000000 and  fcsr == 0 and rs1_sgn_prefix == 0x00000000  #nosat': 9
    'fs1 == 1 and fe1 == 0x00 and fm1 == 0x000000 and  fcsr == 0 and rs1_sgn_prefix == 0xffffffff  #nosat': 1
    'fs1 == 0 and fe1 == 0x00 and fm1 == 0x000001 and  fcsr == 0 and rs1_sgn_prefix == 0x00000000  #nosat': 1
    'fs1 == 1 and fe1 == 0x00 and fm1 == 0x000001 and  fcsr == 0 and rs1_sgn_prefix == 0xffffffff  #nosat': 1
    'fs1 == 0 and fe1 == 0x00 and fm1 == 0x000002 and  fcsr == 0 and rs1_sgn_prefix == 0x00000000  #nosat': 1
    'fs1 == 1 and fe1 == 0x00 and fm1 == 0x7ffffe and  fcsr == 0 and rs1_sgn_prefix == 0xffffffff  #nosat': 1
    'fs1 == 0 and fe1 == 0x00 and fm1 == 0x7fffff and  fcsr == 0 and rs1_sgn_prefix == 0x00000000  #nosat': 1
    'fs1 == 1 and fe1 == 0x00 and fm1 == 0x7fffff and  fcsr == 0 and rs1_sgn_prefix == 0xffffffff  #nosat': 1
    'fs1 == 0 and fe1 == 0x01 and fm1 == 0x000000 and  fcsr == 0 and rs1_sgn_prefix == 0x00000000  #nosat': 1
    'fs1 == 1 and fe1 == 0x01 and fm1 == 0x000000 and  fcsr == 0 and rs1_sgn_prefix == 0xffffffff  #nosat': 1
    'fs1 == 0 and fe1 == 0x01 and fm1 == 0x000001 and  fcsr == 0 and rs1_sgn_prefix == 0x00000000  #nosat': 1
    'fs1 == 1 and fe1 == 0x01 and fm1 == 0x055555 and  fcsr == 0 and rs1_sgn_prefix == 0xffffffff  #nosat': 1
    'fs1 == 0 and fe1 == 0xfe and fm1 == 0x7fffff and  fcsr == 0 and rs1_sgn_prefix == 0x00000000  #nosat': 1
    'fs1 == 1 and fe1 == 0xfe and fm1 == 0x7fffff and  fcsr == 0 and rs1_sgn_prefix == 0xffffffff  #nosat': 1
    'fs1 == 0 and fe1 == 0xff and fm1 == 0x000000 and  fcsr == 0 and rs1_sgn_prefix == 0x00000000  #nosat': 1
    'fs1 == 1 and fe1 == 0xff and fm1 == 0x000000 and  fcsr == 0 and rs1_sgn_prefix == 0xffffffff  #nosat': 1
    'fs1 == 0 and fe1 == 0xff and fm1 == 0x400000 and  fcsr == 0 and rs1_sgn_prefix == 0x00000000  #nosat': 1
    'fs1 == 1 and fe1 == 0xff and fm1 == 0x400000 and  fcsr == 0 and rs1_sgn_prefix == 0xffffffff  #nosat': 1
    'fs1 == 0 and fe1 == 0xff and fm1 == 0x400001 and  fcsr == 0 and rs1_sgn_prefix == 0x00000000  #nosat': 1
    'fs1 == 1 and fe1 == 0xff and fm1 == 0x455555 and  fcsr == 0 and rs1_sgn_prefix == 0xffffffff  #nosat': 1
    'fs1 == 0 and fe1 == 0xff and fm1 == 0x000001 and  fcsr == 0 and rs1_sgn_prefix == 0x00000000  #nosat': 1
    'fs1 == 1 and fe1 == 0xff and fm1 == 0x2aaaaa and  fcsr == 0 and rs1_sgn_prefix == 0xffffffff  #nosat': 1
    'fs1 == 0 and fe1 == 0x7f and fm1 == 0x000000 and  fcsr == 0 and rs1_sgn_prefix == 0x00000000  #nosat': 1
    'fs1 == 1 and fe1 == 0x7f and fm1 == 0x000000 and  fcsr == 0 and rs1_sgn_prefix == 0xffffffff  #nosat': 1
    coverage: 24/24
  total_coverage: 89/89
