datasets:
  all_fregs:
    f0: 0
    f1: 0
    f10: 0
    f11: 0
    f12: 0
    f13: 0
    f14: 0
    f15: 0
    f16: 0
    f17: 0
    f18: 0
    f19: 0
    f2: 0
    f20: 0
    f21: 0
    f22: 0
    f23: 0
    f24: 0
    f25: 0
    f26: 0
    f27: 0
    f28: 0
    f29: 0
    f3: 0
    f30: 0
    f31: 0
    f4: 0
    f5: 0
    f6: 0
    f7: 0
    f8: 0
    f9: 0
  all_regs:
    x0: 0
    x1: 0
    x10: 0
    x11: 0
    x12: 0
    x13: 0
    x14: 0
    x15: 0
    x16: 0
    x17: 0
    x18: 0
    x19: 0
    x2: 0
    x20: 0
    x21: 0
    x22: 0
    x23: 0
    x24: 0
    x25: 0
    x26: 0
    x27: 0
    x28: 0
    x29: 0
    x3: 0
    x30: 0
    x31: 0
    x4: 0
    x5: 0
    x6: 0
    x7: 0
    x8: 0
    x9: 0
  all_regs_mx0:
    x1: 0
    x10: 0
    x11: 0
    x12: 0
    x13: 0
    x14: 0
    x15: 0
    x16: 0
    x17: 0
    x18: 0
    x19: 0
    x2: 0
    x20: 0
    x21: 0
    x22: 0
    x23: 0
    x24: 0
    x25: 0
    x26: 0
    x27: 0
    x28: 0
    x29: 0
    x3: 0
    x30: 0
    x31: 0
    x4: 0
    x5: 0
    x6: 0
    x7: 0
    x8: 0
    x9: 0
  all_regs_mx2:
    x1: 0
    x10: 0
    x11: 0
    x12: 0
    x13: 0
    x14: 0
    x15: 0
    x16: 0
    x17: 0
    x18: 0
    x19: 0
    x20: 0
    x21: 0
    x22: 0
    x23: 0
    x24: 0
    x25: 0
    x26: 0
    x27: 0
    x28: 0
    x29: 0
    x3: 0
    x30: 0
    x31: 0
    x4: 0
    x5: 0
    x6: 0
    x7: 0
    x8: 0
    x9: 0
  base_rs1val_sgn:
    rs1_val == (-2**(xlen-1)): 0
    rs1_val == (2**(xlen-1)-1): 0
    rs1_val == 0: 0
    rs1_val == 1: 0
  base_rs1val_unsgn:
    rs1_val == (2**(xlen)-1): 0
    rs1_val == 0: 0
    rs1_val == 1: 0
  base_rs2val_sgn:
    rs2_val == (-2**(xlen-1)): 0
    rs2_val == (2**(xlen-1)-1): 0
    rs2_val == 0: 0
    rs2_val == 1: 0
  base_rs2val_unsgn:
    rs2_val == (2**(xlen)-1): 0
    rs2_val == 0: 0
    rs2_val == 1: 0
  base_rs3val_sgn:
    rs3_val == (-2**(xlen-1)): 0
    rs3_val == (2**(xlen-1)-1): 0
    rs3_val == 0: 0
    rs3_val == 1: 0
  base_rs3val_unsgn:
    rs3_val == (2**(xlen)-1): 0
    rs3_val == 0: 0
    rs3_val == 1: 0
  bfmt_base_branch_val_align_sgn:
    rs1_val < 0 and rs2_val < 0 and imm_val & 0x03 == 0: 0
    rs1_val < 0 and rs2_val > 0 and imm_val & 0x03 == 0: 0
    rs1_val < rs2_val and imm_val < 0 and imm_val & 0x03 == 0: 0
    rs1_val < rs2_val and imm_val > 0 and imm_val & 0x03 == 0: 0
    rs1_val == rs2_val and imm_val < 0 and imm_val & 0x03 == 0: 0
    rs1_val == rs2_val and imm_val > 0 and imm_val & 0x03 == 0: 0
    rs1_val > 0 and rs2_val < 0 and imm_val & 0x03 == 0: 0
    rs1_val > 0 and rs2_val > 0 and imm_val & 0x03 == 0: 0
    rs1_val > rs2_val and imm_val < 0 and imm_val & 0x03 == 0: 0
    rs1_val > rs2_val and imm_val > 0 and imm_val & 0x03 == 0: 0
  bfmt_base_branch_val_align_unsgn:
    rs1_val > 0 and rs2_val > 0: 0
    'rs1_val > 0 and rs2_val > 0 and rs1_val < rs2_val and imm_val < 0 ': 0
    'rs1_val > 0 and rs2_val > 0 and rs1_val < rs2_val and imm_val > 0 ': 0
    rs1_val > 0 and rs2_val > 0 and rs1_val == rs2_val and imm_val < 0: 0
    rs1_val > 0 and rs2_val > 0 and rs1_val == rs2_val and imm_val > 0: 0
    'rs1_val > 0 and rs2_val > 0 and rs1_val > rs2_val and imm_val < 0 ': 0
    'rs1_val > 0 and rs2_val > 0 and rs1_val > rs2_val and imm_val > 0 ': 0
  c_fregs:
    f10: 0
    f11: 0
    f12: 0
    f13: 0
    f14: 0
    f15: 0
    f8: 0
    f9: 0
  c_regs:
    x10: 0
    x11: 0
    x12: 0
    x13: 0
    x14: 0
    x15: 0
    x8: 0
    x9: 0
  cbfmt_immval_sgn:
    imm_val == (-2**(6-1)): 0
    imm_val == (2**(6-1)-1): 0
    imm_val == 0: 0
    imm_val == 1: 0
  cbimm_val_walking:
    alternate("imm_val",6): 0
    walking_ones("imm_val", 6): 0
    walking_zeros("imm_val", 6): 0
  crfmt_val_comb_sgn:
    rs2_val < 0: 0
    rs2_val > 0: 0
  ifmt_base_immval_sgn:
    imm_val == (-2**(12-1)): 0
    imm_val == (2**(12-1)-1): 0
    imm_val == 0: 0
    imm_val == 1: 0
  ifmt_base_immval_sgn_len:
    imm_val == (-2**(ceil(log(xlen,2))-1)): 0
    imm_val == (2**(ceil(log(xlen,2))-1)-1): 0
    imm_val == 0: 0
    imm_val == 1: 0
  ifmt_base_immval_unsgn:
    imm_val == (2**(12)-1): 0
    imm_val == 0: 0
    imm_val == 1: 0
  ifmt_base_immval_unsgn_len_sub_3:
    imm_val == (2**(ceil(log(xlen,2))-3)-1): 0
    imm_val == 0: 0
    imm_val == 1: 0
  ifmt_base_shift:
    rs1_val < 0 and imm_val == (xlen-1): 0
    rs1_val < 0 and imm_val == 0: 0
    rs1_val < 0 and imm_val > 0 and imm_val < xlen: 0
    rs1_val == (-2**(xlen-1)) and imm_val >= 0 and imm_val < xlen: 0
    rs1_val == (2**(xlen-1)-1) and imm_val >= 0 and imm_val < xlen: 0
    rs1_val == 0 and imm_val >= 0 and imm_val < xlen: 0
    rs1_val == 1 and imm_val >= 0 and imm_val < xlen: 0
    rs1_val == imm_val and imm_val > 0 and imm_val < xlen: 0
    rs1_val > 0 and imm_val == (xlen-1): 0
    rs1_val > 0 and imm_val == 0: 0
    rs1_val > 0 and imm_val > 0 and imm_val < xlen: 0
  ifmt_base_shift_32w:
    rs1_val < 0 and imm_val == 0: 0
    rs1_val < 0 and imm_val == 31: 0
    rs1_val < 0 and imm_val > 0 and imm_val < 32: 0
    rs1_val == (-2**(xlen-1)) and imm_val >= 0 and imm_val < 32: 0
    rs1_val == (2**(xlen-1)-1) and imm_val >= 0 and imm_val < 32: 0
    rs1_val == 0 and imm_val >= 0 and imm_val < 32: 0
    rs1_val == 1 and imm_val >= 0 and imm_val < 32: 0
    rs1_val == imm_val and imm_val > 0 and imm_val < 32: 0
    rs1_val > 0 and imm_val == 0: 0
    rs1_val > 0 and imm_val == 31: 0
    rs1_val > 0 and imm_val > 0 and imm_val < 32: 0
  ifmt_immval_walking:
    alternate("imm_val",12): 0
    walking_ones("imm_val", 12): 0
    walking_zeros("imm_val", 12): 0
  ifmt_immval_walking_5u:
    alternate("imm_val", 5, False): 0
    walking_ones("imm_val", 5, False): 0
    walking_zeros("imm_val", 5, False): 0
  ifmt_immval_walking_len:
    alternate("imm_val",ceil(log(xlen,2)), False): 0
    walking_ones("imm_val", ceil(log(xlen,2)), False): 0
    walking_zeros("imm_val", ceil(log(xlen,2)), False): 0
  ifmt_immval_walking_len_sub_3:
    alternate("imm_val", ceil(log(xlen,2))-3, False): 0
    walking_ones("imm_val", ceil(log(xlen,2))-3, False): 0
    walking_zeros("imm_val", ceil(log(xlen,2))-3, False): 0
  ifmt_immval_walking_unsgn:
    alternate("imm_val",12,False): 0
    walking_ones("imm_val", 12,False): 0
    walking_zeros("imm_val", 12,False): 0
  ifmt_op_comb:
    rs1 != rd: 0
    rs1 == rd: 0
  ifmt_val_comb_sgn:
    rs1_val != imm_val: 0
    rs1_val < 0 and imm_val < 0: 0
    rs1_val < 0 and imm_val > 0: 0
    rs1_val == imm_val: 0
    rs1_val > 0 and imm_val < 0: 0
    rs1_val > 0 and imm_val > 0: 0
  ifmt_val_comb_unsgn:
    rs1_val != imm_val and rs1_val > 0 and imm_val > 0: 0
    rs1_val == imm_val and rs1_val > 0 and imm_val > 0: 0
  pair_regs:
    x10: 0
    x12: 0
    x14: 0
    x16: 0
    x18: 0
    x2: 0
    x20: 0
    x22: 0
    x24: 0
    x26: 0
    x28: 0
    x30: 0
    x4: 0
    x6: 0
    x8: 0
  r4fmt_op_comb:
    rd == rs2 == rs3 != rs1: 0
    rs1 != rs2 and rs1 != rd and rs1 != rs3 and rs2 != rs3 and rs2 != rd and rs3 != rd: 0
    rs1 == rd != rs2 and rs1 == rd != rs3 and rs3 != rs2: 0
    rs1 == rd == rs3 != rs2: 0
    rs1 == rs2 != rs3 and rs1 == rs2 != rd and rd != rs3: 0
    rs1 == rs2 == rd != rs3: 0
    rs1 == rs2 == rs3 != rd: 0
    rs1 == rs2 == rs3 == rd: 0
    rs1 == rs3 != rs2 and rs1 == rs3 != rd and rd != rs2: 0
    rs2 == rd != rs1 and rs2 == rd != rs3 and rs3 != rs1: 0
    rs2 == rs3 != rs1 and rs2 == rs3 != rd and rd != rs1: 0
    rs3 == rd != rs1 and rs3 == rd != rs2 and rs2 != rs1: 0
  rfmt_base_shift:
    rs1_val < 0 and rs2_val == 0: 0
    rs1_val < 0 and rs2_val > 0 and rs2_val < xlen: 0
    rs1_val == (-2**(xlen-1)) and rs2_val >= 0 and rs2_val < xlen: 0
    rs1_val == (2**(xlen-1)-1) and rs2_val >= 0 and rs2_val < xlen: 0
    rs1_val == 0 and rs2_val >= 0 and rs2_val < xlen: 0
    rs1_val == 1 and rs2_val >= 0 and rs2_val < xlen: 0
    rs1_val == rs2_val and rs2_val > 0 and rs2_val < xlen: 0
    rs1_val > 0 and rs2_val == 0: 0
    rs1_val > 0 and rs2_val > 0 and rs2_val < xlen: 0
  rfmt_op_comb:
    rs1 != rs2  and rs1 != rd and rs2 != rd: 0
    rs1 == rd != rs2: 0
    rs1 == rs2 != rd: 0
    rs1 == rs2 == rd: 0
    rs2 == rd != rs1: 0
  rfmt_val_comb_sgn:
    rs1_val != rs2_val: 0
    rs1_val < 0 and rs2_val < 0: 0
    rs1_val < 0 and rs2_val > 0: 0
    rs1_val == rs2_val: 0
    rs1_val > 0 and rs2_val < 0: 0
    rs1_val > 0 and rs2_val > 0: 0
  rfmt_val_comb_unsgn:
    rs1_val != rs2_val and rs1_val > 0 and rs2_val > 0: 0
    rs1_val == rs2_val and rs1_val > 0 and rs2_val > 0: 0
    rs1_val > 0 and rs2_val > 0: 0
  rs1val_walking:
    alternate("rs1_val",xlen): 0
    walking_ones("rs1_val", xlen): 0
    walking_zeros("rs1_val", xlen): 0
  rs1val_walking_unsgn:
    alternate("rs1_val",xlen,False): 0
    walking_ones("rs1_val", xlen,False): 0
    walking_zeros("rs1_val", xlen,False): 0
  rs2val_walking:
    alternate("rs2_val",xlen): 0
    walking_ones("rs2_val", xlen): 0
    walking_zeros("rs2_val", xlen): 0
  rs2val_walking_unsgn:
    alternate("rs2_val",xlen,False): 0
    walking_ones("rs2_val", xlen,False): 0
    walking_zeros("rs2_val", xlen,False): 0
  rs3val_walking:
    alternate("rs3_val",xlen): 0
    walking_ones("rs3_val", xlen): 0
    walking_zeros("rs3_val", xlen): 0
  rv32e_regs:
    x0: 0
    x1: 0
    x10: 0
    x11: 0
    x12: 0
    x13: 0
    x14: 0
    x15: 0
    x2: 0
    x3: 0
    x4: 0
    x5: 0
    x6: 0
    x7: 0
    x8: 0
    x9: 0
  rv32e_regs_mx0:
    x1: 0
    x10: 0
    x11: 0
    x12: 0
    x13: 0
    x14: 0
    x15: 0
    x2: 0
    x3: 0
    x4: 0
    x5: 0
    x6: 0
    x7: 0
    x8: 0
    x9: 0
  rv32e_regs_mx2:
    x1: 0
    x10: 0
    x11: 0
    x12: 0
    x13: 0
    x14: 0
    x15: 0
    x3: 0
    x4: 0
    x5: 0
    x6: 0
    x7: 0
    x8: 0
    x9: 0
  rvp64_rs1val_sgn:
    rs1_val == (-2**63): 0
    rs1_val == (2**63-1): 0
    rs1_val == 0: 0
    rs1_val == 1: 0
  rvp64_rs1val_unsgn:
    rs1_val == (2**64-1): 0
    rs1_val == 0: 0
    rs1_val == 1: 0
  rvp64_rs1val_walking_sgn:
    alternate("rs1_val",64): 0
    walking_ones("rs1_val", 64): 0
    walking_zeros("rs1_val", 64): 0
  rvp64_rs1val_walking_unsgn:
    alternate("rs1_val",64, signed=False): 0
    walking_ones("rs1_val", 64, signed=False): 0
    walking_zeros("rs1_val", 64, signed=False): 0
  rvp64_rs2val_sgn:
    rs2_val == (-2**63): 0
    rs2_val == (2**63-1): 0
    rs2_val == 0: 0
    rs2_val == 1: 0
  rvp64_rs2val_unsgn:
    rs2_val == (2**64-1): 0
    rs2_val == 0: 0
    rs2_val == 1: 0
  rvp64_rs2val_walking_sgn:
    alternate("rs2_val",64): 0
    walking_ones("rs2_val", 64): 0
    walking_zeros("rs2_val", 64): 0
  rvp64_rs2val_walking_unsgn:
    alternate("rs2_val",64, signed=False): 0
    walking_ones("rs2_val", 64, signed=False): 0
    walking_zeros("rs2_val", 64, signed=False): 0
  sfmt_op_comb:
    rs1 != rs2: 0
    rs1 == rs2: 0
fcvt.l.h_b1:
  config:
  - check ISA:=regex(.*I.*Zfinx.*Zhinx.*)
  mnemonics:
    fcvt.l.h: 33
    coverage: 1/1
  op_comb:
    rs1 != rd: 32
    rs1 == rd: 1
    coverage: 2/2
  rd:
    x0: 1
    x1: 1
    x10: 1
    x11: 1
    x12: 1
    x13: 1
    x14: 1
    x15: 1
    x16: 1
    x17: 1
    x18: 1
    x19: 1
    x2: 1
    x20: 1
    x21: 1
    x22: 1
    x23: 1
    x24: 1
    x25: 1
    x26: 1
    x27: 1
    x28: 1
    x29: 1
    x3: 1
    x30: 1
    x31: 2
    x4: 1
    x5: 1
    x6: 1
    x7: 1
    x8: 1
    x9: 1
    coverage: 32/32
  rs1:
    x0: 1
    x1: 1
    x10: 1
    x11: 1
    x12: 1
    x13: 1
    x14: 1
    x15: 1
    x16: 1
    x17: 1
    x18: 1
    x19: 1
    x2: 1
    x20: 1
    x21: 1
    x22: 1
    x23: 1
    x24: 1
    x25: 1
    x26: 1
    x27: 1
    x28: 1
    x29: 1
    x3: 1
    x30: 1
    x31: 2
    x4: 1
    x5: 1
    x6: 1
    x7: 1
    x8: 1
    x9: 1
    coverage: 32/32
  val_comb:
    'fs1 == 0 and fe1 == 0x00 and fm1 == 0x000 and  fcsr == 0x0 and rm_val == 7  and rs1_nan_prefix == 0xffff  #nosat': 1  #  rs1_val==hzero(0x0000)
    'fs1 == 1 and fe1 == 0x00 and fm1 == 0x000 and  fcsr == 0x0 and rm_val == 7  and rs1_nan_prefix == 0xffff  #nosat': 1 #  rs1_val==hzero(0x8000)
    'fs1 == 0 and fe1 == 0x00 and fm1 == 0x001 and  fcsr == 0x0 and rm_val == 7  and rs1_nan_prefix == 0xffff  #nosat': 1 #  rs1_val==hminsubnorm(0x0001)
    'fs1 == 1 and fe1 == 0x00 and fm1 == 0x001 and  fcsr == 0x0 and rm_val == 7  and rs1_nan_prefix == 0xffff  #nosat': 1 #  rs1_val==hminsubnorm(0x8001)
    'fs1 == 0 and fe1 == 0x00 and fm1 == 0x002 and  fcsr == 0x0 and rm_val == 7  and rs1_nan_prefix == 0xffff  #nosat': 1 #  rs1_val==hsubnorm(0x0002)
    'fs1 == 1 and fe1 == 0x00 and fm1 == 0x3fe and  fcsr == 0x0 and rm_val == 7  and rs1_nan_prefix == 0xffff  #nosat': 1 #  rs1_val==hsubnorm(0x83FE)
    'fs1 == 0 and fe1 == 0x00 and fm1 == 0x3ff and  fcsr == 0x0 and rm_val == 7  and rs1_nan_prefix == 0xffff  #nosat': 1 #  rs1_val==hmaxsubnorm(0x03FF)
    'fs1 == 1 and fe1 == 0x00 and fm1 == 0x3ff and  fcsr == 0x0 and rm_val == 7  and rs1_nan_prefix == 0xffff  #nosat': 1 #  rs1_val==hmaxsubnorm(0x83FF)
    'fs1 == 0 and fe1 == 0x01 and fm1 == 0x000 and  fcsr == 0x0 and rm_val == 7  and rs1_nan_prefix == 0xffff  #nosat': 1 #  rs1_val==hminnorm(0x0400)
    'fs1 == 1 and fe1 == 0x01 and fm1 == 0x000 and  fcsr == 0x0 and rm_val == 7  and rs1_nan_prefix == 0xffff  #nosat': 1 #  rs1_val==hminnorm(0x8400)
    'fs1 == 0 and fe1 == 0x01 and fm1 == 0x001 and  fcsr == 0x0 and rm_val == 7  and rs1_nan_prefix == 0xffff  #nosat': 1 #  rs1_val==hnorm(0x0401)
    'fs1 == 1 and fe1 == 0x01 and fm1 == 0x055 and  fcsr == 0x0 and rm_val == 7  and rs1_nan_prefix == 0xffff  #nosat': 1 #  rs1_val==hnorm(0x8455)
    'fs1 == 0 and fe1 == 0x1e and fm1 == 0x3ff and  fcsr == 0x0 and rm_val == 7  and rs1_nan_prefix == 0xffff  #nosat': 1 #  rs1_val==hmaxnorm(0x7BFF)
    'fs1 == 1 and fe1 == 0x1e and fm1 == 0x3ff and  fcsr == 0x0 and rm_val == 7  and rs1_nan_prefix == 0xffff  #nosat': 1 #  rs1_val==hmaxnorm(0xFBFF)
    'fs1 == 0 and fe1 == 0x1f and fm1 == 0x000 and  fcsr == 0x0 and rm_val == 7  and rs1_nan_prefix == 0xffff  #nosat': 1 #  rs1_val==hinfinity(0x7C00)
    'fs1 == 1 and fe1 == 0x1f and fm1 == 0x000 and  fcsr == 0x0 and rm_val == 7  and rs1_nan_prefix == 0xffff  #nosat': 1 #  rs1_val==hinfinity(0xFC00)
    'fs1 == 0 and fe1 == 0x1f and fm1 == 0x200 and  fcsr == 0x0 and rm_val == 7  and rs1_nan_prefix == 0xffff  #nosat': 1 #  rs1_val==hdefaultnan(0x7E00)
    'fs1 == 1 and fe1 == 0x1f and fm1 == 0x200 and  fcsr == 0x0 and rm_val == 7  and rs1_nan_prefix == 0xffff  #nosat': 1 #  rs1_val==hdefaultnan(0xFE00)
    'fs1 == 0 and fe1 == 0x1f and fm1 == 0x201 and  fcsr == 0x0 and rm_val == 7  and rs1_nan_prefix == 0xffff  #nosat': 1 #  rs1_val==hqnan(0x7E01)
    'fs1 == 1 and fe1 == 0x1f and fm1 == 0x255 and  fcsr == 0x0 and rm_val == 7  and rs1_nan_prefix == 0xffff  #nosat': 1 #  rs1_val==hqnan(0xFE55)
    'fs1 == 0 and fe1 == 0x1f and fm1 == 0x001 and  fcsr == 0x0 and rm_val == 7  and rs1_nan_prefix == 0xffff  #nosat': 1 #  rs1_val==hsnan(0x7C01)
    'fs1 == 1 and fe1 == 0x1f and fm1 == 0x155 and  fcsr == 0x0 and rm_val == 7  and rs1_nan_prefix == 0xffff  #nosat': 1 #  rs1_val==hsnan(0xFD55)
    'fs1 == 0 and fe1 == 0x0f and fm1 == 0x000 and  fcsr == 0x0 and rm_val == 7  and rs1_nan_prefix == 0xffff  #nosat': 1 #  rs1_val==hone(0x3C00)
    'fs1 == 1 and fe1 == 0x0f and fm1 == 0x000 and  fcsr == 0x0 and rm_val == 7  and rs1_nan_prefix == 0xffff  #nosat': 1 #  rs1_val==hone(0xBC00)
    coverage: 24/24
  total_coverage: 91/91
fcvt.l.h_b22:
  config:
  - check ISA:=regex(.*I.*Zfinx.*Zhinx.*)
  mnemonics:
    fcvt.l.h: 74
    coverage: 1/1
  op_comb:
    rs1 != rd: 73
    rs1 == rd: 1
    coverage: 2/2
  rd:
    x0: 1
    x1: 1
    x10: 1
    x11: 1
    x12: 1
    x13: 1
    x14: 1
    x15: 1
    x16: 1
    x17: 1
    x18: 1
    x19: 1
    x2: 1
    x20: 1
    x21: 1
    x22: 1
    x23: 1
    x24: 1
    x25: 1
    x26: 1
    x27: 1
    x28: 1
    x29: 1
    x3: 1
    x30: 1
    x31: 43
    x4: 1
    x5: 1
    x6: 1
    x7: 1
    x8: 1
    x9: 1
    coverage: 32/32
  rs1:
    x0: 1
    x1: 1
    x10: 1
    x11: 1
    x12: 1
    x13: 1
    x14: 1
    x15: 1
    x16: 1
    x17: 1
    x18: 1
    x19: 1
    x2: 1
    x20: 1
    x21: 1
    x22: 1
    x23: 1
    x24: 1
    x25: 1
    x26: 1
    x27: 1
    x28: 1
    x29: 1
    x3: 1
    x30: 42
    x31: 2
    x4: 1
    x5: 1
    x6: 1
    x7: 1
    x8: 1
    x9: 1
    coverage: 32/32
  val_comb:
    'fs1 == 0 and fe1 == 0x0c and fm1 == 0x249 and  fcsr == 0x0 and rm_val == 7  and rs1_nan_prefix == 0xffff  #nosat': 1  #  rs1_val==hnorm(0x3249) | Exponent: -3, Exponent in the range [-3, integer width+3]
    'fs1 == 0 and fe1 == 0x0d and fm1 == 0x1b7 and  fcsr == 0x0 and rm_val == 7  and rs1_nan_prefix == 0xffff  #nosat': 1 #  rs1_val==hnorm(0x35b7) | Exponent: -2, Exponent in the range [-3, integer width+3]
    'fs1 == 0 and fe1 == 0x0e and fm1 == 0x24f and  fcsr == 0x0 and rm_val == 7  and rs1_nan_prefix == 0xffff  #nosat': 1 #  rs1_val==hnorm(0x3a4f) | Exponent: -1, Exponent in the range [-3, integer width+3]
    'fs1 == 0 and fe1 == 0x0f and fm1 == 0x0d3 and  fcsr == 0x0 and rm_val == 7  and rs1_nan_prefix == 0xffff  #nosat': 1 #  rs1_val==hnorm(0x3cd3) | Exponent: 0, Exponent in the range [-3, integer width+3]
    'fs1 == 0 and fe1 == 0x10 and fm1 == 0x340 and  fcsr == 0x0 and rm_val == 7  and rs1_nan_prefix == 0xffff  #nosat': 1 #  rs1_val==hnorm(0x4340) | Exponent: 1, Exponent in the range [-3, integer width+3]
    'fs1 == 0 and fe1 == 0x11 and fm1 == 0x34b and  fcsr == 0x0 and rm_val == 7  and rs1_nan_prefix == 0xffff  #nosat': 1 #  rs1_val==hnorm(0x474b) | Exponent: 2, Exponent in the range [-3, integer width+3]
    'fs1 == 1 and fe1 == 0x12 and fm1 == 0x29d and  fcsr == 0x0 and rm_val == 7  and rs1_nan_prefix == 0xffff  #nosat': 1 #  rs1_val==hnorm(0xca9d) | Exponent: 3, Exponent in the range [-3, integer width+3]
    'fs1 == 0 and fe1 == 0x13 and fm1 == 0x0a4 and  fcsr == 0x0 and rm_val == 7  and rs1_nan_prefix == 0xffff  #nosat': 1 #  rs1_val==hnorm(0x4ca4) | Exponent: 4, Exponent in the range [-3, integer width+3]
    'fs1 == 0 and fe1 == 0x14 and fm1 == 0x215 and  fcsr == 0x0 and rm_val == 7  and rs1_nan_prefix == 0xffff  #nosat': 1 #  rs1_val==hnorm(0x5215) | Exponent: 5, Exponent in the range [-3, integer width+3]
    'fs1 == 0 and fe1 == 0x15 and fm1 == 0x14f and  fcsr == 0x0 and rm_val == 7  and rs1_nan_prefix == 0xffff  #nosat': 1 #  rs1_val==hnorm(0x554f) | Exponent: 6, Exponent in the range [-3, integer width+3]
    'fs1 == 1 and fe1 == 0x16 and fm1 == 0x0ff and  fcsr == 0x0 and rm_val == 7  and rs1_nan_prefix == 0xffff  #nosat': 1 #  rs1_val==hnorm(0xd8ff) | Exponent: 7, Exponent in the range [-3, integer width+3]
    'fs1 == 1 and fe1 == 0x17 and fm1 == 0x3cf and  fcsr == 0x0 and rm_val == 7  and rs1_nan_prefix == 0xffff  #nosat': 1 #  rs1_val==hnorm(0xdfcf) | Exponent: 8, Exponent in the range [-3, integer width+3]
    'fs1 == 0 and fe1 == 0x18 and fm1 == 0x3fc and  fcsr == 0x0 and rm_val == 7  and rs1_nan_prefix == 0xffff  #nosat': 1 #  rs1_val==hnorm(0x63fc) | Exponent: 9, Exponent in the range [-3, integer width+3]
    'fs1 == 0 and fe1 == 0x19 and fm1 == 0x02d and  fcsr == 0x0 and rm_val == 7  and rs1_nan_prefix == 0xffff  #nosat': 1 #  rs1_val==hnorm(0x642d) | Exponent: 10, Exponent in the range [-3, integer width+3]
    'fs1 == 0 and fe1 == 0x1a and fm1 == 0x370 and  fcsr == 0x0 and rm_val == 7  and rs1_nan_prefix == 0xffff  #nosat': 1 #  rs1_val==hnorm(0x6b70) | Exponent: 11, Exponent in the range [-3, integer width+3]
    'fs1 == 0 and fe1 == 0x1b and fm1 == 0x269 and  fcsr == 0x0 and rm_val == 7  and rs1_nan_prefix == 0xffff  #nosat': 1 #  rs1_val==hnorm(0x6e69) | Exponent: 12, Exponent in the range [-3, integer width+3]
    'fs1 == 0 and fe1 == 0x1c and fm1 == 0x186 and  fcsr == 0x0 and rm_val == 7  and rs1_nan_prefix == 0xffff  #nosat': 1 #  rs1_val==hnorm(0x7186) | Exponent: 13, Exponent in the range [-3, integer width+3]
    'fs1 == 1 and fe1 == 0x1d and fm1 == 0x122 and  fcsr == 0x0 and rm_val == 7  and rs1_nan_prefix == 0xffff  #nosat': 1 #  rs1_val==hnorm(0xf522) | Exponent: 14, Exponent in the range [-3, integer width+3]
    'fs1 == 0 and fe1 == 0x1e and fm1 == 0x2b3 and  fcsr == 0x0 and rm_val == 7  and rs1_nan_prefix == 0xffff  #nosat': 1 #  rs1_val==hnorm(0x7ab3) | Exponent: 15, Exponent in the range [-3, integer width+3]
    'fs1 == 0 and fe1 == 0x1e and fm1 == 0x3ff and  fcsr == 0x0 and rm_val == 7  and rs1_nan_prefix == 0xffff  #nosat': 1 #  rs1_val==hmaxnorm(0x7BFF) | Exponent: 16, Exponent in the range [-3, integer width+3]
    'fs1 == 1 and fe1 == 0x00 and fm1 == 0x2be and  fcsr == 0x0 and rm_val == 7  and rs1_nan_prefix == 0xffff  #nosat': 1 #  rs1_val==hsubnorm(0x82be) | Exponent: 17, Exponent in the range [-3, integer width+3]
    'fs1 == 1 and fe1 == 0x01 and fm1 == 0x2a5 and  fcsr == 0x0 and rm_val == 7  and rs1_nan_prefix == 0xffff  #nosat': 1 #  rs1_val==hnorm(0x86a5) | Exponent: 18, Exponent in the range [-3, integer width+3]
    'fs1 == 1 and fe1 == 0x02 and fm1 == 0x088 and  fcsr == 0x0 and rm_val == 7  and rs1_nan_prefix == 0xffff  #nosat': 1 #  rs1_val==hnorm(0x8888) | Exponent: 19, Exponent in the range [-3, integer width+3]
    'fs1 == 1 and fe1 == 0x03 and fm1 == 0x312 and  fcsr == 0x0 and rm_val == 7  and rs1_nan_prefix == 0xffff  #nosat': 1 #  rs1_val==hnorm(0x8f12) | Exponent: 20, Exponent in the range [-3, integer width+3]
    'fs1 == 1 and fe1 == 0x04 and fm1 == 0x3ed and  fcsr == 0x0 and rm_val == 7  and rs1_nan_prefix == 0xffff  #nosat': 1 #  rs1_val==hnorm(0x93ed) | Exponent: 21, Exponent in the range [-3, integer width+3]
    'fs1 == 1 and fe1 == 0x05 and fm1 == 0x3e0 and  fcsr == 0x0 and rm_val == 7  and rs1_nan_prefix == 0xffff  #nosat': 1 #  rs1_val==hnorm(0x97e0) | Exponent: 22, Exponent in the range [-3, integer width+3]
    'fs1 == 1 and fe1 == 0x06 and fm1 == 0x274 and  fcsr == 0x0 and rm_val == 7  and rs1_nan_prefix == 0xffff  #nosat': 1 #  rs1_val==hnorm(0x9a74) | Exponent: 23, Exponent in the range [-3, integer width+3]
    'fs1 == 1 and fe1 == 0x07 and fm1 == 0x02d and  fcsr == 0x0 and rm_val == 7  and rs1_nan_prefix == 0xffff  #nosat': 1 #  rs1_val==hnorm(0x9c2d) | Exponent: 24, Exponent in the range [-3, integer width+3]
    'fs1 == 1 and fe1 == 0x08 and fm1 == 0x004 and  fcsr == 0x0 and rm_val == 7  and rs1_nan_prefix == 0xffff  #nosat': 1 #  rs1_val==hnorm(0xa004) | Exponent: 25, Exponent in the range [-3, integer width+3]
    'fs1 == 1 and fe1 == 0x09 and fm1 == 0x089 and  fcsr == 0x0 and rm_val == 7  and rs1_nan_prefix == 0xffff  #nosat': 1 #  rs1_val==hnorm(0xa489) | Exponent: 26, Exponent in the range [-3, integer width+3]
    'fs1 == 1 and fe1 == 0x0a and fm1 == 0x3c3 and  fcsr == 0x0 and rm_val == 7  and rs1_nan_prefix == 0xffff  #nosat': 1 #  rs1_val==hnorm(0xabc3) | Exponent: 27, Exponent in the range [-3, integer width+3]
    'fs1 == 1 and fe1 == 0x0b and fm1 == 0x136 and  fcsr == 0x0 and rm_val == 7  and rs1_nan_prefix == 0xffff  #nosat': 1 #  rs1_val==hnorm(0xad36) | Exponent: 28, Exponent in the range [-3, integer width+3]
    'fs1 == 1 and fe1 == 0x0c and fm1 == 0x176 and  fcsr == 0x0 and rm_val == 7  and rs1_nan_prefix == 0xffff  #nosat': 2 #  rs1_val==hnorm(0xb176) | Exponent: 29, Exponent in the range [-3, integer width+3]
    'fs1 == 1 and fe1 == 0x0d and fm1 == 0x397 and  fcsr == 0x0 and rm_val == 7  and rs1_nan_prefix == 0xffff  #nosat': 1 #  rs1_val==hnorm(0xb797) | Exponent: 30, Exponent in the range [-3, integer width+3]
    'fs1 == 1 and fe1 == 0x0e and fm1 == 0x141 and  fcsr == 0x0 and rm_val == 7  and rs1_nan_prefix == 0xffff  #nosat': 1 #  rs1_val==hnorm(0xb941) | Exponent: 31, Exponent in the range [-3, integer width+3]
    'fs1 == 1 and fe1 == 0x0f and fm1 == 0x232 and  fcsr == 0x0 and rm_val == 7  and rs1_nan_prefix == 0xffff  #nosat': 1 #  rs1_val==hnorm(0xbe32) | Exponent: 32, Exponent in the range [-3, integer width+3]
    'fs1 == 1 and fe1 == 0x10 and fm1 == 0x1be and  fcsr == 0x0 and rm_val == 7  and rs1_nan_prefix == 0xffff  #nosat': 1 #  rs1_val==hnorm(0xc1be) | Exponent: 33, Exponent in the range [-3, integer width+3]
    'fs1 == 1 and fe1 == 0x11 and fm1 == 0x042 and  fcsr == 0x0 and rm_val == 7  and rs1_nan_prefix == 0xffff  #nosat': 1 #  rs1_val==hnorm(0xc442) | Exponent: 34, Exponent in the range [-3, integer width+3]
    'fs1 == 1 and fe1 == 0x12 and fm1 == 0x256 and  fcsr == 0x0 and rm_val == 7  and rs1_nan_prefix == 0xffff  #nosat': 1 #  rs1_val==hnorm(0xca56) | Exponent: 35, Exponent in the range [-3, integer width+3]
    'fs1 == 1 and fe1 == 0x13 and fm1 == 0x360 and  fcsr == 0x0 and rm_val == 7  and rs1_nan_prefix == 0xffff  #nosat': 1 #  rs1_val==hnorm(0xcf60) | Exponent: 36, Exponent in the range [-3, integer width+3]
    'fs1 == 1 and fe1 == 0x14 and fm1 == 0x0a0 and  fcsr == 0x0 and rm_val == 7  and rs1_nan_prefix == 0xffff  #nosat': 1 #  rs1_val==hnorm(0xd0a0) | Exponent: 37, Exponent in the range [-3, integer width+3]
    'fs1 == 1 and fe1 == 0x15 and fm1 == 0x0e5 and  fcsr == 0x0 and rm_val == 7  and rs1_nan_prefix == 0xffff  #nosat': 1 #  rs1_val==hnorm(0xd4e5) | Exponent: 38, Exponent in the range [-3, integer width+3]
    'fs1 == 1 and fe1 == 0x16 and fm1 == 0x1a6 and  fcsr == 0x0 and rm_val == 7  and rs1_nan_prefix == 0xffff  #nosat': 1 #  rs1_val==hnorm(0xd9a6) | Exponent: 39, Exponent in the range [-3, integer width+3]
    'fs1 == 1 and fe1 == 0x17 and fm1 == 0x025 and  fcsr == 0x0 and rm_val == 7  and rs1_nan_prefix == 0xffff  #nosat': 1 #  rs1_val==hnorm(0xdc25) | Exponent: 40, Exponent in the range [-3, integer width+3]
    'fs1 == 1 and fe1 == 0x18 and fm1 == 0x1fc and  fcsr == 0x0 and rm_val == 7  and rs1_nan_prefix == 0xffff  #nosat': 1 #  rs1_val==hnorm(0xe1fc) | Exponent: 41, Exponent in the range [-3, integer width+3]
    'fs1 == 1 and fe1 == 0x19 and fm1 == 0x345 and  fcsr == 0x0 and rm_val == 7  and rs1_nan_prefix == 0xffff  #nosat': 1 #  rs1_val==hnorm(0xe745) | Exponent: 42, Exponent in the range [-3, integer width+3]
    'fs1 == 1 and fe1 == 0x1a and fm1 == 0x2a1 and  fcsr == 0x0 and rm_val == 7  and rs1_nan_prefix == 0xffff  #nosat': 1 #  rs1_val==hnorm(0xeaa1) | Exponent: 43, Exponent in the range [-3, integer width+3]
    'fs1 == 1 and fe1 == 0x1b and fm1 == 0x222 and  fcsr == 0x0 and rm_val == 7  and rs1_nan_prefix == 0xffff  #nosat': 1 #  rs1_val==hnorm(0xee22) | Exponent: 44, Exponent in the range [-3, integer width+3]
    'fs1 == 1 and fe1 == 0x1c and fm1 == 0x36b and  fcsr == 0x0 and rm_val == 7  and rs1_nan_prefix == 0xffff  #nosat': 1 #  rs1_val==hnorm(0xf36b) | Exponent: 45, Exponent in the range [-3, integer width+3]
    'fs1 == 1 and fe1 == 0x1d and fm1 == 0x099 and  fcsr == 0x0 and rm_val == 7  and rs1_nan_prefix == 0xffff  #nosat': 1 #  rs1_val==hnorm(0xf499) | Exponent: 46, Exponent in the range [-3, integer width+3]
    'fs1 == 1 and fe1 == 0x1e and fm1 == 0x244 and  fcsr == 0x0 and rm_val == 7  and rs1_nan_prefix == 0xffff  #nosat': 1 #  rs1_val==hnorm(0xfa44) | Exponent: 47, Exponent in the range [-3, integer width+3]
    'fs1 == 1 and fe1 == 0x1e and fm1 == 0x3ff and  fcsr == 0x0 and rm_val == 7  and rs1_nan_prefix == 0xffff  #nosat': 1 #  rs1_val==hmaxnorm(0xFBFF) | Exponent: 48, Exponent in the range [-3, integer width+3]
    'fs1 == 0 and fe1 == 0x00 and fm1 == 0x267 and  fcsr == 0x0 and rm_val == 7  and rs1_nan_prefix == 0xffff  #nosat': 1 #  rs1_val==hsubnorm(0x0267) | Exponent: 49, Exponent in the range [-3, integer width+3]
    'fs1 == 0 and fe1 == 0x01 and fm1 == 0x073 and  fcsr == 0x0 and rm_val == 7  and rs1_nan_prefix == 0xffff  #nosat': 1 #  rs1_val==hnorm(0x0473) | Exponent: 50, Exponent in the range [-3, integer width+3]
    'fs1 == 0 and fe1 == 0x02 and fm1 == 0x31a and  fcsr == 0x0 and rm_val == 7  and rs1_nan_prefix == 0xffff  #nosat': 1 #  rs1_val==hnorm(0x0b1a) | Exponent: 51, Exponent in the range [-3, integer width+3]
    'fs1 == 0 and fe1 == 0x03 and fm1 == 0x062 and  fcsr == 0x0 and rm_val == 7  and rs1_nan_prefix == 0xffff  #nosat': 1 #  rs1_val==hnorm(0x0c62) | Exponent: 52, Exponent in the range [-3, integer width+3]
    'fs1 == 0 and fe1 == 0x04 and fm1 == 0x0aa and  fcsr == 0x0 and rm_val == 7  and rs1_nan_prefix == 0xffff  #nosat': 1 #  rs1_val==hnorm(0x10aa) | Exponent: 53, Exponent in the range [-3, integer width+3]
    'fs1 == 0 and fe1 == 0x05 and fm1 == 0x33a and  fcsr == 0x0 and rm_val == 7  and rs1_nan_prefix == 0xffff  #nosat': 1 #  rs1_val==hnorm(0x173a) | Exponent: 54, Exponent in the range [-3, integer width+3]
    'fs1 == 0 and fe1 == 0x06 and fm1 == 0x3ca and  fcsr == 0x0 and rm_val == 7  and rs1_nan_prefix == 0xffff  #nosat': 1 #  rs1_val==hnorm(0x1bca) | Exponent: 55, Exponent in the range [-3, integer width+3]
    'fs1 == 0 and fe1 == 0x07 and fm1 == 0x1bb and  fcsr == 0x0 and rm_val == 7  and rs1_nan_prefix == 0xffff  #nosat': 1 #  rs1_val==hnorm(0x1dbb) | Exponent: 56, Exponent in the range [-3, integer width+3]
    'fs1 == 0 and fe1 == 0x08 and fm1 == 0x1a8 and  fcsr == 0x0 and rm_val == 7  and rs1_nan_prefix == 0xffff  #nosat': 1 #  rs1_val==hnorm(0x21a8) | Exponent: 57, Exponent in the range [-3, integer width+3]
    'fs1 == 0 and fe1 == 0x09 and fm1 == 0x0fb and  fcsr == 0x0 and rm_val == 7  and rs1_nan_prefix == 0xffff  #nosat': 1 #  rs1_val==hnorm(0x24fb) | Exponent: 58, Exponent in the range [-3, integer width+3]
    'fs1 == 0 and fe1 == 0x0a and fm1 == 0x119 and  fcsr == 0x0 and rm_val == 7  and rs1_nan_prefix == 0xffff  #nosat': 1 #  rs1_val==hnorm(0x2919) | Exponent: 59, Exponent in the range [-3, integer width+3]
    'fs1 == 0 and fe1 == 0x0b and fm1 == 0x278 and  fcsr == 0x0 and rm_val == 7  and rs1_nan_prefix == 0xffff  #nosat': 1 #  rs1_val==hnorm(0x2e78) | Exponent: 60, Exponent in the range [-3, integer width+3]
    'fs1 == 0 and fe1 == 0x0c and fm1 == 0x0b6 and  fcsr == 0x0 and rm_val == 7  and rs1_nan_prefix == 0xffff  #nosat': 1 #  rs1_val==hnorm(0x30b6) | Exponent: 61, Exponent in the range [-3, integer width+3]
    'fs1 == 0 and fe1 == 0x0d and fm1 == 0x07a and  fcsr == 0x0 and rm_val == 7  and rs1_nan_prefix == 0xffff  #nosat': 1 #  rs1_val==hnorm(0x347a) | Exponent: 62, Exponent in the range [-3, integer width+3]
    'fs1 == 0 and fe1 == 0x0e and fm1 == 0x1d2 and  fcsr == 0x0 and rm_val == 7  and rs1_nan_prefix == 0xffff  #nosat': 1 #  rs1_val==hnorm(0x39d2) | Exponent: 63, Exponent in the range [-3, integer width+3]
    'fs1 == 0 and fe1 == 0x0f and fm1 == 0x0a8 and  fcsr == 0x0 and rm_val == 7  and rs1_nan_prefix == 0xffff  #nosat': 1 #  rs1_val==hnorm(0x3ca8) | Exponent: 64, Exponent in the range [-3, integer width+3]
    'fs1 == 0 and fe1 == 0x10 and fm1 == 0x298 and  fcsr == 0x0 and rm_val == 7  and rs1_nan_prefix == 0xffff  #nosat': 1 #  rs1_val==hnorm(0x4298) | Exponent: 65, Exponent in the range [-3, integer width+3]
    'fs1 == 0 and fe1 == 0x11 and fm1 == 0x348 and  fcsr == 0x0 and rm_val == 7  and rs1_nan_prefix == 0xffff  #nosat': 1 #  rs1_val==hnorm(0x4748) | Exponent: 66, Exponent in the range [-3, integer width+3]
    'fs1 == 0 and fe1 == 0x16 and fm1 == 0x31c and  fcsr == 0x0 and rm_val == 7  and rs1_nan_prefix == 0xffff  #nosat': 1 #  rs1_val==hnorm(0x5b1c) | Exponent: 7, Exponent less than -3
    'fs1 == 0 and fe1 == 0x18 and fm1 == 0x317 and  fcsr == 0x0 and rm_val == 7  and rs1_nan_prefix == 0xffff  #nosat': 1 #  rs1_val==hnorm(0x6317) | Exponent: 201, Exponent greater than (integer width+3)
    coverage: 72/72
  total_coverage: 139/139
fcvt.l.h_b23:
  config:
  - check ISA:=regex(.*I.*Zfinx.*Zhinx.*)
  mnemonics:
    fcvt.l.h: 47
    coverage: 1/1
  op_comb:
    rs1 != rd: 46
    rs1 == rd: 1
    coverage: 2/2
  rd:
    x0: 1
    x1: 1
    x10: 1
    x11: 1
    x12: 1
    x13: 1
    x14: 1
    x15: 1
    x16: 1
    x17: 1
    x18: 1
    x19: 1
    x2: 1
    x20: 1
    x21: 1
    x22: 1
    x23: 1
    x24: 1
    x25: 1
    x26: 1
    x27: 1
    x28: 1
    x29: 1
    x3: 1
    x30: 1
    x31: 16
    x4: 1
    x5: 1
    x6: 1
    x7: 1
    x8: 1
    x9: 1
    coverage: 32/32
  rs1:
    x0: 1
    x1: 1
    x10: 1
    x11: 1
    x12: 1
    x13: 1
    x14: 1
    x15: 1
    x16: 1
    x17: 1
    x18: 1
    x19: 1
    x2: 1
    x20: 1
    x21: 1
    x22: 1
    x23: 1
    x24: 1
    x25: 1
    x26: 1
    x27: 1
    x28: 1
    x29: 1
    x3: 1
    x30: 15
    x31: 2
    x4: 1
    x5: 1
    x6: 1
    x7: 1
    x8: 1
    x9: 1
    coverage: 32/32
  val_comb:
    'fs1 == 0 and fe1 == 0x1d and fm1 == 0x3fc and  fcsr == 0x0 and rm_val == 7  and rs1_nan_prefix == 0xffff  #nosat': 1  #  rs1_val==hnorm(0x77fc) | MaxInt + (-4)
    'fs1 == 0 and fe1 == 0x1d and fm1 == 0x3fc and  fcsr == 0x20 and rm_val == 7  and rs1_nan_prefix == 0xffff  #nosat': 1 #  rs1_val==hnorm(0x77fc) | MaxInt + (-4)
    'fs1 == 0 and fe1 == 0x1d and fm1 == 0x3fc and  fcsr == 0x40 and rm_val == 7  and rs1_nan_prefix == 0xffff  #nosat': 1 #  rs1_val==hnorm(0x77fc) | MaxInt + (-4)
    'fs1 == 0 and fe1 == 0x1d and fm1 == 0x3fc and  fcsr == 0x60 and rm_val == 7  and rs1_nan_prefix == 0xffff  #nosat': 1 #  rs1_val==hnorm(0x77fc) | MaxInt + (-4)
    'fs1 == 0 and fe1 == 0x1d and fm1 == 0x3fc and  fcsr == 0x80 and rm_val == 7  and rs1_nan_prefix == 0xffff  #nosat': 1 #  rs1_val==hnorm(0x77fc) | MaxInt + (-4)
    'fs1 == 0 and fe1 == 0x1d and fm1 == 0x3fd and  fcsr == 0x0 and rm_val == 7  and rs1_nan_prefix == 0xffff  #nosat': 1 #  rs1_val==hnorm(0x77fd) | MaxInt + (-3)
    'fs1 == 0 and fe1 == 0x1d and fm1 == 0x3fd and  fcsr == 0x20 and rm_val == 7  and rs1_nan_prefix == 0xffff  #nosat': 1 #  rs1_val==hnorm(0x77fd) | MaxInt + (-3)
    'fs1 == 0 and fe1 == 0x1d and fm1 == 0x3fd and  fcsr == 0x40 and rm_val == 7  and rs1_nan_prefix == 0xffff  #nosat': 1 #  rs1_val==hnorm(0x77fd) | MaxInt + (-3)
    'fs1 == 0 and fe1 == 0x1d and fm1 == 0x3fd and  fcsr == 0x60 and rm_val == 7  and rs1_nan_prefix == 0xffff  #nosat': 1 #  rs1_val==hnorm(0x77fd) | MaxInt + (-3)
    'fs1 == 0 and fe1 == 0x1d and fm1 == 0x3fd and  fcsr == 0x80 and rm_val == 7  and rs1_nan_prefix == 0xffff  #nosat': 1 #  rs1_val==hnorm(0x77fd) | MaxInt + (-3)
    'fs1 == 0 and fe1 == 0x1d and fm1 == 0x3fe and  fcsr == 0x0 and rm_val == 7  and rs1_nan_prefix == 0xffff  #nosat': 1 #  rs1_val==hnorm(0x77fe) | MaxInt + (-2)
    'fs1 == 0 and fe1 == 0x1d and fm1 == 0x3fe and  fcsr == 0x20 and rm_val == 7  and rs1_nan_prefix == 0xffff  #nosat': 1 #  rs1_val==hnorm(0x77fe) | MaxInt + (-2)
    'fs1 == 0 and fe1 == 0x1d and fm1 == 0x3fe and  fcsr == 0x40 and rm_val == 7  and rs1_nan_prefix == 0xffff  #nosat': 1 #  rs1_val==hnorm(0x77fe) | MaxInt + (-2)
    'fs1 == 0 and fe1 == 0x1d and fm1 == 0x3fe and  fcsr == 0x60 and rm_val == 7  and rs1_nan_prefix == 0xffff  #nosat': 1 #  rs1_val==hnorm(0x77fe) | MaxInt + (-2)
    'fs1 == 0 and fe1 == 0x1d and fm1 == 0x3fe and  fcsr == 0x80 and rm_val == 7  and rs1_nan_prefix == 0xffff  #nosat': 1 #  rs1_val==hnorm(0x77fe) | MaxInt + (-2)
    'fs1 == 0 and fe1 == 0x1d and fm1 == 0x3ff and  fcsr == 0x0 and rm_val == 7  and rs1_nan_prefix == 0xffff  #nosat': 1 #  rs1_val==hnorm(0x77ff) | MaxInt + (-1)
    'fs1 == 0 and fe1 == 0x1d and fm1 == 0x3ff and  fcsr == 0x20 and rm_val == 7  and rs1_nan_prefix == 0xffff  #nosat': 1 #  rs1_val==hnorm(0x77ff) | MaxInt + (-1)
    'fs1 == 0 and fe1 == 0x1d and fm1 == 0x3ff and  fcsr == 0x40 and rm_val == 7  and rs1_nan_prefix == 0xffff  #nosat': 1 #  rs1_val==hnorm(0x77ff) | MaxInt + (-1)
    'fs1 == 0 and fe1 == 0x1d and fm1 == 0x3ff and  fcsr == 0x60 and rm_val == 7  and rs1_nan_prefix == 0xffff  #nosat': 1 #  rs1_val==hnorm(0x77ff) | MaxInt + (-1)
    'fs1 == 0 and fe1 == 0x1d and fm1 == 0x3ff and  fcsr == 0x80 and rm_val == 7  and rs1_nan_prefix == 0xffff  #nosat': 1 #  rs1_val==hnorm(0x77ff) | MaxInt + (-1)
    'fs1 == 0 and fe1 == 0x1e and fm1 == 0x000 and  fcsr == 0x0 and rm_val == 7  and rs1_nan_prefix == 0xffff  #nosat': 1 #  rs1_val==hnorm(0x7800) | MaxInt + (0)
    'fs1 == 0 and fe1 == 0x1e and fm1 == 0x000 and  fcsr == 0x20 and rm_val == 7  and rs1_nan_prefix == 0xffff  #nosat': 1 #  rs1_val==hnorm(0x7800) | MaxInt + (0)
    'fs1 == 0 and fe1 == 0x1e and fm1 == 0x000 and  fcsr == 0x40 and rm_val == 7  and rs1_nan_prefix == 0xffff  #nosat': 1 #  rs1_val==hnorm(0x7800) | MaxInt + (0)
    'fs1 == 0 and fe1 == 0x1e and fm1 == 0x000 and  fcsr == 0x60 and rm_val == 7  and rs1_nan_prefix == 0xffff  #nosat': 1 #  rs1_val==hnorm(0x7800) | MaxInt + (0)
    'fs1 == 0 and fe1 == 0x1e and fm1 == 0x000 and  fcsr == 0x80 and rm_val == 7  and rs1_nan_prefix == 0xffff  #nosat': 1 #  rs1_val==hnorm(0x7800) | MaxInt + (0)
    'fs1 == 0 and fe1 == 0x1e and fm1 == 0x001 and  fcsr == 0x0 and rm_val == 7  and rs1_nan_prefix == 0xffff  #nosat': 1 #  rs1_val==hnorm(0x7801) | MaxInt + (1)
    'fs1 == 0 and fe1 == 0x1e and fm1 == 0x001 and  fcsr == 0x20 and rm_val == 7  and rs1_nan_prefix == 0xffff  #nosat': 1 #  rs1_val==hnorm(0x7801) | MaxInt + (1)
    'fs1 == 0 and fe1 == 0x1e and fm1 == 0x001 and  fcsr == 0x40 and rm_val == 7  and rs1_nan_prefix == 0xffff  #nosat': 1 #  rs1_val==hnorm(0x7801) | MaxInt + (1)
    'fs1 == 0 and fe1 == 0x1e and fm1 == 0x001 and  fcsr == 0x60 and rm_val == 7  and rs1_nan_prefix == 0xffff  #nosat': 1 #  rs1_val==hnorm(0x7801) | MaxInt + (1)
    'fs1 == 0 and fe1 == 0x1e and fm1 == 0x001 and  fcsr == 0x80 and rm_val == 7  and rs1_nan_prefix == 0xffff  #nosat': 1 #  rs1_val==hnorm(0x7801) | MaxInt + (1)
    'fs1 == 0 and fe1 == 0x1e and fm1 == 0x002 and  fcsr == 0x0 and rm_val == 7  and rs1_nan_prefix == 0xffff  #nosat': 1 #  rs1_val==hnorm(0x7802) | MaxInt + (2)
    'fs1 == 0 and fe1 == 0x1e and fm1 == 0x002 and  fcsr == 0x20 and rm_val == 7  and rs1_nan_prefix == 0xffff  #nosat': 1 #  rs1_val==hnorm(0x7802) | MaxInt + (2)
    'fs1 == 0 and fe1 == 0x1e and fm1 == 0x002 and  fcsr == 0x40 and rm_val == 7  and rs1_nan_prefix == 0xffff  #nosat': 2 #  rs1_val==hnorm(0x7802) | MaxInt + (2)
    'fs1 == 0 and fe1 == 0x1e and fm1 == 0x002 and  fcsr == 0x60 and rm_val == 7  and rs1_nan_prefix == 0xffff  #nosat': 1 #  rs1_val==hnorm(0x7802) | MaxInt + (2)
    'fs1 == 0 and fe1 == 0x1e and fm1 == 0x002 and  fcsr == 0x80 and rm_val == 7  and rs1_nan_prefix == 0xffff  #nosat': 1 #  rs1_val==hnorm(0x7802) | MaxInt + (2)
    'fs1 == 0 and fe1 == 0x1e and fm1 == 0x003 and  fcsr == 0x0 and rm_val == 7  and rs1_nan_prefix == 0xffff  #nosat': 1 #  rs1_val==hnorm(0x7803) | MaxInt + (3)
    'fs1 == 0 and fe1 == 0x1e and fm1 == 0x003 and  fcsr == 0x20 and rm_val == 7  and rs1_nan_prefix == 0xffff  #nosat': 1 #  rs1_val==hnorm(0x7803) | MaxInt + (3)
    'fs1 == 0 and fe1 == 0x1e and fm1 == 0x003 and  fcsr == 0x40 and rm_val == 7  and rs1_nan_prefix == 0xffff  #nosat': 1 #  rs1_val==hnorm(0x7803) | MaxInt + (3)
    'fs1 == 0 and fe1 == 0x1e and fm1 == 0x003 and  fcsr == 0x60 and rm_val == 7  and rs1_nan_prefix == 0xffff  #nosat': 1 #  rs1_val==hnorm(0x7803) | MaxInt + (3)
    'fs1 == 0 and fe1 == 0x1e and fm1 == 0x003 and  fcsr == 0x80 and rm_val == 7  and rs1_nan_prefix == 0xffff  #nosat': 1 #  rs1_val==hnorm(0x7803) | MaxInt + (3)
    'fs1 == 0 and fe1 == 0x1e and fm1 == 0x004 and  fcsr == 0x0 and rm_val == 7  and rs1_nan_prefix == 0xffff  #nosat': 1 #  rs1_val==hnorm(0x7804) | MaxInt + (4)
    'fs1 == 0 and fe1 == 0x1e and fm1 == 0x004 and  fcsr == 0x20 and rm_val == 7  and rs1_nan_prefix == 0xffff  #nosat': 1 #  rs1_val==hnorm(0x7804) | MaxInt + (4)
    'fs1 == 0 and fe1 == 0x1e and fm1 == 0x004 and  fcsr == 0x40 and rm_val == 7  and rs1_nan_prefix == 0xffff  #nosat': 1 #  rs1_val==hnorm(0x7804) | MaxInt + (4)
    'fs1 == 0 and fe1 == 0x1e and fm1 == 0x004 and  fcsr == 0x60 and rm_val == 7  and rs1_nan_prefix == 0xffff  #nosat': 1 #  rs1_val==hnorm(0x7804) | MaxInt + (4)
    'fs1 == 0 and fe1 == 0x1e and fm1 == 0x004 and  fcsr == 0x80 and rm_val == 7  and rs1_nan_prefix == 0xffff  #nosat': 1 #  rs1_val==hnorm(0x7804) | MaxInt + (4)
    coverage: 45/45
  total_coverage: 112/112
fcvt.l.h_b24:
  config:
  - check ISA:=regex(.*I.*Zfinx.*Zhinx.*)
  mnemonics:
    fcvt.l.h: 107
    coverage: 1/1
  op_comb:
    rs1 != rd: 106
    rs1 == rd: 1
    coverage: 2/2
  rd:
    x0: 1
    x1: 1
    x10: 1
    x11: 1
    x12: 1
    x13: 1
    x14: 1
    x15: 1
    x16: 1
    x17: 1
    x18: 1
    x19: 1
    x2: 1
    x20: 1
    x21: 1
    x22: 1
    x23: 1
    x24: 1
    x25: 1
    x26: 1
    x27: 1
    x28: 1
    x29: 1
    x3: 1
    x30: 1
    x31: 76
    x4: 1
    x5: 1
    x6: 1
    x7: 1
    x8: 1
    x9: 1
    coverage: 32/32
  rs1:
    x0: 1
    x1: 1
    x10: 1
    x11: 1
    x12: 1
    x13: 1
    x14: 1
    x15: 1
    x16: 1
    x17: 1
    x18: 1
    x19: 1
    x2: 1
    x20: 1
    x21: 1
    x22: 1
    x23: 1
    x24: 1
    x25: 1
    x26: 1
    x27: 1
    x28: 1
    x29: 1
    x3: 1
    x30: 75
    x31: 2
    x4: 1
    x5: 1
    x6: 1
    x7: 1
    x8: 1
    x9: 1
    coverage: 32/32
  val_comb:
    'fs1 == 0 and fe1 == 0x08 and fm1 == 0x11e and  fcsr == 0x0 and rm_val == 7  and rs1_nan_prefix == 0xffff  #nosat': 1  #  rs1_val==hnorm(0x211e) | +0+0.01
    'fs1 == 0 and fe1 == 0x08 and fm1 == 0x11e and  fcsr == 0x20 and rm_val == 7  and rs1_nan_prefix == 0xffff  #nosat': 1 #  rs1_val==hnorm(0x211e) | +0+0.01
    'fs1 == 0 and fe1 == 0x08 and fm1 == 0x11e and  fcsr == 0x40 and rm_val == 7  and rs1_nan_prefix == 0xffff  #nosat': 2 #  rs1_val==hnorm(0x211e) | +0+0.01
    'fs1 == 0 and fe1 == 0x08 and fm1 == 0x11e and  fcsr == 0x60 and rm_val == 7  and rs1_nan_prefix == 0xffff  #nosat': 1 #  rs1_val==hnorm(0x211e) | +0+0.01
    'fs1 == 0 and fe1 == 0x08 and fm1 == 0x11e and  fcsr == 0x80 and rm_val == 7  and rs1_nan_prefix == 0xffff  #nosat': 1 #  rs1_val==hnorm(0x211e) | +0+0.01
    'fs1 == 0 and fe1 == 0x0e and fm1 == 0x3eb and  fcsr == 0x0 and rm_val == 7  and rs1_nan_prefix == 0xffff  #nosat': 1 #  rs1_val==hnorm(0x3beb) | +1-0.01
    'fs1 == 0 and fe1 == 0x0e and fm1 == 0x3eb and  fcsr == 0x20 and rm_val == 7  and rs1_nan_prefix == 0xffff  #nosat': 1 #  rs1_val==hnorm(0x3beb) | +1-0.01
    'fs1 == 0 and fe1 == 0x0e and fm1 == 0x3eb and  fcsr == 0x40 and rm_val == 7  and rs1_nan_prefix == 0xffff  #nosat': 1 #  rs1_val==hnorm(0x3beb) | +1-0.01
    'fs1 == 0 and fe1 == 0x0e and fm1 == 0x3eb and  fcsr == 0x60 and rm_val == 7  and rs1_nan_prefix == 0xffff  #nosat': 1 #  rs1_val==hnorm(0x3beb) | +1-0.01
    'fs1 == 0 and fe1 == 0x0e and fm1 == 0x3eb and  fcsr == 0x80 and rm_val == 7  and rs1_nan_prefix == 0xffff  #nosat': 1 #  rs1_val==hnorm(0x3beb) | +1-0.01
    'fs1 == 1 and fe1 == 0x0f and fm1 == 0x000 and  fcsr == 0x0 and rm_val == 7  and rs1_nan_prefix == 0xffff  #nosat': 1 #  rs1_val==hone(0xbc00) | -1-0
    'fs1 == 1 and fe1 == 0x0f and fm1 == 0x000 and  fcsr == 0x20 and rm_val == 7  and rs1_nan_prefix == 0xffff  #nosat': 1 #  rs1_val==hone(0xbc00) | -1-0
    'fs1 == 1 and fe1 == 0x0f and fm1 == 0x000 and  fcsr == 0x40 and rm_val == 7  and rs1_nan_prefix == 0xffff  #nosat': 1 #  rs1_val==hone(0xbc00) | -1-0
    'fs1 == 1 and fe1 == 0x0f and fm1 == 0x000 and  fcsr == 0x60 and rm_val == 7  and rs1_nan_prefix == 0xffff  #nosat': 1 #  rs1_val==hone(0xbc00) | -1-0
    'fs1 == 1 and fe1 == 0x0f and fm1 == 0x000 and  fcsr == 0x80 and rm_val == 7  and rs1_nan_prefix == 0xffff  #nosat': 1 #  rs1_val==hone(0xbc00) | -1-0
    'fs1 == 1 and fe1 == 0x0f and fm1 == 0x070 and  fcsr == 0x0 and rm_val == 7  and rs1_nan_prefix == 0xffff  #nosat': 1 #  rs1_val==hnorm(0xbc70) | -1-0.11
    'fs1 == 1 and fe1 == 0x0f and fm1 == 0x070 and  fcsr == 0x20 and rm_val == 7  and rs1_nan_prefix == 0xffff  #nosat': 1 #  rs1_val==hnorm(0xbc70) | -1-0.11
    'fs1 == 1 and fe1 == 0x0f and fm1 == 0x070 and  fcsr == 0x40 and rm_val == 7  and rs1_nan_prefix == 0xffff  #nosat': 1 #  rs1_val==hnorm(0xbc70) | -1-0.11
    'fs1 == 1 and fe1 == 0x0f and fm1 == 0x070 and  fcsr == 0x60 and rm_val == 7  and rs1_nan_prefix == 0xffff  #nosat': 1 #  rs1_val==hnorm(0xbc70) | -1-0.11
    'fs1 == 1 and fe1 == 0x0f and fm1 == 0x070 and  fcsr == 0x80 and rm_val == 7  and rs1_nan_prefix == 0xffff  #nosat': 1 #  rs1_val==hnorm(0xbc70) | -1-0.11
    'fs1 == 0 and fe1 == 0x00 and fm1 == 0x0f0 and  fcsr == 0x0 and rm_val == 7  and rs1_nan_prefix == 0xffff  #nosat': 1 #  rs1_val==hsubnorm(0x00f0) | -0+0
    'fs1 == 0 and fe1 == 0x00 and fm1 == 0x0f0 and  fcsr == 0x20 and rm_val == 7  and rs1_nan_prefix == 0xffff  #nosat': 1 #  rs1_val==hsubnorm(0x00f0) | -0+0
    'fs1 == 0 and fe1 == 0x00 and fm1 == 0x0f0 and  fcsr == 0x40 and rm_val == 7  and rs1_nan_prefix == 0xffff  #nosat': 1 #  rs1_val==hsubnorm(0x00f0) | -0+0
    'fs1 == 0 and fe1 == 0x00 and fm1 == 0x0f0 and  fcsr == 0x60 and rm_val == 7  and rs1_nan_prefix == 0xffff  #nosat': 1 #  rs1_val==hsubnorm(0x00f0) | -0+0
    'fs1 == 0 and fe1 == 0x00 and fm1 == 0x0f0 and  fcsr == 0x80 and rm_val == 7  and rs1_nan_prefix == 0xffff  #nosat': 1 #  rs1_val==hsubnorm(0x00f0) | -0+0
    'fs1 == 1 and fe1 == 0x0f and fm1 == 0x00a and  fcsr == 0x0 and rm_val == 7  and rs1_nan_prefix == 0xffff  #nosat': 1 #  rs1_val==hnorm(0xbc0a) | -1-0.01
    'fs1 == 1 and fe1 == 0x0f and fm1 == 0x00a and  fcsr == 0x20 and rm_val == 7  and rs1_nan_prefix == 0xffff  #nosat': 1 #  rs1_val==hnorm(0xbc0a) | -1-0.01
    'fs1 == 1 and fe1 == 0x0f and fm1 == 0x00a and  fcsr == 0x40 and rm_val == 7  and rs1_nan_prefix == 0xffff  #nosat': 1 #  rs1_val==hnorm(0xbc0a) | -1-0.01
    'fs1 == 1 and fe1 == 0x0f and fm1 == 0x00a and  fcsr == 0x60 and rm_val == 7  and rs1_nan_prefix == 0xffff  #nosat': 1 #  rs1_val==hnorm(0xbc0a) | -1-0.01
    'fs1 == 1 and fe1 == 0x0f and fm1 == 0x00a and  fcsr == 0x80 and rm_val == 7  and rs1_nan_prefix == 0xffff  #nosat': 1 #  rs1_val==hnorm(0xbc0a) | -1-0.01
    'fs1 == 1 and fe1 == 0x0b and fm1 == 0x30a and  fcsr == 0x0 and rm_val == 7  and rs1_nan_prefix == 0xffff  #nosat': 1 #  rs1_val==hnorm(0xaf0a) | +0-0.11
    'fs1 == 1 and fe1 == 0x0b and fm1 == 0x30a and  fcsr == 0x20 and rm_val == 7  and rs1_nan_prefix == 0xffff  #nosat': 1 #  rs1_val==hnorm(0xaf0a) | +0-0.11
    'fs1 == 1 and fe1 == 0x0b and fm1 == 0x30a and  fcsr == 0x40 and rm_val == 7  and rs1_nan_prefix == 0xffff  #nosat': 1 #  rs1_val==hnorm(0xaf0a) | +0-0.11
    'fs1 == 1 and fe1 == 0x0b and fm1 == 0x30a and  fcsr == 0x60 and rm_val == 7  and rs1_nan_prefix == 0xffff  #nosat': 1 #  rs1_val==hnorm(0xaf0a) | +0-0.11
    'fs1 == 1 and fe1 == 0x0b and fm1 == 0x30a and  fcsr == 0x80 and rm_val == 7  and rs1_nan_prefix == 0xffff  #nosat': 1 #  rs1_val==hnorm(0xaf0a) | +0-0.11
    'fs1 == 0 and fe1 == 0x0f and fm1 == 0x070 and  fcsr == 0x0 and rm_val == 7  and rs1_nan_prefix == 0xffff  #nosat': 1 #  rs1_val==hnorm(0x3c70) | +1+0.11
    'fs1 == 0 and fe1 == 0x0f and fm1 == 0x070 and  fcsr == 0x20 and rm_val == 7  and rs1_nan_prefix == 0xffff  #nosat': 1 #  rs1_val==hnorm(0x3c70) | +1+0.11
    'fs1 == 0 and fe1 == 0x0f and fm1 == 0x070 and  fcsr == 0x40 and rm_val == 7  and rs1_nan_prefix == 0xffff  #nosat': 1 #  rs1_val==hnorm(0x3c70) | +1+0.11
    'fs1 == 0 and fe1 == 0x0f and fm1 == 0x070 and  fcsr == 0x60 and rm_val == 7  and rs1_nan_prefix == 0xffff  #nosat': 1 #  rs1_val==hnorm(0x3c70) | +1+0.11
    'fs1 == 0 and fe1 == 0x0f and fm1 == 0x070 and  fcsr == 0x80 and rm_val == 7  and rs1_nan_prefix == 0xffff  #nosat': 1 #  rs1_val==hnorm(0x3c70) | +1+0.11
    'fs1 == 1 and fe1 == 0x0e and fm1 == 0x31e and  fcsr == 0x0 and rm_val == 7  and rs1_nan_prefix == 0xffff  #nosat': 1 #  rs1_val==hnorm(0xbb1e) | -1+0.11
    'fs1 == 1 and fe1 == 0x0e and fm1 == 0x31e and  fcsr == 0x20 and rm_val == 7  and rs1_nan_prefix == 0xffff  #nosat': 1 #  rs1_val==hnorm(0xbb1e) | -1+0.11
    'fs1 == 1 and fe1 == 0x0e and fm1 == 0x31e and  fcsr == 0x40 and rm_val == 7  and rs1_nan_prefix == 0xffff  #nosat': 1 #  rs1_val==hnorm(0xbb1e) | -1+0.11
    'fs1 == 1 and fe1 == 0x0e and fm1 == 0x31e and  fcsr == 0x60 and rm_val == 7  and rs1_nan_prefix == 0xffff  #nosat': 1 #  rs1_val==hnorm(0xbb1e) | -1+0.11
    'fs1 == 1 and fe1 == 0x0e and fm1 == 0x31e and  fcsr == 0x80 and rm_val == 7  and rs1_nan_prefix == 0xffff  #nosat': 1 #  rs1_val==hnorm(0xbb1e) | -1+0.11
    'fs1 == 0 and fe1 == 0x0b and fm1 == 0x30a and  fcsr == 0x0 and rm_val == 7  and rs1_nan_prefix == 0xffff  #nosat': 1 #  rs1_val==hnorm(0x2f0a) | -0+0.11
    'fs1 == 0 and fe1 == 0x0b and fm1 == 0x30a and  fcsr == 0x20 and rm_val == 7  and rs1_nan_prefix == 0xffff  #nosat': 1 #  rs1_val==hnorm(0x2f0a) | -0+0.11
    'fs1 == 0 and fe1 == 0x0b and fm1 == 0x30a and  fcsr == 0x40 and rm_val == 7  and rs1_nan_prefix == 0xffff  #nosat': 1 #  rs1_val==hnorm(0x2f0a) | -0+0.11
    'fs1 == 0 and fe1 == 0x0b and fm1 == 0x30a and  fcsr == 0x60 and rm_val == 7  and rs1_nan_prefix == 0xffff  #nosat': 1 #  rs1_val==hnorm(0x2f0a) | -0+0.11
    'fs1 == 0 and fe1 == 0x0b and fm1 == 0x30a and  fcsr == 0x80 and rm_val == 7  and rs1_nan_prefix == 0xffff  #nosat': 1 #  rs1_val==hnorm(0x2f0a) | -0+0.11
    'fs1 == 1 and fe1 == 0x0e and fm1 == 0x333 and  fcsr == 0x0 and rm_val == 7  and rs1_nan_prefix == 0xffff  #nosat': 1 #  rs1_val==hnorm(0xbb33) | -1+0.1
    'fs1 == 1 and fe1 == 0x0e and fm1 == 0x333 and  fcsr == 0x20 and rm_val == 7  and rs1_nan_prefix == 0xffff  #nosat': 1 #  rs1_val==hnorm(0xbb33) | -1+0.1
    'fs1 == 1 and fe1 == 0x0e and fm1 == 0x333 and  fcsr == 0x40 and rm_val == 7  and rs1_nan_prefix == 0xffff  #nosat': 1 #  rs1_val==hnorm(0xbb33) | -1+0.1
    'fs1 == 1 and fe1 == 0x0e and fm1 == 0x333 and  fcsr == 0x60 and rm_val == 7  and rs1_nan_prefix == 0xffff  #nosat': 1 #  rs1_val==hnorm(0xbb33) | -1+0.1
    'fs1 == 1 and fe1 == 0x0e and fm1 == 0x333 and  fcsr == 0x80 and rm_val == 7  and rs1_nan_prefix == 0xffff  #nosat': 1 #  rs1_val==hnorm(0xbb33) | -1+0.1
    'fs1 == 0 and fe1 == 0x0f and fm1 == 0x00a and  fcsr == 0x0 and rm_val == 7  and rs1_nan_prefix == 0xffff  #nosat': 1 #  rs1_val==hnorm(0x3c0a) | +1+0.01
    'fs1 == 0 and fe1 == 0x0f and fm1 == 0x00a and  fcsr == 0x20 and rm_val == 7  and rs1_nan_prefix == 0xffff  #nosat': 1 #  rs1_val==hnorm(0x3c0a) | +1+0.01
    'fs1 == 0 and fe1 == 0x0f and fm1 == 0x00a and  fcsr == 0x40 and rm_val == 7  and rs1_nan_prefix == 0xffff  #nosat': 1 #  rs1_val==hnorm(0x3c0a) | +1+0.01
    'fs1 == 0 and fe1 == 0x0f and fm1 == 0x00a and  fcsr == 0x60 and rm_val == 7  and rs1_nan_prefix == 0xffff  #nosat': 1 #  rs1_val==hnorm(0x3c0a) | +1+0.01
    'fs1 == 0 and fe1 == 0x0f and fm1 == 0x00a and  fcsr == 0x80 and rm_val == 7  and rs1_nan_prefix == 0xffff  #nosat': 1 #  rs1_val==hnorm(0x3c0a) | +1+0.01
    'fs1 == 1 and fe1 == 0x0f and fm1 == 0x066 and  fcsr == 0x0 and rm_val == 7  and rs1_nan_prefix == 0xffff  #nosat': 1 #  rs1_val==hnorm(0xbc66) | -1-0.1
    'fs1 == 1 and fe1 == 0x0f and fm1 == 0x066 and  fcsr == 0x20 and rm_val == 7  and rs1_nan_prefix == 0xffff  #nosat': 1 #  rs1_val==hnorm(0xbc66) | -1-0.1
    'fs1 == 1 and fe1 == 0x0f and fm1 == 0x066 and  fcsr == 0x40 and rm_val == 7  and rs1_nan_prefix == 0xffff  #nosat': 1 #  rs1_val==hnorm(0xbc66) | -1-0.1
    'fs1 == 1 and fe1 == 0x0f and fm1 == 0x066 and  fcsr == 0x60 and rm_val == 7  and rs1_nan_prefix == 0xffff  #nosat': 1 #  rs1_val==hnorm(0xbc66) | -1-0.1
    'fs1 == 1 and fe1 == 0x0f and fm1 == 0x066 and  fcsr == 0x80 and rm_val == 7  and rs1_nan_prefix == 0xffff  #nosat': 1 #  rs1_val==hnorm(0xbc66) | -1-0.1
    'fs1 == 1 and fe1 == 0x0b and fm1 == 0x266 and  fcsr == 0x0 and rm_val == 7  and rs1_nan_prefix == 0xffff  #nosat': 1 #  rs1_val==hnorm(0xae66) | -0-0.1
    'fs1 == 1 and fe1 == 0x0b and fm1 == 0x266 and  fcsr == 0x20 and rm_val == 7  and rs1_nan_prefix == 0xffff  #nosat': 1 #  rs1_val==hnorm(0xae66) | -0-0.1
    'fs1 == 1 and fe1 == 0x0b and fm1 == 0x266 and  fcsr == 0x40 and rm_val == 7  and rs1_nan_prefix == 0xffff  #nosat': 1 #  rs1_val==hnorm(0xae66) | -0-0.1
    'fs1 == 1 and fe1 == 0x0b and fm1 == 0x266 and  fcsr == 0x60 and rm_val == 7  and rs1_nan_prefix == 0xffff  #nosat': 1 #  rs1_val==hnorm(0xae66) | -0-0.1
    'fs1 == 1 and fe1 == 0x0b and fm1 == 0x266 and  fcsr == 0x80 and rm_val == 7  and rs1_nan_prefix == 0xffff  #nosat': 1 #  rs1_val==hnorm(0xae66) | -0-0.1
    'fs1 == 0 and fe1 == 0x0f and fm1 == 0x000 and  fcsr == 0x0 and rm_val == 7  and rs1_nan_prefix == 0xffff  #nosat': 1 #  rs1_val==hone(0x3c00) | +1-0
    'fs1 == 0 and fe1 == 0x0f and fm1 == 0x000 and  fcsr == 0x20 and rm_val == 7  and rs1_nan_prefix == 0xffff  #nosat': 1 #  rs1_val==hone(0x3c00) | +1-0
    'fs1 == 0 and fe1 == 0x0f and fm1 == 0x000 and  fcsr == 0x40 and rm_val == 7  and rs1_nan_prefix == 0xffff  #nosat': 1 #  rs1_val==hone(0x3c00) | +1-0
    'fs1 == 0 and fe1 == 0x0f and fm1 == 0x000 and  fcsr == 0x60 and rm_val == 7  and rs1_nan_prefix == 0xffff  #nosat': 1 #  rs1_val==hone(0x3c00) | +1-0
    'fs1 == 0 and fe1 == 0x0f and fm1 == 0x000 and  fcsr == 0x80 and rm_val == 7  and rs1_nan_prefix == 0xffff  #nosat': 1 #  rs1_val==hone(0x3c00) | +1-0
    'fs1 == 0 and fe1 == 0x0b and fm1 == 0x266 and  fcsr == 0x0 and rm_val == 7  and rs1_nan_prefix == 0xffff  #nosat': 1 #  rs1_val==hnorm(0x2e66) | +0+0.1
    'fs1 == 0 and fe1 == 0x0b and fm1 == 0x266 and  fcsr == 0x20 and rm_val == 7  and rs1_nan_prefix == 0xffff  #nosat': 1 #  rs1_val==hnorm(0x2e66) | +0+0.1
    'fs1 == 0 and fe1 == 0x0b and fm1 == 0x266 and  fcsr == 0x40 and rm_val == 7  and rs1_nan_prefix == 0xffff  #nosat': 1 #  rs1_val==hnorm(0x2e66) | +0+0.1
    'fs1 == 0 and fe1 == 0x0b and fm1 == 0x266 and  fcsr == 0x60 and rm_val == 7  and rs1_nan_prefix == 0xffff  #nosat': 1 #  rs1_val==hnorm(0x2e66) | +0+0.1
    'fs1 == 0 and fe1 == 0x0b and fm1 == 0x266 and  fcsr == 0x80 and rm_val == 7  and rs1_nan_prefix == 0xffff  #nosat': 1 #  rs1_val==hnorm(0x2e66) | +0+0.1
    'fs1 == 1 and fe1 == 0x08 and fm1 == 0x11e and  fcsr == 0x0 and rm_val == 7  and rs1_nan_prefix == 0xffff  #nosat': 1 #  rs1_val==hnorm(0xa11e) | -0-0.01
    'fs1 == 1 and fe1 == 0x08 and fm1 == 0x11e and  fcsr == 0x20 and rm_val == 7  and rs1_nan_prefix == 0xffff  #nosat': 1 #  rs1_val==hnorm(0xa11e) | -0-0.01
    'fs1 == 1 and fe1 == 0x08 and fm1 == 0x11e and  fcsr == 0x40 and rm_val == 7  and rs1_nan_prefix == 0xffff  #nosat': 1 #  rs1_val==hnorm(0xa11e) | -0-0.01
    'fs1 == 1 and fe1 == 0x08 and fm1 == 0x11e and  fcsr == 0x60 and rm_val == 7  and rs1_nan_prefix == 0xffff  #nosat': 1 #  rs1_val==hnorm(0xa11e) | -0-0.01
    'fs1 == 1 and fe1 == 0x08 and fm1 == 0x11e and  fcsr == 0x80 and rm_val == 7  and rs1_nan_prefix == 0xffff  #nosat': 1 #  rs1_val==hnorm(0xa11e) | -0-0.01
    'fs1 == 0 and fe1 == 0x0e and fm1 == 0x31e and  fcsr == 0x0 and rm_val == 7  and rs1_nan_prefix == 0xffff  #nosat': 1 #  rs1_val==hnorm(0x3b1e) | +1-0.11
    'fs1 == 0 and fe1 == 0x0e and fm1 == 0x31e and  fcsr == 0x20 and rm_val == 7  and rs1_nan_prefix == 0xffff  #nosat': 1 #  rs1_val==hnorm(0x3b1e) | +1-0.11
    'fs1 == 0 and fe1 == 0x0e and fm1 == 0x31e and  fcsr == 0x40 and rm_val == 7  and rs1_nan_prefix == 0xffff  #nosat': 1 #  rs1_val==hnorm(0x3b1e) | +1-0.11
    'fs1 == 0 and fe1 == 0x0e and fm1 == 0x31e and  fcsr == 0x60 and rm_val == 7  and rs1_nan_prefix == 0xffff  #nosat': 1 #  rs1_val==hnorm(0x3b1e) | +1-0.11
    'fs1 == 0 and fe1 == 0x0e and fm1 == 0x31e and  fcsr == 0x80 and rm_val == 7  and rs1_nan_prefix == 0xffff  #nosat': 1 #  rs1_val==hnorm(0x3b1e) | +1-0.11
    'fs1 == 0 and fe1 == 0x0f and fm1 == 0x066 and  fcsr == 0x0 and rm_val == 7  and rs1_nan_prefix == 0xffff  #nosat': 1 #  rs1_val==hnorm(0x3c66) | +1+0.1
    'fs1 == 0 and fe1 == 0x0f and fm1 == 0x066 and  fcsr == 0x20 and rm_val == 7  and rs1_nan_prefix == 0xffff  #nosat': 1 #  rs1_val==hnorm(0x3c66) | +1+0.1
    'fs1 == 0 and fe1 == 0x0f and fm1 == 0x066 and  fcsr == 0x40 and rm_val == 7  and rs1_nan_prefix == 0xffff  #nosat': 1 #  rs1_val==hnorm(0x3c66) | +1+0.1
    'fs1 == 0 and fe1 == 0x0f and fm1 == 0x066 and  fcsr == 0x60 and rm_val == 7  and rs1_nan_prefix == 0xffff  #nosat': 1 #  rs1_val==hnorm(0x3c66) | +1+0.1
    'fs1 == 0 and fe1 == 0x0f and fm1 == 0x066 and  fcsr == 0x80 and rm_val == 7  and rs1_nan_prefix == 0xffff  #nosat': 1 #  rs1_val==hnorm(0x3c66) | +1+0.1
    'fs1 == 1 and fe1 == 0x0e and fm1 == 0x3eb and  fcsr == 0x0 and rm_val == 7  and rs1_nan_prefix == 0xffff  #nosat': 1 #  rs1_val==hnorm(0xbbeb) | -1+0.01
    'fs1 == 1 and fe1 == 0x0e and fm1 == 0x3eb and  fcsr == 0x20 and rm_val == 7  and rs1_nan_prefix == 0xffff  #nosat': 1 #  rs1_val==hnorm(0xbbeb) | -1+0.01
    'fs1 == 1 and fe1 == 0x0e and fm1 == 0x3eb and  fcsr == 0x40 and rm_val == 7  and rs1_nan_prefix == 0xffff  #nosat': 1 #  rs1_val==hnorm(0xbbeb) | -1+0.01
    'fs1 == 1 and fe1 == 0x0e and fm1 == 0x3eb and  fcsr == 0x60 and rm_val == 7  and rs1_nan_prefix == 0xffff  #nosat': 1 #  rs1_val==hnorm(0xbbeb) | -1+0.01
    'fs1 == 1 and fe1 == 0x0e and fm1 == 0x3eb and  fcsr == 0x80 and rm_val == 7  and rs1_nan_prefix == 0xffff  #nosat': 1 #  rs1_val==hnorm(0xbbeb) | -1+0.01
    'fs1 == 0 and fe1 == 0x0e and fm1 == 0x333 and  fcsr == 0x0 and rm_val == 7  and rs1_nan_prefix == 0xffff  #nosat': 1 #  rs1_val==hnorm(0x3b33) | +1-0.1
    'fs1 == 0 and fe1 == 0x0e and fm1 == 0x333 and  fcsr == 0x20 and rm_val == 7  and rs1_nan_prefix == 0xffff  #nosat': 1 #  rs1_val==hnorm(0x3b33) | +1-0.1
    'fs1 == 0 and fe1 == 0x0e and fm1 == 0x333 and  fcsr == 0x40 and rm_val == 7  and rs1_nan_prefix == 0xffff  #nosat': 1 #  rs1_val==hnorm(0x3b33) | +1-0.1
    'fs1 == 0 and fe1 == 0x0e and fm1 == 0x333 and  fcsr == 0x60 and rm_val == 7  and rs1_nan_prefix == 0xffff  #nosat': 1 #  rs1_val==hnorm(0x3b33) | +1-0.1
    'fs1 == 0 and fe1 == 0x0e and fm1 == 0x333 and  fcsr == 0x80 and rm_val == 7  and rs1_nan_prefix == 0xffff  #nosat': 1 #  rs1_val==hnorm(0x3b33) | +1-0.1
    coverage: 105/105
  total_coverage: 172/172
fcvt.l.h_b27:
  config:
  - check ISA:=regex(.*I.*Zfinx.*Zhinx.*)
  mnemonics:
    fcvt.l.h: 33
    coverage: 1/1
  op_comb:
    rs1 != rd: 32
    rs1 == rd: 1
    coverage: 2/2
  rd:
    x0: 1
    x1: 1
    x10: 1
    x11: 1
    x12: 1
    x13: 1
    x14: 1
    x15: 1
    x16: 1
    x17: 1
    x18: 1
    x19: 1
    x2: 1
    x20: 1
    x21: 1
    x22: 1
    x23: 1
    x24: 1
    x25: 1
    x26: 1
    x27: 1
    x28: 1
    x29: 1
    x3: 1
    x30: 1
    x31: 2
    x4: 1
    x5: 1
    x6: 1
    x7: 1
    x8: 1
    x9: 1
    coverage: 32/32
  rs1:
    x0: 1
    x1: 1
    x10: 1
    x11: 1
    x12: 1
    x13: 1
    x14: 1
    x15: 1
    x16: 1
    x17: 1
    x18: 1
    x19: 1
    x2: 1
    x20: 1
    x21: 1
    x22: 1
    x23: 1
    x24: 1
    x25: 1
    x26: 1
    x27: 1
    x28: 1
    x29: 1
    x3: 1
    x30: 1
    x31: 2
    x4: 1
    x5: 1
    x6: 1
    x7: 1
    x8: 1
    x9: 1
    coverage: 32/32
  val_comb:
    'fs1 == 0 and fe1 == 0x1f and fm1 == 0x001 and  fcsr == 0x0 and rm_val == 7  and rs1_nan_prefix == 0xffff  #nosat': 1  #  rs1_val==hsnan(0x7C01)
    'fs1 == 1 and fe1 == 0x1f and fm1 == 0x001 and  fcsr == 0x0 and rm_val == 7  and rs1_nan_prefix == 0xffff  #nosat': 1 #  rs1_val==hsnan(0xFC01)
    'fs1 == 0 and fe1 == 0x1f and fm1 == 0x155 and  fcsr == 0x0 and rm_val == 7  and rs1_nan_prefix == 0xffff  #nosat': 1 #  rs1_val==hsnan(0x7D55)
    'fs1 == 1 and fe1 == 0x1f and fm1 == 0x155 and  fcsr == 0x0 and rm_val == 7  and rs1_nan_prefix == 0xffff  #nosat': 1 #  rs1_val==hsnan(0xFD55)
    'fs1 == 0 and fe1 == 0x1f and fm1 == 0x201 and  fcsr == 0x0 and rm_val == 7  and rs1_nan_prefix == 0xffff  #nosat': 1 #  rs1_val==hqnan(0x7E01)
    'fs1 == 1 and fe1 == 0x1f and fm1 == 0x201 and  fcsr == 0x0 and rm_val == 7  and rs1_nan_prefix == 0xffff  #nosat': 1 #  rs1_val==hqnan(0xFE01)
    'fs1 == 0 and fe1 == 0x1f and fm1 == 0x255 and  fcsr == 0x0 and rm_val == 7  and rs1_nan_prefix == 0xffff  #nosat': 1 #  rs1_val==hqnan(0x7E55)
    'fs1 == 1 and fe1 == 0x1f and fm1 == 0x255 and  fcsr == 0x0 and rm_val == 7  and rs1_nan_prefix == 0xffff  #nosat': 1 #  rs1_val==hqnan(0xFE55)
    coverage: 8/8
  total_coverage: 75/75
fcvt.l.h_b28:
  config:
  - check ISA:=regex(.*I.*Zfinx.*Zhinx.*)
  mnemonics:
    fcvt.l.h: 33
    coverage: 1/1
  op_comb:
    rs1 != rd: 32
    rs1 == rd: 1
    coverage: 2/2
  rd:
    x0: 1
    x1: 1
    x10: 1
    x11: 1
    x12: 1
    x13: 1
    x14: 1
    x15: 1
    x16: 1
    x17: 1
    x18: 1
    x19: 1
    x2: 1
    x20: 1
    x21: 1
    x22: 1
    x23: 1
    x24: 1
    x25: 1
    x26: 1
    x27: 1
    x28: 1
    x29: 1
    x3: 1
    x30: 1
    x31: 2
    x4: 1
    x5: 1
    x6: 1
    x7: 1
    x8: 1
    x9: 1
    coverage: 32/32
  rs1:
    x0: 1
    x1: 1
    x10: 1
    x11: 1
    x12: 1
    x13: 1
    x14: 1
    x15: 1
    x16: 1
    x17: 1
    x18: 1
    x19: 1
    x2: 1
    x20: 1
    x21: 1
    x22: 1
    x23: 1
    x24: 1
    x25: 1
    x26: 1
    x27: 1
    x28: 1
    x29: 1
    x3: 1
    x30: 1
    x31: 2
    x4: 1
    x5: 1
    x6: 1
    x7: 1
    x8: 1
    x9: 1
    coverage: 32/32
  val_comb:
    'fs1 == 0 and fe1 == 0x00 and fm1 == 0x000 and  fcsr == 0x0 and rm_val == 7  and rs1_nan_prefix == 0xffff  #nosat': 1  #  rs1_val==hzero(0x0000) | +0
    'fs1 == 0 and fe1 == 0x0e and fm1 == 0x092 and  fcsr == 0x0 and rm_val == 7  and rs1_nan_prefix == 0xffff  #nosat': 1 #  rs1_val==hnorm(0x3892) | A random number in the range (+0, +1)
    'fs1 == 0 and fe1 == 0x0f and fm1 == 0x000 and  fcsr == 0x0 and rm_val == 7  and rs1_nan_prefix == 0xffff  #nosat': 1 #  rs1_val==hone(0x3C00) | +1
    'fs1 == 0 and fe1 == 0x0f and fm1 == 0x100 and  fcsr == 0x0 and rm_val == 7  and rs1_nan_prefix == 0xffff  #nosat': 1 #  rs1_val==hnorm(0x3d00) | Number = 1.25 => Number ∈ (1,2.75]
    'fs1 == 0 and fe1 == 0x0f and fm1 == 0x200 and  fcsr == 0x0 and rm_val == 7  and rs1_nan_prefix == 0xffff  #nosat': 1 #  rs1_val==hnorm(0x3e00) | Number = 1.5 => Number ∈ (1,2.75]
    'fs1 == 0 and fe1 == 0x0f and fm1 == 0x300 and  fcsr == 0x0 and rm_val == 7  and rs1_nan_prefix == 0xffff  #nosat': 1 #  rs1_val==hnorm(0x3f00) | Number = 1.75 => Number ∈ (1,2.75]
    'fs1 == 0 and fe1 == 0x10 and fm1 == 0x000 and  fcsr == 0x0 and rm_val == 7  and rs1_nan_prefix == 0xffff  #nosat': 1 #  rs1_val==hnorm(0x4000) | Number = 2.0 => Number ∈ (1,2.75]
    'fs1 == 0 and fe1 == 0x10 and fm1 == 0x080 and  fcsr == 0x0 and rm_val == 7  and rs1_nan_prefix == 0xffff  #nosat': 1 #  rs1_val==hnorm(0x4080) | Number = 2.25 => Number ∈ (1,2.75]
    'fs1 == 0 and fe1 == 0x10 and fm1 == 0x100 and  fcsr == 0x0 and rm_val == 7  and rs1_nan_prefix == 0xffff  #nosat': 1 #  rs1_val==hnorm(0x4100) | Number = 2.5 => Number ∈ (1,2.75]
    'fs1 == 0 and fe1 == 0x10 and fm1 == 0x180 and  fcsr == 0x0 and rm_val == 7  and rs1_nan_prefix == 0xffff  #nosat': 1 #  rs1_val==hnorm(0x4180) | Number = 2.75 => Number ∈ (1,2.75]
    'fs1 == 0 and fe1 == 0x1c and fm1 == 0x2dc and  fcsr == 0x0 and rm_val == 7  and rs1_nan_prefix == 0xffff  #nosat': 1 #  rs1_val==hnorm(0x72dc) | A random number in the range (+1, +1.11..11*2^precision)
    'fs1 == 0 and fe1 == 0x1d and fm1 == 0x3ff and  fcsr == 0x0 and rm_val == 7  and rs1_nan_prefix == 0xffff  #nosat': 1 #  rs1_val==hnorm(0x77ff) | MaxInt
    'fs1 == 0 and fe1 == 0x1f and fm1 == 0x000 and  fcsr == 0x0 and rm_val == 7  and rs1_nan_prefix == 0xffff  #nosat': 1 #  rs1_val==hinfinity(0x7C00) | +Infinity
    'fs1 == 0 and fe1 == 0x1f and fm1 == 0x001 and  fcsr == 0x0 and rm_val == 7  and rs1_nan_prefix == 0xffff  #nosat': 1 #  rs1_val==hsnan(0x7C01) | Signaling NaN
    'fs1 == 0 and fe1 == 0x1f and fm1 == 0x201 and  fcsr == 0x0 and rm_val == 7  and rs1_nan_prefix == 0xffff  #nosat': 1 #  rs1_val==hqnan(0x7E01) | Quiet NaN
    'fs1 == 1 and fe1 == 0x00 and fm1 == 0x000 and  fcsr == 0x0 and rm_val == 7  and rs1_nan_prefix == 0xffff  #nosat': 1 #  rs1_val==hzero(0x8000) | -0
    'fs1 == 1 and fe1 == 0x0d and fm1 == 0x2c0 and  fcsr == 0x0 and rm_val == 7  and rs1_nan_prefix == 0xffff  #nosat': 1 #  rs1_val==hnorm(0xb6c0) | A random number in the range (-1, -0)
    'fs1 == 1 and fe1 == 0x0f and fm1 == 0x000 and  fcsr == 0x0 and rm_val == 7  and rs1_nan_prefix == 0xffff  #nosat': 1 #  rs1_val==hone(0xBC00) | -1
    'fs1 == 1 and fe1 == 0x10 and fm1 == 0x180 and  fcsr == 0x0 and rm_val == 7  and rs1_nan_prefix == 0xffff  #nosat': 1 #  rs1_val==hnorm(0xc180) | Number = -2.75 => Number ∈ [-2.75,-1)
    'fs1 == 1 and fe1 == 0x10 and fm1 == 0x100 and  fcsr == 0x0 and rm_val == 7  and rs1_nan_prefix == 0xffff  #nosat': 1 #  rs1_val==hnorm(0xc100) | Number = -2.5 => Number ∈ [-2.75,-1)
    'fs1 == 1 and fe1 == 0x10 and fm1 == 0x080 and  fcsr == 0x0 and rm_val == 7  and rs1_nan_prefix == 0xffff  #nosat': 1 #  rs1_val==hnorm(0xc080) | Number = -2.25 => Number ∈ [-2.75,-1)
    'fs1 == 1 and fe1 == 0x10 and fm1 == 0x000 and  fcsr == 0x0 and rm_val == 7  and rs1_nan_prefix == 0xffff  #nosat': 1 #  rs1_val==hnorm(0xc000) | Number = -2.0 => Number ∈ [-2.75,-1)
    'fs1 == 1 and fe1 == 0x0f and fm1 == 0x300 and  fcsr == 0x0 and rm_val == 7  and rs1_nan_prefix == 0xffff  #nosat': 1 #  rs1_val==hnorm(0xbf00) | Number = -1.75 => Number ∈ [-2.75,-1)
    'fs1 == 1 and fe1 == 0x0f and fm1 == 0x200 and  fcsr == 0x0 and rm_val == 7  and rs1_nan_prefix == 0xffff  #nosat': 1 #  rs1_val==hnorm(0xbe00) | Number = -1.5 => Number ∈ [-2.75,-1)
    'fs1 == 1 and fe1 == 0x0f and fm1 == 0x100 and  fcsr == 0x0 and rm_val == 7  and rs1_nan_prefix == 0xffff  #nosat': 1 #  rs1_val==hnorm(0xbd00) | Number = -1.25 => Number ∈ [-2.75,-1)
    'fs1 == 1 and fe1 == 0x1d and fm1 == 0x259 and  fcsr == 0x0 and rm_val == 7  and rs1_nan_prefix == 0xffff  #nosat': 1 #  rs1_val==hnorm(0xf659) | A random number in the range (-1.11..11*2^precision, -1)
    'fs1 == 1 and fe1 == 0x1e and fm1 == 0x000 and  fcsr == 0x0 and rm_val == 7  and rs1_nan_prefix == 0xffff  #nosat': 1 #  rs1_val==hnorm(0xf800) | -MaxInt
    'fs1 == 1 and fe1 == 0x1f and fm1 == 0x000 and  fcsr == 0x0 and rm_val == 7  and rs1_nan_prefix == 0xffff  #nosat': 1 #  rs1_val==hinfinity(0xFC00) | -Infinity
    coverage: 28/28
  total_coverage: 95/95
fcvt.l.h_b29:
  config:
  - check ISA:=regex(.*I.*Zfinx.*Zhinx.*)
  mnemonics:
    fcvt.l.h: 82
    coverage: 1/1
  op_comb:
    rs1 != rd: 81
    rs1 == rd: 1
    coverage: 2/2
  rd:
    x0: 1
    x1: 1
    x10: 1
    x11: 1
    x12: 1
    x13: 1
    x14: 1
    x15: 1
    x16: 1
    x17: 1
    x18: 1
    x19: 1
    x2: 1
    x20: 1
    x21: 1
    x22: 1
    x23: 1
    x24: 1
    x25: 1
    x26: 1
    x27: 1
    x28: 1
    x29: 1
    x3: 1
    x30: 1
    x31: 51
    x4: 1
    x5: 1
    x6: 1
    x7: 1
    x8: 1
    x9: 1
    coverage: 32/32
  rs1:
    x0: 1
    x1: 1
    x10: 1
    x11: 1
    x12: 1
    x13: 1
    x14: 1
    x15: 1
    x16: 1
    x17: 1
    x18: 1
    x19: 1
    x2: 1
    x20: 1
    x21: 1
    x22: 1
    x23: 1
    x24: 1
    x25: 1
    x26: 1
    x27: 1
    x28: 1
    x29: 1
    x3: 1
    x30: 50
    x31: 2
    x4: 1
    x5: 1
    x6: 1
    x7: 1
    x8: 1
    x9: 1
    coverage: 32/32
  val_comb:
    'fs1 == 0 and fe1 == 0x0c and fm1 == 0x248 and  fcsr == 0x0 and rm_val == 7  and rs1_nan_prefix == 0xffff  #nosat': 1  #  rs1_val==hnorm(0x3248) | Exp = -3; Sign = 0; LSB = 0; Guard = 0; Sticky = 0
    'fs1 == 0 and fe1 == 0x0c and fm1 == 0x248 and  fcsr == 0x20 and rm_val == 7  and rs1_nan_prefix == 0xffff  #nosat': 1 #  rs1_val==hnorm(0x3248) | Exp = -3; Sign = 0; LSB = 0; Guard = 0; Sticky = 0
    'fs1 == 0 and fe1 == 0x0c and fm1 == 0x248 and  fcsr == 0x40 and rm_val == 7  and rs1_nan_prefix == 0xffff  #nosat': 1 #  rs1_val==hnorm(0x3248) | Exp = -3; Sign = 0; LSB = 0; Guard = 0; Sticky = 0
    'fs1 == 0 and fe1 == 0x0c and fm1 == 0x248 and  fcsr == 0x60 and rm_val == 7  and rs1_nan_prefix == 0xffff  #nosat': 1 #  rs1_val==hnorm(0x3248) | Exp = -3; Sign = 0; LSB = 0; Guard = 0; Sticky = 0
    'fs1 == 0 and fe1 == 0x0c and fm1 == 0x248 and  fcsr == 0x80 and rm_val == 7  and rs1_nan_prefix == 0xffff  #nosat': 1 #  rs1_val==hnorm(0x3248) | Exp = -3; Sign = 0; LSB = 0; Guard = 0; Sticky = 0
    'fs1 == 0 and fe1 == 0x0c and fm1 == 0x249 and  fcsr == 0x0 and rm_val == 7  and rs1_nan_prefix == 0xffff  #nosat': 1 #  rs1_val==hnorm(0x3249) | Exp = -3; Sign = 0; LSB = 0; Guard = 0; Sticky = 1
    'fs1 == 0 and fe1 == 0x0c and fm1 == 0x249 and  fcsr == 0x20 and rm_val == 7  and rs1_nan_prefix == 0xffff  #nosat': 1 #  rs1_val==hnorm(0x3249) | Exp = -3; Sign = 0; LSB = 0; Guard = 0; Sticky = 1
    'fs1 == 0 and fe1 == 0x0c and fm1 == 0x249 and  fcsr == 0x40 and rm_val == 7  and rs1_nan_prefix == 0xffff  #nosat': 1 #  rs1_val==hnorm(0x3249) | Exp = -3; Sign = 0; LSB = 0; Guard = 0; Sticky = 1
    'fs1 == 0 and fe1 == 0x0c and fm1 == 0x249 and  fcsr == 0x60 and rm_val == 7  and rs1_nan_prefix == 0xffff  #nosat': 1 #  rs1_val==hnorm(0x3249) | Exp = -3; Sign = 0; LSB = 0; Guard = 0; Sticky = 1
    'fs1 == 0 and fe1 == 0x0c and fm1 == 0x249 and  fcsr == 0x80 and rm_val == 7  and rs1_nan_prefix == 0xffff  #nosat': 1 #  rs1_val==hnorm(0x3249) | Exp = -3; Sign = 0; LSB = 0; Guard = 0; Sticky = 1
    'fs1 == 0 and fe1 == 0x0c and fm1 == 0x24a and  fcsr == 0x0 and rm_val == 7  and rs1_nan_prefix == 0xffff  #nosat': 1 #  rs1_val==hnorm(0x324a) | Exp = -3; Sign = 0; LSB = 0; Guard = 1; Sticky = 0
    'fs1 == 0 and fe1 == 0x0c and fm1 == 0x24a and  fcsr == 0x20 and rm_val == 7  and rs1_nan_prefix == 0xffff  #nosat': 1 #  rs1_val==hnorm(0x324a) | Exp = -3; Sign = 0; LSB = 0; Guard = 1; Sticky = 0
    'fs1 == 0 and fe1 == 0x0c and fm1 == 0x24a and  fcsr == 0x40 and rm_val == 7  and rs1_nan_prefix == 0xffff  #nosat': 1 #  rs1_val==hnorm(0x324a) | Exp = -3; Sign = 0; LSB = 0; Guard = 1; Sticky = 0
    'fs1 == 0 and fe1 == 0x0c and fm1 == 0x24a and  fcsr == 0x60 and rm_val == 7  and rs1_nan_prefix == 0xffff  #nosat': 1 #  rs1_val==hnorm(0x324a) | Exp = -3; Sign = 0; LSB = 0; Guard = 1; Sticky = 0
    'fs1 == 0 and fe1 == 0x0c and fm1 == 0x24a and  fcsr == 0x80 and rm_val == 7  and rs1_nan_prefix == 0xffff  #nosat': 1 #  rs1_val==hnorm(0x324a) | Exp = -3; Sign = 0; LSB = 0; Guard = 1; Sticky = 0
    'fs1 == 0 and fe1 == 0x0c and fm1 == 0x24b and  fcsr == 0x0 and rm_val == 7  and rs1_nan_prefix == 0xffff  #nosat': 1 #  rs1_val==hnorm(0x324b) | Exp = -3; Sign = 0; LSB = 0; Guard = 1; Sticky = 1
    'fs1 == 0 and fe1 == 0x0c and fm1 == 0x24b and  fcsr == 0x20 and rm_val == 7  and rs1_nan_prefix == 0xffff  #nosat': 1 #  rs1_val==hnorm(0x324b) | Exp = -3; Sign = 0; LSB = 0; Guard = 1; Sticky = 1
    'fs1 == 0 and fe1 == 0x0c and fm1 == 0x24b and  fcsr == 0x40 and rm_val == 7  and rs1_nan_prefix == 0xffff  #nosat': 1 #  rs1_val==hnorm(0x324b) | Exp = -3; Sign = 0; LSB = 0; Guard = 1; Sticky = 1
    'fs1 == 0 and fe1 == 0x0c and fm1 == 0x24b and  fcsr == 0x60 and rm_val == 7  and rs1_nan_prefix == 0xffff  #nosat': 1 #  rs1_val==hnorm(0x324b) | Exp = -3; Sign = 0; LSB = 0; Guard = 1; Sticky = 1
    'fs1 == 0 and fe1 == 0x0c and fm1 == 0x24b and  fcsr == 0x80 and rm_val == 7  and rs1_nan_prefix == 0xffff  #nosat': 1 #  rs1_val==hnorm(0x324b) | Exp = -3; Sign = 0; LSB = 0; Guard = 1; Sticky = 1
    'fs1 == 0 and fe1 == 0x0c and fm1 == 0x24c and  fcsr == 0x0 and rm_val == 7  and rs1_nan_prefix == 0xffff  #nosat': 1 #  rs1_val==hnorm(0x324c) | Exp = -3; Sign = 0; LSB = 1; Guard = 0; Sticky = 0
    'fs1 == 0 and fe1 == 0x0c and fm1 == 0x24c and  fcsr == 0x20 and rm_val == 7  and rs1_nan_prefix == 0xffff  #nosat': 1 #  rs1_val==hnorm(0x324c) | Exp = -3; Sign = 0; LSB = 1; Guard = 0; Sticky = 0
    'fs1 == 0 and fe1 == 0x0c and fm1 == 0x24c and  fcsr == 0x40 and rm_val == 7  and rs1_nan_prefix == 0xffff  #nosat': 1 #  rs1_val==hnorm(0x324c) | Exp = -3; Sign = 0; LSB = 1; Guard = 0; Sticky = 0
    'fs1 == 0 and fe1 == 0x0c and fm1 == 0x24c and  fcsr == 0x60 and rm_val == 7  and rs1_nan_prefix == 0xffff  #nosat': 1 #  rs1_val==hnorm(0x324c) | Exp = -3; Sign = 0; LSB = 1; Guard = 0; Sticky = 0
    'fs1 == 0 and fe1 == 0x0c and fm1 == 0x24c and  fcsr == 0x80 and rm_val == 7  and rs1_nan_prefix == 0xffff  #nosat': 1 #  rs1_val==hnorm(0x324c) | Exp = -3; Sign = 0; LSB = 1; Guard = 0; Sticky = 0
    'fs1 == 0 and fe1 == 0x0c and fm1 == 0x24d and  fcsr == 0x0 and rm_val == 7  and rs1_nan_prefix == 0xffff  #nosat': 1 #  rs1_val==hnorm(0x324d) | Exp = -3; Sign = 0; LSB = 1; Guard = 0; Sticky = 1
    'fs1 == 0 and fe1 == 0x0c and fm1 == 0x24d and  fcsr == 0x20 and rm_val == 7  and rs1_nan_prefix == 0xffff  #nosat': 1 #  rs1_val==hnorm(0x324d) | Exp = -3; Sign = 0; LSB = 1; Guard = 0; Sticky = 1
    'fs1 == 0 and fe1 == 0x0c and fm1 == 0x24d and  fcsr == 0x40 and rm_val == 7  and rs1_nan_prefix == 0xffff  #nosat': 1 #  rs1_val==hnorm(0x324d) | Exp = -3; Sign = 0; LSB = 1; Guard = 0; Sticky = 1
    'fs1 == 0 and fe1 == 0x0c and fm1 == 0x24d and  fcsr == 0x60 and rm_val == 7  and rs1_nan_prefix == 0xffff  #nosat': 1 #  rs1_val==hnorm(0x324d) | Exp = -3; Sign = 0; LSB = 1; Guard = 0; Sticky = 1
    'fs1 == 0 and fe1 == 0x0c and fm1 == 0x24d and  fcsr == 0x80 and rm_val == 7  and rs1_nan_prefix == 0xffff  #nosat': 1 #  rs1_val==hnorm(0x324d) | Exp = -3; Sign = 0; LSB = 1; Guard = 0; Sticky = 1
    'fs1 == 0 and fe1 == 0x0c and fm1 == 0x24e and  fcsr == 0x0 and rm_val == 7  and rs1_nan_prefix == 0xffff  #nosat': 1 #  rs1_val==hnorm(0x324e) | Exp = -3; Sign = 0; LSB = 1; Guard = 1; Sticky = 0
    'fs1 == 0 and fe1 == 0x0c and fm1 == 0x24e and  fcsr == 0x20 and rm_val == 7  and rs1_nan_prefix == 0xffff  #nosat': 1 #  rs1_val==hnorm(0x324e) | Exp = -3; Sign = 0; LSB = 1; Guard = 1; Sticky = 0
    'fs1 == 0 and fe1 == 0x0c and fm1 == 0x24e and  fcsr == 0x40 and rm_val == 7  and rs1_nan_prefix == 0xffff  #nosat': 2 #  rs1_val==hnorm(0x324e) | Exp = -3; Sign = 0; LSB = 1; Guard = 1; Sticky = 0
    'fs1 == 0 and fe1 == 0x0c and fm1 == 0x24e and  fcsr == 0x60 and rm_val == 7  and rs1_nan_prefix == 0xffff  #nosat': 1 #  rs1_val==hnorm(0x324e) | Exp = -3; Sign = 0; LSB = 1; Guard = 1; Sticky = 0
    'fs1 == 0 and fe1 == 0x0c and fm1 == 0x24e and  fcsr == 0x80 and rm_val == 7  and rs1_nan_prefix == 0xffff  #nosat': 1 #  rs1_val==hnorm(0x324e) | Exp = -3; Sign = 0; LSB = 1; Guard = 1; Sticky = 0
    'fs1 == 0 and fe1 == 0x0c and fm1 == 0x24f and  fcsr == 0x0 and rm_val == 7  and rs1_nan_prefix == 0xffff  #nosat': 1 #  rs1_val==hnorm(0x324f) | Exp = -3; Sign = 0; LSB = 1; Guard = 1; Sticky = 1
    'fs1 == 0 and fe1 == 0x0c and fm1 == 0x24f and  fcsr == 0x20 and rm_val == 7  and rs1_nan_prefix == 0xffff  #nosat': 1 #  rs1_val==hnorm(0x324f) | Exp = -3; Sign = 0; LSB = 1; Guard = 1; Sticky = 1
    'fs1 == 0 and fe1 == 0x0c and fm1 == 0x24f and  fcsr == 0x40 and rm_val == 7  and rs1_nan_prefix == 0xffff  #nosat': 1 #  rs1_val==hnorm(0x324f) | Exp = -3; Sign = 0; LSB = 1; Guard = 1; Sticky = 1
    'fs1 == 0 and fe1 == 0x0c and fm1 == 0x24f and  fcsr == 0x60 and rm_val == 7  and rs1_nan_prefix == 0xffff  #nosat': 1 #  rs1_val==hnorm(0x324f) | Exp = -3; Sign = 0; LSB = 1; Guard = 1; Sticky = 1
    'fs1 == 0 and fe1 == 0x0c and fm1 == 0x24f and  fcsr == 0x80 and rm_val == 7  and rs1_nan_prefix == 0xffff  #nosat': 1 #  rs1_val==hnorm(0x324f) | Exp = -3; Sign = 0; LSB = 1; Guard = 1; Sticky = 1
    'fs1 == 1 and fe1 == 0x0c and fm1 == 0x248 and  fcsr == 0x0 and rm_val == 7  and rs1_nan_prefix == 0xffff  #nosat': 1 #  rs1_val==hnorm(0xb248) | Exp = -3; Sign = 1; LSB = 0; Guard = 0; Sticky = 0
    'fs1 == 1 and fe1 == 0x0c and fm1 == 0x248 and  fcsr == 0x20 and rm_val == 7  and rs1_nan_prefix == 0xffff  #nosat': 1 #  rs1_val==hnorm(0xb248) | Exp = -3; Sign = 1; LSB = 0; Guard = 0; Sticky = 0
    'fs1 == 1 and fe1 == 0x0c and fm1 == 0x248 and  fcsr == 0x40 and rm_val == 7  and rs1_nan_prefix == 0xffff  #nosat': 1 #  rs1_val==hnorm(0xb248) | Exp = -3; Sign = 1; LSB = 0; Guard = 0; Sticky = 0
    'fs1 == 1 and fe1 == 0x0c and fm1 == 0x248 and  fcsr == 0x60 and rm_val == 7  and rs1_nan_prefix == 0xffff  #nosat': 1 #  rs1_val==hnorm(0xb248) | Exp = -3; Sign = 1; LSB = 0; Guard = 0; Sticky = 0
    'fs1 == 1 and fe1 == 0x0c and fm1 == 0x248 and  fcsr == 0x80 and rm_val == 7  and rs1_nan_prefix == 0xffff  #nosat': 1 #  rs1_val==hnorm(0xb248) | Exp = -3; Sign = 1; LSB = 0; Guard = 0; Sticky = 0
    'fs1 == 1 and fe1 == 0x0c and fm1 == 0x249 and  fcsr == 0x0 and rm_val == 7  and rs1_nan_prefix == 0xffff  #nosat': 1 #  rs1_val==hnorm(0xb249) | Exp = -3; Sign = 1; LSB = 0; Guard = 0; Sticky = 1
    'fs1 == 1 and fe1 == 0x0c and fm1 == 0x249 and  fcsr == 0x20 and rm_val == 7  and rs1_nan_prefix == 0xffff  #nosat': 1 #  rs1_val==hnorm(0xb249) | Exp = -3; Sign = 1; LSB = 0; Guard = 0; Sticky = 1
    'fs1 == 1 and fe1 == 0x0c and fm1 == 0x249 and  fcsr == 0x40 and rm_val == 7  and rs1_nan_prefix == 0xffff  #nosat': 1 #  rs1_val==hnorm(0xb249) | Exp = -3; Sign = 1; LSB = 0; Guard = 0; Sticky = 1
    'fs1 == 1 and fe1 == 0x0c and fm1 == 0x249 and  fcsr == 0x60 and rm_val == 7  and rs1_nan_prefix == 0xffff  #nosat': 1 #  rs1_val==hnorm(0xb249) | Exp = -3; Sign = 1; LSB = 0; Guard = 0; Sticky = 1
    'fs1 == 1 and fe1 == 0x0c and fm1 == 0x249 and  fcsr == 0x80 and rm_val == 7  and rs1_nan_prefix == 0xffff  #nosat': 1 #  rs1_val==hnorm(0xb249) | Exp = -3; Sign = 1; LSB = 0; Guard = 0; Sticky = 1
    'fs1 == 1 and fe1 == 0x0c and fm1 == 0x24a and  fcsr == 0x0 and rm_val == 7  and rs1_nan_prefix == 0xffff  #nosat': 1 #  rs1_val==hnorm(0xb24a) | Exp = -3; Sign = 1; LSB = 0; Guard = 1; Sticky = 0
    'fs1 == 1 and fe1 == 0x0c and fm1 == 0x24a and  fcsr == 0x20 and rm_val == 7  and rs1_nan_prefix == 0xffff  #nosat': 1 #  rs1_val==hnorm(0xb24a) | Exp = -3; Sign = 1; LSB = 0; Guard = 1; Sticky = 0
    'fs1 == 1 and fe1 == 0x0c and fm1 == 0x24a and  fcsr == 0x40 and rm_val == 7  and rs1_nan_prefix == 0xffff  #nosat': 1 #  rs1_val==hnorm(0xb24a) | Exp = -3; Sign = 1; LSB = 0; Guard = 1; Sticky = 0
    'fs1 == 1 and fe1 == 0x0c and fm1 == 0x24a and  fcsr == 0x60 and rm_val == 7  and rs1_nan_prefix == 0xffff  #nosat': 1 #  rs1_val==hnorm(0xb24a) | Exp = -3; Sign = 1; LSB = 0; Guard = 1; Sticky = 0
    'fs1 == 1 and fe1 == 0x0c and fm1 == 0x24a and  fcsr == 0x80 and rm_val == 7  and rs1_nan_prefix == 0xffff  #nosat': 1 #  rs1_val==hnorm(0xb24a) | Exp = -3; Sign = 1; LSB = 0; Guard = 1; Sticky = 0
    'fs1 == 1 and fe1 == 0x0c and fm1 == 0x24b and  fcsr == 0x0 and rm_val == 7  and rs1_nan_prefix == 0xffff  #nosat': 1 #  rs1_val==hnorm(0xb24b) | Exp = -3; Sign = 1; LSB = 0; Guard = 1; Sticky = 1
    'fs1 == 1 and fe1 == 0x0c and fm1 == 0x24b and  fcsr == 0x20 and rm_val == 7  and rs1_nan_prefix == 0xffff  #nosat': 1 #  rs1_val==hnorm(0xb24b) | Exp = -3; Sign = 1; LSB = 0; Guard = 1; Sticky = 1
    'fs1 == 1 and fe1 == 0x0c and fm1 == 0x24b and  fcsr == 0x40 and rm_val == 7  and rs1_nan_prefix == 0xffff  #nosat': 1 #  rs1_val==hnorm(0xb24b) | Exp = -3; Sign = 1; LSB = 0; Guard = 1; Sticky = 1
    'fs1 == 1 and fe1 == 0x0c and fm1 == 0x24b and  fcsr == 0x60 and rm_val == 7  and rs1_nan_prefix == 0xffff  #nosat': 1 #  rs1_val==hnorm(0xb24b) | Exp = -3; Sign = 1; LSB = 0; Guard = 1; Sticky = 1
    'fs1 == 1 and fe1 == 0x0c and fm1 == 0x24b and  fcsr == 0x80 and rm_val == 7  and rs1_nan_prefix == 0xffff  #nosat': 1 #  rs1_val==hnorm(0xb24b) | Exp = -3; Sign = 1; LSB = 0; Guard = 1; Sticky = 1
    'fs1 == 1 and fe1 == 0x0c and fm1 == 0x24c and  fcsr == 0x0 and rm_val == 7  and rs1_nan_prefix == 0xffff  #nosat': 1 #  rs1_val==hnorm(0xb24c) | Exp = -3; Sign = 1; LSB = 1; Guard = 0; Sticky = 0
    'fs1 == 1 and fe1 == 0x0c and fm1 == 0x24c and  fcsr == 0x20 and rm_val == 7  and rs1_nan_prefix == 0xffff  #nosat': 1 #  rs1_val==hnorm(0xb24c) | Exp = -3; Sign = 1; LSB = 1; Guard = 0; Sticky = 0
    'fs1 == 1 and fe1 == 0x0c and fm1 == 0x24c and  fcsr == 0x40 and rm_val == 7  and rs1_nan_prefix == 0xffff  #nosat': 1 #  rs1_val==hnorm(0xb24c) | Exp = -3; Sign = 1; LSB = 1; Guard = 0; Sticky = 0
    'fs1 == 1 and fe1 == 0x0c and fm1 == 0x24c and  fcsr == 0x60 and rm_val == 7  and rs1_nan_prefix == 0xffff  #nosat': 1 #  rs1_val==hnorm(0xb24c) | Exp = -3; Sign = 1; LSB = 1; Guard = 0; Sticky = 0
    'fs1 == 1 and fe1 == 0x0c and fm1 == 0x24c and  fcsr == 0x80 and rm_val == 7  and rs1_nan_prefix == 0xffff  #nosat': 1 #  rs1_val==hnorm(0xb24c) | Exp = -3; Sign = 1; LSB = 1; Guard = 0; Sticky = 0
    'fs1 == 1 and fe1 == 0x0c and fm1 == 0x24d and  fcsr == 0x0 and rm_val == 7  and rs1_nan_prefix == 0xffff  #nosat': 1 #  rs1_val==hnorm(0xb24d) | Exp = -3; Sign = 1; LSB = 1; Guard = 0; Sticky = 1
    'fs1 == 1 and fe1 == 0x0c and fm1 == 0x24d and  fcsr == 0x20 and rm_val == 7  and rs1_nan_prefix == 0xffff  #nosat': 1 #  rs1_val==hnorm(0xb24d) | Exp = -3; Sign = 1; LSB = 1; Guard = 0; Sticky = 1
    'fs1 == 1 and fe1 == 0x0c and fm1 == 0x24d and  fcsr == 0x40 and rm_val == 7  and rs1_nan_prefix == 0xffff  #nosat': 1 #  rs1_val==hnorm(0xb24d) | Exp = -3; Sign = 1; LSB = 1; Guard = 0; Sticky = 1
    'fs1 == 1 and fe1 == 0x0c and fm1 == 0x24d and  fcsr == 0x60 and rm_val == 7  and rs1_nan_prefix == 0xffff  #nosat': 1 #  rs1_val==hnorm(0xb24d) | Exp = -3; Sign = 1; LSB = 1; Guard = 0; Sticky = 1
    'fs1 == 1 and fe1 == 0x0c and fm1 == 0x24d and  fcsr == 0x80 and rm_val == 7  and rs1_nan_prefix == 0xffff  #nosat': 1 #  rs1_val==hnorm(0xb24d) | Exp = -3; Sign = 1; LSB = 1; Guard = 0; Sticky = 1
    'fs1 == 1 and fe1 == 0x0c and fm1 == 0x24e and  fcsr == 0x0 and rm_val == 7  and rs1_nan_prefix == 0xffff  #nosat': 1 #  rs1_val==hnorm(0xb24e) | Exp = -3; Sign = 1; LSB = 1; Guard = 1; Sticky = 0
    'fs1 == 1 and fe1 == 0x0c and fm1 == 0x24e and  fcsr == 0x20 and rm_val == 7  and rs1_nan_prefix == 0xffff  #nosat': 1 #  rs1_val==hnorm(0xb24e) | Exp = -3; Sign = 1; LSB = 1; Guard = 1; Sticky = 0
    'fs1 == 1 and fe1 == 0x0c and fm1 == 0x24e and  fcsr == 0x40 and rm_val == 7  and rs1_nan_prefix == 0xffff  #nosat': 1 #  rs1_val==hnorm(0xb24e) | Exp = -3; Sign = 1; LSB = 1; Guard = 1; Sticky = 0
    'fs1 == 1 and fe1 == 0x0c and fm1 == 0x24e and  fcsr == 0x60 and rm_val == 7  and rs1_nan_prefix == 0xffff  #nosat': 1 #  rs1_val==hnorm(0xb24e) | Exp = -3; Sign = 1; LSB = 1; Guard = 1; Sticky = 0
    'fs1 == 1 and fe1 == 0x0c and fm1 == 0x24e and  fcsr == 0x80 and rm_val == 7  and rs1_nan_prefix == 0xffff  #nosat': 1 #  rs1_val==hnorm(0xb24e) | Exp = -3; Sign = 1; LSB = 1; Guard = 1; Sticky = 0
    'fs1 == 1 and fe1 == 0x0c and fm1 == 0x24f and  fcsr == 0x0 and rm_val == 7  and rs1_nan_prefix == 0xffff  #nosat': 1 #  rs1_val==hnorm(0xb24f) | Exp = -3; Sign = 1; LSB = 1; Guard = 1; Sticky = 1
    'fs1 == 1 and fe1 == 0x0c and fm1 == 0x24f and  fcsr == 0x20 and rm_val == 7  and rs1_nan_prefix == 0xffff  #nosat': 1 #  rs1_val==hnorm(0xb24f) | Exp = -3; Sign = 1; LSB = 1; Guard = 1; Sticky = 1
    'fs1 == 1 and fe1 == 0x0c and fm1 == 0x24f and  fcsr == 0x40 and rm_val == 7  and rs1_nan_prefix == 0xffff  #nosat': 1 #  rs1_val==hnorm(0xb24f) | Exp = -3; Sign = 1; LSB = 1; Guard = 1; Sticky = 1
    'fs1 == 1 and fe1 == 0x0c and fm1 == 0x24f and  fcsr == 0x60 and rm_val == 7  and rs1_nan_prefix == 0xffff  #nosat': 1 #  rs1_val==hnorm(0xb24f) | Exp = -3; Sign = 1; LSB = 1; Guard = 1; Sticky = 1
    'fs1 == 1 and fe1 == 0x0c and fm1 == 0x24f and  fcsr == 0x80 and rm_val == 7  and rs1_nan_prefix == 0xffff  #nosat': 1 #  rs1_val==hnorm(0xb24f) | Exp = -3; Sign = 1; LSB = 1; Guard = 1; Sticky = 1
    coverage: 80/80
  total_coverage: 147/147
