---
fnmsub.d_b5:
  config:
  - check ISA:=regex(.*I.*D.*)
  mnemonics:
    fnmsub.d: 218
    coverage: 1/1
  op_comb:
    rd == rs2 == rs3 != rs1: 1
    rs1 != rs2 and rs1 != rd and rs1 != rs3 and rs2 != rs3 and rs2 != rd and rs3 != rd: 207
    rs1 == rd != rs2 and rs1 == rd != rs3 and rs3 != rs2: 1
    rs1 == rd == rs3 != rs2: 1
    rs1 == rs2 != rs3 and rs1 == rs2 != rd and rd != rs3: 1
    rs1 == rs2 == rd != rs3: 1
    rs1 == rs2 == rs3 != rd: 1
    rs1 == rs2 == rs3 == rd: 1
    rs1 == rs3 != rs2 and rs1 == rs3 != rd and rd != rs2: 1
    rs2 == rd != rs1 and rs2 == rd != rs3 and rs3 != rs1: 1
    rs2 == rs3 != rs1 and rs2 == rs3 != rd and rd != rs1: 1
    rs3 == rd != rs1 and rs3 == rd != rs2 and rs2 != rs1: 1
    coverage: 12/12
  rd:
    f0: 1
    f1: 1
    f10: 1
    f11: 1
    f12: 1
    f13: 1
    f14: 1
    f15: 1
    f16: 1
    f17: 1
    f18: 1
    f19: 1
    f2: 1
    f20: 1
    f21: 1
    f22: 1
    f23: 1
    f24: 1
    f25: 1
    f26: 1
    f27: 1
    f28: 1
    f29: 1
    f3: 1
    f30: 1
    f31: 187
    f4: 1
    f5: 1
    f6: 1
    f7: 1
    f8: 1
    f9: 1
    coverage: 32/32
  rs1:
    f0: 1
    f1: 1
    f10: 1
    f11: 1
    f12: 1
    f13: 1
    f14: 1
    f15: 1
    f16: 1
    f17: 1
    f18: 1
    f19: 1
    f2: 1
    f20: 1
    f21: 1
    f22: 1
    f23: 1
    f24: 1
    f25: 1
    f26: 1
    f27: 1
    f28: 1
    f29: 1
    f3: 1
    f30: 185
    f31: 3
    f4: 1
    f5: 1
    f6: 1
    f7: 1
    f8: 1
    f9: 1
    coverage: 32/32
  rs2:
    f0: 1
    f1: 1
    f10: 1
    f11: 1
    f12: 1
    f13: 1
    f14: 1
    f15: 1
    f16: 1
    f17: 1
    f18: 1
    f19: 1
    f2: 1
    f20: 1
    f21: 1
    f22: 1
    f23: 1
    f24: 1
    f25: 1
    f26: 1
    f27: 1
    f28: 1
    f29: 183
    f3: 1
    f30: 5
    f31: 1
    f4: 1
    f5: 1
    f6: 1
    f7: 1
    f8: 1
    f9: 1
    coverage: 32/32
  rs3:
    f0: 1
    f1: 1
    f10: 1
    f11: 1
    f12: 1
    f13: 1
    f14: 1
    f15: 1
    f16: 1
    f17: 1
    f18: 1
    f19: 1
    f2: 1
    f20: 1
    f21: 1
    f22: 1
    f23: 1
    f24: 1
    f25: 1
    f26: 1
    f27: 1
    f28: 181
    f29: 7
    f3: 1
    f30: 1
    f31: 1
    f4: 1
    f5: 1
    f6: 1
    f7: 1
    f8: 1
    f9: 1
    coverage: 32/32
  val_comb:
    ? 'fs1 == 0 and fe1 == 0x7fc and fm1 == 0xd04b295ed34fb and fs2 == 1 and fe2 ==
      0x401 and fm2 == 0x0fa8eca9ef80d and fs3 == 0 and fe3 == 0x7fe and fm3 == 0xecb1ef58060d8
      and fcsr == 0x2 and rm_val == 7   #nosat'
    : 1
    ? 'fs1 == 0 and fe1 == 0x7fc and fm1 == 0xd04b295ed34fb and fs2 == 1 and fe2 ==
      0x401 and fm2 == 0x0fa8eca9ef80d and fs3 == 0 and fe3 == 0x7fe and fm3 == 0xecb1ef58060d8
      and fcsr == 0x22 and rm_val == 7   #nosat'
    : 1
    ? 'fs1 == 0 and fe1 == 0x7fc and fm1 == 0xd04b295ed34fb and fs2 == 1 and fe2 ==
      0x401 and fm2 == 0x0fa8eca9ef80d and fs3 == 0 and fe3 == 0x7fe and fm3 == 0xecb1ef58060d8
      and fcsr == 0x42 and rm_val == 7   #nosat'
    : 1
    ? 'fs1 == 0 and fe1 == 0x7fc and fm1 == 0xd04b295ed34fb and fs2 == 1 and fe2 ==
      0x401 and fm2 == 0x0fa8eca9ef80d and fs3 == 0 and fe3 == 0x7fe and fm3 == 0xecb1ef58060d8
      and fcsr == 0x62 and rm_val == 7   #nosat'
    : 1
    ? 'fs1 == 0 and fe1 == 0x7fc and fm1 == 0xd04b295ed34fb and fs2 == 1 and fe2 ==
      0x401 and fm2 == 0x0fa8eca9ef80d and fs3 == 0 and fe3 == 0x7fe and fm3 == 0xecb1ef58060d8
      and fcsr == 0x82 and rm_val == 7   #nosat'
    : 1
    ? 'fs1 == 0 and fe1 == 0x7fc and fm1 == 0x02b9c63170177 and fs2 == 1 and fe2 ==
      0x401 and fm2 == 0x65108518b1961 and fs3 == 0 and fe3 == 0x7fe and fm3 == 0x68ddc382cd441
      and fcsr == 0x2 and rm_val == 7   #nosat'
    : 1
    ? 'fs1 == 0 and fe1 == 0x7fc and fm1 == 0x02b9c63170177 and fs2 == 1 and fe2 ==
      0x401 and fm2 == 0x65108518b1961 and fs3 == 0 and fe3 == 0x7fe and fm3 == 0x68ddc382cd441
      and fcsr == 0x22 and rm_val == 7   #nosat'
    : 1
    ? 'fs1 == 0 and fe1 == 0x7fc and fm1 == 0x02b9c63170177 and fs2 == 1 and fe2 ==
      0x401 and fm2 == 0x65108518b1961 and fs3 == 0 and fe3 == 0x7fe and fm3 == 0x68ddc382cd441
      and fcsr == 0x42 and rm_val == 7   #nosat'
    : 1
    ? 'fs1 == 0 and fe1 == 0x7fc and fm1 == 0x02b9c63170177 and fs2 == 1 and fe2 ==
      0x401 and fm2 == 0x65108518b1961 and fs3 == 0 and fe3 == 0x7fe and fm3 == 0x68ddc382cd441
      and fcsr == 0x62 and rm_val == 7   #nosat'
    : 1
    ? 'fs1 == 0 and fe1 == 0x7fc and fm1 == 0x02b9c63170177 and fs2 == 1 and fe2 ==
      0x401 and fm2 == 0x65108518b1961 and fs3 == 0 and fe3 == 0x7fe and fm3 == 0x68ddc382cd441
      and fcsr == 0x82 and rm_val == 7   #nosat'
    : 1
    ? 'fs1 == 0 and fe1 == 0x7fb and fm1 == 0x5ceb3a4610497 and fs2 == 1 and fe2 ==
      0x400 and fm2 == 0x73ce7e402e9c5 and fs3 == 0 and fe3 == 0x7fc and fm3 == 0xfac256cfaefff
      and fcsr == 0x2 and rm_val == 7   #nosat'
    : 1
    ? 'fs1 == 0 and fe1 == 0x7fb and fm1 == 0x5ceb3a4610497 and fs2 == 1 and fe2 ==
      0x400 and fm2 == 0x73ce7e402e9c5 and fs3 == 0 and fe3 == 0x7fc and fm3 == 0xfac256cfaefff
      and fcsr == 0x22 and rm_val == 7   #nosat'
    : 1
    ? 'fs1 == 0 and fe1 == 0x7fb and fm1 == 0x5ceb3a4610497 and fs2 == 1 and fe2 ==
      0x400 and fm2 == 0x73ce7e402e9c5 and fs3 == 0 and fe3 == 0x7fc and fm3 == 0xfac256cfaefff
      and fcsr == 0x42 and rm_val == 7   #nosat'
    : 1
    ? 'fs1 == 0 and fe1 == 0x7fb and fm1 == 0x5ceb3a4610497 and fs2 == 1 and fe2 ==
      0x400 and fm2 == 0x73ce7e402e9c5 and fs3 == 0 and fe3 == 0x7fc and fm3 == 0xfac256cfaefff
      and fcsr == 0x62 and rm_val == 7   #nosat'
    : 1
    ? 'fs1 == 0 and fe1 == 0x7fb and fm1 == 0x5ceb3a4610497 and fs2 == 1 and fe2 ==
      0x400 and fm2 == 0x73ce7e402e9c5 and fs3 == 0 and fe3 == 0x7fc and fm3 == 0xfac256cfaefff
      and fcsr == 0x82 and rm_val == 7   #nosat'
    : 1
    ? 'fs1 == 0 and fe1 == 0x7fe and fm1 == 0xff8dc6a068355 and fs2 == 1 and fe2 ==
      0x3fc and fm2 == 0xad386c0f8fa8c and fs3 == 0 and fe3 == 0x7fc and fm3 == 0xacd8aa6694f1f
      and fcsr == 0x2 and rm_val == 7   #nosat'
    : 1
    ? 'fs1 == 0 and fe1 == 0x7fe and fm1 == 0xff8dc6a068355 and fs2 == 1 and fe2 ==
      0x3fc and fm2 == 0xad386c0f8fa8c and fs3 == 0 and fe3 == 0x7fc and fm3 == 0xacd8aa6694f1f
      and fcsr == 0x22 and rm_val == 7   #nosat'
    : 1
    ? 'fs1 == 0 and fe1 == 0x7fe and fm1 == 0xff8dc6a068355 and fs2 == 1 and fe2 ==
      0x3fc and fm2 == 0xad386c0f8fa8c and fs3 == 0 and fe3 == 0x7fc and fm3 == 0xacd8aa6694f1f
      and fcsr == 0x42 and rm_val == 7   #nosat'
    : 1
    ? 'fs1 == 0 and fe1 == 0x7fe and fm1 == 0xff8dc6a068355 and fs2 == 1 and fe2 ==
      0x3fc and fm2 == 0xad386c0f8fa8c and fs3 == 0 and fe3 == 0x7fc and fm3 == 0xacd8aa6694f1f
      and fcsr == 0x62 and rm_val == 7   #nosat'
    : 1
    ? 'fs1 == 0 and fe1 == 0x7fe and fm1 == 0xff8dc6a068355 and fs2 == 1 and fe2 ==
      0x3fc and fm2 == 0xad386c0f8fa8c and fs3 == 0 and fe3 == 0x7fc and fm3 == 0xacd8aa6694f1f
      and fcsr == 0x82 and rm_val == 7   #nosat'
    : 1
    ? 'fs1 == 0 and fe1 == 0x7fe and fm1 == 0x48a2fac1f0550 and fs2 == 1 and fe2 ==
      0x3fe and fm2 == 0x6e3ce0c418e1e and fs3 == 0 and fe3 == 0x7fd and fm3 == 0xd627293e6330d
      and fcsr == 0x2 and rm_val == 7   #nosat'
    : 1
    ? 'fs1 == 0 and fe1 == 0x7fe and fm1 == 0x48a2fac1f0550 and fs2 == 1 and fe2 ==
      0x3fe and fm2 == 0x6e3ce0c418e1e and fs3 == 0 and fe3 == 0x7fd and fm3 == 0xd627293e6330d
      and fcsr == 0x22 and rm_val == 7   #nosat'
    : 1
    ? 'fs1 == 0 and fe1 == 0x7fe and fm1 == 0x48a2fac1f0550 and fs2 == 1 and fe2 ==
      0x3fe and fm2 == 0x6e3ce0c418e1e and fs3 == 0 and fe3 == 0x7fd and fm3 == 0xd627293e6330d
      and fcsr == 0x42 and rm_val == 7   #nosat'
    : 1
    ? 'fs1 == 0 and fe1 == 0x7fe and fm1 == 0x48a2fac1f0550 and fs2 == 1 and fe2 ==
      0x3fe and fm2 == 0x6e3ce0c418e1e and fs3 == 0 and fe3 == 0x7fd and fm3 == 0xd627293e6330d
      and fcsr == 0x62 and rm_val == 7   #nosat'
    : 1
    ? 'fs1 == 0 and fe1 == 0x7fe and fm1 == 0x48a2fac1f0550 and fs2 == 1 and fe2 ==
      0x3fe and fm2 == 0x6e3ce0c418e1e and fs3 == 0 and fe3 == 0x7fd and fm3 == 0xd627293e6330d
      and fcsr == 0x82 and rm_val == 7   #nosat'
    : 1
    ? 'fs1 == 0 and fe1 == 0x7fd and fm1 == 0xd001f2b1fb2eb and fs2 == 1 and fe2 ==
      0x3ff and fm2 == 0x17a4c0d8855cc and fs3 == 0 and fe3 == 0x7fd and fm3 == 0xfadcbe495c283
      and fcsr == 0x2 and rm_val == 7   #nosat'
    : 1
    ? 'fs1 == 0 and fe1 == 0x7fd and fm1 == 0xd001f2b1fb2eb and fs2 == 1 and fe2 ==
      0x3ff and fm2 == 0x17a4c0d8855cc and fs3 == 0 and fe3 == 0x7fd and fm3 == 0xfadcbe495c283
      and fcsr == 0x22 and rm_val == 7   #nosat'
    : 1
    ? 'fs1 == 0 and fe1 == 0x7fd and fm1 == 0xd001f2b1fb2eb and fs2 == 1 and fe2 ==
      0x3ff and fm2 == 0x17a4c0d8855cc and fs3 == 0 and fe3 == 0x7fd and fm3 == 0xfadcbe495c283
      and fcsr == 0x42 and rm_val == 7   #nosat'
    : 1
    ? 'fs1 == 0 and fe1 == 0x7fd and fm1 == 0xd001f2b1fb2eb and fs2 == 1 and fe2 ==
      0x3ff and fm2 == 0x17a4c0d8855cc and fs3 == 0 and fe3 == 0x7fd and fm3 == 0xfadcbe495c283
      and fcsr == 0x62 and rm_val == 7   #nosat'
    : 1
    ? 'fs1 == 0 and fe1 == 0x7fd and fm1 == 0xd001f2b1fb2eb and fs2 == 1 and fe2 ==
      0x3ff and fm2 == 0x17a4c0d8855cc and fs3 == 0 and fe3 == 0x7fd and fm3 == 0xfadcbe495c283
      and fcsr == 0x82 and rm_val == 7   #nosat'
    : 1
    ? 'fs1 == 0 and fe1 == 0x7fc and fm1 == 0x89b052e5b805f and fs2 == 1 and fe2 ==
      0x401 and fm2 == 0x14820ad9ea9fd and fs3 == 0 and fe3 == 0x7fe and fm3 == 0xa93a1599c5921
      and fcsr == 0x2 and rm_val == 7   #nosat'
    : 1
    ? 'fs1 == 0 and fe1 == 0x7fc and fm1 == 0x89b052e5b805f and fs2 == 1 and fe2 ==
      0x401 and fm2 == 0x14820ad9ea9fd and fs3 == 0 and fe3 == 0x7fe and fm3 == 0xa93a1599c5921
      and fcsr == 0x22 and rm_val == 7   #nosat'
    : 1
    ? 'fs1 == 0 and fe1 == 0x7fc and fm1 == 0x89b052e5b805f and fs2 == 1 and fe2 ==
      0x401 and fm2 == 0x14820ad9ea9fd and fs3 == 0 and fe3 == 0x7fe and fm3 == 0xa93a1599c5921
      and fcsr == 0x42 and rm_val == 7   #nosat'
    : 1
    ? 'fs1 == 0 and fe1 == 0x7fc and fm1 == 0x89b052e5b805f and fs2 == 1 and fe2 ==
      0x401 and fm2 == 0x14820ad9ea9fd and fs3 == 0 and fe3 == 0x7fe and fm3 == 0xa93a1599c5921
      and fcsr == 0x62 and rm_val == 7   #nosat'
    : 1
    ? 'fs1 == 0 and fe1 == 0x7fc and fm1 == 0x89b052e5b805f and fs2 == 1 and fe2 ==
      0x401 and fm2 == 0x14820ad9ea9fd and fs3 == 0 and fe3 == 0x7fe and fm3 == 0xa93a1599c5921
      and fcsr == 0x82 and rm_val == 7   #nosat'
    : 1
    ? 'fs1 == 0 and fe1 == 0x7fb and fm1 == 0x6edc5cf85ef57 and fs2 == 1 and fe2 ==
      0x400 and fm2 == 0x4eacecd7619ad and fs3 == 0 and fe3 == 0x7fc and fm3 == 0xdf9b50c24f6a7
      and fcsr == 0x2 and rm_val == 7   #nosat'
    : 1
    ? 'fs1 == 0 and fe1 == 0x7fb and fm1 == 0x6edc5cf85ef57 and fs2 == 1 and fe2 ==
      0x400 and fm2 == 0x4eacecd7619ad and fs3 == 0 and fe3 == 0x7fc and fm3 == 0xdf9b50c24f6a7
      and fcsr == 0x22 and rm_val == 7   #nosat'
    : 1
    ? 'fs1 == 0 and fe1 == 0x7fb and fm1 == 0x6edc5cf85ef57 and fs2 == 1 and fe2 ==
      0x400 and fm2 == 0x4eacecd7619ad and fs3 == 0 and fe3 == 0x7fc and fm3 == 0xdf9b50c24f6a7
      and fcsr == 0x42 and rm_val == 7   #nosat'
    : 1
    ? 'fs1 == 0 and fe1 == 0x7fb and fm1 == 0x6edc5cf85ef57 and fs2 == 1 and fe2 ==
      0x400 and fm2 == 0x4eacecd7619ad and fs3 == 0 and fe3 == 0x7fc and fm3 == 0xdf9b50c24f6a7
      and fcsr == 0x62 and rm_val == 7   #nosat'
    : 1
    ? 'fs1 == 0 and fe1 == 0x7fb and fm1 == 0x6edc5cf85ef57 and fs2 == 1 and fe2 ==
      0x400 and fm2 == 0x4eacecd7619ad and fs3 == 0 and fe3 == 0x7fc and fm3 == 0xdf9b50c24f6a7
      and fcsr == 0x82 and rm_val == 7   #nosat'
    : 1
    ? 'fs1 == 0 and fe1 == 0x7f9 and fm1 == 0x47899d9bfab7f and fs2 == 1 and fe2 ==
      0x402 and fm2 == 0xab0378616b563 and fs3 == 0 and fe3 == 0x7fd and fm3 == 0x112b7d42952fb
      and fcsr == 0x2 and rm_val == 7   #nosat'
    : 1
    ? 'fs1 == 0 and fe1 == 0x7f9 and fm1 == 0x47899d9bfab7f and fs2 == 1 and fe2 ==
      0x402 and fm2 == 0xab0378616b563 and fs3 == 0 and fe3 == 0x7fd and fm3 == 0x112b7d42952fb
      and fcsr == 0x22 and rm_val == 7   #nosat'
    : 1
    ? 'fs1 == 0 and fe1 == 0x7f9 and fm1 == 0x47899d9bfab7f and fs2 == 1 and fe2 ==
      0x402 and fm2 == 0xab0378616b563 and fs3 == 0 and fe3 == 0x7fd and fm3 == 0x112b7d42952fb
      and fcsr == 0x42 and rm_val == 7   #nosat'
    : 1
    ? 'fs1 == 0 and fe1 == 0x7f9 and fm1 == 0x47899d9bfab7f and fs2 == 1 and fe2 ==
      0x402 and fm2 == 0xab0378616b563 and fs3 == 0 and fe3 == 0x7fd and fm3 == 0x112b7d42952fb
      and fcsr == 0x62 and rm_val == 7   #nosat'
    : 1
    ? 'fs1 == 0 and fe1 == 0x7f9 and fm1 == 0x47899d9bfab7f and fs2 == 1 and fe2 ==
      0x402 and fm2 == 0xab0378616b563 and fs3 == 0 and fe3 == 0x7fd and fm3 == 0x112b7d42952fb
      and fcsr == 0x82 and rm_val == 7   #nosat'
    : 1
    ? 'fs1 == 0 and fe1 == 0x7fd and fm1 == 0xa172a2bcb69dd and fs2 == 1 and fe2 ==
      0x400 and fm2 == 0x1b3be19e7ca6e and fs3 == 0 and fe3 == 0x7fe and fm3 == 0xcddb5f3a506a8
      and fcsr == 0x2 and rm_val == 7   #nosat'
    : 1
    ? 'fs1 == 0 and fe1 == 0x7fd and fm1 == 0xa172a2bcb69dd and fs2 == 1 and fe2 ==
      0x400 and fm2 == 0x1b3be19e7ca6e and fs3 == 0 and fe3 == 0x7fe and fm3 == 0xcddb5f3a506a8
      and fcsr == 0x22 and rm_val == 7   #nosat'
    : 1
    ? 'fs1 == 0 and fe1 == 0x7fd and fm1 == 0xa172a2bcb69dd and fs2 == 1 and fe2 ==
      0x400 and fm2 == 0x1b3be19e7ca6e and fs3 == 0 and fe3 == 0x7fe and fm3 == 0xcddb5f3a506a8
      and fcsr == 0x42 and rm_val == 7   #nosat'
    : 1
    ? 'fs1 == 0 and fe1 == 0x7fd and fm1 == 0xa172a2bcb69dd and fs2 == 1 and fe2 ==
      0x400 and fm2 == 0x1b3be19e7ca6e and fs3 == 0 and fe3 == 0x7fe and fm3 == 0xcddb5f3a506a8
      and fcsr == 0x62 and rm_val == 7   #nosat'
    : 1
    ? 'fs1 == 0 and fe1 == 0x7fd and fm1 == 0xa172a2bcb69dd and fs2 == 1 and fe2 ==
      0x400 and fm2 == 0x1b3be19e7ca6e and fs3 == 0 and fe3 == 0x7fe and fm3 == 0xcddb5f3a506a8
      and fcsr == 0x82 and rm_val == 7   #nosat'
    : 1
    ? 'fs1 == 0 and fe1 == 0x7fd and fm1 == 0x842c58dceda19 and fs2 == 1 and fe2 ==
      0x3fd and fm2 == 0x3338f0c18cf59 and fs3 == 0 and fe3 == 0x7fb and fm3 == 0xd1d785536fc77
      and fcsr == 0x2 and rm_val == 7   #nosat'
    : 1
    ? 'fs1 == 0 and fe1 == 0x7fd and fm1 == 0x842c58dceda19 and fs2 == 1 and fe2 ==
      0x3fd and fm2 == 0x3338f0c18cf59 and fs3 == 0 and fe3 == 0x7fb and fm3 == 0xd1d785536fc77
      and fcsr == 0x22 and rm_val == 7   #nosat'
    : 1
    ? 'fs1 == 0 and fe1 == 0x7fd and fm1 == 0x842c58dceda19 and fs2 == 1 and fe2 ==
      0x3fd and fm2 == 0x3338f0c18cf59 and fs3 == 0 and fe3 == 0x7fb and fm3 == 0xd1d785536fc77
      and fcsr == 0x42 and rm_val == 7   #nosat'
    : 1
    ? 'fs1 == 0 and fe1 == 0x7fd and fm1 == 0x842c58dceda19 and fs2 == 1 and fe2 ==
      0x3fd and fm2 == 0x3338f0c18cf59 and fs3 == 0 and fe3 == 0x7fb and fm3 == 0xd1d785536fc77
      and fcsr == 0x62 and rm_val == 7   #nosat'
    : 1
    ? 'fs1 == 0 and fe1 == 0x7fd and fm1 == 0x842c58dceda19 and fs2 == 1 and fe2 ==
      0x3fd and fm2 == 0x3338f0c18cf59 and fs3 == 0 and fe3 == 0x7fb and fm3 == 0xd1d785536fc77
      and fcsr == 0x82 and rm_val == 7   #nosat'
    : 1
    ? 'fs1 == 0 and fe1 == 0x7fd and fm1 == 0x088ea90c6ff9b and fs2 == 1 and fe2 ==
      0x400 and fm2 == 0xeb474ec646f44 and fs3 == 0 and fe3 == 0x7fe and fm3 == 0xfbb34f341c62f
      and fcsr == 0x2 and rm_val == 7   #nosat'
    : 1
    ? 'fs1 == 0 and fe1 == 0x7fd and fm1 == 0x088ea90c6ff9b and fs2 == 1 and fe2 ==
      0x400 and fm2 == 0xeb474ec646f44 and fs3 == 0 and fe3 == 0x7fe and fm3 == 0xfbb34f341c62f
      and fcsr == 0x22 and rm_val == 7   #nosat'
    : 1
    ? 'fs1 == 0 and fe1 == 0x7fd and fm1 == 0x088ea90c6ff9b and fs2 == 1 and fe2 ==
      0x400 and fm2 == 0xeb474ec646f44 and fs3 == 0 and fe3 == 0x7fe and fm3 == 0xfbb34f341c62f
      and fcsr == 0x42 and rm_val == 7   #nosat'
    : 1
    ? 'fs1 == 0 and fe1 == 0x7fd and fm1 == 0x088ea90c6ff9b and fs2 == 1 and fe2 ==
      0x400 and fm2 == 0xeb474ec646f44 and fs3 == 0 and fe3 == 0x7fe and fm3 == 0xfbb34f341c62f
      and fcsr == 0x62 and rm_val == 7   #nosat'
    : 1
    ? 'fs1 == 0 and fe1 == 0x7fd and fm1 == 0x088ea90c6ff9b and fs2 == 1 and fe2 ==
      0x400 and fm2 == 0xeb474ec646f44 and fs3 == 0 and fe3 == 0x7fe and fm3 == 0xfbb34f341c62f
      and fcsr == 0x82 and rm_val == 7   #nosat'
    : 1
    ? 'fs1 == 0 and fe1 == 0x7fb and fm1 == 0x026946c5d22f7 and fs2 == 1 and fe2 ==
      0x402 and fm2 == 0x3a902b464b971 and fs3 == 0 and fe3 == 0x7fe and fm3 == 0x3d86a7b5170e5
      and fcsr == 0x2 and rm_val == 7   #nosat'
    : 1
    ? 'fs1 == 0 and fe1 == 0x7fb and fm1 == 0x026946c5d22f7 and fs2 == 1 and fe2 ==
      0x402 and fm2 == 0x3a902b464b971 and fs3 == 0 and fe3 == 0x7fe and fm3 == 0x3d86a7b5170e5
      and fcsr == 0x22 and rm_val == 7   #nosat'
    : 1
    ? 'fs1 == 0 and fe1 == 0x7fb and fm1 == 0x026946c5d22f7 and fs2 == 1 and fe2 ==
      0x402 and fm2 == 0x3a902b464b971 and fs3 == 0 and fe3 == 0x7fe and fm3 == 0x3d86a7b5170e5
      and fcsr == 0x42 and rm_val == 7   #nosat'
    : 1
    ? 'fs1 == 0 and fe1 == 0x7fb and fm1 == 0x026946c5d22f7 and fs2 == 1 and fe2 ==
      0x402 and fm2 == 0x3a902b464b971 and fs3 == 0 and fe3 == 0x7fe and fm3 == 0x3d86a7b5170e5
      and fcsr == 0x62 and rm_val == 7   #nosat'
    : 1
    ? 'fs1 == 0 and fe1 == 0x7fb and fm1 == 0x026946c5d22f7 and fs2 == 1 and fe2 ==
      0x402 and fm2 == 0x3a902b464b971 and fs3 == 0 and fe3 == 0x7fe and fm3 == 0x3d86a7b5170e5
      and fcsr == 0x82 and rm_val == 7   #nosat'
    : 1
    ? 'fs1 == 0 and fe1 == 0x7fd and fm1 == 0x8242100dca0f9 and fs2 == 1 and fe2 ==
      0x3ff and fm2 == 0xc07f8eef0e1ce and fs3 == 0 and fe3 == 0x7fe and fm3 == 0x525a0943b7292
      and fcsr == 0x2 and rm_val == 7   #nosat'
    : 1
    ? 'fs1 == 0 and fe1 == 0x7fd and fm1 == 0x8242100dca0f9 and fs2 == 1 and fe2 ==
      0x3ff and fm2 == 0xc07f8eef0e1ce and fs3 == 0 and fe3 == 0x7fe and fm3 == 0x525a0943b7292
      and fcsr == 0x22 and rm_val == 7   #nosat'
    : 1
    ? 'fs1 == 0 and fe1 == 0x7fd and fm1 == 0x8242100dca0f9 and fs2 == 1 and fe2 ==
      0x3ff and fm2 == 0xc07f8eef0e1ce and fs3 == 0 and fe3 == 0x7fe and fm3 == 0x525a0943b7292
      and fcsr == 0x42 and rm_val == 7   #nosat'
    : 1
    ? 'fs1 == 0 and fe1 == 0x7fd and fm1 == 0x8242100dca0f9 and fs2 == 1 and fe2 ==
      0x3ff and fm2 == 0xc07f8eef0e1ce and fs3 == 0 and fe3 == 0x7fe and fm3 == 0x525a0943b7292
      and fcsr == 0x62 and rm_val == 7   #nosat'
    : 1
    ? 'fs1 == 0 and fe1 == 0x7fd and fm1 == 0x8242100dca0f9 and fs2 == 1 and fe2 ==
      0x3ff and fm2 == 0xc07f8eef0e1ce and fs3 == 0 and fe3 == 0x7fe and fm3 == 0x525a0943b7292
      and fcsr == 0x82 and rm_val == 7   #nosat'
    : 1
    ? 'fs1 == 0 and fe1 == 0x7fd and fm1 == 0x5a8fa51e01729 and fs2 == 1 and fe2 ==
      0x400 and fm2 == 0x05747d4624e5b and fs3 == 0 and fe3 == 0x7fe and fm3 == 0x61f2260581ec6
      and fcsr == 0x2 and rm_val == 7   #nosat'
    : 1
    ? 'fs1 == 0 and fe1 == 0x7fd and fm1 == 0x5a8fa51e01729 and fs2 == 1 and fe2 ==
      0x400 and fm2 == 0x05747d4624e5b and fs3 == 0 and fe3 == 0x7fe and fm3 == 0x61f2260581ec6
      and fcsr == 0x22 and rm_val == 7   #nosat'
    : 1
    ? 'fs1 == 0 and fe1 == 0x7fd and fm1 == 0x5a8fa51e01729 and fs2 == 1 and fe2 ==
      0x400 and fm2 == 0x05747d4624e5b and fs3 == 0 and fe3 == 0x7fe and fm3 == 0x61f2260581ec6
      and fcsr == 0x42 and rm_val == 7   #nosat'
    : 1
    ? 'fs1 == 0 and fe1 == 0x7fd and fm1 == 0x5a8fa51e01729 and fs2 == 1 and fe2 ==
      0x400 and fm2 == 0x05747d4624e5b and fs3 == 0 and fe3 == 0x7fe and fm3 == 0x61f2260581ec6
      and fcsr == 0x62 and rm_val == 7   #nosat'
    : 1
    ? 'fs1 == 0 and fe1 == 0x7fd and fm1 == 0x5a8fa51e01729 and fs2 == 1 and fe2 ==
      0x400 and fm2 == 0x05747d4624e5b and fs3 == 0 and fe3 == 0x7fe and fm3 == 0x61f2260581ec6
      and fcsr == 0x82 and rm_val == 7   #nosat'
    : 1
    ? 'fs1 == 0 and fe1 == 0x7fd and fm1 == 0xfd85c073a2591 and fs2 == 1 and fe2 ==
      0x3ff and fm2 == 0x4e465e00c7596 and fs3 == 0 and fe3 == 0x7fe and fm3 == 0x4ca84761136ef
      and fcsr == 0x2 and rm_val == 7   #nosat'
    : 1
    ? 'fs1 == 0 and fe1 == 0x7fd and fm1 == 0xfd85c073a2591 and fs2 == 1 and fe2 ==
      0x3ff and fm2 == 0x4e465e00c7596 and fs3 == 0 and fe3 == 0x7fe and fm3 == 0x4ca84761136ef
      and fcsr == 0x22 and rm_val == 7   #nosat'
    : 1
    ? 'fs1 == 0 and fe1 == 0x7fd and fm1 == 0xfd85c073a2591 and fs2 == 1 and fe2 ==
      0x3ff and fm2 == 0x4e465e00c7596 and fs3 == 0 and fe3 == 0x7fe and fm3 == 0x4ca84761136ef
      and fcsr == 0x42 and rm_val == 7   #nosat'
    : 1
    ? 'fs1 == 0 and fe1 == 0x7fd and fm1 == 0xfd85c073a2591 and fs2 == 1 and fe2 ==
      0x3ff and fm2 == 0x4e465e00c7596 and fs3 == 0 and fe3 == 0x7fe and fm3 == 0x4ca84761136ef
      and fcsr == 0x62 and rm_val == 7   #nosat'
    : 1
    ? 'fs1 == 0 and fe1 == 0x7fd and fm1 == 0xfd85c073a2591 and fs2 == 1 and fe2 ==
      0x3ff and fm2 == 0x4e465e00c7596 and fs3 == 0 and fe3 == 0x7fe and fm3 == 0x4ca84761136ef
      and fcsr == 0x82 and rm_val == 7   #nosat'
    : 1
    ? 'fs1 == 0 and fe1 == 0x7fe and fm1 == 0xcd8104cd4e803 and fs2 == 1 and fe2 ==
      0x3fe and fm2 == 0x4a5335300308c and fs3 == 0 and fe3 == 0x7fe and fm3 == 0x29bf2873bcb4b
      and fcsr == 0x2 and rm_val == 7   #nosat'
    : 1
    ? 'fs1 == 0 and fe1 == 0x7fe and fm1 == 0xcd8104cd4e803 and fs2 == 1 and fe2 ==
      0x3fe and fm2 == 0x4a5335300308c and fs3 == 0 and fe3 == 0x7fe and fm3 == 0x29bf2873bcb4b
      and fcsr == 0x22 and rm_val == 7   #nosat'
    : 1
    ? 'fs1 == 0 and fe1 == 0x7fe and fm1 == 0xcd8104cd4e803 and fs2 == 1 and fe2 ==
      0x3fe and fm2 == 0x4a5335300308c and fs3 == 0 and fe3 == 0x7fe and fm3 == 0x29bf2873bcb4b
      and fcsr == 0x42 and rm_val == 7   #nosat'
    : 1
    ? 'fs1 == 0 and fe1 == 0x7fe and fm1 == 0xcd8104cd4e803 and fs2 == 1 and fe2 ==
      0x3fe and fm2 == 0x4a5335300308c and fs3 == 0 and fe3 == 0x7fe and fm3 == 0x29bf2873bcb4b
      and fcsr == 0x62 and rm_val == 7   #nosat'
    : 1
    ? 'fs1 == 0 and fe1 == 0x7fe and fm1 == 0xcd8104cd4e803 and fs2 == 1 and fe2 ==
      0x3fe and fm2 == 0x4a5335300308c and fs3 == 0 and fe3 == 0x7fe and fm3 == 0x29bf2873bcb4b
      and fcsr == 0x82 and rm_val == 7   #nosat'
    : 1
    ? 'fs1 == 0 and fe1 == 0x7fc and fm1 == 0x23193c9b51c5f and fs2 == 1 and fe2 ==
      0x3fd and fm2 == 0xcfc38ddf1affa and fs3 == 0 and fe3 == 0x7fb and fm3 == 0x07ac811455a27
      and fcsr == 0x2 and rm_val == 7   #nosat'
    : 1
    ? 'fs1 == 0 and fe1 == 0x7fc and fm1 == 0x23193c9b51c5f and fs2 == 1 and fe2 ==
      0x3fd and fm2 == 0xcfc38ddf1affa and fs3 == 0 and fe3 == 0x7fb and fm3 == 0x07ac811455a27
      and fcsr == 0x22 and rm_val == 7   #nosat'
    : 1
    ? 'fs1 == 0 and fe1 == 0x7fc and fm1 == 0x23193c9b51c5f and fs2 == 1 and fe2 ==
      0x3fd and fm2 == 0xcfc38ddf1affa and fs3 == 0 and fe3 == 0x7fb and fm3 == 0x07ac811455a27
      and fcsr == 0x42 and rm_val == 7   #nosat'
    : 1
    ? 'fs1 == 0 and fe1 == 0x7fc and fm1 == 0x23193c9b51c5f and fs2 == 1 and fe2 ==
      0x3fd and fm2 == 0xcfc38ddf1affa and fs3 == 0 and fe3 == 0x7fb and fm3 == 0x07ac811455a27
      and fcsr == 0x62 and rm_val == 7   #nosat'
    : 1
    ? 'fs1 == 0 and fe1 == 0x7fc and fm1 == 0x23193c9b51c5f and fs2 == 1 and fe2 ==
      0x3fd and fm2 == 0xcfc38ddf1affa and fs3 == 0 and fe3 == 0x7fb and fm3 == 0x07ac811455a27
      and fcsr == 0x82 and rm_val == 7   #nosat'
    : 1
    ? 'fs1 == 0 and fe1 == 0x7fe and fm1 == 0xe460da8265d2d and fs2 == 1 and fe2 ==
      0x3fe and fm2 == 0x087705042c4de and fs3 == 0 and fe3 == 0x7fd and fm3 == 0xf46513d9d53ab
      and fcsr == 0x2 and rm_val == 7   #nosat'
    : 1
    ? 'fs1 == 0 and fe1 == 0x7fe and fm1 == 0xe460da8265d2d and fs2 == 1 and fe2 ==
      0x3fe and fm2 == 0x087705042c4de and fs3 == 0 and fe3 == 0x7fd and fm3 == 0xf46513d9d53ab
      and fcsr == 0x22 and rm_val == 7   #nosat'
    : 1
    ? 'fs1 == 0 and fe1 == 0x7fe and fm1 == 0xe460da8265d2d and fs2 == 1 and fe2 ==
      0x3fe and fm2 == 0x087705042c4de and fs3 == 0 and fe3 == 0x7fd and fm3 == 0xf46513d9d53ab
      and fcsr == 0x42 and rm_val == 7   #nosat'
    : 1
    ? 'fs1 == 0 and fe1 == 0x7fe and fm1 == 0xe460da8265d2d and fs2 == 1 and fe2 ==
      0x3fe and fm2 == 0x087705042c4de and fs3 == 0 and fe3 == 0x7fd and fm3 == 0xf46513d9d53ab
      and fcsr == 0x62 and rm_val == 7   #nosat'
    : 1
    ? 'fs1 == 0 and fe1 == 0x7fe and fm1 == 0xe460da8265d2d and fs2 == 1 and fe2 ==
      0x3fe and fm2 == 0x087705042c4de and fs3 == 0 and fe3 == 0x7fd and fm3 == 0xf46513d9d53ab
      and fcsr == 0x82 and rm_val == 7   #nosat'
    : 1
    ? 'fs1 == 0 and fe1 == 0x7fc and fm1 == 0x8d035325f0f1f and fs2 == 1 and fe2 ==
      0x401 and fm2 == 0x3855081369ebd and fs3 == 0 and fe3 == 0x7fe and fm3 == 0xe45febf70f5c4
      and fcsr == 0x2 and rm_val == 7   #nosat'
    : 1
    ? 'fs1 == 0 and fe1 == 0x7fc and fm1 == 0x8d035325f0f1f and fs2 == 1 and fe2 ==
      0x401 and fm2 == 0x3855081369ebd and fs3 == 0 and fe3 == 0x7fe and fm3 == 0xe45febf70f5c4
      and fcsr == 0x22 and rm_val == 7   #nosat'
    : 1
    ? 'fs1 == 0 and fe1 == 0x7fc and fm1 == 0x8d035325f0f1f and fs2 == 1 and fe2 ==
      0x401 and fm2 == 0x3855081369ebd and fs3 == 0 and fe3 == 0x7fe and fm3 == 0xe45febf70f5c4
      and fcsr == 0x42 and rm_val == 7   #nosat'
    : 1
    ? 'fs1 == 0 and fe1 == 0x7fc and fm1 == 0x8d035325f0f1f and fs2 == 1 and fe2 ==
      0x401 and fm2 == 0x3855081369ebd and fs3 == 0 and fe3 == 0x7fe and fm3 == 0xe45febf70f5c4
      and fcsr == 0x62 and rm_val == 7   #nosat'
    : 1
    ? 'fs1 == 0 and fe1 == 0x7fc and fm1 == 0x8d035325f0f1f and fs2 == 1 and fe2 ==
      0x401 and fm2 == 0x3855081369ebd and fs3 == 0 and fe3 == 0x7fe and fm3 == 0xe45febf70f5c4
      and fcsr == 0x82 and rm_val == 7   #nosat'
    : 1
    ? 'fs1 == 0 and fe1 == 0x7fe and fm1 == 0x286daddd336a6 and fs2 == 1 and fe2 ==
      0x3ff and fm2 == 0x42510ee6b949c and fs3 == 0 and fe3 == 0x7fe and fm3 == 0x7537d0a566421
      and fcsr == 0x2 and rm_val == 7   #nosat'
    : 1
    ? 'fs1 == 0 and fe1 == 0x7fe and fm1 == 0x286daddd336a6 and fs2 == 1 and fe2 ==
      0x3ff and fm2 == 0x42510ee6b949c and fs3 == 0 and fe3 == 0x7fe and fm3 == 0x7537d0a566421
      and fcsr == 0x22 and rm_val == 7   #nosat'
    : 1
    ? 'fs1 == 0 and fe1 == 0x7fe and fm1 == 0x286daddd336a6 and fs2 == 1 and fe2 ==
      0x3ff and fm2 == 0x42510ee6b949c and fs3 == 0 and fe3 == 0x7fe and fm3 == 0x7537d0a566421
      and fcsr == 0x42 and rm_val == 7   #nosat'
    : 1
    ? 'fs1 == 0 and fe1 == 0x7fe and fm1 == 0x286daddd336a6 and fs2 == 1 and fe2 ==
      0x3ff and fm2 == 0x42510ee6b949c and fs3 == 0 and fe3 == 0x7fe and fm3 == 0x7537d0a566421
      and fcsr == 0x62 and rm_val == 7   #nosat'
    : 1
    ? 'fs1 == 0 and fe1 == 0x7fe and fm1 == 0x286daddd336a6 and fs2 == 1 and fe2 ==
      0x3ff and fm2 == 0x42510ee6b949c and fs3 == 0 and fe3 == 0x7fe and fm3 == 0x7537d0a566421
      and fcsr == 0x82 and rm_val == 7   #nosat'
    : 1
    ? 'fs1 == 0 and fe1 == 0x7fe and fm1 == 0xc30d25dc7d1f8 and fs2 == 1 and fe2 ==
      0x3fd and fm2 == 0x4c08cd7bbcd8a and fs3 == 0 and fe3 == 0x7fd and fm3 == 0x248247c756437
      and fcsr == 0x2 and rm_val == 7   #nosat'
    : 1
    ? 'fs1 == 0 and fe1 == 0x7fe and fm1 == 0xc30d25dc7d1f8 and fs2 == 1 and fe2 ==
      0x3fd and fm2 == 0x4c08cd7bbcd8a and fs3 == 0 and fe3 == 0x7fd and fm3 == 0x248247c756437
      and fcsr == 0x22 and rm_val == 7   #nosat'
    : 1
    ? 'fs1 == 0 and fe1 == 0x7fe and fm1 == 0xc30d25dc7d1f8 and fs2 == 1 and fe2 ==
      0x3fd and fm2 == 0x4c08cd7bbcd8a and fs3 == 0 and fe3 == 0x7fd and fm3 == 0x248247c756437
      and fcsr == 0x42 and rm_val == 7   #nosat'
    : 1
    ? 'fs1 == 0 and fe1 == 0x7fe and fm1 == 0xc30d25dc7d1f8 and fs2 == 1 and fe2 ==
      0x3fd and fm2 == 0x4c08cd7bbcd8a and fs3 == 0 and fe3 == 0x7fd and fm3 == 0x248247c756437
      and fcsr == 0x62 and rm_val == 7   #nosat'
    : 1
    ? 'fs1 == 0 and fe1 == 0x7fe and fm1 == 0xc30d25dc7d1f8 and fs2 == 1 and fe2 ==
      0x3fd and fm2 == 0x4c08cd7bbcd8a and fs3 == 0 and fe3 == 0x7fd and fm3 == 0x248247c756437
      and fcsr == 0x82 and rm_val == 7   #nosat'
    : 1
    ? 'fs1 == 0 and fe1 == 0x7fd and fm1 == 0x6d41e8ed71efb and fs2 == 1 and fe2 ==
      0x400 and fm2 == 0x3b18a1995caa2 and fs3 == 0 and fe3 == 0x7fe and fm3 == 0xc1933e5b458c9
      and fcsr == 0x2 and rm_val == 7   #nosat'
    : 1
    ? 'fs1 == 0 and fe1 == 0x7fd and fm1 == 0x6d41e8ed71efb and fs2 == 1 and fe2 ==
      0x400 and fm2 == 0x3b18a1995caa2 and fs3 == 0 and fe3 == 0x7fe and fm3 == 0xc1933e5b458c9
      and fcsr == 0x22 and rm_val == 7   #nosat'
    : 1
    ? 'fs1 == 0 and fe1 == 0x7fd and fm1 == 0x6d41e8ed71efb and fs2 == 1 and fe2 ==
      0x400 and fm2 == 0x3b18a1995caa2 and fs3 == 0 and fe3 == 0x7fe and fm3 == 0xc1933e5b458c9
      and fcsr == 0x42 and rm_val == 7   #nosat'
    : 1
    ? 'fs1 == 0 and fe1 == 0x7fd and fm1 == 0x6d41e8ed71efb and fs2 == 1 and fe2 ==
      0x400 and fm2 == 0x3b18a1995caa2 and fs3 == 0 and fe3 == 0x7fe and fm3 == 0xc1933e5b458c9
      and fcsr == 0x62 and rm_val == 7   #nosat'
    : 1
    ? 'fs1 == 0 and fe1 == 0x7fd and fm1 == 0x6d41e8ed71efb and fs2 == 1 and fe2 ==
      0x400 and fm2 == 0x3b18a1995caa2 and fs3 == 0 and fe3 == 0x7fe and fm3 == 0xc1933e5b458c9
      and fcsr == 0x82 and rm_val == 7   #nosat'
    : 1
    ? 'fs1 == 0 and fe1 == 0x7fc and fm1 == 0x146e28288654f and fs2 == 1 and fe2 ==
      0x401 and fm2 == 0x6a65d1abb3471 and fs3 == 0 and fe3 == 0x7fe and fm3 == 0x8751b6a67be4c
      and fcsr == 0x2 and rm_val == 7   #nosat'
    : 1
    ? 'fs1 == 0 and fe1 == 0x7fc and fm1 == 0x146e28288654f and fs2 == 1 and fe2 ==
      0x401 and fm2 == 0x6a65d1abb3471 and fs3 == 0 and fe3 == 0x7fe and fm3 == 0x8751b6a67be4c
      and fcsr == 0x22 and rm_val == 7   #nosat'
    : 1
    ? 'fs1 == 0 and fe1 == 0x7fc and fm1 == 0x146e28288654f and fs2 == 1 and fe2 ==
      0x401 and fm2 == 0x6a65d1abb3471 and fs3 == 0 and fe3 == 0x7fe and fm3 == 0x8751b6a67be4c
      and fcsr == 0x42 and rm_val == 7   #nosat'
    : 1
    ? 'fs1 == 0 and fe1 == 0x7fc and fm1 == 0x146e28288654f and fs2 == 1 and fe2 ==
      0x401 and fm2 == 0x6a65d1abb3471 and fs3 == 0 and fe3 == 0x7fe and fm3 == 0x8751b6a67be4c
      and fcsr == 0x62 and rm_val == 7   #nosat'
    : 1
    ? 'fs1 == 0 and fe1 == 0x7fc and fm1 == 0x146e28288654f and fs2 == 1 and fe2 ==
      0x401 and fm2 == 0x6a65d1abb3471 and fs3 == 0 and fe3 == 0x7fe and fm3 == 0x8751b6a67be4c
      and fcsr == 0x82 and rm_val == 7   #nosat'
    : 1
    ? 'fs1 == 0 and fe1 == 0x7fb and fm1 == 0x8fd64f104922f and fs2 == 1 and fe2 ==
      0x401 and fm2 == 0xc4805d18fc4ef and fs3 == 0 and fe3 == 0x7fe and fm3 == 0x615f701415147
      and fcsr == 0x2 and rm_val == 7   #nosat'
    : 1
    ? 'fs1 == 0 and fe1 == 0x7fb and fm1 == 0x8fd64f104922f and fs2 == 1 and fe2 ==
      0x401 and fm2 == 0xc4805d18fc4ef and fs3 == 0 and fe3 == 0x7fe and fm3 == 0x615f701415147
      and fcsr == 0x22 and rm_val == 7   #nosat'
    : 1
    ? 'fs1 == 0 and fe1 == 0x7fb and fm1 == 0x8fd64f104922f and fs2 == 1 and fe2 ==
      0x401 and fm2 == 0xc4805d18fc4ef and fs3 == 0 and fe3 == 0x7fe and fm3 == 0x615f701415147
      and fcsr == 0x42 and rm_val == 7   #nosat'
    : 1
    ? 'fs1 == 0 and fe1 == 0x7fb and fm1 == 0x8fd64f104922f and fs2 == 1 and fe2 ==
      0x401 and fm2 == 0xc4805d18fc4ef and fs3 == 0 and fe3 == 0x7fe and fm3 == 0x615f701415147
      and fcsr == 0x62 and rm_val == 7   #nosat'
    : 1
    ? 'fs1 == 0 and fe1 == 0x7fb and fm1 == 0x8fd64f104922f and fs2 == 1 and fe2 ==
      0x401 and fm2 == 0xc4805d18fc4ef and fs3 == 0 and fe3 == 0x7fe and fm3 == 0x615f701415147
      and fcsr == 0x82 and rm_val == 7   #nosat'
    : 1
    ? 'fs1 == 0 and fe1 == 0x7fe and fm1 == 0x677f9a96d9966 and fs2 == 1 and fe2 ==
      0x3ff and fm2 == 0x5a5ded36db380 and fs3 == 0 and fe3 == 0x7fe and fm3 == 0xe6665d6935c36
      and fcsr == 0x2 and rm_val == 7   #nosat'
    : 1
    ? 'fs1 == 0 and fe1 == 0x7fe and fm1 == 0x677f9a96d9966 and fs2 == 1 and fe2 ==
      0x3ff and fm2 == 0x5a5ded36db380 and fs3 == 0 and fe3 == 0x7fe and fm3 == 0xe6665d6935c36
      and fcsr == 0x22 and rm_val == 7   #nosat'
    : 1
    ? 'fs1 == 0 and fe1 == 0x7fe and fm1 == 0x677f9a96d9966 and fs2 == 1 and fe2 ==
      0x3ff and fm2 == 0x5a5ded36db380 and fs3 == 0 and fe3 == 0x7fe and fm3 == 0xe6665d6935c36
      and fcsr == 0x42 and rm_val == 7   #nosat'
    : 1
    ? 'fs1 == 0 and fe1 == 0x7fe and fm1 == 0x677f9a96d9966 and fs2 == 1 and fe2 ==
      0x3ff and fm2 == 0x5a5ded36db380 and fs3 == 0 and fe3 == 0x7fe and fm3 == 0xe6665d6935c36
      and fcsr == 0x62 and rm_val == 7   #nosat'
    : 1
    ? 'fs1 == 0 and fe1 == 0x7fe and fm1 == 0x677f9a96d9966 and fs2 == 1 and fe2 ==
      0x3ff and fm2 == 0x5a5ded36db380 and fs3 == 0 and fe3 == 0x7fe and fm3 == 0xe6665d6935c36
      and fcsr == 0x82 and rm_val == 7   #nosat'
    : 1
    ? 'fs1 == 0 and fe1 == 0x7fe and fm1 == 0xafde4f5fa80c8 and fs2 == 1 and fe2 ==
      0x3fe and fm2 == 0x31b2b3b624731 and fs3 == 0 and fe3 == 0x7fe and fm3 == 0x01daaa27ef61b
      and fcsr == 0x2 and rm_val == 7   #nosat'
    : 1
    ? 'fs1 == 0 and fe1 == 0x7fe and fm1 == 0xafde4f5fa80c8 and fs2 == 1 and fe2 ==
      0x3fe and fm2 == 0x31b2b3b624731 and fs3 == 0 and fe3 == 0x7fe and fm3 == 0x01daaa27ef61b
      and fcsr == 0x22 and rm_val == 7   #nosat'
    : 1
    ? 'fs1 == 0 and fe1 == 0x7fe and fm1 == 0xafde4f5fa80c8 and fs2 == 1 and fe2 ==
      0x3fe and fm2 == 0x31b2b3b624731 and fs3 == 0 and fe3 == 0x7fe and fm3 == 0x01daaa27ef61b
      and fcsr == 0x42 and rm_val == 7   #nosat'
    : 1
    ? 'fs1 == 0 and fe1 == 0x7fe and fm1 == 0xafde4f5fa80c8 and fs2 == 1 and fe2 ==
      0x3fe and fm2 == 0x31b2b3b624731 and fs3 == 0 and fe3 == 0x7fe and fm3 == 0x01daaa27ef61b
      and fcsr == 0x62 and rm_val == 7   #nosat'
    : 1
    ? 'fs1 == 0 and fe1 == 0x7fe and fm1 == 0xafde4f5fa80c8 and fs2 == 1 and fe2 ==
      0x3fe and fm2 == 0x31b2b3b624731 and fs3 == 0 and fe3 == 0x7fe and fm3 == 0x01daaa27ef61b
      and fcsr == 0x82 and rm_val == 7   #nosat'
    : 1
    ? 'fs1 == 0 and fe1 == 0x7fc and fm1 == 0x94c88e4f0cf23 and fs2 == 1 and fe2 ==
      0x3fe and fm2 == 0x84fbc0814218a and fs3 == 0 and fe3 == 0x7fc and fm3 == 0x3387045b11b73
      and fcsr == 0x2 and rm_val == 7   #nosat'
    : 1
    ? 'fs1 == 0 and fe1 == 0x7fc and fm1 == 0x94c88e4f0cf23 and fs2 == 1 and fe2 ==
      0x3fe and fm2 == 0x84fbc0814218a and fs3 == 0 and fe3 == 0x7fc and fm3 == 0x3387045b11b73
      and fcsr == 0x22 and rm_val == 7   #nosat'
    : 1
    ? 'fs1 == 0 and fe1 == 0x7fc and fm1 == 0x94c88e4f0cf23 and fs2 == 1 and fe2 ==
      0x3fe and fm2 == 0x84fbc0814218a and fs3 == 0 and fe3 == 0x7fc and fm3 == 0x3387045b11b73
      and fcsr == 0x42 and rm_val == 7   #nosat'
    : 1
    ? 'fs1 == 0 and fe1 == 0x7fc and fm1 == 0x94c88e4f0cf23 and fs2 == 1 and fe2 ==
      0x3fe and fm2 == 0x84fbc0814218a and fs3 == 0 and fe3 == 0x7fc and fm3 == 0x3387045b11b73
      and fcsr == 0x62 and rm_val == 7   #nosat'
    : 1
    ? 'fs1 == 0 and fe1 == 0x7fc and fm1 == 0x94c88e4f0cf23 and fs2 == 1 and fe2 ==
      0x3fe and fm2 == 0x84fbc0814218a and fs3 == 0 and fe3 == 0x7fc and fm3 == 0x3387045b11b73
      and fcsr == 0x82 and rm_val == 7   #nosat'
    : 1
    ? 'fs1 == 0 and fe1 == 0x7fe and fm1 == 0x0eb469d232dd1 and fs2 == 1 and fe2 ==
      0x3fe and fm2 == 0xedab53b8874e2 and fs3 == 0 and fe3 == 0x7fe and fm3 == 0x05034d6a0d355
      and fcsr == 0x2 and rm_val == 7   #nosat'
    : 1
    ? 'fs1 == 0 and fe1 == 0x7fe and fm1 == 0x0eb469d232dd1 and fs2 == 1 and fe2 ==
      0x3fe and fm2 == 0xedab53b8874e2 and fs3 == 0 and fe3 == 0x7fe and fm3 == 0x05034d6a0d355
      and fcsr == 0x22 and rm_val == 7   #nosat'
    : 1
    ? 'fs1 == 0 and fe1 == 0x7fe and fm1 == 0x0eb469d232dd1 and fs2 == 1 and fe2 ==
      0x3fe and fm2 == 0xedab53b8874e2 and fs3 == 0 and fe3 == 0x7fe and fm3 == 0x05034d6a0d355
      and fcsr == 0x42 and rm_val == 7   #nosat'
    : 1
    ? 'fs1 == 0 and fe1 == 0x7fe and fm1 == 0x0eb469d232dd1 and fs2 == 1 and fe2 ==
      0x3fe and fm2 == 0xedab53b8874e2 and fs3 == 0 and fe3 == 0x7fe and fm3 == 0x05034d6a0d355
      and fcsr == 0x62 and rm_val == 7   #nosat'
    : 1
    ? 'fs1 == 0 and fe1 == 0x7fe and fm1 == 0x0eb469d232dd1 and fs2 == 1 and fe2 ==
      0x3fe and fm2 == 0xedab53b8874e2 and fs3 == 0 and fe3 == 0x7fe and fm3 == 0x05034d6a0d355
      and fcsr == 0x82 and rm_val == 7   #nosat'
    : 1
    ? 'fs1 == 0 and fe1 == 0x7fb and fm1 == 0x248a2b9dc22bf and fs2 == 1 and fe2 ==
      0x402 and fm2 == 0x94afcaf5ecd01 and fs3 == 0 and fe3 == 0x7fe and fm3 == 0xce72ef36d4887
      and fcsr == 0x2 and rm_val == 7   #nosat'
    : 1
    ? 'fs1 == 0 and fe1 == 0x7fb and fm1 == 0x248a2b9dc22bf and fs2 == 1 and fe2 ==
      0x402 and fm2 == 0x94afcaf5ecd01 and fs3 == 0 and fe3 == 0x7fe and fm3 == 0xce72ef36d4887
      and fcsr == 0x22 and rm_val == 7   #nosat'
    : 1
    ? 'fs1 == 0 and fe1 == 0x7fb and fm1 == 0x248a2b9dc22bf and fs2 == 1 and fe2 ==
      0x402 and fm2 == 0x94afcaf5ecd01 and fs3 == 0 and fe3 == 0x7fe and fm3 == 0xce72ef36d4887
      and fcsr == 0x42 and rm_val == 7   #nosat'
    : 1
    ? 'fs1 == 0 and fe1 == 0x7fb and fm1 == 0x248a2b9dc22bf and fs2 == 1 and fe2 ==
      0x402 and fm2 == 0x94afcaf5ecd01 and fs3 == 0 and fe3 == 0x7fe and fm3 == 0xce72ef36d4887
      and fcsr == 0x62 and rm_val == 7   #nosat'
    : 1
    ? 'fs1 == 0 and fe1 == 0x7fb and fm1 == 0x248a2b9dc22bf and fs2 == 1 and fe2 ==
      0x402 and fm2 == 0x94afcaf5ecd01 and fs3 == 0 and fe3 == 0x7fe and fm3 == 0xce72ef36d4887
      and fcsr == 0x82 and rm_val == 7   #nosat'
    : 1
    ? 'fs1 == 0 and fe1 == 0x7fe and fm1 == 0x03cc30fa6fa7d and fs2 == 1 and fe2 ==
      0x3ff and fm2 == 0x61d074b685728 and fs3 == 0 and fe3 == 0x7fe and fm3 == 0x67101be2e03ab
      and fcsr == 0x2 and rm_val == 7   #nosat'
    : 1
    ? 'fs1 == 0 and fe1 == 0x7fe and fm1 == 0x03cc30fa6fa7d and fs2 == 1 and fe2 ==
      0x3ff and fm2 == 0x61d074b685728 and fs3 == 0 and fe3 == 0x7fe and fm3 == 0x67101be2e03ab
      and fcsr == 0x22 and rm_val == 7   #nosat'
    : 1
    ? 'fs1 == 0 and fe1 == 0x7fe and fm1 == 0x03cc30fa6fa7d and fs2 == 1 and fe2 ==
      0x3ff and fm2 == 0x61d074b685728 and fs3 == 0 and fe3 == 0x7fe and fm3 == 0x67101be2e03ab
      and fcsr == 0x42 and rm_val == 7   #nosat'
    : 1
    ? 'fs1 == 0 and fe1 == 0x7fe and fm1 == 0x03cc30fa6fa7d and fs2 == 1 and fe2 ==
      0x3ff and fm2 == 0x61d074b685728 and fs3 == 0 and fe3 == 0x7fe and fm3 == 0x67101be2e03ab
      and fcsr == 0x62 and rm_val == 7   #nosat'
    : 1
    ? 'fs1 == 0 and fe1 == 0x7fe and fm1 == 0x03cc30fa6fa7d and fs2 == 1 and fe2 ==
      0x3ff and fm2 == 0x61d074b685728 and fs3 == 0 and fe3 == 0x7fe and fm3 == 0x67101be2e03ab
      and fcsr == 0x82 and rm_val == 7   #nosat'
    : 1
    ? 'fs1 == 0 and fe1 == 0x7fc and fm1 == 0xc277c8581da67 and fs2 == 1 and fe2 ==
      0x3ff and fm2 == 0x1bda5c4f32f02 and fs3 == 0 and fe3 == 0x7fc and fm3 == 0xf37aa6e86c68b
      and fcsr == 0x2 and rm_val == 7   #nosat'
    : 1
    ? 'fs1 == 0 and fe1 == 0x7fc and fm1 == 0xc277c8581da67 and fs2 == 1 and fe2 ==
      0x3ff and fm2 == 0x1bda5c4f32f02 and fs3 == 0 and fe3 == 0x7fc and fm3 == 0xf37aa6e86c68b
      and fcsr == 0x22 and rm_val == 7   #nosat'
    : 1
    ? 'fs1 == 0 and fe1 == 0x7fc and fm1 == 0xc277c8581da67 and fs2 == 1 and fe2 ==
      0x3ff and fm2 == 0x1bda5c4f32f02 and fs3 == 0 and fe3 == 0x7fc and fm3 == 0xf37aa6e86c68b
      and fcsr == 0x42 and rm_val == 7   #nosat'
    : 1
    ? 'fs1 == 0 and fe1 == 0x7fc and fm1 == 0xc277c8581da67 and fs2 == 1 and fe2 ==
      0x3ff and fm2 == 0x1bda5c4f32f02 and fs3 == 0 and fe3 == 0x7fc and fm3 == 0xf37aa6e86c68b
      and fcsr == 0x62 and rm_val == 7   #nosat'
    : 1
    ? 'fs1 == 0 and fe1 == 0x7fc and fm1 == 0xc277c8581da67 and fs2 == 1 and fe2 ==
      0x3ff and fm2 == 0x1bda5c4f32f02 and fs3 == 0 and fe3 == 0x7fc and fm3 == 0xf37aa6e86c68b
      and fcsr == 0x82 and rm_val == 7   #nosat'
    : 1
    ? 'fs1 == 0 and fe1 == 0x7f8 and fm1 == 0x867824bb36ebf and fs2 == 1 and fe2 ==
      0x403 and fm2 == 0xccdc644a53a6b and fs3 == 0 and fe3 == 0x7fd and fm3 == 0x5f78051c221f1
      and fcsr == 0x2 and rm_val == 7   #nosat'
    : 1
    ? 'fs1 == 0 and fe1 == 0x7f8 and fm1 == 0x867824bb36ebf and fs2 == 1 and fe2 ==
      0x403 and fm2 == 0xccdc644a53a6b and fs3 == 0 and fe3 == 0x7fd and fm3 == 0x5f78051c221f1
      and fcsr == 0x22 and rm_val == 7   #nosat'
    : 1
    ? 'fs1 == 0 and fe1 == 0x7f8 and fm1 == 0x867824bb36ebf and fs2 == 1 and fe2 ==
      0x403 and fm2 == 0xccdc644a53a6b and fs3 == 0 and fe3 == 0x7fd and fm3 == 0x5f78051c221f1
      and fcsr == 0x42 and rm_val == 7   #nosat'
    : 1
    ? 'fs1 == 0 and fe1 == 0x7f8 and fm1 == 0x867824bb36ebf and fs2 == 1 and fe2 ==
      0x403 and fm2 == 0xccdc644a53a6b and fs3 == 0 and fe3 == 0x7fd and fm3 == 0x5f78051c221f1
      and fcsr == 0x62 and rm_val == 7   #nosat'
    : 1
    ? 'fs1 == 0 and fe1 == 0x7f8 and fm1 == 0x867824bb36ebf and fs2 == 1 and fe2 ==
      0x403 and fm2 == 0xccdc644a53a6b and fs3 == 0 and fe3 == 0x7fd and fm3 == 0x5f78051c221f1
      and fcsr == 0x82 and rm_val == 7   #nosat'
    : 1
    ? 'fs1 == 0 and fe1 == 0x7fd and fm1 == 0x113f1b844ec29 and fs2 == 1 and fe2 ==
      0x3ff and fm2 == 0x9632c0ae546d6 and fs3 == 0 and fe3 == 0x7fd and fm3 == 0xb19041a09c655
      and fcsr == 0x2 and rm_val == 7   #nosat'
    : 1
    ? 'fs1 == 0 and fe1 == 0x7fd and fm1 == 0x113f1b844ec29 and fs2 == 1 and fe2 ==
      0x3ff and fm2 == 0x9632c0ae546d6 and fs3 == 0 and fe3 == 0x7fd and fm3 == 0xb19041a09c655
      and fcsr == 0x22 and rm_val == 7   #nosat'
    : 1
    ? 'fs1 == 0 and fe1 == 0x7fd and fm1 == 0x113f1b844ec29 and fs2 == 1 and fe2 ==
      0x3ff and fm2 == 0x9632c0ae546d6 and fs3 == 0 and fe3 == 0x7fd and fm3 == 0xb19041a09c655
      and fcsr == 0x42 and rm_val == 7   #nosat'
    : 1
    ? 'fs1 == 0 and fe1 == 0x7fd and fm1 == 0x113f1b844ec29 and fs2 == 1 and fe2 ==
      0x3ff and fm2 == 0x9632c0ae546d6 and fs3 == 0 and fe3 == 0x7fd and fm3 == 0xb19041a09c655
      and fcsr == 0x62 and rm_val == 7   #nosat'
    : 1
    ? 'fs1 == 0 and fe1 == 0x7fd and fm1 == 0x113f1b844ec29 and fs2 == 1 and fe2 ==
      0x3ff and fm2 == 0x9632c0ae546d6 and fs3 == 0 and fe3 == 0x7fd and fm3 == 0xb19041a09c655
      and fcsr == 0x82 and rm_val == 7   #nosat'
    : 1
    ? 'fs1 == 0 and fe1 == 0x7fd and fm1 == 0x81f8e726306f5 and fs2 == 1 and fe2 ==
      0x400 and fm2 == 0x1b5321f55711f and fs3 == 0 and fe3 == 0x7fe and fm3 == 0xab2b7e6d25349
      and fcsr == 0x2 and rm_val == 7   #nosat'
    : 1
    ? 'fs1 == 0 and fe1 == 0x7fd and fm1 == 0x81f8e726306f5 and fs2 == 1 and fe2 ==
      0x400 and fm2 == 0x1b5321f55711f and fs3 == 0 and fe3 == 0x7fe and fm3 == 0xab2b7e6d25349
      and fcsr == 0x22 and rm_val == 7   #nosat'
    : 1
    ? 'fs1 == 0 and fe1 == 0x7fd and fm1 == 0x81f8e726306f5 and fs2 == 1 and fe2 ==
      0x400 and fm2 == 0x1b5321f55711f and fs3 == 0 and fe3 == 0x7fe and fm3 == 0xab2b7e6d25349
      and fcsr == 0x42 and rm_val == 7   #nosat'
    : 1
    ? 'fs1 == 0 and fe1 == 0x7fd and fm1 == 0x81f8e726306f5 and fs2 == 1 and fe2 ==
      0x400 and fm2 == 0x1b5321f55711f and fs3 == 0 and fe3 == 0x7fe and fm3 == 0xab2b7e6d25349
      and fcsr == 0x62 and rm_val == 7   #nosat'
    : 1
    ? 'fs1 == 0 and fe1 == 0x7fd and fm1 == 0x81f8e726306f5 and fs2 == 1 and fe2 ==
      0x400 and fm2 == 0x1b5321f55711f and fs3 == 0 and fe3 == 0x7fe and fm3 == 0xab2b7e6d25349
      and fcsr == 0x82 and rm_val == 7   #nosat'
    : 1
    ? 'fs1 == 0 and fe1 == 0x7fe and fm1 == 0xc86e74daaecf7 and fs2 == 1 and fe2 ==
      0x3fc and fm2 == 0x929c385f420b3 and fs3 == 0 and fe3 == 0x7fc and fm3 == 0x66e9fda84e08f
      and fcsr == 0x2 and rm_val == 7   #nosat'
    : 1
    ? 'fs1 == 0 and fe1 == 0x7fe and fm1 == 0xc86e74daaecf7 and fs2 == 1 and fe2 ==
      0x3fc and fm2 == 0x929c385f420b3 and fs3 == 0 and fe3 == 0x7fc and fm3 == 0x66e9fda84e08f
      and fcsr == 0x22 and rm_val == 7   #nosat'
    : 1
    ? 'fs1 == 0 and fe1 == 0x7fe and fm1 == 0xc86e74daaecf7 and fs2 == 1 and fe2 ==
      0x3fc and fm2 == 0x929c385f420b3 and fs3 == 0 and fe3 == 0x7fc and fm3 == 0x66e9fda84e08f
      and fcsr == 0x42 and rm_val == 7   #nosat'
    : 1
    ? 'fs1 == 0 and fe1 == 0x7fe and fm1 == 0xc86e74daaecf7 and fs2 == 1 and fe2 ==
      0x3fc and fm2 == 0x929c385f420b3 and fs3 == 0 and fe3 == 0x7fc and fm3 == 0x66e9fda84e08f
      and fcsr == 0x62 and rm_val == 7   #nosat'
    : 1
    ? 'fs1 == 0 and fe1 == 0x7fe and fm1 == 0xc86e74daaecf7 and fs2 == 1 and fe2 ==
      0x3fc and fm2 == 0x929c385f420b3 and fs3 == 0 and fe3 == 0x7fc and fm3 == 0x66e9fda84e08f
      and fcsr == 0x82 and rm_val == 7   #nosat'
    : 1
    ? 'fs1 == 0 and fe1 == 0x7fd and fm1 == 0x95c6370ee1ae1 and fs2 == 1 and fe2 ==
      0x3fd and fm2 == 0xad6f9f65ea471 and fs3 == 0 and fe3 == 0x7fc and fm3 == 0x54570beebb313
      and fcsr == 0x2 and rm_val == 7   #nosat'
    : 1
    ? 'fs1 == 0 and fe1 == 0x7fd and fm1 == 0x95c6370ee1ae1 and fs2 == 1 and fe2 ==
      0x3fd and fm2 == 0xad6f9f65ea471 and fs3 == 0 and fe3 == 0x7fc and fm3 == 0x54570beebb313
      and fcsr == 0x22 and rm_val == 7   #nosat'
    : 1
    ? 'fs1 == 0 and fe1 == 0x7fd and fm1 == 0x95c6370ee1ae1 and fs2 == 1 and fe2 ==
      0x3fd and fm2 == 0xad6f9f65ea471 and fs3 == 0 and fe3 == 0x7fc and fm3 == 0x54570beebb313
      and fcsr == 0x42 and rm_val == 7   #nosat'
    : 1
    ? 'fs1 == 0 and fe1 == 0x7fd and fm1 == 0x95c6370ee1ae1 and fs2 == 1 and fe2 ==
      0x3fd and fm2 == 0xad6f9f65ea471 and fs3 == 0 and fe3 == 0x7fc and fm3 == 0x54570beebb313
      and fcsr == 0x62 and rm_val == 7   #nosat'
    : 1
    ? 'fs1 == 0 and fe1 == 0x7fd and fm1 == 0x95c6370ee1ae1 and fs2 == 1 and fe2 ==
      0x3fd and fm2 == 0xad6f9f65ea471 and fs3 == 0 and fe3 == 0x7fc and fm3 == 0x54570beebb313
      and fcsr == 0x82 and rm_val == 7   #nosat'
    : 1
    ? 'fs1 == 0 and fe1 == 0x7fe and fm1 == 0x538b347688f39 and fs2 == 1 and fe2 ==
      0x3ff and fm2 == 0x78504afaff593 and fs3 == 0 and fe3 == 0x7fe and fm3 == 0xf31ef401a3fa0
      and fcsr == 0x2 and rm_val == 7   #nosat'
    : 1
    ? 'fs1 == 0 and fe1 == 0x7fe and fm1 == 0x538b347688f39 and fs2 == 1 and fe2 ==
      0x3ff and fm2 == 0x78504afaff593 and fs3 == 0 and fe3 == 0x7fe and fm3 == 0xf31ef401a3fa0
      and fcsr == 0x22 and rm_val == 7   #nosat'
    : 1
    ? 'fs1 == 0 and fe1 == 0x7fe and fm1 == 0x538b347688f39 and fs2 == 1 and fe2 ==
      0x3ff and fm2 == 0x78504afaff593 and fs3 == 0 and fe3 == 0x7fe and fm3 == 0xf31ef401a3fa0
      and fcsr == 0x42 and rm_val == 7   #nosat'
    : 1
    ? 'fs1 == 0 and fe1 == 0x7fe and fm1 == 0x538b347688f39 and fs2 == 1 and fe2 ==
      0x3ff and fm2 == 0x78504afaff593 and fs3 == 0 and fe3 == 0x7fe and fm3 == 0xf31ef401a3fa0
      and fcsr == 0x62 and rm_val == 7   #nosat'
    : 1
    ? 'fs1 == 0 and fe1 == 0x7fe and fm1 == 0x538b347688f39 and fs2 == 1 and fe2 ==
      0x3ff and fm2 == 0x78504afaff593 and fs3 == 0 and fe3 == 0x7fe and fm3 == 0xf31ef401a3fa0
      and fcsr == 0x82 and rm_val == 7   #nosat'
    : 1
    ? 'fs1 == 0 and fe1 == 0x7fc and fm1 == 0x9d4da5f91b60b and fs2 == 1 and fe2 ==
      0x400 and fm2 == 0xe625ff0c95f03 and fs3 == 0 and fe3 == 0x7fe and fm3 == 0x886f608a4881b
      and fcsr == 0x2 and rm_val == 7   #nosat'
    : 1
    ? 'fs1 == 0 and fe1 == 0x7fc and fm1 == 0x9d4da5f91b60b and fs2 == 1 and fe2 ==
      0x400 and fm2 == 0xe625ff0c95f03 and fs3 == 0 and fe3 == 0x7fe and fm3 == 0x886f608a4881b
      and fcsr == 0x22 and rm_val == 7   #nosat'
    : 1
    ? 'fs1 == 0 and fe1 == 0x7fc and fm1 == 0x9d4da5f91b60b and fs2 == 1 and fe2 ==
      0x400 and fm2 == 0xe625ff0c95f03 and fs3 == 0 and fe3 == 0x7fe and fm3 == 0x886f608a4881b
      and fcsr == 0x42 and rm_val == 7   #nosat'
    : 1
    ? 'fs1 == 0 and fe1 == 0x7fc and fm1 == 0x9d4da5f91b60b and fs2 == 1 and fe2 ==
      0x400 and fm2 == 0xe625ff0c95f03 and fs3 == 0 and fe3 == 0x7fe and fm3 == 0x886f608a4881b
      and fcsr == 0x62 and rm_val == 7   #nosat'
    : 1
    ? 'fs1 == 0 and fe1 == 0x7fc and fm1 == 0x9d4da5f91b60b and fs2 == 1 and fe2 ==
      0x400 and fm2 == 0xe625ff0c95f03 and fs3 == 0 and fe3 == 0x7fe and fm3 == 0x886f608a4881b
      and fcsr == 0x82 and rm_val == 7   #nosat'
    : 1
    ? 'fs1 == 0 and fe1 == 0x7fd and fm1 == 0x333eee8ee8eaf and fs2 == 1 and fe2 ==
      0x3fa and fm2 == 0x68e01fd522def and fs3 == 0 and fe3 == 0x7f8 and fm3 == 0xb11d7cbe20aff
      and fcsr == 0x2 and rm_val == 7   #nosat'
    : 1
    ? 'fs1 == 0 and fe1 == 0x7fd and fm1 == 0x333eee8ee8eaf and fs2 == 1 and fe2 ==
      0x3fa and fm2 == 0x68e01fd522def and fs3 == 0 and fe3 == 0x7f8 and fm3 == 0xb11d7cbe20aff
      and fcsr == 0x22 and rm_val == 7   #nosat'
    : 1
    ? 'fs1 == 0 and fe1 == 0x7fd and fm1 == 0x333eee8ee8eaf and fs2 == 1 and fe2 ==
      0x3fa and fm2 == 0x68e01fd522def and fs3 == 0 and fe3 == 0x7f8 and fm3 == 0xb11d7cbe20aff
      and fcsr == 0x42 and rm_val == 7   #nosat'
    : 1
    ? 'fs1 == 0 and fe1 == 0x7fd and fm1 == 0x333eee8ee8eaf and fs2 == 1 and fe2 ==
      0x3fa and fm2 == 0x68e01fd522def and fs3 == 0 and fe3 == 0x7f8 and fm3 == 0xb11d7cbe20aff
      and fcsr == 0x62 and rm_val == 7   #nosat'
    : 1
    ? 'fs1 == 0 and fe1 == 0x7fd and fm1 == 0x333eee8ee8eaf and fs2 == 1 and fe2 ==
      0x3fa and fm2 == 0x68e01fd522def and fs3 == 0 and fe3 == 0x7f8 and fm3 == 0xb11d7cbe20aff
      and fcsr == 0x82 and rm_val == 7   #nosat'
    : 1
    ? 'fs1 == 0 and fe1 == 0x7fe and fm1 == 0x875216d859565 and fs2 == 1 and fe2 ==
      0x3fd and fm2 == 0xc9f644cd82c7b and fs3 == 0 and fe3 == 0x7fd and fm3 == 0x5e04fe6b0f0bd
      and fcsr == 0x2 and rm_val == 7   #nosat'
    : 1
    ? 'fs1 == 0 and fe1 == 0x7fe and fm1 == 0x875216d859565 and fs2 == 1 and fe2 ==
      0x3fd and fm2 == 0xc9f644cd82c7b and fs3 == 0 and fe3 == 0x7fd and fm3 == 0x5e04fe6b0f0bd
      and fcsr == 0x22 and rm_val == 7   #nosat'
    : 1
    ? 'fs1 == 0 and fe1 == 0x7fe and fm1 == 0x875216d859565 and fs2 == 1 and fe2 ==
      0x3fd and fm2 == 0xc9f644cd82c7b and fs3 == 0 and fe3 == 0x7fd and fm3 == 0x5e04fe6b0f0bd
      and fcsr == 0x42 and rm_val == 7   #nosat'
    : 1
    ? 'fs1 == 0 and fe1 == 0x7fe and fm1 == 0x875216d859565 and fs2 == 1 and fe2 ==
      0x3fd and fm2 == 0xc9f644cd82c7b and fs3 == 0 and fe3 == 0x7fd and fm3 == 0x5e04fe6b0f0bd
      and fcsr == 0x62 and rm_val == 7   #nosat'
    : 1
    ? 'fs1 == 0 and fe1 == 0x7fe and fm1 == 0x875216d859565 and fs2 == 1 and fe2 ==
      0x3fd and fm2 == 0xc9f644cd82c7b and fs3 == 0 and fe3 == 0x7fd and fm3 == 0x5e04fe6b0f0bd
      and fcsr == 0x82 and rm_val == 7   #nosat'
    : 1
    ? 'fs1 == 0 and fe1 == 0x7fc and fm1 == 0x5c7b4891b239f and fs2 == 1 and fe2 ==
      0x400 and fm2 == 0x47af1b2ab65ea and fs3 == 0 and fe3 == 0x7fd and fm3 == 0xbe0fd6f3db629
      and fcsr == 0x2 and rm_val == 7   #nosat'
    : 1
    ? 'fs1 == 0 and fe1 == 0x7fc and fm1 == 0x5c7b4891b239f and fs2 == 1 and fe2 ==
      0x400 and fm2 == 0x47af1b2ab65ea and fs3 == 0 and fe3 == 0x7fd and fm3 == 0xbe0fd6f3db629
      and fcsr == 0x22 and rm_val == 7   #nosat'
    : 1
    ? 'fs1 == 0 and fe1 == 0x7fc and fm1 == 0x5c7b4891b239f and fs2 == 1 and fe2 ==
      0x400 and fm2 == 0x47af1b2ab65ea and fs3 == 0 and fe3 == 0x7fd and fm3 == 0xbe0fd6f3db629
      and fcsr == 0x42 and rm_val == 7   #nosat'
    : 1
    ? 'fs1 == 0 and fe1 == 0x7fc and fm1 == 0x5c7b4891b239f and fs2 == 1 and fe2 ==
      0x400 and fm2 == 0x47af1b2ab65ea and fs3 == 0 and fe3 == 0x7fd and fm3 == 0xbe0fd6f3db629
      and fcsr == 0x62 and rm_val == 7   #nosat'
    : 1
    ? 'fs1 == 0 and fe1 == 0x7fc and fm1 == 0x5c7b4891b239f and fs2 == 1 and fe2 ==
      0x400 and fm2 == 0x47af1b2ab65ea and fs3 == 0 and fe3 == 0x7fd and fm3 == 0xbe0fd6f3db629
      and fcsr == 0x82 and rm_val == 7   #nosat'
    : 1
    coverage: 210/210
  total_coverage: 351/351
