---
fdiv_b5:
  config:
  - check ISA:=regex(.*I.*F.*)
  op_comb:
    rs1 != rs2  and rs1 != rd and rs2 != rd: 208
    rs1 == rd != rs2: 1
    rs1 == rs2 != rd: 1
    rs1 == rs2 == rd: 1
    rs2 == rd != rs1: 1
    coverage: 5/5
  opcode:
    fdiv.d: 212
    coverage: 1/1
  rd:
    f0: 1
    f1: 1
    f10: 1
    f11: 1
    f12: 1
    f13: 1
    f14: 1
    f15: 1
    f16: 1
    f17: 1
    f18: 1
    f19: 1
    f2: 1
    f20: 1
    f21: 1
    f22: 1
    f23: 1
    f24: 1
    f25: 1
    f26: 1
    f27: 1
    f28: 1
    f29: 1
    f3: 1
    f30: 1
    f31: 181
    f4: 1
    f5: 1
    f6: 1
    f7: 1
    f8: 1
    f9: 1
    coverage: 32/32
  rs1:
    f0: 1
    f1: 1
    f10: 1
    f11: 1
    f12: 1
    f13: 1
    f14: 1
    f15: 1
    f16: 1
    f17: 1
    f18: 1
    f19: 1
    f2: 1
    f20: 1
    f21: 1
    f22: 1
    f23: 1
    f24: 1
    f25: 1
    f26: 1
    f27: 1
    f28: 1
    f29: 1
    f3: 1
    f30: 181
    f31: 1
    f4: 1
    f5: 1
    f6: 1
    f7: 1
    f8: 1
    f9: 1
    coverage: 32/32
  rs2:
    f0: 1
    f1: 1
    f10: 1
    f11: 1
    f12: 1
    f13: 1
    f14: 1
    f15: 1
    f16: 1
    f17: 1
    f18: 1
    f19: 1
    f2: 1
    f20: 1
    f21: 1
    f22: 1
    f23: 1
    f24: 1
    f25: 1
    f26: 1
    f27: 1
    f28: 1
    f29: 181
    f3: 1
    f30: 1
    f31: 1
    f4: 1
    f5: 1
    f6: 1
    f7: 1
    f8: 1
    f9: 1
    coverage: 32/32
  val_comb:
    ? 'fs1 == 0 and fe1 == 0x7fc and fm1 == 0xe759ff97b7507 and fs2 == 0 and fe2 ==
      0x7ff and fm2 == 0x0000000000000 and rm_val == 0  #nosat'
    : 1  #  rs1_val==dnorm(0x7fce759ff97b7507) and rs2_val==dinfinity(0x7FF0000000000000) | Guard = 0 Round = 0 Sticky = 1 --> Minsubnorm + 1 ulp
    ? 'fs1 == 0 and fe1 == 0x7fe and fm1 == 0x02c6758f19d47 and fs2 == 1 and fe2 ==
      0x7ff and fm2 == 0x0000000000000 and rm_val == 4  #nosat'
    : 1 #  rs1_val==dnorm(0x7fe02c6758f19d47) and rs2_val==dinfinity(0xFFF0000000000000) | Exponent = MinNorm.exp + 5
    ? 'fs1 == 0 and fe1 == 0x7fe and fm1 == 0x02c6758f19d47 and fs2 == 1 and fe2 ==
      0x7ff and fm2 == 0x0000000000000 and rm_val == 3  #nosat'
    : 1 #  rs1_val==dnorm(0x7fe02c6758f19d47) and rs2_val==dinfinity(0xFFF0000000000000) | Exponent = MinNorm.exp + 5
    ? 'fs1 == 0 and fe1 == 0x7fe and fm1 == 0x02c6758f19d47 and fs2 == 1 and fe2 ==
      0x7ff and fm2 == 0x0000000000000 and rm_val == 2  #nosat'
    : 1 #  rs1_val==dnorm(0x7fe02c6758f19d47) and rs2_val==dinfinity(0xFFF0000000000000) | Exponent = MinNorm.exp + 5
    ? 'fs1 == 0 and fe1 == 0x7fe and fm1 == 0x02c6758f19d47 and fs2 == 1 and fe2 ==
      0x7ff and fm2 == 0x0000000000000 and rm_val == 1  #nosat'
    : 1 #  rs1_val==dnorm(0x7fe02c6758f19d47) and rs2_val==dinfinity(0xFFF0000000000000) | Exponent = MinNorm.exp + 5
    ? 'fs1 == 0 and fe1 == 0x7fe and fm1 == 0x02c6758f19d47 and fs2 == 1 and fe2 ==
      0x7ff and fm2 == 0x0000000000000 and rm_val == 0  #nosat'
    : 1 #  rs1_val==dnorm(0x7fe02c6758f19d47) and rs2_val==dinfinity(0xFFF0000000000000) | Exponent = MinNorm.exp + 5
    ? 'fs1 == 0 and fe1 == 0x7fe and fm1 == 0xc306053b001eb and fs2 == 1 and fe2 ==
      0x7ff and fm2 == 0x0000000000000 and rm_val == 4  #nosat'
    : 1 #  rs1_val==dnorm(0x7fec306053b001eb) and rs2_val==dinfinity(0xFFF0000000000000) | Exponent = MinNorm.exp + 4
    ? 'fs1 == 0 and fe1 == 0x7fe and fm1 == 0xc306053b001eb and fs2 == 1 and fe2 ==
      0x7ff and fm2 == 0x0000000000000 and rm_val == 3  #nosat'
    : 1 #  rs1_val==dnorm(0x7fec306053b001eb) and rs2_val==dinfinity(0xFFF0000000000000) | Exponent = MinNorm.exp + 4
    ? 'fs1 == 0 and fe1 == 0x7fe and fm1 == 0xc306053b001eb and fs2 == 1 and fe2 ==
      0x7ff and fm2 == 0x0000000000000 and rm_val == 2  #nosat'
    : 1 #  rs1_val==dnorm(0x7fec306053b001eb) and rs2_val==dinfinity(0xFFF0000000000000) | Exponent = MinNorm.exp + 4
    ? 'fs1 == 0 and fe1 == 0x7fe and fm1 == 0xc306053b001eb and fs2 == 1 and fe2 ==
      0x7ff and fm2 == 0x0000000000000 and rm_val == 1  #nosat'
    : 1 #  rs1_val==dnorm(0x7fec306053b001eb) and rs2_val==dinfinity(0xFFF0000000000000) | Exponent = MinNorm.exp + 4
    ? 'fs1 == 0 and fe1 == 0x7fe and fm1 == 0xc306053b001eb and fs2 == 1 and fe2 ==
      0x7ff and fm2 == 0x0000000000000 and rm_val == 0  #nosat'
    : 1 #  rs1_val==dnorm(0x7fec306053b001eb) and rs2_val==dinfinity(0xFFF0000000000000) | Exponent = MinNorm.exp + 4
    ? 'fs1 == 0 and fe1 == 0x7fe and fm1 == 0x6fd76e25872b5 and fs2 == 1 and fe2 ==
      0x7ff and fm2 == 0x0000000000000 and rm_val == 4  #nosat'
    : 1 #  rs1_val==dnorm(0x7fe6fd76e25872b5) and rs2_val==dinfinity(0xFFF0000000000000) | Exponent = MinNorm.exp + 3
    ? 'fs1 == 0 and fe1 == 0x7fe and fm1 == 0x6fd76e25872b5 and fs2 == 1 and fe2 ==
      0x7ff and fm2 == 0x0000000000000 and rm_val == 3  #nosat'
    : 1 #  rs1_val==dnorm(0x7fe6fd76e25872b5) and rs2_val==dinfinity(0xFFF0000000000000) | Exponent = MinNorm.exp + 3
    ? 'fs1 == 0 and fe1 == 0x7fe and fm1 == 0x6fd76e25872b5 and fs2 == 1 and fe2 ==
      0x7ff and fm2 == 0x0000000000000 and rm_val == 2  #nosat'
    : 1 #  rs1_val==dnorm(0x7fe6fd76e25872b5) and rs2_val==dinfinity(0xFFF0000000000000) | Exponent = MinNorm.exp + 3
    ? 'fs1 == 0 and fe1 == 0x7fe and fm1 == 0x6fd76e25872b5 and fs2 == 1 and fe2 ==
      0x7ff and fm2 == 0x0000000000000 and rm_val == 1  #nosat'
    : 1 #  rs1_val==dnorm(0x7fe6fd76e25872b5) and rs2_val==dinfinity(0xFFF0000000000000) | Exponent = MinNorm.exp + 3
    ? 'fs1 == 0 and fe1 == 0x7fe and fm1 == 0x6fd76e25872b5 and fs2 == 1 and fe2 ==
      0x7ff and fm2 == 0x0000000000000 and rm_val == 0  #nosat'
    : 1 #  rs1_val==dnorm(0x7fe6fd76e25872b5) and rs2_val==dinfinity(0xFFF0000000000000) | Exponent = MinNorm.exp + 3
    ? 'fs1 == 0 and fe1 == 0x7fe and fm1 == 0x3aa401f0be9eb and fs2 == 1 and fe2 ==
      0x7ff and fm2 == 0x0000000000000 and rm_val == 4  #nosat'
    : 1 #  rs1_val==dnorm(0x7fe3aa401f0be9eb) and rs2_val==dinfinity(0xFFF0000000000000) | Exponent = MinNorm.exp + 2
    ? 'fs1 == 0 and fe1 == 0x7fe and fm1 == 0x3aa401f0be9eb and fs2 == 1 and fe2 ==
      0x7ff and fm2 == 0x0000000000000 and rm_val == 3  #nosat'
    : 1 #  rs1_val==dnorm(0x7fe3aa401f0be9eb) and rs2_val==dinfinity(0xFFF0000000000000) | Exponent = MinNorm.exp + 2
    ? 'fs1 == 0 and fe1 == 0x7fe and fm1 == 0x3aa401f0be9eb and fs2 == 1 and fe2 ==
      0x7ff and fm2 == 0x0000000000000 and rm_val == 2  #nosat'
    : 1 #  rs1_val==dnorm(0x7fe3aa401f0be9eb) and rs2_val==dinfinity(0xFFF0000000000000) | Exponent = MinNorm.exp + 2
    ? 'fs1 == 0 and fe1 == 0x7fe and fm1 == 0x3aa401f0be9eb and fs2 == 1 and fe2 ==
      0x7ff and fm2 == 0x0000000000000 and rm_val == 1  #nosat'
    : 1 #  rs1_val==dnorm(0x7fe3aa401f0be9eb) and rs2_val==dinfinity(0xFFF0000000000000) | Exponent = MinNorm.exp + 2
    ? 'fs1 == 0 and fe1 == 0x7fe and fm1 == 0x3aa401f0be9eb and fs2 == 1 and fe2 ==
      0x7ff and fm2 == 0x0000000000000 and rm_val == 0  #nosat'
    : 1 #  rs1_val==dnorm(0x7fe3aa401f0be9eb) and rs2_val==dinfinity(0xFFF0000000000000) | Exponent = MinNorm.exp + 2
    ? 'fs1 == 0 and fe1 == 0x7fe and fm1 == 0xbedb51c79c56f and fs2 == 1 and fe2 ==
      0x7ff and fm2 == 0x0000000000000 and rm_val == 4  #nosat'
    : 1 #  rs1_val==dnorm(0x7febedb51c79c56f) and rs2_val==dinfinity(0xFFF0000000000000) | Exponent = MinNorm.exp + 1
    ? 'fs1 == 0 and fe1 == 0x7fe and fm1 == 0xbedb51c79c56f and fs2 == 1 and fe2 ==
      0x7ff and fm2 == 0x0000000000000 and rm_val == 3  #nosat'
    : 1 #  rs1_val==dnorm(0x7febedb51c79c56f) and rs2_val==dinfinity(0xFFF0000000000000) | Exponent = MinNorm.exp + 1
    ? 'fs1 == 0 and fe1 == 0x7fe and fm1 == 0xbedb51c79c56f and fs2 == 1 and fe2 ==
      0x7ff and fm2 == 0x0000000000000 and rm_val == 2  #nosat'
    : 1 #  rs1_val==dnorm(0x7febedb51c79c56f) and rs2_val==dinfinity(0xFFF0000000000000) | Exponent = MinNorm.exp + 1
    ? 'fs1 == 0 and fe1 == 0x7fe and fm1 == 0xbedb51c79c56f and fs2 == 1 and fe2 ==
      0x7ff and fm2 == 0x0000000000000 and rm_val == 1  #nosat'
    : 1 #  rs1_val==dnorm(0x7febedb51c79c56f) and rs2_val==dinfinity(0xFFF0000000000000) | Exponent = MinNorm.exp + 1
    ? 'fs1 == 0 and fe1 == 0x7fe and fm1 == 0xbedb51c79c56f and fs2 == 1 and fe2 ==
      0x7ff and fm2 == 0x0000000000000 and rm_val == 0  #nosat'
    : 1 #  rs1_val==dnorm(0x7febedb51c79c56f) and rs2_val==dinfinity(0xFFF0000000000000) | Exponent = MinNorm.exp + 1
    ? 'fs1 == 0 and fe1 == 0x7fd and fm1 == 0x2cf1d3b6ac94b and fs2 == 1 and fe2 ==
      0x7ff and fm2 == 0x0000000000000 and rm_val == 4  #nosat'
    : 1 #  rs1_val==dnorm(0x7fd2cf1d3b6ac94b) and rs2_val==dinfinity(0xFFF0000000000000) | Guard = 1 Round = 1 Sticky = 1 --> Minnorm + 7 ulp
    ? 'fs1 == 0 and fe1 == 0x7fd and fm1 == 0x2cf1d3b6ac94b and fs2 == 1 and fe2 ==
      0x7ff and fm2 == 0x0000000000000 and rm_val == 3  #nosat'
    : 1 #  rs1_val==dnorm(0x7fd2cf1d3b6ac94b) and rs2_val==dinfinity(0xFFF0000000000000) | Guard = 1 Round = 1 Sticky = 1 --> Minnorm + 7 ulp
    ? 'fs1 == 0 and fe1 == 0x7fd and fm1 == 0x2cf1d3b6ac94b and fs2 == 1 and fe2 ==
      0x7ff and fm2 == 0x0000000000000 and rm_val == 2  #nosat'
    : 1 #  rs1_val==dnorm(0x7fd2cf1d3b6ac94b) and rs2_val==dinfinity(0xFFF0000000000000) | Guard = 1 Round = 1 Sticky = 1 --> Minnorm + 7 ulp
    ? 'fs1 == 0 and fe1 == 0x7fd and fm1 == 0x2cf1d3b6ac94b and fs2 == 1 and fe2 ==
      0x7ff and fm2 == 0x0000000000000 and rm_val == 1  #nosat'
    : 1 #  rs1_val==dnorm(0x7fd2cf1d3b6ac94b) and rs2_val==dinfinity(0xFFF0000000000000) | Guard = 1 Round = 1 Sticky = 1 --> Minnorm + 7 ulp
    ? 'fs1 == 0 and fe1 == 0x7fd and fm1 == 0x2cf1d3b6ac94b and fs2 == 1 and fe2 ==
      0x7ff and fm2 == 0x0000000000000 and rm_val == 0  #nosat'
    : 1 #  rs1_val==dnorm(0x7fd2cf1d3b6ac94b) and rs2_val==dinfinity(0xFFF0000000000000) | Guard = 1 Round = 1 Sticky = 1 --> Minnorm + 7 ulp
    ? 'fs1 == 0 and fe1 == 0x7fd and fm1 == 0xa4501af2d40bf and fs2 == 1 and fe2 ==
      0x7ff and fm2 == 0x0000000000000 and rm_val == 4  #nosat'
    : 1 #  rs1_val==dnorm(0x7fda4501af2d40bf) and rs2_val==dinfinity(0xFFF0000000000000) | Guard = 1 Round = 1 Sticky = 0 --> Minnorm + 6 ulp
    ? 'fs1 == 0 and fe1 == 0x7fd and fm1 == 0xa4501af2d40bf and fs2 == 1 and fe2 ==
      0x7ff and fm2 == 0x0000000000000 and rm_val == 3  #nosat'
    : 1 #  rs1_val==dnorm(0x7fda4501af2d40bf) and rs2_val==dinfinity(0xFFF0000000000000) | Guard = 1 Round = 1 Sticky = 0 --> Minnorm + 6 ulp
    ? 'fs1 == 0 and fe1 == 0x7fd and fm1 == 0xa4501af2d40bf and fs2 == 1 and fe2 ==
      0x7ff and fm2 == 0x0000000000000 and rm_val == 2  #nosat'
    : 1 #  rs1_val==dnorm(0x7fda4501af2d40bf) and rs2_val==dinfinity(0xFFF0000000000000) | Guard = 1 Round = 1 Sticky = 0 --> Minnorm + 6 ulp
    ? 'fs1 == 0 and fe1 == 0x7fd and fm1 == 0xa4501af2d40bf and fs2 == 1 and fe2 ==
      0x7ff and fm2 == 0x0000000000000 and rm_val == 1  #nosat'
    : 1 #  rs1_val==dnorm(0x7fda4501af2d40bf) and rs2_val==dinfinity(0xFFF0000000000000) | Guard = 1 Round = 1 Sticky = 0 --> Minnorm + 6 ulp
    ? 'fs1 == 0 and fe1 == 0x7fd and fm1 == 0xa4501af2d40bf and fs2 == 1 and fe2 ==
      0x7ff and fm2 == 0x0000000000000 and rm_val == 0  #nosat'
    : 1 #  rs1_val==dnorm(0x7fda4501af2d40bf) and rs2_val==dinfinity(0xFFF0000000000000) | Guard = 1 Round = 1 Sticky = 0 --> Minnorm + 6 ulp
    ? 'fs1 == 0 and fe1 == 0x7fb and fm1 == 0x6a91f2b02b477 and fs2 == 1 and fe2 ==
      0x7ff and fm2 == 0x0000000000000 and rm_val == 4  #nosat'
    : 1 #  rs1_val==dnorm(0x7fb6a91f2b02b477) and rs2_val==dinfinity(0xFFF0000000000000) | Guard = 1 Round = 0 Sticky = 1 --> Minnorm + 5 ulp
    ? 'fs1 == 0 and fe1 == 0x7fb and fm1 == 0x6a91f2b02b477 and fs2 == 1 and fe2 ==
      0x7ff and fm2 == 0x0000000000000 and rm_val == 3  #nosat'
    : 1 #  rs1_val==dnorm(0x7fb6a91f2b02b477) and rs2_val==dinfinity(0xFFF0000000000000) | Guard = 1 Round = 0 Sticky = 1 --> Minnorm + 5 ulp
    ? 'fs1 == 0 and fe1 == 0x7fb and fm1 == 0x6a91f2b02b477 and fs2 == 1 and fe2 ==
      0x7ff and fm2 == 0x0000000000000 and rm_val == 2  #nosat'
    : 1 #  rs1_val==dnorm(0x7fb6a91f2b02b477) and rs2_val==dinfinity(0xFFF0000000000000) | Guard = 1 Round = 0 Sticky = 1 --> Minnorm + 5 ulp
    ? 'fs1 == 0 and fe1 == 0x7fb and fm1 == 0x6a91f2b02b477 and fs2 == 1 and fe2 ==
      0x7ff and fm2 == 0x0000000000000 and rm_val == 1  #nosat'
    : 1 #  rs1_val==dnorm(0x7fb6a91f2b02b477) and rs2_val==dinfinity(0xFFF0000000000000) | Guard = 1 Round = 0 Sticky = 1 --> Minnorm + 5 ulp
    ? 'fs1 == 0 and fe1 == 0x7fb and fm1 == 0x6a91f2b02b477 and fs2 == 1 and fe2 ==
      0x7ff and fm2 == 0x0000000000000 and rm_val == 0  #nosat'
    : 1 #  rs1_val==dnorm(0x7fb6a91f2b02b477) and rs2_val==dinfinity(0xFFF0000000000000) | Guard = 1 Round = 0 Sticky = 1 --> Minnorm + 5 ulp
    ? 'fs1 == 0 and fe1 == 0x7fe and fm1 == 0xb537f328e16b0 and fs2 == 1 and fe2 ==
      0x7ff and fm2 == 0x0000000000000 and rm_val == 4  #nosat'
    : 1 #  rs1_val==dnorm(0x7feb537f328e16b0) and rs2_val==dinfinity(0xFFF0000000000000) | Guard = 1 Round = 0 Sticky = 0 --> Minnorm + 4 ulp
    ? 'fs1 == 0 and fe1 == 0x7fe and fm1 == 0xb537f328e16b0 and fs2 == 1 and fe2 ==
      0x7ff and fm2 == 0x0000000000000 and rm_val == 3  #nosat'
    : 1 #  rs1_val==dnorm(0x7feb537f328e16b0) and rs2_val==dinfinity(0xFFF0000000000000) | Guard = 1 Round = 0 Sticky = 0 --> Minnorm + 4 ulp
    ? 'fs1 == 0 and fe1 == 0x7fe and fm1 == 0xb537f328e16b0 and fs2 == 1 and fe2 ==
      0x7ff and fm2 == 0x0000000000000 and rm_val == 2  #nosat'
    : 1 #  rs1_val==dnorm(0x7feb537f328e16b0) and rs2_val==dinfinity(0xFFF0000000000000) | Guard = 1 Round = 0 Sticky = 0 --> Minnorm + 4 ulp
    ? 'fs1 == 0 and fe1 == 0x7fe and fm1 == 0xb537f328e16b0 and fs2 == 1 and fe2 ==
      0x7ff and fm2 == 0x0000000000000 and rm_val == 1  #nosat'
    : 1 #  rs1_val==dnorm(0x7feb537f328e16b0) and rs2_val==dinfinity(0xFFF0000000000000) | Guard = 1 Round = 0 Sticky = 0 --> Minnorm + 4 ulp
    ? 'fs1 == 0 and fe1 == 0x7fe and fm1 == 0xb537f328e16b0 and fs2 == 1 and fe2 ==
      0x7ff and fm2 == 0x0000000000000 and rm_val == 0  #nosat'
    : 1 #  rs1_val==dnorm(0x7feb537f328e16b0) and rs2_val==dinfinity(0xFFF0000000000000) | Guard = 1 Round = 0 Sticky = 0 --> Minnorm + 4 ulp
    ? 'fs1 == 0 and fe1 == 0x7fd and fm1 == 0x23cbe38fed7af and fs2 == 1 and fe2 ==
      0x7ff and fm2 == 0x0000000000000 and rm_val == 4  #nosat'
    : 1 #  rs1_val==dnorm(0x7fd23cbe38fed7af) and rs2_val==dinfinity(0xFFF0000000000000) | Guard = 0 Round = 1 Sticky = 1 --> Minnorm + 3 ulp
    ? 'fs1 == 0 and fe1 == 0x7fd and fm1 == 0x23cbe38fed7af and fs2 == 1 and fe2 ==
      0x7ff and fm2 == 0x0000000000000 and rm_val == 3  #nosat'
    : 1 #  rs1_val==dnorm(0x7fd23cbe38fed7af) and rs2_val==dinfinity(0xFFF0000000000000) | Guard = 0 Round = 1 Sticky = 1 --> Minnorm + 3 ulp
    ? 'fs1 == 0 and fe1 == 0x7fd and fm1 == 0x23cbe38fed7af and fs2 == 1 and fe2 ==
      0x7ff and fm2 == 0x0000000000000 and rm_val == 2  #nosat'
    : 1 #  rs1_val==dnorm(0x7fd23cbe38fed7af) and rs2_val==dinfinity(0xFFF0000000000000) | Guard = 0 Round = 1 Sticky = 1 --> Minnorm + 3 ulp
    ? 'fs1 == 0 and fe1 == 0x7fd and fm1 == 0x23cbe38fed7af and fs2 == 1 and fe2 ==
      0x7ff and fm2 == 0x0000000000000 and rm_val == 1  #nosat'
    : 1 #  rs1_val==dnorm(0x7fd23cbe38fed7af) and rs2_val==dinfinity(0xFFF0000000000000) | Guard = 0 Round = 1 Sticky = 1 --> Minnorm + 3 ulp
    ? 'fs1 == 0 and fe1 == 0x7fd and fm1 == 0x23cbe38fed7af and fs2 == 1 and fe2 ==
      0x7ff and fm2 == 0x0000000000000 and rm_val == 0  #nosat'
    : 1 #  rs1_val==dnorm(0x7fd23cbe38fed7af) and rs2_val==dinfinity(0xFFF0000000000000) | Guard = 0 Round = 1 Sticky = 1 --> Minnorm + 3 ulp
    ? 'fs1 == 0 and fe1 == 0x7fe and fm1 == 0xa9c883bf3c926 and fs2 == 1 and fe2 ==
      0x7ff and fm2 == 0x0000000000000 and rm_val == 4  #nosat'
    : 1 #  rs1_val==dnorm(0x7fea9c883bf3c926) and rs2_val==dinfinity(0xFFF0000000000000) | Guard = 0 Round = 1 Sticky = 0 --> Minnorm + 2 ulp
    ? 'fs1 == 0 and fe1 == 0x7fe and fm1 == 0xa9c883bf3c926 and fs2 == 1 and fe2 ==
      0x7ff and fm2 == 0x0000000000000 and rm_val == 3  #nosat'
    : 1 #  rs1_val==dnorm(0x7fea9c883bf3c926) and rs2_val==dinfinity(0xFFF0000000000000) | Guard = 0 Round = 1 Sticky = 0 --> Minnorm + 2 ulp
    ? 'fs1 == 0 and fe1 == 0x7fe and fm1 == 0xa9c883bf3c926 and fs2 == 1 and fe2 ==
      0x7ff and fm2 == 0x0000000000000 and rm_val == 2  #nosat'
    : 1 #  rs1_val==dnorm(0x7fea9c883bf3c926) and rs2_val==dinfinity(0xFFF0000000000000) | Guard = 0 Round = 1 Sticky = 0 --> Minnorm + 2 ulp
    ? 'fs1 == 0 and fe1 == 0x7fe and fm1 == 0xa9c883bf3c926 and fs2 == 1 and fe2 ==
      0x7ff and fm2 == 0x0000000000000 and rm_val == 1  #nosat'
    : 1 #  rs1_val==dnorm(0x7fea9c883bf3c926) and rs2_val==dinfinity(0xFFF0000000000000) | Guard = 0 Round = 1 Sticky = 0 --> Minnorm + 2 ulp
    ? 'fs1 == 0 and fe1 == 0x7fe and fm1 == 0xa9c883bf3c926 and fs2 == 1 and fe2 ==
      0x7ff and fm2 == 0x0000000000000 and rm_val == 0  #nosat'
    : 1 #  rs1_val==dnorm(0x7fea9c883bf3c926) and rs2_val==dinfinity(0xFFF0000000000000) | Guard = 0 Round = 1 Sticky = 0 --> Minnorm + 2 ulp
    ? 'fs1 == 0 and fe1 == 0x7fe and fm1 == 0x6d796ca9f3e52 and fs2 == 1 and fe2 ==
      0x7ff and fm2 == 0x0000000000000 and rm_val == 4  #nosat'
    : 1 #  rs1_val==dnorm(0x7fe6d796ca9f3e52) and rs2_val==dinfinity(0xFFF0000000000000) | Guard = 0 Round = 0 Sticky = 1 --> Minnorm + 1 ulp
    ? 'fs1 == 0 and fe1 == 0x7fe and fm1 == 0x6d796ca9f3e52 and fs2 == 1 and fe2 ==
      0x7ff and fm2 == 0x0000000000000 and rm_val == 3  #nosat'
    : 1 #  rs1_val==dnorm(0x7fe6d796ca9f3e52) and rs2_val==dinfinity(0xFFF0000000000000) | Guard = 0 Round = 0 Sticky = 1 --> Minnorm + 1 ulp
    ? 'fs1 == 0 and fe1 == 0x7fe and fm1 == 0x6d796ca9f3e52 and fs2 == 1 and fe2 ==
      0x7ff and fm2 == 0x0000000000000 and rm_val == 2  #nosat'
    : 1 #  rs1_val==dnorm(0x7fe6d796ca9f3e52) and rs2_val==dinfinity(0xFFF0000000000000) | Guard = 0 Round = 0 Sticky = 1 --> Minnorm + 1 ulp
    ? 'fs1 == 0 and fe1 == 0x7fe and fm1 == 0x6d796ca9f3e52 and fs2 == 1 and fe2 ==
      0x7ff and fm2 == 0x0000000000000 and rm_val == 1  #nosat'
    : 1 #  rs1_val==dnorm(0x7fe6d796ca9f3e52) and rs2_val==dinfinity(0xFFF0000000000000) | Guard = 0 Round = 0 Sticky = 1 --> Minnorm + 1 ulp
    ? 'fs1 == 0 and fe1 == 0x7fe and fm1 == 0x6d796ca9f3e52 and fs2 == 1 and fe2 ==
      0x7ff and fm2 == 0x0000000000000 and rm_val == 0  #nosat'
    : 1 #  rs1_val==dnorm(0x7fe6d796ca9f3e52) and rs2_val==dinfinity(0xFFF0000000000000) | Guard = 0 Round = 0 Sticky = 1 --> Minnorm + 1 ulp
    ? 'fs1 == 0 and fe1 == 0x7fe and fm1 == 0xcf344fe49aeb9 and fs2 == 1 and fe2 ==
      0x7ff and fm2 == 0x0000000000000 and rm_val == 4  #nosat'
    : 1 #  rs1_val==dnorm(0x7fecf344fe49aeb9) and rs2_val==dinfinity(0xFFF0000000000000) | Guard = 0 Round = 0 Sticky = 0 --> Minnorm + 0 ulp
    ? 'fs1 == 0 and fe1 == 0x7fe and fm1 == 0xcf344fe49aeb9 and fs2 == 1 and fe2 ==
      0x7ff and fm2 == 0x0000000000000 and rm_val == 3  #nosat'
    : 1 #  rs1_val==dnorm(0x7fecf344fe49aeb9) and rs2_val==dinfinity(0xFFF0000000000000) | Guard = 0 Round = 0 Sticky = 0 --> Minnorm + 0 ulp
    ? 'fs1 == 0 and fe1 == 0x7fe and fm1 == 0xcf344fe49aeb9 and fs2 == 1 and fe2 ==
      0x7ff and fm2 == 0x0000000000000 and rm_val == 2  #nosat'
    : 1 #  rs1_val==dnorm(0x7fecf344fe49aeb9) and rs2_val==dinfinity(0xFFF0000000000000) | Guard = 0 Round = 0 Sticky = 0 --> Minnorm + 0 ulp
    ? 'fs1 == 0 and fe1 == 0x7fe and fm1 == 0xcf344fe49aeb9 and fs2 == 1 and fe2 ==
      0x7ff and fm2 == 0x0000000000000 and rm_val == 1  #nosat'
    : 1 #  rs1_val==dnorm(0x7fecf344fe49aeb9) and rs2_val==dinfinity(0xFFF0000000000000) | Guard = 0 Round = 0 Sticky = 0 --> Minnorm + 0 ulp
    ? 'fs1 == 0 and fe1 == 0x7fe and fm1 == 0xcf344fe49aeb9 and fs2 == 1 and fe2 ==
      0x7ff and fm2 == 0x0000000000000 and rm_val == 0  #nosat'
    : 1 #  rs1_val==dnorm(0x7fecf344fe49aeb9) and rs2_val==dinfinity(0xFFF0000000000000) | Guard = 0 Round = 0 Sticky = 0 --> Minnorm + 0 ulp
    ? 'fs1 == 0 and fe1 == 0x7fe and fm1 == 0xb8a57b94e3940 and fs2 == 1 and fe2 ==
      0x7ff and fm2 == 0x0000000000000 and rm_val == 4  #nosat'
    : 1 #  rs1_val==dnorm(0x7feb8a57b94e3940) and rs2_val==dinfinity(0xFFF0000000000000) | Guard = 0 Round = 0 Sticky = 0 --> Minsubnorm + 0 ulp
    ? 'fs1 == 0 and fe1 == 0x7fe and fm1 == 0xb8a57b94e3940 and fs2 == 1 and fe2 ==
      0x7ff and fm2 == 0x0000000000000 and rm_val == 3  #nosat'
    : 1 #  rs1_val==dnorm(0x7feb8a57b94e3940) and rs2_val==dinfinity(0xFFF0000000000000) | Guard = 0 Round = 0 Sticky = 0 --> Minsubnorm + 0 ulp
    ? 'fs1 == 0 and fe1 == 0x7fe and fm1 == 0xb8a57b94e3940 and fs2 == 1 and fe2 ==
      0x7ff and fm2 == 0x0000000000000 and rm_val == 2  #nosat'
    : 1 #  rs1_val==dnorm(0x7feb8a57b94e3940) and rs2_val==dinfinity(0xFFF0000000000000) | Guard = 0 Round = 0 Sticky = 0 --> Minsubnorm + 0 ulp
    ? 'fs1 == 0 and fe1 == 0x7fe and fm1 == 0xb8a57b94e3940 and fs2 == 1 and fe2 ==
      0x7ff and fm2 == 0x0000000000000 and rm_val == 1  #nosat'
    : 1 #  rs1_val==dnorm(0x7feb8a57b94e3940) and rs2_val==dinfinity(0xFFF0000000000000) | Guard = 0 Round = 0 Sticky = 0 --> Minsubnorm + 0 ulp
    ? 'fs1 == 0 and fe1 == 0x7fe and fm1 == 0xb8a57b94e3940 and fs2 == 1 and fe2 ==
      0x7ff and fm2 == 0x0000000000000 and rm_val == 0  #nosat'
    : 1 #  rs1_val==dnorm(0x7feb8a57b94e3940) and rs2_val==dinfinity(0xFFF0000000000000) | Guard = 0 Round = 0 Sticky = 0 --> Minsubnorm + 0 ulp
    ? 'fs1 == 0 and fe1 == 0x7fe and fm1 == 0x57b12a6c8424b and fs2 == 1 and fe2 ==
      0x7ff and fm2 == 0x0000000000000 and rm_val == 4  #nosat'
    : 1 #  rs1_val==dnorm(0x7fe57b12a6c8424b) and rs2_val==dinfinity(0xFFF0000000000000) | Guard = 1 Round = 1 Sticky = 1 --> Minsubnorm + 7 ulp
    ? 'fs1 == 0 and fe1 == 0x7fe and fm1 == 0x57b12a6c8424b and fs2 == 1 and fe2 ==
      0x7ff and fm2 == 0x0000000000000 and rm_val == 3  #nosat'
    : 1 #  rs1_val==dnorm(0x7fe57b12a6c8424b) and rs2_val==dinfinity(0xFFF0000000000000) | Guard = 1 Round = 1 Sticky = 1 --> Minsubnorm + 7 ulp
    ? 'fs1 == 0 and fe1 == 0x7fe and fm1 == 0x57b12a6c8424b and fs2 == 1 and fe2 ==
      0x7ff and fm2 == 0x0000000000000 and rm_val == 2  #nosat'
    : 1 #  rs1_val==dnorm(0x7fe57b12a6c8424b) and rs2_val==dinfinity(0xFFF0000000000000) | Guard = 1 Round = 1 Sticky = 1 --> Minsubnorm + 7 ulp
    ? 'fs1 == 0 and fe1 == 0x7fe and fm1 == 0x57b12a6c8424b and fs2 == 1 and fe2 ==
      0x7ff and fm2 == 0x0000000000000 and rm_val == 1  #nosat'
    : 1 #  rs1_val==dnorm(0x7fe57b12a6c8424b) and rs2_val==dinfinity(0xFFF0000000000000) | Guard = 1 Round = 1 Sticky = 1 --> Minsubnorm + 7 ulp
    ? 'fs1 == 0 and fe1 == 0x7fe and fm1 == 0x57b12a6c8424b and fs2 == 1 and fe2 ==
      0x7ff and fm2 == 0x0000000000000 and rm_val == 0  #nosat'
    : 1 #  rs1_val==dnorm(0x7fe57b12a6c8424b) and rs2_val==dinfinity(0xFFF0000000000000) | Guard = 1 Round = 1 Sticky = 1 --> Minsubnorm + 7 ulp
    ? 'fs1 == 0 and fe1 == 0x7fe and fm1 == 0xb67a2291e65ec and fs2 == 1 and fe2 ==
      0x7ff and fm2 == 0x0000000000000 and rm_val == 4  #nosat'
    : 1 #  rs1_val==dnorm(0x7feb67a2291e65ec) and rs2_val==dinfinity(0xFFF0000000000000) | Guard = 1 Round = 1 Sticky = 0 --> Minsubnorm + 6 ulp
    ? 'fs1 == 0 and fe1 == 0x7fe and fm1 == 0xb67a2291e65ec and fs2 == 1 and fe2 ==
      0x7ff and fm2 == 0x0000000000000 and rm_val == 3  #nosat'
    : 1 #  rs1_val==dnorm(0x7feb67a2291e65ec) and rs2_val==dinfinity(0xFFF0000000000000) | Guard = 1 Round = 1 Sticky = 0 --> Minsubnorm + 6 ulp
    ? 'fs1 == 0 and fe1 == 0x7fe and fm1 == 0xb67a2291e65ec and fs2 == 1 and fe2 ==
      0x7ff and fm2 == 0x0000000000000 and rm_val == 2  #nosat'
    : 1 #  rs1_val==dnorm(0x7feb67a2291e65ec) and rs2_val==dinfinity(0xFFF0000000000000) | Guard = 1 Round = 1 Sticky = 0 --> Minsubnorm + 6 ulp
    ? 'fs1 == 0 and fe1 == 0x7fe and fm1 == 0xb67a2291e65ec and fs2 == 1 and fe2 ==
      0x7ff and fm2 == 0x0000000000000 and rm_val == 1  #nosat'
    : 1 #  rs1_val==dnorm(0x7feb67a2291e65ec) and rs2_val==dinfinity(0xFFF0000000000000) | Guard = 1 Round = 1 Sticky = 0 --> Minsubnorm + 6 ulp
    ? 'fs1 == 0 and fe1 == 0x7fe and fm1 == 0xb67a2291e65ec and fs2 == 1 and fe2 ==
      0x7ff and fm2 == 0x0000000000000 and rm_val == 0  #nosat'
    : 1 #  rs1_val==dnorm(0x7feb67a2291e65ec) and rs2_val==dinfinity(0xFFF0000000000000) | Guard = 1 Round = 1 Sticky = 0 --> Minsubnorm + 6 ulp
    ? 'fs1 == 0 and fe1 == 0x7fe and fm1 == 0x5d2cc33a9b554 and fs2 == 1 and fe2 ==
      0x7ff and fm2 == 0x0000000000000 and rm_val == 4  #nosat'
    : 1 #  rs1_val==dnorm(0x7fe5d2cc33a9b554) and rs2_val==dinfinity(0xFFF0000000000000) | Guard = 1 Round = 0 Sticky = 1 --> Minsubnorm + 5 ulp
    ? 'fs1 == 0 and fe1 == 0x7fe and fm1 == 0x5d2cc33a9b554 and fs2 == 1 and fe2 ==
      0x7ff and fm2 == 0x0000000000000 and rm_val == 3  #nosat'
    : 1 #  rs1_val==dnorm(0x7fe5d2cc33a9b554) and rs2_val==dinfinity(0xFFF0000000000000) | Guard = 1 Round = 0 Sticky = 1 --> Minsubnorm + 5 ulp
    ? 'fs1 == 0 and fe1 == 0x7fe and fm1 == 0x5d2cc33a9b554 and fs2 == 1 and fe2 ==
      0x7ff and fm2 == 0x0000000000000 and rm_val == 2  #nosat'
    : 1 #  rs1_val==dnorm(0x7fe5d2cc33a9b554) and rs2_val==dinfinity(0xFFF0000000000000) | Guard = 1 Round = 0 Sticky = 1 --> Minsubnorm + 5 ulp
    ? 'fs1 == 0 and fe1 == 0x7fe and fm1 == 0x5d2cc33a9b554 and fs2 == 1 and fe2 ==
      0x7ff and fm2 == 0x0000000000000 and rm_val == 1  #nosat'
    : 1 #  rs1_val==dnorm(0x7fe5d2cc33a9b554) and rs2_val==dinfinity(0xFFF0000000000000) | Guard = 1 Round = 0 Sticky = 1 --> Minsubnorm + 5 ulp
    ? 'fs1 == 0 and fe1 == 0x7fe and fm1 == 0x5d2cc33a9b554 and fs2 == 1 and fe2 ==
      0x7ff and fm2 == 0x0000000000000 and rm_val == 0  #nosat'
    : 1 #  rs1_val==dnorm(0x7fe5d2cc33a9b554) and rs2_val==dinfinity(0xFFF0000000000000) | Guard = 1 Round = 0 Sticky = 1 --> Minsubnorm + 5 ulp
    ? 'fs1 == 0 and fe1 == 0x7fe and fm1 == 0x2b230d0edf6b7 and fs2 == 1 and fe2 ==
      0x7ff and fm2 == 0x0000000000000 and rm_val == 4  #nosat'
    : 1 #  rs1_val==dnorm(0x7fe2b230d0edf6b7) and rs2_val==dinfinity(0xFFF0000000000000) | Guard = 1 Round = 0 Sticky = 0 --> Minsubnorm + 4 ulp
    ? 'fs1 == 0 and fe1 == 0x7fe and fm1 == 0x2b230d0edf6b7 and fs2 == 1 and fe2 ==
      0x7ff and fm2 == 0x0000000000000 and rm_val == 3  #nosat'
    : 1 #  rs1_val==dnorm(0x7fe2b230d0edf6b7) and rs2_val==dinfinity(0xFFF0000000000000) | Guard = 1 Round = 0 Sticky = 0 --> Minsubnorm + 4 ulp
    ? 'fs1 == 0 and fe1 == 0x7fe and fm1 == 0x2b230d0edf6b7 and fs2 == 1 and fe2 ==
      0x7ff and fm2 == 0x0000000000000 and rm_val == 2  #nosat'
    : 1 #  rs1_val==dnorm(0x7fe2b230d0edf6b7) and rs2_val==dinfinity(0xFFF0000000000000) | Guard = 1 Round = 0 Sticky = 0 --> Minsubnorm + 4 ulp
    ? 'fs1 == 0 and fe1 == 0x7fe and fm1 == 0x2b230d0edf6b7 and fs2 == 1 and fe2 ==
      0x7ff and fm2 == 0x0000000000000 and rm_val == 1  #nosat'
    : 1 #  rs1_val==dnorm(0x7fe2b230d0edf6b7) and rs2_val==dinfinity(0xFFF0000000000000) | Guard = 1 Round = 0 Sticky = 0 --> Minsubnorm + 4 ulp
    ? 'fs1 == 0 and fe1 == 0x7fe and fm1 == 0x2b230d0edf6b7 and fs2 == 1 and fe2 ==
      0x7ff and fm2 == 0x0000000000000 and rm_val == 0  #nosat'
    : 1 #  rs1_val==dnorm(0x7fe2b230d0edf6b7) and rs2_val==dinfinity(0xFFF0000000000000) | Guard = 1 Round = 0 Sticky = 0 --> Minsubnorm + 4 ulp
    ? 'fs1 == 0 and fe1 == 0x7fd and fm1 == 0x675514445d7d5 and fs2 == 1 and fe2 ==
      0x7ff and fm2 == 0x0000000000000 and rm_val == 4  #nosat'
    : 1 #  rs1_val==dnorm(0x7fd675514445d7d5) and rs2_val==dinfinity(0xFFF0000000000000) | Guard = 0 Round = 1 Sticky = 1 --> Minsubnorm + 3 ulp
    ? 'fs1 == 0 and fe1 == 0x7fd and fm1 == 0x675514445d7d5 and fs2 == 1 and fe2 ==
      0x7ff and fm2 == 0x0000000000000 and rm_val == 3  #nosat'
    : 1 #  rs1_val==dnorm(0x7fd675514445d7d5) and rs2_val==dinfinity(0xFFF0000000000000) | Guard = 0 Round = 1 Sticky = 1 --> Minsubnorm + 3 ulp
    ? 'fs1 == 0 and fe1 == 0x7fd and fm1 == 0x675514445d7d5 and fs2 == 1 and fe2 ==
      0x7ff and fm2 == 0x0000000000000 and rm_val == 2  #nosat'
    : 1 #  rs1_val==dnorm(0x7fd675514445d7d5) and rs2_val==dinfinity(0xFFF0000000000000) | Guard = 0 Round = 1 Sticky = 1 --> Minsubnorm + 3 ulp
    ? 'fs1 == 0 and fe1 == 0x7fd and fm1 == 0x675514445d7d5 and fs2 == 1 and fe2 ==
      0x7ff and fm2 == 0x0000000000000 and rm_val == 1  #nosat'
    : 1 #  rs1_val==dnorm(0x7fd675514445d7d5) and rs2_val==dinfinity(0xFFF0000000000000) | Guard = 0 Round = 1 Sticky = 1 --> Minsubnorm + 3 ulp
    ? 'fs1 == 0 and fe1 == 0x7fd and fm1 == 0x675514445d7d5 and fs2 == 1 and fe2 ==
      0x7ff and fm2 == 0x0000000000000 and rm_val == 0  #nosat'
    : 1 #  rs1_val==dnorm(0x7fd675514445d7d5) and rs2_val==dinfinity(0xFFF0000000000000) | Guard = 0 Round = 1 Sticky = 1 --> Minsubnorm + 3 ulp
    ? 'fs1 == 0 and fe1 == 0x7fe and fm1 == 0x03b55a3557b05 and fs2 == 1 and fe2 ==
      0x7ff and fm2 == 0x0000000000000 and rm_val == 4  #nosat'
    : 1 #  rs1_val==dnorm(0x7fe03b55a3557b05) and rs2_val==dinfinity(0xFFF0000000000000) | Guard = 0 Round = 1 Sticky = 0 --> Minsubnorm + 2 ulp
    ? 'fs1 == 0 and fe1 == 0x7fe and fm1 == 0x03b55a3557b05 and fs2 == 1 and fe2 ==
      0x7ff and fm2 == 0x0000000000000 and rm_val == 3  #nosat'
    : 1 #  rs1_val==dnorm(0x7fe03b55a3557b05) and rs2_val==dinfinity(0xFFF0000000000000) | Guard = 0 Round = 1 Sticky = 0 --> Minsubnorm + 2 ulp
    ? 'fs1 == 0 and fe1 == 0x7fe and fm1 == 0x03b55a3557b05 and fs2 == 1 and fe2 ==
      0x7ff and fm2 == 0x0000000000000 and rm_val == 2  #nosat'
    : 1 #  rs1_val==dnorm(0x7fe03b55a3557b05) and rs2_val==dinfinity(0xFFF0000000000000) | Guard = 0 Round = 1 Sticky = 0 --> Minsubnorm + 2 ulp
    ? 'fs1 == 0 and fe1 == 0x7fe and fm1 == 0x03b55a3557b05 and fs2 == 1 and fe2 ==
      0x7ff and fm2 == 0x0000000000000 and rm_val == 1  #nosat'
    : 1 #  rs1_val==dnorm(0x7fe03b55a3557b05) and rs2_val==dinfinity(0xFFF0000000000000) | Guard = 0 Round = 1 Sticky = 0 --> Minsubnorm + 2 ulp
    ? 'fs1 == 0 and fe1 == 0x7fe and fm1 == 0x03b55a3557b05 and fs2 == 1 and fe2 ==
      0x7ff and fm2 == 0x0000000000000 and rm_val == 0  #nosat'
    : 1 #  rs1_val==dnorm(0x7fe03b55a3557b05) and rs2_val==dinfinity(0xFFF0000000000000) | Guard = 0 Round = 1 Sticky = 0 --> Minsubnorm + 2 ulp
    ? 'fs1 == 0 and fe1 == 0x7fe and fm1 == 0x40d80b76bc040 and fs2 == 1 and fe2 ==
      0x7ff and fm2 == 0x0000000000000 and rm_val == 4  #nosat'
    : 1 #  rs1_val==dnorm(0x7fe40d80b76bc040) and rs2_val==dinfinity(0xFFF0000000000000) | Guard = 0 Round = 0 Sticky = 1 --> Minsubnorm + 1 ulp
    ? 'fs1 == 0 and fe1 == 0x7fe and fm1 == 0x40d80b76bc040 and fs2 == 1 and fe2 ==
      0x7ff and fm2 == 0x0000000000000 and rm_val == 3  #nosat'
    : 1 #  rs1_val==dnorm(0x7fe40d80b76bc040) and rs2_val==dinfinity(0xFFF0000000000000) | Guard = 0 Round = 0 Sticky = 1 --> Minsubnorm + 1 ulp
    ? 'fs1 == 0 and fe1 == 0x7fe and fm1 == 0x40d80b76bc040 and fs2 == 1 and fe2 ==
      0x7ff and fm2 == 0x0000000000000 and rm_val == 2  #nosat'
    : 1 #  rs1_val==dnorm(0x7fe40d80b76bc040) and rs2_val==dinfinity(0xFFF0000000000000) | Guard = 0 Round = 0 Sticky = 1 --> Minsubnorm + 1 ulp
    ? 'fs1 == 0 and fe1 == 0x7fe and fm1 == 0x40d80b76bc040 and fs2 == 1 and fe2 ==
      0x7ff and fm2 == 0x0000000000000 and rm_val == 1  #nosat'
    : 1 #  rs1_val==dnorm(0x7fe40d80b76bc040) and rs2_val==dinfinity(0xFFF0000000000000) | Guard = 0 Round = 0 Sticky = 1 --> Minsubnorm + 1 ulp
    ? 'fs1 == 0 and fe1 == 0x7fe and fm1 == 0x40d80b76bc040 and fs2 == 1 and fe2 ==
      0x7ff and fm2 == 0x0000000000000 and rm_val == 0  #nosat'
    : 1 #  rs1_val==dnorm(0x7fe40d80b76bc040) and rs2_val==dinfinity(0xFFF0000000000000) | Guard = 0 Round = 0 Sticky = 1 --> Minsubnorm + 1 ulp
    ? 'fs1 == 0 and fe1 == 0x7fe and fm1 == 0xee5369ab02b92 and fs2 == 0 and fe2 ==
      0x7ff and fm2 == 0x0000000000000 and rm_val == 4  #nosat'
    : 1 #  rs1_val==dnorm(0x7feee5369ab02b92) and rs2_val==dinfinity(0x7FF0000000000000) | Exponent = MinNorm.exp + 5
    ? 'fs1 == 0 and fe1 == 0x7fe and fm1 == 0xee5369ab02b92 and fs2 == 0 and fe2 ==
      0x7ff and fm2 == 0x0000000000000 and rm_val == 3  #nosat'
    : 1 #  rs1_val==dnorm(0x7feee5369ab02b92) and rs2_val==dinfinity(0x7FF0000000000000) | Exponent = MinNorm.exp + 5
    ? 'fs1 == 0 and fe1 == 0x7fe and fm1 == 0xee5369ab02b92 and fs2 == 0 and fe2 ==
      0x7ff and fm2 == 0x0000000000000 and rm_val == 2  #nosat'
    : 1 #  rs1_val==dnorm(0x7feee5369ab02b92) and rs2_val==dinfinity(0x7FF0000000000000) | Exponent = MinNorm.exp + 5
    ? 'fs1 == 0 and fe1 == 0x7fe and fm1 == 0xee5369ab02b92 and fs2 == 0 and fe2 ==
      0x7ff and fm2 == 0x0000000000000 and rm_val == 1  #nosat'
    : 1 #  rs1_val==dnorm(0x7feee5369ab02b92) and rs2_val==dinfinity(0x7FF0000000000000) | Exponent = MinNorm.exp + 5
    ? 'fs1 == 0 and fe1 == 0x7fe and fm1 == 0xee5369ab02b92 and fs2 == 0 and fe2 ==
      0x7ff and fm2 == 0x0000000000000 and rm_val == 0  #nosat'
    : 1 #  rs1_val==dnorm(0x7feee5369ab02b92) and rs2_val==dinfinity(0x7FF0000000000000) | Exponent = MinNorm.exp + 5
    ? 'fs1 == 0 and fe1 == 0x7fc and fm1 == 0x1676d77eb0adb and fs2 == 0 and fe2 ==
      0x7ff and fm2 == 0x0000000000000 and rm_val == 4  #nosat'
    : 1 #  rs1_val==dnorm(0x7fc1676d77eb0adb) and rs2_val==dinfinity(0x7FF0000000000000) | Exponent = MinNorm.exp + 4
    ? 'fs1 == 0 and fe1 == 0x7fc and fm1 == 0x1676d77eb0adb and fs2 == 0 and fe2 ==
      0x7ff and fm2 == 0x0000000000000 and rm_val == 3  #nosat'
    : 1 #  rs1_val==dnorm(0x7fc1676d77eb0adb) and rs2_val==dinfinity(0x7FF0000000000000) | Exponent = MinNorm.exp + 4
    ? 'fs1 == 0 and fe1 == 0x7fc and fm1 == 0x1676d77eb0adb and fs2 == 0 and fe2 ==
      0x7ff and fm2 == 0x0000000000000 and rm_val == 2  #nosat'
    : 1 #  rs1_val==dnorm(0x7fc1676d77eb0adb) and rs2_val==dinfinity(0x7FF0000000000000) | Exponent = MinNorm.exp + 4
    ? 'fs1 == 0 and fe1 == 0x7fc and fm1 == 0x1676d77eb0adb and fs2 == 0 and fe2 ==
      0x7ff and fm2 == 0x0000000000000 and rm_val == 1  #nosat'
    : 1 #  rs1_val==dnorm(0x7fc1676d77eb0adb) and rs2_val==dinfinity(0x7FF0000000000000) | Exponent = MinNorm.exp + 4
    ? 'fs1 == 0 and fe1 == 0x7fc and fm1 == 0x1676d77eb0adb and fs2 == 0 and fe2 ==
      0x7ff and fm2 == 0x0000000000000 and rm_val == 0  #nosat'
    : 1 #  rs1_val==dnorm(0x7fc1676d77eb0adb) and rs2_val==dinfinity(0x7FF0000000000000) | Exponent = MinNorm.exp + 4
    ? 'fs1 == 0 and fe1 == 0x7fe and fm1 == 0xc1facf9764ac8 and fs2 == 0 and fe2 ==
      0x7ff and fm2 == 0x0000000000000 and rm_val == 4  #nosat'
    : 1 #  rs1_val==dnorm(0x7fec1facf9764ac8) and rs2_val==dinfinity(0x7FF0000000000000) | Exponent = MinNorm.exp + 3
    ? 'fs1 == 0 and fe1 == 0x7fe and fm1 == 0xc1facf9764ac8 and fs2 == 0 and fe2 ==
      0x7ff and fm2 == 0x0000000000000 and rm_val == 3  #nosat'
    : 1 #  rs1_val==dnorm(0x7fec1facf9764ac8) and rs2_val==dinfinity(0x7FF0000000000000) | Exponent = MinNorm.exp + 3
    ? 'fs1 == 0 and fe1 == 0x7fe and fm1 == 0xc1facf9764ac8 and fs2 == 0 and fe2 ==
      0x7ff and fm2 == 0x0000000000000 and rm_val == 2  #nosat'
    : 1 #  rs1_val==dnorm(0x7fec1facf9764ac8) and rs2_val==dinfinity(0x7FF0000000000000) | Exponent = MinNorm.exp + 3
    ? 'fs1 == 0 and fe1 == 0x7fe and fm1 == 0xc1facf9764ac8 and fs2 == 0 and fe2 ==
      0x7ff and fm2 == 0x0000000000000 and rm_val == 1  #nosat'
    : 1 #  rs1_val==dnorm(0x7fec1facf9764ac8) and rs2_val==dinfinity(0x7FF0000000000000) | Exponent = MinNorm.exp + 3
    ? 'fs1 == 0 and fe1 == 0x7fe and fm1 == 0xc1facf9764ac8 and fs2 == 0 and fe2 ==
      0x7ff and fm2 == 0x0000000000000 and rm_val == 0  #nosat'
    : 1 #  rs1_val==dnorm(0x7fec1facf9764ac8) and rs2_val==dinfinity(0x7FF0000000000000) | Exponent = MinNorm.exp + 3
    ? 'fs1 == 0 and fe1 == 0x7fd and fm1 == 0xc74abdfb676c7 and fs2 == 0 and fe2 ==
      0x7ff and fm2 == 0x0000000000000 and rm_val == 4  #nosat'
    : 1 #  rs1_val==dnorm(0x7fdc74abdfb676c7) and rs2_val==dinfinity(0x7FF0000000000000) | Exponent = MinNorm.exp + 2
    ? 'fs1 == 0 and fe1 == 0x7fd and fm1 == 0xc74abdfb676c7 and fs2 == 0 and fe2 ==
      0x7ff and fm2 == 0x0000000000000 and rm_val == 3  #nosat'
    : 1 #  rs1_val==dnorm(0x7fdc74abdfb676c7) and rs2_val==dinfinity(0x7FF0000000000000) | Exponent = MinNorm.exp + 2
    ? 'fs1 == 0 and fe1 == 0x7fd and fm1 == 0xc74abdfb676c7 and fs2 == 0 and fe2 ==
      0x7ff and fm2 == 0x0000000000000 and rm_val == 2  #nosat'
    : 1 #  rs1_val==dnorm(0x7fdc74abdfb676c7) and rs2_val==dinfinity(0x7FF0000000000000) | Exponent = MinNorm.exp + 2
    ? 'fs1 == 0 and fe1 == 0x7fd and fm1 == 0xc74abdfb676c7 and fs2 == 0 and fe2 ==
      0x7ff and fm2 == 0x0000000000000 and rm_val == 1  #nosat'
    : 1 #  rs1_val==dnorm(0x7fdc74abdfb676c7) and rs2_val==dinfinity(0x7FF0000000000000) | Exponent = MinNorm.exp + 2
    ? 'fs1 == 0 and fe1 == 0x7fd and fm1 == 0xc74abdfb676c7 and fs2 == 0 and fe2 ==
      0x7ff and fm2 == 0x0000000000000 and rm_val == 0  #nosat'
    : 1 #  rs1_val==dnorm(0x7fdc74abdfb676c7) and rs2_val==dinfinity(0x7FF0000000000000) | Exponent = MinNorm.exp + 2
    ? 'fs1 == 0 and fe1 == 0x7fd and fm1 == 0x9471495d333b3 and fs2 == 0 and fe2 ==
      0x7ff and fm2 == 0x0000000000000 and rm_val == 4  #nosat'
    : 1 #  rs1_val==dnorm(0x7fd9471495d333b3) and rs2_val==dinfinity(0x7FF0000000000000) | Exponent = MinNorm.exp + 1
    ? 'fs1 == 0 and fe1 == 0x7fd and fm1 == 0x9471495d333b3 and fs2 == 0 and fe2 ==
      0x7ff and fm2 == 0x0000000000000 and rm_val == 3  #nosat'
    : 1 #  rs1_val==dnorm(0x7fd9471495d333b3) and rs2_val==dinfinity(0x7FF0000000000000) | Exponent = MinNorm.exp + 1
    ? 'fs1 == 0 and fe1 == 0x7fd and fm1 == 0x9471495d333b3 and fs2 == 0 and fe2 ==
      0x7ff and fm2 == 0x0000000000000 and rm_val == 2  #nosat'
    : 1 #  rs1_val==dnorm(0x7fd9471495d333b3) and rs2_val==dinfinity(0x7FF0000000000000) | Exponent = MinNorm.exp + 1
    ? 'fs1 == 0 and fe1 == 0x7fd and fm1 == 0x9471495d333b3 and fs2 == 0 and fe2 ==
      0x7ff and fm2 == 0x0000000000000 and rm_val == 1  #nosat'
    : 1 #  rs1_val==dnorm(0x7fd9471495d333b3) and rs2_val==dinfinity(0x7FF0000000000000) | Exponent = MinNorm.exp + 1
    ? 'fs1 == 0 and fe1 == 0x7fd and fm1 == 0x9471495d333b3 and fs2 == 0 and fe2 ==
      0x7ff and fm2 == 0x0000000000000 and rm_val == 0  #nosat'
    : 1 #  rs1_val==dnorm(0x7fd9471495d333b3) and rs2_val==dinfinity(0x7FF0000000000000) | Exponent = MinNorm.exp + 1
    ? 'fs1 == 0 and fe1 == 0x7fe and fm1 == 0x6da2613270600 and fs2 == 0 and fe2 ==
      0x7ff and fm2 == 0x0000000000000 and rm_val == 4  #nosat'
    : 1 #  rs1_val==dnorm(0x7fe6da2613270600) and rs2_val==dinfinity(0x7FF0000000000000) | Guard = 1 Round = 1 Sticky = 1 --> Minnorm + 7 ulp
    ? 'fs1 == 0 and fe1 == 0x7fe and fm1 == 0x6da2613270600 and fs2 == 0 and fe2 ==
      0x7ff and fm2 == 0x0000000000000 and rm_val == 3  #nosat'
    : 1 #  rs1_val==dnorm(0x7fe6da2613270600) and rs2_val==dinfinity(0x7FF0000000000000) | Guard = 1 Round = 1 Sticky = 1 --> Minnorm + 7 ulp
    ? 'fs1 == 0 and fe1 == 0x7fe and fm1 == 0x6da2613270600 and fs2 == 0 and fe2 ==
      0x7ff and fm2 == 0x0000000000000 and rm_val == 2  #nosat'
    : 1 #  rs1_val==dnorm(0x7fe6da2613270600) and rs2_val==dinfinity(0x7FF0000000000000) | Guard = 1 Round = 1 Sticky = 1 --> Minnorm + 7 ulp
    ? 'fs1 == 0 and fe1 == 0x7fe and fm1 == 0x6da2613270600 and fs2 == 0 and fe2 ==
      0x7ff and fm2 == 0x0000000000000 and rm_val == 1  #nosat'
    : 1 #  rs1_val==dnorm(0x7fe6da2613270600) and rs2_val==dinfinity(0x7FF0000000000000) | Guard = 1 Round = 1 Sticky = 1 --> Minnorm + 7 ulp
    ? 'fs1 == 0 and fe1 == 0x7fe and fm1 == 0x6da2613270600 and fs2 == 0 and fe2 ==
      0x7ff and fm2 == 0x0000000000000 and rm_val == 0  #nosat'
    : 1 #  rs1_val==dnorm(0x7fe6da2613270600) and rs2_val==dinfinity(0x7FF0000000000000) | Guard = 1 Round = 1 Sticky = 1 --> Minnorm + 7 ulp
    ? 'fs1 == 0 and fe1 == 0x7fe and fm1 == 0x7009b07ae3d88 and fs2 == 0 and fe2 ==
      0x7ff and fm2 == 0x0000000000000 and rm_val == 4  #nosat'
    : 1 #  rs1_val==dnorm(0x7fe7009b07ae3d88) and rs2_val==dinfinity(0x7FF0000000000000) | Guard = 1 Round = 1 Sticky = 0 --> Minnorm + 6 ulp
    ? 'fs1 == 0 and fe1 == 0x7fe and fm1 == 0x7009b07ae3d88 and fs2 == 0 and fe2 ==
      0x7ff and fm2 == 0x0000000000000 and rm_val == 3  #nosat'
    : 1 #  rs1_val==dnorm(0x7fe7009b07ae3d88) and rs2_val==dinfinity(0x7FF0000000000000) | Guard = 1 Round = 1 Sticky = 0 --> Minnorm + 6 ulp
    ? 'fs1 == 0 and fe1 == 0x7fe and fm1 == 0x7009b07ae3d88 and fs2 == 0 and fe2 ==
      0x7ff and fm2 == 0x0000000000000 and rm_val == 2  #nosat'
    : 1 #  rs1_val==dnorm(0x7fe7009b07ae3d88) and rs2_val==dinfinity(0x7FF0000000000000) | Guard = 1 Round = 1 Sticky = 0 --> Minnorm + 6 ulp
    ? 'fs1 == 0 and fe1 == 0x7fe and fm1 == 0x7009b07ae3d88 and fs2 == 0 and fe2 ==
      0x7ff and fm2 == 0x0000000000000 and rm_val == 1  #nosat'
    : 1 #  rs1_val==dnorm(0x7fe7009b07ae3d88) and rs2_val==dinfinity(0x7FF0000000000000) | Guard = 1 Round = 1 Sticky = 0 --> Minnorm + 6 ulp
    ? 'fs1 == 0 and fe1 == 0x7fe and fm1 == 0x7009b07ae3d88 and fs2 == 0 and fe2 ==
      0x7ff and fm2 == 0x0000000000000 and rm_val == 0  #nosat'
    : 1 #  rs1_val==dnorm(0x7fe7009b07ae3d88) and rs2_val==dinfinity(0x7FF0000000000000) | Guard = 1 Round = 1 Sticky = 0 --> Minnorm + 6 ulp
    ? 'fs1 == 0 and fe1 == 0x7fe and fm1 == 0xbb2662d13e5e4 and fs2 == 0 and fe2 ==
      0x7ff and fm2 == 0x0000000000000 and rm_val == 4  #nosat'
    : 1 #  rs1_val==dnorm(0x7febb2662d13e5e4) and rs2_val==dinfinity(0x7FF0000000000000) | Guard = 1 Round = 0 Sticky = 1 --> Minnorm + 5 ulp
    ? 'fs1 == 0 and fe1 == 0x7fe and fm1 == 0xbb2662d13e5e4 and fs2 == 0 and fe2 ==
      0x7ff and fm2 == 0x0000000000000 and rm_val == 3  #nosat'
    : 1 #  rs1_val==dnorm(0x7febb2662d13e5e4) and rs2_val==dinfinity(0x7FF0000000000000) | Guard = 1 Round = 0 Sticky = 1 --> Minnorm + 5 ulp
    ? 'fs1 == 0 and fe1 == 0x7fe and fm1 == 0xbb2662d13e5e4 and fs2 == 0 and fe2 ==
      0x7ff and fm2 == 0x0000000000000 and rm_val == 2  #nosat'
    : 1 #  rs1_val==dnorm(0x7febb2662d13e5e4) and rs2_val==dinfinity(0x7FF0000000000000) | Guard = 1 Round = 0 Sticky = 1 --> Minnorm + 5 ulp
    ? 'fs1 == 0 and fe1 == 0x7fe and fm1 == 0xbb2662d13e5e4 and fs2 == 0 and fe2 ==
      0x7ff and fm2 == 0x0000000000000 and rm_val == 1  #nosat'
    : 1 #  rs1_val==dnorm(0x7febb2662d13e5e4) and rs2_val==dinfinity(0x7FF0000000000000) | Guard = 1 Round = 0 Sticky = 1 --> Minnorm + 5 ulp
    ? 'fs1 == 0 and fe1 == 0x7fe and fm1 == 0xbb2662d13e5e4 and fs2 == 0 and fe2 ==
      0x7ff and fm2 == 0x0000000000000 and rm_val == 0  #nosat'
    : 1 #  rs1_val==dnorm(0x7febb2662d13e5e4) and rs2_val==dinfinity(0x7FF0000000000000) | Guard = 1 Round = 0 Sticky = 1 --> Minnorm + 5 ulp
    ? 'fs1 == 0 and fe1 == 0x7fd and fm1 == 0x347f8263d98bd and fs2 == 0 and fe2 ==
      0x7ff and fm2 == 0x0000000000000 and rm_val == 4  #nosat'
    : 1 #  rs1_val==dnorm(0x7fd347f8263d98bd) and rs2_val==dinfinity(0x7FF0000000000000) | Guard = 1 Round = 0 Sticky = 0 --> Minnorm + 4 ulp
    ? 'fs1 == 0 and fe1 == 0x7fd and fm1 == 0x347f8263d98bd and fs2 == 0 and fe2 ==
      0x7ff and fm2 == 0x0000000000000 and rm_val == 3  #nosat'
    : 1 #  rs1_val==dnorm(0x7fd347f8263d98bd) and rs2_val==dinfinity(0x7FF0000000000000) | Guard = 1 Round = 0 Sticky = 0 --> Minnorm + 4 ulp
    ? 'fs1 == 0 and fe1 == 0x7fd and fm1 == 0x347f8263d98bd and fs2 == 0 and fe2 ==
      0x7ff and fm2 == 0x0000000000000 and rm_val == 2  #nosat'
    : 1 #  rs1_val==dnorm(0x7fd347f8263d98bd) and rs2_val==dinfinity(0x7FF0000000000000) | Guard = 1 Round = 0 Sticky = 0 --> Minnorm + 4 ulp
    ? 'fs1 == 0 and fe1 == 0x7fd and fm1 == 0x347f8263d98bd and fs2 == 0 and fe2 ==
      0x7ff and fm2 == 0x0000000000000 and rm_val == 1  #nosat'
    : 1 #  rs1_val==dnorm(0x7fd347f8263d98bd) and rs2_val==dinfinity(0x7FF0000000000000) | Guard = 1 Round = 0 Sticky = 0 --> Minnorm + 4 ulp
    ? 'fs1 == 0 and fe1 == 0x7fd and fm1 == 0x347f8263d98bd and fs2 == 0 and fe2 ==
      0x7ff and fm2 == 0x0000000000000 and rm_val == 0  #nosat'
    : 1 #  rs1_val==dnorm(0x7fd347f8263d98bd) and rs2_val==dinfinity(0x7FF0000000000000) | Guard = 1 Round = 0 Sticky = 0 --> Minnorm + 4 ulp
    ? 'fs1 == 0 and fe1 == 0x7fe and fm1 == 0x8436c13d47a1b and fs2 == 0 and fe2 ==
      0x7ff and fm2 == 0x0000000000000 and rm_val == 4  #nosat'
    : 1 #  rs1_val==dnorm(0x7fe8436c13d47a1b) and rs2_val==dinfinity(0x7FF0000000000000) | Guard = 0 Round = 1 Sticky = 1 --> Minnorm + 3 ulp
    ? 'fs1 == 0 and fe1 == 0x7fe and fm1 == 0x8436c13d47a1b and fs2 == 0 and fe2 ==
      0x7ff and fm2 == 0x0000000000000 and rm_val == 3  #nosat'
    : 1 #  rs1_val==dnorm(0x7fe8436c13d47a1b) and rs2_val==dinfinity(0x7FF0000000000000) | Guard = 0 Round = 1 Sticky = 1 --> Minnorm + 3 ulp
    ? 'fs1 == 0 and fe1 == 0x7fe and fm1 == 0x8436c13d47a1b and fs2 == 0 and fe2 ==
      0x7ff and fm2 == 0x0000000000000 and rm_val == 2  #nosat'
    : 1 #  rs1_val==dnorm(0x7fe8436c13d47a1b) and rs2_val==dinfinity(0x7FF0000000000000) | Guard = 0 Round = 1 Sticky = 1 --> Minnorm + 3 ulp
    ? 'fs1 == 0 and fe1 == 0x7fe and fm1 == 0x8436c13d47a1b and fs2 == 0 and fe2 ==
      0x7ff and fm2 == 0x0000000000000 and rm_val == 1  #nosat'
    : 1 #  rs1_val==dnorm(0x7fe8436c13d47a1b) and rs2_val==dinfinity(0x7FF0000000000000) | Guard = 0 Round = 1 Sticky = 1 --> Minnorm + 3 ulp
    ? 'fs1 == 0 and fe1 == 0x7fe and fm1 == 0x8436c13d47a1b and fs2 == 0 and fe2 ==
      0x7ff and fm2 == 0x0000000000000 and rm_val == 0  #nosat'
    : 1 #  rs1_val==dnorm(0x7fe8436c13d47a1b) and rs2_val==dinfinity(0x7FF0000000000000) | Guard = 0 Round = 1 Sticky = 1 --> Minnorm + 3 ulp
    ? 'fs1 == 0 and fe1 == 0x7fe and fm1 == 0x57c33eb1be367 and fs2 == 0 and fe2 ==
      0x7ff and fm2 == 0x0000000000000 and rm_val == 4  #nosat'
    : 1 #  rs1_val==dnorm(0x7fe57c33eb1be367) and rs2_val==dinfinity(0x7FF0000000000000) | Guard = 0 Round = 1 Sticky = 0 --> Minnorm + 2 ulp
    ? 'fs1 == 0 and fe1 == 0x7fe and fm1 == 0x57c33eb1be367 and fs2 == 0 and fe2 ==
      0x7ff and fm2 == 0x0000000000000 and rm_val == 3  #nosat'
    : 1 #  rs1_val==dnorm(0x7fe57c33eb1be367) and rs2_val==dinfinity(0x7FF0000000000000) | Guard = 0 Round = 1 Sticky = 0 --> Minnorm + 2 ulp
    ? 'fs1 == 0 and fe1 == 0x7fe and fm1 == 0x57c33eb1be367 and fs2 == 0 and fe2 ==
      0x7ff and fm2 == 0x0000000000000 and rm_val == 2  #nosat'
    : 1 #  rs1_val==dnorm(0x7fe57c33eb1be367) and rs2_val==dinfinity(0x7FF0000000000000) | Guard = 0 Round = 1 Sticky = 0 --> Minnorm + 2 ulp
    ? 'fs1 == 0 and fe1 == 0x7fe and fm1 == 0x57c33eb1be367 and fs2 == 0 and fe2 ==
      0x7ff and fm2 == 0x0000000000000 and rm_val == 1  #nosat'
    : 1 #  rs1_val==dnorm(0x7fe57c33eb1be367) and rs2_val==dinfinity(0x7FF0000000000000) | Guard = 0 Round = 1 Sticky = 0 --> Minnorm + 2 ulp
    ? 'fs1 == 0 and fe1 == 0x7fe and fm1 == 0x57c33eb1be367 and fs2 == 0 and fe2 ==
      0x7ff and fm2 == 0x0000000000000 and rm_val == 0  #nosat'
    : 1 #  rs1_val==dnorm(0x7fe57c33eb1be367) and rs2_val==dinfinity(0x7FF0000000000000) | Guard = 0 Round = 1 Sticky = 0 --> Minnorm + 2 ulp
    ? 'fs1 == 0 and fe1 == 0x7fe and fm1 == 0x0bde6858f4b91 and fs2 == 0 and fe2 ==
      0x7ff and fm2 == 0x0000000000000 and rm_val == 4  #nosat'
    : 1 #  rs1_val==dnorm(0x7fe0bde6858f4b91) and rs2_val==dinfinity(0x7FF0000000000000) | Guard = 0 Round = 0 Sticky = 1 --> Minnorm + 1 ulp
    ? 'fs1 == 0 and fe1 == 0x7fe and fm1 == 0x0bde6858f4b91 and fs2 == 0 and fe2 ==
      0x7ff and fm2 == 0x0000000000000 and rm_val == 3  #nosat'
    : 1 #  rs1_val==dnorm(0x7fe0bde6858f4b91) and rs2_val==dinfinity(0x7FF0000000000000) | Guard = 0 Round = 0 Sticky = 1 --> Minnorm + 1 ulp
    ? 'fs1 == 0 and fe1 == 0x7fe and fm1 == 0x0bde6858f4b91 and fs2 == 0 and fe2 ==
      0x7ff and fm2 == 0x0000000000000 and rm_val == 2  #nosat'
    : 1 #  rs1_val==dnorm(0x7fe0bde6858f4b91) and rs2_val==dinfinity(0x7FF0000000000000) | Guard = 0 Round = 0 Sticky = 1 --> Minnorm + 1 ulp
    ? 'fs1 == 0 and fe1 == 0x7fe and fm1 == 0x0bde6858f4b91 and fs2 == 0 and fe2 ==
      0x7ff and fm2 == 0x0000000000000 and rm_val == 1  #nosat'
    : 1 #  rs1_val==dnorm(0x7fe0bde6858f4b91) and rs2_val==dinfinity(0x7FF0000000000000) | Guard = 0 Round = 0 Sticky = 1 --> Minnorm + 1 ulp
    ? 'fs1 == 0 and fe1 == 0x7fe and fm1 == 0x0bde6858f4b91 and fs2 == 0 and fe2 ==
      0x7ff and fm2 == 0x0000000000000 and rm_val == 0  #nosat'
    : 1 #  rs1_val==dnorm(0x7fe0bde6858f4b91) and rs2_val==dinfinity(0x7FF0000000000000) | Guard = 0 Round = 0 Sticky = 1 --> Minnorm + 1 ulp
    ? 'fs1 == 0 and fe1 == 0x7fe and fm1 == 0x450c74c9b42e4 and fs2 == 0 and fe2 ==
      0x7ff and fm2 == 0x0000000000000 and rm_val == 4  #nosat'
    : 1 #  rs1_val==dnorm(0x7fe450c74c9b42e4) and rs2_val==dinfinity(0x7FF0000000000000) | Guard = 0 Round = 0 Sticky = 0 --> Minnorm + 0 ulp
    ? 'fs1 == 0 and fe1 == 0x7fe and fm1 == 0x450c74c9b42e4 and fs2 == 0 and fe2 ==
      0x7ff and fm2 == 0x0000000000000 and rm_val == 3  #nosat'
    : 1 #  rs1_val==dnorm(0x7fe450c74c9b42e4) and rs2_val==dinfinity(0x7FF0000000000000) | Guard = 0 Round = 0 Sticky = 0 --> Minnorm + 0 ulp
    ? 'fs1 == 0 and fe1 == 0x7fe and fm1 == 0x450c74c9b42e4 and fs2 == 0 and fe2 ==
      0x7ff and fm2 == 0x0000000000000 and rm_val == 2  #nosat'
    : 1 #  rs1_val==dnorm(0x7fe450c74c9b42e4) and rs2_val==dinfinity(0x7FF0000000000000) | Guard = 0 Round = 0 Sticky = 0 --> Minnorm + 0 ulp
    ? 'fs1 == 0 and fe1 == 0x7fe and fm1 == 0x450c74c9b42e4 and fs2 == 0 and fe2 ==
      0x7ff and fm2 == 0x0000000000000 and rm_val == 1  #nosat'
    : 1 #  rs1_val==dnorm(0x7fe450c74c9b42e4) and rs2_val==dinfinity(0x7FF0000000000000) | Guard = 0 Round = 0 Sticky = 0 --> Minnorm + 0 ulp
    ? 'fs1 == 0 and fe1 == 0x7fe and fm1 == 0x450c74c9b42e4 and fs2 == 0 and fe2 ==
      0x7ff and fm2 == 0x0000000000000 and rm_val == 0  #nosat'
    : 1 #  rs1_val==dnorm(0x7fe450c74c9b42e4) and rs2_val==dinfinity(0x7FF0000000000000) | Guard = 0 Round = 0 Sticky = 0 --> Minnorm + 0 ulp
    ? 'fs1 == 0 and fe1 == 0x7fe and fm1 == 0x4733f0771afc6 and fs2 == 0 and fe2 ==
      0x7ff and fm2 == 0x0000000000000 and rm_val == 4  #nosat'
    : 1 #  rs1_val==dnorm(0x7fe4733f0771afc6) and rs2_val==dinfinity(0x7FF0000000000000) | Guard = 0 Round = 0 Sticky = 0 --> Minsubnorm + 0 ulp
    ? 'fs1 == 0 and fe1 == 0x7fe and fm1 == 0x4733f0771afc6 and fs2 == 0 and fe2 ==
      0x7ff and fm2 == 0x0000000000000 and rm_val == 3  #nosat'
    : 1 #  rs1_val==dnorm(0x7fe4733f0771afc6) and rs2_val==dinfinity(0x7FF0000000000000) | Guard = 0 Round = 0 Sticky = 0 --> Minsubnorm + 0 ulp
    ? 'fs1 == 0 and fe1 == 0x7fe and fm1 == 0x4733f0771afc6 and fs2 == 0 and fe2 ==
      0x7ff and fm2 == 0x0000000000000 and rm_val == 2  #nosat'
    : 1 #  rs1_val==dnorm(0x7fe4733f0771afc6) and rs2_val==dinfinity(0x7FF0000000000000) | Guard = 0 Round = 0 Sticky = 0 --> Minsubnorm + 0 ulp
    ? 'fs1 == 0 and fe1 == 0x7fe and fm1 == 0x4733f0771afc6 and fs2 == 0 and fe2 ==
      0x7ff and fm2 == 0x0000000000000 and rm_val == 1  #nosat'
    : 1 #  rs1_val==dnorm(0x7fe4733f0771afc6) and rs2_val==dinfinity(0x7FF0000000000000) | Guard = 0 Round = 0 Sticky = 0 --> Minsubnorm + 0 ulp
    ? 'fs1 == 0 and fe1 == 0x7fe and fm1 == 0x4733f0771afc6 and fs2 == 0 and fe2 ==
      0x7ff and fm2 == 0x0000000000000 and rm_val == 0  #nosat'
    : 1 #  rs1_val==dnorm(0x7fe4733f0771afc6) and rs2_val==dinfinity(0x7FF0000000000000) | Guard = 0 Round = 0 Sticky = 0 --> Minsubnorm + 0 ulp
    ? 'fs1 == 0 and fe1 == 0x7fe and fm1 == 0xac44ace32d282 and fs2 == 0 and fe2 ==
      0x7ff and fm2 == 0x0000000000000 and rm_val == 4  #nosat'
    : 1 #  rs1_val==dnorm(0x7feac44ace32d282) and rs2_val==dinfinity(0x7FF0000000000000) | Guard = 1 Round = 1 Sticky = 1 --> Minsubnorm + 7 ulp
    ? 'fs1 == 0 and fe1 == 0x7fe and fm1 == 0xac44ace32d282 and fs2 == 0 and fe2 ==
      0x7ff and fm2 == 0x0000000000000 and rm_val == 3  #nosat'
    : 1 #  rs1_val==dnorm(0x7feac44ace32d282) and rs2_val==dinfinity(0x7FF0000000000000) | Guard = 1 Round = 1 Sticky = 1 --> Minsubnorm + 7 ulp
    ? 'fs1 == 0 and fe1 == 0x7fe and fm1 == 0xac44ace32d282 and fs2 == 0 and fe2 ==
      0x7ff and fm2 == 0x0000000000000 and rm_val == 2  #nosat'
    : 1 #  rs1_val==dnorm(0x7feac44ace32d282) and rs2_val==dinfinity(0x7FF0000000000000) | Guard = 1 Round = 1 Sticky = 1 --> Minsubnorm + 7 ulp
    ? 'fs1 == 0 and fe1 == 0x7fe and fm1 == 0xac44ace32d282 and fs2 == 0 and fe2 ==
      0x7ff and fm2 == 0x0000000000000 and rm_val == 1  #nosat'
    : 1 #  rs1_val==dnorm(0x7feac44ace32d282) and rs2_val==dinfinity(0x7FF0000000000000) | Guard = 1 Round = 1 Sticky = 1 --> Minsubnorm + 7 ulp
    ? 'fs1 == 0 and fe1 == 0x7fe and fm1 == 0xac44ace32d282 and fs2 == 0 and fe2 ==
      0x7ff and fm2 == 0x0000000000000 and rm_val == 0  #nosat'
    : 1 #  rs1_val==dnorm(0x7feac44ace32d282) and rs2_val==dinfinity(0x7FF0000000000000) | Guard = 1 Round = 1 Sticky = 1 --> Minsubnorm + 7 ulp
    ? 'fs1 == 0 and fe1 == 0x7fe and fm1 == 0xfdc528ede5c0d and fs2 == 0 and fe2 ==
      0x7ff and fm2 == 0x0000000000000 and rm_val == 4  #nosat'
    : 1 #  rs1_val==dnorm(0x7fefdc528ede5c0d) and rs2_val==dinfinity(0x7FF0000000000000) | Guard = 1 Round = 1 Sticky = 0 --> Minsubnorm + 6 ulp
    ? 'fs1 == 0 and fe1 == 0x7fe and fm1 == 0xfdc528ede5c0d and fs2 == 0 and fe2 ==
      0x7ff and fm2 == 0x0000000000000 and rm_val == 3  #nosat'
    : 1 #  rs1_val==dnorm(0x7fefdc528ede5c0d) and rs2_val==dinfinity(0x7FF0000000000000) | Guard = 1 Round = 1 Sticky = 0 --> Minsubnorm + 6 ulp
    ? 'fs1 == 0 and fe1 == 0x7fe and fm1 == 0xfdc528ede5c0d and fs2 == 0 and fe2 ==
      0x7ff and fm2 == 0x0000000000000 and rm_val == 2  #nosat'
    : 1 #  rs1_val==dnorm(0x7fefdc528ede5c0d) and rs2_val==dinfinity(0x7FF0000000000000) | Guard = 1 Round = 1 Sticky = 0 --> Minsubnorm + 6 ulp
    ? 'fs1 == 0 and fe1 == 0x7fe and fm1 == 0xfdc528ede5c0d and fs2 == 0 and fe2 ==
      0x7ff and fm2 == 0x0000000000000 and rm_val == 1  #nosat'
    : 1 #  rs1_val==dnorm(0x7fefdc528ede5c0d) and rs2_val==dinfinity(0x7FF0000000000000) | Guard = 1 Round = 1 Sticky = 0 --> Minsubnorm + 6 ulp
    ? 'fs1 == 0 and fe1 == 0x7fe and fm1 == 0xfdc528ede5c0d and fs2 == 0 and fe2 ==
      0x7ff and fm2 == 0x0000000000000 and rm_val == 0  #nosat'
    : 1 #  rs1_val==dnorm(0x7fefdc528ede5c0d) and rs2_val==dinfinity(0x7FF0000000000000) | Guard = 1 Round = 1 Sticky = 0 --> Minsubnorm + 6 ulp
    ? 'fs1 == 0 and fe1 == 0x7fd and fm1 == 0x09941946801c5 and fs2 == 0 and fe2 ==
      0x7ff and fm2 == 0x0000000000000 and rm_val == 4  #nosat'
    : 1 #  rs1_val==dnorm(0x7fd09941946801c5) and rs2_val==dinfinity(0x7FF0000000000000) | Guard = 1 Round = 0 Sticky = 1 --> Minsubnorm + 5 ulp
    ? 'fs1 == 0 and fe1 == 0x7fd and fm1 == 0x09941946801c5 and fs2 == 0 and fe2 ==
      0x7ff and fm2 == 0x0000000000000 and rm_val == 3  #nosat'
    : 1 #  rs1_val==dnorm(0x7fd09941946801c5) and rs2_val==dinfinity(0x7FF0000000000000) | Guard = 1 Round = 0 Sticky = 1 --> Minsubnorm + 5 ulp
    ? 'fs1 == 0 and fe1 == 0x7fd and fm1 == 0x09941946801c5 and fs2 == 0 and fe2 ==
      0x7ff and fm2 == 0x0000000000000 and rm_val == 2  #nosat'
    : 1 #  rs1_val==dnorm(0x7fd09941946801c5) and rs2_val==dinfinity(0x7FF0000000000000) | Guard = 1 Round = 0 Sticky = 1 --> Minsubnorm + 5 ulp
    ? 'fs1 == 0 and fe1 == 0x7fd and fm1 == 0x09941946801c5 and fs2 == 0 and fe2 ==
      0x7ff and fm2 == 0x0000000000000 and rm_val == 1  #nosat'
    : 1 #  rs1_val==dnorm(0x7fd09941946801c5) and rs2_val==dinfinity(0x7FF0000000000000) | Guard = 1 Round = 0 Sticky = 1 --> Minsubnorm + 5 ulp
    ? 'fs1 == 0 and fe1 == 0x7fd and fm1 == 0x09941946801c5 and fs2 == 0 and fe2 ==
      0x7ff and fm2 == 0x0000000000000 and rm_val == 0  #nosat'
    : 1 #  rs1_val==dnorm(0x7fd09941946801c5) and rs2_val==dinfinity(0x7FF0000000000000) | Guard = 1 Round = 0 Sticky = 1 --> Minsubnorm + 5 ulp
    ? 'fs1 == 0 and fe1 == 0x7f8 and fm1 == 0xaf7d1e8a8527f and fs2 == 0 and fe2 ==
      0x7ff and fm2 == 0x0000000000000 and rm_val == 4  #nosat'
    : 1 #  rs1_val==dnorm(0x7f8af7d1e8a8527f) and rs2_val==dinfinity(0x7FF0000000000000) | Guard = 1 Round = 0 Sticky = 0 --> Minsubnorm + 4 ulp
    ? 'fs1 == 0 and fe1 == 0x7f8 and fm1 == 0xaf7d1e8a8527f and fs2 == 0 and fe2 ==
      0x7ff and fm2 == 0x0000000000000 and rm_val == 3  #nosat'
    : 1 #  rs1_val==dnorm(0x7f8af7d1e8a8527f) and rs2_val==dinfinity(0x7FF0000000000000) | Guard = 1 Round = 0 Sticky = 0 --> Minsubnorm + 4 ulp
    ? 'fs1 == 0 and fe1 == 0x7f8 and fm1 == 0xaf7d1e8a8527f and fs2 == 0 and fe2 ==
      0x7ff and fm2 == 0x0000000000000 and rm_val == 2  #nosat'
    : 1 #  rs1_val==dnorm(0x7f8af7d1e8a8527f) and rs2_val==dinfinity(0x7FF0000000000000) | Guard = 1 Round = 0 Sticky = 0 --> Minsubnorm + 4 ulp
    ? 'fs1 == 0 and fe1 == 0x7f8 and fm1 == 0xaf7d1e8a8527f and fs2 == 0 and fe2 ==
      0x7ff and fm2 == 0x0000000000000 and rm_val == 1  #nosat'
    : 1 #  rs1_val==dnorm(0x7f8af7d1e8a8527f) and rs2_val==dinfinity(0x7FF0000000000000) | Guard = 1 Round = 0 Sticky = 0 --> Minsubnorm + 4 ulp
    ? 'fs1 == 0 and fe1 == 0x7f8 and fm1 == 0xaf7d1e8a8527f and fs2 == 0 and fe2 ==
      0x7ff and fm2 == 0x0000000000000 and rm_val == 0  #nosat'
    : 1 #  rs1_val==dnorm(0x7f8af7d1e8a8527f) and rs2_val==dinfinity(0x7FF0000000000000) | Guard = 1 Round = 0 Sticky = 0 --> Minsubnorm + 4 ulp
    ? 'fs1 == 0 and fe1 == 0x7fe and fm1 == 0x405e69652cae2 and fs2 == 0 and fe2 ==
      0x7ff and fm2 == 0x0000000000000 and rm_val == 4  #nosat'
    : 1 #  rs1_val==dnorm(0x7fe405e69652cae2) and rs2_val==dinfinity(0x7FF0000000000000) | Guard = 0 Round = 1 Sticky = 1 --> Minsubnorm + 3 ulp
    ? 'fs1 == 0 and fe1 == 0x7fe and fm1 == 0x405e69652cae2 and fs2 == 0 and fe2 ==
      0x7ff and fm2 == 0x0000000000000 and rm_val == 3  #nosat'
    : 1 #  rs1_val==dnorm(0x7fe405e69652cae2) and rs2_val==dinfinity(0x7FF0000000000000) | Guard = 0 Round = 1 Sticky = 1 --> Minsubnorm + 3 ulp
    ? 'fs1 == 0 and fe1 == 0x7fe and fm1 == 0x405e69652cae2 and fs2 == 0 and fe2 ==
      0x7ff and fm2 == 0x0000000000000 and rm_val == 2  #nosat'
    : 1 #  rs1_val==dnorm(0x7fe405e69652cae2) and rs2_val==dinfinity(0x7FF0000000000000) | Guard = 0 Round = 1 Sticky = 1 --> Minsubnorm + 3 ulp
    ? 'fs1 == 0 and fe1 == 0x7fe and fm1 == 0x405e69652cae2 and fs2 == 0 and fe2 ==
      0x7ff and fm2 == 0x0000000000000 and rm_val == 1  #nosat'
    : 1 #  rs1_val==dnorm(0x7fe405e69652cae2) and rs2_val==dinfinity(0x7FF0000000000000) | Guard = 0 Round = 1 Sticky = 1 --> Minsubnorm + 3 ulp
    ? 'fs1 == 0 and fe1 == 0x7fe and fm1 == 0x405e69652cae2 and fs2 == 0 and fe2 ==
      0x7ff and fm2 == 0x0000000000000 and rm_val == 0  #nosat'
    : 1 #  rs1_val==dnorm(0x7fe405e69652cae2) and rs2_val==dinfinity(0x7FF0000000000000) | Guard = 0 Round = 1 Sticky = 1 --> Minsubnorm + 3 ulp
    ? 'fs1 == 0 and fe1 == 0x7fd and fm1 == 0x7ad586f53dadd and fs2 == 0 and fe2 ==
      0x7ff and fm2 == 0x0000000000000 and rm_val == 4  #nosat'
    : 1 #  rs1_val==dnorm(0x7fd7ad586f53dadd) and rs2_val==dinfinity(0x7FF0000000000000) | Guard = 0 Round = 1 Sticky = 0 --> Minsubnorm + 2 ulp
    ? 'fs1 == 0 and fe1 == 0x7fd and fm1 == 0x7ad586f53dadd and fs2 == 0 and fe2 ==
      0x7ff and fm2 == 0x0000000000000 and rm_val == 3  #nosat'
    : 1 #  rs1_val==dnorm(0x7fd7ad586f53dadd) and rs2_val==dinfinity(0x7FF0000000000000) | Guard = 0 Round = 1 Sticky = 0 --> Minsubnorm + 2 ulp
    ? 'fs1 == 0 and fe1 == 0x7fd and fm1 == 0x7ad586f53dadd and fs2 == 0 and fe2 ==
      0x7ff and fm2 == 0x0000000000000 and rm_val == 2  #nosat'
    : 1 #  rs1_val==dnorm(0x7fd7ad586f53dadd) and rs2_val==dinfinity(0x7FF0000000000000) | Guard = 0 Round = 1 Sticky = 0 --> Minsubnorm + 2 ulp
    ? 'fs1 == 0 and fe1 == 0x7fd and fm1 == 0x7ad586f53dadd and fs2 == 0 and fe2 ==
      0x7ff and fm2 == 0x0000000000000 and rm_val == 1  #nosat'
    : 1 #  rs1_val==dnorm(0x7fd7ad586f53dadd) and rs2_val==dinfinity(0x7FF0000000000000) | Guard = 0 Round = 1 Sticky = 0 --> Minsubnorm + 2 ulp
    ? 'fs1 == 0 and fe1 == 0x7fd and fm1 == 0x7ad586f53dadd and fs2 == 0 and fe2 ==
      0x7ff and fm2 == 0x0000000000000 and rm_val == 0  #nosat'
    : 1 #  rs1_val==dnorm(0x7fd7ad586f53dadd) and rs2_val==dinfinity(0x7FF0000000000000) | Guard = 0 Round = 1 Sticky = 0 --> Minsubnorm + 2 ulp
    ? 'fs1 == 0 and fe1 == 0x7fc and fm1 == 0xe759ff97b7507 and fs2 == 0 and fe2 ==
      0x7ff and fm2 == 0x0000000000000 and rm_val == 4  #nosat'
    : 1 #  rs1_val==dnorm(0x7fce759ff97b7507) and rs2_val==dinfinity(0x7FF0000000000000) | Guard = 0 Round = 0 Sticky = 1 --> Minsubnorm + 1 ulp
    ? 'fs1 == 0 and fe1 == 0x7fc and fm1 == 0xe759ff97b7507 and fs2 == 0 and fe2 ==
      0x7ff and fm2 == 0x0000000000000 and rm_val == 3  #nosat'
    : 1 #  rs1_val==dnorm(0x7fce759ff97b7507) and rs2_val==dinfinity(0x7FF0000000000000) | Guard = 0 Round = 0 Sticky = 1 --> Minsubnorm + 1 ulp
    ? 'fs1 == 0 and fe1 == 0x7fc and fm1 == 0xe759ff97b7507 and fs2 == 0 and fe2 ==
      0x7ff and fm2 == 0x0000000000000 and rm_val == 2  #nosat'
    : 1 #  rs1_val==dnorm(0x7fce759ff97b7507) and rs2_val==dinfinity(0x7FF0000000000000) | Guard = 0 Round = 0 Sticky = 1 --> Minsubnorm + 1 ulp
    ? 'fs1 == 0 and fe1 == 0x7fc and fm1 == 0xe759ff97b7507 and fs2 == 0 and fe2 ==
      0x7ff and fm2 == 0x0000000000000 and rm_val == 1  #nosat'
    : 1 #  rs1_val==dnorm(0x7fce759ff97b7507) and rs2_val==dinfinity(0x7FF0000000000000) | Guard = 0 Round = 0 Sticky = 1 --> Minsubnorm + 1 ulp
    coverage: 210/210
  total_coverage: 312/312
