---
fnmsub_b14:
  config:
  - check ISA:=regex(.*I.*F.*)
  op_comb:
    rd == rs2 == rs3 != rs1: 1
    rs1 != rs2 and rs1 != rd and rs1 != rs3 and rs2 != rs3 and rs2 != rd and rs3 != rd: 157
    rs1 == rd != rs2 and rs1 == rd != rs3 and rs3 != rs2: 1
    rs1 == rd == rs3 != rs2: 1
    rs1 == rs2 != rs3 and rs1 == rs2 != rd and rd != rs3: 1
    rs1 == rs2 == rd != rs3: 1
    rs1 == rs2 == rs3 != rd: 1
    rs1 == rs2 == rs3 == rd: 1
    rs1 == rs3 != rs2 and rs1 == rs3 != rd and rd != rs2: 1
    rs2 == rd != rs1 and rs2 == rd != rs3 and rs3 != rs1: 1
    rs2 == rs3 != rs1 and rs2 == rs3 != rd and rd != rs1: 1
    rs3 == rd != rs1 and rs3 == rd != rs2 and rs2 != rs1: 1
    coverage: 12/12
  opcode:
    fnmsub.d: 168
    coverage: 1/1
  rd:
    f0: 1
    f1: 1
    f10: 1
    f11: 1
    f12: 1
    f13: 1
    f14: 1
    f15: 1
    f16: 1
    f17: 1
    f18: 1
    f19: 1
    f2: 1
    f20: 1
    f21: 1
    f22: 1
    f23: 2
    f24: 1
    f25: 1
    f26: 1
    f27: 1
    f28: 1
    f29: 1
    f3: 1
    f30: 1
    f31: 136
    f4: 1
    f5: 1
    f6: 1
    f7: 1
    f8: 1
    f9: 1
    coverage: 32/32
  rs1:
    f0: 1
    f1: 1
    f10: 1
    f11: 1
    f12: 1
    f13: 1
    f14: 1
    f15: 1
    f16: 2
    f17: 1
    f18: 1
    f19: 1
    f2: 2
    f20: 1
    f21: 1
    f22: 1
    f23: 1
    f24: 1
    f25: 1
    f26: 1
    f27: 1
    f28: 1
    f29: 1
    f3: 1
    f30: 135
    f31: 1
    f4: 1
    f5: 1
    f6: 1
    f7: 1
    f8: 1
    f9: 1
    coverage: 32/32
  rs2:
    f0: 1
    f1: 1
    f10: 1
    f11: 1
    f12: 1
    f13: 1
    f14: 1
    f15: 1
    f16: 1
    f17: 2
    f18: 1
    f19: 1
    f2: 1
    f20: 2
    f21: 1
    f22: 1
    f23: 1
    f24: 1
    f25: 1
    f26: 1
    f27: 1
    f28: 1
    f29: 135
    f3: 1
    f30: 1
    f31: 1
    f4: 1
    f5: 1
    f6: 1
    f7: 1
    f8: 1
    f9: 1
    coverage: 32/32
  rs3:
    f0: 2
    f1: 1
    f10: 1
    f11: 1
    f12: 1
    f13: 1
    f14: 2
    f15: 1
    f16: 1
    f17: 1
    f18: 1
    f19: 1
    f2: 1
    f20: 1
    f21: 1
    f22: 1
    f23: 1
    f24: 1
    f25: 1
    f26: 1
    f27: 1
    f28: 135
    f29: 1
    f3: 1
    f30: 1
    f31: 1
    f4: 1
    f5: 1
    f6: 1
    f7: 1
    f8: 1
    f9: 1
    coverage: 32/32
  val_comb:
    ? 'fs1 == 0 and fe1 == 0x5f8 and fm1 == 0xe759ff97b7507 and fs2 == 0 and fe2 ==
      0x5fa and fm2 == 0x16a5368858d8c and fs3 == 0 and fe3 == 0x26c and fm3 == 0x8cd2b1c8952cf
      and rm_val == 0  #nosat'
    : 1  #  rs1_val==dnorm(0x5f8e759ff97b7507) and rs2_val==dnorm(0x5fa16a5368858d8c) and rs3_val==dnorm(0x26c8cd2b1c8952cf) | Multiplicand Exponent = 91, Addend exponent = -403 --> Difference smaller than -(2*p + 1)
    ? 'fs1 == 0 and fe1 == 0x5f8 and fm1 == 0xe759ff97b7507 and fs2 == 0 and fe2 ==
      0x5fa and fm2 == 0x16a5368858d8c and fs3 == 0 and fe3 == 0x675 and fm3 == 0x8cd2b1c8952cf
      and rm_val == 0  #nosat'
    : 1 #  rs1_val==dnorm(0x5f8e759ff97b7507) and rs2_val==dnorm(0x5fa16a5368858d8c) and rs3_val==dnorm(0x6758cd2b1c8952cf) | Multiplicand Exponent = 91, Addend exponent = 630 --> A value larger than (p + 1)
    ? 'fs1 == 0 and fe1 == 0x5f8 and fm1 == 0xe759ff97b7507 and fs2 == 0 and fe2 ==
      0x5fa and fm2 == 0x16a5368858d8c and fs3 == 0 and fe3 == 0x48f and fm3 == 0x8cd2b1c8952cf
      and rm_val == 0  #nosat'
    : 1 #  rs1_val==dnorm(0x5f8e759ff97b7507) and rs2_val==dnorm(0x5fa16a5368858d8c) and rs3_val==dnorm(0x48f8cd2b1c8952cf) | Multiplicand Exponent = 91, Addend exponent = 144 --> Values in the range [-(2*p + 1) , (p + 1)]
    ? 'fs1 == 0 and fe1 == 0x5f8 and fm1 == 0xe759ff97b7507 and fs2 == 0 and fe2 ==
      0x5fa and fm2 == 0x16a5368858d8c and fs3 == 0 and fe3 == 0x48e and fm3 == 0x8cd2b1c8952cf
      and rm_val == 0  #nosat'
    : 1 #  rs1_val==dnorm(0x5f8e759ff97b7507) and rs2_val==dnorm(0x5fa16a5368858d8c) and rs3_val==dnorm(0x48e8cd2b1c8952cf) | Multiplicand Exponent = 91, Addend exponent = 143 --> Values in the range [-(2*p + 1) , (p + 1)]
    ? 'fs1 == 0 and fe1 == 0x5f8 and fm1 == 0xe759ff97b7507 and fs2 == 0 and fe2 ==
      0x5fa and fm2 == 0x16a5368858d8c and fs3 == 0 and fe3 == 0x48d and fm3 == 0x8cd2b1c8952cf
      and rm_val == 0  #nosat'
    : 1 #  rs1_val==dnorm(0x5f8e759ff97b7507) and rs2_val==dnorm(0x5fa16a5368858d8c) and rs3_val==dnorm(0x48d8cd2b1c8952cf) | Multiplicand Exponent = 91, Addend exponent = 142 --> Values in the range [-(2*p + 1) , (p + 1)]
    ? 'fs1 == 0 and fe1 == 0x5f8 and fm1 == 0xe759ff97b7507 and fs2 == 0 and fe2 ==
      0x5fa and fm2 == 0x16a5368858d8c and fs3 == 0 and fe3 == 0x48c and fm3 == 0x8cd2b1c8952cf
      and rm_val == 0  #nosat'
    : 1 #  rs1_val==dnorm(0x5f8e759ff97b7507) and rs2_val==dnorm(0x5fa16a5368858d8c) and rs3_val==dnorm(0x48c8cd2b1c8952cf) | Multiplicand Exponent = 91, Addend exponent = 141 --> Values in the range [-(2*p + 1) , (p + 1)]
    ? 'fs1 == 0 and fe1 == 0x5f8 and fm1 == 0xe759ff97b7507 and fs2 == 0 and fe2 ==
      0x5fa and fm2 == 0x16a5368858d8c and fs3 == 0 and fe3 == 0x48b and fm3 == 0x8cd2b1c8952cf
      and rm_val == 0  #nosat'
    : 1 #  rs1_val==dnorm(0x5f8e759ff97b7507) and rs2_val==dnorm(0x5fa16a5368858d8c) and rs3_val==dnorm(0x48b8cd2b1c8952cf) | Multiplicand Exponent = 91, Addend exponent = 140 --> Values in the range [-(2*p + 1) , (p + 1)]
    ? 'fs1 == 0 and fe1 == 0x5f8 and fm1 == 0xe759ff97b7507 and fs2 == 0 and fe2 ==
      0x5fa and fm2 == 0x16a5368858d8c and fs3 == 0 and fe3 == 0x48a and fm3 == 0x8cd2b1c8952cf
      and rm_val == 0  #nosat'
    : 1 #  rs1_val==dnorm(0x5f8e759ff97b7507) and rs2_val==dnorm(0x5fa16a5368858d8c) and rs3_val==dnorm(0x48a8cd2b1c8952cf) | Multiplicand Exponent = 91, Addend exponent = 139 --> Values in the range [-(2*p + 1) , (p + 1)]
    ? 'fs1 == 0 and fe1 == 0x5f8 and fm1 == 0xe759ff97b7507 and fs2 == 0 and fe2 ==
      0x5fa and fm2 == 0x16a5368858d8c and fs3 == 0 and fe3 == 0x489 and fm3 == 0x8cd2b1c8952cf
      and rm_val == 0  #nosat'
    : 1 #  rs1_val==dnorm(0x5f8e759ff97b7507) and rs2_val==dnorm(0x5fa16a5368858d8c) and rs3_val==dnorm(0x4898cd2b1c8952cf) | Multiplicand Exponent = 91, Addend exponent = 138 --> Values in the range [-(2*p + 1) , (p + 1)]
    ? 'fs1 == 0 and fe1 == 0x5f8 and fm1 == 0xe759ff97b7507 and fs2 == 0 and fe2 ==
      0x5fa and fm2 == 0x16a5368858d8c and fs3 == 0 and fe3 == 0x488 and fm3 == 0x8cd2b1c8952cf
      and rm_val == 0  #nosat'
    : 1 #  rs1_val==dnorm(0x5f8e759ff97b7507) and rs2_val==dnorm(0x5fa16a5368858d8c) and rs3_val==dnorm(0x4888cd2b1c8952cf) | Multiplicand Exponent = 91, Addend exponent = 137 --> Values in the range [-(2*p + 1) , (p + 1)]
    ? 'fs1 == 0 and fe1 == 0x5f8 and fm1 == 0xe759ff97b7507 and fs2 == 0 and fe2 ==
      0x5fa and fm2 == 0x16a5368858d8c and fs3 == 0 and fe3 == 0x487 and fm3 == 0x8cd2b1c8952cf
      and rm_val == 0  #nosat'
    : 1 #  rs1_val==dnorm(0x5f8e759ff97b7507) and rs2_val==dnorm(0x5fa16a5368858d8c) and rs3_val==dnorm(0x4878cd2b1c8952cf) | Multiplicand Exponent = 91, Addend exponent = 136 --> Values in the range [-(2*p + 1) , (p + 1)]
    ? 'fs1 == 0 and fe1 == 0x5f8 and fm1 == 0xe759ff97b7507 and fs2 == 0 and fe2 ==
      0x5fa and fm2 == 0x16a5368858d8c and fs3 == 0 and fe3 == 0x486 and fm3 == 0x8cd2b1c8952cf
      and rm_val == 0  #nosat'
    : 1 #  rs1_val==dnorm(0x5f8e759ff97b7507) and rs2_val==dnorm(0x5fa16a5368858d8c) and rs3_val==dnorm(0x4868cd2b1c8952cf) | Multiplicand Exponent = 91, Addend exponent = 135 --> Values in the range [-(2*p + 1) , (p + 1)]
    ? 'fs1 == 0 and fe1 == 0x5f8 and fm1 == 0xe759ff97b7507 and fs2 == 0 and fe2 ==
      0x5fa and fm2 == 0x16a5368858d8c and fs3 == 0 and fe3 == 0x485 and fm3 == 0x8cd2b1c8952cf
      and rm_val == 0  #nosat'
    : 1 #  rs1_val==dnorm(0x5f8e759ff97b7507) and rs2_val==dnorm(0x5fa16a5368858d8c) and rs3_val==dnorm(0x4858cd2b1c8952cf) | Multiplicand Exponent = 91, Addend exponent = 134 --> Values in the range [-(2*p + 1) , (p + 1)]
    ? 'fs1 == 0 and fe1 == 0x5f8 and fm1 == 0xe759ff97b7507 and fs2 == 0 and fe2 ==
      0x5fa and fm2 == 0x16a5368858d8c and fs3 == 0 and fe3 == 0x484 and fm3 == 0x8cd2b1c8952cf
      and rm_val == 0  #nosat'
    : 1 #  rs1_val==dnorm(0x5f8e759ff97b7507) and rs2_val==dnorm(0x5fa16a5368858d8c) and rs3_val==dnorm(0x4848cd2b1c8952cf) | Multiplicand Exponent = 91, Addend exponent = 133 --> Values in the range [-(2*p + 1) , (p + 1)]
    ? 'fs1 == 0 and fe1 == 0x5f8 and fm1 == 0xe759ff97b7507 and fs2 == 0 and fe2 ==
      0x5fa and fm2 == 0x16a5368858d8c and fs3 == 0 and fe3 == 0x483 and fm3 == 0x8cd2b1c8952cf
      and rm_val == 0  #nosat'
    : 1 #  rs1_val==dnorm(0x5f8e759ff97b7507) and rs2_val==dnorm(0x5fa16a5368858d8c) and rs3_val==dnorm(0x4838cd2b1c8952cf) | Multiplicand Exponent = 91, Addend exponent = 132 --> Values in the range [-(2*p + 1) , (p + 1)]
    ? 'fs1 == 0 and fe1 == 0x5f8 and fm1 == 0xe759ff97b7507 and fs2 == 0 and fe2 ==
      0x5fa and fm2 == 0x16a5368858d8c and fs3 == 0 and fe3 == 0x482 and fm3 == 0x8cd2b1c8952cf
      and rm_val == 0  #nosat'
    : 1 #  rs1_val==dnorm(0x5f8e759ff97b7507) and rs2_val==dnorm(0x5fa16a5368858d8c) and rs3_val==dnorm(0x4828cd2b1c8952cf) | Multiplicand Exponent = 91, Addend exponent = 131 --> Values in the range [-(2*p + 1) , (p + 1)]
    ? 'fs1 == 0 and fe1 == 0x5f8 and fm1 == 0xe759ff97b7507 and fs2 == 0 and fe2 ==
      0x5fa and fm2 == 0x16a5368858d8c and fs3 == 0 and fe3 == 0x481 and fm3 == 0x8cd2b1c8952cf
      and rm_val == 0  #nosat'
    : 1 #  rs1_val==dnorm(0x5f8e759ff97b7507) and rs2_val==dnorm(0x5fa16a5368858d8c) and rs3_val==dnorm(0x4818cd2b1c8952cf) | Multiplicand Exponent = 91, Addend exponent = 130 --> Values in the range [-(2*p + 1) , (p + 1)]
    ? 'fs1 == 0 and fe1 == 0x5f8 and fm1 == 0xe759ff97b7507 and fs2 == 0 and fe2 ==
      0x5fa and fm2 == 0x16a5368858d8c and fs3 == 0 and fe3 == 0x480 and fm3 == 0x8cd2b1c8952cf
      and rm_val == 0  #nosat'
    : 1 #  rs1_val==dnorm(0x5f8e759ff97b7507) and rs2_val==dnorm(0x5fa16a5368858d8c) and rs3_val==dnorm(0x4808cd2b1c8952cf) | Multiplicand Exponent = 91, Addend exponent = 129 --> Values in the range [-(2*p + 1) , (p + 1)]
    ? 'fs1 == 0 and fe1 == 0x5f8 and fm1 == 0xe759ff97b7507 and fs2 == 0 and fe2 ==
      0x5fa and fm2 == 0x16a5368858d8c and fs3 == 0 and fe3 == 0x47f and fm3 == 0x8cd2b1c8952cf
      and rm_val == 0  #nosat'
    : 1 #  rs1_val==dnorm(0x5f8e759ff97b7507) and rs2_val==dnorm(0x5fa16a5368858d8c) and rs3_val==dnorm(0x47f8cd2b1c8952cf) | Multiplicand Exponent = 91, Addend exponent = 128 --> Values in the range [-(2*p + 1) , (p + 1)]
    ? 'fs1 == 0 and fe1 == 0x5f8 and fm1 == 0xe759ff97b7507 and fs2 == 0 and fe2 ==
      0x5fa and fm2 == 0x16a5368858d8c and fs3 == 0 and fe3 == 0x47e and fm3 == 0x8cd2b1c8952cf
      and rm_val == 0  #nosat'
    : 1 #  rs1_val==dnorm(0x5f8e759ff97b7507) and rs2_val==dnorm(0x5fa16a5368858d8c) and rs3_val==dnorm(0x47e8cd2b1c8952cf) | Multiplicand Exponent = 91, Addend exponent = 127 --> Values in the range [-(2*p + 1) , (p + 1)]
    ? 'fs1 == 0 and fe1 == 0x5f8 and fm1 == 0xe759ff97b7507 and fs2 == 0 and fe2 ==
      0x5fa and fm2 == 0x16a5368858d8c and fs3 == 0 and fe3 == 0x47d and fm3 == 0x8cd2b1c8952cf
      and rm_val == 0  #nosat'
    : 1 #  rs1_val==dnorm(0x5f8e759ff97b7507) and rs2_val==dnorm(0x5fa16a5368858d8c) and rs3_val==dnorm(0x47d8cd2b1c8952cf) | Multiplicand Exponent = 91, Addend exponent = 126 --> Values in the range [-(2*p + 1) , (p + 1)]
    ? 'fs1 == 0 and fe1 == 0x5f8 and fm1 == 0xe759ff97b7507 and fs2 == 0 and fe2 ==
      0x5fa and fm2 == 0x16a5368858d8c and fs3 == 0 and fe3 == 0x47c and fm3 == 0x8cd2b1c8952cf
      and rm_val == 0  #nosat'
    : 1 #  rs1_val==dnorm(0x5f8e759ff97b7507) and rs2_val==dnorm(0x5fa16a5368858d8c) and rs3_val==dnorm(0x47c8cd2b1c8952cf) | Multiplicand Exponent = 91, Addend exponent = 125 --> Values in the range [-(2*p + 1) , (p + 1)]
    ? 'fs1 == 0 and fe1 == 0x5f8 and fm1 == 0xe759ff97b7507 and fs2 == 0 and fe2 ==
      0x5fa and fm2 == 0x16a5368858d8c and fs3 == 0 and fe3 == 0x47b and fm3 == 0x8cd2b1c8952cf
      and rm_val == 0  #nosat'
    : 1 #  rs1_val==dnorm(0x5f8e759ff97b7507) and rs2_val==dnorm(0x5fa16a5368858d8c) and rs3_val==dnorm(0x47b8cd2b1c8952cf) | Multiplicand Exponent = 91, Addend exponent = 124 --> Values in the range [-(2*p + 1) , (p + 1)]
    ? 'fs1 == 0 and fe1 == 0x5f8 and fm1 == 0xe759ff97b7507 and fs2 == 0 and fe2 ==
      0x5fa and fm2 == 0x16a5368858d8c and fs3 == 0 and fe3 == 0x47a and fm3 == 0x8cd2b1c8952cf
      and rm_val == 0  #nosat'
    : 1 #  rs1_val==dnorm(0x5f8e759ff97b7507) and rs2_val==dnorm(0x5fa16a5368858d8c) and rs3_val==dnorm(0x47a8cd2b1c8952cf) | Multiplicand Exponent = 91, Addend exponent = 123 --> Values in the range [-(2*p + 1) , (p + 1)]
    ? 'fs1 == 0 and fe1 == 0x5f8 and fm1 == 0xe759ff97b7507 and fs2 == 0 and fe2 ==
      0x5fa and fm2 == 0x16a5368858d8c and fs3 == 0 and fe3 == 0x479 and fm3 == 0x8cd2b1c8952cf
      and rm_val == 0  #nosat'
    : 1 #  rs1_val==dnorm(0x5f8e759ff97b7507) and rs2_val==dnorm(0x5fa16a5368858d8c) and rs3_val==dnorm(0x4798cd2b1c8952cf) | Multiplicand Exponent = 91, Addend exponent = 122 --> Values in the range [-(2*p + 1) , (p + 1)]
    ? 'fs1 == 0 and fe1 == 0x5f8 and fm1 == 0xe759ff97b7507 and fs2 == 0 and fe2 ==
      0x5fa and fm2 == 0x16a5368858d8c and fs3 == 0 and fe3 == 0x478 and fm3 == 0x8cd2b1c8952cf
      and rm_val == 0  #nosat'
    : 1 #  rs1_val==dnorm(0x5f8e759ff97b7507) and rs2_val==dnorm(0x5fa16a5368858d8c) and rs3_val==dnorm(0x4788cd2b1c8952cf) | Multiplicand Exponent = 91, Addend exponent = 121 --> Values in the range [-(2*p + 1) , (p + 1)]
    ? 'fs1 == 0 and fe1 == 0x5f8 and fm1 == 0xe759ff97b7507 and fs2 == 0 and fe2 ==
      0x5fa and fm2 == 0x16a5368858d8c and fs3 == 0 and fe3 == 0x477 and fm3 == 0x8cd2b1c8952cf
      and rm_val == 0  #nosat'
    : 1 #  rs1_val==dnorm(0x5f8e759ff97b7507) and rs2_val==dnorm(0x5fa16a5368858d8c) and rs3_val==dnorm(0x4778cd2b1c8952cf) | Multiplicand Exponent = 91, Addend exponent = 120 --> Values in the range [-(2*p + 1) , (p + 1)]
    ? 'fs1 == 0 and fe1 == 0x5f8 and fm1 == 0xe759ff97b7507 and fs2 == 0 and fe2 ==
      0x5fa and fm2 == 0x16a5368858d8c and fs3 == 0 and fe3 == 0x476 and fm3 == 0x8cd2b1c8952cf
      and rm_val == 0  #nosat'
    : 1 #  rs1_val==dnorm(0x5f8e759ff97b7507) and rs2_val==dnorm(0x5fa16a5368858d8c) and rs3_val==dnorm(0x4768cd2b1c8952cf) | Multiplicand Exponent = 91, Addend exponent = 119 --> Values in the range [-(2*p + 1) , (p + 1)]
    ? 'fs1 == 0 and fe1 == 0x5f8 and fm1 == 0xe759ff97b7507 and fs2 == 0 and fe2 ==
      0x5fa and fm2 == 0x16a5368858d8c and fs3 == 0 and fe3 == 0x475 and fm3 == 0x8cd2b1c8952cf
      and rm_val == 0  #nosat'
    : 1 #  rs1_val==dnorm(0x5f8e759ff97b7507) and rs2_val==dnorm(0x5fa16a5368858d8c) and rs3_val==dnorm(0x4758cd2b1c8952cf) | Multiplicand Exponent = 91, Addend exponent = 118 --> Values in the range [-(2*p + 1) , (p + 1)]
    ? 'fs1 == 0 and fe1 == 0x5f8 and fm1 == 0xe759ff97b7507 and fs2 == 0 and fe2 ==
      0x5fa and fm2 == 0x16a5368858d8c and fs3 == 0 and fe3 == 0x474 and fm3 == 0x8cd2b1c8952cf
      and rm_val == 0  #nosat'
    : 1 #  rs1_val==dnorm(0x5f8e759ff97b7507) and rs2_val==dnorm(0x5fa16a5368858d8c) and rs3_val==dnorm(0x4748cd2b1c8952cf) | Multiplicand Exponent = 91, Addend exponent = 117 --> Values in the range [-(2*p + 1) , (p + 1)]
    ? 'fs1 == 0 and fe1 == 0x5f8 and fm1 == 0xe759ff97b7507 and fs2 == 0 and fe2 ==
      0x5fa and fm2 == 0x16a5368858d8c and fs3 == 0 and fe3 == 0x473 and fm3 == 0x8cd2b1c8952cf
      and rm_val == 0  #nosat'
    : 1 #  rs1_val==dnorm(0x5f8e759ff97b7507) and rs2_val==dnorm(0x5fa16a5368858d8c) and rs3_val==dnorm(0x4738cd2b1c8952cf) | Multiplicand Exponent = 91, Addend exponent = 116 --> Values in the range [-(2*p + 1) , (p + 1)]
    ? 'fs1 == 0 and fe1 == 0x5f8 and fm1 == 0xe759ff97b7507 and fs2 == 0 and fe2 ==
      0x5fa and fm2 == 0x16a5368858d8c and fs3 == 0 and fe3 == 0x472 and fm3 == 0x8cd2b1c8952cf
      and rm_val == 0  #nosat'
    : 1 #  rs1_val==dnorm(0x5f8e759ff97b7507) and rs2_val==dnorm(0x5fa16a5368858d8c) and rs3_val==dnorm(0x4728cd2b1c8952cf) | Multiplicand Exponent = 91, Addend exponent = 115 --> Values in the range [-(2*p + 1) , (p + 1)]
    ? 'fs1 == 0 and fe1 == 0x5f8 and fm1 == 0xe759ff97b7507 and fs2 == 0 and fe2 ==
      0x5fa and fm2 == 0x16a5368858d8c and fs3 == 0 and fe3 == 0x471 and fm3 == 0x8cd2b1c8952cf
      and rm_val == 0  #nosat'
    : 1 #  rs1_val==dnorm(0x5f8e759ff97b7507) and rs2_val==dnorm(0x5fa16a5368858d8c) and rs3_val==dnorm(0x4718cd2b1c8952cf) | Multiplicand Exponent = 91, Addend exponent = 114 --> Values in the range [-(2*p + 1) , (p + 1)]
    ? 'fs1 == 0 and fe1 == 0x5f8 and fm1 == 0xe759ff97b7507 and fs2 == 0 and fe2 ==
      0x5fa and fm2 == 0x16a5368858d8c and fs3 == 0 and fe3 == 0x470 and fm3 == 0x8cd2b1c8952cf
      and rm_val == 0  #nosat'
    : 1 #  rs1_val==dnorm(0x5f8e759ff97b7507) and rs2_val==dnorm(0x5fa16a5368858d8c) and rs3_val==dnorm(0x4708cd2b1c8952cf) | Multiplicand Exponent = 91, Addend exponent = 113 --> Values in the range [-(2*p + 1) , (p + 1)]
    ? 'fs1 == 0 and fe1 == 0x5f8 and fm1 == 0xe759ff97b7507 and fs2 == 0 and fe2 ==
      0x5fa and fm2 == 0x16a5368858d8c and fs3 == 0 and fe3 == 0x46f and fm3 == 0x8cd2b1c8952cf
      and rm_val == 0  #nosat'
    : 1 #  rs1_val==dnorm(0x5f8e759ff97b7507) and rs2_val==dnorm(0x5fa16a5368858d8c) and rs3_val==dnorm(0x46f8cd2b1c8952cf) | Multiplicand Exponent = 91, Addend exponent = 112 --> Values in the range [-(2*p + 1) , (p + 1)]
    ? 'fs1 == 0 and fe1 == 0x5f8 and fm1 == 0xe759ff97b7507 and fs2 == 0 and fe2 ==
      0x5fa and fm2 == 0x16a5368858d8c and fs3 == 0 and fe3 == 0x46e and fm3 == 0x8cd2b1c8952cf
      and rm_val == 0  #nosat'
    : 1 #  rs1_val==dnorm(0x5f8e759ff97b7507) and rs2_val==dnorm(0x5fa16a5368858d8c) and rs3_val==dnorm(0x46e8cd2b1c8952cf) | Multiplicand Exponent = 91, Addend exponent = 111 --> Values in the range [-(2*p + 1) , (p + 1)]
    ? 'fs1 == 0 and fe1 == 0x5f8 and fm1 == 0xe759ff97b7507 and fs2 == 0 and fe2 ==
      0x5fa and fm2 == 0x16a5368858d8c and fs3 == 0 and fe3 == 0x46d and fm3 == 0x8cd2b1c8952cf
      and rm_val == 0  #nosat'
    : 1 #  rs1_val==dnorm(0x5f8e759ff97b7507) and rs2_val==dnorm(0x5fa16a5368858d8c) and rs3_val==dnorm(0x46d8cd2b1c8952cf) | Multiplicand Exponent = 91, Addend exponent = 110 --> Values in the range [-(2*p + 1) , (p + 1)]
    ? 'fs1 == 0 and fe1 == 0x5f8 and fm1 == 0xe759ff97b7507 and fs2 == 0 and fe2 ==
      0x5fa and fm2 == 0x16a5368858d8c and fs3 == 0 and fe3 == 0x46c and fm3 == 0x8cd2b1c8952cf
      and rm_val == 0  #nosat'
    : 1 #  rs1_val==dnorm(0x5f8e759ff97b7507) and rs2_val==dnorm(0x5fa16a5368858d8c) and rs3_val==dnorm(0x46c8cd2b1c8952cf) | Multiplicand Exponent = 91, Addend exponent = 109 --> Values in the range [-(2*p + 1) , (p + 1)]
    ? 'fs1 == 0 and fe1 == 0x5f8 and fm1 == 0xe759ff97b7507 and fs2 == 0 and fe2 ==
      0x5fa and fm2 == 0x16a5368858d8c and fs3 == 0 and fe3 == 0x46b and fm3 == 0x8cd2b1c8952cf
      and rm_val == 0  #nosat'
    : 1 #  rs1_val==dnorm(0x5f8e759ff97b7507) and rs2_val==dnorm(0x5fa16a5368858d8c) and rs3_val==dnorm(0x46b8cd2b1c8952cf) | Multiplicand Exponent = 91, Addend exponent = 108 --> Values in the range [-(2*p + 1) , (p + 1)]
    ? 'fs1 == 0 and fe1 == 0x5f8 and fm1 == 0xe759ff97b7507 and fs2 == 0 and fe2 ==
      0x5fa and fm2 == 0x16a5368858d8c and fs3 == 0 and fe3 == 0x46a and fm3 == 0x8cd2b1c8952cf
      and rm_val == 0  #nosat'
    : 1 #  rs1_val==dnorm(0x5f8e759ff97b7507) and rs2_val==dnorm(0x5fa16a5368858d8c) and rs3_val==dnorm(0x46a8cd2b1c8952cf) | Multiplicand Exponent = 91, Addend exponent = 107 --> Values in the range [-(2*p + 1) , (p + 1)]
    ? 'fs1 == 0 and fe1 == 0x5f8 and fm1 == 0xe759ff97b7507 and fs2 == 0 and fe2 ==
      0x5fa and fm2 == 0x16a5368858d8c and fs3 == 0 and fe3 == 0x469 and fm3 == 0x8cd2b1c8952cf
      and rm_val == 0  #nosat'
    : 1 #  rs1_val==dnorm(0x5f8e759ff97b7507) and rs2_val==dnorm(0x5fa16a5368858d8c) and rs3_val==dnorm(0x4698cd2b1c8952cf) | Multiplicand Exponent = 91, Addend exponent = 106 --> Values in the range [-(2*p + 1) , (p + 1)]
    ? 'fs1 == 0 and fe1 == 0x5f8 and fm1 == 0xe759ff97b7507 and fs2 == 0 and fe2 ==
      0x5fa and fm2 == 0x16a5368858d8c and fs3 == 0 and fe3 == 0x468 and fm3 == 0x8cd2b1c8952cf
      and rm_val == 0  #nosat'
    : 1 #  rs1_val==dnorm(0x5f8e759ff97b7507) and rs2_val==dnorm(0x5fa16a5368858d8c) and rs3_val==dnorm(0x4688cd2b1c8952cf) | Multiplicand Exponent = 91, Addend exponent = 105 --> Values in the range [-(2*p + 1) , (p + 1)]
    ? 'fs1 == 0 and fe1 == 0x5f8 and fm1 == 0xe759ff97b7507 and fs2 == 0 and fe2 ==
      0x5fa and fm2 == 0x16a5368858d8c and fs3 == 0 and fe3 == 0x467 and fm3 == 0x8cd2b1c8952cf
      and rm_val == 0  #nosat'
    : 1 #  rs1_val==dnorm(0x5f8e759ff97b7507) and rs2_val==dnorm(0x5fa16a5368858d8c) and rs3_val==dnorm(0x4678cd2b1c8952cf) | Multiplicand Exponent = 91, Addend exponent = 104 --> Values in the range [-(2*p + 1) , (p + 1)]
    ? 'fs1 == 0 and fe1 == 0x5f8 and fm1 == 0xe759ff97b7507 and fs2 == 0 and fe2 ==
      0x5fa and fm2 == 0x16a5368858d8c and fs3 == 0 and fe3 == 0x466 and fm3 == 0x8cd2b1c8952cf
      and rm_val == 0  #nosat'
    : 1 #  rs1_val==dnorm(0x5f8e759ff97b7507) and rs2_val==dnorm(0x5fa16a5368858d8c) and rs3_val==dnorm(0x4668cd2b1c8952cf) | Multiplicand Exponent = 91, Addend exponent = 103 --> Values in the range [-(2*p + 1) , (p + 1)]
    ? 'fs1 == 0 and fe1 == 0x5f8 and fm1 == 0xe759ff97b7507 and fs2 == 0 and fe2 ==
      0x5fa and fm2 == 0x16a5368858d8c and fs3 == 0 and fe3 == 0x465 and fm3 == 0x8cd2b1c8952cf
      and rm_val == 0  #nosat'
    : 1 #  rs1_val==dnorm(0x5f8e759ff97b7507) and rs2_val==dnorm(0x5fa16a5368858d8c) and rs3_val==dnorm(0x4658cd2b1c8952cf) | Multiplicand Exponent = 91, Addend exponent = 102 --> Values in the range [-(2*p + 1) , (p + 1)]
    ? 'fs1 == 0 and fe1 == 0x5f8 and fm1 == 0xe759ff97b7507 and fs2 == 0 and fe2 ==
      0x5fa and fm2 == 0x16a5368858d8c and fs3 == 0 and fe3 == 0x464 and fm3 == 0x8cd2b1c8952cf
      and rm_val == 0  #nosat'
    : 1 #  rs1_val==dnorm(0x5f8e759ff97b7507) and rs2_val==dnorm(0x5fa16a5368858d8c) and rs3_val==dnorm(0x4648cd2b1c8952cf) | Multiplicand Exponent = 91, Addend exponent = 101 --> Values in the range [-(2*p + 1) , (p + 1)]
    ? 'fs1 == 0 and fe1 == 0x5f8 and fm1 == 0xe759ff97b7507 and fs2 == 0 and fe2 ==
      0x5fa and fm2 == 0x16a5368858d8c and fs3 == 0 and fe3 == 0x463 and fm3 == 0x8cd2b1c8952cf
      and rm_val == 0  #nosat'
    : 1 #  rs1_val==dnorm(0x5f8e759ff97b7507) and rs2_val==dnorm(0x5fa16a5368858d8c) and rs3_val==dnorm(0x4638cd2b1c8952cf) | Multiplicand Exponent = 91, Addend exponent = 100 --> Values in the range [-(2*p + 1) , (p + 1)]
    ? 'fs1 == 0 and fe1 == 0x5f8 and fm1 == 0xe759ff97b7507 and fs2 == 0 and fe2 ==
      0x5fa and fm2 == 0x16a5368858d8c and fs3 == 0 and fe3 == 0x462 and fm3 == 0x8cd2b1c8952cf
      and rm_val == 0  #nosat'
    : 1 #  rs1_val==dnorm(0x5f8e759ff97b7507) and rs2_val==dnorm(0x5fa16a5368858d8c) and rs3_val==dnorm(0x4628cd2b1c8952cf) | Multiplicand Exponent = 91, Addend exponent = 99 --> Values in the range [-(2*p + 1) , (p + 1)]
    ? 'fs1 == 0 and fe1 == 0x5f8 and fm1 == 0xe759ff97b7507 and fs2 == 0 and fe2 ==
      0x5fa and fm2 == 0x16a5368858d8c and fs3 == 0 and fe3 == 0x461 and fm3 == 0x8cd2b1c8952cf
      and rm_val == 0  #nosat'
    : 1 #  rs1_val==dnorm(0x5f8e759ff97b7507) and rs2_val==dnorm(0x5fa16a5368858d8c) and rs3_val==dnorm(0x4618cd2b1c8952cf) | Multiplicand Exponent = 91, Addend exponent = 98 --> Values in the range [-(2*p + 1) , (p + 1)]
    ? 'fs1 == 0 and fe1 == 0x5f8 and fm1 == 0xe759ff97b7507 and fs2 == 0 and fe2 ==
      0x5fa and fm2 == 0x16a5368858d8c and fs3 == 0 and fe3 == 0x460 and fm3 == 0x8cd2b1c8952cf
      and rm_val == 0  #nosat'
    : 1 #  rs1_val==dnorm(0x5f8e759ff97b7507) and rs2_val==dnorm(0x5fa16a5368858d8c) and rs3_val==dnorm(0x4608cd2b1c8952cf) | Multiplicand Exponent = 91, Addend exponent = 97 --> Values in the range [-(2*p + 1) , (p + 1)]
    ? 'fs1 == 0 and fe1 == 0x5f8 and fm1 == 0xe759ff97b7507 and fs2 == 0 and fe2 ==
      0x5fa and fm2 == 0x16a5368858d8c and fs3 == 0 and fe3 == 0x45f and fm3 == 0x8cd2b1c8952cf
      and rm_val == 0  #nosat'
    : 1 #  rs1_val==dnorm(0x5f8e759ff97b7507) and rs2_val==dnorm(0x5fa16a5368858d8c) and rs3_val==dnorm(0x45f8cd2b1c8952cf) | Multiplicand Exponent = 91, Addend exponent = 96 --> Values in the range [-(2*p + 1) , (p + 1)]
    ? 'fs1 == 0 and fe1 == 0x5f8 and fm1 == 0xe759ff97b7507 and fs2 == 0 and fe2 ==
      0x5fa and fm2 == 0x16a5368858d8c and fs3 == 0 and fe3 == 0x45e and fm3 == 0x8cd2b1c8952cf
      and rm_val == 0  #nosat'
    : 1 #  rs1_val==dnorm(0x5f8e759ff97b7507) and rs2_val==dnorm(0x5fa16a5368858d8c) and rs3_val==dnorm(0x45e8cd2b1c8952cf) | Multiplicand Exponent = 91, Addend exponent = 95 --> Values in the range [-(2*p + 1) , (p + 1)]
    ? 'fs1 == 0 and fe1 == 0x5f8 and fm1 == 0xe759ff97b7507 and fs2 == 0 and fe2 ==
      0x5fa and fm2 == 0x16a5368858d8c and fs3 == 0 and fe3 == 0x45d and fm3 == 0x8cd2b1c8952cf
      and rm_val == 0  #nosat'
    : 1 #  rs1_val==dnorm(0x5f8e759ff97b7507) and rs2_val==dnorm(0x5fa16a5368858d8c) and rs3_val==dnorm(0x45d8cd2b1c8952cf) | Multiplicand Exponent = 91, Addend exponent = 94 --> Values in the range [-(2*p + 1) , (p + 1)]
    ? 'fs1 == 0 and fe1 == 0x5f8 and fm1 == 0xe759ff97b7507 and fs2 == 0 and fe2 ==
      0x5fa and fm2 == 0x16a5368858d8c and fs3 == 0 and fe3 == 0x45c and fm3 == 0x8cd2b1c8952cf
      and rm_val == 0  #nosat'
    : 1 #  rs1_val==dnorm(0x5f8e759ff97b7507) and rs2_val==dnorm(0x5fa16a5368858d8c) and rs3_val==dnorm(0x45c8cd2b1c8952cf) | Multiplicand Exponent = 91, Addend exponent = 93 --> Values in the range [-(2*p + 1) , (p + 1)]
    ? 'fs1 == 0 and fe1 == 0x5f8 and fm1 == 0xe759ff97b7507 and fs2 == 0 and fe2 ==
      0x5fa and fm2 == 0x16a5368858d8c and fs3 == 0 and fe3 == 0x45b and fm3 == 0x8cd2b1c8952cf
      and rm_val == 0  #nosat'
    : 1 #  rs1_val==dnorm(0x5f8e759ff97b7507) and rs2_val==dnorm(0x5fa16a5368858d8c) and rs3_val==dnorm(0x45b8cd2b1c8952cf) | Multiplicand Exponent = 91, Addend exponent = 92 --> Values in the range [-(2*p + 1) , (p + 1)]
    ? 'fs1 == 0 and fe1 == 0x5f8 and fm1 == 0xe759ff97b7507 and fs2 == 0 and fe2 ==
      0x5fa and fm2 == 0x16a5368858d8c and fs3 == 0 and fe3 == 0x45a and fm3 == 0x8cd2b1c8952cf
      and rm_val == 0  #nosat'
    : 1 #  rs1_val==dnorm(0x5f8e759ff97b7507) and rs2_val==dnorm(0x5fa16a5368858d8c) and rs3_val==dnorm(0x45a8cd2b1c8952cf) | Multiplicand Exponent = 91, Addend exponent = 91 --> Values in the range [-(2*p + 1) , (p + 1)]
    ? 'fs1 == 0 and fe1 == 0x5f8 and fm1 == 0xe759ff97b7507 and fs2 == 0 and fe2 ==
      0x5fa and fm2 == 0x16a5368858d8c and fs3 == 0 and fe3 == 0x459 and fm3 == 0x8cd2b1c8952cf
      and rm_val == 0  #nosat'
    : 1 #  rs1_val==dnorm(0x5f8e759ff97b7507) and rs2_val==dnorm(0x5fa16a5368858d8c) and rs3_val==dnorm(0x4598cd2b1c8952cf) | Multiplicand Exponent = 91, Addend exponent = 90 --> Values in the range [-(2*p + 1) , (p + 1)]
    ? 'fs1 == 0 and fe1 == 0x5f8 and fm1 == 0xe759ff97b7507 and fs2 == 0 and fe2 ==
      0x5fa and fm2 == 0x16a5368858d8c and fs3 == 0 and fe3 == 0x458 and fm3 == 0x8cd2b1c8952cf
      and rm_val == 0  #nosat'
    : 1 #  rs1_val==dnorm(0x5f8e759ff97b7507) and rs2_val==dnorm(0x5fa16a5368858d8c) and rs3_val==dnorm(0x4588cd2b1c8952cf) | Multiplicand Exponent = 91, Addend exponent = 89 --> Values in the range [-(2*p + 1) , (p + 1)]
    ? 'fs1 == 0 and fe1 == 0x5f8 and fm1 == 0xe759ff97b7507 and fs2 == 0 and fe2 ==
      0x5fa and fm2 == 0x16a5368858d8c and fs3 == 0 and fe3 == 0x457 and fm3 == 0x8cd2b1c8952cf
      and rm_val == 0  #nosat'
    : 1 #  rs1_val==dnorm(0x5f8e759ff97b7507) and rs2_val==dnorm(0x5fa16a5368858d8c) and rs3_val==dnorm(0x4578cd2b1c8952cf) | Multiplicand Exponent = 91, Addend exponent = 88 --> Values in the range [-(2*p + 1) , (p + 1)]
    ? 'fs1 == 0 and fe1 == 0x5f8 and fm1 == 0xe759ff97b7507 and fs2 == 0 and fe2 ==
      0x5fa and fm2 == 0x16a5368858d8c and fs3 == 0 and fe3 == 0x456 and fm3 == 0x8cd2b1c8952cf
      and rm_val == 0  #nosat'
    : 1 #  rs1_val==dnorm(0x5f8e759ff97b7507) and rs2_val==dnorm(0x5fa16a5368858d8c) and rs3_val==dnorm(0x4568cd2b1c8952cf) | Multiplicand Exponent = 91, Addend exponent = 87 --> Values in the range [-(2*p + 1) , (p + 1)]
    ? 'fs1 == 0 and fe1 == 0x5f8 and fm1 == 0xe759ff97b7507 and fs2 == 0 and fe2 ==
      0x5fa and fm2 == 0x16a5368858d8c and fs3 == 0 and fe3 == 0x455 and fm3 == 0x8cd2b1c8952cf
      and rm_val == 0  #nosat'
    : 1 #  rs1_val==dnorm(0x5f8e759ff97b7507) and rs2_val==dnorm(0x5fa16a5368858d8c) and rs3_val==dnorm(0x4558cd2b1c8952cf) | Multiplicand Exponent = 91, Addend exponent = 86 --> Values in the range [-(2*p + 1) , (p + 1)]
    ? 'fs1 == 0 and fe1 == 0x5f8 and fm1 == 0xe759ff97b7507 and fs2 == 0 and fe2 ==
      0x5fa and fm2 == 0x16a5368858d8c and fs3 == 0 and fe3 == 0x454 and fm3 == 0x8cd2b1c8952cf
      and rm_val == 0  #nosat'
    : 1 #  rs1_val==dnorm(0x5f8e759ff97b7507) and rs2_val==dnorm(0x5fa16a5368858d8c) and rs3_val==dnorm(0x4548cd2b1c8952cf) | Multiplicand Exponent = 91, Addend exponent = 85 --> Values in the range [-(2*p + 1) , (p + 1)]
    ? 'fs1 == 0 and fe1 == 0x5f8 and fm1 == 0xe759ff97b7507 and fs2 == 0 and fe2 ==
      0x5fa and fm2 == 0x16a5368858d8c and fs3 == 0 and fe3 == 0x453 and fm3 == 0x8cd2b1c8952cf
      and rm_val == 0  #nosat'
    : 1 #  rs1_val==dnorm(0x5f8e759ff97b7507) and rs2_val==dnorm(0x5fa16a5368858d8c) and rs3_val==dnorm(0x4538cd2b1c8952cf) | Multiplicand Exponent = 91, Addend exponent = 84 --> Values in the range [-(2*p + 1) , (p + 1)]
    ? 'fs1 == 0 and fe1 == 0x5f8 and fm1 == 0xe759ff97b7507 and fs2 == 0 and fe2 ==
      0x5fa and fm2 == 0x16a5368858d8c and fs3 == 0 and fe3 == 0x452 and fm3 == 0x8cd2b1c8952cf
      and rm_val == 0  #nosat'
    : 1 #  rs1_val==dnorm(0x5f8e759ff97b7507) and rs2_val==dnorm(0x5fa16a5368858d8c) and rs3_val==dnorm(0x4528cd2b1c8952cf) | Multiplicand Exponent = 91, Addend exponent = 83 --> Values in the range [-(2*p + 1) , (p + 1)]
    ? 'fs1 == 0 and fe1 == 0x5f8 and fm1 == 0xe759ff97b7507 and fs2 == 0 and fe2 ==
      0x5fa and fm2 == 0x16a5368858d8c and fs3 == 0 and fe3 == 0x451 and fm3 == 0x8cd2b1c8952cf
      and rm_val == 0  #nosat'
    : 1 #  rs1_val==dnorm(0x5f8e759ff97b7507) and rs2_val==dnorm(0x5fa16a5368858d8c) and rs3_val==dnorm(0x4518cd2b1c8952cf) | Multiplicand Exponent = 91, Addend exponent = 82 --> Values in the range [-(2*p + 1) , (p + 1)]
    ? 'fs1 == 0 and fe1 == 0x5f8 and fm1 == 0xe759ff97b7507 and fs2 == 0 and fe2 ==
      0x5fa and fm2 == 0x16a5368858d8c and fs3 == 0 and fe3 == 0x450 and fm3 == 0x8cd2b1c8952cf
      and rm_val == 0  #nosat'
    : 1 #  rs1_val==dnorm(0x5f8e759ff97b7507) and rs2_val==dnorm(0x5fa16a5368858d8c) and rs3_val==dnorm(0x4508cd2b1c8952cf) | Multiplicand Exponent = 91, Addend exponent = 81 --> Values in the range [-(2*p + 1) , (p + 1)]
    ? 'fs1 == 0 and fe1 == 0x5f8 and fm1 == 0xe759ff97b7507 and fs2 == 0 and fe2 ==
      0x5fa and fm2 == 0x16a5368858d8c and fs3 == 0 and fe3 == 0x44f and fm3 == 0x8cd2b1c8952cf
      and rm_val == 0  #nosat'
    : 1 #  rs1_val==dnorm(0x5f8e759ff97b7507) and rs2_val==dnorm(0x5fa16a5368858d8c) and rs3_val==dnorm(0x44f8cd2b1c8952cf) | Multiplicand Exponent = 91, Addend exponent = 80 --> Values in the range [-(2*p + 1) , (p + 1)]
    ? 'fs1 == 0 and fe1 == 0x5f8 and fm1 == 0xe759ff97b7507 and fs2 == 0 and fe2 ==
      0x5fa and fm2 == 0x16a5368858d8c and fs3 == 0 and fe3 == 0x44e and fm3 == 0x8cd2b1c8952cf
      and rm_val == 0  #nosat'
    : 1 #  rs1_val==dnorm(0x5f8e759ff97b7507) and rs2_val==dnorm(0x5fa16a5368858d8c) and rs3_val==dnorm(0x44e8cd2b1c8952cf) | Multiplicand Exponent = 91, Addend exponent = 79 --> Values in the range [-(2*p + 1) , (p + 1)]
    ? 'fs1 == 0 and fe1 == 0x5f8 and fm1 == 0xe759ff97b7507 and fs2 == 0 and fe2 ==
      0x5fa and fm2 == 0x16a5368858d8c and fs3 == 0 and fe3 == 0x44d and fm3 == 0x8cd2b1c8952cf
      and rm_val == 0  #nosat'
    : 1 #  rs1_val==dnorm(0x5f8e759ff97b7507) and rs2_val==dnorm(0x5fa16a5368858d8c) and rs3_val==dnorm(0x44d8cd2b1c8952cf) | Multiplicand Exponent = 91, Addend exponent = 78 --> Values in the range [-(2*p + 1) , (p + 1)]
    ? 'fs1 == 0 and fe1 == 0x5f8 and fm1 == 0xe759ff97b7507 and fs2 == 0 and fe2 ==
      0x5fa and fm2 == 0x16a5368858d8c and fs3 == 0 and fe3 == 0x44c and fm3 == 0x8cd2b1c8952cf
      and rm_val == 0  #nosat'
    : 1 #  rs1_val==dnorm(0x5f8e759ff97b7507) and rs2_val==dnorm(0x5fa16a5368858d8c) and rs3_val==dnorm(0x44c8cd2b1c8952cf) | Multiplicand Exponent = 91, Addend exponent = 77 --> Values in the range [-(2*p + 1) , (p + 1)]
    ? 'fs1 == 0 and fe1 == 0x5f8 and fm1 == 0xe759ff97b7507 and fs2 == 0 and fe2 ==
      0x5fa and fm2 == 0x16a5368858d8c and fs3 == 0 and fe3 == 0x44b and fm3 == 0x8cd2b1c8952cf
      and rm_val == 0  #nosat'
    : 1 #  rs1_val==dnorm(0x5f8e759ff97b7507) and rs2_val==dnorm(0x5fa16a5368858d8c) and rs3_val==dnorm(0x44b8cd2b1c8952cf) | Multiplicand Exponent = 91, Addend exponent = 76 --> Values in the range [-(2*p + 1) , (p + 1)]
    ? 'fs1 == 0 and fe1 == 0x5f8 and fm1 == 0xe759ff97b7507 and fs2 == 0 and fe2 ==
      0x5fa and fm2 == 0x16a5368858d8c and fs3 == 0 and fe3 == 0x44a and fm3 == 0x8cd2b1c8952cf
      and rm_val == 0  #nosat'
    : 1 #  rs1_val==dnorm(0x5f8e759ff97b7507) and rs2_val==dnorm(0x5fa16a5368858d8c) and rs3_val==dnorm(0x44a8cd2b1c8952cf) | Multiplicand Exponent = 91, Addend exponent = 75 --> Values in the range [-(2*p + 1) , (p + 1)]
    ? 'fs1 == 0 and fe1 == 0x5f8 and fm1 == 0xe759ff97b7507 and fs2 == 0 and fe2 ==
      0x5fa and fm2 == 0x16a5368858d8c and fs3 == 0 and fe3 == 0x449 and fm3 == 0x8cd2b1c8952cf
      and rm_val == 0  #nosat'
    : 1 #  rs1_val==dnorm(0x5f8e759ff97b7507) and rs2_val==dnorm(0x5fa16a5368858d8c) and rs3_val==dnorm(0x4498cd2b1c8952cf) | Multiplicand Exponent = 91, Addend exponent = 74 --> Values in the range [-(2*p + 1) , (p + 1)]
    ? 'fs1 == 0 and fe1 == 0x5f8 and fm1 == 0xe759ff97b7507 and fs2 == 0 and fe2 ==
      0x5fa and fm2 == 0x16a5368858d8c and fs3 == 0 and fe3 == 0x448 and fm3 == 0x8cd2b1c8952cf
      and rm_val == 0  #nosat'
    : 1 #  rs1_val==dnorm(0x5f8e759ff97b7507) and rs2_val==dnorm(0x5fa16a5368858d8c) and rs3_val==dnorm(0x4488cd2b1c8952cf) | Multiplicand Exponent = 91, Addend exponent = 73 --> Values in the range [-(2*p + 1) , (p + 1)]
    ? 'fs1 == 0 and fe1 == 0x5f8 and fm1 == 0xe759ff97b7507 and fs2 == 0 and fe2 ==
      0x5fa and fm2 == 0x16a5368858d8c and fs3 == 0 and fe3 == 0x447 and fm3 == 0x8cd2b1c8952cf
      and rm_val == 0  #nosat'
    : 1 #  rs1_val==dnorm(0x5f8e759ff97b7507) and rs2_val==dnorm(0x5fa16a5368858d8c) and rs3_val==dnorm(0x4478cd2b1c8952cf) | Multiplicand Exponent = 91, Addend exponent = 72 --> Values in the range [-(2*p + 1) , (p + 1)]
    ? 'fs1 == 0 and fe1 == 0x5f8 and fm1 == 0xe759ff97b7507 and fs2 == 0 and fe2 ==
      0x5fa and fm2 == 0x16a5368858d8c and fs3 == 0 and fe3 == 0x446 and fm3 == 0x8cd2b1c8952cf
      and rm_val == 0  #nosat'
    : 1 #  rs1_val==dnorm(0x5f8e759ff97b7507) and rs2_val==dnorm(0x5fa16a5368858d8c) and rs3_val==dnorm(0x4468cd2b1c8952cf) | Multiplicand Exponent = 91, Addend exponent = 71 --> Values in the range [-(2*p + 1) , (p + 1)]
    ? 'fs1 == 0 and fe1 == 0x5f8 and fm1 == 0xe759ff97b7507 and fs2 == 0 and fe2 ==
      0x5fa and fm2 == 0x16a5368858d8c and fs3 == 0 and fe3 == 0x445 and fm3 == 0x8cd2b1c8952cf
      and rm_val == 0  #nosat'
    : 1 #  rs1_val==dnorm(0x5f8e759ff97b7507) and rs2_val==dnorm(0x5fa16a5368858d8c) and rs3_val==dnorm(0x4458cd2b1c8952cf) | Multiplicand Exponent = 91, Addend exponent = 70 --> Values in the range [-(2*p + 1) , (p + 1)]
    ? 'fs1 == 0 and fe1 == 0x5f8 and fm1 == 0xe759ff97b7507 and fs2 == 0 and fe2 ==
      0x5fa and fm2 == 0x16a5368858d8c and fs3 == 0 and fe3 == 0x444 and fm3 == 0x8cd2b1c8952cf
      and rm_val == 0  #nosat'
    : 1 #  rs1_val==dnorm(0x5f8e759ff97b7507) and rs2_val==dnorm(0x5fa16a5368858d8c) and rs3_val==dnorm(0x4448cd2b1c8952cf) | Multiplicand Exponent = 91, Addend exponent = 69 --> Values in the range [-(2*p + 1) , (p + 1)]
    ? 'fs1 == 0 and fe1 == 0x5f8 and fm1 == 0xe759ff97b7507 and fs2 == 0 and fe2 ==
      0x5fa and fm2 == 0x16a5368858d8c and fs3 == 0 and fe3 == 0x443 and fm3 == 0x8cd2b1c8952cf
      and rm_val == 0  #nosat'
    : 1 #  rs1_val==dnorm(0x5f8e759ff97b7507) and rs2_val==dnorm(0x5fa16a5368858d8c) and rs3_val==dnorm(0x4438cd2b1c8952cf) | Multiplicand Exponent = 91, Addend exponent = 68 --> Values in the range [-(2*p + 1) , (p + 1)]
    ? 'fs1 == 0 and fe1 == 0x5f8 and fm1 == 0xe759ff97b7507 and fs2 == 0 and fe2 ==
      0x5fa and fm2 == 0x16a5368858d8c and fs3 == 0 and fe3 == 0x442 and fm3 == 0x8cd2b1c8952cf
      and rm_val == 0  #nosat'
    : 1 #  rs1_val==dnorm(0x5f8e759ff97b7507) and rs2_val==dnorm(0x5fa16a5368858d8c) and rs3_val==dnorm(0x4428cd2b1c8952cf) | Multiplicand Exponent = 91, Addend exponent = 67 --> Values in the range [-(2*p + 1) , (p + 1)]
    ? 'fs1 == 0 and fe1 == 0x5f8 and fm1 == 0xe759ff97b7507 and fs2 == 0 and fe2 ==
      0x5fa and fm2 == 0x16a5368858d8c and fs3 == 0 and fe3 == 0x441 and fm3 == 0x8cd2b1c8952cf
      and rm_val == 0  #nosat'
    : 1 #  rs1_val==dnorm(0x5f8e759ff97b7507) and rs2_val==dnorm(0x5fa16a5368858d8c) and rs3_val==dnorm(0x4418cd2b1c8952cf) | Multiplicand Exponent = 91, Addend exponent = 66 --> Values in the range [-(2*p + 1) , (p + 1)]
    ? 'fs1 == 0 and fe1 == 0x5f8 and fm1 == 0xe759ff97b7507 and fs2 == 0 and fe2 ==
      0x5fa and fm2 == 0x16a5368858d8c and fs3 == 0 and fe3 == 0x440 and fm3 == 0x8cd2b1c8952cf
      and rm_val == 0  #nosat'
    : 1 #  rs1_val==dnorm(0x5f8e759ff97b7507) and rs2_val==dnorm(0x5fa16a5368858d8c) and rs3_val==dnorm(0x4408cd2b1c8952cf) | Multiplicand Exponent = 91, Addend exponent = 65 --> Values in the range [-(2*p + 1) , (p + 1)]
    ? 'fs1 == 0 and fe1 == 0x5f8 and fm1 == 0xe759ff97b7507 and fs2 == 0 and fe2 ==
      0x5fa and fm2 == 0x16a5368858d8c and fs3 == 0 and fe3 == 0x43f and fm3 == 0x8cd2b1c8952cf
      and rm_val == 0  #nosat'
    : 1 #  rs1_val==dnorm(0x5f8e759ff97b7507) and rs2_val==dnorm(0x5fa16a5368858d8c) and rs3_val==dnorm(0x43f8cd2b1c8952cf) | Multiplicand Exponent = 91, Addend exponent = 64 --> Values in the range [-(2*p + 1) , (p + 1)]
    ? 'fs1 == 0 and fe1 == 0x5f8 and fm1 == 0xe759ff97b7507 and fs2 == 0 and fe2 ==
      0x5fa and fm2 == 0x16a5368858d8c and fs3 == 0 and fe3 == 0x43e and fm3 == 0x8cd2b1c8952cf
      and rm_val == 0  #nosat'
    : 1 #  rs1_val==dnorm(0x5f8e759ff97b7507) and rs2_val==dnorm(0x5fa16a5368858d8c) and rs3_val==dnorm(0x43e8cd2b1c8952cf) | Multiplicand Exponent = 91, Addend exponent = 63 --> Values in the range [-(2*p + 1) , (p + 1)]
    ? 'fs1 == 0 and fe1 == 0x5f8 and fm1 == 0xe759ff97b7507 and fs2 == 0 and fe2 ==
      0x5fa and fm2 == 0x16a5368858d8c and fs3 == 0 and fe3 == 0x43d and fm3 == 0x8cd2b1c8952cf
      and rm_val == 0  #nosat'
    : 1 #  rs1_val==dnorm(0x5f8e759ff97b7507) and rs2_val==dnorm(0x5fa16a5368858d8c) and rs3_val==dnorm(0x43d8cd2b1c8952cf) | Multiplicand Exponent = 91, Addend exponent = 62 --> Values in the range [-(2*p + 1) , (p + 1)]
    ? 'fs1 == 0 and fe1 == 0x5f8 and fm1 == 0xe759ff97b7507 and fs2 == 0 and fe2 ==
      0x5fa and fm2 == 0x16a5368858d8c and fs3 == 0 and fe3 == 0x43c and fm3 == 0x8cd2b1c8952cf
      and rm_val == 0  #nosat'
    : 1 #  rs1_val==dnorm(0x5f8e759ff97b7507) and rs2_val==dnorm(0x5fa16a5368858d8c) and rs3_val==dnorm(0x43c8cd2b1c8952cf) | Multiplicand Exponent = 91, Addend exponent = 61 --> Values in the range [-(2*p + 1) , (p + 1)]
    ? 'fs1 == 0 and fe1 == 0x5f8 and fm1 == 0xe759ff97b7507 and fs2 == 0 and fe2 ==
      0x5fa and fm2 == 0x16a5368858d8c and fs3 == 0 and fe3 == 0x43b and fm3 == 0x8cd2b1c8952cf
      and rm_val == 0  #nosat'
    : 1 #  rs1_val==dnorm(0x5f8e759ff97b7507) and rs2_val==dnorm(0x5fa16a5368858d8c) and rs3_val==dnorm(0x43b8cd2b1c8952cf) | Multiplicand Exponent = 91, Addend exponent = 60 --> Values in the range [-(2*p + 1) , (p + 1)]
    ? 'fs1 == 0 and fe1 == 0x5f8 and fm1 == 0xe759ff97b7507 and fs2 == 0 and fe2 ==
      0x5fa and fm2 == 0x16a5368858d8c and fs3 == 0 and fe3 == 0x43a and fm3 == 0x8cd2b1c8952cf
      and rm_val == 0  #nosat'
    : 1 #  rs1_val==dnorm(0x5f8e759ff97b7507) and rs2_val==dnorm(0x5fa16a5368858d8c) and rs3_val==dnorm(0x43a8cd2b1c8952cf) | Multiplicand Exponent = 91, Addend exponent = 59 --> Values in the range [-(2*p + 1) , (p + 1)]
    ? 'fs1 == 0 and fe1 == 0x5f8 and fm1 == 0xe759ff97b7507 and fs2 == 0 and fe2 ==
      0x5fa and fm2 == 0x16a5368858d8c and fs3 == 0 and fe3 == 0x439 and fm3 == 0x8cd2b1c8952cf
      and rm_val == 0  #nosat'
    : 1 #  rs1_val==dnorm(0x5f8e759ff97b7507) and rs2_val==dnorm(0x5fa16a5368858d8c) and rs3_val==dnorm(0x4398cd2b1c8952cf) | Multiplicand Exponent = 91, Addend exponent = 58 --> Values in the range [-(2*p + 1) , (p + 1)]
    ? 'fs1 == 0 and fe1 == 0x5f8 and fm1 == 0xe759ff97b7507 and fs2 == 0 and fe2 ==
      0x5fa and fm2 == 0x16a5368858d8c and fs3 == 0 and fe3 == 0x438 and fm3 == 0x8cd2b1c8952cf
      and rm_val == 0  #nosat'
    : 1 #  rs1_val==dnorm(0x5f8e759ff97b7507) and rs2_val==dnorm(0x5fa16a5368858d8c) and rs3_val==dnorm(0x4388cd2b1c8952cf) | Multiplicand Exponent = 91, Addend exponent = 57 --> Values in the range [-(2*p + 1) , (p + 1)]
    ? 'fs1 == 0 and fe1 == 0x5f8 and fm1 == 0xe759ff97b7507 and fs2 == 0 and fe2 ==
      0x5fa and fm2 == 0x16a5368858d8c and fs3 == 0 and fe3 == 0x437 and fm3 == 0x8cd2b1c8952cf
      and rm_val == 0  #nosat'
    : 1 #  rs1_val==dnorm(0x5f8e759ff97b7507) and rs2_val==dnorm(0x5fa16a5368858d8c) and rs3_val==dnorm(0x4378cd2b1c8952cf) | Multiplicand Exponent = 91, Addend exponent = 56 --> Values in the range [-(2*p + 1) , (p + 1)]
    ? 'fs1 == 0 and fe1 == 0x5f8 and fm1 == 0xe759ff97b7507 and fs2 == 0 and fe2 ==
      0x5fa and fm2 == 0x16a5368858d8c and fs3 == 0 and fe3 == 0x436 and fm3 == 0x8cd2b1c8952cf
      and rm_val == 0  #nosat'
    : 1 #  rs1_val==dnorm(0x5f8e759ff97b7507) and rs2_val==dnorm(0x5fa16a5368858d8c) and rs3_val==dnorm(0x4368cd2b1c8952cf) | Multiplicand Exponent = 91, Addend exponent = 55 --> Values in the range [-(2*p + 1) , (p + 1)]
    ? 'fs1 == 0 and fe1 == 0x5f8 and fm1 == 0xe759ff97b7507 and fs2 == 0 and fe2 ==
      0x5fa and fm2 == 0x16a5368858d8c and fs3 == 0 and fe3 == 0x435 and fm3 == 0x8cd2b1c8952cf
      and rm_val == 0  #nosat'
    : 1 #  rs1_val==dnorm(0x5f8e759ff97b7507) and rs2_val==dnorm(0x5fa16a5368858d8c) and rs3_val==dnorm(0x4358cd2b1c8952cf) | Multiplicand Exponent = 91, Addend exponent = 54 --> Values in the range [-(2*p + 1) , (p + 1)]
    ? 'fs1 == 0 and fe1 == 0x5f8 and fm1 == 0xe759ff97b7507 and fs2 == 0 and fe2 ==
      0x5fa and fm2 == 0x16a5368858d8c and fs3 == 0 and fe3 == 0x434 and fm3 == 0x8cd2b1c8952cf
      and rm_val == 0  #nosat'
    : 1 #  rs1_val==dnorm(0x5f8e759ff97b7507) and rs2_val==dnorm(0x5fa16a5368858d8c) and rs3_val==dnorm(0x4348cd2b1c8952cf) | Multiplicand Exponent = 91, Addend exponent = 53 --> Values in the range [-(2*p + 1) , (p + 1)]
    ? 'fs1 == 0 and fe1 == 0x5f8 and fm1 == 0xe759ff97b7507 and fs2 == 0 and fe2 ==
      0x5fa and fm2 == 0x16a5368858d8c and fs3 == 0 and fe3 == 0x433 and fm3 == 0x8cd2b1c8952cf
      and rm_val == 0  #nosat'
    : 1 #  rs1_val==dnorm(0x5f8e759ff97b7507) and rs2_val==dnorm(0x5fa16a5368858d8c) and rs3_val==dnorm(0x4338cd2b1c8952cf) | Multiplicand Exponent = 91, Addend exponent = 52 --> Values in the range [-(2*p + 1) , (p + 1)]
    ? 'fs1 == 0 and fe1 == 0x5f8 and fm1 == 0xe759ff97b7507 and fs2 == 0 and fe2 ==
      0x5fa and fm2 == 0x16a5368858d8c and fs3 == 0 and fe3 == 0x432 and fm3 == 0x8cd2b1c8952cf
      and rm_val == 0  #nosat'
    : 1 #  rs1_val==dnorm(0x5f8e759ff97b7507) and rs2_val==dnorm(0x5fa16a5368858d8c) and rs3_val==dnorm(0x4328cd2b1c8952cf) | Multiplicand Exponent = 91, Addend exponent = 51 --> Values in the range [-(2*p + 1) , (p + 1)]
    ? 'fs1 == 0 and fe1 == 0x5f8 and fm1 == 0xe759ff97b7507 and fs2 == 0 and fe2 ==
      0x5fa and fm2 == 0x16a5368858d8c and fs3 == 0 and fe3 == 0x431 and fm3 == 0x8cd2b1c8952cf
      and rm_val == 0  #nosat'
    : 1 #  rs1_val==dnorm(0x5f8e759ff97b7507) and rs2_val==dnorm(0x5fa16a5368858d8c) and rs3_val==dnorm(0x4318cd2b1c8952cf) | Multiplicand Exponent = 91, Addend exponent = 50 --> Values in the range [-(2*p + 1) , (p + 1)]
    ? 'fs1 == 0 and fe1 == 0x5f8 and fm1 == 0xe759ff97b7507 and fs2 == 0 and fe2 ==
      0x5fa and fm2 == 0x16a5368858d8c and fs3 == 0 and fe3 == 0x430 and fm3 == 0x8cd2b1c8952cf
      and rm_val == 0  #nosat'
    : 1 #  rs1_val==dnorm(0x5f8e759ff97b7507) and rs2_val==dnorm(0x5fa16a5368858d8c) and rs3_val==dnorm(0x4308cd2b1c8952cf) | Multiplicand Exponent = 91, Addend exponent = 49 --> Values in the range [-(2*p + 1) , (p + 1)]
    ? 'fs1 == 0 and fe1 == 0x5f8 and fm1 == 0xe759ff97b7507 and fs2 == 0 and fe2 ==
      0x5fa and fm2 == 0x16a5368858d8c and fs3 == 0 and fe3 == 0x42f and fm3 == 0x8cd2b1c8952cf
      and rm_val == 0  #nosat'
    : 1 #  rs1_val==dnorm(0x5f8e759ff97b7507) and rs2_val==dnorm(0x5fa16a5368858d8c) and rs3_val==dnorm(0x42f8cd2b1c8952cf) | Multiplicand Exponent = 91, Addend exponent = 48 --> Values in the range [-(2*p + 1) , (p + 1)]
    ? 'fs1 == 0 and fe1 == 0x5f8 and fm1 == 0xe759ff97b7507 and fs2 == 0 and fe2 ==
      0x5fa and fm2 == 0x16a5368858d8c and fs3 == 0 and fe3 == 0x42e and fm3 == 0x8cd2b1c8952cf
      and rm_val == 0  #nosat'
    : 1 #  rs1_val==dnorm(0x5f8e759ff97b7507) and rs2_val==dnorm(0x5fa16a5368858d8c) and rs3_val==dnorm(0x42e8cd2b1c8952cf) | Multiplicand Exponent = 91, Addend exponent = 47 --> Values in the range [-(2*p + 1) , (p + 1)]
    ? 'fs1 == 0 and fe1 == 0x5f8 and fm1 == 0xe759ff97b7507 and fs2 == 0 and fe2 ==
      0x5fa and fm2 == 0x16a5368858d8c and fs3 == 0 and fe3 == 0x42d and fm3 == 0x8cd2b1c8952cf
      and rm_val == 0  #nosat'
    : 1 #  rs1_val==dnorm(0x5f8e759ff97b7507) and rs2_val==dnorm(0x5fa16a5368858d8c) and rs3_val==dnorm(0x42d8cd2b1c8952cf) | Multiplicand Exponent = 91, Addend exponent = 46 --> Values in the range [-(2*p + 1) , (p + 1)]
    ? 'fs1 == 0 and fe1 == 0x5f8 and fm1 == 0xe759ff97b7507 and fs2 == 0 and fe2 ==
      0x5fa and fm2 == 0x16a5368858d8c and fs3 == 0 and fe3 == 0x42c and fm3 == 0x8cd2b1c8952cf
      and rm_val == 0  #nosat'
    : 1 #  rs1_val==dnorm(0x5f8e759ff97b7507) and rs2_val==dnorm(0x5fa16a5368858d8c) and rs3_val==dnorm(0x42c8cd2b1c8952cf) | Multiplicand Exponent = 91, Addend exponent = 45 --> Values in the range [-(2*p + 1) , (p + 1)]
    ? 'fs1 == 0 and fe1 == 0x5f8 and fm1 == 0xe759ff97b7507 and fs2 == 0 and fe2 ==
      0x5fa and fm2 == 0x16a5368858d8c and fs3 == 0 and fe3 == 0x42b and fm3 == 0x8cd2b1c8952cf
      and rm_val == 0  #nosat'
    : 1 #  rs1_val==dnorm(0x5f8e759ff97b7507) and rs2_val==dnorm(0x5fa16a5368858d8c) and rs3_val==dnorm(0x42b8cd2b1c8952cf) | Multiplicand Exponent = 91, Addend exponent = 44 --> Values in the range [-(2*p + 1) , (p + 1)]
    ? 'fs1 == 0 and fe1 == 0x5f8 and fm1 == 0xe759ff97b7507 and fs2 == 0 and fe2 ==
      0x5fa and fm2 == 0x16a5368858d8c and fs3 == 0 and fe3 == 0x42a and fm3 == 0x8cd2b1c8952cf
      and rm_val == 0  #nosat'
    : 1 #  rs1_val==dnorm(0x5f8e759ff97b7507) and rs2_val==dnorm(0x5fa16a5368858d8c) and rs3_val==dnorm(0x42a8cd2b1c8952cf) | Multiplicand Exponent = 91, Addend exponent = 43 --> Values in the range [-(2*p + 1) , (p + 1)]
    ? 'fs1 == 0 and fe1 == 0x5f8 and fm1 == 0xe759ff97b7507 and fs2 == 0 and fe2 ==
      0x5fa and fm2 == 0x16a5368858d8c and fs3 == 0 and fe3 == 0x429 and fm3 == 0x8cd2b1c8952cf
      and rm_val == 0  #nosat'
    : 1 #  rs1_val==dnorm(0x5f8e759ff97b7507) and rs2_val==dnorm(0x5fa16a5368858d8c) and rs3_val==dnorm(0x4298cd2b1c8952cf) | Multiplicand Exponent = 91, Addend exponent = 42 --> Values in the range [-(2*p + 1) , (p + 1)]
    ? 'fs1 == 0 and fe1 == 0x5f8 and fm1 == 0xe759ff97b7507 and fs2 == 0 and fe2 ==
      0x5fa and fm2 == 0x16a5368858d8c and fs3 == 0 and fe3 == 0x428 and fm3 == 0x8cd2b1c8952cf
      and rm_val == 0  #nosat'
    : 1 #  rs1_val==dnorm(0x5f8e759ff97b7507) and rs2_val==dnorm(0x5fa16a5368858d8c) and rs3_val==dnorm(0x4288cd2b1c8952cf) | Multiplicand Exponent = 91, Addend exponent = 41 --> Values in the range [-(2*p + 1) , (p + 1)]
    ? 'fs1 == 0 and fe1 == 0x5f8 and fm1 == 0xe759ff97b7507 and fs2 == 0 and fe2 ==
      0x5fa and fm2 == 0x16a5368858d8c and fs3 == 0 and fe3 == 0x427 and fm3 == 0x8cd2b1c8952cf
      and rm_val == 0  #nosat'
    : 1 #  rs1_val==dnorm(0x5f8e759ff97b7507) and rs2_val==dnorm(0x5fa16a5368858d8c) and rs3_val==dnorm(0x4278cd2b1c8952cf) | Multiplicand Exponent = 91, Addend exponent = 40 --> Values in the range [-(2*p + 1) , (p + 1)]
    ? 'fs1 == 0 and fe1 == 0x5f8 and fm1 == 0xe759ff97b7507 and fs2 == 0 and fe2 ==
      0x5fa and fm2 == 0x16a5368858d8c and fs3 == 0 and fe3 == 0x426 and fm3 == 0x8cd2b1c8952cf
      and rm_val == 0  #nosat'
    : 1 #  rs1_val==dnorm(0x5f8e759ff97b7507) and rs2_val==dnorm(0x5fa16a5368858d8c) and rs3_val==dnorm(0x4268cd2b1c8952cf) | Multiplicand Exponent = 91, Addend exponent = 39 --> Values in the range [-(2*p + 1) , (p + 1)]
    ? 'fs1 == 0 and fe1 == 0x5f8 and fm1 == 0xe759ff97b7507 and fs2 == 0 and fe2 ==
      0x5fa and fm2 == 0x16a5368858d8c and fs3 == 0 and fe3 == 0x425 and fm3 == 0x8cd2b1c8952cf
      and rm_val == 0  #nosat'
    : 1 #  rs1_val==dnorm(0x5f8e759ff97b7507) and rs2_val==dnorm(0x5fa16a5368858d8c) and rs3_val==dnorm(0x4258cd2b1c8952cf) | Multiplicand Exponent = 91, Addend exponent = 38 --> Values in the range [-(2*p + 1) , (p + 1)]
    ? 'fs1 == 0 and fe1 == 0x5f8 and fm1 == 0xe759ff97b7507 and fs2 == 0 and fe2 ==
      0x5fa and fm2 == 0x16a5368858d8c and fs3 == 0 and fe3 == 0x424 and fm3 == 0x8cd2b1c8952cf
      and rm_val == 0  #nosat'
    : 1 #  rs1_val==dnorm(0x5f8e759ff97b7507) and rs2_val==dnorm(0x5fa16a5368858d8c) and rs3_val==dnorm(0x4248cd2b1c8952cf) | Multiplicand Exponent = 91, Addend exponent = 37 --> Values in the range [-(2*p + 1) , (p + 1)]
    ? 'fs1 == 0 and fe1 == 0x5f8 and fm1 == 0xe759ff97b7507 and fs2 == 0 and fe2 ==
      0x5fa and fm2 == 0x16a5368858d8c and fs3 == 0 and fe3 == 0x423 and fm3 == 0x8cd2b1c8952cf
      and rm_val == 0  #nosat'
    : 1 #  rs1_val==dnorm(0x5f8e759ff97b7507) and rs2_val==dnorm(0x5fa16a5368858d8c) and rs3_val==dnorm(0x4238cd2b1c8952cf) | Multiplicand Exponent = 91, Addend exponent = 36 --> Values in the range [-(2*p + 1) , (p + 1)]
    ? 'fs1 == 0 and fe1 == 0x5f8 and fm1 == 0xe759ff97b7507 and fs2 == 0 and fe2 ==
      0x5fa and fm2 == 0x16a5368858d8c and fs3 == 0 and fe3 == 0x422 and fm3 == 0x8cd2b1c8952cf
      and rm_val == 0  #nosat'
    : 1 #  rs1_val==dnorm(0x5f8e759ff97b7507) and rs2_val==dnorm(0x5fa16a5368858d8c) and rs3_val==dnorm(0x4228cd2b1c8952cf) | Multiplicand Exponent = 91, Addend exponent = 35 --> Values in the range [-(2*p + 1) , (p + 1)]
    ? 'fs1 == 0 and fe1 == 0x5f8 and fm1 == 0xe759ff97b7507 and fs2 == 0 and fe2 ==
      0x5fa and fm2 == 0x16a5368858d8c and fs3 == 0 and fe3 == 0x421 and fm3 == 0x8cd2b1c8952cf
      and rm_val == 0  #nosat'
    : 1 #  rs1_val==dnorm(0x5f8e759ff97b7507) and rs2_val==dnorm(0x5fa16a5368858d8c) and rs3_val==dnorm(0x4218cd2b1c8952cf) | Multiplicand Exponent = 91, Addend exponent = 34 --> Values in the range [-(2*p + 1) , (p + 1)]
    ? 'fs1 == 0 and fe1 == 0x5f8 and fm1 == 0xe759ff97b7507 and fs2 == 0 and fe2 ==
      0x5fa and fm2 == 0x16a5368858d8c and fs3 == 0 and fe3 == 0x420 and fm3 == 0x8cd2b1c8952cf
      and rm_val == 0  #nosat'
    : 1 #  rs1_val==dnorm(0x5f8e759ff97b7507) and rs2_val==dnorm(0x5fa16a5368858d8c) and rs3_val==dnorm(0x4208cd2b1c8952cf) | Multiplicand Exponent = 91, Addend exponent = 33 --> Values in the range [-(2*p + 1) , (p + 1)]
    ? 'fs1 == 0 and fe1 == 0x5f8 and fm1 == 0xe759ff97b7507 and fs2 == 0 and fe2 ==
      0x5fa and fm2 == 0x16a5368858d8c and fs3 == 0 and fe3 == 0x41f and fm3 == 0x8cd2b1c8952cf
      and rm_val == 0  #nosat'
    : 1 #  rs1_val==dnorm(0x5f8e759ff97b7507) and rs2_val==dnorm(0x5fa16a5368858d8c) and rs3_val==dnorm(0x41f8cd2b1c8952cf) | Multiplicand Exponent = 91, Addend exponent = 32 --> Values in the range [-(2*p + 1) , (p + 1)]
    ? 'fs1 == 0 and fe1 == 0x5f8 and fm1 == 0xe759ff97b7507 and fs2 == 0 and fe2 ==
      0x5fa and fm2 == 0x16a5368858d8c and fs3 == 0 and fe3 == 0x41e and fm3 == 0x8cd2b1c8952cf
      and rm_val == 0  #nosat'
    : 1 #  rs1_val==dnorm(0x5f8e759ff97b7507) and rs2_val==dnorm(0x5fa16a5368858d8c) and rs3_val==dnorm(0x41e8cd2b1c8952cf) | Multiplicand Exponent = 91, Addend exponent = 31 --> Values in the range [-(2*p + 1) , (p + 1)]
    ? 'fs1 == 0 and fe1 == 0x5f8 and fm1 == 0xe759ff97b7507 and fs2 == 0 and fe2 ==
      0x5fa and fm2 == 0x16a5368858d8c and fs3 == 0 and fe3 == 0x41d and fm3 == 0x8cd2b1c8952cf
      and rm_val == 0  #nosat'
    : 1 #  rs1_val==dnorm(0x5f8e759ff97b7507) and rs2_val==dnorm(0x5fa16a5368858d8c) and rs3_val==dnorm(0x41d8cd2b1c8952cf) | Multiplicand Exponent = 91, Addend exponent = 30 --> Values in the range [-(2*p + 1) , (p + 1)]
    ? 'fs1 == 0 and fe1 == 0x5f8 and fm1 == 0xe759ff97b7507 and fs2 == 0 and fe2 ==
      0x5fa and fm2 == 0x16a5368858d8c and fs3 == 0 and fe3 == 0x41c and fm3 == 0x8cd2b1c8952cf
      and rm_val == 0  #nosat'
    : 1 #  rs1_val==dnorm(0x5f8e759ff97b7507) and rs2_val==dnorm(0x5fa16a5368858d8c) and rs3_val==dnorm(0x41c8cd2b1c8952cf) | Multiplicand Exponent = 91, Addend exponent = 29 --> Values in the range [-(2*p + 1) , (p + 1)]
    ? 'fs1 == 0 and fe1 == 0x5f8 and fm1 == 0xe759ff97b7507 and fs2 == 0 and fe2 ==
      0x5fa and fm2 == 0x16a5368858d8c and fs3 == 0 and fe3 == 0x41b and fm3 == 0x8cd2b1c8952cf
      and rm_val == 0  #nosat'
    : 1 #  rs1_val==dnorm(0x5f8e759ff97b7507) and rs2_val==dnorm(0x5fa16a5368858d8c) and rs3_val==dnorm(0x41b8cd2b1c8952cf) | Multiplicand Exponent = 91, Addend exponent = 28 --> Values in the range [-(2*p + 1) , (p + 1)]
    ? 'fs1 == 0 and fe1 == 0x5f8 and fm1 == 0xe759ff97b7507 and fs2 == 0 and fe2 ==
      0x5fa and fm2 == 0x16a5368858d8c and fs3 == 0 and fe3 == 0x41a and fm3 == 0x8cd2b1c8952cf
      and rm_val == 0  #nosat'
    : 1 #  rs1_val==dnorm(0x5f8e759ff97b7507) and rs2_val==dnorm(0x5fa16a5368858d8c) and rs3_val==dnorm(0x41a8cd2b1c8952cf) | Multiplicand Exponent = 91, Addend exponent = 27 --> Values in the range [-(2*p + 1) , (p + 1)]
    ? 'fs1 == 0 and fe1 == 0x5f8 and fm1 == 0xe759ff97b7507 and fs2 == 0 and fe2 ==
      0x5fa and fm2 == 0x16a5368858d8c and fs3 == 0 and fe3 == 0x419 and fm3 == 0x8cd2b1c8952cf
      and rm_val == 0  #nosat'
    : 1 #  rs1_val==dnorm(0x5f8e759ff97b7507) and rs2_val==dnorm(0x5fa16a5368858d8c) and rs3_val==dnorm(0x4198cd2b1c8952cf) | Multiplicand Exponent = 91, Addend exponent = 26 --> Values in the range [-(2*p + 1) , (p + 1)]
    ? 'fs1 == 0 and fe1 == 0x5f8 and fm1 == 0xe759ff97b7507 and fs2 == 0 and fe2 ==
      0x5fa and fm2 == 0x16a5368858d8c and fs3 == 0 and fe3 == 0x418 and fm3 == 0x8cd2b1c8952cf
      and rm_val == 0  #nosat'
    : 1 #  rs1_val==dnorm(0x5f8e759ff97b7507) and rs2_val==dnorm(0x5fa16a5368858d8c) and rs3_val==dnorm(0x4188cd2b1c8952cf) | Multiplicand Exponent = 91, Addend exponent = 25 --> Values in the range [-(2*p + 1) , (p + 1)]
    ? 'fs1 == 0 and fe1 == 0x5f8 and fm1 == 0xe759ff97b7507 and fs2 == 0 and fe2 ==
      0x5fa and fm2 == 0x16a5368858d8c and fs3 == 0 and fe3 == 0x417 and fm3 == 0x8cd2b1c8952cf
      and rm_val == 0  #nosat'
    : 1 #  rs1_val==dnorm(0x5f8e759ff97b7507) and rs2_val==dnorm(0x5fa16a5368858d8c) and rs3_val==dnorm(0x4178cd2b1c8952cf) | Multiplicand Exponent = 91, Addend exponent = 24 --> Values in the range [-(2*p + 1) , (p + 1)]
    ? 'fs1 == 0 and fe1 == 0x5f8 and fm1 == 0xe759ff97b7507 and fs2 == 0 and fe2 ==
      0x5fa and fm2 == 0x16a5368858d8c and fs3 == 0 and fe3 == 0x416 and fm3 == 0x8cd2b1c8952cf
      and rm_val == 0  #nosat'
    : 1 #  rs1_val==dnorm(0x5f8e759ff97b7507) and rs2_val==dnorm(0x5fa16a5368858d8c) and rs3_val==dnorm(0x4168cd2b1c8952cf) | Multiplicand Exponent = 91, Addend exponent = 23 --> Values in the range [-(2*p + 1) , (p + 1)]
    ? 'fs1 == 0 and fe1 == 0x5f8 and fm1 == 0xe759ff97b7507 and fs2 == 0 and fe2 ==
      0x5fa and fm2 == 0x16a5368858d8c and fs3 == 0 and fe3 == 0x415 and fm3 == 0x8cd2b1c8952cf
      and rm_val == 0  #nosat'
    : 1 #  rs1_val==dnorm(0x5f8e759ff97b7507) and rs2_val==dnorm(0x5fa16a5368858d8c) and rs3_val==dnorm(0x4158cd2b1c8952cf) | Multiplicand Exponent = 91, Addend exponent = 22 --> Values in the range [-(2*p + 1) , (p + 1)]
    ? 'fs1 == 0 and fe1 == 0x5f8 and fm1 == 0xe759ff97b7507 and fs2 == 0 and fe2 ==
      0x5fa and fm2 == 0x16a5368858d8c and fs3 == 0 and fe3 == 0x414 and fm3 == 0x8cd2b1c8952cf
      and rm_val == 0  #nosat'
    : 1 #  rs1_val==dnorm(0x5f8e759ff97b7507) and rs2_val==dnorm(0x5fa16a5368858d8c) and rs3_val==dnorm(0x4148cd2b1c8952cf) | Multiplicand Exponent = 91, Addend exponent = 21 --> Values in the range [-(2*p + 1) , (p + 1)]
    ? 'fs1 == 0 and fe1 == 0x5f8 and fm1 == 0xe759ff97b7507 and fs2 == 0 and fe2 ==
      0x5fa and fm2 == 0x16a5368858d8c and fs3 == 0 and fe3 == 0x413 and fm3 == 0x8cd2b1c8952cf
      and rm_val == 0  #nosat'
    : 1 #  rs1_val==dnorm(0x5f8e759ff97b7507) and rs2_val==dnorm(0x5fa16a5368858d8c) and rs3_val==dnorm(0x4138cd2b1c8952cf) | Multiplicand Exponent = 91, Addend exponent = 20 --> Values in the range [-(2*p + 1) , (p + 1)]
    ? 'fs1 == 0 and fe1 == 0x5f8 and fm1 == 0xe759ff97b7507 and fs2 == 0 and fe2 ==
      0x5fa and fm2 == 0x16a5368858d8c and fs3 == 0 and fe3 == 0x412 and fm3 == 0x8cd2b1c8952cf
      and rm_val == 0  #nosat'
    : 1 #  rs1_val==dnorm(0x5f8e759ff97b7507) and rs2_val==dnorm(0x5fa16a5368858d8c) and rs3_val==dnorm(0x4128cd2b1c8952cf) | Multiplicand Exponent = 91, Addend exponent = 19 --> Values in the range [-(2*p + 1) , (p + 1)]
    ? 'fs1 == 0 and fe1 == 0x5f8 and fm1 == 0xe759ff97b7507 and fs2 == 0 and fe2 ==
      0x5fa and fm2 == 0x16a5368858d8c and fs3 == 0 and fe3 == 0x411 and fm3 == 0x8cd2b1c8952cf
      and rm_val == 0  #nosat'
    : 1 #  rs1_val==dnorm(0x5f8e759ff97b7507) and rs2_val==dnorm(0x5fa16a5368858d8c) and rs3_val==dnorm(0x4118cd2b1c8952cf) | Multiplicand Exponent = 91, Addend exponent = 18 --> Values in the range [-(2*p + 1) , (p + 1)]
    ? 'fs1 == 0 and fe1 == 0x5f8 and fm1 == 0xe759ff97b7507 and fs2 == 0 and fe2 ==
      0x5fa and fm2 == 0x16a5368858d8c and fs3 == 0 and fe3 == 0x410 and fm3 == 0x8cd2b1c8952cf
      and rm_val == 0  #nosat'
    : 1 #  rs1_val==dnorm(0x5f8e759ff97b7507) and rs2_val==dnorm(0x5fa16a5368858d8c) and rs3_val==dnorm(0x4108cd2b1c8952cf) | Multiplicand Exponent = 91, Addend exponent = 17 --> Values in the range [-(2*p + 1) , (p + 1)]
    ? 'fs1 == 0 and fe1 == 0x5f8 and fm1 == 0xe759ff97b7507 and fs2 == 0 and fe2 ==
      0x5fa and fm2 == 0x16a5368858d8c and fs3 == 0 and fe3 == 0x40f and fm3 == 0x8cd2b1c8952cf
      and rm_val == 0  #nosat'
    : 1 #  rs1_val==dnorm(0x5f8e759ff97b7507) and rs2_val==dnorm(0x5fa16a5368858d8c) and rs3_val==dnorm(0x40f8cd2b1c8952cf) | Multiplicand Exponent = 91, Addend exponent = 16 --> Values in the range [-(2*p + 1) , (p + 1)]
    ? 'fs1 == 0 and fe1 == 0x5f8 and fm1 == 0xe759ff97b7507 and fs2 == 0 and fe2 ==
      0x5fa and fm2 == 0x16a5368858d8c and fs3 == 0 and fe3 == 0x40e and fm3 == 0x8cd2b1c8952cf
      and rm_val == 0  #nosat'
    : 1 #  rs1_val==dnorm(0x5f8e759ff97b7507) and rs2_val==dnorm(0x5fa16a5368858d8c) and rs3_val==dnorm(0x40e8cd2b1c8952cf) | Multiplicand Exponent = 91, Addend exponent = 15 --> Values in the range [-(2*p + 1) , (p + 1)]
    ? 'fs1 == 0 and fe1 == 0x5f8 and fm1 == 0xe759ff97b7507 and fs2 == 0 and fe2 ==
      0x5fa and fm2 == 0x16a5368858d8c and fs3 == 0 and fe3 == 0x40d and fm3 == 0x8cd2b1c8952cf
      and rm_val == 0  #nosat'
    : 1 #  rs1_val==dnorm(0x5f8e759ff97b7507) and rs2_val==dnorm(0x5fa16a5368858d8c) and rs3_val==dnorm(0x40d8cd2b1c8952cf) | Multiplicand Exponent = 91, Addend exponent = 14 --> Values in the range [-(2*p + 1) , (p + 1)]
    ? 'fs1 == 0 and fe1 == 0x5f8 and fm1 == 0xe759ff97b7507 and fs2 == 0 and fe2 ==
      0x5fa and fm2 == 0x16a5368858d8c and fs3 == 0 and fe3 == 0x40c and fm3 == 0x8cd2b1c8952cf
      and rm_val == 0  #nosat'
    : 1 #  rs1_val==dnorm(0x5f8e759ff97b7507) and rs2_val==dnorm(0x5fa16a5368858d8c) and rs3_val==dnorm(0x40c8cd2b1c8952cf) | Multiplicand Exponent = 91, Addend exponent = 13 --> Values in the range [-(2*p + 1) , (p + 1)]
    ? 'fs1 == 0 and fe1 == 0x5f8 and fm1 == 0xe759ff97b7507 and fs2 == 0 and fe2 ==
      0x5fa and fm2 == 0x16a5368858d8c and fs3 == 0 and fe3 == 0x40b and fm3 == 0x8cd2b1c8952cf
      and rm_val == 0  #nosat'
    : 1 #  rs1_val==dnorm(0x5f8e759ff97b7507) and rs2_val==dnorm(0x5fa16a5368858d8c) and rs3_val==dnorm(0x40b8cd2b1c8952cf) | Multiplicand Exponent = 91, Addend exponent = 12 --> Values in the range [-(2*p + 1) , (p + 1)]
    ? 'fs1 == 0 and fe1 == 0x5f8 and fm1 == 0xe759ff97b7507 and fs2 == 0 and fe2 ==
      0x5fa and fm2 == 0x16a5368858d8c and fs3 == 0 and fe3 == 0x40a and fm3 == 0x8cd2b1c8952cf
      and rm_val == 0  #nosat'
    : 1 #  rs1_val==dnorm(0x5f8e759ff97b7507) and rs2_val==dnorm(0x5fa16a5368858d8c) and rs3_val==dnorm(0x40a8cd2b1c8952cf) | Multiplicand Exponent = 91, Addend exponent = 11 --> Values in the range [-(2*p + 1) , (p + 1)]
    ? 'fs1 == 0 and fe1 == 0x5f8 and fm1 == 0xe759ff97b7507 and fs2 == 0 and fe2 ==
      0x5fa and fm2 == 0x16a5368858d8c and fs3 == 0 and fe3 == 0x409 and fm3 == 0x8cd2b1c8952cf
      and rm_val == 0  #nosat'
    : 1 #  rs1_val==dnorm(0x5f8e759ff97b7507) and rs2_val==dnorm(0x5fa16a5368858d8c) and rs3_val==dnorm(0x4098cd2b1c8952cf) | Multiplicand Exponent = 91, Addend exponent = 10 --> Values in the range [-(2*p + 1) , (p + 1)]
    ? 'fs1 == 0 and fe1 == 0x5f8 and fm1 == 0xe759ff97b7507 and fs2 == 0 and fe2 ==
      0x5fa and fm2 == 0x16a5368858d8c and fs3 == 0 and fe3 == 0x408 and fm3 == 0x8cd2b1c8952cf
      and rm_val == 0  #nosat'
    : 1 #  rs1_val==dnorm(0x5f8e759ff97b7507) and rs2_val==dnorm(0x5fa16a5368858d8c) and rs3_val==dnorm(0x4088cd2b1c8952cf) | Multiplicand Exponent = 91, Addend exponent = 9 --> Values in the range [-(2*p + 1) , (p + 1)]
    ? 'fs1 == 0 and fe1 == 0x5f8 and fm1 == 0xe759ff97b7507 and fs2 == 0 and fe2 ==
      0x5fa and fm2 == 0x16a5368858d8c and fs3 == 0 and fe3 == 0x407 and fm3 == 0x8cd2b1c8952cf
      and rm_val == 0  #nosat'
    : 1 #  rs1_val==dnorm(0x5f8e759ff97b7507) and rs2_val==dnorm(0x5fa16a5368858d8c) and rs3_val==dnorm(0x4078cd2b1c8952cf) | Multiplicand Exponent = 91, Addend exponent = 8 --> Values in the range [-(2*p + 1) , (p + 1)]
    ? 'fs1 == 0 and fe1 == 0x5f8 and fm1 == 0xe759ff97b7507 and fs2 == 0 and fe2 ==
      0x5fa and fm2 == 0x16a5368858d8c and fs3 == 0 and fe3 == 0x406 and fm3 == 0x8cd2b1c8952cf
      and rm_val == 0  #nosat'
    : 1 #  rs1_val==dnorm(0x5f8e759ff97b7507) and rs2_val==dnorm(0x5fa16a5368858d8c) and rs3_val==dnorm(0x4068cd2b1c8952cf) | Multiplicand Exponent = 91, Addend exponent = 7 --> Values in the range [-(2*p + 1) , (p + 1)]
    ? 'fs1 == 0 and fe1 == 0x5f8 and fm1 == 0xe759ff97b7507 and fs2 == 0 and fe2 ==
      0x5fa and fm2 == 0x16a5368858d8c and fs3 == 0 and fe3 == 0x405 and fm3 == 0x8cd2b1c8952cf
      and rm_val == 0  #nosat'
    : 1 #  rs1_val==dnorm(0x5f8e759ff97b7507) and rs2_val==dnorm(0x5fa16a5368858d8c) and rs3_val==dnorm(0x4058cd2b1c8952cf) | Multiplicand Exponent = 91, Addend exponent = 6 --> Values in the range [-(2*p + 1) , (p + 1)]
    ? 'fs1 == 0 and fe1 == 0x5f8 and fm1 == 0xe759ff97b7507 and fs2 == 0 and fe2 ==
      0x5fa and fm2 == 0x16a5368858d8c and fs3 == 0 and fe3 == 0x404 and fm3 == 0x8cd2b1c8952cf
      and rm_val == 0  #nosat'
    : 1 #  rs1_val==dnorm(0x5f8e759ff97b7507) and rs2_val==dnorm(0x5fa16a5368858d8c) and rs3_val==dnorm(0x4048cd2b1c8952cf) | Multiplicand Exponent = 91, Addend exponent = 5 --> Values in the range [-(2*p + 1) , (p + 1)]
    ? 'fs1 == 0 and fe1 == 0x5f8 and fm1 == 0xe759ff97b7507 and fs2 == 0 and fe2 ==
      0x5fa and fm2 == 0x16a5368858d8c and fs3 == 0 and fe3 == 0x403 and fm3 == 0x8cd2b1c8952cf
      and rm_val == 0  #nosat'
    : 1 #  rs1_val==dnorm(0x5f8e759ff97b7507) and rs2_val==dnorm(0x5fa16a5368858d8c) and rs3_val==dnorm(0x4038cd2b1c8952cf) | Multiplicand Exponent = 91, Addend exponent = 4 --> Values in the range [-(2*p + 1) , (p + 1)]
    ? 'fs1 == 0 and fe1 == 0x5f8 and fm1 == 0xe759ff97b7507 and fs2 == 0 and fe2 ==
      0x5fa and fm2 == 0x16a5368858d8c and fs3 == 0 and fe3 == 0x402 and fm3 == 0x8cd2b1c8952cf
      and rm_val == 0  #nosat'
    : 1 #  rs1_val==dnorm(0x5f8e759ff97b7507) and rs2_val==dnorm(0x5fa16a5368858d8c) and rs3_val==dnorm(0x4028cd2b1c8952cf) | Multiplicand Exponent = 91, Addend exponent = 3 --> Values in the range [-(2*p + 1) , (p + 1)]
    ? 'fs1 == 0 and fe1 == 0x5f8 and fm1 == 0xe759ff97b7507 and fs2 == 0 and fe2 ==
      0x5fa and fm2 == 0x16a5368858d8c and fs3 == 0 and fe3 == 0x401 and fm3 == 0x8cd2b1c8952cf
      and rm_val == 0  #nosat'
    : 1 #  rs1_val==dnorm(0x5f8e759ff97b7507) and rs2_val==dnorm(0x5fa16a5368858d8c) and rs3_val==dnorm(0x4018cd2b1c8952cf) | Multiplicand Exponent = 91, Addend exponent = 2 --> Values in the range [-(2*p + 1) , (p + 1)]
    ? 'fs1 == 0 and fe1 == 0x5f8 and fm1 == 0xe759ff97b7507 and fs2 == 0 and fe2 ==
      0x5fa and fm2 == 0x16a5368858d8c and fs3 == 0 and fe3 == 0x400 and fm3 == 0x8cd2b1c8952cf
      and rm_val == 0  #nosat'
    : 1 #  rs1_val==dnorm(0x5f8e759ff97b7507) and rs2_val==dnorm(0x5fa16a5368858d8c) and rs3_val==dnorm(0x4008cd2b1c8952cf) | Multiplicand Exponent = 91, Addend exponent = 1 --> Values in the range [-(2*p + 1) , (p + 1)]
    ? 'fs1 == 0 and fe1 == 0x5f8 and fm1 == 0xe759ff97b7507 and fs2 == 0 and fe2 ==
      0x5fa and fm2 == 0x16a5368858d8c and fs3 == 0 and fe3 == 0x3ff and fm3 == 0x8cd2b1c8952cf
      and rm_val == 0  #nosat'
    : 1 #  rs1_val==dnorm(0x5f8e759ff97b7507) and rs2_val==dnorm(0x5fa16a5368858d8c) and rs3_val==dnorm(0x3ff8cd2b1c8952cf) | Multiplicand Exponent = 91, Addend exponent = 0 --> Values in the range [-(2*p + 1) , (p + 1)]
    ? 'fs1 == 0 and fe1 == 0x5f8 and fm1 == 0xe759ff97b7507 and fs2 == 0 and fe2 ==
      0x5fa and fm2 == 0x16a5368858d8c and fs3 == 0 and fe3 == 0x3fe and fm3 == 0x8cd2b1c8952cf
      and rm_val == 0  #nosat'
    : 1 #  rs1_val==dnorm(0x5f8e759ff97b7507) and rs2_val==dnorm(0x5fa16a5368858d8c) and rs3_val==dnorm(0x3fe8cd2b1c8952cf) | Multiplicand Exponent = 91, Addend exponent = -1 --> Values in the range [-(2*p + 1) , (p + 1)]
    ? 'fs1 == 0 and fe1 == 0x5f8 and fm1 == 0xe759ff97b7507 and fs2 == 0 and fe2 ==
      0x5fa and fm2 == 0x16a5368858d8c and fs3 == 0 and fe3 == 0x3fd and fm3 == 0x8cd2b1c8952cf
      and rm_val == 0  #nosat'
    : 1 #  rs1_val==dnorm(0x5f8e759ff97b7507) and rs2_val==dnorm(0x5fa16a5368858d8c) and rs3_val==dnorm(0x3fd8cd2b1c8952cf) | Multiplicand Exponent = 91, Addend exponent = -2 --> Values in the range [-(2*p + 1) , (p + 1)]
    ? 'fs1 == 0 and fe1 == 0x5f8 and fm1 == 0xe759ff97b7507 and fs2 == 0 and fe2 ==
      0x5fa and fm2 == 0x16a5368858d8c and fs3 == 0 and fe3 == 0x3fc and fm3 == 0x8cd2b1c8952cf
      and rm_val == 0  #nosat'
    : 1 #  rs1_val==dnorm(0x5f8e759ff97b7507) and rs2_val==dnorm(0x5fa16a5368858d8c) and rs3_val==dnorm(0x3fc8cd2b1c8952cf) | Multiplicand Exponent = 91, Addend exponent = -3 --> Values in the range [-(2*p + 1) , (p + 1)]
    ? 'fs1 == 0 and fe1 == 0x5f8 and fm1 == 0xe759ff97b7507 and fs2 == 0 and fe2 ==
      0x5fa and fm2 == 0x16a5368858d8c and fs3 == 0 and fe3 == 0x3fb and fm3 == 0x8cd2b1c8952cf
      and rm_val == 0  #nosat'
    : 1 #  rs1_val==dnorm(0x5f8e759ff97b7507) and rs2_val==dnorm(0x5fa16a5368858d8c) and rs3_val==dnorm(0x3fb8cd2b1c8952cf) | Multiplicand Exponent = 91, Addend exponent = -4 --> Values in the range [-(2*p + 1) , (p + 1)]
    ? 'fs1 == 0 and fe1 == 0x5f8 and fm1 == 0xe759ff97b7507 and fs2 == 0 and fe2 ==
      0x5fa and fm2 == 0x16a5368858d8c and fs3 == 0 and fe3 == 0x3fa and fm3 == 0x8cd2b1c8952cf
      and rm_val == 0  #nosat'
    : 1 #  rs1_val==dnorm(0x5f8e759ff97b7507) and rs2_val==dnorm(0x5fa16a5368858d8c) and rs3_val==dnorm(0x3fa8cd2b1c8952cf) | Multiplicand Exponent = 91, Addend exponent = -5 --> Values in the range [-(2*p + 1) , (p + 1)]
    ? 'fs1 == 0 and fe1 == 0x5f8 and fm1 == 0xe759ff97b7507 and fs2 == 0 and fe2 ==
      0x5fa and fm2 == 0x16a5368858d8c and fs3 == 0 and fe3 == 0x3f9 and fm3 == 0x8cd2b1c8952cf
      and rm_val == 0  #nosat'
    : 1 #  rs1_val==dnorm(0x5f8e759ff97b7507) and rs2_val==dnorm(0x5fa16a5368858d8c) and rs3_val==dnorm(0x3f98cd2b1c8952cf) | Multiplicand Exponent = 91, Addend exponent = -6 --> Values in the range [-(2*p + 1) , (p + 1)]
    ? 'fs1 == 0 and fe1 == 0x5f8 and fm1 == 0xe759ff97b7507 and fs2 == 0 and fe2 ==
      0x5fa and fm2 == 0x16a5368858d8c and fs3 == 0 and fe3 == 0x3f8 and fm3 == 0x8cd2b1c8952cf
      and rm_val == 0  #nosat'
    : 1 #  rs1_val==dnorm(0x5f8e759ff97b7507) and rs2_val==dnorm(0x5fa16a5368858d8c) and rs3_val==dnorm(0x3f88cd2b1c8952cf) | Multiplicand Exponent = 91, Addend exponent = -7 --> Values in the range [-(2*p + 1) , (p + 1)]
    ? 'fs1 == 0 and fe1 == 0x5f8 and fm1 == 0xe759ff97b7507 and fs2 == 0 and fe2 ==
      0x5fa and fm2 == 0x16a5368858d8c and fs3 == 0 and fe3 == 0x3f7 and fm3 == 0x8cd2b1c8952cf
      and rm_val == 0  #nosat'
    : 1 #  rs1_val==dnorm(0x5f8e759ff97b7507) and rs2_val==dnorm(0x5fa16a5368858d8c) and rs3_val==dnorm(0x3f78cd2b1c8952cf) | Multiplicand Exponent = 91, Addend exponent = -8 --> Values in the range [-(2*p + 1) , (p + 1)]
    ? 'fs1 == 0 and fe1 == 0x5f8 and fm1 == 0xe759ff97b7507 and fs2 == 0 and fe2 ==
      0x5fa and fm2 == 0x16a5368858d8c and fs3 == 0 and fe3 == 0x3f6 and fm3 == 0x8cd2b1c8952cf
      and rm_val == 0  #nosat'
    : 1 #  rs1_val==dnorm(0x5f8e759ff97b7507) and rs2_val==dnorm(0x5fa16a5368858d8c) and rs3_val==dnorm(0x3f68cd2b1c8952cf) | Multiplicand Exponent = 91, Addend exponent = -9 --> Values in the range [-(2*p + 1) , (p + 1)]
    ? 'fs1 == 0 and fe1 == 0x5f8 and fm1 == 0xe759ff97b7507 and fs2 == 0 and fe2 ==
      0x5fa and fm2 == 0x16a5368858d8c and fs3 == 0 and fe3 == 0x3f5 and fm3 == 0x8cd2b1c8952cf
      and rm_val == 0  #nosat'
    : 1 #  rs1_val==dnorm(0x5f8e759ff97b7507) and rs2_val==dnorm(0x5fa16a5368858d8c) and rs3_val==dnorm(0x3f58cd2b1c8952cf) | Multiplicand Exponent = 91, Addend exponent = -10 --> Values in the range [-(2*p + 1) , (p + 1)]
    ? 'fs1 == 0 and fe1 == 0x5f8 and fm1 == 0xe759ff97b7507 and fs2 == 0 and fe2 ==
      0x5fa and fm2 == 0x16a5368858d8c and fs3 == 0 and fe3 == 0x3f4 and fm3 == 0x8cd2b1c8952cf
      and rm_val == 0  #nosat'
    : 1 #  rs1_val==dnorm(0x5f8e759ff97b7507) and rs2_val==dnorm(0x5fa16a5368858d8c) and rs3_val==dnorm(0x3f48cd2b1c8952cf) | Multiplicand Exponent = 91, Addend exponent = -11 --> Values in the range [-(2*p + 1) , (p + 1)]
    ? 'fs1 == 0 and fe1 == 0x5f8 and fm1 == 0xe759ff97b7507 and fs2 == 0 and fe2 ==
      0x5fa and fm2 == 0x16a5368858d8c and fs3 == 0 and fe3 == 0x3f3 and fm3 == 0x8cd2b1c8952cf
      and rm_val == 0  #nosat'
    : 1 #  rs1_val==dnorm(0x5f8e759ff97b7507) and rs2_val==dnorm(0x5fa16a5368858d8c) and rs3_val==dnorm(0x3f38cd2b1c8952cf) | Multiplicand Exponent = 91, Addend exponent = -12 --> Values in the range [-(2*p + 1) , (p + 1)]
    ? 'fs1 == 0 and fe1 == 0x5f8 and fm1 == 0xe759ff97b7507 and fs2 == 0 and fe2 ==
      0x5fa and fm2 == 0x16a5368858d8c and fs3 == 0 and fe3 == 0x3f2 and fm3 == 0x8cd2b1c8952cf
      and rm_val == 0  #nosat'
    : 1 #  rs1_val==dnorm(0x5f8e759ff97b7507) and rs2_val==dnorm(0x5fa16a5368858d8c) and rs3_val==dnorm(0x3f28cd2b1c8952cf) | Multiplicand Exponent = 91, Addend exponent = -13 --> Values in the range [-(2*p + 1) , (p + 1)]
    coverage: 160/160
  total_coverage: 301/301
