---
fmul_b7:
  config:
  - check ISA:=regex(.*I.*F.*)
  op_comb:
    rs1 != rs2  and rs1 != rd and rs2 != rd: 158
    rs1 == rd != rs2: 1
    rs1 == rs2 != rd: 1
    rs1 == rs2 == rd: 1
    rs2 == rd != rs1: 1
    coverage: 5/5
  opcode:
    fmul.s: 162
    coverage: 1/1
  rd:
    f0: 1
    f1: 1
    f10: 1
    f11: 1
    f12: 1
    f13: 1
    f14: 1
    f15: 1
    f16: 1
    f17: 1
    f18: 1
    f19: 1
    f2: 1
    f20: 1
    f21: 1
    f22: 1
    f23: 1
    f24: 1
    f25: 1
    f26: 1
    f27: 1
    f28: 1
    f29: 1
    f3: 1
    f30: 1
    f31: 131
    f4: 1
    f5: 1
    f6: 1
    f7: 1
    f8: 1
    f9: 1
    coverage: 32/32
  rs1:
    f0: 1
    f1: 1
    f10: 1
    f11: 1
    f12: 1
    f13: 1
    f14: 1
    f15: 1
    f16: 1
    f17: 1
    f18: 1
    f19: 1
    f2: 1
    f20: 1
    f21: 1
    f22: 1
    f23: 1
    f24: 1
    f25: 1
    f26: 1
    f27: 1
    f28: 1
    f29: 1
    f3: 1
    f30: 131
    f31: 1
    f4: 1
    f5: 1
    f6: 1
    f7: 1
    f8: 1
    f9: 1
    coverage: 32/32
  rs2:
    f0: 1
    f1: 1
    f10: 1
    f11: 1
    f12: 1
    f13: 1
    f14: 1
    f15: 1
    f16: 1
    f17: 1
    f18: 1
    f19: 1
    f2: 1
    f20: 1
    f21: 1
    f22: 1
    f23: 1
    f24: 1
    f25: 1
    f26: 1
    f27: 1
    f28: 1
    f29: 131
    f3: 1
    f30: 1
    f31: 1
    f4: 1
    f5: 1
    f6: 1
    f7: 1
    f8: 1
    f9: 1
    coverage: 32/32
  val_comb:
    'fs1 == 0 and fe1 == 0xfe and fm1 == 0x378efe and fs2 == 0 and fe2 == 0x00 and fm2 == 0x000000 and rm_val == 3  #nosat': 1  #  rs1_val==fnorm(0x7f378efe) and rs2_val==fzero(0x00000000) | Mask on extra bits ---> 000000000000000000001
    'fs1 == 0 and fe1 == 0xfe and fm1 == 0x089f67 and fs2 == 0 and fe2 == 0x00 and fm2 == 0x000000 and rm_val == 3  #nosat': 1 #  rs1_val==fnorm(0x7f089f67) and rs2_val==fzero(0x00000000) | Mask on extra bits ---> 010000000000000000000
    'fs1 == 0 and fe1 == 0xf8 and fm1 == 0x0e9cab and fs2 == 0 and fe2 == 0x00 and fm2 == 0x000000 and rm_val == 3  #nosat': 1 #  rs1_val==fnorm(0x7c0e9cab) and rs2_val==fzero(0x00000000) | Mask on extra bits ---> 001000000000000000000
    'fs1 == 0 and fe1 == 0xfe and fm1 == 0x3ba101 and fs2 == 0 and fe2 == 0x00 and fm2 == 0x000000 and rm_val == 3  #nosat': 1 #  rs1_val==fnorm(0x7f3ba101) and rs2_val==fzero(0x00000000) | Mask on extra bits ---> 000100000000000000000
    'fs1 == 0 and fe1 == 0xfd and fm1 == 0x1aa55e and fs2 == 0 and fe2 == 0x00 and fm2 == 0x000000 and rm_val == 3  #nosat': 1 #  rs1_val==fnorm(0x7e9aa55e) and rs2_val==fzero(0x00000000) | Mask on extra bits ---> 000010000000000000000
    'fs1 == 0 and fe1 == 0xfc and fm1 == 0x2ccc93 and fs2 == 0 and fe2 == 0x00 and fm2 == 0x000000 and rm_val == 3  #nosat': 1 #  rs1_val==fnorm(0x7e2ccc93) and rs2_val==fzero(0x00000000) | Mask on extra bits ---> 000001000000000000000
    'fs1 == 0 and fe1 == 0xfe and fm1 == 0x123a99 and fs2 == 0 and fe2 == 0x00 and fm2 == 0x000000 and rm_val == 3  #nosat': 1 #  rs1_val==fnorm(0x7f123a99) and rs2_val==fzero(0x00000000) | Mask on extra bits ---> 000000100000000000000
    'fs1 == 0 and fe1 == 0xfe and fm1 == 0x0f285b and fs2 == 0 and fe2 == 0x00 and fm2 == 0x000000 and rm_val == 3  #nosat': 1 #  rs1_val==fnorm(0x7f0f285b) and rs2_val==fzero(0x00000000) | Mask on extra bits ---> 000000010000000000000
    'fs1 == 0 and fe1 == 0xfe and fm1 == 0x38b31c and fs2 == 0 and fe2 == 0x00 and fm2 == 0x000000 and rm_val == 3  #nosat': 1 #  rs1_val==fnorm(0x7f38b31c) and rs2_val==fzero(0x00000000) | Mask on extra bits ---> 000000001000000000000
    'fs1 == 0 and fe1 == 0xfe and fm1 == 0x076f73 and fs2 == 0 and fe2 == 0x00 and fm2 == 0x000000 and rm_val == 3  #nosat': 1 #  rs1_val==fnorm(0x7f076f73) and rs2_val==fzero(0x00000000) | Mask on extra bits ---> 000000000100000000000
    'fs1 == 0 and fe1 == 0xfe and fm1 == 0x086888 and fs2 == 0 and fe2 == 0x00 and fm2 == 0x000000 and rm_val == 3  #nosat': 1 #  rs1_val==fnorm(0x7f086888) and rs2_val==fzero(0x00000000) | Mask on extra bits ---> 000000000010000000000
    'fs1 == 0 and fe1 == 0xfd and fm1 == 0x394394 and fs2 == 0 and fe2 == 0x00 and fm2 == 0x000000 and rm_val == 3  #nosat': 1 #  rs1_val==fnorm(0x7eb94394) and rs2_val==fzero(0x00000000) | Mask on extra bits ---> 000000000001000000000
    'fs1 == 0 and fe1 == 0xfc and fm1 == 0x0a90e5 and fs2 == 0 and fe2 == 0x00 and fm2 == 0x000000 and rm_val == 3  #nosat': 1 #  rs1_val==fnorm(0x7e0a90e5) and rs2_val==fzero(0x00000000) | Mask on extra bits ---> 000000000000100000000
    'fs1 == 0 and fe1 == 0xfd and fm1 == 0x648b04 and fs2 == 0 and fe2 == 0x00 and fm2 == 0x000000 and rm_val == 3  #nosat': 1 #  rs1_val==fnorm(0x7ee48b04) and rs2_val==fzero(0x00000000) | Mask on extra bits ---> 000000000000010000000
    'fs1 == 0 and fe1 == 0xfd and fm1 == 0x296a13 and fs2 == 0 and fe2 == 0x00 and fm2 == 0x000000 and rm_val == 3  #nosat': 1 #  rs1_val==fnorm(0x7ea96a13) and rs2_val==fzero(0x00000000) | Mask on extra bits ---> 000000000000001000000
    'fs1 == 0 and fe1 == 0xfd and fm1 == 0x5c337b and fs2 == 0 and fe2 == 0x00 and fm2 == 0x000000 and rm_val == 3  #nosat': 1 #  rs1_val==fnorm(0x7edc337b) and rs2_val==fzero(0x00000000) | Mask on extra bits ---> 000000000000000100000
    'fs1 == 0 and fe1 == 0xfe and fm1 == 0x3f10c6 and fs2 == 0 and fe2 == 0x00 and fm2 == 0x000000 and rm_val == 3  #nosat': 1 #  rs1_val==fnorm(0x7f3f10c6) and rs2_val==fzero(0x00000000) | Mask on extra bits ---> 000000000000000010000
    'fs1 == 0 and fe1 == 0xfe and fm1 == 0x070538 and fs2 == 0 and fe2 == 0x00 and fm2 == 0x000000 and rm_val == 3  #nosat': 1 #  rs1_val==fnorm(0x7f070538) and rs2_val==fzero(0x00000000) | Mask on extra bits ---> 000000000000000001000
    'fs1 == 0 and fe1 == 0xfe and fm1 == 0x2bd1f5 and fs2 == 0 and fe2 == 0x00 and fm2 == 0x000000 and rm_val == 3  #nosat': 1 #  rs1_val==fnorm(0x7f2bd1f5) and rs2_val==fzero(0x00000000) | Mask on extra bits ---> 000000000000000000100
    'fs1 == 0 and fe1 == 0xfe and fm1 == 0x09599c and fs2 == 0 and fe2 == 0x00 and fm2 == 0x000000 and rm_val == 3  #nosat': 1 #  rs1_val==fnorm(0x7f09599c) and rs2_val==fzero(0x00000000) | Mask on extra bits ---> 000000000000000000010
    'fs1 == 0 and fe1 == 0xfb and fm1 == 0x13b178 and fs2 == 0 and fe2 == 0x00 and fm2 == 0x000000 and rm_val == 3  #nosat': 1 #  rs1_val==fnorm(0x7d93b178) and rs2_val==fzero(0x00000000) | Mask on extra bits ---> 000000000000000000001
    'fs1 == 0 and fe1 == 0xfe and fm1 == 0x366362 and fs2 == 0 and fe2 == 0x2a and fm2 == 0x33a925 and rm_val == 3  #nosat': 1 #  rs1_val==fnorm(0x7f366362) and rs2_val==fnorm(0x1533a925) | Mask on extra bits ---> 010000000000000000000
    'fs1 == 0 and fe1 == 0xfb and fm1 == 0x2c23d1 and fs2 == 0 and fe2 == 0x2d and fm2 == 0x3e5b55 and rm_val == 3  #nosat': 1 #  rs1_val==fnorm(0x7dac23d1) and rs2_val==fnorm(0x16be5b55) | Mask on extra bits ---> 001000000000000000000
    'fs1 == 0 and fe1 == 0xfd and fm1 == 0x28844c and fs2 == 0 and fe2 == 0x2b and fm2 == 0x427310 and rm_val == 3  #nosat': 1 #  rs1_val==fnorm(0x7ea8844c) and rs2_val==fnorm(0x15c27310) | Mask on extra bits ---> 000100000000000000000
    'fs1 == 0 and fe1 == 0xfe and fm1 == 0x00c7d5 and fs2 == 0 and fe2 == 0x2a and fm2 == 0x7e72c1 and rm_val == 3  #nosat': 1 #  rs1_val==fnorm(0x7f00c7d5) and rs2_val==fnorm(0x157e72c1) | Mask on extra bits ---> 000010000000000000000
    'fs1 == 0 and fe1 == 0xfc and fm1 == 0x639f2c and fs2 == 0 and fe2 == 0x2c and fm2 == 0x0ff547 and rm_val == 3  #nosat': 1 #  rs1_val==fnorm(0x7e639f2c) and rs2_val==fnorm(0x160ff547) | Mask on extra bits ---> 000001000000000000000
    'fs1 == 0 and fe1 == 0xfd and fm1 == 0x78dd0e and fs2 == 0 and fe2 == 0x2b and fm2 == 0x03abaa and rm_val == 3  #nosat': 1 #  rs1_val==fnorm(0x7ef8dd0e) and rs2_val==fnorm(0x1583abaa) | Mask on extra bits ---> 000000100000000000000
    'fs1 == 0 and fe1 == 0xfe and fm1 == 0x2befa1 and fs2 == 0 and fe2 == 0x2a and fm2 == 0x3e951d and rm_val == 3  #nosat': 1 #  rs1_val==fnorm(0x7f2befa1) and rs2_val==fnorm(0x153e951d) | Mask on extra bits ---> 000000010000000000000
    'fs1 == 0 and fe1 == 0xfa and fm1 == 0x4d54a3 and fs2 == 0 and fe2 == 0x2e and fm2 == 0x1f9626 and rm_val == 3  #nosat': 1 #  rs1_val==fnorm(0x7d4d54a3) and rs2_val==fnorm(0x171f9626) | Mask on extra bits ---> 000000001000000000000
    'fs1 == 0 and fe1 == 0xfb and fm1 == 0x61068d and fs2 == 0 and fe2 == 0x2d and fm2 == 0x119e76 and rm_val == 3  #nosat': 1 #  rs1_val==fnorm(0x7de1068d) and rs2_val==fnorm(0x16919e76) | Mask on extra bits ---> 000000000100000000000
    'fs1 == 0 and fe1 == 0xfd and fm1 == 0x08b9d9 and fs2 == 0 and fe2 == 0x2b and fm2 == 0x6fa96f and rm_val == 3  #nosat': 1 #  rs1_val==fnorm(0x7e88b9d9) and rs2_val==fnorm(0x15efa96f) | Mask on extra bits ---> 000000000010000000000
    'fs1 == 0 and fe1 == 0xfe and fm1 == 0x1d071f and fs2 == 0 and fe2 == 0x2a and fm2 == 0x50ad28 and rm_val == 3  #nosat': 1 #  rs1_val==fnorm(0x7f1d071f) and rs2_val==fnorm(0x1550ad28) | Mask on extra bits ---> 000000000001000000000
    'fs1 == 0 and fe1 == 0xfe and fm1 == 0x305e0d and fs2 == 0 and fe2 == 0x2a and fm2 == 0x39cb42 and rm_val == 3  #nosat': 1 #  rs1_val==fnorm(0x7f305e0d) and rs2_val==fnorm(0x1539cb42) | Mask on extra bits ---> 000000000000100000000
    'fs1 == 0 and fe1 == 0xfd and fm1 == 0x243814 and fs2 == 0 and fe2 == 0x2b and fm2 == 0x4789d0 and rm_val == 3  #nosat': 1 #  rs1_val==fnorm(0x7ea43814) and rs2_val==fnorm(0x15c789d0) | Mask on extra bits ---> 000000000000010000000
    'fs1 == 0 and fe1 == 0xfd and fm1 == 0x3bb1f5 and fs2 == 0 and fe2 == 0x2b and fm2 == 0x2e94ba and rm_val == 3  #nosat': 1 #  rs1_val==fnorm(0x7ebbb1f5) and rs2_val==fnorm(0x15ae94ba) | Mask on extra bits ---> 000000000000001000000
    'fs1 == 0 and fe1 == 0xfc and fm1 == 0x63ea1b and fs2 == 0 and fe2 == 0x2c and fm2 == 0x0fc5f1 and rm_val == 3  #nosat': 1 #  rs1_val==fnorm(0x7e63ea1b) and rs2_val==fnorm(0x160fc5f1) | Mask on extra bits ---> 000000000000000100000
    'fs1 == 0 and fe1 == 0xfe and fm1 == 0x32f44f and fs2 == 0 and fe2 == 0x2a and fm2 == 0x371bb0 and rm_val == 3  #nosat': 1 #  rs1_val==fnorm(0x7f32f44f) and rs2_val==fnorm(0x15371bb0) | Mask on extra bits ---> 000000000000000010000
    'fs1 == 0 and fe1 == 0xfe and fm1 == 0x374d41 and fs2 == 0 and fe2 == 0x2a and fm2 == 0x32c3eb and rm_val == 3  #nosat': 1 #  rs1_val==fnorm(0x7f374d41) and rs2_val==fnorm(0x1532c3eb) | Mask on extra bits ---> 000000000000000001000
    'fs1 == 0 and fe1 == 0xfd and fm1 == 0x4a19c2 and fs2 == 0 and fe2 == 0x2b and fm2 == 0x222315 and rm_val == 3  #nosat': 1 #  rs1_val==fnorm(0x7eca19c2) and rs2_val==fnorm(0x15a22315) | Mask on extra bits ---> 000000000000000000100
    'fs1 == 0 and fe1 == 0xfe and fm1 == 0x195ac9 and fs2 == 0 and fe2 == 0x2a and fm2 == 0x55acb7 and rm_val == 3  #nosat': 1 #  rs1_val==fnorm(0x7f195ac9) and rs2_val==fnorm(0x1555acb7) | Mask on extra bits ---> 000000000000000000010
    'fs1 == 0 and fe1 == 0xfd and fm1 == 0x094fff and fs2 == 0 and fe2 == 0x2b and fm2 == 0x6ea35e and rm_val == 3  #nosat': 1 #  rs1_val==fnorm(0x7e894fff) and rs2_val==fnorm(0x15eea35e) | Mask on extra bits ---> 000000000000000000001
    'fs1 == 0 and fe1 == 0xfe and fm1 == 0x0aea5e and fs2 == 0 and fe2 == 0x00 and fm2 == 0x000000 and rm_val == 3  #nosat': 1 #  rs1_val==fnorm(0x7f0aea5e) and rs2_val==fzero(0x00000000) | Mask on extra bits ---> 010000000000000000000
    'fs1 == 0 and fe1 == 0xfd and fm1 == 0x7d1e07 and fs2 == 0 and fe2 == 0x00 and fm2 == 0x000000 and rm_val == 3  #nosat': 1 #  rs1_val==fnorm(0x7efd1e07) and rs2_val==fzero(0x00000000) | Mask on extra bits ---> 001000000000000000000
    'fs1 == 0 and fe1 == 0xfe and fm1 == 0x04fd41 and fs2 == 0 and fe2 == 0x00 and fm2 == 0x000000 and rm_val == 3  #nosat': 1 #  rs1_val==fnorm(0x7f04fd41) and rs2_val==fzero(0x00000000) | Mask on extra bits ---> 000100000000000000000
    'fs1 == 0 and fe1 == 0xfd and fm1 == 0x762408 and fs2 == 0 and fe2 == 0x00 and fm2 == 0x000000 and rm_val == 3  #nosat': 1 #  rs1_val==fnorm(0x7ef62408) and rs2_val==fzero(0x00000000) | Mask on extra bits ---> 000010000000000000000
    'fs1 == 0 and fe1 == 0xfa and fm1 == 0x775433 and fs2 == 0 and fe2 == 0x00 and fm2 == 0x000000 and rm_val == 3  #nosat': 1 #  rs1_val==fnorm(0x7d775433) and rs2_val==fzero(0x00000000) | Mask on extra bits ---> 000001000000000000000
    'fs1 == 0 and fe1 == 0xfb and fm1 == 0x3af9fa and fs2 == 0 and fe2 == 0x00 and fm2 == 0x000000 and rm_val == 3  #nosat': 1 #  rs1_val==fnorm(0x7dbaf9fa) and rs2_val==fzero(0x00000000) | Mask on extra bits ---> 000000100000000000000
    'fs1 == 0 and fe1 == 0xfe and fm1 == 0x10affc and fs2 == 0 and fe2 == 0x00 and fm2 == 0x000000 and rm_val == 3  #nosat': 1 #  rs1_val==fnorm(0x7f10affc) and rs2_val==fzero(0x00000000) | Mask on extra bits ---> 000000010000000000000
    'fs1 == 0 and fe1 == 0xfd and fm1 == 0x1671a2 and fs2 == 0 and fe2 == 0x00 and fm2 == 0x000000 and rm_val == 3  #nosat': 1 #  rs1_val==fnorm(0x7e9671a2) and rs2_val==fzero(0x00000000) | Mask on extra bits ---> 000000001000000000000
    'fs1 == 0 and fe1 == 0xfc and fm1 == 0x13bb57 and fs2 == 0 and fe2 == 0x00 and fm2 == 0x000000 and rm_val == 3  #nosat': 1 #  rs1_val==fnorm(0x7e13bb57) and rs2_val==fzero(0x00000000) | Mask on extra bits ---> 000000000100000000000
    'fs1 == 0 and fe1 == 0xfa and fm1 == 0x6b27f7 and fs2 == 0 and fe2 == 0x00 and fm2 == 0x000000 and rm_val == 3  #nosat': 1 #  rs1_val==fnorm(0x7d6b27f7) and rs2_val==fzero(0x00000000) | Mask on extra bits ---> 000000000010000000000
    'fs1 == 0 and fe1 == 0xfd and fm1 == 0x0f31c4 and fs2 == 0 and fe2 == 0x00 and fm2 == 0x000000 and rm_val == 3  #nosat': 1 #  rs1_val==fnorm(0x7e8f31c4) and rs2_val==fzero(0x00000000) | Mask on extra bits ---> 000000000001000000000
    'fs1 == 0 and fe1 == 0xfa and fm1 == 0x62ae46 and fs2 == 0 and fe2 == 0x00 and fm2 == 0x000000 and rm_val == 3  #nosat': 1 #  rs1_val==fnorm(0x7d62ae46) and rs2_val==fzero(0x00000000) | Mask on extra bits ---> 000000000000100000000
    'fs1 == 0 and fe1 == 0xfc and fm1 == 0x1fef00 and fs2 == 0 and fe2 == 0x00 and fm2 == 0x000000 and rm_val == 3  #nosat': 1 #  rs1_val==fnorm(0x7e1fef00) and rs2_val==fzero(0x00000000) | Mask on extra bits ---> 000000000000010000000
    'fs1 == 0 and fe1 == 0xfd and fm1 == 0x1db2ee and fs2 == 0 and fe2 == 0x00 and fm2 == 0x000000 and rm_val == 3  #nosat': 1 #  rs1_val==fnorm(0x7e9db2ee) and rs2_val==fzero(0x00000000) | Mask on extra bits ---> 000000000000001000000
    'fs1 == 0 and fe1 == 0xf8 and fm1 == 0x41315c and fs2 == 0 and fe2 == 0x00 and fm2 == 0x000000 and rm_val == 3  #nosat': 1 #  rs1_val==fnorm(0x7c41315c) and rs2_val==fzero(0x00000000) | Mask on extra bits ---> 000000000000000100000
    'fs1 == 0 and fe1 == 0xfe and fm1 == 0x2165be and fs2 == 0 and fe2 == 0x00 and fm2 == 0x000000 and rm_val == 3  #nosat': 1 #  rs1_val==fnorm(0x7f2165be) and rs2_val==fzero(0x00000000) | Mask on extra bits ---> 000000000000000010000
    'fs1 == 0 and fe1 == 0xfb and fm1 == 0x1b6277 and fs2 == 0 and fe2 == 0x00 and fm2 == 0x000000 and rm_val == 3  #nosat': 1 #  rs1_val==fnorm(0x7d9b6277) and rs2_val==fzero(0x00000000) | Mask on extra bits ---> 000000000000000001000
    'fs1 == 0 and fe1 == 0xf8 and fm1 == 0x6a262c and fs2 == 0 and fe2 == 0x00 and fm2 == 0x000000 and rm_val == 3  #nosat': 1 #  rs1_val==fnorm(0x7c6a262c) and rs2_val==fzero(0x00000000) | Mask on extra bits ---> 000000000000000000100
    'fs1 == 0 and fe1 == 0xfe and fm1 == 0x3cd606 and fs2 == 0 and fe2 == 0x00 and fm2 == 0x000000 and rm_val == 3  #nosat': 1 #  rs1_val==fnorm(0x7f3cd606) and rs2_val==fzero(0x00000000) | Mask on extra bits ---> 000000000000000000010
    'fs1 == 0 and fe1 == 0xfd and fm1 == 0x6a6f9b and fs2 == 0 and fe2 == 0x00 and fm2 == 0x000000 and rm_val == 3  #nosat': 1 #  rs1_val==fnorm(0x7eea6f9b) and rs2_val==fzero(0x00000000) | Mask on extra bits ---> 000000000000000000001
    'fs1 == 0 and fe1 == 0xfd and fm1 == 0x476063 and fs2 == 0 and fe2 == 0x00 and fm2 == 0x000000 and rm_val == 3  #nosat': 1 #  rs1_val==fnorm(0x7ec76063) and rs2_val==fzero(0x00000000) | Mask on extra bits ---> 010000000000000000000
    'fs1 == 0 and fe1 == 0xfe and fm1 == 0x1a1c1b and fs2 == 0 and fe2 == 0x00 and fm2 == 0x000000 and rm_val == 3  #nosat': 1 #  rs1_val==fnorm(0x7f1a1c1b) and rs2_val==fzero(0x00000000) | Mask on extra bits ---> 001000000000000000000
    'fs1 == 0 and fe1 == 0xfc and fm1 == 0x0b2e4b and fs2 == 0 and fe2 == 0x00 and fm2 == 0x000000 and rm_val == 3  #nosat': 1 #  rs1_val==fnorm(0x7e0b2e4b) and rs2_val==fzero(0x00000000) | Mask on extra bits ---> 000100000000000000000
    'fs1 == 0 and fe1 == 0xfd and fm1 == 0x2084ae and fs2 == 0 and fe2 == 0x00 and fm2 == 0x000000 and rm_val == 3  #nosat': 1 #  rs1_val==fnorm(0x7ea084ae) and rs2_val==fzero(0x00000000) | Mask on extra bits ---> 000010000000000000000
    'fs1 == 0 and fe1 == 0xfd and fm1 == 0x5f221f and fs2 == 0 and fe2 == 0x00 and fm2 == 0x000000 and rm_val == 3  #nosat': 1 #  rs1_val==fnorm(0x7edf221f) and rs2_val==fzero(0x00000000) | Mask on extra bits ---> 000001000000000000000
    'fs1 == 0 and fe1 == 0xfd and fm1 == 0x268dc5 and fs2 == 0 and fe2 == 0x00 and fm2 == 0x000000 and rm_val == 3  #nosat': 1 #  rs1_val==fnorm(0x7ea68dc5) and rs2_val==fzero(0x00000000) | Mask on extra bits ---> 000000100000000000000
    'fs1 == 0 and fe1 == 0xfe and fm1 == 0x38eb1b and fs2 == 0 and fe2 == 0x00 and fm2 == 0x000000 and rm_val == 3  #nosat': 1 #  rs1_val==fnorm(0x7f38eb1b) and rs2_val==fzero(0x00000000) | Mask on extra bits ---> 000000010000000000000
    'fs1 == 0 and fe1 == 0xfc and fm1 == 0x232951 and fs2 == 0 and fe2 == 0x00 and fm2 == 0x000000 and rm_val == 3  #nosat': 1 #  rs1_val==fnorm(0x7e232951) and rs2_val==fzero(0x00000000) | Mask on extra bits ---> 000000001000000000000
    'fs1 == 0 and fe1 == 0xfc and fm1 == 0x6dde9e and fs2 == 0 and fe2 == 0x00 and fm2 == 0x000000 and rm_val == 3  #nosat': 1 #  rs1_val==fnorm(0x7e6dde9e) and rs2_val==fzero(0x00000000) | Mask on extra bits ---> 000000000100000000000
    'fs1 == 0 and fe1 == 0xfd and fm1 == 0x47f677 and fs2 == 0 and fe2 == 0x00 and fm2 == 0x000000 and rm_val == 3  #nosat': 1 #  rs1_val==fnorm(0x7ec7f677) and rs2_val==fzero(0x00000000) | Mask on extra bits ---> 000000000010000000000
    'fs1 == 0 and fe1 == 0xfc and fm1 == 0x31cfbf and fs2 == 0 and fe2 == 0x00 and fm2 == 0x000000 and rm_val == 3  #nosat': 1 #  rs1_val==fnorm(0x7e31cfbf) and rs2_val==fzero(0x00000000) | Mask on extra bits ---> 000000000001000000000
    'fs1 == 0 and fe1 == 0xfb and fm1 == 0x19405f and fs2 == 0 and fe2 == 0x00 and fm2 == 0x000000 and rm_val == 3  #nosat': 1 #  rs1_val==fnorm(0x7d99405f) and rs2_val==fzero(0x00000000) | Mask on extra bits ---> 000000000000100000000
    'fs1 == 0 and fe1 == 0xfe and fm1 == 0x0af6b9 and fs2 == 0 and fe2 == 0x00 and fm2 == 0x000000 and rm_val == 3  #nosat': 1 #  rs1_val==fnorm(0x7f0af6b9) and rs2_val==fzero(0x00000000) | Mask on extra bits ---> 000000000000010000000
    'fs1 == 0 and fe1 == 0xfd and fm1 == 0x1cf370 and fs2 == 0 and fe2 == 0x00 and fm2 == 0x000000 and rm_val == 3  #nosat': 1 #  rs1_val==fnorm(0x7e9cf370) and rs2_val==fzero(0x00000000) | Mask on extra bits ---> 000000000000001000000
    'fs1 == 0 and fe1 == 0xf6 and fm1 == 0x6d25cb and fs2 == 0 and fe2 == 0x00 and fm2 == 0x000000 and rm_val == 3  #nosat': 1 #  rs1_val==fnorm(0x7b6d25cb) and rs2_val==fzero(0x00000000) | Mask on extra bits ---> 000000000000000100000
    'fs1 == 0 and fe1 == 0xfd and fm1 == 0x227041 and fs2 == 0 and fe2 == 0x00 and fm2 == 0x000000 and rm_val == 3  #nosat': 1 #  rs1_val==fnorm(0x7ea27041) and rs2_val==fzero(0x00000000) | Mask on extra bits ---> 000000000000000010000
    'fs1 == 0 and fe1 == 0xfe and fm1 == 0x083942 and fs2 == 0 and fe2 == 0x00 and fm2 == 0x000000 and rm_val == 3  #nosat': 1 #  rs1_val==fnorm(0x7f083942) and rs2_val==fzero(0x00000000) | Mask on extra bits ---> 000000000000000001000
    'fs1 == 0 and fe1 == 0xfd and fm1 == 0x6fadd2 and fs2 == 0 and fe2 == 0x00 and fm2 == 0x000000 and rm_val == 3  #nosat': 1 #  rs1_val==fnorm(0x7eefadd2) and rs2_val==fzero(0x00000000) | Mask on extra bits ---> 000000000000000000100
    'fs1 == 0 and fe1 == 0xfc and fm1 == 0x409980 and fs2 == 0 and fe2 == 0x00 and fm2 == 0x000000 and rm_val == 3  #nosat': 1 #  rs1_val==fnorm(0x7e409980) and rs2_val==fzero(0x00000000) | Mask on extra bits ---> 000000000000000000010
    'fs1 == 0 and fe1 == 0xfc and fm1 == 0x328a37 and fs2 == 0 and fe2 == 0x00 and fm2 == 0x000000 and rm_val == 3  #nosat': 1 #  rs1_val==fnorm(0x7e328a37) and rs2_val==fzero(0x00000000) | Mask on extra bits ---> 000000000000000000001
    'fs1 == 0 and fe1 == 0xfe and fm1 == 0x335a5f and fs2 == 0 and fe2 == 0x00 and fm2 == 0x000000 and rm_val == 3  #nosat': 1 #  rs1_val==fnorm(0x7f335a5f) and rs2_val==fzero(0x00000000) | Mask on extra bits ---> 010000000000000000000
    'fs1 == 0 and fe1 == 0xfd and fm1 == 0x432be8 and fs2 == 0 and fe2 == 0x00 and fm2 == 0x000000 and rm_val == 3  #nosat': 1 #  rs1_val==fnorm(0x7ec32be8) and rs2_val==fzero(0x00000000) | Mask on extra bits ---> 001000000000000000000
    'fs1 == 0 and fe1 == 0xfb and fm1 == 0x134261 and fs2 == 0 and fe2 == 0x00 and fm2 == 0x000000 and rm_val == 3  #nosat': 1 #  rs1_val==fnorm(0x7d934261) and rs2_val==fzero(0x00000000) | Mask on extra bits ---> 000100000000000000000
    'fs1 == 0 and fe1 == 0xf9 and fm1 == 0x4e2b68 and fs2 == 0 and fe2 == 0x00 and fm2 == 0x000000 and rm_val == 3  #nosat': 1 #  rs1_val==fnorm(0x7cce2b68) and rs2_val==fzero(0x00000000) | Mask on extra bits ---> 000010000000000000000
    'fs1 == 0 and fe1 == 0xfb and fm1 == 0x57ea20 and fs2 == 0 and fe2 == 0x00 and fm2 == 0x000000 and rm_val == 3  #nosat': 1 #  rs1_val==fnorm(0x7dd7ea20) and rs2_val==fzero(0x00000000) | Mask on extra bits ---> 000001000000000000000
    'fs1 == 0 and fe1 == 0xf8 and fm1 == 0x5d9799 and fs2 == 0 and fe2 == 0x00 and fm2 == 0x000000 and rm_val == 3  #nosat': 1 #  rs1_val==fnorm(0x7c5d9799) and rs2_val==fzero(0x00000000) | Mask on extra bits ---> 000000100000000000000
    'fs1 == 0 and fe1 == 0xfd and fm1 == 0x68bbe2 and fs2 == 0 and fe2 == 0x00 and fm2 == 0x000000 and rm_val == 3  #nosat': 1 #  rs1_val==fnorm(0x7ee8bbe2) and rs2_val==fzero(0x00000000) | Mask on extra bits ---> 000000010000000000000
    'fs1 == 0 and fe1 == 0xfe and fm1 == 0x3844b4 and fs2 == 0 and fe2 == 0x00 and fm2 == 0x000000 and rm_val == 3  #nosat': 1 #  rs1_val==fnorm(0x7f3844b4) and rs2_val==fzero(0x00000000) | Mask on extra bits ---> 000000001000000000000
    'fs1 == 0 and fe1 == 0xfd and fm1 == 0x45af29 and fs2 == 0 and fe2 == 0x00 and fm2 == 0x000000 and rm_val == 3  #nosat': 1 #  rs1_val==fnorm(0x7ec5af29) and rs2_val==fzero(0x00000000) | Mask on extra bits ---> 000000000100000000000
    'fs1 == 0 and fe1 == 0xfd and fm1 == 0x609f7b and fs2 == 0 and fe2 == 0x00 and fm2 == 0x000000 and rm_val == 3  #nosat': 1 #  rs1_val==fnorm(0x7ee09f7b) and rs2_val==fzero(0x00000000) | Mask on extra bits ---> 000000000010000000000
    'fs1 == 0 and fe1 == 0xfe and fm1 == 0x27f459 and fs2 == 0 and fe2 == 0x00 and fm2 == 0x000000 and rm_val == 3  #nosat': 1 #  rs1_val==fnorm(0x7f27f459) and rs2_val==fzero(0x00000000) | Mask on extra bits ---> 000000000001000000000
    'fs1 == 0 and fe1 == 0xfb and fm1 == 0x1cbf56 and fs2 == 0 and fe2 == 0x00 and fm2 == 0x000000 and rm_val == 3  #nosat': 1 #  rs1_val==fnorm(0x7d9cbf56) and rs2_val==fzero(0x00000000) | Mask on extra bits ---> 000000000000100000000
    'fs1 == 0 and fe1 == 0xfd and fm1 == 0x7dc215 and fs2 == 0 and fe2 == 0x00 and fm2 == 0x000000 and rm_val == 3  #nosat': 1 #  rs1_val==fnorm(0x7efdc215) and rs2_val==fzero(0x00000000) | Mask on extra bits ---> 000000000000010000000
    'fs1 == 0 and fe1 == 0xfd and fm1 == 0x358c1d and fs2 == 0 and fe2 == 0x00 and fm2 == 0x000000 and rm_val == 3  #nosat': 1 #  rs1_val==fnorm(0x7eb58c1d) and rs2_val==fzero(0x00000000) | Mask on extra bits ---> 000000000000001000000
    'fs1 == 0 and fe1 == 0xfe and fm1 == 0x2596ee and fs2 == 0 and fe2 == 0x00 and fm2 == 0x000000 and rm_val == 3  #nosat': 1 #  rs1_val==fnorm(0x7f2596ee) and rs2_val==fzero(0x00000000) | Mask on extra bits ---> 000000000000000100000
    'fs1 == 0 and fe1 == 0xfe and fm1 == 0x2d3017 and fs2 == 0 and fe2 == 0x00 and fm2 == 0x000000 and rm_val == 3  #nosat': 1 #  rs1_val==fnorm(0x7f2d3017) and rs2_val==fzero(0x00000000) | Mask on extra bits ---> 000000000000000010000
    'fs1 == 0 and fe1 == 0xfe and fm1 == 0x1310f3 and fs2 == 0 and fe2 == 0x00 and fm2 == 0x000000 and rm_val == 3  #nosat': 1 #  rs1_val==fnorm(0x7f1310f3) and rs2_val==fzero(0x00000000) | Mask on extra bits ---> 000000000000000001000
    'fs1 == 0 and fe1 == 0xf9 and fm1 == 0x3d4d49 and fs2 == 0 and fe2 == 0x00 and fm2 == 0x000000 and rm_val == 3  #nosat': 1 #  rs1_val==fnorm(0x7cbd4d49) and rs2_val==fzero(0x00000000) | Mask on extra bits ---> 000000000000000000100
    'fs1 == 0 and fe1 == 0xfb and fm1 == 0x2dbe96 and fs2 == 0 and fe2 == 0x00 and fm2 == 0x000000 and rm_val == 3  #nosat': 1 #  rs1_val==fnorm(0x7dadbe96) and rs2_val==fzero(0x00000000) | Mask on extra bits ---> 000000000000000000010
    'fs1 == 0 and fe1 == 0xfd and fm1 == 0x6c407f and fs2 == 0 and fe2 == 0x00 and fm2 == 0x000000 and rm_val == 3  #nosat': 1 #  rs1_val==fnorm(0x7eec407f) and rs2_val==fzero(0x00000000) | Mask on extra bits ---> 000000000000000000001
    'fs1 == 0 and fe1 == 0xf9 and fm1 == 0x5ed631 and fs2 == 0 and fe2 == 0x00 and fm2 == 0x000000 and rm_val == 3  #nosat': 1 #  rs1_val==fnorm(0x7cded631) and rs2_val==fzero(0x00000000) | Mask on extra bits ---> 010000000000000000000
    'fs1 == 0 and fe1 == 0xfe and fm1 == 0x3e148d and fs2 == 0 and fe2 == 0x00 and fm2 == 0x000000 and rm_val == 3  #nosat': 1 #  rs1_val==fnorm(0x7f3e148d) and rs2_val==fzero(0x00000000) | Mask on extra bits ---> 001000000000000000000
    'fs1 == 0 and fe1 == 0xfd and fm1 == 0x140eaa and fs2 == 0 and fe2 == 0x00 and fm2 == 0x000000 and rm_val == 3  #nosat': 1 #  rs1_val==fnorm(0x7e940eaa) and rs2_val==fzero(0x00000000) | Mask on extra bits ---> 000100000000000000000
    'fs1 == 0 and fe1 == 0xfc and fm1 == 0x0d1c84 and fs2 == 0 and fe2 == 0x00 and fm2 == 0x000000 and rm_val == 3  #nosat': 1 #  rs1_val==fnorm(0x7e0d1c84) and rs2_val==fzero(0x00000000) | Mask on extra bits ---> 000010000000000000000
    'fs1 == 0 and fe1 == 0xfe and fm1 == 0x1c29fe and fs2 == 0 and fe2 == 0x00 and fm2 == 0x000000 and rm_val == 3  #nosat': 1 #  rs1_val==fnorm(0x7f1c29fe) and rs2_val==fzero(0x00000000) | Mask on extra bits ---> 000001000000000000000
    'fs1 == 0 and fe1 == 0xf9 and fm1 == 0x01ea00 and fs2 == 0 and fe2 == 0x00 and fm2 == 0x000000 and rm_val == 3  #nosat': 1 #  rs1_val==fnorm(0x7c81ea00) and rs2_val==fzero(0x00000000) | Mask on extra bits ---> 000000100000000000000
    'fs1 == 0 and fe1 == 0xf9 and fm1 == 0x1bb7c9 and fs2 == 0 and fe2 == 0x00 and fm2 == 0x000000 and rm_val == 3  #nosat': 1 #  rs1_val==fnorm(0x7c9bb7c9) and rs2_val==fzero(0x00000000) | Mask on extra bits ---> 000000010000000000000
    'fs1 == 0 and fe1 == 0xfa and fm1 == 0x7eadb5 and fs2 == 0 and fe2 == 0x00 and fm2 == 0x000000 and rm_val == 3  #nosat': 1 #  rs1_val==fnorm(0x7d7eadb5) and rs2_val==fzero(0x00000000) | Mask on extra bits ---> 000000001000000000000
    'fs1 == 0 and fe1 == 0xfc and fm1 == 0x04012d and fs2 == 0 and fe2 == 0x00 and fm2 == 0x000000 and rm_val == 3  #nosat': 1 #  rs1_val==fnorm(0x7e04012d) and rs2_val==fzero(0x00000000) | Mask on extra bits ---> 000000000100000000000
    'fs1 == 0 and fe1 == 0xf9 and fm1 == 0x43d400 and fs2 == 0 and fe2 == 0x00 and fm2 == 0x000000 and rm_val == 3  #nosat': 1 #  rs1_val==fnorm(0x7cc3d400) and rs2_val==fzero(0x00000000) | Mask on extra bits ---> 000000000010000000000
    'fs1 == 0 and fe1 == 0xfd and fm1 == 0x22667e and fs2 == 0 and fe2 == 0x00 and fm2 == 0x000000 and rm_val == 3  #nosat': 1 #  rs1_val==fnorm(0x7ea2667e) and rs2_val==fzero(0x00000000) | Mask on extra bits ---> 000000000001000000000
    'fs1 == 0 and fe1 == 0xfc and fm1 == 0x21a5d7 and fs2 == 0 and fe2 == 0x00 and fm2 == 0x000000 and rm_val == 3  #nosat': 1 #  rs1_val==fnorm(0x7e21a5d7) and rs2_val==fzero(0x00000000) | Mask on extra bits ---> 000000000000100000000
    'fs1 == 0 and fe1 == 0xfe and fm1 == 0x23f501 and fs2 == 0 and fe2 == 0x00 and fm2 == 0x000000 and rm_val == 3  #nosat': 1 #  rs1_val==fnorm(0x7f23f501) and rs2_val==fzero(0x00000000) | Mask on extra bits ---> 000000000000010000000
    'fs1 == 0 and fe1 == 0xfb and fm1 == 0x23397b and fs2 == 0 and fe2 == 0x00 and fm2 == 0x000000 and rm_val == 3  #nosat': 1 #  rs1_val==fnorm(0x7da3397b) and rs2_val==fzero(0x00000000) | Mask on extra bits ---> 000000000000001000000
    'fs1 == 0 and fe1 == 0xfc and fm1 == 0x2e0a9e and fs2 == 0 and fe2 == 0x00 and fm2 == 0x000000 and rm_val == 3  #nosat': 1 #  rs1_val==fnorm(0x7e2e0a9e) and rs2_val==fzero(0x00000000) | Mask on extra bits ---> 000000000000000100000
    'fs1 == 0 and fe1 == 0xfd and fm1 == 0x7ab7a7 and fs2 == 0 and fe2 == 0x00 and fm2 == 0x000000 and rm_val == 3  #nosat': 1 #  rs1_val==fnorm(0x7efab7a7) and rs2_val==fzero(0x00000000) | Mask on extra bits ---> 000000000000000010000
    'fs1 == 0 and fe1 == 0xfe and fm1 == 0x0eff8f and fs2 == 0 and fe2 == 0x00 and fm2 == 0x000000 and rm_val == 3  #nosat': 1 #  rs1_val==fnorm(0x7f0eff8f) and rs2_val==fzero(0x00000000) | Mask on extra bits ---> 000000000000000001000
    'fs1 == 0 and fe1 == 0xfe and fm1 == 0x2e44fd and fs2 == 0 and fe2 == 0x00 and fm2 == 0x000000 and rm_val == 3  #nosat': 1 #  rs1_val==fnorm(0x7f2e44fd) and rs2_val==fzero(0x00000000) | Mask on extra bits ---> 000000000000000000100
    'fs1 == 0 and fe1 == 0xfe and fm1 == 0x1d844c and fs2 == 0 and fe2 == 0x00 and fm2 == 0x000000 and rm_val == 3  #nosat': 1 #  rs1_val==fnorm(0x7f1d844c) and rs2_val==fzero(0x00000000) | Mask on extra bits ---> 000000000000000000010
    'fs1 == 0 and fe1 == 0xfd and fm1 == 0x6f5572 and fs2 == 0 and fe2 == 0x00 and fm2 == 0x000000 and rm_val == 3  #nosat': 1 #  rs1_val==fnorm(0x7eef5572) and rs2_val==fzero(0x00000000) | Mask on extra bits ---> 000000000000000000001
    'fs1 == 0 and fe1 == 0xfd and fm1 == 0x4490fe and fs2 == 0 and fe2 == 0x00 and fm2 == 0x000000 and rm_val == 3  #nosat': 1 #  rs1_val==fnorm(0x7ec490fe) and rs2_val==fzero(0x00000000) | Mask on extra bits ---> 010000000000000000000
    'fs1 == 0 and fe1 == 0xfc and fm1 == 0x6f7f16 and fs2 == 0 and fe2 == 0x00 and fm2 == 0x000000 and rm_val == 3  #nosat': 1 #  rs1_val==fnorm(0x7e6f7f16) and rs2_val==fzero(0x00000000) | Mask on extra bits ---> 001000000000000000000
    'fs1 == 0 and fe1 == 0xfd and fm1 == 0x7a24a3 and fs2 == 0 and fe2 == 0x00 and fm2 == 0x000000 and rm_val == 3  #nosat': 1 #  rs1_val==fnorm(0x7efa24a3) and rs2_val==fzero(0x00000000) | Mask on extra bits ---> 000100000000000000000
    'fs1 == 0 and fe1 == 0xfd and fm1 == 0x41a1ac and fs2 == 0 and fe2 == 0x00 and fm2 == 0x000000 and rm_val == 3  #nosat': 1 #  rs1_val==fnorm(0x7ec1a1ac) and rs2_val==fzero(0x00000000) | Mask on extra bits ---> 000010000000000000000
    'fs1 == 0 and fe1 == 0xfe and fm1 == 0x37d03d and fs2 == 0 and fe2 == 0x00 and fm2 == 0x000000 and rm_val == 3  #nosat': 1 #  rs1_val==fnorm(0x7f37d03d) and rs2_val==fzero(0x00000000) | Mask on extra bits ---> 000001000000000000000
    'fs1 == 0 and fe1 == 0xfe and fm1 == 0x2efc0a and fs2 == 0 and fe2 == 0x00 and fm2 == 0x000000 and rm_val == 3  #nosat': 1 #  rs1_val==fnorm(0x7f2efc0a) and rs2_val==fzero(0x00000000) | Mask on extra bits ---> 000000100000000000000
    'fs1 == 0 and fe1 == 0xfe and fm1 == 0x2e5316 and fs2 == 0 and fe2 == 0x00 and fm2 == 0x000000 and rm_val == 3  #nosat': 1 #  rs1_val==fnorm(0x7f2e5316) and rs2_val==fzero(0x00000000) | Mask on extra bits ---> 000000010000000000000
    'fs1 == 0 and fe1 == 0xfe and fm1 == 0x065158 and fs2 == 0 and fe2 == 0x00 and fm2 == 0x000000 and rm_val == 3  #nosat': 1 #  rs1_val==fnorm(0x7f065158) and rs2_val==fzero(0x00000000) | Mask on extra bits ---> 000000001000000000000
    'fs1 == 0 and fe1 == 0xfc and fm1 == 0x2a59d1 and fs2 == 0 and fe2 == 0x00 and fm2 == 0x000000 and rm_val == 3  #nosat': 1 #  rs1_val==fnorm(0x7e2a59d1) and rs2_val==fzero(0x00000000) | Mask on extra bits ---> 000000000100000000000
    'fs1 == 0 and fe1 == 0xfe and fm1 == 0x0af6e3 and fs2 == 0 and fe2 == 0x00 and fm2 == 0x000000 and rm_val == 3  #nosat': 1 #  rs1_val==fnorm(0x7f0af6e3) and rs2_val==fzero(0x00000000) | Mask on extra bits ---> 000000000010000000000
    'fs1 == 0 and fe1 == 0xfd and fm1 == 0x59ffad and fs2 == 0 and fe2 == 0x00 and fm2 == 0x000000 and rm_val == 3  #nosat': 1 #  rs1_val==fnorm(0x7ed9ffad) and rs2_val==fzero(0x00000000) | Mask on extra bits ---> 000000000001000000000
    'fs1 == 0 and fe1 == 0xfe and fm1 == 0x2cbe14 and fs2 == 0 and fe2 == 0x00 and fm2 == 0x000000 and rm_val == 3  #nosat': 1 #  rs1_val==fnorm(0x7f2cbe14) and rs2_val==fzero(0x00000000) | Mask on extra bits ---> 000000000000100000000
    'fs1 == 0 and fe1 == 0xfd and fm1 == 0x07e829 and fs2 == 0 and fe2 == 0x00 and fm2 == 0x000000 and rm_val == 3  #nosat': 1 #  rs1_val==fnorm(0x7e87e829) and rs2_val==fzero(0x00000000) | Mask on extra bits ---> 000000000000010000000
    'fs1 == 0 and fe1 == 0xfd and fm1 == 0x4052ad and fs2 == 0 and fe2 == 0x00 and fm2 == 0x000000 and rm_val == 3  #nosat': 1 #  rs1_val==fnorm(0x7ec052ad) and rs2_val==fzero(0x00000000) | Mask on extra bits ---> 000000000000001000000
    'fs1 == 0 and fe1 == 0xfd and fm1 == 0x3c2a53 and fs2 == 0 and fe2 == 0x00 and fm2 == 0x000000 and rm_val == 3  #nosat': 1 #  rs1_val==fnorm(0x7ebc2a53) and rs2_val==fzero(0x00000000) | Mask on extra bits ---> 000000000000000100000
    'fs1 == 0 and fe1 == 0xfd and fm1 == 0x312e1f and fs2 == 0 and fe2 == 0x00 and fm2 == 0x000000 and rm_val == 3  #nosat': 1 #  rs1_val==fnorm(0x7eb12e1f) and rs2_val==fzero(0x00000000) | Mask on extra bits ---> 000000000000000010000
    'fs1 == 0 and fe1 == 0xfe and fm1 == 0x10c4ce and fs2 == 0 and fe2 == 0x00 and fm2 == 0x000000 and rm_val == 3  #nosat': 1 #  rs1_val==fnorm(0x7f10c4ce) and rs2_val==fzero(0x00000000) | Mask on extra bits ---> 000000000000000001000
    'fs1 == 0 and fe1 == 0xfe and fm1 == 0x38af5a and fs2 == 0 and fe2 == 0x00 and fm2 == 0x000000 and rm_val == 3  #nosat': 1 #  rs1_val==fnorm(0x7f38af5a) and rs2_val==fzero(0x00000000) | Mask on extra bits ---> 000000000000000000100
    'fs1 == 0 and fe1 == 0xfd and fm1 == 0x07daac and fs2 == 0 and fe2 == 0x00 and fm2 == 0x000000 and rm_val == 3  #nosat': 1 #  rs1_val==fnorm(0x7e87daac) and rs2_val==fzero(0x00000000) | Mask on extra bits ---> 000000000000000000010
    'fs1 == 0 and fe1 == 0xfe and fm1 == 0x127958 and fs2 == 0 and fe2 == 0x00 and fm2 == 0x000000 and rm_val == 3  #nosat': 1 #  rs1_val==fnorm(0x7f127958) and rs2_val==fzero(0x00000000) | Mask on extra bits ---> 000000000000000000001
    'fs1 == 0 and fe1 == 0xfe and fm1 == 0x0d014f and fs2 == 0 and fe2 == 0x00 and fm2 == 0x000000 and rm_val == 3  #nosat': 1 #  rs1_val==fnorm(0x7f0d014f) and rs2_val==fzero(0x00000000) | Mask on extra bits ---> 010000000000000000000
    'fs1 == 0 and fe1 == 0xfe and fm1 == 0x2b90d3 and fs2 == 0 and fe2 == 0x00 and fm2 == 0x000000 and rm_val == 3  #nosat': 1 #  rs1_val==fnorm(0x7f2b90d3) and rs2_val==fzero(0x00000000) | Mask on extra bits ---> 001000000000000000000
    'fs1 == 0 and fe1 == 0xfe and fm1 == 0x018006 and fs2 == 0 and fe2 == 0x00 and fm2 == 0x000000 and rm_val == 3  #nosat': 1 #  rs1_val==fnorm(0x7f018006) and rs2_val==fzero(0x00000000) | Mask on extra bits ---> 000100000000000000000
    'fs1 == 0 and fe1 == 0xfd and fm1 == 0x43ed0a and fs2 == 0 and fe2 == 0x00 and fm2 == 0x000000 and rm_val == 3  #nosat': 1 #  rs1_val==fnorm(0x7ec3ed0a) and rs2_val==fzero(0x00000000) | Mask on extra bits ---> 000010000000000000000
    'fs1 == 0 and fe1 == 0xfc and fm1 == 0x79b5b2 and fs2 == 0 and fe2 == 0x00 and fm2 == 0x000000 and rm_val == 3  #nosat': 1 #  rs1_val==fnorm(0x7e79b5b2) and rs2_val==fzero(0x00000000) | Mask on extra bits ---> 000001000000000000000
    'fs1 == 0 and fe1 == 0xfc and fm1 == 0x3557bf and fs2 == 0 and fe2 == 0x00 and fm2 == 0x000000 and rm_val == 3  #nosat': 1 #  rs1_val==fnorm(0x7e3557bf) and rs2_val==fzero(0x00000000) | Mask on extra bits ---> 000000100000000000000
    'fs1 == 0 and fe1 == 0xfd and fm1 == 0x49e399 and fs2 == 0 and fe2 == 0x00 and fm2 == 0x000000 and rm_val == 3  #nosat': 1 #  rs1_val==fnorm(0x7ec9e399) and rs2_val==fzero(0x00000000) | Mask on extra bits ---> 000000010000000000000
    'fs1 == 0 and fe1 == 0xfd and fm1 == 0x11ecfc and fs2 == 0 and fe2 == 0x00 and fm2 == 0x000000 and rm_val == 3  #nosat': 1 #  rs1_val==fnorm(0x7e91ecfc) and rs2_val==fzero(0x00000000) | Mask on extra bits ---> 000000001000000000000
    'fs1 == 0 and fe1 == 0xfd and fm1 == 0x3284ec and fs2 == 0 and fe2 == 0x00 and fm2 == 0x000000 and rm_val == 3  #nosat': 1 #  rs1_val==fnorm(0x7eb284ec) and rs2_val==fzero(0x00000000) | Mask on extra bits ---> 000000000100000000000
    'fs1 == 0 and fe1 == 0xf9 and fm1 == 0x5cb815 and fs2 == 0 and fe2 == 0x00 and fm2 == 0x000000 and rm_val == 3  #nosat': 1 #  rs1_val==fnorm(0x7cdcb815) and rs2_val==fzero(0x00000000) | Mask on extra bits ---> 000000000010000000000
    'fs1 == 0 and fe1 == 0xfd and fm1 == 0x2ad2f1 and fs2 == 0 and fe2 == 0x00 and fm2 == 0x000000 and rm_val == 3  #nosat': 1 #  rs1_val==fnorm(0x7eaad2f1) and rs2_val==fzero(0x00000000) | Mask on extra bits ---> 000000000001000000000
    'fs1 == 0 and fe1 == 0xfe and fm1 == 0x3648af and fs2 == 0 and fe2 == 0x00 and fm2 == 0x000000 and rm_val == 3  #nosat': 1 #  rs1_val==fnorm(0x7f3648af) and rs2_val==fzero(0x00000000) | Mask on extra bits ---> 000000000000100000000
    'fs1 == 0 and fe1 == 0xfe and fm1 == 0x0ad17d and fs2 == 0 and fe2 == 0x00 and fm2 == 0x000000 and rm_val == 3  #nosat': 1 #  rs1_val==fnorm(0x7f0ad17d) and rs2_val==fzero(0x00000000) | Mask on extra bits ---> 000000000000010000000
    'fs1 == 0 and fe1 == 0xfd and fm1 == 0x25608b and fs2 == 0 and fe2 == 0x00 and fm2 == 0x000000 and rm_val == 3  #nosat': 1 #  rs1_val==fnorm(0x7ea5608b) and rs2_val==fzero(0x00000000) | Mask on extra bits ---> 000000000000001000000
    'fs1 == 0 and fe1 == 0xfd and fm1 == 0x5f2ead and fs2 == 0 and fe2 == 0x00 and fm2 == 0x000000 and rm_val == 3  #nosat': 1 #  rs1_val==fnorm(0x7edf2ead) and rs2_val==fzero(0x00000000) | Mask on extra bits ---> 000000000000000100000
    'fs1 == 0 and fe1 == 0xfd and fm1 == 0x68aebb and fs2 == 0 and fe2 == 0x00 and fm2 == 0x000000 and rm_val == 3  #nosat': 1 #  rs1_val==fnorm(0x7ee8aebb) and rs2_val==fzero(0x00000000) | Mask on extra bits ---> 000000000000000010000
    'fs1 == 0 and fe1 == 0xfe and fm1 == 0x009696 and fs2 == 0 and fe2 == 0x00 and fm2 == 0x000000 and rm_val == 3  #nosat': 1 #  rs1_val==fnorm(0x7f009696) and rs2_val==fzero(0x00000000) | Mask on extra bits ---> 000000000000000001000
    'fs1 == 0 and fe1 == 0xfe and fm1 == 0x206a70 and fs2 == 0 and fe2 == 0x00 and fm2 == 0x000000 and rm_val == 3  #nosat': 1 #  rs1_val==fnorm(0x7f206a70) and rs2_val==fzero(0x00000000) | Mask on extra bits ---> 000000000000000000100
    'fs1 == 0 and fe1 == 0xfa and fm1 == 0x2db9cd and fs2 == 0 and fe2 == 0x00 and fm2 == 0x000000 and rm_val == 3  #nosat': 1 #  rs1_val==fnorm(0x7d2db9cd) and rs2_val==fzero(0x00000000) | Mask on extra bits ---> 000000000000000000010
    coverage: 160/160
  total_coverage: 262/262
