---
fnmsub_b5:
  config:
  - check ISA:=regex(.*I.*F.*)
  op_comb:
    rd == rs2 == rs3 != rs1: 1
    rs1 != rs2 and rs1 != rd and rs1 != rs3 and rs2 != rs3 and rs2 != rd and rs3 != rd: 218
    rs1 == rd != rs2 and rs1 == rd != rs3 and rs3 != rs2: 1
    rs1 == rd == rs3 != rs2: 1
    rs1 == rs2 != rs3 and rs1 == rs2 != rd and rd != rs3: 1
    rs1 == rs2 == rd != rs3: 1
    rs1 == rs2 == rs3 != rd: 1
    rs1 == rs2 == rs3 == rd: 1
    rs1 == rs3 != rs2 and rs1 == rs3 != rd and rd != rs2: 1
    rs2 == rd != rs1 and rs2 == rd != rs3 and rs3 != rs1: 1
    rs2 == rs3 != rs1 and rs2 == rs3 != rd and rd != rs1: 1
    rs3 == rd != rs1 and rs3 == rd != rs2 and rs2 != rs1: 1
    coverage: 12/12
  opcode:
    fnmsub.s: 229
    coverage: 1/1
  rd:
    f0: 1
    f1: 1
    f10: 1
    f11: 1
    f12: 1
    f13: 1
    f14: 1
    f15: 1
    f16: 1
    f17: 1
    f18: 1
    f19: 1
    f2: 1
    f20: 1
    f21: 1
    f22: 1
    f23: 1
    f24: 1
    f25: 1
    f26: 1
    f27: 1
    f28: 1
    f29: 1
    f3: 1
    f30: 1
    f31: 198
    f4: 1
    f5: 1
    f6: 1
    f7: 1
    f8: 1
    f9: 1
    coverage: 32/32
  rs1:
    f0: 1
    f1: 1
    f10: 1
    f11: 1
    f12: 1
    f13: 1
    f14: 1
    f15: 1
    f16: 1
    f17: 1
    f18: 1
    f19: 1
    f2: 1
    f20: 1
    f21: 1
    f22: 1
    f23: 1
    f24: 1
    f25: 1
    f26: 1
    f27: 1
    f28: 1
    f29: 1
    f3: 1
    f30: 198
    f31: 1
    f4: 1
    f5: 1
    f6: 1
    f7: 1
    f8: 1
    f9: 1
    coverage: 32/32
  rs2:
    f0: 1
    f1: 1
    f10: 1
    f11: 1
    f12: 1
    f13: 1
    f14: 1
    f15: 1
    f16: 1
    f17: 1
    f18: 1
    f19: 1
    f2: 1
    f20: 1
    f21: 1
    f22: 1
    f23: 1
    f24: 1
    f25: 1
    f26: 1
    f27: 1
    f28: 1
    f29: 198
    f3: 1
    f30: 1
    f31: 1
    f4: 1
    f5: 1
    f6: 1
    f7: 1
    f8: 1
    f9: 1
    coverage: 32/32
  rs3:
    f0: 1
    f1: 1
    f10: 1
    f11: 1
    f12: 1
    f13: 1
    f14: 1
    f15: 1
    f16: 1
    f17: 1
    f18: 1
    f19: 1
    f2: 1
    f20: 1
    f21: 1
    f22: 1
    f23: 1
    f24: 1
    f25: 1
    f26: 1
    f27: 1
    f28: 198
    f29: 1
    f3: 1
    f30: 1
    f31: 1
    f4: 1
    f5: 1
    f6: 1
    f7: 1
    f8: 1
    f9: 1
    coverage: 32/32
  val_comb:
    ? 'fs1 == 0 and fe1 == 0xfc and fm1 == 0x2e1c2f and fs2 == 1 and fe2 == 0x81 and
      fm2 == 0x07d476 and fs3 == 0 and fe3 == 0xfe and fm3 == 0x38c2b9 and rm_val
      == 0  #nosat'
    : 1  #  rs1_val==fnorm(0x7e2e1c2f) and rs2_val==fnorm(0xc087d476) and rs3_val==fnorm(0x7f38c2b9) | Guard = 0 Round = 0 Sticky = 0 --> Minsubnorm + 0 ulp
    ? 'fs1 == 0 and fe1 == 0xfd and fm1 == 0x2b48d4 and fs2 == 1 and fe2 == 0x7e and
      fm2 == 0x6fe0a2 and fs3 == 0 and fe3 == 0xfd and fm3 == 0x207f4a and rm_val
      == 4  #nosat'
    : 1 #  rs1_val==fnorm(0x7eab48d4) and rs2_val==fnorm(0xbf6fe0a2) and rs3_val==fnorm(0x7ea07f4a) | Exponent = MinNorm.exp + 5
    ? 'fs1 == 0 and fe1 == 0xfd and fm1 == 0x2b48d4 and fs2 == 1 and fe2 == 0x7e and
      fm2 == 0x6fe0a2 and fs3 == 0 and fe3 == 0xfd and fm3 == 0x207f4a and rm_val
      == 3  #nosat'
    : 1 #  rs1_val==fnorm(0x7eab48d4) and rs2_val==fnorm(0xbf6fe0a2) and rs3_val==fnorm(0x7ea07f4a) | Exponent = MinNorm.exp + 5
    ? 'fs1 == 0 and fe1 == 0xfd and fm1 == 0x2b48d4 and fs2 == 1 and fe2 == 0x7e and
      fm2 == 0x6fe0a2 and fs3 == 0 and fe3 == 0xfd and fm3 == 0x207f4a and rm_val
      == 2  #nosat'
    : 1 #  rs1_val==fnorm(0x7eab48d4) and rs2_val==fnorm(0xbf6fe0a2) and rs3_val==fnorm(0x7ea07f4a) | Exponent = MinNorm.exp + 5
    ? 'fs1 == 0 and fe1 == 0xfd and fm1 == 0x2b48d4 and fs2 == 1 and fe2 == 0x7e and
      fm2 == 0x6fe0a2 and fs3 == 0 and fe3 == 0xfd and fm3 == 0x207f4a and rm_val
      == 1  #nosat'
    : 1 #  rs1_val==fnorm(0x7eab48d4) and rs2_val==fnorm(0xbf6fe0a2) and rs3_val==fnorm(0x7ea07f4a) | Exponent = MinNorm.exp + 5
    ? 'fs1 == 0 and fe1 == 0xfd and fm1 == 0x2b48d4 and fs2 == 1 and fe2 == 0x7e and
      fm2 == 0x6fe0a2 and fs3 == 0 and fe3 == 0xfd and fm3 == 0x207f4a and rm_val
      == 0  #nosat'
    : 1 #  rs1_val==fnorm(0x7eab48d4) and rs2_val==fnorm(0xbf6fe0a2) and rs3_val==fnorm(0x7ea07f4a) | Exponent = MinNorm.exp + 5
    ? 'fs1 == 0 and fe1 == 0xfc and fm1 == 0x31f5db and fs2 == 1 and fe2 == 0x7f and
      fm2 == 0x628967 and fs3 == 0 and fe3 == 0xfd and fm3 == 0x1d7a90 and rm_val
      == 4  #nosat'
    : 1 #  rs1_val==fnorm(0x7e31f5db) and rs2_val==fnorm(0xbfe28967) and rs3_val==fnorm(0x7e9d7a90) | Exponent = MinNorm.exp + 4
    ? 'fs1 == 0 and fe1 == 0xfc and fm1 == 0x31f5db and fs2 == 1 and fe2 == 0x7f and
      fm2 == 0x628967 and fs3 == 0 and fe3 == 0xfd and fm3 == 0x1d7a90 and rm_val
      == 3  #nosat'
    : 1 #  rs1_val==fnorm(0x7e31f5db) and rs2_val==fnorm(0xbfe28967) and rs3_val==fnorm(0x7e9d7a90) | Exponent = MinNorm.exp + 4
    ? 'fs1 == 0 and fe1 == 0xfc and fm1 == 0x31f5db and fs2 == 1 and fe2 == 0x7f and
      fm2 == 0x628967 and fs3 == 0 and fe3 == 0xfd and fm3 == 0x1d7a90 and rm_val
      == 2  #nosat'
    : 1 #  rs1_val==fnorm(0x7e31f5db) and rs2_val==fnorm(0xbfe28967) and rs3_val==fnorm(0x7e9d7a90) | Exponent = MinNorm.exp + 4
    ? 'fs1 == 0 and fe1 == 0xfc and fm1 == 0x31f5db and fs2 == 1 and fe2 == 0x7f and
      fm2 == 0x628967 and fs3 == 0 and fe3 == 0xfd and fm3 == 0x1d7a90 and rm_val
      == 1  #nosat'
    : 1 #  rs1_val==fnorm(0x7e31f5db) and rs2_val==fnorm(0xbfe28967) and rs3_val==fnorm(0x7e9d7a90) | Exponent = MinNorm.exp + 4
    ? 'fs1 == 0 and fe1 == 0xfc and fm1 == 0x31f5db and fs2 == 1 and fe2 == 0x7f and
      fm2 == 0x628967 and fs3 == 0 and fe3 == 0xfd and fm3 == 0x1d7a90 and rm_val
      == 0  #nosat'
    : 1 #  rs1_val==fnorm(0x7e31f5db) and rs2_val==fnorm(0xbfe28967) and rs3_val==fnorm(0x7e9d7a90) | Exponent = MinNorm.exp + 4
    ? 'fs1 == 0 and fe1 == 0xfc and fm1 == 0x02ae3a and fs2 == 1 and fe2 == 0x80 and
      fm2 == 0x23d78d and fs3 == 0 and fe3 == 0xfd and fm3 == 0x2745f0 and rm_val
      == 4  #nosat'
    : 2 #  rs1_val==fnorm(0x7e02ae3a) and rs2_val==fnorm(0xc023d78d) and rs3_val==fnorm(0x7ea745f0) | Exponent = MinNorm.exp + 3
    ? 'fs1 == 0 and fe1 == 0xfc and fm1 == 0x02ae3a and fs2 == 1 and fe2 == 0x80 and
      fm2 == 0x23d78d and fs3 == 0 and fe3 == 0xfd and fm3 == 0x2745f0 and rm_val
      == 3  #nosat'
    : 1 #  rs1_val==fnorm(0x7e02ae3a) and rs2_val==fnorm(0xc023d78d) and rs3_val==fnorm(0x7ea745f0) | Exponent = MinNorm.exp + 3
    ? 'fs1 == 0 and fe1 == 0xfc and fm1 == 0x02ae3a and fs2 == 1 and fe2 == 0x80 and
      fm2 == 0x23d78d and fs3 == 0 and fe3 == 0xfd and fm3 == 0x2745f0 and rm_val
      == 2  #nosat'
    : 1 #  rs1_val==fnorm(0x7e02ae3a) and rs2_val==fnorm(0xc023d78d) and rs3_val==fnorm(0x7ea745f0) | Exponent = MinNorm.exp + 3
    ? 'fs1 == 0 and fe1 == 0xfc and fm1 == 0x02ae3a and fs2 == 1 and fe2 == 0x80 and
      fm2 == 0x23d78d and fs3 == 0 and fe3 == 0xfd and fm3 == 0x2745f0 and rm_val
      == 1  #nosat'
    : 1 #  rs1_val==fnorm(0x7e02ae3a) and rs2_val==fnorm(0xc023d78d) and rs3_val==fnorm(0x7ea745f0) | Exponent = MinNorm.exp + 3
    ? 'fs1 == 0 and fe1 == 0xfc and fm1 == 0x02ae3a and fs2 == 1 and fe2 == 0x80 and
      fm2 == 0x23d78d and fs3 == 0 and fe3 == 0xfd and fm3 == 0x2745f0 and rm_val
      == 0  #nosat'
    : 1 #  rs1_val==fnorm(0x7e02ae3a) and rs2_val==fnorm(0xc023d78d) and rs3_val==fnorm(0x7ea745f0) | Exponent = MinNorm.exp + 3
    ? 'fs1 == 0 and fe1 == 0xfe and fm1 == 0x12bec8 and fs2 == 1 and fe2 == 0x7d and
      fm2 == 0x64fb22 and fs3 == 0 and fe3 == 0xfd and fm3 == 0x0341df and rm_val
      == 4  #nosat'
    : 1 #  rs1_val==fnorm(0x7f12bec8) and rs2_val==fnorm(0xbee4fb22) and rs3_val==fnorm(0x7e8341df) | Exponent = MinNorm.exp + 2
    ? 'fs1 == 0 and fe1 == 0xfe and fm1 == 0x12bec8 and fs2 == 1 and fe2 == 0x7d and
      fm2 == 0x64fb22 and fs3 == 0 and fe3 == 0xfd and fm3 == 0x0341df and rm_val
      == 3  #nosat'
    : 1 #  rs1_val==fnorm(0x7f12bec8) and rs2_val==fnorm(0xbee4fb22) and rs3_val==fnorm(0x7e8341df) | Exponent = MinNorm.exp + 2
    ? 'fs1 == 0 and fe1 == 0xfe and fm1 == 0x12bec8 and fs2 == 1 and fe2 == 0x7d and
      fm2 == 0x64fb22 and fs3 == 0 and fe3 == 0xfd and fm3 == 0x0341df and rm_val
      == 2  #nosat'
    : 1 #  rs1_val==fnorm(0x7f12bec8) and rs2_val==fnorm(0xbee4fb22) and rs3_val==fnorm(0x7e8341df) | Exponent = MinNorm.exp + 2
    ? 'fs1 == 0 and fe1 == 0xfe and fm1 == 0x12bec8 and fs2 == 1 and fe2 == 0x7d and
      fm2 == 0x64fb22 and fs3 == 0 and fe3 == 0xfd and fm3 == 0x0341df and rm_val
      == 1  #nosat'
    : 1 #  rs1_val==fnorm(0x7f12bec8) and rs2_val==fnorm(0xbee4fb22) and rs3_val==fnorm(0x7e8341df) | Exponent = MinNorm.exp + 2
    ? 'fs1 == 0 and fe1 == 0xfe and fm1 == 0x12bec8 and fs2 == 1 and fe2 == 0x7d and
      fm2 == 0x64fb22 and fs3 == 0 and fe3 == 0xfd and fm3 == 0x0341df and rm_val
      == 0  #nosat'
    : 1 #  rs1_val==fnorm(0x7f12bec8) and rs2_val==fnorm(0xbee4fb22) and rs3_val==fnorm(0x7e8341df) | Exponent = MinNorm.exp + 2
    ? 'fs1 == 0 and fe1 == 0xfc and fm1 == 0x666f32 and fs2 == 1 and fe2 == 0x7a and
      fm2 == 0x34700f and fs3 == 0 and fe3 == 0xf8 and fm3 == 0x226b0e and rm_val
      == 4  #nosat'
    : 1 #  rs1_val==fnorm(0x7e666f32) and rs2_val==fnorm(0xbd34700f) and rs3_val==fnorm(0x7c226b0e) | Exponent = MinNorm.exp + 1
    ? 'fs1 == 0 and fe1 == 0xfc and fm1 == 0x666f32 and fs2 == 1 and fe2 == 0x7a and
      fm2 == 0x34700f and fs3 == 0 and fe3 == 0xf8 and fm3 == 0x226b0e and rm_val
      == 3  #nosat'
    : 1 #  rs1_val==fnorm(0x7e666f32) and rs2_val==fnorm(0xbd34700f) and rs3_val==fnorm(0x7c226b0e) | Exponent = MinNorm.exp + 1
    ? 'fs1 == 0 and fe1 == 0xfc and fm1 == 0x666f32 and fs2 == 1 and fe2 == 0x7a and
      fm2 == 0x34700f and fs3 == 0 and fe3 == 0xf8 and fm3 == 0x226b0e and rm_val
      == 2  #nosat'
    : 1 #  rs1_val==fnorm(0x7e666f32) and rs2_val==fnorm(0xbd34700f) and rs3_val==fnorm(0x7c226b0e) | Exponent = MinNorm.exp + 1
    ? 'fs1 == 0 and fe1 == 0xfc and fm1 == 0x666f32 and fs2 == 1 and fe2 == 0x7a and
      fm2 == 0x34700f and fs3 == 0 and fe3 == 0xf8 and fm3 == 0x226b0e and rm_val
      == 1  #nosat'
    : 1 #  rs1_val==fnorm(0x7e666f32) and rs2_val==fnorm(0xbd34700f) and rs3_val==fnorm(0x7c226b0e) | Exponent = MinNorm.exp + 1
    ? 'fs1 == 0 and fe1 == 0xfc and fm1 == 0x666f32 and fs2 == 1 and fe2 == 0x7a and
      fm2 == 0x34700f and fs3 == 0 and fe3 == 0xf8 and fm3 == 0x226b0e and rm_val
      == 0  #nosat'
    : 1 #  rs1_val==fnorm(0x7e666f32) and rs2_val==fnorm(0xbd34700f) and rs3_val==fnorm(0x7c226b0e) | Exponent = MinNorm.exp + 1
    ? 'fs1 == 0 and fe1 == 0xfc and fm1 == 0x1afd1d and fs2 == 1 and fe2 == 0x80 and
      fm2 == 0x7312ff and fs3 == 0 and fe3 == 0xfe and fm3 == 0x1329c3 and rm_val
      == 4  #nosat'
    : 1 #  rs1_val==fnorm(0x7e1afd1d) and rs2_val==fnorm(0xc07312ff) and rs3_val==fnorm(0x7f1329c3) | Exponent = MinNorm.exp + 0
    ? 'fs1 == 0 and fe1 == 0xfc and fm1 == 0x1afd1d and fs2 == 1 and fe2 == 0x80 and
      fm2 == 0x7312ff and fs3 == 0 and fe3 == 0xfe and fm3 == 0x1329c3 and rm_val
      == 3  #nosat'
    : 1 #  rs1_val==fnorm(0x7e1afd1d) and rs2_val==fnorm(0xc07312ff) and rs3_val==fnorm(0x7f1329c3) | Exponent = MinNorm.exp + 0
    ? 'fs1 == 0 and fe1 == 0xfc and fm1 == 0x1afd1d and fs2 == 1 and fe2 == 0x80 and
      fm2 == 0x7312ff and fs3 == 0 and fe3 == 0xfe and fm3 == 0x1329c3 and rm_val
      == 2  #nosat'
    : 1 #  rs1_val==fnorm(0x7e1afd1d) and rs2_val==fnorm(0xc07312ff) and rs3_val==fnorm(0x7f1329c3) | Exponent = MinNorm.exp + 0
    ? 'fs1 == 0 and fe1 == 0xfc and fm1 == 0x1afd1d and fs2 == 1 and fe2 == 0x80 and
      fm2 == 0x7312ff and fs3 == 0 and fe3 == 0xfe and fm3 == 0x1329c3 and rm_val
      == 1  #nosat'
    : 1 #  rs1_val==fnorm(0x7e1afd1d) and rs2_val==fnorm(0xc07312ff) and rs3_val==fnorm(0x7f1329c3) | Exponent = MinNorm.exp + 0
    ? 'fs1 == 0 and fe1 == 0xfc and fm1 == 0x1afd1d and fs2 == 1 and fe2 == 0x80 and
      fm2 == 0x7312ff and fs3 == 0 and fe3 == 0xfe and fm3 == 0x1329c3 and rm_val
      == 0  #nosat'
    : 1 #  rs1_val==fnorm(0x7e1afd1d) and rs2_val==fnorm(0xc07312ff) and rs3_val==fnorm(0x7f1329c3) | Exponent = MinNorm.exp + 0
    ? 'fs1 == 0 and fe1 == 0xfd and fm1 == 0x7ea866 and fs2 == 1 and fe2 == 0x7f and
      fm2 == 0x3c2825 and fs3 == 0 and fe3 == 0xfe and fm3 == 0x3b2b9b and rm_val
      == 4  #nosat'
    : 1 #  rs1_val==fnorm(0x7efea866) and rs2_val==fnorm(0xbfbc2825) and rs3_val==fnorm(0x7f3b2b9b) | Guard = 1 Round = 1 Sticky = 1 --> Minnorm + 7 ulp
    ? 'fs1 == 0 and fe1 == 0xfd and fm1 == 0x7ea866 and fs2 == 1 and fe2 == 0x7f and
      fm2 == 0x3c2825 and fs3 == 0 and fe3 == 0xfe and fm3 == 0x3b2b9b and rm_val
      == 3  #nosat'
    : 1 #  rs1_val==fnorm(0x7efea866) and rs2_val==fnorm(0xbfbc2825) and rs3_val==fnorm(0x7f3b2b9b) | Guard = 1 Round = 1 Sticky = 1 --> Minnorm + 7 ulp
    ? 'fs1 == 0 and fe1 == 0xfd and fm1 == 0x7ea866 and fs2 == 1 and fe2 == 0x7f and
      fm2 == 0x3c2825 and fs3 == 0 and fe3 == 0xfe and fm3 == 0x3b2b9b and rm_val
      == 2  #nosat'
    : 1 #  rs1_val==fnorm(0x7efea866) and rs2_val==fnorm(0xbfbc2825) and rs3_val==fnorm(0x7f3b2b9b) | Guard = 1 Round = 1 Sticky = 1 --> Minnorm + 7 ulp
    ? 'fs1 == 0 and fe1 == 0xfd and fm1 == 0x7ea866 and fs2 == 1 and fe2 == 0x7f and
      fm2 == 0x3c2825 and fs3 == 0 and fe3 == 0xfe and fm3 == 0x3b2b9b and rm_val
      == 1  #nosat'
    : 1 #  rs1_val==fnorm(0x7efea866) and rs2_val==fnorm(0xbfbc2825) and rs3_val==fnorm(0x7f3b2b9b) | Guard = 1 Round = 1 Sticky = 1 --> Minnorm + 7 ulp
    ? 'fs1 == 0 and fe1 == 0xfd and fm1 == 0x7ea866 and fs2 == 1 and fe2 == 0x7f and
      fm2 == 0x3c2825 and fs3 == 0 and fe3 == 0xfe and fm3 == 0x3b2b9b and rm_val
      == 0  #nosat'
    : 1 #  rs1_val==fnorm(0x7efea866) and rs2_val==fnorm(0xbfbc2825) and rs3_val==fnorm(0x7f3b2b9b) | Guard = 1 Round = 1 Sticky = 1 --> Minnorm + 7 ulp
    ? 'fs1 == 0 and fe1 == 0xfd and fm1 == 0x182a54 and fs2 == 1 and fe2 == 0x7d and
      fm2 == 0x56b7cf and fs3 == 0 and fe3 == 0xfb and fm3 == 0x7f4148 and rm_val
      == 4  #nosat'
    : 1 #  rs1_val==fnorm(0x7e982a54) and rs2_val==fnorm(0xbed6b7cf) and rs3_val==fnorm(0x7dff4148) | Guard = 1 Round = 1 Sticky = 0 --> Minnorm + 6 ulp
    ? 'fs1 == 0 and fe1 == 0xfd and fm1 == 0x182a54 and fs2 == 1 and fe2 == 0x7d and
      fm2 == 0x56b7cf and fs3 == 0 and fe3 == 0xfb and fm3 == 0x7f4148 and rm_val
      == 3  #nosat'
    : 1 #  rs1_val==fnorm(0x7e982a54) and rs2_val==fnorm(0xbed6b7cf) and rs3_val==fnorm(0x7dff4148) | Guard = 1 Round = 1 Sticky = 0 --> Minnorm + 6 ulp
    ? 'fs1 == 0 and fe1 == 0xfd and fm1 == 0x182a54 and fs2 == 1 and fe2 == 0x7d and
      fm2 == 0x56b7cf and fs3 == 0 and fe3 == 0xfb and fm3 == 0x7f4148 and rm_val
      == 2  #nosat'
    : 1 #  rs1_val==fnorm(0x7e982a54) and rs2_val==fnorm(0xbed6b7cf) and rs3_val==fnorm(0x7dff4148) | Guard = 1 Round = 1 Sticky = 0 --> Minnorm + 6 ulp
    ? 'fs1 == 0 and fe1 == 0xfd and fm1 == 0x182a54 and fs2 == 1 and fe2 == 0x7d and
      fm2 == 0x56b7cf and fs3 == 0 and fe3 == 0xfb and fm3 == 0x7f4148 and rm_val
      == 1  #nosat'
    : 1 #  rs1_val==fnorm(0x7e982a54) and rs2_val==fnorm(0xbed6b7cf) and rs3_val==fnorm(0x7dff4148) | Guard = 1 Round = 1 Sticky = 0 --> Minnorm + 6 ulp
    ? 'fs1 == 0 and fe1 == 0xfd and fm1 == 0x182a54 and fs2 == 1 and fe2 == 0x7d and
      fm2 == 0x56b7cf and fs3 == 0 and fe3 == 0xfb and fm3 == 0x7f4148 and rm_val
      == 0  #nosat'
    : 1 #  rs1_val==fnorm(0x7e982a54) and rs2_val==fnorm(0xbed6b7cf) and rs3_val==fnorm(0x7dff4148) | Guard = 1 Round = 1 Sticky = 0 --> Minnorm + 6 ulp
    ? 'fs1 == 0 and fe1 == 0xfe and fm1 == 0x2b296b and fs2 == 1 and fe2 == 0x7c and
      fm2 == 0x494e1c and fs3 == 0 and fe3 == 0xfc and fm3 == 0x0697be and rm_val
      == 4  #nosat'
    : 1 #  rs1_val==fnorm(0x7f2b296b) and rs2_val==fnorm(0xbe494e1c) and rs3_val==fnorm(0x7e0697be) | Guard = 1 Round = 0 Sticky = 1 --> Minnorm + 5 ulp
    ? 'fs1 == 0 and fe1 == 0xfe and fm1 == 0x2b296b and fs2 == 1 and fe2 == 0x7c and
      fm2 == 0x494e1c and fs3 == 0 and fe3 == 0xfc and fm3 == 0x0697be and rm_val
      == 3  #nosat'
    : 1 #  rs1_val==fnorm(0x7f2b296b) and rs2_val==fnorm(0xbe494e1c) and rs3_val==fnorm(0x7e0697be) | Guard = 1 Round = 0 Sticky = 1 --> Minnorm + 5 ulp
    ? 'fs1 == 0 and fe1 == 0xfe and fm1 == 0x2b296b and fs2 == 1 and fe2 == 0x7c and
      fm2 == 0x494e1c and fs3 == 0 and fe3 == 0xfc and fm3 == 0x0697be and rm_val
      == 2  #nosat'
    : 1 #  rs1_val==fnorm(0x7f2b296b) and rs2_val==fnorm(0xbe494e1c) and rs3_val==fnorm(0x7e0697be) | Guard = 1 Round = 0 Sticky = 1 --> Minnorm + 5 ulp
    ? 'fs1 == 0 and fe1 == 0xfe and fm1 == 0x2b296b and fs2 == 1 and fe2 == 0x7c and
      fm2 == 0x494e1c and fs3 == 0 and fe3 == 0xfc and fm3 == 0x0697be and rm_val
      == 1  #nosat'
    : 1 #  rs1_val==fnorm(0x7f2b296b) and rs2_val==fnorm(0xbe494e1c) and rs3_val==fnorm(0x7e0697be) | Guard = 1 Round = 0 Sticky = 1 --> Minnorm + 5 ulp
    ? 'fs1 == 0 and fe1 == 0xfe and fm1 == 0x2b296b and fs2 == 1 and fe2 == 0x7c and
      fm2 == 0x494e1c and fs3 == 0 and fe3 == 0xfc and fm3 == 0x0697be and rm_val
      == 0  #nosat'
    : 1 #  rs1_val==fnorm(0x7f2b296b) and rs2_val==fnorm(0xbe494e1c) and rs3_val==fnorm(0x7e0697be) | Guard = 1 Round = 0 Sticky = 1 --> Minnorm + 5 ulp
    ? 'fs1 == 0 and fe1 == 0xfd and fm1 == 0x10bd56 and fs2 == 1 and fe2 == 0x80 and
      fm2 == 0x0da990 and fs3 == 0 and fe3 == 0xfe and fm3 == 0x20304e and rm_val
      == 4  #nosat'
    : 1 #  rs1_val==fnorm(0x7e90bd56) and rs2_val==fnorm(0xc00da990) and rs3_val==fnorm(0x7f20304e) | Guard = 1 Round = 0 Sticky = 0 --> Minnorm + 4 ulp
    ? 'fs1 == 0 and fe1 == 0xfd and fm1 == 0x10bd56 and fs2 == 1 and fe2 == 0x80 and
      fm2 == 0x0da990 and fs3 == 0 and fe3 == 0xfe and fm3 == 0x20304e and rm_val
      == 3  #nosat'
    : 1 #  rs1_val==fnorm(0x7e90bd56) and rs2_val==fnorm(0xc00da990) and rs3_val==fnorm(0x7f20304e) | Guard = 1 Round = 0 Sticky = 0 --> Minnorm + 4 ulp
    ? 'fs1 == 0 and fe1 == 0xfd and fm1 == 0x10bd56 and fs2 == 1 and fe2 == 0x80 and
      fm2 == 0x0da990 and fs3 == 0 and fe3 == 0xfe and fm3 == 0x20304e and rm_val
      == 2  #nosat'
    : 1 #  rs1_val==fnorm(0x7e90bd56) and rs2_val==fnorm(0xc00da990) and rs3_val==fnorm(0x7f20304e) | Guard = 1 Round = 0 Sticky = 0 --> Minnorm + 4 ulp
    ? 'fs1 == 0 and fe1 == 0xfd and fm1 == 0x10bd56 and fs2 == 1 and fe2 == 0x80 and
      fm2 == 0x0da990 and fs3 == 0 and fe3 == 0xfe and fm3 == 0x20304e and rm_val
      == 1  #nosat'
    : 1 #  rs1_val==fnorm(0x7e90bd56) and rs2_val==fnorm(0xc00da990) and rs3_val==fnorm(0x7f20304e) | Guard = 1 Round = 0 Sticky = 0 --> Minnorm + 4 ulp
    ? 'fs1 == 0 and fe1 == 0xfd and fm1 == 0x10bd56 and fs2 == 1 and fe2 == 0x80 and
      fm2 == 0x0da990 and fs3 == 0 and fe3 == 0xfe and fm3 == 0x20304e and rm_val
      == 0  #nosat'
    : 1 #  rs1_val==fnorm(0x7e90bd56) and rs2_val==fnorm(0xc00da990) and rs3_val==fnorm(0x7f20304e) | Guard = 1 Round = 0 Sticky = 0 --> Minnorm + 4 ulp
    ? 'fs1 == 0 and fe1 == 0xfc and fm1 == 0x4cef54 and fs2 == 1 and fe2 == 0x7f and
      fm2 == 0x4b1960 and fs3 == 0 and fe3 == 0xfd and fm3 == 0x229618 and rm_val
      == 4  #nosat'
    : 1 #  rs1_val==fnorm(0x7e4cef54) and rs2_val==fnorm(0xbfcb1960) and rs3_val==fnorm(0x7ea29618) | Guard = 0 Round = 1 Sticky = 1 --> Minnorm + 3 ulp
    ? 'fs1 == 0 and fe1 == 0xfc and fm1 == 0x4cef54 and fs2 == 1 and fe2 == 0x7f and
      fm2 == 0x4b1960 and fs3 == 0 and fe3 == 0xfd and fm3 == 0x229618 and rm_val
      == 3  #nosat'
    : 1 #  rs1_val==fnorm(0x7e4cef54) and rs2_val==fnorm(0xbfcb1960) and rs3_val==fnorm(0x7ea29618) | Guard = 0 Round = 1 Sticky = 1 --> Minnorm + 3 ulp
    ? 'fs1 == 0 and fe1 == 0xfc and fm1 == 0x4cef54 and fs2 == 1 and fe2 == 0x7f and
      fm2 == 0x4b1960 and fs3 == 0 and fe3 == 0xfd and fm3 == 0x229618 and rm_val
      == 2  #nosat'
    : 1 #  rs1_val==fnorm(0x7e4cef54) and rs2_val==fnorm(0xbfcb1960) and rs3_val==fnorm(0x7ea29618) | Guard = 0 Round = 1 Sticky = 1 --> Minnorm + 3 ulp
    ? 'fs1 == 0 and fe1 == 0xfc and fm1 == 0x4cef54 and fs2 == 1 and fe2 == 0x7f and
      fm2 == 0x4b1960 and fs3 == 0 and fe3 == 0xfd and fm3 == 0x229618 and rm_val
      == 1  #nosat'
    : 1 #  rs1_val==fnorm(0x7e4cef54) and rs2_val==fnorm(0xbfcb1960) and rs3_val==fnorm(0x7ea29618) | Guard = 0 Round = 1 Sticky = 1 --> Minnorm + 3 ulp
    ? 'fs1 == 0 and fe1 == 0xfc and fm1 == 0x4cef54 and fs2 == 1 and fe2 == 0x7f and
      fm2 == 0x4b1960 and fs3 == 0 and fe3 == 0xfd and fm3 == 0x229618 and rm_val
      == 0  #nosat'
    : 1 #  rs1_val==fnorm(0x7e4cef54) and rs2_val==fnorm(0xbfcb1960) and rs3_val==fnorm(0x7ea29618) | Guard = 0 Round = 1 Sticky = 1 --> Minnorm + 3 ulp
    ? 'fs1 == 0 and fe1 == 0xf8 and fm1 == 0x126d0d and fs2 == 1 and fe2 == 0x83 and
      fm2 == 0x666e32 and fs3 == 0 and fe3 == 0xfd and fm3 == 0x03cd01 and rm_val
      == 4  #nosat'
    : 1 #  rs1_val==fnorm(0x7c126d0d) and rs2_val==fnorm(0xc1e66e32) and rs3_val==fnorm(0x7e83cd01) | Guard = 0 Round = 1 Sticky = 0 --> Minnorm + 2 ulp
    ? 'fs1 == 0 and fe1 == 0xf8 and fm1 == 0x126d0d and fs2 == 1 and fe2 == 0x83 and
      fm2 == 0x666e32 and fs3 == 0 and fe3 == 0xfd and fm3 == 0x03cd01 and rm_val
      == 3  #nosat'
    : 1 #  rs1_val==fnorm(0x7c126d0d) and rs2_val==fnorm(0xc1e66e32) and rs3_val==fnorm(0x7e83cd01) | Guard = 0 Round = 1 Sticky = 0 --> Minnorm + 2 ulp
    ? 'fs1 == 0 and fe1 == 0xf8 and fm1 == 0x126d0d and fs2 == 1 and fe2 == 0x83 and
      fm2 == 0x666e32 and fs3 == 0 and fe3 == 0xfd and fm3 == 0x03cd01 and rm_val
      == 2  #nosat'
    : 1 #  rs1_val==fnorm(0x7c126d0d) and rs2_val==fnorm(0xc1e66e32) and rs3_val==fnorm(0x7e83cd01) | Guard = 0 Round = 1 Sticky = 0 --> Minnorm + 2 ulp
    ? 'fs1 == 0 and fe1 == 0xf8 and fm1 == 0x126d0d and fs2 == 1 and fe2 == 0x83 and
      fm2 == 0x666e32 and fs3 == 0 and fe3 == 0xfd and fm3 == 0x03cd01 and rm_val
      == 1  #nosat'
    : 1 #  rs1_val==fnorm(0x7c126d0d) and rs2_val==fnorm(0xc1e66e32) and rs3_val==fnorm(0x7e83cd01) | Guard = 0 Round = 1 Sticky = 0 --> Minnorm + 2 ulp
    ? 'fs1 == 0 and fe1 == 0xf8 and fm1 == 0x126d0d and fs2 == 1 and fe2 == 0x83 and
      fm2 == 0x666e32 and fs3 == 0 and fe3 == 0xfd and fm3 == 0x03cd01 and rm_val
      == 0  #nosat'
    : 1 #  rs1_val==fnorm(0x7c126d0d) and rs2_val==fnorm(0xc1e66e32) and rs3_val==fnorm(0x7e83cd01) | Guard = 0 Round = 1 Sticky = 0 --> Minnorm + 2 ulp
    ? 'fs1 == 0 and fe1 == 0xfc and fm1 == 0x28ecea and fs2 == 1 and fe2 == 0x7f and
      fm2 == 0x0ded2e and fs3 == 0 and fe3 == 0xfc and fm3 == 0x3b4dfe and rm_val
      == 4  #nosat'
    : 1 #  rs1_val==fnorm(0x7e28ecea) and rs2_val==fnorm(0xbf8ded2e) and rs3_val==fnorm(0x7e3b4dfe) | Guard = 0 Round = 0 Sticky = 1 --> Minnorm + 1 ulp
    ? 'fs1 == 0 and fe1 == 0xfc and fm1 == 0x28ecea and fs2 == 1 and fe2 == 0x7f and
      fm2 == 0x0ded2e and fs3 == 0 and fe3 == 0xfc and fm3 == 0x3b4dfe and rm_val
      == 3  #nosat'
    : 1 #  rs1_val==fnorm(0x7e28ecea) and rs2_val==fnorm(0xbf8ded2e) and rs3_val==fnorm(0x7e3b4dfe) | Guard = 0 Round = 0 Sticky = 1 --> Minnorm + 1 ulp
    ? 'fs1 == 0 and fe1 == 0xfc and fm1 == 0x28ecea and fs2 == 1 and fe2 == 0x7f and
      fm2 == 0x0ded2e and fs3 == 0 and fe3 == 0xfc and fm3 == 0x3b4dfe and rm_val
      == 2  #nosat'
    : 1 #  rs1_val==fnorm(0x7e28ecea) and rs2_val==fnorm(0xbf8ded2e) and rs3_val==fnorm(0x7e3b4dfe) | Guard = 0 Round = 0 Sticky = 1 --> Minnorm + 1 ulp
    ? 'fs1 == 0 and fe1 == 0xfc and fm1 == 0x28ecea and fs2 == 1 and fe2 == 0x7f and
      fm2 == 0x0ded2e and fs3 == 0 and fe3 == 0xfc and fm3 == 0x3b4dfe and rm_val
      == 1  #nosat'
    : 1 #  rs1_val==fnorm(0x7e28ecea) and rs2_val==fnorm(0xbf8ded2e) and rs3_val==fnorm(0x7e3b4dfe) | Guard = 0 Round = 0 Sticky = 1 --> Minnorm + 1 ulp
    ? 'fs1 == 0 and fe1 == 0xfc and fm1 == 0x28ecea and fs2 == 1 and fe2 == 0x7f and
      fm2 == 0x0ded2e and fs3 == 0 and fe3 == 0xfc and fm3 == 0x3b4dfe and rm_val
      == 0  #nosat'
    : 1 #  rs1_val==fnorm(0x7e28ecea) and rs2_val==fnorm(0xbf8ded2e) and rs3_val==fnorm(0x7e3b4dfe) | Guard = 0 Round = 0 Sticky = 1 --> Minnorm + 1 ulp
    ? 'fs1 == 0 and fe1 == 0xfd and fm1 == 0x42d924 and fs2 == 1 and fe2 == 0x7f and
      fm2 == 0x30e83a and fs3 == 0 and fe3 == 0xfe and fm3 == 0x06a60a and rm_val
      == 4  #nosat'
    : 1 #  rs1_val==fnorm(0x7ec2d924) and rs2_val==fnorm(0xbfb0e83a) and rs3_val==fnorm(0x7f06a60a) | Guard = 0 Round = 0 Sticky = 0 --> Minnorm + 0 ulp
    ? 'fs1 == 0 and fe1 == 0xfd and fm1 == 0x42d924 and fs2 == 1 and fe2 == 0x7f and
      fm2 == 0x30e83a and fs3 == 0 and fe3 == 0xfe and fm3 == 0x06a60a and rm_val
      == 3  #nosat'
    : 1 #  rs1_val==fnorm(0x7ec2d924) and rs2_val==fnorm(0xbfb0e83a) and rs3_val==fnorm(0x7f06a60a) | Guard = 0 Round = 0 Sticky = 0 --> Minnorm + 0 ulp
    ? 'fs1 == 0 and fe1 == 0xfd and fm1 == 0x42d924 and fs2 == 1 and fe2 == 0x7f and
      fm2 == 0x30e83a and fs3 == 0 and fe3 == 0xfe and fm3 == 0x06a60a and rm_val
      == 2  #nosat'
    : 1 #  rs1_val==fnorm(0x7ec2d924) and rs2_val==fnorm(0xbfb0e83a) and rs3_val==fnorm(0x7f06a60a) | Guard = 0 Round = 0 Sticky = 0 --> Minnorm + 0 ulp
    ? 'fs1 == 0 and fe1 == 0xfd and fm1 == 0x42d924 and fs2 == 1 and fe2 == 0x7f and
      fm2 == 0x30e83a and fs3 == 0 and fe3 == 0xfe and fm3 == 0x06a60a and rm_val
      == 1  #nosat'
    : 1 #  rs1_val==fnorm(0x7ec2d924) and rs2_val==fnorm(0xbfb0e83a) and rs3_val==fnorm(0x7f06a60a) | Guard = 0 Round = 0 Sticky = 0 --> Minnorm + 0 ulp
    ? 'fs1 == 0 and fe1 == 0xfd and fm1 == 0x42d924 and fs2 == 1 and fe2 == 0x7f and
      fm2 == 0x30e83a and fs3 == 0 and fe3 == 0xfe and fm3 == 0x06a60a and rm_val
      == 0  #nosat'
    : 1 #  rs1_val==fnorm(0x7ec2d924) and rs2_val==fnorm(0xbfb0e83a) and rs3_val==fnorm(0x7f06a60a) | Guard = 0 Round = 0 Sticky = 0 --> Minnorm + 0 ulp
    ? 'fs1 == 0 and fe1 == 0xfa and fm1 == 0x5b67a0 and fs2 == 1 and fe2 == 0x82 and
      fm2 == 0x4a57e5 and fs3 == 0 and fe3 == 0xfe and fm3 == 0x2d6b19 and rm_val
      == 4  #nosat'
    : 1 #  rs1_val==fnorm(0x7d5b67a0) and rs2_val==fnorm(0xc14a57e5) and rs3_val==fnorm(0x7f2d6b19) | Guard = 1 Round = 1 Sticky = 1 --> Minsubnorm + 7 ulp
    ? 'fs1 == 0 and fe1 == 0xfa and fm1 == 0x5b67a0 and fs2 == 1 and fe2 == 0x82 and
      fm2 == 0x4a57e5 and fs3 == 0 and fe3 == 0xfe and fm3 == 0x2d6b19 and rm_val
      == 3  #nosat'
    : 1 #  rs1_val==fnorm(0x7d5b67a0) and rs2_val==fnorm(0xc14a57e5) and rs3_val==fnorm(0x7f2d6b19) | Guard = 1 Round = 1 Sticky = 1 --> Minsubnorm + 7 ulp
    ? 'fs1 == 0 and fe1 == 0xfa and fm1 == 0x5b67a0 and fs2 == 1 and fe2 == 0x82 and
      fm2 == 0x4a57e5 and fs3 == 0 and fe3 == 0xfe and fm3 == 0x2d6b19 and rm_val
      == 2  #nosat'
    : 1 #  rs1_val==fnorm(0x7d5b67a0) and rs2_val==fnorm(0xc14a57e5) and rs3_val==fnorm(0x7f2d6b19) | Guard = 1 Round = 1 Sticky = 1 --> Minsubnorm + 7 ulp
    ? 'fs1 == 0 and fe1 == 0xfa and fm1 == 0x5b67a0 and fs2 == 1 and fe2 == 0x82 and
      fm2 == 0x4a57e5 and fs3 == 0 and fe3 == 0xfe and fm3 == 0x2d6b19 and rm_val
      == 1  #nosat'
    : 1 #  rs1_val==fnorm(0x7d5b67a0) and rs2_val==fnorm(0xc14a57e5) and rs3_val==fnorm(0x7f2d6b19) | Guard = 1 Round = 1 Sticky = 1 --> Minsubnorm + 7 ulp
    ? 'fs1 == 0 and fe1 == 0xfa and fm1 == 0x5b67a0 and fs2 == 1 and fe2 == 0x82 and
      fm2 == 0x4a57e5 and fs3 == 0 and fe3 == 0xfe and fm3 == 0x2d6b19 and rm_val
      == 0  #nosat'
    : 1 #  rs1_val==fnorm(0x7d5b67a0) and rs2_val==fnorm(0xc14a57e5) and rs3_val==fnorm(0x7f2d6b19) | Guard = 1 Round = 1 Sticky = 1 --> Minsubnorm + 7 ulp
    ? 'fs1 == 0 and fe1 == 0xfd and fm1 == 0x4b074e and fs2 == 1 and fe2 == 0x7e and
      fm2 == 0x76d5a9 and fs3 == 0 and fe3 == 0xfd and fm3 == 0x43c279 and rm_val
      == 4  #nosat'
    : 1 #  rs1_val==fnorm(0x7ecb074e) and rs2_val==fnorm(0xbf76d5a9) and rs3_val==fnorm(0x7ec3c279) | Guard = 1 Round = 1 Sticky = 0 --> Minsubnorm + 6 ulp
    ? 'fs1 == 0 and fe1 == 0xfd and fm1 == 0x4b074e and fs2 == 1 and fe2 == 0x7e and
      fm2 == 0x76d5a9 and fs3 == 0 and fe3 == 0xfd and fm3 == 0x43c279 and rm_val
      == 3  #nosat'
    : 1 #  rs1_val==fnorm(0x7ecb074e) and rs2_val==fnorm(0xbf76d5a9) and rs3_val==fnorm(0x7ec3c279) | Guard = 1 Round = 1 Sticky = 0 --> Minsubnorm + 6 ulp
    ? 'fs1 == 0 and fe1 == 0xfd and fm1 == 0x4b074e and fs2 == 1 and fe2 == 0x7e and
      fm2 == 0x76d5a9 and fs3 == 0 and fe3 == 0xfd and fm3 == 0x43c279 and rm_val
      == 2  #nosat'
    : 1 #  rs1_val==fnorm(0x7ecb074e) and rs2_val==fnorm(0xbf76d5a9) and rs3_val==fnorm(0x7ec3c279) | Guard = 1 Round = 1 Sticky = 0 --> Minsubnorm + 6 ulp
    ? 'fs1 == 0 and fe1 == 0xfd and fm1 == 0x4b074e and fs2 == 1 and fe2 == 0x7e and
      fm2 == 0x76d5a9 and fs3 == 0 and fe3 == 0xfd and fm3 == 0x43c279 and rm_val
      == 1  #nosat'
    : 1 #  rs1_val==fnorm(0x7ecb074e) and rs2_val==fnorm(0xbf76d5a9) and rs3_val==fnorm(0x7ec3c279) | Guard = 1 Round = 1 Sticky = 0 --> Minsubnorm + 6 ulp
    ? 'fs1 == 0 and fe1 == 0xfd and fm1 == 0x4b074e and fs2 == 1 and fe2 == 0x7e and
      fm2 == 0x76d5a9 and fs3 == 0 and fe3 == 0xfd and fm3 == 0x43c279 and rm_val
      == 0  #nosat'
    : 1 #  rs1_val==fnorm(0x7ecb074e) and rs2_val==fnorm(0xbf76d5a9) and rs3_val==fnorm(0x7ec3c279) | Guard = 1 Round = 1 Sticky = 0 --> Minsubnorm + 6 ulp
    ? 'fs1 == 0 and fe1 == 0xfc and fm1 == 0x17cb34 and fs2 == 1 and fe2 == 0x7e and
      fm2 == 0x427de0 and fs3 == 0 and fe3 == 0xfb and fm3 == 0x66a542 and rm_val
      == 4  #nosat'
    : 1 #  rs1_val==fnorm(0x7e17cb34) and rs2_val==fnorm(0xbf427de0) and rs3_val==fnorm(0x7de6a542) | Guard = 1 Round = 0 Sticky = 1 --> Minsubnorm + 5 ulp
    ? 'fs1 == 0 and fe1 == 0xfc and fm1 == 0x17cb34 and fs2 == 1 and fe2 == 0x7e and
      fm2 == 0x427de0 and fs3 == 0 and fe3 == 0xfb and fm3 == 0x66a542 and rm_val
      == 3  #nosat'
    : 1 #  rs1_val==fnorm(0x7e17cb34) and rs2_val==fnorm(0xbf427de0) and rs3_val==fnorm(0x7de6a542) | Guard = 1 Round = 0 Sticky = 1 --> Minsubnorm + 5 ulp
    ? 'fs1 == 0 and fe1 == 0xfc and fm1 == 0x17cb34 and fs2 == 1 and fe2 == 0x7e and
      fm2 == 0x427de0 and fs3 == 0 and fe3 == 0xfb and fm3 == 0x66a542 and rm_val
      == 2  #nosat'
    : 1 #  rs1_val==fnorm(0x7e17cb34) and rs2_val==fnorm(0xbf427de0) and rs3_val==fnorm(0x7de6a542) | Guard = 1 Round = 0 Sticky = 1 --> Minsubnorm + 5 ulp
    ? 'fs1 == 0 and fe1 == 0xfc and fm1 == 0x17cb34 and fs2 == 1 and fe2 == 0x7e and
      fm2 == 0x427de0 and fs3 == 0 and fe3 == 0xfb and fm3 == 0x66a542 and rm_val
      == 1  #nosat'
    : 1 #  rs1_val==fnorm(0x7e17cb34) and rs2_val==fnorm(0xbf427de0) and rs3_val==fnorm(0x7de6a542) | Guard = 1 Round = 0 Sticky = 1 --> Minsubnorm + 5 ulp
    ? 'fs1 == 0 and fe1 == 0xfc and fm1 == 0x17cb34 and fs2 == 1 and fe2 == 0x7e and
      fm2 == 0x427de0 and fs3 == 0 and fe3 == 0xfb and fm3 == 0x66a542 and rm_val
      == 0  #nosat'
    : 1 #  rs1_val==fnorm(0x7e17cb34) and rs2_val==fnorm(0xbf427de0) and rs3_val==fnorm(0x7de6a542) | Guard = 1 Round = 0 Sticky = 1 --> Minsubnorm + 5 ulp
    ? 'fs1 == 0 and fe1 == 0xfe and fm1 == 0x21f35d and fs2 == 1 and fe2 == 0x7e and
      fm2 == 0x18d959 and fs3 == 0 and fe3 == 0xfd and fm3 == 0x4163ff and rm_val
      == 4  #nosat'
    : 1 #  rs1_val==fnorm(0x7f21f35d) and rs2_val==fnorm(0xbf18d959) and rs3_val==fnorm(0x7ec163ff) | Guard = 1 Round = 0 Sticky = 0 --> Minsubnorm + 4 ulp
    ? 'fs1 == 0 and fe1 == 0xfe and fm1 == 0x21f35d and fs2 == 1 and fe2 == 0x7e and
      fm2 == 0x18d959 and fs3 == 0 and fe3 == 0xfd and fm3 == 0x4163ff and rm_val
      == 3  #nosat'
    : 1 #  rs1_val==fnorm(0x7f21f35d) and rs2_val==fnorm(0xbf18d959) and rs3_val==fnorm(0x7ec163ff) | Guard = 1 Round = 0 Sticky = 0 --> Minsubnorm + 4 ulp
    ? 'fs1 == 0 and fe1 == 0xfe and fm1 == 0x21f35d and fs2 == 1 and fe2 == 0x7e and
      fm2 == 0x18d959 and fs3 == 0 and fe3 == 0xfd and fm3 == 0x4163ff and rm_val
      == 2  #nosat'
    : 1 #  rs1_val==fnorm(0x7f21f35d) and rs2_val==fnorm(0xbf18d959) and rs3_val==fnorm(0x7ec163ff) | Guard = 1 Round = 0 Sticky = 0 --> Minsubnorm + 4 ulp
    ? 'fs1 == 0 and fe1 == 0xfe and fm1 == 0x21f35d and fs2 == 1 and fe2 == 0x7e and
      fm2 == 0x18d959 and fs3 == 0 and fe3 == 0xfd and fm3 == 0x4163ff and rm_val
      == 1  #nosat'
    : 1 #  rs1_val==fnorm(0x7f21f35d) and rs2_val==fnorm(0xbf18d959) and rs3_val==fnorm(0x7ec163ff) | Guard = 1 Round = 0 Sticky = 0 --> Minsubnorm + 4 ulp
    ? 'fs1 == 0 and fe1 == 0xfe and fm1 == 0x21f35d and fs2 == 1 and fe2 == 0x7e and
      fm2 == 0x18d959 and fs3 == 0 and fe3 == 0xfd and fm3 == 0x4163ff and rm_val
      == 0  #nosat'
    : 1 #  rs1_val==fnorm(0x7f21f35d) and rs2_val==fnorm(0xbf18d959) and rs3_val==fnorm(0x7ec163ff) | Guard = 1 Round = 0 Sticky = 0 --> Minsubnorm + 4 ulp
    ? 'fs1 == 0 and fe1 == 0xfe and fm1 == 0x06cfd9 and fs2 == 1 and fe2 == 0x7f and
      fm2 == 0x2d2ef6 and fs3 == 0 and fe3 == 0xfe and fm3 == 0x366662 and rm_val
      == 4  #nosat'
    : 1 #  rs1_val==fnorm(0x7f06cfd9) and rs2_val==fnorm(0xbfad2ef6) and rs3_val==fnorm(0x7f366662) | Guard = 0 Round = 1 Sticky = 1 --> Minsubnorm + 3 ulp
    ? 'fs1 == 0 and fe1 == 0xfe and fm1 == 0x06cfd9 and fs2 == 1 and fe2 == 0x7f and
      fm2 == 0x2d2ef6 and fs3 == 0 and fe3 == 0xfe and fm3 == 0x366662 and rm_val
      == 3  #nosat'
    : 1 #  rs1_val==fnorm(0x7f06cfd9) and rs2_val==fnorm(0xbfad2ef6) and rs3_val==fnorm(0x7f366662) | Guard = 0 Round = 1 Sticky = 1 --> Minsubnorm + 3 ulp
    ? 'fs1 == 0 and fe1 == 0xfe and fm1 == 0x06cfd9 and fs2 == 1 and fe2 == 0x7f and
      fm2 == 0x2d2ef6 and fs3 == 0 and fe3 == 0xfe and fm3 == 0x366662 and rm_val
      == 2  #nosat'
    : 1 #  rs1_val==fnorm(0x7f06cfd9) and rs2_val==fnorm(0xbfad2ef6) and rs3_val==fnorm(0x7f366662) | Guard = 0 Round = 1 Sticky = 1 --> Minsubnorm + 3 ulp
    ? 'fs1 == 0 and fe1 == 0xfe and fm1 == 0x06cfd9 and fs2 == 1 and fe2 == 0x7f and
      fm2 == 0x2d2ef6 and fs3 == 0 and fe3 == 0xfe and fm3 == 0x366662 and rm_val
      == 1  #nosat'
    : 1 #  rs1_val==fnorm(0x7f06cfd9) and rs2_val==fnorm(0xbfad2ef6) and rs3_val==fnorm(0x7f366662) | Guard = 0 Round = 1 Sticky = 1 --> Minsubnorm + 3 ulp
    ? 'fs1 == 0 and fe1 == 0xfe and fm1 == 0x06cfd9 and fs2 == 1 and fe2 == 0x7f and
      fm2 == 0x2d2ef6 and fs3 == 0 and fe3 == 0xfe and fm3 == 0x366662 and rm_val
      == 0  #nosat'
    : 1 #  rs1_val==fnorm(0x7f06cfd9) and rs2_val==fnorm(0xbfad2ef6) and rs3_val==fnorm(0x7f366662) | Guard = 0 Round = 1 Sticky = 1 --> Minsubnorm + 3 ulp
    ? 'fs1 == 0 and fe1 == 0xfb and fm1 == 0x15f05d and fs2 == 1 and fe2 == 0x81 and
      fm2 == 0x62402e and fs3 == 0 and fe3 == 0xfe and fm3 == 0x0483c9 and rm_val
      == 4  #nosat'
    : 1 #  rs1_val==fnorm(0x7d95f05d) and rs2_val==fnorm(0xc0e2402e) and rs3_val==fnorm(0x7f0483c9) | Guard = 0 Round = 1 Sticky = 0 --> Minsubnorm + 2 ulp
    ? 'fs1 == 0 and fe1 == 0xfb and fm1 == 0x15f05d and fs2 == 1 and fe2 == 0x81 and
      fm2 == 0x62402e and fs3 == 0 and fe3 == 0xfe and fm3 == 0x0483c9 and rm_val
      == 3  #nosat'
    : 1 #  rs1_val==fnorm(0x7d95f05d) and rs2_val==fnorm(0xc0e2402e) and rs3_val==fnorm(0x7f0483c9) | Guard = 0 Round = 1 Sticky = 0 --> Minsubnorm + 2 ulp
    ? 'fs1 == 0 and fe1 == 0xfb and fm1 == 0x15f05d and fs2 == 1 and fe2 == 0x81 and
      fm2 == 0x62402e and fs3 == 0 and fe3 == 0xfe and fm3 == 0x0483c9 and rm_val
      == 2  #nosat'
    : 1 #  rs1_val==fnorm(0x7d95f05d) and rs2_val==fnorm(0xc0e2402e) and rs3_val==fnorm(0x7f0483c9) | Guard = 0 Round = 1 Sticky = 0 --> Minsubnorm + 2 ulp
    ? 'fs1 == 0 and fe1 == 0xfb and fm1 == 0x15f05d and fs2 == 1 and fe2 == 0x81 and
      fm2 == 0x62402e and fs3 == 0 and fe3 == 0xfe and fm3 == 0x0483c9 and rm_val
      == 1  #nosat'
    : 1 #  rs1_val==fnorm(0x7d95f05d) and rs2_val==fnorm(0xc0e2402e) and rs3_val==fnorm(0x7f0483c9) | Guard = 0 Round = 1 Sticky = 0 --> Minsubnorm + 2 ulp
    ? 'fs1 == 0 and fe1 == 0xfb and fm1 == 0x15f05d and fs2 == 1 and fe2 == 0x81 and
      fm2 == 0x62402e and fs3 == 0 and fe3 == 0xfe and fm3 == 0x0483c9 and rm_val
      == 0  #nosat'
    : 1 #  rs1_val==fnorm(0x7d95f05d) and rs2_val==fnorm(0xc0e2402e) and rs3_val==fnorm(0x7f0483c9) | Guard = 0 Round = 1 Sticky = 0 --> Minsubnorm + 2 ulp
    ? 'fs1 == 0 and fe1 == 0xfb and fm1 == 0x4f529d and fs2 == 1 and fe2 == 0x81 and
      fm2 == 0x3532e8 and fs3 == 0 and fe3 == 0xfe and fm3 == 0x12bea4 and rm_val
      == 4  #nosat'
    : 1 #  rs1_val==fnorm(0x7dcf529d) and rs2_val==fnorm(0xc0b532e8) and rs3_val==fnorm(0x7f12bea4) | Guard = 0 Round = 0 Sticky = 1 --> Minsubnorm + 1 ulp
    ? 'fs1 == 0 and fe1 == 0xfb and fm1 == 0x4f529d and fs2 == 1 and fe2 == 0x81 and
      fm2 == 0x3532e8 and fs3 == 0 and fe3 == 0xfe and fm3 == 0x12bea4 and rm_val
      == 3  #nosat'
    : 1 #  rs1_val==fnorm(0x7dcf529d) and rs2_val==fnorm(0xc0b532e8) and rs3_val==fnorm(0x7f12bea4) | Guard = 0 Round = 0 Sticky = 1 --> Minsubnorm + 1 ulp
    ? 'fs1 == 0 and fe1 == 0xfb and fm1 == 0x4f529d and fs2 == 1 and fe2 == 0x81 and
      fm2 == 0x3532e8 and fs3 == 0 and fe3 == 0xfe and fm3 == 0x12bea4 and rm_val
      == 2  #nosat'
    : 1 #  rs1_val==fnorm(0x7dcf529d) and rs2_val==fnorm(0xc0b532e8) and rs3_val==fnorm(0x7f12bea4) | Guard = 0 Round = 0 Sticky = 1 --> Minsubnorm + 1 ulp
    ? 'fs1 == 0 and fe1 == 0xfb and fm1 == 0x4f529d and fs2 == 1 and fe2 == 0x81 and
      fm2 == 0x3532e8 and fs3 == 0 and fe3 == 0xfe and fm3 == 0x12bea4 and rm_val
      == 1  #nosat'
    : 1 #  rs1_val==fnorm(0x7dcf529d) and rs2_val==fnorm(0xc0b532e8) and rs3_val==fnorm(0x7f12bea4) | Guard = 0 Round = 0 Sticky = 1 --> Minsubnorm + 1 ulp
    ? 'fs1 == 0 and fe1 == 0xfb and fm1 == 0x4f529d and fs2 == 1 and fe2 == 0x81 and
      fm2 == 0x3532e8 and fs3 == 0 and fe3 == 0xfe and fm3 == 0x12bea4 and rm_val
      == 0  #nosat'
    : 1 #  rs1_val==fnorm(0x7dcf529d) and rs2_val==fnorm(0xc0b532e8) and rs3_val==fnorm(0x7f12bea4) | Guard = 0 Round = 0 Sticky = 1 --> Minsubnorm + 1 ulp
    ? 'fs1 == 0 and fe1 == 0xfd and fm1 == 0x08f8b6 and fs2 == 1 and fe2 == 0x80 and
      fm2 == 0x1d8c50 and fs3 == 0 and fe3 == 0xfe and fm3 == 0x289736 and rm_val
      == 4  #nosat'
    : 1 #  rs1_val==fnorm(0x7e88f8b6) and rs2_val==fnorm(0xc01d8c50) and rs3_val==fnorm(0x7f289736) | Guard = 0 Round = 0 Sticky = 0 --> Minsubnorm + 0 ulp
    ? 'fs1 == 0 and fe1 == 0xfd and fm1 == 0x08f8b6 and fs2 == 1 and fe2 == 0x80 and
      fm2 == 0x1d8c50 and fs3 == 0 and fe3 == 0xfe and fm3 == 0x289736 and rm_val
      == 3  #nosat'
    : 1 #  rs1_val==fnorm(0x7e88f8b6) and rs2_val==fnorm(0xc01d8c50) and rs3_val==fnorm(0x7f289736) | Guard = 0 Round = 0 Sticky = 0 --> Minsubnorm + 0 ulp
    ? 'fs1 == 0 and fe1 == 0xfd and fm1 == 0x08f8b6 and fs2 == 1 and fe2 == 0x80 and
      fm2 == 0x1d8c50 and fs3 == 0 and fe3 == 0xfe and fm3 == 0x289736 and rm_val
      == 2  #nosat'
    : 1 #  rs1_val==fnorm(0x7e88f8b6) and rs2_val==fnorm(0xc01d8c50) and rs3_val==fnorm(0x7f289736) | Guard = 0 Round = 0 Sticky = 0 --> Minsubnorm + 0 ulp
    ? 'fs1 == 0 and fe1 == 0xfd and fm1 == 0x08f8b6 and fs2 == 1 and fe2 == 0x80 and
      fm2 == 0x1d8c50 and fs3 == 0 and fe3 == 0xfe and fm3 == 0x289736 and rm_val
      == 1  #nosat'
    : 1 #  rs1_val==fnorm(0x7e88f8b6) and rs2_val==fnorm(0xc01d8c50) and rs3_val==fnorm(0x7f289736) | Guard = 0 Round = 0 Sticky = 0 --> Minsubnorm + 0 ulp
    ? 'fs1 == 0 and fe1 == 0xfd and fm1 == 0x08f8b6 and fs2 == 1 and fe2 == 0x80 and
      fm2 == 0x1d8c50 and fs3 == 0 and fe3 == 0xfe and fm3 == 0x289736 and rm_val
      == 0  #nosat'
    : 1 #  rs1_val==fnorm(0x7e88f8b6) and rs2_val==fnorm(0xc01d8c50) and rs3_val==fnorm(0x7f289736) | Guard = 0 Round = 0 Sticky = 0 --> Minsubnorm + 0 ulp
    ? 'fs1 == 0 and fe1 == 0xfe and fm1 == 0x2924ed and fs2 == 1 and fe2 == 0x7d and
      fm2 == 0x260466 and fs3 == 0 and fe3 == 0xfc and fm3 == 0x5b61b5 and rm_val
      == 4  #nosat'
    : 1 #  rs1_val==fnorm(0x7f2924ed) and rs2_val==fnorm(0xbea60466) and rs3_val==fnorm(0x7e5b61b5) | Exponent = MinNorm.exp + 5
    ? 'fs1 == 0 and fe1 == 0xfe and fm1 == 0x2924ed and fs2 == 1 and fe2 == 0x7d and
      fm2 == 0x260466 and fs3 == 0 and fe3 == 0xfc and fm3 == 0x5b61b5 and rm_val
      == 3  #nosat'
    : 1 #  rs1_val==fnorm(0x7f2924ed) and rs2_val==fnorm(0xbea60466) and rs3_val==fnorm(0x7e5b61b5) | Exponent = MinNorm.exp + 5
    ? 'fs1 == 0 and fe1 == 0xfe and fm1 == 0x2924ed and fs2 == 1 and fe2 == 0x7d and
      fm2 == 0x260466 and fs3 == 0 and fe3 == 0xfc and fm3 == 0x5b61b5 and rm_val
      == 2  #nosat'
    : 1 #  rs1_val==fnorm(0x7f2924ed) and rs2_val==fnorm(0xbea60466) and rs3_val==fnorm(0x7e5b61b5) | Exponent = MinNorm.exp + 5
    ? 'fs1 == 0 and fe1 == 0xfe and fm1 == 0x2924ed and fs2 == 1 and fe2 == 0x7d and
      fm2 == 0x260466 and fs3 == 0 and fe3 == 0xfc and fm3 == 0x5b61b5 and rm_val
      == 1  #nosat'
    : 1 #  rs1_val==fnorm(0x7f2924ed) and rs2_val==fnorm(0xbea60466) and rs3_val==fnorm(0x7e5b61b5) | Exponent = MinNorm.exp + 5
    ? 'fs1 == 0 and fe1 == 0xfe and fm1 == 0x2924ed and fs2 == 1 and fe2 == 0x7d and
      fm2 == 0x260466 and fs3 == 0 and fe3 == 0xfc and fm3 == 0x5b61b5 and rm_val
      == 0  #nosat'
    : 1 #  rs1_val==fnorm(0x7f2924ed) and rs2_val==fnorm(0xbea60466) and rs3_val==fnorm(0x7e5b61b5) | Exponent = MinNorm.exp + 5
    ? 'fs1 == 0 and fe1 == 0xfd and fm1 == 0x5e5241 and fs2 == 1 and fe2 == 0x7f and
      fm2 == 0x212887 and fs3 == 0 and fe3 == 0xfe and fm3 == 0x0bf4ed and rm_val
      == 4  #nosat'
    : 1 #  rs1_val==fnorm(0x7ede5241) and rs2_val==fnorm(0xbfa12887) and rs3_val==fnorm(0x7f0bf4ed) | Exponent = MinNorm.exp + 4
    ? 'fs1 == 0 and fe1 == 0xfd and fm1 == 0x5e5241 and fs2 == 1 and fe2 == 0x7f and
      fm2 == 0x212887 and fs3 == 0 and fe3 == 0xfe and fm3 == 0x0bf4ed and rm_val
      == 3  #nosat'
    : 1 #  rs1_val==fnorm(0x7ede5241) and rs2_val==fnorm(0xbfa12887) and rs3_val==fnorm(0x7f0bf4ed) | Exponent = MinNorm.exp + 4
    ? 'fs1 == 0 and fe1 == 0xfd and fm1 == 0x5e5241 and fs2 == 1 and fe2 == 0x7f and
      fm2 == 0x212887 and fs3 == 0 and fe3 == 0xfe and fm3 == 0x0bf4ed and rm_val
      == 2  #nosat'
    : 1 #  rs1_val==fnorm(0x7ede5241) and rs2_val==fnorm(0xbfa12887) and rs3_val==fnorm(0x7f0bf4ed) | Exponent = MinNorm.exp + 4
    ? 'fs1 == 0 and fe1 == 0xfd and fm1 == 0x5e5241 and fs2 == 1 and fe2 == 0x7f and
      fm2 == 0x212887 and fs3 == 0 and fe3 == 0xfe and fm3 == 0x0bf4ed and rm_val
      == 1  #nosat'
    : 1 #  rs1_val==fnorm(0x7ede5241) and rs2_val==fnorm(0xbfa12887) and rs3_val==fnorm(0x7f0bf4ed) | Exponent = MinNorm.exp + 4
    ? 'fs1 == 0 and fe1 == 0xfd and fm1 == 0x5e5241 and fs2 == 1 and fe2 == 0x7f and
      fm2 == 0x212887 and fs3 == 0 and fe3 == 0xfe and fm3 == 0x0bf4ed and rm_val
      == 0  #nosat'
    : 1 #  rs1_val==fnorm(0x7ede5241) and rs2_val==fnorm(0xbfa12887) and rs3_val==fnorm(0x7f0bf4ed) | Exponent = MinNorm.exp + 4
    ? 'fs1 == 0 and fe1 == 0xfc and fm1 == 0x14e13e and fs2 == 1 and fe2 == 0x81 and
      fm2 == 0x1c2a84 and fs3 == 0 and fe3 == 0xfe and fm3 == 0x35a3f8 and rm_val
      == 4  #nosat'
    : 1 #  rs1_val==fnorm(0x7e14e13e) and rs2_val==fnorm(0xc09c2a84) and rs3_val==fnorm(0x7f35a3f8) | Exponent = MinNorm.exp + 3
    ? 'fs1 == 0 and fe1 == 0xfc and fm1 == 0x14e13e and fs2 == 1 and fe2 == 0x81 and
      fm2 == 0x1c2a84 and fs3 == 0 and fe3 == 0xfe and fm3 == 0x35a3f8 and rm_val
      == 3  #nosat'
    : 1 #  rs1_val==fnorm(0x7e14e13e) and rs2_val==fnorm(0xc09c2a84) and rs3_val==fnorm(0x7f35a3f8) | Exponent = MinNorm.exp + 3
    ? 'fs1 == 0 and fe1 == 0xfc and fm1 == 0x14e13e and fs2 == 1 and fe2 == 0x81 and
      fm2 == 0x1c2a84 and fs3 == 0 and fe3 == 0xfe and fm3 == 0x35a3f8 and rm_val
      == 2  #nosat'
    : 1 #  rs1_val==fnorm(0x7e14e13e) and rs2_val==fnorm(0xc09c2a84) and rs3_val==fnorm(0x7f35a3f8) | Exponent = MinNorm.exp + 3
    ? 'fs1 == 0 and fe1 == 0xfc and fm1 == 0x14e13e and fs2 == 1 and fe2 == 0x81 and
      fm2 == 0x1c2a84 and fs3 == 0 and fe3 == 0xfe and fm3 == 0x35a3f8 and rm_val
      == 1  #nosat'
    : 1 #  rs1_val==fnorm(0x7e14e13e) and rs2_val==fnorm(0xc09c2a84) and rs3_val==fnorm(0x7f35a3f8) | Exponent = MinNorm.exp + 3
    ? 'fs1 == 0 and fe1 == 0xfc and fm1 == 0x14e13e and fs2 == 1 and fe2 == 0x81 and
      fm2 == 0x1c2a84 and fs3 == 0 and fe3 == 0xfe and fm3 == 0x35a3f8 and rm_val
      == 0  #nosat'
    : 1 #  rs1_val==fnorm(0x7e14e13e) and rs2_val==fnorm(0xc09c2a84) and rs3_val==fnorm(0x7f35a3f8) | Exponent = MinNorm.exp + 3
    ? 'fs1 == 0 and fe1 == 0xfe and fm1 == 0x35a451 and fs2 == 1 and fe2 == 0x7e and
      fm2 == 0x043b82 and fs3 == 0 and fe3 == 0xfd and fm3 == 0x3ba5e6 and rm_val
      == 4  #nosat'
    : 1 #  rs1_val==fnorm(0x7f35a451) and rs2_val==fnorm(0xbf043b82) and rs3_val==fnorm(0x7ebba5e6) | Exponent = MinNorm.exp + 2
    ? 'fs1 == 0 and fe1 == 0xfe and fm1 == 0x35a451 and fs2 == 1 and fe2 == 0x7e and
      fm2 == 0x043b82 and fs3 == 0 and fe3 == 0xfd and fm3 == 0x3ba5e6 and rm_val
      == 3  #nosat'
    : 1 #  rs1_val==fnorm(0x7f35a451) and rs2_val==fnorm(0xbf043b82) and rs3_val==fnorm(0x7ebba5e6) | Exponent = MinNorm.exp + 2
    ? 'fs1 == 0 and fe1 == 0xfe and fm1 == 0x35a451 and fs2 == 1 and fe2 == 0x7e and
      fm2 == 0x043b82 and fs3 == 0 and fe3 == 0xfd and fm3 == 0x3ba5e6 and rm_val
      == 2  #nosat'
    : 1 #  rs1_val==fnorm(0x7f35a451) and rs2_val==fnorm(0xbf043b82) and rs3_val==fnorm(0x7ebba5e6) | Exponent = MinNorm.exp + 2
    ? 'fs1 == 0 and fe1 == 0xfe and fm1 == 0x35a451 and fs2 == 1 and fe2 == 0x7e and
      fm2 == 0x043b82 and fs3 == 0 and fe3 == 0xfd and fm3 == 0x3ba5e6 and rm_val
      == 1  #nosat'
    : 1 #  rs1_val==fnorm(0x7f35a451) and rs2_val==fnorm(0xbf043b82) and rs3_val==fnorm(0x7ebba5e6) | Exponent = MinNorm.exp + 2
    ? 'fs1 == 0 and fe1 == 0xfe and fm1 == 0x35a451 and fs2 == 1 and fe2 == 0x7e and
      fm2 == 0x043b82 and fs3 == 0 and fe3 == 0xfd and fm3 == 0x3ba5e6 and rm_val
      == 0  #nosat'
    : 1 #  rs1_val==fnorm(0x7f35a451) and rs2_val==fnorm(0xbf043b82) and rs3_val==fnorm(0x7ebba5e6) | Exponent = MinNorm.exp + 2
    ? 'fs1 == 0 and fe1 == 0xfb and fm1 == 0x5a52ec and fs2 == 1 and fe2 == 0x7d and
      fm2 == 0x67e1c6 and fs3 == 0 and fe3 == 0xfa and fm3 == 0x45c160 and rm_val
      == 4  #nosat'
    : 1 #  rs1_val==fnorm(0x7dda52ec) and rs2_val==fnorm(0xbee7e1c6) and rs3_val==fnorm(0x7d45c160) | Exponent = MinNorm.exp + 1
    ? 'fs1 == 0 and fe1 == 0xfb and fm1 == 0x5a52ec and fs2 == 1 and fe2 == 0x7d and
      fm2 == 0x67e1c6 and fs3 == 0 and fe3 == 0xfa and fm3 == 0x45c160 and rm_val
      == 3  #nosat'
    : 1 #  rs1_val==fnorm(0x7dda52ec) and rs2_val==fnorm(0xbee7e1c6) and rs3_val==fnorm(0x7d45c160) | Exponent = MinNorm.exp + 1
    ? 'fs1 == 0 and fe1 == 0xfb and fm1 == 0x5a52ec and fs2 == 1 and fe2 == 0x7d and
      fm2 == 0x67e1c6 and fs3 == 0 and fe3 == 0xfa and fm3 == 0x45c160 and rm_val
      == 2  #nosat'
    : 1 #  rs1_val==fnorm(0x7dda52ec) and rs2_val==fnorm(0xbee7e1c6) and rs3_val==fnorm(0x7d45c160) | Exponent = MinNorm.exp + 1
    ? 'fs1 == 0 and fe1 == 0xfb and fm1 == 0x5a52ec and fs2 == 1 and fe2 == 0x7d and
      fm2 == 0x67e1c6 and fs3 == 0 and fe3 == 0xfa and fm3 == 0x45c160 and rm_val
      == 1  #nosat'
    : 1 #  rs1_val==fnorm(0x7dda52ec) and rs2_val==fnorm(0xbee7e1c6) and rs3_val==fnorm(0x7d45c160) | Exponent = MinNorm.exp + 1
    ? 'fs1 == 0 and fe1 == 0xfb and fm1 == 0x5a52ec and fs2 == 1 and fe2 == 0x7d and
      fm2 == 0x67e1c6 and fs3 == 0 and fe3 == 0xfa and fm3 == 0x45c160 and rm_val
      == 0  #nosat'
    : 1 #  rs1_val==fnorm(0x7dda52ec) and rs2_val==fnorm(0xbee7e1c6) and rs3_val==fnorm(0x7d45c160) | Exponent = MinNorm.exp + 1
    ? 'fs1 == 0 and fe1 == 0xfe and fm1 == 0x2d1061 and fs2 == 1 and fe2 == 0x7e and
      fm2 == 0x25299a and fs3 == 0 and fe3 == 0xfd and fm3 == 0x5f4f5d and rm_val
      == 4  #nosat'
    : 1 #  rs1_val==fnorm(0x7f2d1061) and rs2_val==fnorm(0xbf25299a) and rs3_val==fnorm(0x7edf4f5d) | Exponent = MinNorm.exp + 0
    ? 'fs1 == 0 and fe1 == 0xfe and fm1 == 0x2d1061 and fs2 == 1 and fe2 == 0x7e and
      fm2 == 0x25299a and fs3 == 0 and fe3 == 0xfd and fm3 == 0x5f4f5d and rm_val
      == 3  #nosat'
    : 1 #  rs1_val==fnorm(0x7f2d1061) and rs2_val==fnorm(0xbf25299a) and rs3_val==fnorm(0x7edf4f5d) | Exponent = MinNorm.exp + 0
    ? 'fs1 == 0 and fe1 == 0xfe and fm1 == 0x2d1061 and fs2 == 1 and fe2 == 0x7e and
      fm2 == 0x25299a and fs3 == 0 and fe3 == 0xfd and fm3 == 0x5f4f5d and rm_val
      == 2  #nosat'
    : 1 #  rs1_val==fnorm(0x7f2d1061) and rs2_val==fnorm(0xbf25299a) and rs3_val==fnorm(0x7edf4f5d) | Exponent = MinNorm.exp + 0
    ? 'fs1 == 0 and fe1 == 0xfe and fm1 == 0x2d1061 and fs2 == 1 and fe2 == 0x7e and
      fm2 == 0x25299a and fs3 == 0 and fe3 == 0xfd and fm3 == 0x5f4f5d and rm_val
      == 1  #nosat'
    : 1 #  rs1_val==fnorm(0x7f2d1061) and rs2_val==fnorm(0xbf25299a) and rs3_val==fnorm(0x7edf4f5d) | Exponent = MinNorm.exp + 0
    ? 'fs1 == 0 and fe1 == 0xfe and fm1 == 0x2d1061 and fs2 == 1 and fe2 == 0x7e and
      fm2 == 0x25299a and fs3 == 0 and fe3 == 0xfd and fm3 == 0x5f4f5d and rm_val
      == 0  #nosat'
    : 1 #  rs1_val==fnorm(0x7f2d1061) and rs2_val==fnorm(0xbf25299a) and rs3_val==fnorm(0x7edf4f5d) | Exponent = MinNorm.exp + 0
    ? 'fs1 == 0 and fe1 == 0xfd and fm1 == 0x3f1227 and fs2 == 1 and fe2 == 0x7f and
      fm2 == 0x27232f and fs3 == 0 and fe3 == 0xfd and fm3 == 0x797e34 and rm_val
      == 4  #nosat'
    : 1 #  rs1_val==fnorm(0x7ebf1227) and rs2_val==fnorm(0xbfa7232f) and rs3_val==fnorm(0x7ef97e34) | Guard = 1 Round = 1 Sticky = 1 --> Minnorm + 7 ulp
    ? 'fs1 == 0 and fe1 == 0xfd and fm1 == 0x3f1227 and fs2 == 1 and fe2 == 0x7f and
      fm2 == 0x27232f and fs3 == 0 and fe3 == 0xfd and fm3 == 0x797e34 and rm_val
      == 3  #nosat'
    : 1 #  rs1_val==fnorm(0x7ebf1227) and rs2_val==fnorm(0xbfa7232f) and rs3_val==fnorm(0x7ef97e34) | Guard = 1 Round = 1 Sticky = 1 --> Minnorm + 7 ulp
    ? 'fs1 == 0 and fe1 == 0xfd and fm1 == 0x3f1227 and fs2 == 1 and fe2 == 0x7f and
      fm2 == 0x27232f and fs3 == 0 and fe3 == 0xfd and fm3 == 0x797e34 and rm_val
      == 2  #nosat'
    : 1 #  rs1_val==fnorm(0x7ebf1227) and rs2_val==fnorm(0xbfa7232f) and rs3_val==fnorm(0x7ef97e34) | Guard = 1 Round = 1 Sticky = 1 --> Minnorm + 7 ulp
    ? 'fs1 == 0 and fe1 == 0xfd and fm1 == 0x3f1227 and fs2 == 1 and fe2 == 0x7f and
      fm2 == 0x27232f and fs3 == 0 and fe3 == 0xfd and fm3 == 0x797e34 and rm_val
      == 1  #nosat'
    : 1 #  rs1_val==fnorm(0x7ebf1227) and rs2_val==fnorm(0xbfa7232f) and rs3_val==fnorm(0x7ef97e34) | Guard = 1 Round = 1 Sticky = 1 --> Minnorm + 7 ulp
    ? 'fs1 == 0 and fe1 == 0xfd and fm1 == 0x3f1227 and fs2 == 1 and fe2 == 0x7f and
      fm2 == 0x27232f and fs3 == 0 and fe3 == 0xfd and fm3 == 0x797e34 and rm_val
      == 0  #nosat'
    : 1 #  rs1_val==fnorm(0x7ebf1227) and rs2_val==fnorm(0xbfa7232f) and rs3_val==fnorm(0x7ef97e34) | Guard = 1 Round = 1 Sticky = 1 --> Minnorm + 7 ulp
    ? 'fs1 == 0 and fe1 == 0xfd and fm1 == 0x01f5dd and fs2 == 1 and fe2 == 0x80 and
      fm2 == 0x02ba3e and fs3 == 0 and fe3 == 0xfe and fm3 == 0x04bacd and rm_val
      == 4  #nosat'
    : 1 #  rs1_val==fnorm(0x7e81f5dd) and rs2_val==fnorm(0xc002ba3e) and rs3_val==fnorm(0x7f04bacd) | Guard = 1 Round = 1 Sticky = 0 --> Minnorm + 6 ulp
    ? 'fs1 == 0 and fe1 == 0xfd and fm1 == 0x01f5dd and fs2 == 1 and fe2 == 0x80 and
      fm2 == 0x02ba3e and fs3 == 0 and fe3 == 0xfe and fm3 == 0x04bacd and rm_val
      == 3  #nosat'
    : 1 #  rs1_val==fnorm(0x7e81f5dd) and rs2_val==fnorm(0xc002ba3e) and rs3_val==fnorm(0x7f04bacd) | Guard = 1 Round = 1 Sticky = 0 --> Minnorm + 6 ulp
    ? 'fs1 == 0 and fe1 == 0xfd and fm1 == 0x01f5dd and fs2 == 1 and fe2 == 0x80 and
      fm2 == 0x02ba3e and fs3 == 0 and fe3 == 0xfe and fm3 == 0x04bacd and rm_val
      == 2  #nosat'
    : 1 #  rs1_val==fnorm(0x7e81f5dd) and rs2_val==fnorm(0xc002ba3e) and rs3_val==fnorm(0x7f04bacd) | Guard = 1 Round = 1 Sticky = 0 --> Minnorm + 6 ulp
    ? 'fs1 == 0 and fe1 == 0xfd and fm1 == 0x01f5dd and fs2 == 1 and fe2 == 0x80 and
      fm2 == 0x02ba3e and fs3 == 0 and fe3 == 0xfe and fm3 == 0x04bacd and rm_val
      == 1  #nosat'
    : 1 #  rs1_val==fnorm(0x7e81f5dd) and rs2_val==fnorm(0xc002ba3e) and rs3_val==fnorm(0x7f04bacd) | Guard = 1 Round = 1 Sticky = 0 --> Minnorm + 6 ulp
    ? 'fs1 == 0 and fe1 == 0xfd and fm1 == 0x01f5dd and fs2 == 1 and fe2 == 0x80 and
      fm2 == 0x02ba3e and fs3 == 0 and fe3 == 0xfe and fm3 == 0x04bacd and rm_val
      == 0  #nosat'
    : 1 #  rs1_val==fnorm(0x7e81f5dd) and rs2_val==fnorm(0xc002ba3e) and rs3_val==fnorm(0x7f04bacd) | Guard = 1 Round = 1 Sticky = 0 --> Minnorm + 6 ulp
    ? 'fs1 == 0 and fe1 == 0xfd and fm1 == 0x10d8c5 and fs2 == 1 and fe2 == 0x7f and
      fm2 == 0x603fc7 and fs3 == 0 and fe3 == 0xfd and fm3 == 0x7dc386 and rm_val
      == 4  #nosat'
    : 1 #  rs1_val==fnorm(0x7e90d8c5) and rs2_val==fnorm(0xbfe03fc7) and rs3_val==fnorm(0x7efdc386) | Guard = 1 Round = 0 Sticky = 1 --> Minnorm + 5 ulp
    ? 'fs1 == 0 and fe1 == 0xfd and fm1 == 0x10d8c5 and fs2 == 1 and fe2 == 0x7f and
      fm2 == 0x603fc7 and fs3 == 0 and fe3 == 0xfd and fm3 == 0x7dc386 and rm_val
      == 3  #nosat'
    : 1 #  rs1_val==fnorm(0x7e90d8c5) and rs2_val==fnorm(0xbfe03fc7) and rs3_val==fnorm(0x7efdc386) | Guard = 1 Round = 0 Sticky = 1 --> Minnorm + 5 ulp
    ? 'fs1 == 0 and fe1 == 0xfd and fm1 == 0x10d8c5 and fs2 == 1 and fe2 == 0x7f and
      fm2 == 0x603fc7 and fs3 == 0 and fe3 == 0xfd and fm3 == 0x7dc386 and rm_val
      == 2  #nosat'
    : 1 #  rs1_val==fnorm(0x7e90d8c5) and rs2_val==fnorm(0xbfe03fc7) and rs3_val==fnorm(0x7efdc386) | Guard = 1 Round = 0 Sticky = 1 --> Minnorm + 5 ulp
    ? 'fs1 == 0 and fe1 == 0xfd and fm1 == 0x10d8c5 and fs2 == 1 and fe2 == 0x7f and
      fm2 == 0x603fc7 and fs3 == 0 and fe3 == 0xfd and fm3 == 0x7dc386 and rm_val
      == 1  #nosat'
    : 1 #  rs1_val==fnorm(0x7e90d8c5) and rs2_val==fnorm(0xbfe03fc7) and rs3_val==fnorm(0x7efdc386) | Guard = 1 Round = 0 Sticky = 1 --> Minnorm + 5 ulp
    ? 'fs1 == 0 and fe1 == 0xfd and fm1 == 0x10d8c5 and fs2 == 1 and fe2 == 0x7f and
      fm2 == 0x603fc7 and fs3 == 0 and fe3 == 0xfd and fm3 == 0x7dc386 and rm_val
      == 0  #nosat'
    : 1 #  rs1_val==fnorm(0x7e90d8c5) and rs2_val==fnorm(0xbfe03fc7) and rs3_val==fnorm(0x7efdc386) | Guard = 1 Round = 0 Sticky = 1 --> Minnorm + 5 ulp
    ? 'fs1 == 0 and fe1 == 0xfa and fm1 == 0x41cef4 and fs2 == 1 and fe2 == 0x82 and
      fm2 == 0x1d4815 and fs3 == 0 and fe3 == 0xfd and fm3 == 0x6e24fd and rm_val
      == 4  #nosat'
    : 1 #  rs1_val==fnorm(0x7d41cef4) and rs2_val==fnorm(0xc11d4815) and rs3_val==fnorm(0x7eee24fd) | Guard = 1 Round = 0 Sticky = 0 --> Minnorm + 4 ulp
    ? 'fs1 == 0 and fe1 == 0xfa and fm1 == 0x41cef4 and fs2 == 1 and fe2 == 0x82 and
      fm2 == 0x1d4815 and fs3 == 0 and fe3 == 0xfd and fm3 == 0x6e24fd and rm_val
      == 3  #nosat'
    : 1 #  rs1_val==fnorm(0x7d41cef4) and rs2_val==fnorm(0xc11d4815) and rs3_val==fnorm(0x7eee24fd) | Guard = 1 Round = 0 Sticky = 0 --> Minnorm + 4 ulp
    ? 'fs1 == 0 and fe1 == 0xfa and fm1 == 0x41cef4 and fs2 == 1 and fe2 == 0x82 and
      fm2 == 0x1d4815 and fs3 == 0 and fe3 == 0xfd and fm3 == 0x6e24fd and rm_val
      == 2  #nosat'
    : 1 #  rs1_val==fnorm(0x7d41cef4) and rs2_val==fnorm(0xc11d4815) and rs3_val==fnorm(0x7eee24fd) | Guard = 1 Round = 0 Sticky = 0 --> Minnorm + 4 ulp
    ? 'fs1 == 0 and fe1 == 0xfa and fm1 == 0x41cef4 and fs2 == 1 and fe2 == 0x82 and
      fm2 == 0x1d4815 and fs3 == 0 and fe3 == 0xfd and fm3 == 0x6e24fd and rm_val
      == 1  #nosat'
    : 1 #  rs1_val==fnorm(0x7d41cef4) and rs2_val==fnorm(0xc11d4815) and rs3_val==fnorm(0x7eee24fd) | Guard = 1 Round = 0 Sticky = 0 --> Minnorm + 4 ulp
    ? 'fs1 == 0 and fe1 == 0xfa and fm1 == 0x41cef4 and fs2 == 1 and fe2 == 0x82 and
      fm2 == 0x1d4815 and fs3 == 0 and fe3 == 0xfd and fm3 == 0x6e24fd and rm_val
      == 0  #nosat'
    : 1 #  rs1_val==fnorm(0x7d41cef4) and rs2_val==fnorm(0xc11d4815) and rs3_val==fnorm(0x7eee24fd) | Guard = 1 Round = 0 Sticky = 0 --> Minnorm + 4 ulp
    ? 'fs1 == 0 and fe1 == 0xfc and fm1 == 0x466afe and fs2 == 1 and fe2 == 0x80 and
      fm2 == 0x75a3a7 and fs3 == 0 and fe3 == 0xfe and fm3 == 0x3e633d and rm_val
      == 4  #nosat'
    : 1 #  rs1_val==fnorm(0x7e466afe) and rs2_val==fnorm(0xc075a3a7) and rs3_val==fnorm(0x7f3e633d) | Guard = 0 Round = 1 Sticky = 1 --> Minnorm + 3 ulp
    ? 'fs1 == 0 and fe1 == 0xfc and fm1 == 0x466afe and fs2 == 1 and fe2 == 0x80 and
      fm2 == 0x75a3a7 and fs3 == 0 and fe3 == 0xfe and fm3 == 0x3e633d and rm_val
      == 3  #nosat'
    : 1 #  rs1_val==fnorm(0x7e466afe) and rs2_val==fnorm(0xc075a3a7) and rs3_val==fnorm(0x7f3e633d) | Guard = 0 Round = 1 Sticky = 1 --> Minnorm + 3 ulp
    ? 'fs1 == 0 and fe1 == 0xfc and fm1 == 0x466afe and fs2 == 1 and fe2 == 0x80 and
      fm2 == 0x75a3a7 and fs3 == 0 and fe3 == 0xfe and fm3 == 0x3e633d and rm_val
      == 2  #nosat'
    : 1 #  rs1_val==fnorm(0x7e466afe) and rs2_val==fnorm(0xc075a3a7) and rs3_val==fnorm(0x7f3e633d) | Guard = 0 Round = 1 Sticky = 1 --> Minnorm + 3 ulp
    ? 'fs1 == 0 and fe1 == 0xfc and fm1 == 0x466afe and fs2 == 1 and fe2 == 0x80 and
      fm2 == 0x75a3a7 and fs3 == 0 and fe3 == 0xfe and fm3 == 0x3e633d and rm_val
      == 1  #nosat'
    : 1 #  rs1_val==fnorm(0x7e466afe) and rs2_val==fnorm(0xc075a3a7) and rs3_val==fnorm(0x7f3e633d) | Guard = 0 Round = 1 Sticky = 1 --> Minnorm + 3 ulp
    ? 'fs1 == 0 and fe1 == 0xfc and fm1 == 0x466afe and fs2 == 1 and fe2 == 0x80 and
      fm2 == 0x75a3a7 and fs3 == 0 and fe3 == 0xfe and fm3 == 0x3e633d and rm_val
      == 0  #nosat'
    : 1 #  rs1_val==fnorm(0x7e466afe) and rs2_val==fnorm(0xc075a3a7) and rs3_val==fnorm(0x7f3e633d) | Guard = 0 Round = 1 Sticky = 1 --> Minnorm + 3 ulp
    ? 'fs1 == 0 and fe1 == 0xfd and fm1 == 0x1190a0 and fs2 == 1 and fe2 == 0x7d and
      fm2 == 0x199c78 and fs3 == 0 and fe3 == 0xfb and fm3 == 0x2eb0d1 and rm_val
      == 4  #nosat'
    : 1 #  rs1_val==fnorm(0x7e9190a0) and rs2_val==fnorm(0xbe999c78) and rs3_val==fnorm(0x7daeb0d1) | Guard = 0 Round = 1 Sticky = 0 --> Minnorm + 2 ulp
    ? 'fs1 == 0 and fe1 == 0xfd and fm1 == 0x1190a0 and fs2 == 1 and fe2 == 0x7d and
      fm2 == 0x199c78 and fs3 == 0 and fe3 == 0xfb and fm3 == 0x2eb0d1 and rm_val
      == 3  #nosat'
    : 1 #  rs1_val==fnorm(0x7e9190a0) and rs2_val==fnorm(0xbe999c78) and rs3_val==fnorm(0x7daeb0d1) | Guard = 0 Round = 1 Sticky = 0 --> Minnorm + 2 ulp
    ? 'fs1 == 0 and fe1 == 0xfd and fm1 == 0x1190a0 and fs2 == 1 and fe2 == 0x7d and
      fm2 == 0x199c78 and fs3 == 0 and fe3 == 0xfb and fm3 == 0x2eb0d1 and rm_val
      == 2  #nosat'
    : 1 #  rs1_val==fnorm(0x7e9190a0) and rs2_val==fnorm(0xbe999c78) and rs3_val==fnorm(0x7daeb0d1) | Guard = 0 Round = 1 Sticky = 0 --> Minnorm + 2 ulp
    ? 'fs1 == 0 and fe1 == 0xfd and fm1 == 0x1190a0 and fs2 == 1 and fe2 == 0x7d and
      fm2 == 0x199c78 and fs3 == 0 and fe3 == 0xfb and fm3 == 0x2eb0d1 and rm_val
      == 1  #nosat'
    : 1 #  rs1_val==fnorm(0x7e9190a0) and rs2_val==fnorm(0xbe999c78) and rs3_val==fnorm(0x7daeb0d1) | Guard = 0 Round = 1 Sticky = 0 --> Minnorm + 2 ulp
    ? 'fs1 == 0 and fe1 == 0xfd and fm1 == 0x1190a0 and fs2 == 1 and fe2 == 0x7d and
      fm2 == 0x199c78 and fs3 == 0 and fe3 == 0xfb and fm3 == 0x2eb0d1 and rm_val
      == 0  #nosat'
    : 1 #  rs1_val==fnorm(0x7e9190a0) and rs2_val==fnorm(0xbe999c78) and rs3_val==fnorm(0x7daeb0d1) | Guard = 0 Round = 1 Sticky = 0 --> Minnorm + 2 ulp
    ? 'fs1 == 0 and fe1 == 0xfd and fm1 == 0x1c8afc and fs2 == 1 and fe2 == 0x80 and
      fm2 == 0x0d9df0 and fs3 == 0 and fe3 == 0xfe and fm3 == 0x2d3243 and rm_val
      == 4  #nosat'
    : 1 #  rs1_val==fnorm(0x7e9c8afc) and rs2_val==fnorm(0xc00d9df0) and rs3_val==fnorm(0x7f2d3243) | Guard = 0 Round = 0 Sticky = 1 --> Minnorm + 1 ulp
    ? 'fs1 == 0 and fe1 == 0xfd and fm1 == 0x1c8afc and fs2 == 1 and fe2 == 0x80 and
      fm2 == 0x0d9df0 and fs3 == 0 and fe3 == 0xfe and fm3 == 0x2d3243 and rm_val
      == 3  #nosat'
    : 1 #  rs1_val==fnorm(0x7e9c8afc) and rs2_val==fnorm(0xc00d9df0) and rs3_val==fnorm(0x7f2d3243) | Guard = 0 Round = 0 Sticky = 1 --> Minnorm + 1 ulp
    ? 'fs1 == 0 and fe1 == 0xfd and fm1 == 0x1c8afc and fs2 == 1 and fe2 == 0x80 and
      fm2 == 0x0d9df0 and fs3 == 0 and fe3 == 0xfe and fm3 == 0x2d3243 and rm_val
      == 2  #nosat'
    : 1 #  rs1_val==fnorm(0x7e9c8afc) and rs2_val==fnorm(0xc00d9df0) and rs3_val==fnorm(0x7f2d3243) | Guard = 0 Round = 0 Sticky = 1 --> Minnorm + 1 ulp
    ? 'fs1 == 0 and fe1 == 0xfd and fm1 == 0x1c8afc and fs2 == 1 and fe2 == 0x80 and
      fm2 == 0x0d9df0 and fs3 == 0 and fe3 == 0xfe and fm3 == 0x2d3243 and rm_val
      == 1  #nosat'
    : 1 #  rs1_val==fnorm(0x7e9c8afc) and rs2_val==fnorm(0xc00d9df0) and rs3_val==fnorm(0x7f2d3243) | Guard = 0 Round = 0 Sticky = 1 --> Minnorm + 1 ulp
    ? 'fs1 == 0 and fe1 == 0xfd and fm1 == 0x1c8afc and fs2 == 1 and fe2 == 0x80 and
      fm2 == 0x0d9df0 and fs3 == 0 and fe3 == 0xfe and fm3 == 0x2d3243 and rm_val
      == 0  #nosat'
    : 1 #  rs1_val==fnorm(0x7e9c8afc) and rs2_val==fnorm(0xc00d9df0) and rs3_val==fnorm(0x7f2d3243) | Guard = 0 Round = 0 Sticky = 1 --> Minnorm + 1 ulp
    ? 'fs1 == 0 and fe1 == 0xf8 and fm1 == 0x75a735 and fs2 == 1 and fe2 == 0x82 and
      fm2 == 0x5581bc and fs3 == 0 and fe3 == 0xfc and fm3 == 0x4ce09d and rm_val
      == 4  #nosat'
    : 1 #  rs1_val==fnorm(0x7c75a735) and rs2_val==fnorm(0xc15581bc) and rs3_val==fnorm(0x7e4ce09d) | Guard = 0 Round = 0 Sticky = 0 --> Minnorm + 0 ulp
    ? 'fs1 == 0 and fe1 == 0xf8 and fm1 == 0x75a735 and fs2 == 1 and fe2 == 0x82 and
      fm2 == 0x5581bc and fs3 == 0 and fe3 == 0xfc and fm3 == 0x4ce09d and rm_val
      == 3  #nosat'
    : 1 #  rs1_val==fnorm(0x7c75a735) and rs2_val==fnorm(0xc15581bc) and rs3_val==fnorm(0x7e4ce09d) | Guard = 0 Round = 0 Sticky = 0 --> Minnorm + 0 ulp
    ? 'fs1 == 0 and fe1 == 0xf8 and fm1 == 0x75a735 and fs2 == 1 and fe2 == 0x82 and
      fm2 == 0x5581bc and fs3 == 0 and fe3 == 0xfc and fm3 == 0x4ce09d and rm_val
      == 2  #nosat'
    : 1 #  rs1_val==fnorm(0x7c75a735) and rs2_val==fnorm(0xc15581bc) and rs3_val==fnorm(0x7e4ce09d) | Guard = 0 Round = 0 Sticky = 0 --> Minnorm + 0 ulp
    ? 'fs1 == 0 and fe1 == 0xf8 and fm1 == 0x75a735 and fs2 == 1 and fe2 == 0x82 and
      fm2 == 0x5581bc and fs3 == 0 and fe3 == 0xfc and fm3 == 0x4ce09d and rm_val
      == 1  #nosat'
    : 1 #  rs1_val==fnorm(0x7c75a735) and rs2_val==fnorm(0xc15581bc) and rs3_val==fnorm(0x7e4ce09d) | Guard = 0 Round = 0 Sticky = 0 --> Minnorm + 0 ulp
    ? 'fs1 == 0 and fe1 == 0xf8 and fm1 == 0x75a735 and fs2 == 1 and fe2 == 0x82 and
      fm2 == 0x5581bc and fs3 == 0 and fe3 == 0xfc and fm3 == 0x4ce09d and rm_val
      == 0  #nosat'
    : 1 #  rs1_val==fnorm(0x7c75a735) and rs2_val==fnorm(0xc15581bc) and rs3_val==fnorm(0x7e4ce09d) | Guard = 0 Round = 0 Sticky = 0 --> Minnorm + 0 ulp
    ? 'fs1 == 0 and fe1 == 0xfb and fm1 == 0x0992a2 and fs2 == 1 and fe2 == 0x80 and
      fm2 == 0x275676 and fs3 == 0 and fe3 == 0xfc and fm3 == 0x33da3d and rm_val
      == 4  #nosat'
    : 1 #  rs1_val==fnorm(0x7d8992a2) and rs2_val==fnorm(0xc0275676) and rs3_val==fnorm(0x7e33da3d) | Guard = 1 Round = 1 Sticky = 1 --> Minsubnorm + 7 ulp
    ? 'fs1 == 0 and fe1 == 0xfb and fm1 == 0x0992a2 and fs2 == 1 and fe2 == 0x80 and
      fm2 == 0x275676 and fs3 == 0 and fe3 == 0xfc and fm3 == 0x33da3d and rm_val
      == 3  #nosat'
    : 1 #  rs1_val==fnorm(0x7d8992a2) and rs2_val==fnorm(0xc0275676) and rs3_val==fnorm(0x7e33da3d) | Guard = 1 Round = 1 Sticky = 1 --> Minsubnorm + 7 ulp
    ? 'fs1 == 0 and fe1 == 0xfb and fm1 == 0x0992a2 and fs2 == 1 and fe2 == 0x80 and
      fm2 == 0x275676 and fs3 == 0 and fe3 == 0xfc and fm3 == 0x33da3d and rm_val
      == 2  #nosat'
    : 1 #  rs1_val==fnorm(0x7d8992a2) and rs2_val==fnorm(0xc0275676) and rs3_val==fnorm(0x7e33da3d) | Guard = 1 Round = 1 Sticky = 1 --> Minsubnorm + 7 ulp
    ? 'fs1 == 0 and fe1 == 0xfb and fm1 == 0x0992a2 and fs2 == 1 and fe2 == 0x80 and
      fm2 == 0x275676 and fs3 == 0 and fe3 == 0xfc and fm3 == 0x33da3d and rm_val
      == 1  #nosat'
    : 1 #  rs1_val==fnorm(0x7d8992a2) and rs2_val==fnorm(0xc0275676) and rs3_val==fnorm(0x7e33da3d) | Guard = 1 Round = 1 Sticky = 1 --> Minsubnorm + 7 ulp
    ? 'fs1 == 0 and fe1 == 0xfb and fm1 == 0x0992a2 and fs2 == 1 and fe2 == 0x80 and
      fm2 == 0x275676 and fs3 == 0 and fe3 == 0xfc and fm3 == 0x33da3d and rm_val
      == 0  #nosat'
    : 1 #  rs1_val==fnorm(0x7d8992a2) and rs2_val==fnorm(0xc0275676) and rs3_val==fnorm(0x7e33da3d) | Guard = 1 Round = 1 Sticky = 1 --> Minsubnorm + 7 ulp
    ? 'fs1 == 0 and fe1 == 0xfc and fm1 == 0x13a21e and fs2 == 1 and fe2 == 0x81 and
      fm2 == 0x0a4105 and fs3 == 0 and fe3 == 0xfe and fm3 == 0x1f75c7 and rm_val
      == 4  #nosat'
    : 1 #  rs1_val==fnorm(0x7e13a21e) and rs2_val==fnorm(0xc08a4105) and rs3_val==fnorm(0x7f1f75c7) | Guard = 1 Round = 1 Sticky = 0 --> Minsubnorm + 6 ulp
    ? 'fs1 == 0 and fe1 == 0xfc and fm1 == 0x13a21e and fs2 == 1 and fe2 == 0x81 and
      fm2 == 0x0a4105 and fs3 == 0 and fe3 == 0xfe and fm3 == 0x1f75c7 and rm_val
      == 3  #nosat'
    : 1 #  rs1_val==fnorm(0x7e13a21e) and rs2_val==fnorm(0xc08a4105) and rs3_val==fnorm(0x7f1f75c7) | Guard = 1 Round = 1 Sticky = 0 --> Minsubnorm + 6 ulp
    ? 'fs1 == 0 and fe1 == 0xfc and fm1 == 0x13a21e and fs2 == 1 and fe2 == 0x81 and
      fm2 == 0x0a4105 and fs3 == 0 and fe3 == 0xfe and fm3 == 0x1f75c7 and rm_val
      == 2  #nosat'
    : 1 #  rs1_val==fnorm(0x7e13a21e) and rs2_val==fnorm(0xc08a4105) and rs3_val==fnorm(0x7f1f75c7) | Guard = 1 Round = 1 Sticky = 0 --> Minsubnorm + 6 ulp
    ? 'fs1 == 0 and fe1 == 0xfc and fm1 == 0x13a21e and fs2 == 1 and fe2 == 0x81 and
      fm2 == 0x0a4105 and fs3 == 0 and fe3 == 0xfe and fm3 == 0x1f75c7 and rm_val
      == 1  #nosat'
    : 1 #  rs1_val==fnorm(0x7e13a21e) and rs2_val==fnorm(0xc08a4105) and rs3_val==fnorm(0x7f1f75c7) | Guard = 1 Round = 1 Sticky = 0 --> Minsubnorm + 6 ulp
    ? 'fs1 == 0 and fe1 == 0xfc and fm1 == 0x13a21e and fs2 == 1 and fe2 == 0x81 and
      fm2 == 0x0a4105 and fs3 == 0 and fe3 == 0xfe and fm3 == 0x1f75c7 and rm_val
      == 0  #nosat'
    : 1 #  rs1_val==fnorm(0x7e13a21e) and rs2_val==fnorm(0xc08a4105) and rs3_val==fnorm(0x7f1f75c7) | Guard = 1 Round = 1 Sticky = 0 --> Minsubnorm + 6 ulp
    ? 'fs1 == 0 and fe1 == 0xfd and fm1 == 0x2e00ba and fs2 == 1 and fe2 == 0x7f and
      fm2 == 0x0bd260 and fs3 == 0 and fe3 == 0xfd and fm3 == 0x3e12c6 and rm_val
      == 4  #nosat'
    : 1 #  rs1_val==fnorm(0x7eae00ba) and rs2_val==fnorm(0xbf8bd260) and rs3_val==fnorm(0x7ebe12c6) | Guard = 1 Round = 0 Sticky = 1 --> Minsubnorm + 5 ulp
    ? 'fs1 == 0 and fe1 == 0xfd and fm1 == 0x2e00ba and fs2 == 1 and fe2 == 0x7f and
      fm2 == 0x0bd260 and fs3 == 0 and fe3 == 0xfd and fm3 == 0x3e12c6 and rm_val
      == 3  #nosat'
    : 1 #  rs1_val==fnorm(0x7eae00ba) and rs2_val==fnorm(0xbf8bd260) and rs3_val==fnorm(0x7ebe12c6) | Guard = 1 Round = 0 Sticky = 1 --> Minsubnorm + 5 ulp
    ? 'fs1 == 0 and fe1 == 0xfd and fm1 == 0x2e00ba and fs2 == 1 and fe2 == 0x7f and
      fm2 == 0x0bd260 and fs3 == 0 and fe3 == 0xfd and fm3 == 0x3e12c6 and rm_val
      == 2  #nosat'
    : 1 #  rs1_val==fnorm(0x7eae00ba) and rs2_val==fnorm(0xbf8bd260) and rs3_val==fnorm(0x7ebe12c6) | Guard = 1 Round = 0 Sticky = 1 --> Minsubnorm + 5 ulp
    ? 'fs1 == 0 and fe1 == 0xfd and fm1 == 0x2e00ba and fs2 == 1 and fe2 == 0x7f and
      fm2 == 0x0bd260 and fs3 == 0 and fe3 == 0xfd and fm3 == 0x3e12c6 and rm_val
      == 1  #nosat'
    : 1 #  rs1_val==fnorm(0x7eae00ba) and rs2_val==fnorm(0xbf8bd260) and rs3_val==fnorm(0x7ebe12c6) | Guard = 1 Round = 0 Sticky = 1 --> Minsubnorm + 5 ulp
    ? 'fs1 == 0 and fe1 == 0xfd and fm1 == 0x2e00ba and fs2 == 1 and fe2 == 0x7f and
      fm2 == 0x0bd260 and fs3 == 0 and fe3 == 0xfd and fm3 == 0x3e12c6 and rm_val
      == 0  #nosat'
    : 1 #  rs1_val==fnorm(0x7eae00ba) and rs2_val==fnorm(0xbf8bd260) and rs3_val==fnorm(0x7ebe12c6) | Guard = 1 Round = 0 Sticky = 1 --> Minsubnorm + 5 ulp
    ? 'fs1 == 0 and fe1 == 0xfd and fm1 == 0x767a3b and fs2 == 1 and fe2 == 0x7e and
      fm2 == 0x371e70 and fs3 == 0 and fe3 == 0xfd and fm3 == 0x304eaf and rm_val
      == 4  #nosat'
    : 1 #  rs1_val==fnorm(0x7ef67a3b) and rs2_val==fnorm(0xbf371e70) and rs3_val==fnorm(0x7eb04eaf) | Guard = 1 Round = 0 Sticky = 0 --> Minsubnorm + 4 ulp
    ? 'fs1 == 0 and fe1 == 0xfd and fm1 == 0x767a3b and fs2 == 1 and fe2 == 0x7e and
      fm2 == 0x371e70 and fs3 == 0 and fe3 == 0xfd and fm3 == 0x304eaf and rm_val
      == 3  #nosat'
    : 1 #  rs1_val==fnorm(0x7ef67a3b) and rs2_val==fnorm(0xbf371e70) and rs3_val==fnorm(0x7eb04eaf) | Guard = 1 Round = 0 Sticky = 0 --> Minsubnorm + 4 ulp
    ? 'fs1 == 0 and fe1 == 0xfd and fm1 == 0x767a3b and fs2 == 1 and fe2 == 0x7e and
      fm2 == 0x371e70 and fs3 == 0 and fe3 == 0xfd and fm3 == 0x304eaf and rm_val
      == 2  #nosat'
    : 1 #  rs1_val==fnorm(0x7ef67a3b) and rs2_val==fnorm(0xbf371e70) and rs3_val==fnorm(0x7eb04eaf) | Guard = 1 Round = 0 Sticky = 0 --> Minsubnorm + 4 ulp
    ? 'fs1 == 0 and fe1 == 0xfd and fm1 == 0x767a3b and fs2 == 1 and fe2 == 0x7e and
      fm2 == 0x371e70 and fs3 == 0 and fe3 == 0xfd and fm3 == 0x304eaf and rm_val
      == 1  #nosat'
    : 1 #  rs1_val==fnorm(0x7ef67a3b) and rs2_val==fnorm(0xbf371e70) and rs3_val==fnorm(0x7eb04eaf) | Guard = 1 Round = 0 Sticky = 0 --> Minsubnorm + 4 ulp
    ? 'fs1 == 0 and fe1 == 0xfd and fm1 == 0x767a3b and fs2 == 1 and fe2 == 0x7e and
      fm2 == 0x371e70 and fs3 == 0 and fe3 == 0xfd and fm3 == 0x304eaf and rm_val
      == 0  #nosat'
    : 1 #  rs1_val==fnorm(0x7ef67a3b) and rs2_val==fnorm(0xbf371e70) and rs3_val==fnorm(0x7eb04eaf) | Guard = 1 Round = 0 Sticky = 0 --> Minsubnorm + 4 ulp
    ? 'fs1 == 0 and fe1 == 0xfe and fm1 == 0x3fd529 and fs2 == 1 and fe2 == 0x7c and
      fm2 == 0x569c36 and fs3 == 0 and fe3 == 0xfc and fm3 == 0x20d13f and rm_val
      == 4  #nosat'
    : 1 #  rs1_val==fnorm(0x7f3fd529) and rs2_val==fnorm(0xbe569c36) and rs3_val==fnorm(0x7e20d13f) | Guard = 0 Round = 1 Sticky = 1 --> Minsubnorm + 3 ulp
    ? 'fs1 == 0 and fe1 == 0xfe and fm1 == 0x3fd529 and fs2 == 1 and fe2 == 0x7c and
      fm2 == 0x569c36 and fs3 == 0 and fe3 == 0xfc and fm3 == 0x20d13f and rm_val
      == 3  #nosat'
    : 1 #  rs1_val==fnorm(0x7f3fd529) and rs2_val==fnorm(0xbe569c36) and rs3_val==fnorm(0x7e20d13f) | Guard = 0 Round = 1 Sticky = 1 --> Minsubnorm + 3 ulp
    ? 'fs1 == 0 and fe1 == 0xfe and fm1 == 0x3fd529 and fs2 == 1 and fe2 == 0x7c and
      fm2 == 0x569c36 and fs3 == 0 and fe3 == 0xfc and fm3 == 0x20d13f and rm_val
      == 2  #nosat'
    : 1 #  rs1_val==fnorm(0x7f3fd529) and rs2_val==fnorm(0xbe569c36) and rs3_val==fnorm(0x7e20d13f) | Guard = 0 Round = 1 Sticky = 1 --> Minsubnorm + 3 ulp
    ? 'fs1 == 0 and fe1 == 0xfe and fm1 == 0x3fd529 and fs2 == 1 and fe2 == 0x7c and
      fm2 == 0x569c36 and fs3 == 0 and fe3 == 0xfc and fm3 == 0x20d13f and rm_val
      == 1  #nosat'
    : 1 #  rs1_val==fnorm(0x7f3fd529) and rs2_val==fnorm(0xbe569c36) and rs3_val==fnorm(0x7e20d13f) | Guard = 0 Round = 1 Sticky = 1 --> Minsubnorm + 3 ulp
    ? 'fs1 == 0 and fe1 == 0xfe and fm1 == 0x3fd529 and fs2 == 1 and fe2 == 0x7c and
      fm2 == 0x569c36 and fs3 == 0 and fe3 == 0xfc and fm3 == 0x20d13f and rm_val
      == 0  #nosat'
    : 1 #  rs1_val==fnorm(0x7f3fd529) and rs2_val==fnorm(0xbe569c36) and rs3_val==fnorm(0x7e20d13f) | Guard = 0 Round = 1 Sticky = 1 --> Minsubnorm + 3 ulp
    ? 'fs1 == 0 and fe1 == 0xfb and fm1 == 0x02d835 and fs2 == 1 and fe2 == 0x80 and
      fm2 == 0x39e73f and fs3 == 0 and fe3 == 0xfc and fm3 == 0x3e08e0 and rm_val
      == 4  #nosat'
    : 1 #  rs1_val==fnorm(0x7d82d835) and rs2_val==fnorm(0xc039e73f) and rs3_val==fnorm(0x7e3e08e0) | Guard = 0 Round = 1 Sticky = 0 --> Minsubnorm + 2 ulp
    ? 'fs1 == 0 and fe1 == 0xfb and fm1 == 0x02d835 and fs2 == 1 and fe2 == 0x80 and
      fm2 == 0x39e73f and fs3 == 0 and fe3 == 0xfc and fm3 == 0x3e08e0 and rm_val
      == 3  #nosat'
    : 1 #  rs1_val==fnorm(0x7d82d835) and rs2_val==fnorm(0xc039e73f) and rs3_val==fnorm(0x7e3e08e0) | Guard = 0 Round = 1 Sticky = 0 --> Minsubnorm + 2 ulp
    ? 'fs1 == 0 and fe1 == 0xfb and fm1 == 0x02d835 and fs2 == 1 and fe2 == 0x80 and
      fm2 == 0x39e73f and fs3 == 0 and fe3 == 0xfc and fm3 == 0x3e08e0 and rm_val
      == 2  #nosat'
    : 1 #  rs1_val==fnorm(0x7d82d835) and rs2_val==fnorm(0xc039e73f) and rs3_val==fnorm(0x7e3e08e0) | Guard = 0 Round = 1 Sticky = 0 --> Minsubnorm + 2 ulp
    ? 'fs1 == 0 and fe1 == 0xfb and fm1 == 0x02d835 and fs2 == 1 and fe2 == 0x80 and
      fm2 == 0x39e73f and fs3 == 0 and fe3 == 0xfc and fm3 == 0x3e08e0 and rm_val
      == 1  #nosat'
    : 1 #  rs1_val==fnorm(0x7d82d835) and rs2_val==fnorm(0xc039e73f) and rs3_val==fnorm(0x7e3e08e0) | Guard = 0 Round = 1 Sticky = 0 --> Minsubnorm + 2 ulp
    ? 'fs1 == 0 and fe1 == 0xfb and fm1 == 0x02d835 and fs2 == 1 and fe2 == 0x80 and
      fm2 == 0x39e73f and fs3 == 0 and fe3 == 0xfc and fm3 == 0x3e08e0 and rm_val
      == 0  #nosat'
    : 1 #  rs1_val==fnorm(0x7d82d835) and rs2_val==fnorm(0xc039e73f) and rs3_val==fnorm(0x7e3e08e0) | Guard = 0 Round = 1 Sticky = 0 --> Minsubnorm + 2 ulp
    ? 'fs1 == 0 and fe1 == 0xfb and fm1 == 0x420b54 and fs2 == 1 and fe2 == 0x81 and
      fm2 == 0x328842 and fs3 == 0 and fe3 == 0xfe and fm3 == 0x075328 and rm_val
      == 4  #nosat'
    : 1 #  rs1_val==fnorm(0x7dc20b54) and rs2_val==fnorm(0xc0b28842) and rs3_val==fnorm(0x7f075328) | Guard = 0 Round = 0 Sticky = 1 --> Minsubnorm + 1 ulp
    ? 'fs1 == 0 and fe1 == 0xfb and fm1 == 0x420b54 and fs2 == 1 and fe2 == 0x81 and
      fm2 == 0x328842 and fs3 == 0 and fe3 == 0xfe and fm3 == 0x075328 and rm_val
      == 3  #nosat'
    : 1 #  rs1_val==fnorm(0x7dc20b54) and rs2_val==fnorm(0xc0b28842) and rs3_val==fnorm(0x7f075328) | Guard = 0 Round = 0 Sticky = 1 --> Minsubnorm + 1 ulp
    ? 'fs1 == 0 and fe1 == 0xfb and fm1 == 0x420b54 and fs2 == 1 and fe2 == 0x81 and
      fm2 == 0x328842 and fs3 == 0 and fe3 == 0xfe and fm3 == 0x075328 and rm_val
      == 2  #nosat'
    : 1 #  rs1_val==fnorm(0x7dc20b54) and rs2_val==fnorm(0xc0b28842) and rs3_val==fnorm(0x7f075328) | Guard = 0 Round = 0 Sticky = 1 --> Minsubnorm + 1 ulp
    ? 'fs1 == 0 and fe1 == 0xfb and fm1 == 0x420b54 and fs2 == 1 and fe2 == 0x81 and
      fm2 == 0x328842 and fs3 == 0 and fe3 == 0xfe and fm3 == 0x075328 and rm_val
      == 1  #nosat'
    : 1 #  rs1_val==fnorm(0x7dc20b54) and rs2_val==fnorm(0xc0b28842) and rs3_val==fnorm(0x7f075328) | Guard = 0 Round = 0 Sticky = 1 --> Minsubnorm + 1 ulp
    ? 'fs1 == 0 and fe1 == 0xfb and fm1 == 0x420b54 and fs2 == 1 and fe2 == 0x81 and
      fm2 == 0x328842 and fs3 == 0 and fe3 == 0xfe and fm3 == 0x075328 and rm_val
      == 0  #nosat'
    : 1 #  rs1_val==fnorm(0x7dc20b54) and rs2_val==fnorm(0xc0b28842) and rs3_val==fnorm(0x7f075328) | Guard = 0 Round = 0 Sticky = 1 --> Minsubnorm + 1 ulp
    ? 'fs1 == 0 and fe1 == 0xfc and fm1 == 0x2e1c2f and fs2 == 1 and fe2 == 0x81 and
      fm2 == 0x07d476 and fs3 == 0 and fe3 == 0xfe and fm3 == 0x38c2b9 and rm_val
      == 4  #nosat'
    : 1 #  rs1_val==fnorm(0x7e2e1c2f) and rs2_val==fnorm(0xc087d476) and rs3_val==fnorm(0x7f38c2b9) | Guard = 0 Round = 0 Sticky = 0 --> Minsubnorm + 0 ulp
    ? 'fs1 == 0 and fe1 == 0xfc and fm1 == 0x2e1c2f and fs2 == 1 and fe2 == 0x81 and
      fm2 == 0x07d476 and fs3 == 0 and fe3 == 0xfe and fm3 == 0x38c2b9 and rm_val
      == 3  #nosat'
    : 1 #  rs1_val==fnorm(0x7e2e1c2f) and rs2_val==fnorm(0xc087d476) and rs3_val==fnorm(0x7f38c2b9) | Guard = 0 Round = 0 Sticky = 0 --> Minsubnorm + 0 ulp
    ? 'fs1 == 0 and fe1 == 0xfc and fm1 == 0x2e1c2f and fs2 == 1 and fe2 == 0x81 and
      fm2 == 0x07d476 and fs3 == 0 and fe3 == 0xfe and fm3 == 0x38c2b9 and rm_val
      == 2  #nosat'
    : 1 #  rs1_val==fnorm(0x7e2e1c2f) and rs2_val==fnorm(0xc087d476) and rs3_val==fnorm(0x7f38c2b9) | Guard = 0 Round = 0 Sticky = 0 --> Minsubnorm + 0 ulp
    ? 'fs1 == 0 and fe1 == 0xfc and fm1 == 0x2e1c2f and fs2 == 1 and fe2 == 0x81 and
      fm2 == 0x07d476 and fs3 == 0 and fe3 == 0xfe and fm3 == 0x38c2b9 and rm_val
      == 1  #nosat'
    : 1 #  rs1_val==fnorm(0x7e2e1c2f) and rs2_val==fnorm(0xc087d476) and rs3_val==fnorm(0x7f38c2b9) | Guard = 0 Round = 0 Sticky = 0 --> Minsubnorm + 0 ulp
    coverage: 220/220
  total_coverage: 361/361
