datasets:
  all_fregs:
    f0: 0
    f1: 0
    f10: 0
    f11: 0
    f12: 0
    f13: 0
    f14: 0
    f15: 0
    f16: 0
    f17: 0
    f18: 0
    f19: 0
    f2: 0
    f20: 0
    f21: 0
    f22: 0
    f23: 0
    f24: 0
    f25: 0
    f26: 0
    f27: 0
    f28: 0
    f29: 0
    f3: 0
    f30: 0
    f31: 0
    f4: 0
    f5: 0
    f6: 0
    f7: 0
    f8: 0
    f9: 0
  all_regs:
    x0: 0
    x1: 0
    x10: 0
    x11: 0
    x12: 0
    x13: 0
    x14: 0
    x15: 0
    x16: 0
    x17: 0
    x18: 0
    x19: 0
    x2: 0
    x20: 0
    x21: 0
    x22: 0
    x23: 0
    x24: 0
    x25: 0
    x26: 0
    x27: 0
    x28: 0
    x29: 0
    x3: 0
    x30: 0
    x31: 0
    x4: 0
    x5: 0
    x6: 0
    x7: 0
    x8: 0
    x9: 0
  all_regs_mx0:
    x1: 0
    x10: 0
    x11: 0
    x12: 0
    x13: 0
    x14: 0
    x15: 0
    x16: 0
    x17: 0
    x18: 0
    x19: 0
    x2: 0
    x20: 0
    x21: 0
    x22: 0
    x23: 0
    x24: 0
    x25: 0
    x26: 0
    x27: 0
    x28: 0
    x29: 0
    x3: 0
    x30: 0
    x31: 0
    x4: 0
    x5: 0
    x6: 0
    x7: 0
    x8: 0
    x9: 0
  all_regs_mx2:
    x1: 0
    x10: 0
    x11: 0
    x12: 0
    x13: 0
    x14: 0
    x15: 0
    x16: 0
    x17: 0
    x18: 0
    x19: 0
    x20: 0
    x21: 0
    x22: 0
    x23: 0
    x24: 0
    x25: 0
    x26: 0
    x27: 0
    x28: 0
    x29: 0
    x3: 0
    x30: 0
    x31: 0
    x4: 0
    x5: 0
    x6: 0
    x7: 0
    x8: 0
    x9: 0
  base_rs1val_sgn:
    rs1_val == (-2**(xlen-1)): 0
    rs1_val == (2**(xlen-1)-1): 0
    rs1_val == 0: 0
    rs1_val == 1: 0
  base_rs1val_unsgn:
    rs1_val == (2**(xlen)-1): 0
    rs1_val == 0: 0
    rs1_val == 1: 0
  base_rs2val_sgn:
    rs2_val == (-2**(xlen-1)): 0
    rs2_val == (2**(xlen-1)-1): 0
    rs2_val == 0: 0
    rs2_val == 1: 0
  base_rs2val_unsgn:
    rs2_val == (2**(xlen)-1): 0
    rs2_val == 0: 0
    rs2_val == 1: 0
  base_rs3val_sgn:
    rs3_val == (-2**(xlen-1)): 0
    rs3_val == (2**(xlen-1)-1): 0
    rs3_val == 0: 0
    rs3_val == 1: 0
  base_rs3val_unsgn:
    rs3_val == (2**(xlen)-1): 0
    rs3_val == 0: 0
    rs3_val == 1: 0
  bfmt_base_branch_val_align_sgn:
    rs1_val < 0 and rs2_val < 0 and imm_val & 0x03 == 0: 0
    rs1_val < 0 and rs2_val > 0 and imm_val & 0x03 == 0: 0
    rs1_val < rs2_val and imm_val < 0 and imm_val & 0x03 == 0: 0
    rs1_val < rs2_val and imm_val > 0 and imm_val & 0x03 == 0: 0
    rs1_val == rs2_val and imm_val < 0 and imm_val & 0x03 == 0: 0
    rs1_val == rs2_val and imm_val > 0 and imm_val & 0x03 == 0: 0
    rs1_val > 0 and rs2_val < 0 and imm_val & 0x03 == 0: 0
    rs1_val > 0 and rs2_val > 0 and imm_val & 0x03 == 0: 0
    rs1_val > rs2_val and imm_val < 0 and imm_val & 0x03 == 0: 0
    rs1_val > rs2_val and imm_val > 0 and imm_val & 0x03 == 0: 0
  bfmt_base_branch_val_align_unsgn:
    rs1_val > 0 and rs2_val > 0: 0
    'rs1_val > 0 and rs2_val > 0 and rs1_val < rs2_val and imm_val < 0 ': 0
    'rs1_val > 0 and rs2_val > 0 and rs1_val < rs2_val and imm_val > 0 ': 0
    rs1_val > 0 and rs2_val > 0 and rs1_val == rs2_val and imm_val < 0: 0
    rs1_val > 0 and rs2_val > 0 and rs1_val == rs2_val and imm_val > 0: 0
    'rs1_val > 0 and rs2_val > 0 and rs1_val > rs2_val and imm_val < 0 ': 0
    'rs1_val > 0 and rs2_val > 0 and rs1_val > rs2_val and imm_val > 0 ': 0
  c_regs:
    x10: 0
    x11: 0
    x12: 0
    x13: 0
    x14: 0
    x15: 0
    x8: 0
    x9: 0
  cbfmt_immval_sgn:
    imm_val == (-2**(6-1)): 0
    imm_val == (2**(6-1)-1): 0
    imm_val == 0: 0
    imm_val == 1: 0
  cbimm_val_walking:
    alternate("imm_val",6): 0
    walking_ones("imm_val", 6): 0
    walking_zeros("imm_val", 6): 0
  crfmt_val_comb_sgn:
    rs2_val < 0: 0
    rs2_val > 0: 0
  ifmt_base_immval_sgn:
    imm_val == (-2**(12-1)): 0
    imm_val == (2**(12-1)-1): 0
    imm_val == 0: 0
    imm_val == 1: 0
  ifmt_base_immval_sgn_len:
    imm_val == (-2**(ceil(log(xlen,2))-1)): 0
    imm_val == (2**(ceil(log(xlen,2))-1)-1): 0
    imm_val == 0: 0
    imm_val == 1: 0
  ifmt_base_immval_unsgn:
    imm_val == (2**(12)-1): 0
    imm_val == 0: 0
    imm_val == 1: 0
  ifmt_base_immval_unsgn_len_sub_3:
    imm_val == (2**(ceil(log(xlen,2))-3)-1): 0
    imm_val == 0: 0
    imm_val == 1: 0
  ifmt_base_shift:
    rs1_val < 0 and imm_val == (xlen-1): 0
    rs1_val < 0 and imm_val == 0: 0
    rs1_val < 0 and imm_val > 0 and imm_val < xlen: 0
    rs1_val == (-2**(xlen-1)) and imm_val >= 0 and imm_val < xlen: 0
    rs1_val == (2**(xlen-1)-1) and imm_val >= 0 and imm_val < xlen: 0
    rs1_val == 0 and imm_val >= 0 and imm_val < xlen: 0
    rs1_val == 1 and imm_val >= 0 and imm_val < xlen: 0
    rs1_val == imm_val and imm_val > 0 and imm_val < xlen: 0
    rs1_val > 0 and imm_val == (xlen-1): 0
    rs1_val > 0 and imm_val == 0: 0
    rs1_val > 0 and imm_val > 0 and imm_val < xlen: 0
  ifmt_base_shift_32w:
    rs1_val < 0 and imm_val == 0: 0
    rs1_val < 0 and imm_val == 31: 0
    rs1_val < 0 and imm_val > 0 and imm_val < 32: 0
    rs1_val == (-2**(xlen-1)) and imm_val >= 0 and imm_val < 32: 0
    rs1_val == (2**(xlen-1)-1) and imm_val >= 0 and imm_val < 32: 0
    rs1_val == 0 and imm_val >= 0 and imm_val < 32: 0
    rs1_val == 1 and imm_val >= 0 and imm_val < 32: 0
    rs1_val == imm_val and imm_val > 0 and imm_val < 32: 0
    rs1_val > 0 and imm_val == 0: 0
    rs1_val > 0 and imm_val == 31: 0
    rs1_val > 0 and imm_val > 0 and imm_val < 32: 0
  ifmt_immval_walking:
    alternate("imm_val",12): 0
    walking_ones("imm_val", 12): 0
    walking_zeros("imm_val", 12): 0
  ifmt_immval_walking_5u:
    alternate("imm_val", 5, False): 0
    walking_ones("imm_val", 5, False): 0
    walking_zeros("imm_val", 5, False): 0
  ifmt_immval_walking_len:
    alternate("imm_val",ceil(log(xlen,2)), False): 0
    walking_ones("imm_val", ceil(log(xlen,2)), False): 0
    walking_zeros("imm_val", ceil(log(xlen,2)), False): 0
  ifmt_immval_walking_len_sub_3:
    alternate("imm_val", ceil(log(xlen,2))-3, False): 0
    walking_ones("imm_val", ceil(log(xlen,2))-3, False): 0
    walking_zeros("imm_val", ceil(log(xlen,2))-3, False): 0
  ifmt_immval_walking_unsgn:
    alternate("imm_val",12,False): 0
    walking_ones("imm_val", 12,False): 0
    walking_zeros("imm_val", 12,False): 0
  ifmt_op_comb:
    rs1 != rd: 0
    rs1 == rd: 0
  ifmt_val_comb_sgn:
    rs1_val != imm_val: 0
    rs1_val < 0 and imm_val < 0: 0
    rs1_val < 0 and imm_val > 0: 0
    rs1_val == imm_val: 0
    rs1_val > 0 and imm_val < 0: 0
    rs1_val > 0 and imm_val > 0: 0
  ifmt_val_comb_unsgn:
    rs1_val != imm_val and rs1_val > 0 and imm_val > 0: 0
    rs1_val == imm_val and rs1_val > 0 and imm_val > 0: 0
  pair_regs:
    x10: 0
    x12: 0
    x14: 0
    x16: 0
    x18: 0
    x2: 0
    x20: 0
    x22: 0
    x24: 0
    x26: 0
    x28: 0
    x30: 0
    x4: 0
    x6: 0
    x8: 0
  r4fmt_op_comb:
    rd == rs2 == rs3 != rs1: 0
    rs1 != rs2 and rs1 != rd and rs1 != rs3 and rs2 != rs3 and rs2 != rd and rs3 != rd: 0
    rs1 == rd != rs2 and rs1 == rd != rs3 and rs3 != rs2: 0
    rs1 == rd == rs3 != rs2: 0
    rs1 == rs2 != rs3 and rs1 == rs2 != rd and rd != rs3: 0
    rs1 == rs2 == rd != rs3: 0
    rs1 == rs2 == rs3 != rd: 0
    rs1 == rs2 == rs3 == rd: 0
    rs1 == rs3 != rs2 and rs1 == rs3 != rd and rd != rs2: 0
    rs2 == rd != rs1 and rs2 == rd != rs3 and rs3 != rs1: 0
    rs2 == rs3 != rs1 and rs2 == rs3 != rd and rd != rs1: 0
    rs3 == rd != rs1 and rs3 == rd != rs2 and rs2 != rs1: 0
  rfmt_base_shift:
    rs1_val < 0 and rs2_val == 0: 0
    rs1_val < 0 and rs2_val > 0 and rs2_val < xlen: 0
    rs1_val == (-2**(xlen-1)) and rs2_val >= 0 and rs2_val < xlen: 0
    rs1_val == (2**(xlen-1)-1) and rs2_val >= 0 and rs2_val < xlen: 0
    rs1_val == 0 and rs2_val >= 0 and rs2_val < xlen: 0
    rs1_val == 1 and rs2_val >= 0 and rs2_val < xlen: 0
    rs1_val == rs2_val and rs2_val > 0 and rs2_val < xlen: 0
    rs1_val > 0 and rs2_val == 0: 0
    rs1_val > 0 and rs2_val > 0 and rs2_val < xlen: 0
  rfmt_op_comb:
    rs1 != rs2  and rs1 != rd and rs2 != rd: 0
    rs1 == rd != rs2: 0
    rs1 == rs2 != rd: 0
    rs1 == rs2 == rd: 0
    rs2 == rd != rs1: 0
  rfmt_val_comb_sgn:
    rs1_val != rs2_val: 0
    rs1_val < 0 and rs2_val < 0: 0
    rs1_val < 0 and rs2_val > 0: 0
    rs1_val == rs2_val: 0
    rs1_val > 0 and rs2_val < 0: 0
    rs1_val > 0 and rs2_val > 0: 0
  rfmt_val_comb_unsgn:
    rs1_val != rs2_val and rs1_val > 0 and rs2_val > 0: 0
    rs1_val == rs2_val and rs1_val > 0 and rs2_val > 0: 0
    rs1_val > 0 and rs2_val > 0: 0
  rs1val_walking:
    alternate("rs1_val",xlen): 0
    walking_ones("rs1_val", xlen): 0
    walking_zeros("rs1_val", xlen): 0
  rs1val_walking_unsgn:
    alternate("rs1_val",xlen,False): 0
    walking_ones("rs1_val", xlen,False): 0
    walking_zeros("rs1_val", xlen,False): 0
  rs2val_walking:
    alternate("rs2_val",xlen): 0
    walking_ones("rs2_val", xlen): 0
    walking_zeros("rs2_val", xlen): 0
  rs2val_walking_unsgn:
    alternate("rs2_val",xlen,False): 0
    walking_ones("rs2_val", xlen,False): 0
    walking_zeros("rs2_val", xlen,False): 0
  rs3val_walking:
    alternate("rs3_val",xlen): 0
    walking_ones("rs3_val", xlen): 0
    walking_zeros("rs3_val", xlen): 0
  rv32e_regs:
    x0: 0
    x1: 0
    x10: 0
    x11: 0
    x12: 0
    x13: 0
    x14: 0
    x15: 0
    x2: 0
    x3: 0
    x4: 0
    x5: 0
    x6: 0
    x7: 0
    x8: 0
    x9: 0
  rv32e_regs_mx0:
    x1: 0
    x10: 0
    x11: 0
    x12: 0
    x13: 0
    x14: 0
    x15: 0
    x2: 0
    x3: 0
    x4: 0
    x5: 0
    x6: 0
    x7: 0
    x8: 0
    x9: 0
  rv32e_regs_mx2:
    x1: 0
    x10: 0
    x11: 0
    x12: 0
    x13: 0
    x14: 0
    x15: 0
    x3: 0
    x4: 0
    x5: 0
    x6: 0
    x7: 0
    x8: 0
    x9: 0
  rvp64_rs1val_sgn:
    rs1_val == (-2**63): 0
    rs1_val == (2**63-1): 0
    rs1_val == 0: 0
    rs1_val == 1: 0
  rvp64_rs1val_unsgn:
    rs1_val == (2**64-1): 0
    rs1_val == 0: 0
    rs1_val == 1: 0
  rvp64_rs1val_walking_sgn:
    alternate("rs1_val",64): 0
    walking_ones("rs1_val", 64): 0
    walking_zeros("rs1_val", 64): 0
  rvp64_rs1val_walking_unsgn:
    alternate("rs1_val",64, signed=False): 0
    walking_ones("rs1_val", 64, signed=False): 0
    walking_zeros("rs1_val", 64, signed=False): 0
  rvp64_rs2val_sgn:
    rs2_val == (-2**63): 0
    rs2_val == (2**63-1): 0
    rs2_val == 0: 0
    rs2_val == 1: 0
  rvp64_rs2val_unsgn:
    rs2_val == (2**64-1): 0
    rs2_val == 0: 0
    rs2_val == 1: 0
  rvp64_rs2val_walking_sgn:
    alternate("rs2_val",64): 0
    walking_ones("rs2_val", 64): 0
    walking_zeros("rs2_val", 64): 0
  rvp64_rs2val_walking_unsgn:
    alternate("rs2_val",64, signed=False): 0
    walking_ones("rs2_val", 64, signed=False): 0
    walking_zeros("rs2_val", 64, signed=False): 0
  sfmt_op_comb:
    rs1 != rs2: 0
    rs1 == rs2: 0
fcvt.s.d_b1:
  config:
  - check ISA:=regex(.*I.*F.*)
  op_comb:
    rs1 != rd: 31
    rs1 == rd: 1
    coverage: 2/2
  opcode:
    fcvt.s.d: 32
    coverage: 1/1
  rd:
    f0: 1
    f1: 1
    f10: 1
    f11: 1
    f12: 1
    f13: 1
    f14: 1
    f15: 1
    f16: 1
    f17: 1
    f18: 1
    f19: 1
    f2: 1
    f20: 1
    f21: 1
    f22: 1
    f23: 1
    f24: 1
    f25: 1
    f26: 1
    f27: 1
    f28: 1
    f29: 1
    f3: 1
    f30: 1
    f31: 1
    f4: 1
    f5: 1
    f6: 1
    f7: 1
    f8: 1
    f9: 1
    coverage: 32/32
  rs1:
    f0: 1
    f1: 1
    f10: 1
    f11: 1
    f12: 1
    f13: 1
    f14: 1
    f15: 1
    f16: 1
    f17: 1
    f18: 1
    f19: 1
    f2: 1
    f20: 1
    f21: 1
    f22: 1
    f23: 1
    f24: 1
    f25: 1
    f26: 1
    f27: 1
    f28: 1
    f29: 1
    f3: 1
    f30: 1
    f31: 1
    f4: 1
    f5: 1
    f6: 1
    f7: 1
    f8: 1
    f9: 1
    coverage: 32/32
  val_comb:
    'fs1 == 0 and fe1 == 0x000 and fm1 == 0x0000000000000 and rm_val == 0  #nosat': 9  #  rs1_val==dzero(0x0000000000000000)
    'fs1 == 1 and fe1 == 0x3f8 and fm1 == 0x0000000000000 and rm_val == 0  #nosat': 1 #  rs1_val==done(0xBF80000000000000)
    'fs1 == 0 and fe1 == 0x3ff and fm1 == 0x0000000000000 and rm_val == 0  #nosat': 1 #  rs1_val==done(0x3FF0000000000000)
    'fs1 == 1 and fe1 == 0x7ff and fm1 == 0x0000000000001 and rm_val == 0  #nosat': 1 #  rs1_val==dsnan(0xFFF0000000000001)
    'fs1 == 0 and fe1 == 0x7ff and fm1 == 0x0000000000001 and rm_val == 0  #nosat': 1 #  rs1_val==dsnan(0x7FF0000000000001)
    'fs1 == 1 and fe1 == 0x7ff and fm1 == 0x8000000000001 and rm_val == 0  #nosat': 1 #  rs1_val==dqnan(0xFFF8000000000001)
    'fs1 == 0 and fe1 == 0x7ff and fm1 == 0x8000000000001 and rm_val == 0  #nosat': 1 #  rs1_val==dqnan(0x7FF8000000000001)
    'fs1 == 1 and fe1 == 0x7ff and fm1 == 0x8000000000000 and rm_val == 0  #nosat': 1 #  rs1_val==ddefaultnan(0xFFF8000000000000)
    'fs1 == 0 and fe1 == 0x7ff and fm1 == 0x8000000000000 and rm_val == 0  #nosat': 1 #  rs1_val==ddefaultnan(0x7FF8000000000000)
    'fs1 == 1 and fe1 == 0x7ff and fm1 == 0x0000000000000 and rm_val == 0  #nosat': 1 #  rs1_val==dinfinity(0xFFF0000000000000)
    'fs1 == 0 and fe1 == 0x7ff and fm1 == 0x0000000000000 and rm_val == 0  #nosat': 1 #  rs1_val==dinfinity(0x7FF0000000000000)
    'fs1 == 1 and fe1 == 0x7fe and fm1 == 0xfffffffffffff and rm_val == 0  #nosat': 1 #  rs1_val==dmaxnorm(0xFFEFFFFFFFFFFFFF)
    'fs1 == 0 and fe1 == 0x7fe and fm1 == 0xfffffffffffff and rm_val == 0  #nosat': 1 #  rs1_val==dmaxnorm(0x7FEFFFFFFFFFFFFF)
    'fs1 == 1 and fe1 == 0x001 and fm1 == 0x0000000000002 and rm_val == 0  #nosat': 1 #  rs1_val==dnorm(0x8010000000000002)
    'fs1 == 0 and fe1 == 0x001 and fm1 == 0x0000000000002 and rm_val == 0  #nosat': 1 #  rs1_val==dnorm(0x0010000000000002)
    'fs1 == 1 and fe1 == 0x001 and fm1 == 0x0000000000000 and rm_val == 0  #nosat': 1 #  rs1_val==dminnorm(0x8010000000000000)
    'fs1 == 0 and fe1 == 0x001 and fm1 == 0x0000000000000 and rm_val == 0  #nosat': 1 #  rs1_val==dminnorm(0x0010000000000000)
    'fs1 == 1 and fe1 == 0x000 and fm1 == 0xfffffffffffff and rm_val == 0  #nosat': 1 #  rs1_val==dmaxsubnorm(0x800FFFFFFFFFFFFF)
    'fs1 == 0 and fe1 == 0x000 and fm1 == 0xfffffffffffff and rm_val == 0  #nosat': 1 #  rs1_val==dmaxsubnorm(0x000FFFFFFFFFFFFF)
    'fs1 == 1 and fe1 == 0x000 and fm1 == 0x0000000000002 and rm_val == 0  #nosat': 1 #  rs1_val==dsubnorm(0x8000000000000002)
    'fs1 == 0 and fe1 == 0x000 and fm1 == 0x0000000000002 and rm_val == 0  #nosat': 1 #  rs1_val==dsubnorm(0x0000000000000002)
    'fs1 == 1 and fe1 == 0x000 and fm1 == 0x0000000000001 and rm_val == 0  #nosat': 1 #  rs1_val==dminsubnorm(0x8000000000000001)
    'fs1 == 0 and fe1 == 0x000 and fm1 == 0x0000000000001 and rm_val == 0  #nosat': 1 #  rs1_val==dminsubnorm(0x0000000000000001)
    'fs1 == 1 and fe1 == 0x000 and fm1 == 0x0000000000000 and rm_val == 0  #nosat': 1 #  rs1_val==dzero(0x8000000000000000)
    coverage: 24/24
  total_coverage: 91/91
fcvt.s.d_b22:
  config:
  - check ISA:=regex(.*I.*F.*)
  op_comb:
    rs1 != rd: 31
    rs1 == rd: 1
    coverage: 2/2
  opcode:
    fcvt.s.d: 32
    coverage: 1/1
  rd:
    f0: 1
    f1: 1
    f10: 1
    f11: 1
    f12: 1
    f13: 1
    f14: 1
    f15: 1
    f16: 1
    f17: 1
    f18: 1
    f19: 1
    f2: 1
    f20: 1
    f21: 1
    f22: 1
    f23: 1
    f24: 1
    f25: 1
    f26: 1
    f27: 1
    f28: 1
    f29: 1
    f3: 1
    f30: 1
    f31: 1
    f4: 1
    f5: 1
    f6: 1
    f7: 1
    f8: 1
    f9: 1
    coverage: 32/32
  rs1:
    f0: 1
    f1: 1
    f10: 1
    f11: 1
    f12: 1
    f13: 1
    f14: 1
    f15: 1
    f16: 1
    f17: 1
    f18: 1
    f19: 1
    f2: 1
    f20: 1
    f21: 1
    f22: 1
    f23: 1
    f24: 1
    f25: 1
    f26: 1
    f27: 1
    f28: 1
    f29: 1
    f3: 1
    f30: 1
    f31: 1
    f4: 1
    f5: 1
    f6: 1
    f7: 1
    f8: 1
    f9: 1
    coverage: 32/32
  val_comb:
    'fs1 == 0 and fe1 == 0x3fc and fm1 == 0x08577924770d3 and rm_val == 0  #nosat': 1  #  rs1_val==dnorm(0x3fc08577924770d3) | Exponent: -3, Exponent in the range [-3, integer width+3]
    'fs1 == 0 and fe1 == 0x7fe and fm1 == 0xbedc2f3ebcf12 and rm_val == 0  #nosat': 1 #  rs1_val==dnorm(0x7febedc2f3ebcf12) | Exponent: 1023, Exponent greater than (integer width+3)
    'fs1 == 1 and fe1 == 0x0ff and fm1 == 0x137a953e8eb43 and rm_val == 0  #nosat': 1 #  rs1_val==dnorm(0x8ff137a953e8eb43) | Exponent: -768, Exponent less than -3
    'fs1 == 0 and fe1 == 0x401 and fm1 == 0x854a908ceac39 and rm_val == 0  #nosat': 1 #  rs1_val==dnorm(0x401854a908ceac39) | Exponent: 2, Exponent in the range [-3, integer width+3]
    'fs1 == 0 and fe1 == 0x400 and fm1 == 0xcf84ba749f9c5 and rm_val == 0  #nosat': 1 #  rs1_val==dnorm(0x400cf84ba749f9c5) | Exponent: 1, Exponent in the range [-3, integer width+3]
    'fs1 == 0 and fe1 == 0x3ff and fm1 == 0xd2d6b7dc59a3a and rm_val == 0  #nosat': 1 #  rs1_val==dnorm(0x3ffd2d6b7dc59a3a) | Exponent: 0, Exponent in the range [-3, integer width+3]
    'fs1 == 1 and fe1 == 0x3fe and fm1 == 0x766ba34c2da80 and rm_val == 0  #nosat': 1 #  rs1_val==dnorm(0xbfe766ba34c2da80) | Exponent: -1, Exponent in the range [-3, integer width+3]
    'fs1 == 0 and fe1 == 0x3fd and fm1 == 0x93fdc7b89296c and rm_val == 0  #nosat': 1 #  rs1_val==dnorm(0x3fd93fdc7b89296c) | Exponent: -2, Exponent in the range [-3, integer width+3]
    coverage: 8/8
  total_coverage: 75/75
fcvt.s.d_b23:
  config:
  - check ISA:=regex(.*I.*F.*)
  op_comb:
    rs1 != rd: 44
    rs1 == rd: 1
    coverage: 2/2
  opcode:
    fcvt.s.d: 45
    coverage: 1/1
  rd:
    f0: 1
    f1: 1
    f10: 1
    f11: 1
    f12: 1
    f13: 1
    f14: 1
    f15: 1
    f16: 1
    f17: 1
    f18: 1
    f19: 1
    f2: 1
    f20: 1
    f21: 1
    f22: 1
    f23: 1
    f24: 1
    f25: 1
    f26: 1
    f27: 1
    f28: 1
    f29: 1
    f3: 1
    f30: 1
    f31: 14
    f4: 1
    f5: 1
    f6: 1
    f7: 1
    f8: 1
    f9: 1
    coverage: 32/32
  rs1:
    f0: 1
    f1: 1
    f10: 1
    f11: 1
    f12: 1
    f13: 1
    f14: 1
    f15: 1
    f16: 1
    f17: 1
    f18: 1
    f19: 1
    f2: 1
    f20: 1
    f21: 1
    f22: 1
    f23: 1
    f24: 1
    f25: 1
    f26: 1
    f27: 1
    f28: 1
    f29: 1
    f3: 1
    f30: 14
    f31: 1
    f4: 1
    f5: 1
    f6: 1
    f7: 1
    f8: 1
    f9: 1
    coverage: 32/32
  val_comb:
    'fs1 == 0 and fe1 == 0x43d and fm1 == 0xffffffffffffc and rm_val == 0  #nosat': 1  #  rs1_val==dnorm(0x43dffffffffffffc) | MaxInt + (-4)
    'fs1 == 0 and fe1 == 0x43e and fm1 == 0x0000000000004 and rm_val == 4  #nosat': 1 #  rs1_val==dnorm(0x43e0000000000004) | MaxInt + (4)
    'fs1 == 0 and fe1 == 0x43e and fm1 == 0x0000000000004 and rm_val == 3  #nosat': 1 #  rs1_val==dnorm(0x43e0000000000004) | MaxInt + (4)
    'fs1 == 0 and fe1 == 0x43e and fm1 == 0x0000000000004 and rm_val == 2  #nosat': 1 #  rs1_val==dnorm(0x43e0000000000004) | MaxInt + (4)
    'fs1 == 0 and fe1 == 0x43e and fm1 == 0x0000000000004 and rm_val == 1  #nosat': 1 #  rs1_val==dnorm(0x43e0000000000004) | MaxInt + (4)
    'fs1 == 0 and fe1 == 0x43e and fm1 == 0x0000000000004 and rm_val == 0  #nosat': 1 #  rs1_val==dnorm(0x43e0000000000004) | MaxInt + (4)
    'fs1 == 0 and fe1 == 0x43e and fm1 == 0x0000000000003 and rm_val == 4  #nosat': 1 #  rs1_val==dnorm(0x43e0000000000003) | MaxInt + (3)
    'fs1 == 0 and fe1 == 0x43e and fm1 == 0x0000000000003 and rm_val == 3  #nosat': 1 #  rs1_val==dnorm(0x43e0000000000003) | MaxInt + (3)
    'fs1 == 0 and fe1 == 0x43e and fm1 == 0x0000000000003 and rm_val == 2  #nosat': 1 #  rs1_val==dnorm(0x43e0000000000003) | MaxInt + (3)
    'fs1 == 0 and fe1 == 0x43e and fm1 == 0x0000000000003 and rm_val == 1  #nosat': 1 #  rs1_val==dnorm(0x43e0000000000003) | MaxInt + (3)
    'fs1 == 0 and fe1 == 0x43e and fm1 == 0x0000000000003 and rm_val == 0  #nosat': 1 #  rs1_val==dnorm(0x43e0000000000003) | MaxInt + (3)
    'fs1 == 0 and fe1 == 0x43e and fm1 == 0x0000000000002 and rm_val == 4  #nosat': 1 #  rs1_val==dnorm(0x43e0000000000002) | MaxInt + (2)
    'fs1 == 0 and fe1 == 0x43e and fm1 == 0x0000000000002 and rm_val == 3  #nosat': 1 #  rs1_val==dnorm(0x43e0000000000002) | MaxInt + (2)
    'fs1 == 0 and fe1 == 0x43e and fm1 == 0x0000000000002 and rm_val == 2  #nosat': 1 #  rs1_val==dnorm(0x43e0000000000002) | MaxInt + (2)
    'fs1 == 0 and fe1 == 0x43e and fm1 == 0x0000000000002 and rm_val == 1  #nosat': 1 #  rs1_val==dnorm(0x43e0000000000002) | MaxInt + (2)
    'fs1 == 0 and fe1 == 0x43e and fm1 == 0x0000000000002 and rm_val == 0  #nosat': 1 #  rs1_val==dnorm(0x43e0000000000002) | MaxInt + (2)
    'fs1 == 0 and fe1 == 0x43e and fm1 == 0x0000000000001 and rm_val == 4  #nosat': 1 #  rs1_val==dnorm(0x43e0000000000001) | MaxInt + (1)
    'fs1 == 0 and fe1 == 0x43e and fm1 == 0x0000000000001 and rm_val == 3  #nosat': 1 #  rs1_val==dnorm(0x43e0000000000001) | MaxInt + (1)
    'fs1 == 0 and fe1 == 0x43e and fm1 == 0x0000000000001 and rm_val == 2  #nosat': 1 #  rs1_val==dnorm(0x43e0000000000001) | MaxInt + (1)
    'fs1 == 0 and fe1 == 0x43e and fm1 == 0x0000000000001 and rm_val == 1  #nosat': 1 #  rs1_val==dnorm(0x43e0000000000001) | MaxInt + (1)
    'fs1 == 0 and fe1 == 0x43e and fm1 == 0x0000000000001 and rm_val == 0  #nosat': 1 #  rs1_val==dnorm(0x43e0000000000001) | MaxInt + (1)
    'fs1 == 0 and fe1 == 0x43e and fm1 == 0x0000000000000 and rm_val == 4  #nosat': 1 #  rs1_val==dnorm(0x43e0000000000000) | MaxInt + (0)
    'fs1 == 0 and fe1 == 0x43e and fm1 == 0x0000000000000 and rm_val == 3  #nosat': 1 #  rs1_val==dnorm(0x43e0000000000000) | MaxInt + (0)
    'fs1 == 0 and fe1 == 0x43e and fm1 == 0x0000000000000 and rm_val == 2  #nosat': 1 #  rs1_val==dnorm(0x43e0000000000000) | MaxInt + (0)
    'fs1 == 0 and fe1 == 0x43e and fm1 == 0x0000000000000 and rm_val == 1  #nosat': 1 #  rs1_val==dnorm(0x43e0000000000000) | MaxInt + (0)
    'fs1 == 0 and fe1 == 0x43e and fm1 == 0x0000000000000 and rm_val == 0  #nosat': 1 #  rs1_val==dnorm(0x43e0000000000000) | MaxInt + (0)
    'fs1 == 0 and fe1 == 0x43d and fm1 == 0xfffffffffffff and rm_val == 4  #nosat': 1 #  rs1_val==dnorm(0x43dfffffffffffff) | MaxInt + (-1)
    'fs1 == 0 and fe1 == 0x43d and fm1 == 0xfffffffffffff and rm_val == 3  #nosat': 1 #  rs1_val==dnorm(0x43dfffffffffffff) | MaxInt + (-1)
    'fs1 == 0 and fe1 == 0x43d and fm1 == 0xfffffffffffff and rm_val == 2  #nosat': 1 #  rs1_val==dnorm(0x43dfffffffffffff) | MaxInt + (-1)
    'fs1 == 0 and fe1 == 0x43d and fm1 == 0xfffffffffffff and rm_val == 1  #nosat': 1 #  rs1_val==dnorm(0x43dfffffffffffff) | MaxInt + (-1)
    'fs1 == 0 and fe1 == 0x43d and fm1 == 0xfffffffffffff and rm_val == 0  #nosat': 1 #  rs1_val==dnorm(0x43dfffffffffffff) | MaxInt + (-1)
    'fs1 == 0 and fe1 == 0x43d and fm1 == 0xffffffffffffe and rm_val == 4  #nosat': 1 #  rs1_val==dnorm(0x43dffffffffffffe) | MaxInt + (-2)
    'fs1 == 0 and fe1 == 0x43d and fm1 == 0xffffffffffffe and rm_val == 3  #nosat': 1 #  rs1_val==dnorm(0x43dffffffffffffe) | MaxInt + (-2)
    'fs1 == 0 and fe1 == 0x43d and fm1 == 0xffffffffffffe and rm_val == 2  #nosat': 1 #  rs1_val==dnorm(0x43dffffffffffffe) | MaxInt + (-2)
    'fs1 == 0 and fe1 == 0x43d and fm1 == 0xffffffffffffe and rm_val == 1  #nosat': 1 #  rs1_val==dnorm(0x43dffffffffffffe) | MaxInt + (-2)
    'fs1 == 0 and fe1 == 0x43d and fm1 == 0xffffffffffffe and rm_val == 0  #nosat': 1 #  rs1_val==dnorm(0x43dffffffffffffe) | MaxInt + (-2)
    'fs1 == 0 and fe1 == 0x43d and fm1 == 0xffffffffffffd and rm_val == 4  #nosat': 1 #  rs1_val==dnorm(0x43dffffffffffffd) | MaxInt + (-3)
    'fs1 == 0 and fe1 == 0x43d and fm1 == 0xffffffffffffd and rm_val == 3  #nosat': 1 #  rs1_val==dnorm(0x43dffffffffffffd) | MaxInt + (-3)
    'fs1 == 0 and fe1 == 0x43d and fm1 == 0xffffffffffffd and rm_val == 2  #nosat': 1 #  rs1_val==dnorm(0x43dffffffffffffd) | MaxInt + (-3)
    'fs1 == 0 and fe1 == 0x43d and fm1 == 0xffffffffffffd and rm_val == 1  #nosat': 1 #  rs1_val==dnorm(0x43dffffffffffffd) | MaxInt + (-3)
    'fs1 == 0 and fe1 == 0x43d and fm1 == 0xffffffffffffd and rm_val == 0  #nosat': 1 #  rs1_val==dnorm(0x43dffffffffffffd) | MaxInt + (-3)
    'fs1 == 0 and fe1 == 0x43d and fm1 == 0xffffffffffffc and rm_val == 4  #nosat': 1 #  rs1_val==dnorm(0x43dffffffffffffc) | MaxInt + (-4)
    'fs1 == 0 and fe1 == 0x43d and fm1 == 0xffffffffffffc and rm_val == 3  #nosat': 1 #  rs1_val==dnorm(0x43dffffffffffffc) | MaxInt + (-4)
    'fs1 == 0 and fe1 == 0x43d and fm1 == 0xffffffffffffc and rm_val == 2  #nosat': 1 #  rs1_val==dnorm(0x43dffffffffffffc) | MaxInt + (-4)
    'fs1 == 0 and fe1 == 0x43d and fm1 == 0xffffffffffffc and rm_val == 1  #nosat': 1 #  rs1_val==dnorm(0x43dffffffffffffc) | MaxInt + (-4)
    coverage: 45/45
  total_coverage: 112/112
fcvt.s.d_b24:
  config:
  - check ISA:=regex(.*I.*F.*)
  op_comb:
    rs1 != rd: 105
    rs1 == rd: 1
    coverage: 2/2
  opcode:
    fcvt.s.d: 106
    coverage: 1/1
  rd:
    f0: 1
    f1: 1
    f10: 1
    f11: 1
    f12: 1
    f13: 1
    f14: 1
    f15: 1
    f16: 1
    f17: 1
    f18: 1
    f19: 1
    f2: 1
    f20: 1
    f21: 1
    f22: 1
    f23: 1
    f24: 1
    f25: 1
    f26: 1
    f27: 1
    f28: 1
    f29: 1
    f3: 1
    f30: 1
    f31: 75
    f4: 1
    f5: 1
    f6: 1
    f7: 1
    f8: 1
    f9: 1
    coverage: 32/32
  rs1:
    f0: 1
    f1: 1
    f10: 1
    f11: 1
    f12: 1
    f13: 1
    f14: 1
    f15: 1
    f16: 1
    f17: 1
    f18: 1
    f19: 1
    f2: 1
    f20: 1
    f21: 1
    f22: 1
    f23: 1
    f24: 1
    f25: 1
    f26: 1
    f27: 1
    f28: 1
    f29: 1
    f3: 1
    f30: 75
    f31: 1
    f4: 1
    f5: 1
    f6: 1
    f7: 1
    f8: 1
    f9: 1
    coverage: 32/32
  val_comb:
    'fs1 == 0 and fe1 == 0x3ff and fm1 == 0x199999999999a and rm_val == 0  #nosat': 1  #  rs1_val==dnorm(0x3ff199999999999a) | +1+0.1
    'fs1 == 1 and fe1 == 0x3ff and fm1 == 0x028f5c28f5c29 and rm_val == 4  #nosat': 1 #  rs1_val==dnorm(0xbff028f5c28f5c29) | -1-0.01
    'fs1 == 1 and fe1 == 0x3ff and fm1 == 0x028f5c28f5c29 and rm_val == 3  #nosat': 1 #  rs1_val==dnorm(0xbff028f5c28f5c29) | -1-0.01
    'fs1 == 1 and fe1 == 0x3ff and fm1 == 0x028f5c28f5c29 and rm_val == 2  #nosat': 1 #  rs1_val==dnorm(0xbff028f5c28f5c29) | -1-0.01
    'fs1 == 1 and fe1 == 0x3ff and fm1 == 0x028f5c28f5c29 and rm_val == 1  #nosat': 1 #  rs1_val==dnorm(0xbff028f5c28f5c29) | -1-0.01
    'fs1 == 1 and fe1 == 0x3ff and fm1 == 0x028f5c28f5c29 and rm_val == 0  #nosat': 1 #  rs1_val==dnorm(0xbff028f5c28f5c29) | -1-0.01
    'fs1 == 1 and fe1 == 0x3ff and fm1 == 0x199999999999a and rm_val == 4  #nosat': 1 #  rs1_val==dnorm(0xbff199999999999a) | -1-0.1
    'fs1 == 1 and fe1 == 0x3ff and fm1 == 0x199999999999a and rm_val == 3  #nosat': 1 #  rs1_val==dnorm(0xbff199999999999a) | -1-0.1
    'fs1 == 1 and fe1 == 0x3ff and fm1 == 0x199999999999a and rm_val == 2  #nosat': 1 #  rs1_val==dnorm(0xbff199999999999a) | -1-0.1
    'fs1 == 1 and fe1 == 0x3ff and fm1 == 0x199999999999a and rm_val == 1  #nosat': 1 #  rs1_val==dnorm(0xbff199999999999a) | -1-0.1
    'fs1 == 1 and fe1 == 0x3ff and fm1 == 0x199999999999a and rm_val == 0  #nosat': 1 #  rs1_val==dnorm(0xbff199999999999a) | -1-0.1
    'fs1 == 1 and fe1 == 0x3fb and fm1 == 0x999999999999a and rm_val == 4  #nosat': 1 #  rs1_val==dnorm(0xbfb999999999999a) | -0-0.1
    'fs1 == 1 and fe1 == 0x3fb and fm1 == 0x999999999999a and rm_val == 3  #nosat': 1 #  rs1_val==dnorm(0xbfb999999999999a) | -0-0.1
    'fs1 == 1 and fe1 == 0x3fb and fm1 == 0x999999999999a and rm_val == 2  #nosat': 1 #  rs1_val==dnorm(0xbfb999999999999a) | -0-0.1
    'fs1 == 1 and fe1 == 0x3fb and fm1 == 0x999999999999a and rm_val == 1  #nosat': 1 #  rs1_val==dnorm(0xbfb999999999999a) | -0-0.1
    'fs1 == 1 and fe1 == 0x3fb and fm1 == 0x999999999999a and rm_val == 0  #nosat': 1 #  rs1_val==dnorm(0xbfb999999999999a) | -0-0.1
    'fs1 == 1 and fe1 == 0x3ff and fm1 == 0x0000000000000 and rm_val == 4  #nosat': 1 #  rs1_val==dnorm(0xbff0000000000000) | -1+0
    'fs1 == 1 and fe1 == 0x3ff and fm1 == 0x0000000000000 and rm_val == 3  #nosat': 1 #  rs1_val==dnorm(0xbff0000000000000) | -1+0
    'fs1 == 1 and fe1 == 0x3ff and fm1 == 0x0000000000000 and rm_val == 2  #nosat': 1 #  rs1_val==dnorm(0xbff0000000000000) | -1+0
    'fs1 == 1 and fe1 == 0x3ff and fm1 == 0x0000000000000 and rm_val == 1  #nosat': 1 #  rs1_val==dnorm(0xbff0000000000000) | -1+0
    'fs1 == 1 and fe1 == 0x3ff and fm1 == 0x0000000000000 and rm_val == 0  #nosat': 1 #  rs1_val==dnorm(0xbff0000000000000) | -1+0
    'fs1 == 0 and fe1 == 0x000 and fm1 == 0x0000000000000 and rm_val == 4  #nosat': 1 #  rs1_val==dzero(0x0000000000000000) | +0+0
    'fs1 == 0 and fe1 == 0x000 and fm1 == 0x0000000000000 and rm_val == 3  #nosat': 1 #  rs1_val==dzero(0x0000000000000000) | +0+0
    'fs1 == 0 and fe1 == 0x000 and fm1 == 0x0000000000000 and rm_val == 2  #nosat': 1 #  rs1_val==dzero(0x0000000000000000) | +0+0
    'fs1 == 0 and fe1 == 0x000 and fm1 == 0x0000000000000 and rm_val == 1  #nosat': 1 #  rs1_val==dzero(0x0000000000000000) | +0+0
    'fs1 == 0 and fe1 == 0x000 and fm1 == 0x0000000000000 and rm_val == 0  #nosat': 1 #  rs1_val==dzero(0x0000000000000000) | +0+0
    'fs1 == 0 and fe1 == 0x3ff and fm1 == 0x1c28f5c28f5c3 and rm_val == 4  #nosat': 1 #  rs1_val==dnorm(0x3ff1c28f5c28f5c3) | +1+0.11
    'fs1 == 0 and fe1 == 0x3ff and fm1 == 0x1c28f5c28f5c3 and rm_val == 3  #nosat': 1 #  rs1_val==dnorm(0x3ff1c28f5c28f5c3) | +1+0.11
    'fs1 == 0 and fe1 == 0x3ff and fm1 == 0x1c28f5c28f5c3 and rm_val == 2  #nosat': 1 #  rs1_val==dnorm(0x3ff1c28f5c28f5c3) | +1+0.11
    'fs1 == 0 and fe1 == 0x3ff and fm1 == 0x1c28f5c28f5c3 and rm_val == 1  #nosat': 1 #  rs1_val==dnorm(0x3ff1c28f5c28f5c3) | +1+0.11
    'fs1 == 0 and fe1 == 0x3ff and fm1 == 0x1c28f5c28f5c3 and rm_val == 0  #nosat': 1 #  rs1_val==dnorm(0x3ff1c28f5c28f5c3) | +1+0.11
    'fs1 == 1 and fe1 == 0x3fb and fm1 == 0xc28f5c28f5c29 and rm_val == 4  #nosat': 1 #  rs1_val==dnorm(0xbfbc28f5c28f5c29) | -0-0.11
    'fs1 == 1 and fe1 == 0x3fb and fm1 == 0xc28f5c28f5c29 and rm_val == 3  #nosat': 1 #  rs1_val==dnorm(0xbfbc28f5c28f5c29) | -0-0.11
    'fs1 == 1 and fe1 == 0x3fb and fm1 == 0xc28f5c28f5c29 and rm_val == 2  #nosat': 1 #  rs1_val==dnorm(0xbfbc28f5c28f5c29) | -0-0.11
    'fs1 == 1 and fe1 == 0x3fb and fm1 == 0xc28f5c28f5c29 and rm_val == 1  #nosat': 1 #  rs1_val==dnorm(0xbfbc28f5c28f5c29) | -0-0.11
    'fs1 == 1 and fe1 == 0x3fb and fm1 == 0xc28f5c28f5c29 and rm_val == 0  #nosat': 1 #  rs1_val==dnorm(0xbfbc28f5c28f5c29) | -0-0.11
    'fs1 == 1 and fe1 == 0x3ff and fm1 == 0x1c28f5c28f5c3 and rm_val == 4  #nosat': 1 #  rs1_val==dnorm(0xbff1c28f5c28f5c3) | -1-0.11
    'fs1 == 1 and fe1 == 0x3ff and fm1 == 0x1c28f5c28f5c3 and rm_val == 3  #nosat': 1 #  rs1_val==dnorm(0xbff1c28f5c28f5c3) | -1-0.11
    'fs1 == 1 and fe1 == 0x3ff and fm1 == 0x1c28f5c28f5c3 and rm_val == 2  #nosat': 1 #  rs1_val==dnorm(0xbff1c28f5c28f5c3) | -1-0.11
    'fs1 == 1 and fe1 == 0x3ff and fm1 == 0x1c28f5c28f5c3 and rm_val == 1  #nosat': 1 #  rs1_val==dnorm(0xbff1c28f5c28f5c3) | -1-0.11
    'fs1 == 1 and fe1 == 0x3ff and fm1 == 0x1c28f5c28f5c3 and rm_val == 0  #nosat': 1 #  rs1_val==dnorm(0xbff1c28f5c28f5c3) | -1-0.11
    'fs1 == 0 and fe1 == 0x3f8 and fm1 == 0x47ae147ae147b and rm_val == 4  #nosat': 1 #  rs1_val==dnorm(0x3f847ae147ae147b) | -0+0.01
    'fs1 == 0 and fe1 == 0x3f8 and fm1 == 0x47ae147ae147b and rm_val == 3  #nosat': 1 #  rs1_val==dnorm(0x3f847ae147ae147b) | -0+0.01
    'fs1 == 0 and fe1 == 0x3f8 and fm1 == 0x47ae147ae147b and rm_val == 2  #nosat': 1 #  rs1_val==dnorm(0x3f847ae147ae147b) | -0+0.01
    'fs1 == 0 and fe1 == 0x3f8 and fm1 == 0x47ae147ae147b and rm_val == 1  #nosat': 1 #  rs1_val==dnorm(0x3f847ae147ae147b) | -0+0.01
    'fs1 == 0 and fe1 == 0x3f8 and fm1 == 0x47ae147ae147b and rm_val == 0  #nosat': 1 #  rs1_val==dnorm(0x3f847ae147ae147b) | -0+0.01
    'fs1 == 0 and fe1 == 0x3fb and fm1 == 0xc28f5c28f5c29 and rm_val == 4  #nosat': 1 #  rs1_val==dnorm(0x3fbc28f5c28f5c29) | -0+0.11
    'fs1 == 0 and fe1 == 0x3fb and fm1 == 0xc28f5c28f5c29 and rm_val == 3  #nosat': 1 #  rs1_val==dnorm(0x3fbc28f5c28f5c29) | -0+0.11
    'fs1 == 0 and fe1 == 0x3fb and fm1 == 0xc28f5c28f5c29 and rm_val == 2  #nosat': 1 #  rs1_val==dnorm(0x3fbc28f5c28f5c29) | -0+0.11
    'fs1 == 0 and fe1 == 0x3fb and fm1 == 0xc28f5c28f5c29 and rm_val == 1  #nosat': 1 #  rs1_val==dnorm(0x3fbc28f5c28f5c29) | -0+0.11
    'fs1 == 0 and fe1 == 0x3fb and fm1 == 0xc28f5c28f5c29 and rm_val == 0  #nosat': 1 #  rs1_val==dnorm(0x3fbc28f5c28f5c29) | -0+0.11
    'fs1 == 0 and fe1 == 0x3fb and fm1 == 0x999999999999a and rm_val == 4  #nosat': 2 #  rs1_val==dnorm(0x3fb999999999999a) | +0+0.1
    'fs1 == 0 and fe1 == 0x3fb and fm1 == 0x999999999999a and rm_val == 3  #nosat': 1 #  rs1_val==dnorm(0x3fb999999999999a) | +0+0.1
    'fs1 == 0 and fe1 == 0x3fb and fm1 == 0x999999999999a and rm_val == 2  #nosat': 1 #  rs1_val==dnorm(0x3fb999999999999a) | +0+0.1
    'fs1 == 0 and fe1 == 0x3fb and fm1 == 0x999999999999a and rm_val == 1  #nosat': 1 #  rs1_val==dnorm(0x3fb999999999999a) | +0+0.1
    'fs1 == 0 and fe1 == 0x3fb and fm1 == 0x999999999999a and rm_val == 0  #nosat': 1 #  rs1_val==dnorm(0x3fb999999999999a) | +0+0.1
    'fs1 == 1 and fe1 == 0x3fe and fm1 == 0xccccccccccccd and rm_val == 4  #nosat': 1 #  rs1_val==dnorm(0xbfeccccccccccccd) | -1+0.1
    'fs1 == 1 and fe1 == 0x3fe and fm1 == 0xccccccccccccd and rm_val == 3  #nosat': 1 #  rs1_val==dnorm(0xbfeccccccccccccd) | -1+0.1
    'fs1 == 1 and fe1 == 0x3fe and fm1 == 0xccccccccccccd and rm_val == 2  #nosat': 1 #  rs1_val==dnorm(0xbfeccccccccccccd) | -1+0.1
    'fs1 == 1 and fe1 == 0x3fe and fm1 == 0xccccccccccccd and rm_val == 1  #nosat': 1 #  rs1_val==dnorm(0xbfeccccccccccccd) | -1+0.1
    'fs1 == 1 and fe1 == 0x3fe and fm1 == 0xccccccccccccd and rm_val == 0  #nosat': 1 #  rs1_val==dnorm(0xbfeccccccccccccd) | -1+0.1
    'fs1 == 1 and fe1 == 0x3f8 and fm1 == 0x47ae147ae147b and rm_val == 4  #nosat': 1 #  rs1_val==dnorm(0xbf847ae147ae147b) | -0-0.01
    'fs1 == 1 and fe1 == 0x3f8 and fm1 == 0x47ae147ae147b and rm_val == 3  #nosat': 1 #  rs1_val==dnorm(0xbf847ae147ae147b) | -0-0.01
    'fs1 == 1 and fe1 == 0x3f8 and fm1 == 0x47ae147ae147b and rm_val == 2  #nosat': 1 #  rs1_val==dnorm(0xbf847ae147ae147b) | -0-0.01
    'fs1 == 1 and fe1 == 0x3f8 and fm1 == 0x47ae147ae147b and rm_val == 1  #nosat': 1 #  rs1_val==dnorm(0xbf847ae147ae147b) | -0-0.01
    'fs1 == 1 and fe1 == 0x3f8 and fm1 == 0x47ae147ae147b and rm_val == 0  #nosat': 1 #  rs1_val==dnorm(0xbf847ae147ae147b) | -0-0.01
    'fs1 == 1 and fe1 == 0x3fe and fm1 == 0xfae147ae147ae and rm_val == 4  #nosat': 1 #  rs1_val==dnorm(0xbfefae147ae147ae) | -1+0.01
    'fs1 == 1 and fe1 == 0x3fe and fm1 == 0xfae147ae147ae and rm_val == 3  #nosat': 1 #  rs1_val==dnorm(0xbfefae147ae147ae) | -1+0.01
    'fs1 == 1 and fe1 == 0x3fe and fm1 == 0xfae147ae147ae and rm_val == 2  #nosat': 1 #  rs1_val==dnorm(0xbfefae147ae147ae) | -1+0.01
    'fs1 == 1 and fe1 == 0x3fe and fm1 == 0xfae147ae147ae and rm_val == 1  #nosat': 1 #  rs1_val==dnorm(0xbfefae147ae147ae) | -1+0.01
    'fs1 == 1 and fe1 == 0x3fe and fm1 == 0xfae147ae147ae and rm_val == 0  #nosat': 1 #  rs1_val==dnorm(0xbfefae147ae147ae) | -1+0.01
    'fs1 == 0 and fe1 == 0x3ff and fm1 == 0x0000000000000 and rm_val == 4  #nosat': 1 #  rs1_val==done(0x3ff0000000000000) | +1+0
    'fs1 == 0 and fe1 == 0x3ff and fm1 == 0x0000000000000 and rm_val == 3  #nosat': 1 #  rs1_val==done(0x3ff0000000000000) | +1+0
    'fs1 == 0 and fe1 == 0x3ff and fm1 == 0x0000000000000 and rm_val == 2  #nosat': 1 #  rs1_val==done(0x3ff0000000000000) | +1+0
    'fs1 == 0 and fe1 == 0x3ff and fm1 == 0x0000000000000 and rm_val == 1  #nosat': 1 #  rs1_val==done(0x3ff0000000000000) | +1+0
    'fs1 == 0 and fe1 == 0x3ff and fm1 == 0x0000000000000 and rm_val == 0  #nosat': 1 #  rs1_val==done(0x3ff0000000000000) | +1+0
    'fs1 == 1 and fe1 == 0x3fe and fm1 == 0xc7ae147ae147b and rm_val == 4  #nosat': 1 #  rs1_val==dnorm(0xbfec7ae147ae147b) | -1+0.11
    'fs1 == 1 and fe1 == 0x3fe and fm1 == 0xc7ae147ae147b and rm_val == 3  #nosat': 1 #  rs1_val==dnorm(0xbfec7ae147ae147b) | -1+0.11
    'fs1 == 1 and fe1 == 0x3fe and fm1 == 0xc7ae147ae147b and rm_val == 2  #nosat': 1 #  rs1_val==dnorm(0xbfec7ae147ae147b) | -1+0.11
    'fs1 == 1 and fe1 == 0x3fe and fm1 == 0xc7ae147ae147b and rm_val == 1  #nosat': 1 #  rs1_val==dnorm(0xbfec7ae147ae147b) | -1+0.11
    'fs1 == 1 and fe1 == 0x3fe and fm1 == 0xc7ae147ae147b and rm_val == 0  #nosat': 1 #  rs1_val==dnorm(0xbfec7ae147ae147b) | -1+0.11
    'fs1 == 0 and fe1 == 0x3fe and fm1 == 0xc7ae147ae147b and rm_val == 4  #nosat': 1 #  rs1_val==dnorm(0x3fec7ae147ae147b) | +1-0.11
    'fs1 == 0 and fe1 == 0x3fe and fm1 == 0xc7ae147ae147b and rm_val == 3  #nosat': 1 #  rs1_val==dnorm(0x3fec7ae147ae147b) | +1-0.11
    'fs1 == 0 and fe1 == 0x3fe and fm1 == 0xc7ae147ae147b and rm_val == 2  #nosat': 1 #  rs1_val==dnorm(0x3fec7ae147ae147b) | +1-0.11
    'fs1 == 0 and fe1 == 0x3fe and fm1 == 0xc7ae147ae147b and rm_val == 1  #nosat': 1 #  rs1_val==dnorm(0x3fec7ae147ae147b) | +1-0.11
    'fs1 == 0 and fe1 == 0x3fe and fm1 == 0xc7ae147ae147b and rm_val == 0  #nosat': 1 #  rs1_val==dnorm(0x3fec7ae147ae147b) | +1-0.11
    'fs1 == 0 and fe1 == 0x3fe and fm1 == 0xccccccccccccd and rm_val == 4  #nosat': 1 #  rs1_val==dnorm(0x3feccccccccccccd) | +1-0.1
    'fs1 == 0 and fe1 == 0x3fe and fm1 == 0xccccccccccccd and rm_val == 3  #nosat': 1 #  rs1_val==dnorm(0x3feccccccccccccd) | +1-0.1
    'fs1 == 0 and fe1 == 0x3fe and fm1 == 0xccccccccccccd and rm_val == 2  #nosat': 1 #  rs1_val==dnorm(0x3feccccccccccccd) | +1-0.1
    'fs1 == 0 and fe1 == 0x3fe and fm1 == 0xccccccccccccd and rm_val == 1  #nosat': 1 #  rs1_val==dnorm(0x3feccccccccccccd) | +1-0.1
    'fs1 == 0 and fe1 == 0x3fe and fm1 == 0xccccccccccccd and rm_val == 0  #nosat': 1 #  rs1_val==dnorm(0x3feccccccccccccd) | +1-0.1
    'fs1 == 0 and fe1 == 0x3ff and fm1 == 0x028f5c28f5c29 and rm_val == 4  #nosat': 1 #  rs1_val==dnorm(0x3ff028f5c28f5c29) | +1+0.01
    'fs1 == 0 and fe1 == 0x3ff and fm1 == 0x028f5c28f5c29 and rm_val == 3  #nosat': 1 #  rs1_val==dnorm(0x3ff028f5c28f5c29) | +1+0.01
    'fs1 == 0 and fe1 == 0x3ff and fm1 == 0x028f5c28f5c29 and rm_val == 2  #nosat': 1 #  rs1_val==dnorm(0x3ff028f5c28f5c29) | +1+0.01
    'fs1 == 0 and fe1 == 0x3ff and fm1 == 0x028f5c28f5c29 and rm_val == 1  #nosat': 1 #  rs1_val==dnorm(0x3ff028f5c28f5c29) | +1+0.01
    'fs1 == 0 and fe1 == 0x3ff and fm1 == 0x028f5c28f5c29 and rm_val == 0  #nosat': 1 #  rs1_val==dnorm(0x3ff028f5c28f5c29) | +1+0.01
    'fs1 == 0 and fe1 == 0x3fe and fm1 == 0xfae147ae147ae and rm_val == 4  #nosat': 1 #  rs1_val==dnorm(0x3fefae147ae147ae) | +1-0.01
    'fs1 == 0 and fe1 == 0x3fe and fm1 == 0xfae147ae147ae and rm_val == 3  #nosat': 1 #  rs1_val==dnorm(0x3fefae147ae147ae) | +1-0.01
    'fs1 == 0 and fe1 == 0x3fe and fm1 == 0xfae147ae147ae and rm_val == 2  #nosat': 1 #  rs1_val==dnorm(0x3fefae147ae147ae) | +1-0.01
    'fs1 == 0 and fe1 == 0x3fe and fm1 == 0xfae147ae147ae and rm_val == 1  #nosat': 1 #  rs1_val==dnorm(0x3fefae147ae147ae) | +1-0.01
    'fs1 == 0 and fe1 == 0x3fe and fm1 == 0xfae147ae147ae and rm_val == 0  #nosat': 1 #  rs1_val==dnorm(0x3fefae147ae147ae) | +1-0.01
    'fs1 == 0 and fe1 == 0x3ff and fm1 == 0x199999999999a and rm_val == 4  #nosat': 1 #  rs1_val==dnorm(0x3ff199999999999a) | +1+0.1
    'fs1 == 0 and fe1 == 0x3ff and fm1 == 0x199999999999a and rm_val == 3  #nosat': 1 #  rs1_val==dnorm(0x3ff199999999999a) | +1+0.1
    'fs1 == 0 and fe1 == 0x3ff and fm1 == 0x199999999999a and rm_val == 2  #nosat': 1 #  rs1_val==dnorm(0x3ff199999999999a) | +1+0.1
    'fs1 == 0 and fe1 == 0x3ff and fm1 == 0x199999999999a and rm_val == 1  #nosat': 1 #  rs1_val==dnorm(0x3ff199999999999a) | +1+0.1
    coverage: 105/105
  total_coverage: 172/172
fcvt.s.d_b27:
  config:
  - check ISA:=regex(.*I.*F.*)
  op_comb:
    rs1 != rd: 31
    rs1 == rd: 1
    coverage: 2/2
  opcode:
    fcvt.s.d: 32
    coverage: 1/1
  rd:
    f0: 1
    f1: 1
    f10: 1
    f11: 1
    f12: 1
    f13: 1
    f14: 1
    f15: 1
    f16: 1
    f17: 1
    f18: 1
    f19: 1
    f2: 1
    f20: 1
    f21: 1
    f22: 1
    f23: 1
    f24: 1
    f25: 1
    f26: 1
    f27: 1
    f28: 1
    f29: 1
    f3: 1
    f30: 1
    f31: 1
    f4: 1
    f5: 1
    f6: 1
    f7: 1
    f8: 1
    f9: 1
    coverage: 32/32
  rs1:
    f0: 1
    f1: 1
    f10: 1
    f11: 1
    f12: 1
    f13: 1
    f14: 1
    f15: 1
    f16: 1
    f17: 1
    f18: 1
    f19: 1
    f2: 1
    f20: 1
    f21: 1
    f22: 1
    f23: 1
    f24: 1
    f25: 1
    f26: 1
    f27: 1
    f28: 1
    f29: 1
    f3: 1
    f30: 1
    f31: 1
    f4: 1
    f5: 1
    f6: 1
    f7: 1
    f8: 1
    f9: 1
    coverage: 32/32
  val_comb:
    'fs1 == 0 and fe1 == 0x7ff and fm1 == 0x0000000000001 and rm_val == 0  #nosat': 1  #  rs1_val==dsnan(0x7FF0000000000001)
    'fs1 == 1 and fe1 == 0x7ff and fm1 == 0xc000000000001 and rm_val == 0  #nosat': 1 #  rs1_val==dqnan(0xFFFC000000000001)
    'fs1 == 0 and fe1 == 0x7ff and fm1 == 0xc000000000001 and rm_val == 0  #nosat': 1 #  rs1_val==dqnan(0x7FFC000000000001)
    'fs1 == 1 and fe1 == 0x7ff and fm1 == 0x8000000000001 and rm_val == 0  #nosat': 1 #  rs1_val==dqnan(0xFFF8000000000001)
    'fs1 == 0 and fe1 == 0x7ff and fm1 == 0x8000000000001 and rm_val == 0  #nosat': 1 #  rs1_val==dqnan(0x7FF8000000000001)
    'fs1 == 1 and fe1 == 0x7ff and fm1 == 0x4aaaaaaaaaaaa and rm_val == 0  #nosat': 1 #  rs1_val==dsnan(0xFFF4AAAAAAAAAAAA)
    'fs1 == 0 and fe1 == 0x7ff and fm1 == 0x4aaaaaaaaaaaa and rm_val == 0  #nosat': 1 #  rs1_val==dsnan(0x7FF4AAAAAAAAAAAA)
    'fs1 == 1 and fe1 == 0x7ff and fm1 == 0x0000000000001 and rm_val == 0  #nosat': 1 #  rs1_val==dsnan(0xFFF0000000000001)
    coverage: 8/8
  total_coverage: 75/75
fcvt.s.d_b28:
  config:
  - check ISA:=regex(.*I.*F.*)
  op_comb:
    rs1 != rd: 31
    rs1 == rd: 1
    coverage: 2/2
  opcode:
    fcvt.s.d: 32
    coverage: 1/1
  rd:
    f0: 1
    f1: 1
    f10: 1
    f11: 1
    f12: 1
    f13: 1
    f14: 1
    f15: 1
    f16: 1
    f17: 1
    f18: 1
    f19: 1
    f2: 1
    f20: 1
    f21: 1
    f22: 1
    f23: 1
    f24: 1
    f25: 1
    f26: 1
    f27: 1
    f28: 1
    f29: 1
    f3: 1
    f30: 1
    f31: 1
    f4: 1
    f5: 1
    f6: 1
    f7: 1
    f8: 1
    f9: 1
    coverage: 32/32
  rs1:
    f0: 1
    f1: 1
    f10: 1
    f11: 1
    f12: 1
    f13: 1
    f14: 1
    f15: 1
    f16: 1
    f17: 1
    f18: 1
    f19: 1
    f2: 1
    f20: 1
    f21: 1
    f22: 1
    f23: 1
    f24: 1
    f25: 1
    f26: 1
    f27: 1
    f28: 1
    f29: 1
    f3: 1
    f30: 1
    f31: 1
    f4: 1
    f5: 1
    f6: 1
    f7: 1
    f8: 1
    f9: 1
    coverage: 32/32
  val_comb:
    'fs1 == 0 and fe1 == 0x000 and fm1 == 0x0000000000000 and rm_val == 0  #nosat': 5  #  rs1_val==dzero(0x0000000000000000) | +0
    'fs1 == 1 and fe1 == 0x7ff and fm1 == 0x0000000000000 and rm_val == 0  #nosat': 1 #  rs1_val==dinfinity(0xFFF0000000000000) | -Infinity
    'fs1 == 1 and fe1 == 0x43e and fm1 == 0x0000000000000 and rm_val == 0  #nosat': 1 #  rs1_val==dnorm(0xc3e0000000000000) | -MaxInt
    'fs1 == 1 and fe1 == 0x43d and fm1 == 0x967a4ae26514c and rm_val == 0  #nosat': 1 #  rs1_val==dnorm(0xc3d967a4ae26514c) | A random number in the range (-1.11..11*2^precision, -1)
    'fs1 == 1 and fe1 == 0x3ff and fm1 == 0x4000000000000 and rm_val == 0  #nosat': 1 #  rs1_val==dnorm(0xbff4000000000000) | Number = -1.25 => Number ∈ [-2.75,-1)
    'fs1 == 1 and fe1 == 0x3ff and fm1 == 0x8000000000000 and rm_val == 0  #nosat': 1 #  rs1_val==dnorm(0xbff8000000000000) | Number = -1.5 => Number ∈ [-2.75,-1)
    'fs1 == 1 and fe1 == 0x3ff and fm1 == 0xc000000000000 and rm_val == 0  #nosat': 1 #  rs1_val==dnorm(0xbffc000000000000) | Number = -1.75 => Number ∈ [-2.75,-1)
    'fs1 == 1 and fe1 == 0x400 and fm1 == 0x0000000000000 and rm_val == 0  #nosat': 1 #  rs1_val==dnorm(0xc000000000000000) | Number = -2.0 => Number ∈ [-2.75,-1)
    'fs1 == 1 and fe1 == 0x400 and fm1 == 0x2000000000000 and rm_val == 0  #nosat': 1 #  rs1_val==dnorm(0xc002000000000000) | Number = -2.25 => Number ∈ [-2.75,-1)
    'fs1 == 1 and fe1 == 0x400 and fm1 == 0x4000000000000 and rm_val == 0  #nosat': 1 #  rs1_val==dnorm(0xc004000000000000) | Number = -2.5 => Number ∈ [-2.75,-1)
    'fs1 == 1 and fe1 == 0x400 and fm1 == 0x6000000000000 and rm_val == 0  #nosat': 1 #  rs1_val==dnorm(0xc006000000000000) | Number = -2.75 => Number ∈ [-2.75,-1)
    'fs1 == 1 and fe1 == 0x3f8 and fm1 == 0x0000000000000 and rm_val == 0  #nosat': 1 #  rs1_val==done(0xBF80000000000000) | -1
    'fs1 == 1 and fe1 == 0x3fd and fm1 == 0xb008d57e19f88 and rm_val == 0  #nosat': 1 #  rs1_val==dnorm(0xbfdb008d57e19f88) | A random number in the range (-1, -0)
    'fs1 == 1 and fe1 == 0x000 and fm1 == 0x0000000000000 and rm_val == 0  #nosat': 1 #  rs1_val==dzero(0x8000000000000000) | -0
    'fs1 == 0 and fe1 == 0x7ff and fm1 == 0x8000000000001 and rm_val == 0  #nosat': 1 #  rs1_val==dqnan(0x7FF8000000000001) | Quiet NaN
    'fs1 == 0 and fe1 == 0x7ff and fm1 == 0x0000000000001 and rm_val == 0  #nosat': 1 #  rs1_val==dsnan(0x7FF0000000000001) | Signaling NaN
    'fs1 == 0 and fe1 == 0x7ff and fm1 == 0x0000000000000 and rm_val == 0  #nosat': 1 #  rs1_val==dinfinity(0x7FF0000000000000) | +Infinity
    'fs1 == 0 and fe1 == 0x43e and fm1 == 0x0000000000000 and rm_val == 0  #nosat': 1 #  rs1_val==dnorm(0x43e0000000000000) | MaxInt
    'fs1 == 0 and fe1 == 0x43c and fm1 == 0xb72eb13dc494a and rm_val == 0  #nosat': 1 #  rs1_val==dnorm(0x43cb72eb13dc494a) | A random number in the range (+1, +1.11..11*2^precision)
    'fs1 == 0 and fe1 == 0x400 and fm1 == 0x6000000000000 and rm_val == 0  #nosat': 1 #  rs1_val==dnorm(0x4006000000000000) | Number = 2.75 => Number ∈ (1,2.75]
    'fs1 == 0 and fe1 == 0x400 and fm1 == 0x4000000000000 and rm_val == 0  #nosat': 1 #  rs1_val==dnorm(0x4004000000000000) | Number = 2.5 => Number ∈ (1,2.75]
    'fs1 == 0 and fe1 == 0x400 and fm1 == 0x2000000000000 and rm_val == 0  #nosat': 1 #  rs1_val==dnorm(0x4002000000000000) | Number = 2.25 => Number ∈ (1,2.75]
    'fs1 == 0 and fe1 == 0x400 and fm1 == 0x0000000000000 and rm_val == 0  #nosat': 1 #  rs1_val==dnorm(0x4000000000000000) | Number = 2.0 => Number ∈ (1,2.75]
    'fs1 == 0 and fe1 == 0x3ff and fm1 == 0xc000000000000 and rm_val == 0  #nosat': 1 #  rs1_val==dnorm(0x3ffc000000000000) | Number = 1.75 => Number ∈ (1,2.75]
    'fs1 == 0 and fe1 == 0x3ff and fm1 == 0x8000000000000 and rm_val == 0  #nosat': 1 #  rs1_val==dnorm(0x3ff8000000000000) | Number = 1.5 => Number ∈ (1,2.75]
    'fs1 == 0 and fe1 == 0x3ff and fm1 == 0x4000000000000 and rm_val == 0  #nosat': 1 #  rs1_val==dnorm(0x3ff4000000000000) | Number = 1.25 => Number ∈ (1,2.75]
    'fs1 == 0 and fe1 == 0x3ff and fm1 == 0x0000000000000 and rm_val == 0  #nosat': 1 #  rs1_val==done(0x3FF0000000000000) | +1
    'fs1 == 0 and fe1 == 0x3fe and fm1 == 0x248ee18215dfa and rm_val == 0  #nosat': 1 #  rs1_val==dnorm(0x3fe248ee18215dfa) | A random number in the range (+0, +1)
    coverage: 28/28
  total_coverage: 95/95
fcvt.s.d_b29:
  config:
  - check ISA:=regex(.*I.*F.*)
  op_comb:
    rs1 != rd: 79
    rs1 == rd: 1
    coverage: 2/2
  opcode:
    fcvt.s.d: 80
    coverage: 1/1
  rd:
    f0: 1
    f1: 1
    f10: 1
    f11: 1
    f12: 1
    f13: 1
    f14: 1
    f15: 1
    f16: 1
    f17: 1
    f18: 1
    f19: 1
    f2: 1
    f20: 1
    f21: 1
    f22: 1
    f23: 1
    f24: 1
    f25: 1
    f26: 1
    f27: 1
    f28: 1
    f29: 1
    f3: 1
    f30: 1
    f31: 49
    f4: 1
    f5: 1
    f6: 1
    f7: 1
    f8: 1
    f9: 1
    coverage: 32/32
  rs1:
    f0: 1
    f1: 1
    f10: 1
    f11: 1
    f12: 1
    f13: 1
    f14: 1
    f15: 1
    f16: 1
    f17: 1
    f18: 1
    f19: 1
    f2: 1
    f20: 1
    f21: 1
    f22: 1
    f23: 1
    f24: 1
    f25: 1
    f26: 1
    f27: 1
    f28: 1
    f29: 1
    f3: 1
    f30: 49
    f31: 1
    f4: 1
    f5: 1
    f6: 1
    f7: 1
    f8: 1
    f9: 1
    coverage: 32/32
  val_comb:
    'fs1 == 0 and fe1 == 0x3fc and fm1 == 0x08574923b8698 and rm_val == 0  #nosat': 1  #  rs1_val==dnorm(0x3fc08574923b8698) | Exp = -3; Sign = 0; LSB = 0; Guard = 0; Sticky = 0
    'fs1 == 1 and fe1 == 0x3fc and fm1 == 0x08574923b869f and rm_val == 4  #nosat': 1 #  rs1_val==dnorm(0xbfc08574923b869f) | Exp = -3; Sign = 1; LSB = 1; Guard = 1; Sticky = 1
    'fs1 == 1 and fe1 == 0x3fc and fm1 == 0x08574923b869f and rm_val == 3  #nosat': 1 #  rs1_val==dnorm(0xbfc08574923b869f) | Exp = -3; Sign = 1; LSB = 1; Guard = 1; Sticky = 1
    'fs1 == 1 and fe1 == 0x3fc and fm1 == 0x08574923b869f and rm_val == 2  #nosat': 1 #  rs1_val==dnorm(0xbfc08574923b869f) | Exp = -3; Sign = 1; LSB = 1; Guard = 1; Sticky = 1
    'fs1 == 1 and fe1 == 0x3fc and fm1 == 0x08574923b869f and rm_val == 1  #nosat': 1 #  rs1_val==dnorm(0xbfc08574923b869f) | Exp = -3; Sign = 1; LSB = 1; Guard = 1; Sticky = 1
    'fs1 == 1 and fe1 == 0x3fc and fm1 == 0x08574923b869f and rm_val == 0  #nosat': 1 #  rs1_val==dnorm(0xbfc08574923b869f) | Exp = -3; Sign = 1; LSB = 1; Guard = 1; Sticky = 1
    'fs1 == 1 and fe1 == 0x3fc and fm1 == 0x08574923b869e and rm_val == 4  #nosat': 1 #  rs1_val==dnorm(0xbfc08574923b869e) | Exp = -3; Sign = 1; LSB = 1; Guard = 1; Sticky = 0
    'fs1 == 1 and fe1 == 0x3fc and fm1 == 0x08574923b869e and rm_val == 3  #nosat': 1 #  rs1_val==dnorm(0xbfc08574923b869e) | Exp = -3; Sign = 1; LSB = 1; Guard = 1; Sticky = 0
    'fs1 == 1 and fe1 == 0x3fc and fm1 == 0x08574923b869e and rm_val == 2  #nosat': 1 #  rs1_val==dnorm(0xbfc08574923b869e) | Exp = -3; Sign = 1; LSB = 1; Guard = 1; Sticky = 0
    'fs1 == 1 and fe1 == 0x3fc and fm1 == 0x08574923b869e and rm_val == 1  #nosat': 1 #  rs1_val==dnorm(0xbfc08574923b869e) | Exp = -3; Sign = 1; LSB = 1; Guard = 1; Sticky = 0
    'fs1 == 1 and fe1 == 0x3fc and fm1 == 0x08574923b869e and rm_val == 0  #nosat': 1 #  rs1_val==dnorm(0xbfc08574923b869e) | Exp = -3; Sign = 1; LSB = 1; Guard = 1; Sticky = 0
    'fs1 == 1 and fe1 == 0x3fc and fm1 == 0x08574923b869d and rm_val == 4  #nosat': 1 #  rs1_val==dnorm(0xbfc08574923b869d) | Exp = -3; Sign = 1; LSB = 1; Guard = 0; Sticky = 1
    'fs1 == 1 and fe1 == 0x3fc and fm1 == 0x08574923b869d and rm_val == 3  #nosat': 1 #  rs1_val==dnorm(0xbfc08574923b869d) | Exp = -3; Sign = 1; LSB = 1; Guard = 0; Sticky = 1
    'fs1 == 1 and fe1 == 0x3fc and fm1 == 0x08574923b869d and rm_val == 2  #nosat': 1 #  rs1_val==dnorm(0xbfc08574923b869d) | Exp = -3; Sign = 1; LSB = 1; Guard = 0; Sticky = 1
    'fs1 == 1 and fe1 == 0x3fc and fm1 == 0x08574923b869d and rm_val == 1  #nosat': 1 #  rs1_val==dnorm(0xbfc08574923b869d) | Exp = -3; Sign = 1; LSB = 1; Guard = 0; Sticky = 1
    'fs1 == 1 and fe1 == 0x3fc and fm1 == 0x08574923b869d and rm_val == 0  #nosat': 1 #  rs1_val==dnorm(0xbfc08574923b869d) | Exp = -3; Sign = 1; LSB = 1; Guard = 0; Sticky = 1
    'fs1 == 1 and fe1 == 0x3fc and fm1 == 0x08574923b869c and rm_val == 4  #nosat': 1 #  rs1_val==dnorm(0xbfc08574923b869c) | Exp = -3; Sign = 1; LSB = 1; Guard = 0; Sticky = 0
    'fs1 == 1 and fe1 == 0x3fc and fm1 == 0x08574923b869c and rm_val == 3  #nosat': 1 #  rs1_val==dnorm(0xbfc08574923b869c) | Exp = -3; Sign = 1; LSB = 1; Guard = 0; Sticky = 0
    'fs1 == 1 and fe1 == 0x3fc and fm1 == 0x08574923b869c and rm_val == 2  #nosat': 1 #  rs1_val==dnorm(0xbfc08574923b869c) | Exp = -3; Sign = 1; LSB = 1; Guard = 0; Sticky = 0
    'fs1 == 1 and fe1 == 0x3fc and fm1 == 0x08574923b869c and rm_val == 1  #nosat': 1 #  rs1_val==dnorm(0xbfc08574923b869c) | Exp = -3; Sign = 1; LSB = 1; Guard = 0; Sticky = 0
    'fs1 == 1 and fe1 == 0x3fc and fm1 == 0x08574923b869c and rm_val == 0  #nosat': 1 #  rs1_val==dnorm(0xbfc08574923b869c) | Exp = -3; Sign = 1; LSB = 1; Guard = 0; Sticky = 0
    'fs1 == 1 and fe1 == 0x3fc and fm1 == 0x08574923b869b and rm_val == 4  #nosat': 1 #  rs1_val==dnorm(0xbfc08574923b869b) | Exp = -3; Sign = 1; LSB = 0; Guard = 1; Sticky = 1
    'fs1 == 1 and fe1 == 0x3fc and fm1 == 0x08574923b869b and rm_val == 3  #nosat': 1 #  rs1_val==dnorm(0xbfc08574923b869b) | Exp = -3; Sign = 1; LSB = 0; Guard = 1; Sticky = 1
    'fs1 == 1 and fe1 == 0x3fc and fm1 == 0x08574923b869b and rm_val == 2  #nosat': 1 #  rs1_val==dnorm(0xbfc08574923b869b) | Exp = -3; Sign = 1; LSB = 0; Guard = 1; Sticky = 1
    'fs1 == 1 and fe1 == 0x3fc and fm1 == 0x08574923b869b and rm_val == 1  #nosat': 1 #  rs1_val==dnorm(0xbfc08574923b869b) | Exp = -3; Sign = 1; LSB = 0; Guard = 1; Sticky = 1
    'fs1 == 1 and fe1 == 0x3fc and fm1 == 0x08574923b869b and rm_val == 0  #nosat': 1 #  rs1_val==dnorm(0xbfc08574923b869b) | Exp = -3; Sign = 1; LSB = 0; Guard = 1; Sticky = 1
    'fs1 == 1 and fe1 == 0x3fc and fm1 == 0x08574923b869a and rm_val == 4  #nosat': 1 #  rs1_val==dnorm(0xbfc08574923b869a) | Exp = -3; Sign = 1; LSB = 0; Guard = 1; Sticky = 0
    'fs1 == 1 and fe1 == 0x3fc and fm1 == 0x08574923b869a and rm_val == 3  #nosat': 1 #  rs1_val==dnorm(0xbfc08574923b869a) | Exp = -3; Sign = 1; LSB = 0; Guard = 1; Sticky = 0
    'fs1 == 1 and fe1 == 0x3fc and fm1 == 0x08574923b869a and rm_val == 2  #nosat': 1 #  rs1_val==dnorm(0xbfc08574923b869a) | Exp = -3; Sign = 1; LSB = 0; Guard = 1; Sticky = 0
    'fs1 == 1 and fe1 == 0x3fc and fm1 == 0x08574923b869a and rm_val == 1  #nosat': 1 #  rs1_val==dnorm(0xbfc08574923b869a) | Exp = -3; Sign = 1; LSB = 0; Guard = 1; Sticky = 0
    'fs1 == 1 and fe1 == 0x3fc and fm1 == 0x08574923b869a and rm_val == 0  #nosat': 1 #  rs1_val==dnorm(0xbfc08574923b869a) | Exp = -3; Sign = 1; LSB = 0; Guard = 1; Sticky = 0
    'fs1 == 1 and fe1 == 0x3fc and fm1 == 0x08574923b8699 and rm_val == 4  #nosat': 1 #  rs1_val==dnorm(0xbfc08574923b8699) | Exp = -3; Sign = 1; LSB = 0; Guard = 0; Sticky = 1
    'fs1 == 1 and fe1 == 0x3fc and fm1 == 0x08574923b8699 and rm_val == 3  #nosat': 1 #  rs1_val==dnorm(0xbfc08574923b8699) | Exp = -3; Sign = 1; LSB = 0; Guard = 0; Sticky = 1
    'fs1 == 1 and fe1 == 0x3fc and fm1 == 0x08574923b8699 and rm_val == 2  #nosat': 1 #  rs1_val==dnorm(0xbfc08574923b8699) | Exp = -3; Sign = 1; LSB = 0; Guard = 0; Sticky = 1
    'fs1 == 1 and fe1 == 0x3fc and fm1 == 0x08574923b8699 and rm_val == 1  #nosat': 1 #  rs1_val==dnorm(0xbfc08574923b8699) | Exp = -3; Sign = 1; LSB = 0; Guard = 0; Sticky = 1
    'fs1 == 1 and fe1 == 0x3fc and fm1 == 0x08574923b8699 and rm_val == 0  #nosat': 1 #  rs1_val==dnorm(0xbfc08574923b8699) | Exp = -3; Sign = 1; LSB = 0; Guard = 0; Sticky = 1
    'fs1 == 1 and fe1 == 0x3fc and fm1 == 0x08574923b8698 and rm_val == 4  #nosat': 1 #  rs1_val==dnorm(0xbfc08574923b8698) | Exp = -3; Sign = 1; LSB = 0; Guard = 0; Sticky = 0
    'fs1 == 1 and fe1 == 0x3fc and fm1 == 0x08574923b8698 and rm_val == 3  #nosat': 1 #  rs1_val==dnorm(0xbfc08574923b8698) | Exp = -3; Sign = 1; LSB = 0; Guard = 0; Sticky = 0
    'fs1 == 1 and fe1 == 0x3fc and fm1 == 0x08574923b8698 and rm_val == 2  #nosat': 1 #  rs1_val==dnorm(0xbfc08574923b8698) | Exp = -3; Sign = 1; LSB = 0; Guard = 0; Sticky = 0
    'fs1 == 1 and fe1 == 0x3fc and fm1 == 0x08574923b8698 and rm_val == 1  #nosat': 1 #  rs1_val==dnorm(0xbfc08574923b8698) | Exp = -3; Sign = 1; LSB = 0; Guard = 0; Sticky = 0
    'fs1 == 1 and fe1 == 0x3fc and fm1 == 0x08574923b8698 and rm_val == 0  #nosat': 1 #  rs1_val==dnorm(0xbfc08574923b8698) | Exp = -3; Sign = 1; LSB = 0; Guard = 0; Sticky = 0
    'fs1 == 0 and fe1 == 0x3fc and fm1 == 0x08574923b869f and rm_val == 4  #nosat': 1 #  rs1_val==dnorm(0x3fc08574923b869f) | Exp = -3; Sign = 0; LSB = 1; Guard = 1; Sticky = 1
    'fs1 == 0 and fe1 == 0x3fc and fm1 == 0x08574923b869f and rm_val == 3  #nosat': 1 #  rs1_val==dnorm(0x3fc08574923b869f) | Exp = -3; Sign = 0; LSB = 1; Guard = 1; Sticky = 1
    'fs1 == 0 and fe1 == 0x3fc and fm1 == 0x08574923b869f and rm_val == 2  #nosat': 1 #  rs1_val==dnorm(0x3fc08574923b869f) | Exp = -3; Sign = 0; LSB = 1; Guard = 1; Sticky = 1
    'fs1 == 0 and fe1 == 0x3fc and fm1 == 0x08574923b869f and rm_val == 1  #nosat': 1 #  rs1_val==dnorm(0x3fc08574923b869f) | Exp = -3; Sign = 0; LSB = 1; Guard = 1; Sticky = 1
    'fs1 == 0 and fe1 == 0x3fc and fm1 == 0x08574923b869f and rm_val == 0  #nosat': 1 #  rs1_val==dnorm(0x3fc08574923b869f) | Exp = -3; Sign = 0; LSB = 1; Guard = 1; Sticky = 1
    'fs1 == 0 and fe1 == 0x3fc and fm1 == 0x08574923b869e and rm_val == 4  #nosat': 1 #  rs1_val==dnorm(0x3fc08574923b869e) | Exp = -3; Sign = 0; LSB = 1; Guard = 1; Sticky = 0
    'fs1 == 0 and fe1 == 0x3fc and fm1 == 0x08574923b869e and rm_val == 3  #nosat': 1 #  rs1_val==dnorm(0x3fc08574923b869e) | Exp = -3; Sign = 0; LSB = 1; Guard = 1; Sticky = 0
    'fs1 == 0 and fe1 == 0x3fc and fm1 == 0x08574923b869e and rm_val == 2  #nosat': 1 #  rs1_val==dnorm(0x3fc08574923b869e) | Exp = -3; Sign = 0; LSB = 1; Guard = 1; Sticky = 0
    'fs1 == 0 and fe1 == 0x3fc and fm1 == 0x08574923b869e and rm_val == 1  #nosat': 1 #  rs1_val==dnorm(0x3fc08574923b869e) | Exp = -3; Sign = 0; LSB = 1; Guard = 1; Sticky = 0
    'fs1 == 0 and fe1 == 0x3fc and fm1 == 0x08574923b869e and rm_val == 0  #nosat': 1 #  rs1_val==dnorm(0x3fc08574923b869e) | Exp = -3; Sign = 0; LSB = 1; Guard = 1; Sticky = 0
    'fs1 == 0 and fe1 == 0x3fc and fm1 == 0x08574923b869d and rm_val == 4  #nosat': 1 #  rs1_val==dnorm(0x3fc08574923b869d) | Exp = -3; Sign = 0; LSB = 1; Guard = 0; Sticky = 1
    'fs1 == 0 and fe1 == 0x3fc and fm1 == 0x08574923b869d and rm_val == 3  #nosat': 1 #  rs1_val==dnorm(0x3fc08574923b869d) | Exp = -3; Sign = 0; LSB = 1; Guard = 0; Sticky = 1
    'fs1 == 0 and fe1 == 0x3fc and fm1 == 0x08574923b869d and rm_val == 2  #nosat': 1 #  rs1_val==dnorm(0x3fc08574923b869d) | Exp = -3; Sign = 0; LSB = 1; Guard = 0; Sticky = 1
    'fs1 == 0 and fe1 == 0x3fc and fm1 == 0x08574923b869d and rm_val == 1  #nosat': 1 #  rs1_val==dnorm(0x3fc08574923b869d) | Exp = -3; Sign = 0; LSB = 1; Guard = 0; Sticky = 1
    'fs1 == 0 and fe1 == 0x3fc and fm1 == 0x08574923b869d and rm_val == 0  #nosat': 1 #  rs1_val==dnorm(0x3fc08574923b869d) | Exp = -3; Sign = 0; LSB = 1; Guard = 0; Sticky = 1
    'fs1 == 0 and fe1 == 0x3fc and fm1 == 0x08574923b869c and rm_val == 4  #nosat': 1 #  rs1_val==dnorm(0x3fc08574923b869c) | Exp = -3; Sign = 0; LSB = 1; Guard = 0; Sticky = 0
    'fs1 == 0 and fe1 == 0x3fc and fm1 == 0x08574923b869c and rm_val == 3  #nosat': 1 #  rs1_val==dnorm(0x3fc08574923b869c) | Exp = -3; Sign = 0; LSB = 1; Guard = 0; Sticky = 0
    'fs1 == 0 and fe1 == 0x3fc and fm1 == 0x08574923b869c and rm_val == 2  #nosat': 1 #  rs1_val==dnorm(0x3fc08574923b869c) | Exp = -3; Sign = 0; LSB = 1; Guard = 0; Sticky = 0
    'fs1 == 0 and fe1 == 0x3fc and fm1 == 0x08574923b869c and rm_val == 1  #nosat': 1 #  rs1_val==dnorm(0x3fc08574923b869c) | Exp = -3; Sign = 0; LSB = 1; Guard = 0; Sticky = 0
    'fs1 == 0 and fe1 == 0x3fc and fm1 == 0x08574923b869c and rm_val == 0  #nosat': 1 #  rs1_val==dnorm(0x3fc08574923b869c) | Exp = -3; Sign = 0; LSB = 1; Guard = 0; Sticky = 0
    'fs1 == 0 and fe1 == 0x3fc and fm1 == 0x08574923b869b and rm_val == 4  #nosat': 1 #  rs1_val==dnorm(0x3fc08574923b869b) | Exp = -3; Sign = 0; LSB = 0; Guard = 1; Sticky = 1
    'fs1 == 0 and fe1 == 0x3fc and fm1 == 0x08574923b869b and rm_val == 3  #nosat': 1 #  rs1_val==dnorm(0x3fc08574923b869b) | Exp = -3; Sign = 0; LSB = 0; Guard = 1; Sticky = 1
    'fs1 == 0 and fe1 == 0x3fc and fm1 == 0x08574923b869b and rm_val == 2  #nosat': 1 #  rs1_val==dnorm(0x3fc08574923b869b) | Exp = -3; Sign = 0; LSB = 0; Guard = 1; Sticky = 1
    'fs1 == 0 and fe1 == 0x3fc and fm1 == 0x08574923b869b and rm_val == 1  #nosat': 1 #  rs1_val==dnorm(0x3fc08574923b869b) | Exp = -3; Sign = 0; LSB = 0; Guard = 1; Sticky = 1
    'fs1 == 0 and fe1 == 0x3fc and fm1 == 0x08574923b869b and rm_val == 0  #nosat': 1 #  rs1_val==dnorm(0x3fc08574923b869b) | Exp = -3; Sign = 0; LSB = 0; Guard = 1; Sticky = 1
    'fs1 == 0 and fe1 == 0x3fc and fm1 == 0x08574923b869a and rm_val == 4  #nosat': 1 #  rs1_val==dnorm(0x3fc08574923b869a) | Exp = -3; Sign = 0; LSB = 0; Guard = 1; Sticky = 0
    'fs1 == 0 and fe1 == 0x3fc and fm1 == 0x08574923b869a and rm_val == 3  #nosat': 1 #  rs1_val==dnorm(0x3fc08574923b869a) | Exp = -3; Sign = 0; LSB = 0; Guard = 1; Sticky = 0
    'fs1 == 0 and fe1 == 0x3fc and fm1 == 0x08574923b869a and rm_val == 2  #nosat': 1 #  rs1_val==dnorm(0x3fc08574923b869a) | Exp = -3; Sign = 0; LSB = 0; Guard = 1; Sticky = 0
    'fs1 == 0 and fe1 == 0x3fc and fm1 == 0x08574923b869a and rm_val == 1  #nosat': 1 #  rs1_val==dnorm(0x3fc08574923b869a) | Exp = -3; Sign = 0; LSB = 0; Guard = 1; Sticky = 0
    'fs1 == 0 and fe1 == 0x3fc and fm1 == 0x08574923b869a and rm_val == 0  #nosat': 1 #  rs1_val==dnorm(0x3fc08574923b869a) | Exp = -3; Sign = 0; LSB = 0; Guard = 1; Sticky = 0
    'fs1 == 0 and fe1 == 0x3fc and fm1 == 0x08574923b8699 and rm_val == 4  #nosat': 1 #  rs1_val==dnorm(0x3fc08574923b8699) | Exp = -3; Sign = 0; LSB = 0; Guard = 0; Sticky = 1
    'fs1 == 0 and fe1 == 0x3fc and fm1 == 0x08574923b8699 and rm_val == 3  #nosat': 1 #  rs1_val==dnorm(0x3fc08574923b8699) | Exp = -3; Sign = 0; LSB = 0; Guard = 0; Sticky = 1
    'fs1 == 0 and fe1 == 0x3fc and fm1 == 0x08574923b8699 and rm_val == 2  #nosat': 1 #  rs1_val==dnorm(0x3fc08574923b8699) | Exp = -3; Sign = 0; LSB = 0; Guard = 0; Sticky = 1
    'fs1 == 0 and fe1 == 0x3fc and fm1 == 0x08574923b8699 and rm_val == 1  #nosat': 1 #  rs1_val==dnorm(0x3fc08574923b8699) | Exp = -3; Sign = 0; LSB = 0; Guard = 0; Sticky = 1
    'fs1 == 0 and fe1 == 0x3fc and fm1 == 0x08574923b8699 and rm_val == 0  #nosat': 1 #  rs1_val==dnorm(0x3fc08574923b8699) | Exp = -3; Sign = 0; LSB = 0; Guard = 0; Sticky = 1
    'fs1 == 0 and fe1 == 0x3fc and fm1 == 0x08574923b8698 and rm_val == 4  #nosat': 1 #  rs1_val==dnorm(0x3fc08574923b8698) | Exp = -3; Sign = 0; LSB = 0; Guard = 0; Sticky = 0
    'fs1 == 0 and fe1 == 0x3fc and fm1 == 0x08574923b8698 and rm_val == 3  #nosat': 1 #  rs1_val==dnorm(0x3fc08574923b8698) | Exp = -3; Sign = 0; LSB = 0; Guard = 0; Sticky = 0
    'fs1 == 0 and fe1 == 0x3fc and fm1 == 0x08574923b8698 and rm_val == 2  #nosat': 1 #  rs1_val==dnorm(0x3fc08574923b8698) | Exp = -3; Sign = 0; LSB = 0; Guard = 0; Sticky = 0
    'fs1 == 0 and fe1 == 0x3fc and fm1 == 0x08574923b8698 and rm_val == 1  #nosat': 1 #  rs1_val==dnorm(0x3fc08574923b8698) | Exp = -3; Sign = 0; LSB = 0; Guard = 0; Sticky = 0
    coverage: 80/80
  total_coverage: 147/147
