---
fcvt.d.s_b23:
  config:
  - check ISA:=regex(.*I.*F.*)
  op_comb:
    rs1 != rd: 31
    rs1 == rd: 1
    coverage: 2/2
  opcode:
    fcvt.d.s: 32
    coverage: 1/1
  rd:
    f0: 1
    f1: 1
    f10: 1
    f11: 1
    f12: 1
    f13: 1
    f14: 1
    f15: 1
    f16: 1
    f17: 1
    f18: 1
    f19: 1
    f2: 1
    f20: 1
    f21: 1
    f22: 1
    f23: 1
    f24: 1
    f25: 1
    f26: 1
    f27: 1
    f28: 1
    f29: 1
    f3: 1
    f30: 1
    f31: 1
    f4: 1
    f5: 1
    f6: 1
    f7: 1
    f8: 1
    f9: 1
    coverage: 32/32
  rs1:
    f0: 1
    f1: 1
    f10: 1
    f11: 1
    f12: 1
    f13: 1
    f14: 1
    f15: 1
    f16: 1
    f17: 1
    f18: 1
    f19: 1
    f2: 1
    f20: 1
    f21: 1
    f22: 1
    f23: 1
    f24: 1
    f25: 1
    f26: 1
    f27: 1
    f28: 1
    f29: 1
    f3: 1
    f30: 1
    f31: 1
    f4: 1
    f5: 1
    f6: 1
    f7: 1
    f8: 1
    f9: 1
    coverage: 32/32
  val_comb:
    'fs1 == 0 and fe1 == 0x43d and fm1 == 0xffffffffffffc and rm_val == 0  #nosat': 1  #  rs1_val==dnorm(0x43dffffffffffffc) | MaxInt + (-4)
    'fs1 == 0 and fe1 == 0x43e and fm1 == 0x0000000000004 and rm_val == 0  #nosat': 1 #  rs1_val==dnorm(0x43e0000000000004) | MaxInt + (4)
    'fs1 == 0 and fe1 == 0x43e and fm1 == 0x0000000000003 and rm_val == 0  #nosat': 1 #  rs1_val==dnorm(0x43e0000000000003) | MaxInt + (3)
    'fs1 == 0 and fe1 == 0x43e and fm1 == 0x0000000000002 and rm_val == 0  #nosat': 1 #  rs1_val==dnorm(0x43e0000000000002) | MaxInt + (2)
    'fs1 == 0 and fe1 == 0x43e and fm1 == 0x0000000000001 and rm_val == 0  #nosat': 1 #  rs1_val==dnorm(0x43e0000000000001) | MaxInt + (1)
    'fs1 == 0 and fe1 == 0x43e and fm1 == 0x0000000000000 and rm_val == 0  #nosat': 1 #  rs1_val==dnorm(0x43e0000000000000) | MaxInt + (0)
    'fs1 == 0 and fe1 == 0x43d and fm1 == 0xfffffffffffff and rm_val == 0  #nosat': 1 #  rs1_val==dnorm(0x43dfffffffffffff) | MaxInt + (-1)
    'fs1 == 0 and fe1 == 0x43d and fm1 == 0xffffffffffffe and rm_val == 0  #nosat': 1 #  rs1_val==dnorm(0x43dffffffffffffe) | MaxInt + (-2)
    'fs1 == 0 and fe1 == 0x43d and fm1 == 0xffffffffffffd and rm_val == 0  #nosat': 1 #  rs1_val==dnorm(0x43dffffffffffffd) | MaxInt + (-3)
    coverage: 9/9
  total_coverage: 76/76
