---
fnmadd_b6:
  config:
  - check ISA:=regex(.*I.*F.*)
  op_comb:
    rd == rs2 == rs3 != rs1: 1
    rs1 != rs2 and rs1 != rd and rs1 != rs3 and rs2 != rs3 and rs2 != rd and rs3 != rd: 138
    rs1 == rd != rs2 and rs1 == rd != rs3 and rs3 != rs2: 1
    rs1 == rd == rs3 != rs2: 1
    rs1 == rs2 != rs3 and rs1 == rs2 != rd and rd != rs3: 1
    rs1 == rs2 == rd != rs3: 1
    rs1 == rs2 == rs3 != rd: 1
    rs1 == rs2 == rs3 == rd: 1
    rs1 == rs3 != rs2 and rs1 == rs3 != rd and rd != rs2: 1
    rs2 == rd != rs1 and rs2 == rd != rs3 and rs3 != rs1: 1
    rs2 == rs3 != rs1 and rs2 == rs3 != rd and rd != rs1: 1
    rs3 == rd != rs1 and rs3 == rd != rs2 and rs2 != rs1: 1
    coverage: 12/12
  opcode:
    fnmadd.s: 149
    coverage: 1/1
  rd:
    f0: 1
    f1: 1
    f10: 1
    f11: 1
    f12: 1
    f13: 1
    f14: 1
    f15: 1
    f16: 1
    f17: 1
    f18: 1
    f19: 1
    f2: 1
    f20: 1
    f21: 1
    f22: 1
    f23: 1
    f24: 1
    f25: 1
    f26: 1
    f27: 1
    f28: 1
    f29: 1
    f3: 1
    f30: 1
    f31: 118
    f4: 1
    f5: 1
    f6: 1
    f7: 1
    f8: 1
    f9: 1
    coverage: 32/32
  rs1:
    f0: 1
    f1: 1
    f10: 1
    f11: 1
    f12: 1
    f13: 1
    f14: 1
    f15: 1
    f16: 1
    f17: 1
    f18: 1
    f19: 1
    f2: 1
    f20: 1
    f21: 1
    f22: 1
    f23: 1
    f24: 1
    f25: 1
    f26: 1
    f27: 1
    f28: 1
    f29: 1
    f3: 1
    f30: 118
    f31: 1
    f4: 1
    f5: 1
    f6: 1
    f7: 1
    f8: 1
    f9: 1
    coverage: 32/32
  rs2:
    f0: 1
    f1: 1
    f10: 1
    f11: 1
    f12: 1
    f13: 1
    f14: 1
    f15: 1
    f16: 1
    f17: 1
    f18: 1
    f19: 1
    f2: 1
    f20: 1
    f21: 1
    f22: 1
    f23: 1
    f24: 1
    f25: 1
    f26: 1
    f27: 1
    f28: 1
    f29: 118
    f3: 1
    f30: 1
    f31: 1
    f4: 1
    f5: 1
    f6: 1
    f7: 1
    f8: 1
    f9: 1
    coverage: 32/32
  rs3:
    f0: 1
    f1: 1
    f10: 1
    f11: 1
    f12: 1
    f13: 1
    f14: 1
    f15: 1
    f16: 1
    f17: 1
    f18: 1
    f19: 1
    f2: 1
    f20: 1
    f21: 1
    f22: 1
    f23: 1
    f24: 1
    f25: 1
    f26: 1
    f27: 1
    f28: 118
    f29: 1
    f3: 1
    f30: 1
    f31: 1
    f4: 1
    f5: 1
    f6: 1
    f7: 1
    f8: 1
    f9: 1
    coverage: 32/32
  val_comb:
    ? 'fs1 == 0 and fe1 == 0x1a and fm1 == 0x4b0ecf and fs2 == 0 and fe2 == 0x7b and
      fm2 == 0x567a4f and fs3 == 0 and fe3 == 0x17 and fm3 == 0x2a1f65 and rm_val
      == 0  #nosat'
    : 1  #  rs1_val==fnorm(0x0d4b0ecf) and rs2_val==fnorm(0x3dd67a4f) and rs3_val==fnorm(0x0baa1f65) | Guard = 0 Round = 0 Sticky = 1 --> IR ∈ (-MinSubNorm, -MinSubNorm / 2)
    ? 'fs1 == 0 and fe1 == 0x1b and fm1 == 0x12cb99 and fs2 == 0 and fe2 == 0x7e and
      fm2 == 0x210a09 and fs3 == 0 and fe3 == 0x1a and fm3 == 0x38af9a and rm_val
      == 4  #nosat'
    : 1 #  rs1_val==fnorm(0x0d92cb99) and rs2_val==fnorm(0x3f210a09) and rs3_val==fnorm(0x0d38af9a) | Guard = 1 Round = 1 Sticky = 1 --> IR ∈ (+MinSubNorm / 2, +MinSubNorm)
    ? 'fs1 == 0 and fe1 == 0x1b and fm1 == 0x12cb99 and fs2 == 0 and fe2 == 0x7e and
      fm2 == 0x210a09 and fs3 == 0 and fe3 == 0x1a and fm3 == 0x38af9a and rm_val
      == 3  #nosat'
    : 1 #  rs1_val==fnorm(0x0d92cb99) and rs2_val==fnorm(0x3f210a09) and rs3_val==fnorm(0x0d38af9a) | Guard = 1 Round = 1 Sticky = 1 --> IR ∈ (+MinSubNorm / 2, +MinSubNorm)
    ? 'fs1 == 0 and fe1 == 0x1b and fm1 == 0x12cb99 and fs2 == 0 and fe2 == 0x7e and
      fm2 == 0x210a09 and fs3 == 0 and fe3 == 0x1a and fm3 == 0x38af9a and rm_val
      == 2  #nosat'
    : 1 #  rs1_val==fnorm(0x0d92cb99) and rs2_val==fnorm(0x3f210a09) and rs3_val==fnorm(0x0d38af9a) | Guard = 1 Round = 1 Sticky = 1 --> IR ∈ (+MinSubNorm / 2, +MinSubNorm)
    ? 'fs1 == 0 and fe1 == 0x1b and fm1 == 0x12cb99 and fs2 == 0 and fe2 == 0x7e and
      fm2 == 0x210a09 and fs3 == 0 and fe3 == 0x1a and fm3 == 0x38af9a and rm_val
      == 1  #nosat'
    : 1 #  rs1_val==fnorm(0x0d92cb99) and rs2_val==fnorm(0x3f210a09) and rs3_val==fnorm(0x0d38af9a) | Guard = 1 Round = 1 Sticky = 1 --> IR ∈ (+MinSubNorm / 2, +MinSubNorm)
    ? 'fs1 == 0 and fe1 == 0x1b and fm1 == 0x12cb99 and fs2 == 0 and fe2 == 0x7e and
      fm2 == 0x210a09 and fs3 == 0 and fe3 == 0x1a and fm3 == 0x38af9a and rm_val
      == 0  #nosat'
    : 1 #  rs1_val==fnorm(0x0d92cb99) and rs2_val==fnorm(0x3f210a09) and rs3_val==fnorm(0x0d38af9a) | Guard = 1 Round = 1 Sticky = 1 --> IR ∈ (+MinSubNorm / 2, +MinSubNorm)
    ? 'fs1 == 0 and fe1 == 0x1b and fm1 == 0x0ba57c and fs2 == 0 and fe2 == 0x7f and
      fm2 == 0x0f7788 and fs3 == 0 and fe3 == 0x1b and fm3 == 0x1c8548 and rm_val
      == 4  #nosat'
    : 1 #  rs1_val==fnorm(0x0d8ba57c) and rs2_val==fnorm(0x3f8f7788) and rs3_val==fnorm(0x0d9c8548) | Guard = 1 Round = 1 Sticky = 0 --> IR ∈ (+MinSubNorm / 2, +MinSubNorm)
    ? 'fs1 == 0 and fe1 == 0x1b and fm1 == 0x0ba57c and fs2 == 0 and fe2 == 0x7f and
      fm2 == 0x0f7788 and fs3 == 0 and fe3 == 0x1b and fm3 == 0x1c8548 and rm_val
      == 3  #nosat'
    : 2 #  rs1_val==fnorm(0x0d8ba57c) and rs2_val==fnorm(0x3f8f7788) and rs3_val==fnorm(0x0d9c8548) | Guard = 1 Round = 1 Sticky = 0 --> IR ∈ (+MinSubNorm / 2, +MinSubNorm)
    ? 'fs1 == 0 and fe1 == 0x1b and fm1 == 0x0ba57c and fs2 == 0 and fe2 == 0x7f and
      fm2 == 0x0f7788 and fs3 == 0 and fe3 == 0x1b and fm3 == 0x1c8548 and rm_val
      == 2  #nosat'
    : 1 #  rs1_val==fnorm(0x0d8ba57c) and rs2_val==fnorm(0x3f8f7788) and rs3_val==fnorm(0x0d9c8548) | Guard = 1 Round = 1 Sticky = 0 --> IR ∈ (+MinSubNorm / 2, +MinSubNorm)
    ? 'fs1 == 0 and fe1 == 0x1b and fm1 == 0x0ba57c and fs2 == 0 and fe2 == 0x7f and
      fm2 == 0x0f7788 and fs3 == 0 and fe3 == 0x1b and fm3 == 0x1c8548 and rm_val
      == 1  #nosat'
    : 1 #  rs1_val==fnorm(0x0d8ba57c) and rs2_val==fnorm(0x3f8f7788) and rs3_val==fnorm(0x0d9c8548) | Guard = 1 Round = 1 Sticky = 0 --> IR ∈ (+MinSubNorm / 2, +MinSubNorm)
    ? 'fs1 == 0 and fe1 == 0x1b and fm1 == 0x0ba57c and fs2 == 0 and fe2 == 0x7f and
      fm2 == 0x0f7788 and fs3 == 0 and fe3 == 0x1b and fm3 == 0x1c8548 and rm_val
      == 0  #nosat'
    : 1 #  rs1_val==fnorm(0x0d8ba57c) and rs2_val==fnorm(0x3f8f7788) and rs3_val==fnorm(0x0d9c8548) | Guard = 1 Round = 1 Sticky = 0 --> IR ∈ (+MinSubNorm / 2, +MinSubNorm)
    ? 'fs1 == 0 and fe1 == 0x1a and fm1 == 0x59d739 and fs2 == 0 and fe2 == 0x7c and
      fm2 == 0x78cd3d and fs3 == 0 and fe3 == 0x18 and fm3 == 0x53b725 and rm_val
      == 4  #nosat'
    : 1 #  rs1_val==fnorm(0x0d59d739) and rs2_val==fnorm(0x3e78cd3d) and rs3_val==fnorm(0x0c53b725) | Guard = 1 Round = 0 Sticky = 1 --> IR ∈ (+MinSubNorm / 2, +MinSubNorm)
    ? 'fs1 == 0 and fe1 == 0x1a and fm1 == 0x59d739 and fs2 == 0 and fe2 == 0x7c and
      fm2 == 0x78cd3d and fs3 == 0 and fe3 == 0x18 and fm3 == 0x53b725 and rm_val
      == 3  #nosat'
    : 1 #  rs1_val==fnorm(0x0d59d739) and rs2_val==fnorm(0x3e78cd3d) and rs3_val==fnorm(0x0c53b725) | Guard = 1 Round = 0 Sticky = 1 --> IR ∈ (+MinSubNorm / 2, +MinSubNorm)
    ? 'fs1 == 0 and fe1 == 0x1a and fm1 == 0x59d739 and fs2 == 0 and fe2 == 0x7c and
      fm2 == 0x78cd3d and fs3 == 0 and fe3 == 0x18 and fm3 == 0x53b725 and rm_val
      == 2  #nosat'
    : 1 #  rs1_val==fnorm(0x0d59d739) and rs2_val==fnorm(0x3e78cd3d) and rs3_val==fnorm(0x0c53b725) | Guard = 1 Round = 0 Sticky = 1 --> IR ∈ (+MinSubNorm / 2, +MinSubNorm)
    ? 'fs1 == 0 and fe1 == 0x1a and fm1 == 0x59d739 and fs2 == 0 and fe2 == 0x7c and
      fm2 == 0x78cd3d and fs3 == 0 and fe3 == 0x18 and fm3 == 0x53b725 and rm_val
      == 1  #nosat'
    : 1 #  rs1_val==fnorm(0x0d59d739) and rs2_val==fnorm(0x3e78cd3d) and rs3_val==fnorm(0x0c53b725) | Guard = 1 Round = 0 Sticky = 1 --> IR ∈ (+MinSubNorm / 2, +MinSubNorm)
    ? 'fs1 == 0 and fe1 == 0x1a and fm1 == 0x59d739 and fs2 == 0 and fe2 == 0x7c and
      fm2 == 0x78cd3d and fs3 == 0 and fe3 == 0x18 and fm3 == 0x53b725 and rm_val
      == 0  #nosat'
    : 1 #  rs1_val==fnorm(0x0d59d739) and rs2_val==fnorm(0x3e78cd3d) and rs3_val==fnorm(0x0c53b725) | Guard = 1 Round = 0 Sticky = 1 --> IR ∈ (+MinSubNorm / 2, +MinSubNorm)
    ? 'fs1 == 0 and fe1 == 0x1b and fm1 == 0x0af57c and fs2 == 0 and fe2 == 0x7f and
      fm2 == 0x141db5 and fs3 == 0 and fe3 == 0x1b and fm3 == 0x20cc19 and rm_val
      == 4  #nosat'
    : 1 #  rs1_val==fnorm(0x0d8af57c) and rs2_val==fnorm(0x3f941db5) and rs3_val==fnorm(0x0da0cc19) | Guard = 1 Round = 0 Sticky = 0 --> IR ∈ (+MinSubNorm / 2, +MinSubNorm)
    ? 'fs1 == 0 and fe1 == 0x1b and fm1 == 0x0af57c and fs2 == 0 and fe2 == 0x7f and
      fm2 == 0x141db5 and fs3 == 0 and fe3 == 0x1b and fm3 == 0x20cc19 and rm_val
      == 3  #nosat'
    : 1 #  rs1_val==fnorm(0x0d8af57c) and rs2_val==fnorm(0x3f941db5) and rs3_val==fnorm(0x0da0cc19) | Guard = 1 Round = 0 Sticky = 0 --> IR ∈ (+MinSubNorm / 2, +MinSubNorm)
    ? 'fs1 == 0 and fe1 == 0x1b and fm1 == 0x0af57c and fs2 == 0 and fe2 == 0x7f and
      fm2 == 0x141db5 and fs3 == 0 and fe3 == 0x1b and fm3 == 0x20cc19 and rm_val
      == 2  #nosat'
    : 1 #  rs1_val==fnorm(0x0d8af57c) and rs2_val==fnorm(0x3f941db5) and rs3_val==fnorm(0x0da0cc19) | Guard = 1 Round = 0 Sticky = 0 --> IR ∈ (+MinSubNorm / 2, +MinSubNorm)
    ? 'fs1 == 0 and fe1 == 0x1b and fm1 == 0x0af57c and fs2 == 0 and fe2 == 0x7f and
      fm2 == 0x141db5 and fs3 == 0 and fe3 == 0x1b and fm3 == 0x20cc19 and rm_val
      == 1  #nosat'
    : 1 #  rs1_val==fnorm(0x0d8af57c) and rs2_val==fnorm(0x3f941db5) and rs3_val==fnorm(0x0da0cc19) | Guard = 1 Round = 0 Sticky = 0 --> IR ∈ (+MinSubNorm / 2, +MinSubNorm)
    ? 'fs1 == 0 and fe1 == 0x1b and fm1 == 0x0af57c and fs2 == 0 and fe2 == 0x7f and
      fm2 == 0x141db5 and fs3 == 0 and fe3 == 0x1b and fm3 == 0x20cc19 and rm_val
      == 0  #nosat'
    : 1 #  rs1_val==fnorm(0x0d8af57c) and rs2_val==fnorm(0x3f941db5) and rs3_val==fnorm(0x0da0cc19) | Guard = 1 Round = 0 Sticky = 0 --> IR ∈ (+MinSubNorm / 2, +MinSubNorm)
    ? 'fs1 == 0 and fe1 == 0x1a and fm1 == 0x5d50db and fs2 == 0 and fe2 == 0x7f and
      fm2 == 0x2e5a25 and fs3 == 0 and fe3 == 0x1b and fm3 == 0x16bae3 and rm_val
      == 4  #nosat'
    : 1 #  rs1_val==fnorm(0x0d5d50db) and rs2_val==fnorm(0x3fae5a25) and rs3_val==fnorm(0x0d96bae3) | Guard = 0 Round = 1 Sticky = 1 --> IR ∈ (+MinSubNorm / 2, +MinSubNorm)
    ? 'fs1 == 0 and fe1 == 0x1a and fm1 == 0x5d50db and fs2 == 0 and fe2 == 0x7f and
      fm2 == 0x2e5a25 and fs3 == 0 and fe3 == 0x1b and fm3 == 0x16bae3 and rm_val
      == 3  #nosat'
    : 1 #  rs1_val==fnorm(0x0d5d50db) and rs2_val==fnorm(0x3fae5a25) and rs3_val==fnorm(0x0d96bae3) | Guard = 0 Round = 1 Sticky = 1 --> IR ∈ (+MinSubNorm / 2, +MinSubNorm)
    ? 'fs1 == 0 and fe1 == 0x1a and fm1 == 0x5d50db and fs2 == 0 and fe2 == 0x7f and
      fm2 == 0x2e5a25 and fs3 == 0 and fe3 == 0x1b and fm3 == 0x16bae3 and rm_val
      == 2  #nosat'
    : 1 #  rs1_val==fnorm(0x0d5d50db) and rs2_val==fnorm(0x3fae5a25) and rs3_val==fnorm(0x0d96bae3) | Guard = 0 Round = 1 Sticky = 1 --> IR ∈ (+MinSubNorm / 2, +MinSubNorm)
    ? 'fs1 == 0 and fe1 == 0x1a and fm1 == 0x5d50db and fs2 == 0 and fe2 == 0x7f and
      fm2 == 0x2e5a25 and fs3 == 0 and fe3 == 0x1b and fm3 == 0x16bae3 and rm_val
      == 1  #nosat'
    : 1 #  rs1_val==fnorm(0x0d5d50db) and rs2_val==fnorm(0x3fae5a25) and rs3_val==fnorm(0x0d96bae3) | Guard = 0 Round = 1 Sticky = 1 --> IR ∈ (+MinSubNorm / 2, +MinSubNorm)
    ? 'fs1 == 0 and fe1 == 0x1a and fm1 == 0x5d50db and fs2 == 0 and fe2 == 0x7f and
      fm2 == 0x2e5a25 and fs3 == 0 and fe3 == 0x1b and fm3 == 0x16bae3 and rm_val
      == 0  #nosat'
    : 1 #  rs1_val==fnorm(0x0d5d50db) and rs2_val==fnorm(0x3fae5a25) and rs3_val==fnorm(0x0d96bae3) | Guard = 0 Round = 1 Sticky = 1 --> IR ∈ (+MinSubNorm / 2, +MinSubNorm)
    ? 'fs1 == 0 and fe1 == 0x1a and fm1 == 0x3d99bd and fs2 == 0 and fe2 == 0x7f and
      fm2 == 0x461886 and fs3 == 0 and fe3 == 0x1b and fm3 == 0x12b712 and rm_val
      == 4  #nosat'
    : 1 #  rs1_val==fnorm(0x0d3d99bd) and rs2_val==fnorm(0x3fc61886) and rs3_val==fnorm(0x0d92b712) | Guard = 0 Round = 1 Sticky = 0 --> IR ∈ (+MinSubNorm / 2, +MinSubNorm)
    ? 'fs1 == 0 and fe1 == 0x1a and fm1 == 0x3d99bd and fs2 == 0 and fe2 == 0x7f and
      fm2 == 0x461886 and fs3 == 0 and fe3 == 0x1b and fm3 == 0x12b712 and rm_val
      == 3  #nosat'
    : 1 #  rs1_val==fnorm(0x0d3d99bd) and rs2_val==fnorm(0x3fc61886) and rs3_val==fnorm(0x0d92b712) | Guard = 0 Round = 1 Sticky = 0 --> IR ∈ (+MinSubNorm / 2, +MinSubNorm)
    ? 'fs1 == 0 and fe1 == 0x1a and fm1 == 0x3d99bd and fs2 == 0 and fe2 == 0x7f and
      fm2 == 0x461886 and fs3 == 0 and fe3 == 0x1b and fm3 == 0x12b712 and rm_val
      == 2  #nosat'
    : 1 #  rs1_val==fnorm(0x0d3d99bd) and rs2_val==fnorm(0x3fc61886) and rs3_val==fnorm(0x0d92b712) | Guard = 0 Round = 1 Sticky = 0 --> IR ∈ (+MinSubNorm / 2, +MinSubNorm)
    ? 'fs1 == 0 and fe1 == 0x1a and fm1 == 0x3d99bd and fs2 == 0 and fe2 == 0x7f and
      fm2 == 0x461886 and fs3 == 0 and fe3 == 0x1b and fm3 == 0x12b712 and rm_val
      == 1  #nosat'
    : 1 #  rs1_val==fnorm(0x0d3d99bd) and rs2_val==fnorm(0x3fc61886) and rs3_val==fnorm(0x0d92b712) | Guard = 0 Round = 1 Sticky = 0 --> IR ∈ (+MinSubNorm / 2, +MinSubNorm)
    ? 'fs1 == 0 and fe1 == 0x1a and fm1 == 0x3d99bd and fs2 == 0 and fe2 == 0x7f and
      fm2 == 0x461886 and fs3 == 0 and fe3 == 0x1b and fm3 == 0x12b712 and rm_val
      == 0  #nosat'
    : 1 #  rs1_val==fnorm(0x0d3d99bd) and rs2_val==fnorm(0x3fc61886) and rs3_val==fnorm(0x0d92b712) | Guard = 0 Round = 1 Sticky = 0 --> IR ∈ (+MinSubNorm / 2, +MinSubNorm)
    ? 'fs1 == 0 and fe1 == 0x19 and fm1 == 0x63c101 and fs2 == 0 and fe2 == 0x7f and
      fm2 == 0x556a2f and fs3 == 0 and fe3 == 0x1a and fm3 == 0x3dde0e and rm_val
      == 4  #nosat'
    : 1 #  rs1_val==fnorm(0x0ce3c101) and rs2_val==fnorm(0x3fd56a2f) and rs3_val==fnorm(0x0d3dde0e) | Guard = 0 Round = 0 Sticky = 1 --> IR ∈ (+MinSubNorm / 2, +MinSubNorm)
    ? 'fs1 == 0 and fe1 == 0x19 and fm1 == 0x63c101 and fs2 == 0 and fe2 == 0x7f and
      fm2 == 0x556a2f and fs3 == 0 and fe3 == 0x1a and fm3 == 0x3dde0e and rm_val
      == 3  #nosat'
    : 1 #  rs1_val==fnorm(0x0ce3c101) and rs2_val==fnorm(0x3fd56a2f) and rs3_val==fnorm(0x0d3dde0e) | Guard = 0 Round = 0 Sticky = 1 --> IR ∈ (+MinSubNorm / 2, +MinSubNorm)
    ? 'fs1 == 0 and fe1 == 0x19 and fm1 == 0x63c101 and fs2 == 0 and fe2 == 0x7f and
      fm2 == 0x556a2f and fs3 == 0 and fe3 == 0x1a and fm3 == 0x3dde0e and rm_val
      == 2  #nosat'
    : 1 #  rs1_val==fnorm(0x0ce3c101) and rs2_val==fnorm(0x3fd56a2f) and rs3_val==fnorm(0x0d3dde0e) | Guard = 0 Round = 0 Sticky = 1 --> IR ∈ (+MinSubNorm / 2, +MinSubNorm)
    ? 'fs1 == 0 and fe1 == 0x19 and fm1 == 0x63c101 and fs2 == 0 and fe2 == 0x7f and
      fm2 == 0x556a2f and fs3 == 0 and fe3 == 0x1a and fm3 == 0x3dde0e and rm_val
      == 1  #nosat'
    : 1 #  rs1_val==fnorm(0x0ce3c101) and rs2_val==fnorm(0x3fd56a2f) and rs3_val==fnorm(0x0d3dde0e) | Guard = 0 Round = 0 Sticky = 1 --> IR ∈ (+MinSubNorm / 2, +MinSubNorm)
    ? 'fs1 == 0 and fe1 == 0x19 and fm1 == 0x63c101 and fs2 == 0 and fe2 == 0x7f and
      fm2 == 0x556a2f and fs3 == 0 and fe3 == 0x1a and fm3 == 0x3dde0e and rm_val
      == 0  #nosat'
    : 1 #  rs1_val==fnorm(0x0ce3c101) and rs2_val==fnorm(0x3fd56a2f) and rs3_val==fnorm(0x0d3dde0e) | Guard = 0 Round = 0 Sticky = 1 --> IR ∈ (+MinSubNorm / 2, +MinSubNorm)
    ? 'fs1 == 0 and fe1 == 0x1a and fm1 == 0x249c19 and fs2 == 0 and fe2 == 0x7e and
      fm2 == 0x42be13 and fs3 == 0 and fe3 == 0x19 and fm3 == 0x7a7107 and rm_val
      == 4  #nosat'
    : 1 #  rs1_val==fnorm(0x0d249c19) and rs2_val==fnorm(0x3f42be13) and rs3_val==fnorm(0x0cfa7107) | Guard = 1 Round = 1 Sticky = 1 --> IR ∈ (0, +MinSubNorm / 2)
    ? 'fs1 == 0 and fe1 == 0x1a and fm1 == 0x249c19 and fs2 == 0 and fe2 == 0x7e and
      fm2 == 0x42be13 and fs3 == 0 and fe3 == 0x19 and fm3 == 0x7a7107 and rm_val
      == 3  #nosat'
    : 1 #  rs1_val==fnorm(0x0d249c19) and rs2_val==fnorm(0x3f42be13) and rs3_val==fnorm(0x0cfa7107) | Guard = 1 Round = 1 Sticky = 1 --> IR ∈ (0, +MinSubNorm / 2)
    ? 'fs1 == 0 and fe1 == 0x1a and fm1 == 0x249c19 and fs2 == 0 and fe2 == 0x7e and
      fm2 == 0x42be13 and fs3 == 0 and fe3 == 0x19 and fm3 == 0x7a7107 and rm_val
      == 2  #nosat'
    : 1 #  rs1_val==fnorm(0x0d249c19) and rs2_val==fnorm(0x3f42be13) and rs3_val==fnorm(0x0cfa7107) | Guard = 1 Round = 1 Sticky = 1 --> IR ∈ (0, +MinSubNorm / 2)
    ? 'fs1 == 0 and fe1 == 0x1a and fm1 == 0x249c19 and fs2 == 0 and fe2 == 0x7e and
      fm2 == 0x42be13 and fs3 == 0 and fe3 == 0x19 and fm3 == 0x7a7107 and rm_val
      == 1  #nosat'
    : 1 #  rs1_val==fnorm(0x0d249c19) and rs2_val==fnorm(0x3f42be13) and rs3_val==fnorm(0x0cfa7107) | Guard = 1 Round = 1 Sticky = 1 --> IR ∈ (0, +MinSubNorm / 2)
    ? 'fs1 == 0 and fe1 == 0x1a and fm1 == 0x249c19 and fs2 == 0 and fe2 == 0x7e and
      fm2 == 0x42be13 and fs3 == 0 and fe3 == 0x19 and fm3 == 0x7a7107 and rm_val
      == 0  #nosat'
    : 1 #  rs1_val==fnorm(0x0d249c19) and rs2_val==fnorm(0x3f42be13) and rs3_val==fnorm(0x0cfa7107) | Guard = 1 Round = 1 Sticky = 1 --> IR ∈ (0, +MinSubNorm / 2)
    ? 'fs1 == 0 and fe1 == 0x1a and fm1 == 0x4b5be7 and fs2 == 0 and fe2 == 0x7d and
      fm2 == 0x75f3b7 and fs3 == 0 and fe3 == 0x19 and fm3 == 0x43608e and rm_val
      == 4  #nosat'
    : 1 #  rs1_val==fnorm(0x0d4b5be7) and rs2_val==fnorm(0x3ef5f3b7) and rs3_val==fnorm(0x0cc3608e) | Guard = 1 Round = 1 Sticky = 0 --> IR ∈ (0, +MinSubNorm / 2)
    ? 'fs1 == 0 and fe1 == 0x1a and fm1 == 0x4b5be7 and fs2 == 0 and fe2 == 0x7d and
      fm2 == 0x75f3b7 and fs3 == 0 and fe3 == 0x19 and fm3 == 0x43608e and rm_val
      == 3  #nosat'
    : 1 #  rs1_val==fnorm(0x0d4b5be7) and rs2_val==fnorm(0x3ef5f3b7) and rs3_val==fnorm(0x0cc3608e) | Guard = 1 Round = 1 Sticky = 0 --> IR ∈ (0, +MinSubNorm / 2)
    ? 'fs1 == 0 and fe1 == 0x1a and fm1 == 0x4b5be7 and fs2 == 0 and fe2 == 0x7d and
      fm2 == 0x75f3b7 and fs3 == 0 and fe3 == 0x19 and fm3 == 0x43608e and rm_val
      == 2  #nosat'
    : 1 #  rs1_val==fnorm(0x0d4b5be7) and rs2_val==fnorm(0x3ef5f3b7) and rs3_val==fnorm(0x0cc3608e) | Guard = 1 Round = 1 Sticky = 0 --> IR ∈ (0, +MinSubNorm / 2)
    ? 'fs1 == 0 and fe1 == 0x1a and fm1 == 0x4b5be7 and fs2 == 0 and fe2 == 0x7d and
      fm2 == 0x75f3b7 and fs3 == 0 and fe3 == 0x19 and fm3 == 0x43608e and rm_val
      == 1  #nosat'
    : 1 #  rs1_val==fnorm(0x0d4b5be7) and rs2_val==fnorm(0x3ef5f3b7) and rs3_val==fnorm(0x0cc3608e) | Guard = 1 Round = 1 Sticky = 0 --> IR ∈ (0, +MinSubNorm / 2)
    ? 'fs1 == 0 and fe1 == 0x1a and fm1 == 0x4b5be7 and fs2 == 0 and fe2 == 0x7d and
      fm2 == 0x75f3b7 and fs3 == 0 and fe3 == 0x19 and fm3 == 0x43608e and rm_val
      == 0  #nosat'
    : 1 #  rs1_val==fnorm(0x0d4b5be7) and rs2_val==fnorm(0x3ef5f3b7) and rs3_val==fnorm(0x0cc3608e) | Guard = 1 Round = 1 Sticky = 0 --> IR ∈ (0, +MinSubNorm / 2)
    ? 'fs1 == 0 and fe1 == 0x1b and fm1 == 0x1ca879 and fs2 == 0 and fe2 == 0x7d and
      fm2 == 0x674c9e and fs3 == 0 and fe3 == 0x1a and fm3 == 0x0d8ae9 and rm_val
      == 4  #nosat'
    : 1 #  rs1_val==fnorm(0x0d9ca879) and rs2_val==fnorm(0x3ee74c9e) and rs3_val==fnorm(0x0d0d8ae9) | Guard = 1 Round = 0 Sticky = 1 --> IR ∈ (0, +MinSubNorm / 2)
    ? 'fs1 == 0 and fe1 == 0x1b and fm1 == 0x1ca879 and fs2 == 0 and fe2 == 0x7d and
      fm2 == 0x674c9e and fs3 == 0 and fe3 == 0x1a and fm3 == 0x0d8ae9 and rm_val
      == 3  #nosat'
    : 1 #  rs1_val==fnorm(0x0d9ca879) and rs2_val==fnorm(0x3ee74c9e) and rs3_val==fnorm(0x0d0d8ae9) | Guard = 1 Round = 0 Sticky = 1 --> IR ∈ (0, +MinSubNorm / 2)
    ? 'fs1 == 0 and fe1 == 0x1b and fm1 == 0x1ca879 and fs2 == 0 and fe2 == 0x7d and
      fm2 == 0x674c9e and fs3 == 0 and fe3 == 0x1a and fm3 == 0x0d8ae9 and rm_val
      == 2  #nosat'
    : 1 #  rs1_val==fnorm(0x0d9ca879) and rs2_val==fnorm(0x3ee74c9e) and rs3_val==fnorm(0x0d0d8ae9) | Guard = 1 Round = 0 Sticky = 1 --> IR ∈ (0, +MinSubNorm / 2)
    ? 'fs1 == 0 and fe1 == 0x1b and fm1 == 0x1ca879 and fs2 == 0 and fe2 == 0x7d and
      fm2 == 0x674c9e and fs3 == 0 and fe3 == 0x1a and fm3 == 0x0d8ae9 and rm_val
      == 1  #nosat'
    : 1 #  rs1_val==fnorm(0x0d9ca879) and rs2_val==fnorm(0x3ee74c9e) and rs3_val==fnorm(0x0d0d8ae9) | Guard = 1 Round = 0 Sticky = 1 --> IR ∈ (0, +MinSubNorm / 2)
    ? 'fs1 == 0 and fe1 == 0x1b and fm1 == 0x1ca879 and fs2 == 0 and fe2 == 0x7d and
      fm2 == 0x674c9e and fs3 == 0 and fe3 == 0x1a and fm3 == 0x0d8ae9 and rm_val
      == 0  #nosat'
    : 1 #  rs1_val==fnorm(0x0d9ca879) and rs2_val==fnorm(0x3ee74c9e) and rs3_val==fnorm(0x0d0d8ae9) | Guard = 1 Round = 0 Sticky = 1 --> IR ∈ (0, +MinSubNorm / 2)
    ? 'fs1 == 0 and fe1 == 0x18 and fm1 == 0x307f67 and fs2 == 0 and fe2 == 0x7f and
      fm2 == 0x4c450f and fs3 == 0 and fe3 == 0x19 and fm3 == 0x0cd523 and rm_val
      == 4  #nosat'
    : 1 #  rs1_val==fnorm(0x0c307f67) and rs2_val==fnorm(0x3fcc450f) and rs3_val==fnorm(0x0c8cd523) | Guard = 1 Round = 0 Sticky = 0 --> IR ∈ (0, +MinSubNorm / 2)
    ? 'fs1 == 0 and fe1 == 0x18 and fm1 == 0x307f67 and fs2 == 0 and fe2 == 0x7f and
      fm2 == 0x4c450f and fs3 == 0 and fe3 == 0x19 and fm3 == 0x0cd523 and rm_val
      == 3  #nosat'
    : 1 #  rs1_val==fnorm(0x0c307f67) and rs2_val==fnorm(0x3fcc450f) and rs3_val==fnorm(0x0c8cd523) | Guard = 1 Round = 0 Sticky = 0 --> IR ∈ (0, +MinSubNorm / 2)
    ? 'fs1 == 0 and fe1 == 0x18 and fm1 == 0x307f67 and fs2 == 0 and fe2 == 0x7f and
      fm2 == 0x4c450f and fs3 == 0 and fe3 == 0x19 and fm3 == 0x0cd523 and rm_val
      == 2  #nosat'
    : 1 #  rs1_val==fnorm(0x0c307f67) and rs2_val==fnorm(0x3fcc450f) and rs3_val==fnorm(0x0c8cd523) | Guard = 1 Round = 0 Sticky = 0 --> IR ∈ (0, +MinSubNorm / 2)
    ? 'fs1 == 0 and fe1 == 0x18 and fm1 == 0x307f67 and fs2 == 0 and fe2 == 0x7f and
      fm2 == 0x4c450f and fs3 == 0 and fe3 == 0x19 and fm3 == 0x0cd523 and rm_val
      == 1  #nosat'
    : 1 #  rs1_val==fnorm(0x0c307f67) and rs2_val==fnorm(0x3fcc450f) and rs3_val==fnorm(0x0c8cd523) | Guard = 1 Round = 0 Sticky = 0 --> IR ∈ (0, +MinSubNorm / 2)
    ? 'fs1 == 0 and fe1 == 0x18 and fm1 == 0x307f67 and fs2 == 0 and fe2 == 0x7f and
      fm2 == 0x4c450f and fs3 == 0 and fe3 == 0x19 and fm3 == 0x0cd523 and rm_val
      == 0  #nosat'
    : 1 #  rs1_val==fnorm(0x0c307f67) and rs2_val==fnorm(0x3fcc450f) and rs3_val==fnorm(0x0c8cd523) | Guard = 1 Round = 0 Sticky = 0 --> IR ∈ (0, +MinSubNorm / 2)
    ? 'fs1 == 0 and fe1 == 0x1b and fm1 == 0x0e9ab1 and fs2 == 0 and fe2 == 0x7b and
      fm2 == 0x631860 and fs3 == 0 and fe3 == 0x17 and fm3 == 0x7d017f and rm_val
      == 4  #nosat'
    : 1 #  rs1_val==fnorm(0x0d8e9ab1) and rs2_val==fnorm(0x3de31860) and rs3_val==fnorm(0x0bfd017f) | Guard = 0 Round = 1 Sticky = 1 --> IR ∈ (0, +MinSubNorm / 2)
    ? 'fs1 == 0 and fe1 == 0x1b and fm1 == 0x0e9ab1 and fs2 == 0 and fe2 == 0x7b and
      fm2 == 0x631860 and fs3 == 0 and fe3 == 0x17 and fm3 == 0x7d017f and rm_val
      == 3  #nosat'
    : 1 #  rs1_val==fnorm(0x0d8e9ab1) and rs2_val==fnorm(0x3de31860) and rs3_val==fnorm(0x0bfd017f) | Guard = 0 Round = 1 Sticky = 1 --> IR ∈ (0, +MinSubNorm / 2)
    ? 'fs1 == 0 and fe1 == 0x1b and fm1 == 0x0e9ab1 and fs2 == 0 and fe2 == 0x7b and
      fm2 == 0x631860 and fs3 == 0 and fe3 == 0x17 and fm3 == 0x7d017f and rm_val
      == 2  #nosat'
    : 1 #  rs1_val==fnorm(0x0d8e9ab1) and rs2_val==fnorm(0x3de31860) and rs3_val==fnorm(0x0bfd017f) | Guard = 0 Round = 1 Sticky = 1 --> IR ∈ (0, +MinSubNorm / 2)
    ? 'fs1 == 0 and fe1 == 0x1b and fm1 == 0x0e9ab1 and fs2 == 0 and fe2 == 0x7b and
      fm2 == 0x631860 and fs3 == 0 and fe3 == 0x17 and fm3 == 0x7d017f and rm_val
      == 1  #nosat'
    : 1 #  rs1_val==fnorm(0x0d8e9ab1) and rs2_val==fnorm(0x3de31860) and rs3_val==fnorm(0x0bfd017f) | Guard = 0 Round = 1 Sticky = 1 --> IR ∈ (0, +MinSubNorm / 2)
    ? 'fs1 == 0 and fe1 == 0x1b and fm1 == 0x0e9ab1 and fs2 == 0 and fe2 == 0x7b and
      fm2 == 0x631860 and fs3 == 0 and fe3 == 0x17 and fm3 == 0x7d017f and rm_val
      == 0  #nosat'
    : 1 #  rs1_val==fnorm(0x0d8e9ab1) and rs2_val==fnorm(0x3de31860) and rs3_val==fnorm(0x0bfd017f) | Guard = 0 Round = 1 Sticky = 1 --> IR ∈ (0, +MinSubNorm / 2)
    ? 'fs1 == 0 and fe1 == 0x1a and fm1 == 0x1049ac and fs2 == 0 and fe2 == 0x80 and
      fm2 == 0x06abc4 and fs3 == 0 and fe3 == 0x1b and fm3 == 0x17cec0 and rm_val
      == 4  #nosat'
    : 1 #  rs1_val==fnorm(0x0d1049ac) and rs2_val==fnorm(0x4006abc4) and rs3_val==fnorm(0x0d97cec0) | Guard = 0 Round = 1 Sticky = 0 --> IR ∈ (0, +MinSubNorm / 2)
    ? 'fs1 == 0 and fe1 == 0x1a and fm1 == 0x1049ac and fs2 == 0 and fe2 == 0x80 and
      fm2 == 0x06abc4 and fs3 == 0 and fe3 == 0x1b and fm3 == 0x17cec0 and rm_val
      == 3  #nosat'
    : 1 #  rs1_val==fnorm(0x0d1049ac) and rs2_val==fnorm(0x4006abc4) and rs3_val==fnorm(0x0d97cec0) | Guard = 0 Round = 1 Sticky = 0 --> IR ∈ (0, +MinSubNorm / 2)
    ? 'fs1 == 0 and fe1 == 0x1a and fm1 == 0x1049ac and fs2 == 0 and fe2 == 0x80 and
      fm2 == 0x06abc4 and fs3 == 0 and fe3 == 0x1b and fm3 == 0x17cec0 and rm_val
      == 2  #nosat'
    : 1 #  rs1_val==fnorm(0x0d1049ac) and rs2_val==fnorm(0x4006abc4) and rs3_val==fnorm(0x0d97cec0) | Guard = 0 Round = 1 Sticky = 0 --> IR ∈ (0, +MinSubNorm / 2)
    ? 'fs1 == 0 and fe1 == 0x1a and fm1 == 0x1049ac and fs2 == 0 and fe2 == 0x80 and
      fm2 == 0x06abc4 and fs3 == 0 and fe3 == 0x1b and fm3 == 0x17cec0 and rm_val
      == 1  #nosat'
    : 1 #  rs1_val==fnorm(0x0d1049ac) and rs2_val==fnorm(0x4006abc4) and rs3_val==fnorm(0x0d97cec0) | Guard = 0 Round = 1 Sticky = 0 --> IR ∈ (0, +MinSubNorm / 2)
    ? 'fs1 == 0 and fe1 == 0x1a and fm1 == 0x1049ac and fs2 == 0 and fe2 == 0x80 and
      fm2 == 0x06abc4 and fs3 == 0 and fe3 == 0x1b and fm3 == 0x17cec0 and rm_val
      == 0  #nosat'
    : 1 #  rs1_val==fnorm(0x0d1049ac) and rs2_val==fnorm(0x4006abc4) and rs3_val==fnorm(0x0d97cec0) | Guard = 0 Round = 1 Sticky = 0 --> IR ∈ (0, +MinSubNorm / 2)
    ? 'fs1 == 0 and fe1 == 0x1a and fm1 == 0x002c46 and fs2 == 0 and fe2 == 0x80 and
      fm2 == 0x01c78e and fs3 == 0 and fe3 == 0x1b and fm3 == 0x01f472 and rm_val
      == 4  #nosat'
    : 1 #  rs1_val==fnorm(0x0d002c46) and rs2_val==fnorm(0x4001c78e) and rs3_val==fnorm(0x0d81f472) | Guard = 0 Round = 0 Sticky = 1 --> IR ∈ (0, +MinSubNorm / 2)
    ? 'fs1 == 0 and fe1 == 0x1a and fm1 == 0x002c46 and fs2 == 0 and fe2 == 0x80 and
      fm2 == 0x01c78e and fs3 == 0 and fe3 == 0x1b and fm3 == 0x01f472 and rm_val
      == 3  #nosat'
    : 1 #  rs1_val==fnorm(0x0d002c46) and rs2_val==fnorm(0x4001c78e) and rs3_val==fnorm(0x0d81f472) | Guard = 0 Round = 0 Sticky = 1 --> IR ∈ (0, +MinSubNorm / 2)
    ? 'fs1 == 0 and fe1 == 0x1a and fm1 == 0x002c46 and fs2 == 0 and fe2 == 0x80 and
      fm2 == 0x01c78e and fs3 == 0 and fe3 == 0x1b and fm3 == 0x01f472 and rm_val
      == 2  #nosat'
    : 1 #  rs1_val==fnorm(0x0d002c46) and rs2_val==fnorm(0x4001c78e) and rs3_val==fnorm(0x0d81f472) | Guard = 0 Round = 0 Sticky = 1 --> IR ∈ (0, +MinSubNorm / 2)
    ? 'fs1 == 0 and fe1 == 0x1a and fm1 == 0x002c46 and fs2 == 0 and fe2 == 0x80 and
      fm2 == 0x01c78e and fs3 == 0 and fe3 == 0x1b and fm3 == 0x01f472 and rm_val
      == 1  #nosat'
    : 1 #  rs1_val==fnorm(0x0d002c46) and rs2_val==fnorm(0x4001c78e) and rs3_val==fnorm(0x0d81f472) | Guard = 0 Round = 0 Sticky = 1 --> IR ∈ (0, +MinSubNorm / 2)
    ? 'fs1 == 0 and fe1 == 0x1a and fm1 == 0x002c46 and fs2 == 0 and fe2 == 0x80 and
      fm2 == 0x01c78e and fs3 == 0 and fe3 == 0x1b and fm3 == 0x01f472 and rm_val
      == 0  #nosat'
    : 1 #  rs1_val==fnorm(0x0d002c46) and rs2_val==fnorm(0x4001c78e) and rs3_val==fnorm(0x0d81f472) | Guard = 0 Round = 0 Sticky = 1 --> IR ∈ (0, +MinSubNorm / 2)
    ? 'fs1 == 0 and fe1 == 0x1a and fm1 == 0x67bf8e and fs2 == 0 and fe2 == 0x7f and
      fm2 == 0x2518d4 and fs3 == 0 and fe3 == 0x1b and fm3 == 0x1574f1 and rm_val
      == 4  #nosat'
    : 1 #  rs1_val==fnorm(0x0d67bf8e) and rs2_val==fnorm(0x3fa518d4) and rs3_val==fnorm(0x0d9574f1) | Guard = 1 Round = 1 Sticky = 1 --> IR ∈ (-MinSubNorm / 2, 0)
    ? 'fs1 == 0 and fe1 == 0x1a and fm1 == 0x67bf8e and fs2 == 0 and fe2 == 0x7f and
      fm2 == 0x2518d4 and fs3 == 0 and fe3 == 0x1b and fm3 == 0x1574f1 and rm_val
      == 3  #nosat'
    : 1 #  rs1_val==fnorm(0x0d67bf8e) and rs2_val==fnorm(0x3fa518d4) and rs3_val==fnorm(0x0d9574f1) | Guard = 1 Round = 1 Sticky = 1 --> IR ∈ (-MinSubNorm / 2, 0)
    ? 'fs1 == 0 and fe1 == 0x1a and fm1 == 0x67bf8e and fs2 == 0 and fe2 == 0x7f and
      fm2 == 0x2518d4 and fs3 == 0 and fe3 == 0x1b and fm3 == 0x1574f1 and rm_val
      == 2  #nosat'
    : 1 #  rs1_val==fnorm(0x0d67bf8e) and rs2_val==fnorm(0x3fa518d4) and rs3_val==fnorm(0x0d9574f1) | Guard = 1 Round = 1 Sticky = 1 --> IR ∈ (-MinSubNorm / 2, 0)
    ? 'fs1 == 0 and fe1 == 0x1a and fm1 == 0x67bf8e and fs2 == 0 and fe2 == 0x7f and
      fm2 == 0x2518d4 and fs3 == 0 and fe3 == 0x1b and fm3 == 0x1574f1 and rm_val
      == 1  #nosat'
    : 1 #  rs1_val==fnorm(0x0d67bf8e) and rs2_val==fnorm(0x3fa518d4) and rs3_val==fnorm(0x0d9574f1) | Guard = 1 Round = 1 Sticky = 1 --> IR ∈ (-MinSubNorm / 2, 0)
    ? 'fs1 == 0 and fe1 == 0x1a and fm1 == 0x67bf8e and fs2 == 0 and fe2 == 0x7f and
      fm2 == 0x2518d4 and fs3 == 0 and fe3 == 0x1b and fm3 == 0x1574f1 and rm_val
      == 0  #nosat'
    : 1 #  rs1_val==fnorm(0x0d67bf8e) and rs2_val==fnorm(0x3fa518d4) and rs3_val==fnorm(0x0d9574f1) | Guard = 1 Round = 1 Sticky = 1 --> IR ∈ (-MinSubNorm / 2, 0)
    ? 'fs1 == 0 and fe1 == 0x1a and fm1 == 0x69458e and fs2 == 0 and fe2 == 0x7f and
      fm2 == 0x1c7d2f and fs3 == 0 and fe3 == 0x1b and fm3 == 0x0e9874 and rm_val
      == 4  #nosat'
    : 1 #  rs1_val==fnorm(0x0d69458e) and rs2_val==fnorm(0x3f9c7d2f) and rs3_val==fnorm(0x0d8e9874) | Guard = 1 Round = 1 Sticky = 0 --> IR ∈ (-MinSubNorm / 2, 0)
    ? 'fs1 == 0 and fe1 == 0x1a and fm1 == 0x69458e and fs2 == 0 and fe2 == 0x7f and
      fm2 == 0x1c7d2f and fs3 == 0 and fe3 == 0x1b and fm3 == 0x0e9874 and rm_val
      == 3  #nosat'
    : 1 #  rs1_val==fnorm(0x0d69458e) and rs2_val==fnorm(0x3f9c7d2f) and rs3_val==fnorm(0x0d8e9874) | Guard = 1 Round = 1 Sticky = 0 --> IR ∈ (-MinSubNorm / 2, 0)
    ? 'fs1 == 0 and fe1 == 0x1a and fm1 == 0x69458e and fs2 == 0 and fe2 == 0x7f and
      fm2 == 0x1c7d2f and fs3 == 0 and fe3 == 0x1b and fm3 == 0x0e9874 and rm_val
      == 2  #nosat'
    : 1 #  rs1_val==fnorm(0x0d69458e) and rs2_val==fnorm(0x3f9c7d2f) and rs3_val==fnorm(0x0d8e9874) | Guard = 1 Round = 1 Sticky = 0 --> IR ∈ (-MinSubNorm / 2, 0)
    ? 'fs1 == 0 and fe1 == 0x1a and fm1 == 0x69458e and fs2 == 0 and fe2 == 0x7f and
      fm2 == 0x1c7d2f and fs3 == 0 and fe3 == 0x1b and fm3 == 0x0e9874 and rm_val
      == 1  #nosat'
    : 1 #  rs1_val==fnorm(0x0d69458e) and rs2_val==fnorm(0x3f9c7d2f) and rs3_val==fnorm(0x0d8e9874) | Guard = 1 Round = 1 Sticky = 0 --> IR ∈ (-MinSubNorm / 2, 0)
    ? 'fs1 == 0 and fe1 == 0x1a and fm1 == 0x69458e and fs2 == 0 and fe2 == 0x7f and
      fm2 == 0x1c7d2f and fs3 == 0 and fe3 == 0x1b and fm3 == 0x0e9874 and rm_val
      == 0  #nosat'
    : 1 #  rs1_val==fnorm(0x0d69458e) and rs2_val==fnorm(0x3f9c7d2f) and rs3_val==fnorm(0x0d8e9874) | Guard = 1 Round = 1 Sticky = 0 --> IR ∈ (-MinSubNorm / 2, 0)
    ? 'fs1 == 0 and fe1 == 0x1b and fm1 == 0x0c7098 and fs2 == 0 and fe2 == 0x7e and
      fm2 == 0x0bd39e and fs3 == 0 and fe3 == 0x1a and fm3 == 0x196a75 and rm_val
      == 4  #nosat'
    : 1 #  rs1_val==fnorm(0x0d8c7098) and rs2_val==fnorm(0x3f0bd39e) and rs3_val==fnorm(0x0d196a75) | Guard = 1 Round = 0 Sticky = 1 --> IR ∈ (-MinSubNorm / 2, 0)
    ? 'fs1 == 0 and fe1 == 0x1b and fm1 == 0x0c7098 and fs2 == 0 and fe2 == 0x7e and
      fm2 == 0x0bd39e and fs3 == 0 and fe3 == 0x1a and fm3 == 0x196a75 and rm_val
      == 3  #nosat'
    : 1 #  rs1_val==fnorm(0x0d8c7098) and rs2_val==fnorm(0x3f0bd39e) and rs3_val==fnorm(0x0d196a75) | Guard = 1 Round = 0 Sticky = 1 --> IR ∈ (-MinSubNorm / 2, 0)
    ? 'fs1 == 0 and fe1 == 0x1b and fm1 == 0x0c7098 and fs2 == 0 and fe2 == 0x7e and
      fm2 == 0x0bd39e and fs3 == 0 and fe3 == 0x1a and fm3 == 0x196a75 and rm_val
      == 2  #nosat'
    : 1 #  rs1_val==fnorm(0x0d8c7098) and rs2_val==fnorm(0x3f0bd39e) and rs3_val==fnorm(0x0d196a75) | Guard = 1 Round = 0 Sticky = 1 --> IR ∈ (-MinSubNorm / 2, 0)
    ? 'fs1 == 0 and fe1 == 0x1b and fm1 == 0x0c7098 and fs2 == 0 and fe2 == 0x7e and
      fm2 == 0x0bd39e and fs3 == 0 and fe3 == 0x1a and fm3 == 0x196a75 and rm_val
      == 1  #nosat'
    : 1 #  rs1_val==fnorm(0x0d8c7098) and rs2_val==fnorm(0x3f0bd39e) and rs3_val==fnorm(0x0d196a75) | Guard = 1 Round = 0 Sticky = 1 --> IR ∈ (-MinSubNorm / 2, 0)
    ? 'fs1 == 0 and fe1 == 0x1b and fm1 == 0x0c7098 and fs2 == 0 and fe2 == 0x7e and
      fm2 == 0x0bd39e and fs3 == 0 and fe3 == 0x1a and fm3 == 0x196a75 and rm_val
      == 0  #nosat'
    : 1 #  rs1_val==fnorm(0x0d8c7098) and rs2_val==fnorm(0x3f0bd39e) and rs3_val==fnorm(0x0d196a75) | Guard = 1 Round = 0 Sticky = 1 --> IR ∈ (-MinSubNorm / 2, 0)
    ? 'fs1 == 0 and fe1 == 0x19 and fm1 == 0x4388ad and fs2 == 0 and fe2 == 0x7b and
      fm2 == 0x52d0ea and fs3 == 0 and fe3 == 0x16 and fm3 == 0x2105b0 and rm_val
      == 4  #nosat'
    : 1 #  rs1_val==fnorm(0x0cc388ad) and rs2_val==fnorm(0x3dd2d0ea) and rs3_val==fnorm(0x0b2105b0) | Guard = 1 Round = 0 Sticky = 0 --> IR ∈ (-MinSubNorm / 2, 0)
    ? 'fs1 == 0 and fe1 == 0x19 and fm1 == 0x4388ad and fs2 == 0 and fe2 == 0x7b and
      fm2 == 0x52d0ea and fs3 == 0 and fe3 == 0x16 and fm3 == 0x2105b0 and rm_val
      == 3  #nosat'
    : 1 #  rs1_val==fnorm(0x0cc388ad) and rs2_val==fnorm(0x3dd2d0ea) and rs3_val==fnorm(0x0b2105b0) | Guard = 1 Round = 0 Sticky = 0 --> IR ∈ (-MinSubNorm / 2, 0)
    ? 'fs1 == 0 and fe1 == 0x19 and fm1 == 0x4388ad and fs2 == 0 and fe2 == 0x7b and
      fm2 == 0x52d0ea and fs3 == 0 and fe3 == 0x16 and fm3 == 0x2105b0 and rm_val
      == 2  #nosat'
    : 1 #  rs1_val==fnorm(0x0cc388ad) and rs2_val==fnorm(0x3dd2d0ea) and rs3_val==fnorm(0x0b2105b0) | Guard = 1 Round = 0 Sticky = 0 --> IR ∈ (-MinSubNorm / 2, 0)
    ? 'fs1 == 0 and fe1 == 0x19 and fm1 == 0x4388ad and fs2 == 0 and fe2 == 0x7b and
      fm2 == 0x52d0ea and fs3 == 0 and fe3 == 0x16 and fm3 == 0x2105b0 and rm_val
      == 1  #nosat'
    : 1 #  rs1_val==fnorm(0x0cc388ad) and rs2_val==fnorm(0x3dd2d0ea) and rs3_val==fnorm(0x0b2105b0) | Guard = 1 Round = 0 Sticky = 0 --> IR ∈ (-MinSubNorm / 2, 0)
    ? 'fs1 == 0 and fe1 == 0x19 and fm1 == 0x4388ad and fs2 == 0 and fe2 == 0x7b and
      fm2 == 0x52d0ea and fs3 == 0 and fe3 == 0x16 and fm3 == 0x2105b0 and rm_val
      == 0  #nosat'
    : 1 #  rs1_val==fnorm(0x0cc388ad) and rs2_val==fnorm(0x3dd2d0ea) and rs3_val==fnorm(0x0b2105b0) | Guard = 1 Round = 0 Sticky = 0 --> IR ∈ (-MinSubNorm / 2, 0)
    ? 'fs1 == 0 and fe1 == 0x1a and fm1 == 0x760f4d and fs2 == 0 and fe2 == 0x7e and
      fm2 == 0x47926b and fs3 == 0 and fe3 == 0x1a and fm3 == 0x3fd2a1 and rm_val
      == 4  #nosat'
    : 1 #  rs1_val==fnorm(0x0d760f4d) and rs2_val==fnorm(0x3f47926b) and rs3_val==fnorm(0x0d3fd2a1) | Guard = 0 Round = 1 Sticky = 1 --> IR ∈ (-MinSubNorm / 2, 0)
    ? 'fs1 == 0 and fe1 == 0x1a and fm1 == 0x760f4d and fs2 == 0 and fe2 == 0x7e and
      fm2 == 0x47926b and fs3 == 0 and fe3 == 0x1a and fm3 == 0x3fd2a1 and rm_val
      == 3  #nosat'
    : 1 #  rs1_val==fnorm(0x0d760f4d) and rs2_val==fnorm(0x3f47926b) and rs3_val==fnorm(0x0d3fd2a1) | Guard = 0 Round = 1 Sticky = 1 --> IR ∈ (-MinSubNorm / 2, 0)
    ? 'fs1 == 0 and fe1 == 0x1a and fm1 == 0x760f4d and fs2 == 0 and fe2 == 0x7e and
      fm2 == 0x47926b and fs3 == 0 and fe3 == 0x1a and fm3 == 0x3fd2a1 and rm_val
      == 2  #nosat'
    : 1 #  rs1_val==fnorm(0x0d760f4d) and rs2_val==fnorm(0x3f47926b) and rs3_val==fnorm(0x0d3fd2a1) | Guard = 0 Round = 1 Sticky = 1 --> IR ∈ (-MinSubNorm / 2, 0)
    ? 'fs1 == 0 and fe1 == 0x1a and fm1 == 0x760f4d and fs2 == 0 and fe2 == 0x7e and
      fm2 == 0x47926b and fs3 == 0 and fe3 == 0x1a and fm3 == 0x3fd2a1 and rm_val
      == 1  #nosat'
    : 1 #  rs1_val==fnorm(0x0d760f4d) and rs2_val==fnorm(0x3f47926b) and rs3_val==fnorm(0x0d3fd2a1) | Guard = 0 Round = 1 Sticky = 1 --> IR ∈ (-MinSubNorm / 2, 0)
    ? 'fs1 == 0 and fe1 == 0x1a and fm1 == 0x760f4d and fs2 == 0 and fe2 == 0x7e and
      fm2 == 0x47926b and fs3 == 0 and fe3 == 0x1a and fm3 == 0x3fd2a1 and rm_val
      == 0  #nosat'
    : 1 #  rs1_val==fnorm(0x0d760f4d) and rs2_val==fnorm(0x3f47926b) and rs3_val==fnorm(0x0d3fd2a1) | Guard = 0 Round = 1 Sticky = 1 --> IR ∈ (-MinSubNorm / 2, 0)
    ? 'fs1 == 0 and fe1 == 0x1a and fm1 == 0x59e2ae and fs2 == 0 and fe2 == 0x7b and
      fm2 == 0x435081 and fs3 == 0 and fe3 == 0x17 and fm3 == 0x263c30 and rm_val
      == 4  #nosat'
    : 1 #  rs1_val==fnorm(0x0d59e2ae) and rs2_val==fnorm(0x3dc35081) and rs3_val==fnorm(0x0ba63c30) | Guard = 0 Round = 1 Sticky = 0 --> IR ∈ (-MinSubNorm / 2, 0)
    ? 'fs1 == 0 and fe1 == 0x1a and fm1 == 0x59e2ae and fs2 == 0 and fe2 == 0x7b and
      fm2 == 0x435081 and fs3 == 0 and fe3 == 0x17 and fm3 == 0x263c30 and rm_val
      == 3  #nosat'
    : 1 #  rs1_val==fnorm(0x0d59e2ae) and rs2_val==fnorm(0x3dc35081) and rs3_val==fnorm(0x0ba63c30) | Guard = 0 Round = 1 Sticky = 0 --> IR ∈ (-MinSubNorm / 2, 0)
    ? 'fs1 == 0 and fe1 == 0x1a and fm1 == 0x59e2ae and fs2 == 0 and fe2 == 0x7b and
      fm2 == 0x435081 and fs3 == 0 and fe3 == 0x17 and fm3 == 0x263c30 and rm_val
      == 2  #nosat'
    : 1 #  rs1_val==fnorm(0x0d59e2ae) and rs2_val==fnorm(0x3dc35081) and rs3_val==fnorm(0x0ba63c30) | Guard = 0 Round = 1 Sticky = 0 --> IR ∈ (-MinSubNorm / 2, 0)
    ? 'fs1 == 0 and fe1 == 0x1a and fm1 == 0x59e2ae and fs2 == 0 and fe2 == 0x7b and
      fm2 == 0x435081 and fs3 == 0 and fe3 == 0x17 and fm3 == 0x263c30 and rm_val
      == 1  #nosat'
    : 1 #  rs1_val==fnorm(0x0d59e2ae) and rs2_val==fnorm(0x3dc35081) and rs3_val==fnorm(0x0ba63c30) | Guard = 0 Round = 1 Sticky = 0 --> IR ∈ (-MinSubNorm / 2, 0)
    ? 'fs1 == 0 and fe1 == 0x1a and fm1 == 0x59e2ae and fs2 == 0 and fe2 == 0x7b and
      fm2 == 0x435081 and fs3 == 0 and fe3 == 0x17 and fm3 == 0x263c30 and rm_val
      == 0  #nosat'
    : 1 #  rs1_val==fnorm(0x0d59e2ae) and rs2_val==fnorm(0x3dc35081) and rs3_val==fnorm(0x0ba63c30) | Guard = 0 Round = 1 Sticky = 0 --> IR ∈ (-MinSubNorm / 2, 0)
    ? 'fs1 == 0 and fe1 == 0x1a and fm1 == 0x29c831 and fs2 == 0 and fe2 == 0x7f and
      fm2 == 0x355a3f and fs3 == 0 and fe3 == 0x1a and fm3 == 0x708ccb and rm_val
      == 4  #nosat'
    : 1 #  rs1_val==fnorm(0x0d29c831) and rs2_val==fnorm(0x3fb55a3f) and rs3_val==fnorm(0x0d708ccb) | Guard = 0 Round = 0 Sticky = 1 --> IR ∈ (-MinSubNorm / 2, 0)
    ? 'fs1 == 0 and fe1 == 0x1a and fm1 == 0x29c831 and fs2 == 0 and fe2 == 0x7f and
      fm2 == 0x355a3f and fs3 == 0 and fe3 == 0x1a and fm3 == 0x708ccb and rm_val
      == 3  #nosat'
    : 1 #  rs1_val==fnorm(0x0d29c831) and rs2_val==fnorm(0x3fb55a3f) and rs3_val==fnorm(0x0d708ccb) | Guard = 0 Round = 0 Sticky = 1 --> IR ∈ (-MinSubNorm / 2, 0)
    ? 'fs1 == 0 and fe1 == 0x1a and fm1 == 0x29c831 and fs2 == 0 and fe2 == 0x7f and
      fm2 == 0x355a3f and fs3 == 0 and fe3 == 0x1a and fm3 == 0x708ccb and rm_val
      == 2  #nosat'
    : 1 #  rs1_val==fnorm(0x0d29c831) and rs2_val==fnorm(0x3fb55a3f) and rs3_val==fnorm(0x0d708ccb) | Guard = 0 Round = 0 Sticky = 1 --> IR ∈ (-MinSubNorm / 2, 0)
    ? 'fs1 == 0 and fe1 == 0x1a and fm1 == 0x29c831 and fs2 == 0 and fe2 == 0x7f and
      fm2 == 0x355a3f and fs3 == 0 and fe3 == 0x1a and fm3 == 0x708ccb and rm_val
      == 1  #nosat'
    : 1 #  rs1_val==fnorm(0x0d29c831) and rs2_val==fnorm(0x3fb55a3f) and rs3_val==fnorm(0x0d708ccb) | Guard = 0 Round = 0 Sticky = 1 --> IR ∈ (-MinSubNorm / 2, 0)
    ? 'fs1 == 0 and fe1 == 0x1a and fm1 == 0x29c831 and fs2 == 0 and fe2 == 0x7f and
      fm2 == 0x355a3f and fs3 == 0 and fe3 == 0x1a and fm3 == 0x708ccb and rm_val
      == 0  #nosat'
    : 1 #  rs1_val==fnorm(0x0d29c831) and rs2_val==fnorm(0x3fb55a3f) and rs3_val==fnorm(0x0d708ccb) | Guard = 0 Round = 0 Sticky = 1 --> IR ∈ (-MinSubNorm / 2, 0)
    ? 'fs1 == 0 and fe1 == 0x1a and fm1 == 0x4e0628 and fs2 == 0 and fe2 == 0x7f and
      fm2 == 0x2f03b4 and fs3 == 0 and fe3 == 0x1b and fm3 == 0x0cd930 and rm_val
      == 4  #nosat'
    : 1 #  rs1_val==fnorm(0x0d4e0628) and rs2_val==fnorm(0x3faf03b4) and rs3_val==fnorm(0x0d8cd930) | Guard = 1 Round = 1 Sticky = 1 --> IR ∈ (-MinSubNorm, -MinSubNorm / 2)
    ? 'fs1 == 0 and fe1 == 0x1a and fm1 == 0x4e0628 and fs2 == 0 and fe2 == 0x7f and
      fm2 == 0x2f03b4 and fs3 == 0 and fe3 == 0x1b and fm3 == 0x0cd930 and rm_val
      == 3  #nosat'
    : 1 #  rs1_val==fnorm(0x0d4e0628) and rs2_val==fnorm(0x3faf03b4) and rs3_val==fnorm(0x0d8cd930) | Guard = 1 Round = 1 Sticky = 1 --> IR ∈ (-MinSubNorm, -MinSubNorm / 2)
    ? 'fs1 == 0 and fe1 == 0x1a and fm1 == 0x4e0628 and fs2 == 0 and fe2 == 0x7f and
      fm2 == 0x2f03b4 and fs3 == 0 and fe3 == 0x1b and fm3 == 0x0cd930 and rm_val
      == 2  #nosat'
    : 1 #  rs1_val==fnorm(0x0d4e0628) and rs2_val==fnorm(0x3faf03b4) and rs3_val==fnorm(0x0d8cd930) | Guard = 1 Round = 1 Sticky = 1 --> IR ∈ (-MinSubNorm, -MinSubNorm / 2)
    ? 'fs1 == 0 and fe1 == 0x1a and fm1 == 0x4e0628 and fs2 == 0 and fe2 == 0x7f and
      fm2 == 0x2f03b4 and fs3 == 0 and fe3 == 0x1b and fm3 == 0x0cd930 and rm_val
      == 1  #nosat'
    : 1 #  rs1_val==fnorm(0x0d4e0628) and rs2_val==fnorm(0x3faf03b4) and rs3_val==fnorm(0x0d8cd930) | Guard = 1 Round = 1 Sticky = 1 --> IR ∈ (-MinSubNorm, -MinSubNorm / 2)
    ? 'fs1 == 0 and fe1 == 0x1a and fm1 == 0x4e0628 and fs2 == 0 and fe2 == 0x7f and
      fm2 == 0x2f03b4 and fs3 == 0 and fe3 == 0x1b and fm3 == 0x0cd930 and rm_val
      == 0  #nosat'
    : 1 #  rs1_val==fnorm(0x0d4e0628) and rs2_val==fnorm(0x3faf03b4) and rs3_val==fnorm(0x0d8cd930) | Guard = 1 Round = 1 Sticky = 1 --> IR ∈ (-MinSubNorm, -MinSubNorm / 2)
    ? 'fs1 == 0 and fe1 == 0x1a and fm1 == 0x4f63b4 and fs2 == 0 and fe2 == 0x7c and
      fm2 == 0x715671 and fs3 == 0 and fe3 == 0x18 and fm3 == 0x4382e4 and rm_val
      == 4  #nosat'
    : 1 #  rs1_val==fnorm(0x0d4f63b4) and rs2_val==fnorm(0x3e715671) and rs3_val==fnorm(0x0c4382e4) | Guard = 1 Round = 1 Sticky = 0 --> IR ∈ (-MinSubNorm, -MinSubNorm / 2)
    ? 'fs1 == 0 and fe1 == 0x1a and fm1 == 0x4f63b4 and fs2 == 0 and fe2 == 0x7c and
      fm2 == 0x715671 and fs3 == 0 and fe3 == 0x18 and fm3 == 0x4382e4 and rm_val
      == 3  #nosat'
    : 1 #  rs1_val==fnorm(0x0d4f63b4) and rs2_val==fnorm(0x3e715671) and rs3_val==fnorm(0x0c4382e4) | Guard = 1 Round = 1 Sticky = 0 --> IR ∈ (-MinSubNorm, -MinSubNorm / 2)
    ? 'fs1 == 0 and fe1 == 0x1a and fm1 == 0x4f63b4 and fs2 == 0 and fe2 == 0x7c and
      fm2 == 0x715671 and fs3 == 0 and fe3 == 0x18 and fm3 == 0x4382e4 and rm_val
      == 2  #nosat'
    : 1 #  rs1_val==fnorm(0x0d4f63b4) and rs2_val==fnorm(0x3e715671) and rs3_val==fnorm(0x0c4382e4) | Guard = 1 Round = 1 Sticky = 0 --> IR ∈ (-MinSubNorm, -MinSubNorm / 2)
    ? 'fs1 == 0 and fe1 == 0x1a and fm1 == 0x4f63b4 and fs2 == 0 and fe2 == 0x7c and
      fm2 == 0x715671 and fs3 == 0 and fe3 == 0x18 and fm3 == 0x4382e4 and rm_val
      == 1  #nosat'
    : 1 #  rs1_val==fnorm(0x0d4f63b4) and rs2_val==fnorm(0x3e715671) and rs3_val==fnorm(0x0c4382e4) | Guard = 1 Round = 1 Sticky = 0 --> IR ∈ (-MinSubNorm, -MinSubNorm / 2)
    ? 'fs1 == 0 and fe1 == 0x1a and fm1 == 0x4f63b4 and fs2 == 0 and fe2 == 0x7c and
      fm2 == 0x715671 and fs3 == 0 and fe3 == 0x18 and fm3 == 0x4382e4 and rm_val
      == 0  #nosat'
    : 1 #  rs1_val==fnorm(0x0d4f63b4) and rs2_val==fnorm(0x3e715671) and rs3_val==fnorm(0x0c4382e4) | Guard = 1 Round = 1 Sticky = 0 --> IR ∈ (-MinSubNorm, -MinSubNorm / 2)
    ? 'fs1 == 0 and fe1 == 0x1b and fm1 == 0x07b93f and fs2 == 0 and fe2 == 0x7e and
      fm2 == 0x11c9d8 and fs3 == 0 and fe3 == 0x1a and fm3 == 0x1a95e0 and rm_val
      == 4  #nosat'
    : 1 #  rs1_val==fnorm(0x0d87b93f) and rs2_val==fnorm(0x3f11c9d8) and rs3_val==fnorm(0x0d1a95e0) | Guard = 1 Round = 0 Sticky = 1 --> IR ∈ (-MinSubNorm, -MinSubNorm / 2)
    ? 'fs1 == 0 and fe1 == 0x1b and fm1 == 0x07b93f and fs2 == 0 and fe2 == 0x7e and
      fm2 == 0x11c9d8 and fs3 == 0 and fe3 == 0x1a and fm3 == 0x1a95e0 and rm_val
      == 3  #nosat'
    : 1 #  rs1_val==fnorm(0x0d87b93f) and rs2_val==fnorm(0x3f11c9d8) and rs3_val==fnorm(0x0d1a95e0) | Guard = 1 Round = 0 Sticky = 1 --> IR ∈ (-MinSubNorm, -MinSubNorm / 2)
    ? 'fs1 == 0 and fe1 == 0x1b and fm1 == 0x07b93f and fs2 == 0 and fe2 == 0x7e and
      fm2 == 0x11c9d8 and fs3 == 0 and fe3 == 0x1a and fm3 == 0x1a95e0 and rm_val
      == 2  #nosat'
    : 1 #  rs1_val==fnorm(0x0d87b93f) and rs2_val==fnorm(0x3f11c9d8) and rs3_val==fnorm(0x0d1a95e0) | Guard = 1 Round = 0 Sticky = 1 --> IR ∈ (-MinSubNorm, -MinSubNorm / 2)
    ? 'fs1 == 0 and fe1 == 0x1b and fm1 == 0x07b93f and fs2 == 0 and fe2 == 0x7e and
      fm2 == 0x11c9d8 and fs3 == 0 and fe3 == 0x1a and fm3 == 0x1a95e0 and rm_val
      == 1  #nosat'
    : 1 #  rs1_val==fnorm(0x0d87b93f) and rs2_val==fnorm(0x3f11c9d8) and rs3_val==fnorm(0x0d1a95e0) | Guard = 1 Round = 0 Sticky = 1 --> IR ∈ (-MinSubNorm, -MinSubNorm / 2)
    ? 'fs1 == 0 and fe1 == 0x1b and fm1 == 0x07b93f and fs2 == 0 and fe2 == 0x7e and
      fm2 == 0x11c9d8 and fs3 == 0 and fe3 == 0x1a and fm3 == 0x1a95e0 and rm_val
      == 0  #nosat'
    : 1 #  rs1_val==fnorm(0x0d87b93f) and rs2_val==fnorm(0x3f11c9d8) and rs3_val==fnorm(0x0d1a95e0) | Guard = 1 Round = 0 Sticky = 1 --> IR ∈ (-MinSubNorm, -MinSubNorm / 2)
    ? 'fs1 == 0 and fe1 == 0x1b and fm1 == 0x218d77 and fs2 == 0 and fe2 == 0x7d and
      fm2 == 0x71d3ff and fs3 == 0 and fe3 == 0x1a and fm3 == 0x189bf6 and rm_val
      == 4  #nosat'
    : 1 #  rs1_val==fnorm(0x0da18d77) and rs2_val==fnorm(0x3ef1d3ff) and rs3_val==fnorm(0x0d189bf6) | Guard = 1 Round = 0 Sticky = 0 --> IR ∈ (-MinSubNorm, -MinSubNorm / 2)
    ? 'fs1 == 0 and fe1 == 0x1b and fm1 == 0x218d77 and fs2 == 0 and fe2 == 0x7d and
      fm2 == 0x71d3ff and fs3 == 0 and fe3 == 0x1a and fm3 == 0x189bf6 and rm_val
      == 3  #nosat'
    : 1 #  rs1_val==fnorm(0x0da18d77) and rs2_val==fnorm(0x3ef1d3ff) and rs3_val==fnorm(0x0d189bf6) | Guard = 1 Round = 0 Sticky = 0 --> IR ∈ (-MinSubNorm, -MinSubNorm / 2)
    ? 'fs1 == 0 and fe1 == 0x1b and fm1 == 0x218d77 and fs2 == 0 and fe2 == 0x7d and
      fm2 == 0x71d3ff and fs3 == 0 and fe3 == 0x1a and fm3 == 0x189bf6 and rm_val
      == 2  #nosat'
    : 1 #  rs1_val==fnorm(0x0da18d77) and rs2_val==fnorm(0x3ef1d3ff) and rs3_val==fnorm(0x0d189bf6) | Guard = 1 Round = 0 Sticky = 0 --> IR ∈ (-MinSubNorm, -MinSubNorm / 2)
    ? 'fs1 == 0 and fe1 == 0x1b and fm1 == 0x218d77 and fs2 == 0 and fe2 == 0x7d and
      fm2 == 0x71d3ff and fs3 == 0 and fe3 == 0x1a and fm3 == 0x189bf6 and rm_val
      == 1  #nosat'
    : 1 #  rs1_val==fnorm(0x0da18d77) and rs2_val==fnorm(0x3ef1d3ff) and rs3_val==fnorm(0x0d189bf6) | Guard = 1 Round = 0 Sticky = 0 --> IR ∈ (-MinSubNorm, -MinSubNorm / 2)
    ? 'fs1 == 0 and fe1 == 0x1b and fm1 == 0x218d77 and fs2 == 0 and fe2 == 0x7d and
      fm2 == 0x71d3ff and fs3 == 0 and fe3 == 0x1a and fm3 == 0x189bf6 and rm_val
      == 0  #nosat'
    : 1 #  rs1_val==fnorm(0x0da18d77) and rs2_val==fnorm(0x3ef1d3ff) and rs3_val==fnorm(0x0d189bf6) | Guard = 1 Round = 0 Sticky = 0 --> IR ∈ (-MinSubNorm, -MinSubNorm / 2)
    ? 'fs1 == 0 and fe1 == 0x19 and fm1 == 0x285493 and fs2 == 0 and fe2 == 0x7e and
      fm2 == 0x674cf0 and fs3 == 0 and fe3 == 0x19 and fm3 == 0x1816e8 and rm_val
      == 4  #nosat'
    : 1 #  rs1_val==fnorm(0x0ca85493) and rs2_val==fnorm(0x3f674cf0) and rs3_val==fnorm(0x0c9816e8) | Guard = 0 Round = 1 Sticky = 1 --> IR ∈ (-MinSubNorm, -MinSubNorm / 2)
    ? 'fs1 == 0 and fe1 == 0x19 and fm1 == 0x285493 and fs2 == 0 and fe2 == 0x7e and
      fm2 == 0x674cf0 and fs3 == 0 and fe3 == 0x19 and fm3 == 0x1816e8 and rm_val
      == 3  #nosat'
    : 1 #  rs1_val==fnorm(0x0ca85493) and rs2_val==fnorm(0x3f674cf0) and rs3_val==fnorm(0x0c9816e8) | Guard = 0 Round = 1 Sticky = 1 --> IR ∈ (-MinSubNorm, -MinSubNorm / 2)
    ? 'fs1 == 0 and fe1 == 0x19 and fm1 == 0x285493 and fs2 == 0 and fe2 == 0x7e and
      fm2 == 0x674cf0 and fs3 == 0 and fe3 == 0x19 and fm3 == 0x1816e8 and rm_val
      == 2  #nosat'
    : 1 #  rs1_val==fnorm(0x0ca85493) and rs2_val==fnorm(0x3f674cf0) and rs3_val==fnorm(0x0c9816e8) | Guard = 0 Round = 1 Sticky = 1 --> IR ∈ (-MinSubNorm, -MinSubNorm / 2)
    ? 'fs1 == 0 and fe1 == 0x19 and fm1 == 0x285493 and fs2 == 0 and fe2 == 0x7e and
      fm2 == 0x674cf0 and fs3 == 0 and fe3 == 0x19 and fm3 == 0x1816e8 and rm_val
      == 1  #nosat'
    : 1 #  rs1_val==fnorm(0x0ca85493) and rs2_val==fnorm(0x3f674cf0) and rs3_val==fnorm(0x0c9816e8) | Guard = 0 Round = 1 Sticky = 1 --> IR ∈ (-MinSubNorm, -MinSubNorm / 2)
    ? 'fs1 == 0 and fe1 == 0x19 and fm1 == 0x285493 and fs2 == 0 and fe2 == 0x7e and
      fm2 == 0x674cf0 and fs3 == 0 and fe3 == 0x19 and fm3 == 0x1816e8 and rm_val
      == 0  #nosat'
    : 1 #  rs1_val==fnorm(0x0ca85493) and rs2_val==fnorm(0x3f674cf0) and rs3_val==fnorm(0x0c9816e8) | Guard = 0 Round = 1 Sticky = 1 --> IR ∈ (-MinSubNorm, -MinSubNorm / 2)
    ? 'fs1 == 0 and fe1 == 0x15 and fm1 == 0x08be86 and fs2 == 0 and fe2 == 0x84 and
      fm2 == 0x7e6538 and fs3 == 0 and fe3 == 0x1b and fm3 == 0x07e31a and rm_val
      == 4  #nosat'
    : 1 #  rs1_val==fnorm(0x0a88be86) and rs2_val==fnorm(0x427e6538) and rs3_val==fnorm(0x0d87e31a) | Guard = 0 Round = 1 Sticky = 0 --> IR ∈ (-MinSubNorm, -MinSubNorm / 2)
    ? 'fs1 == 0 and fe1 == 0x15 and fm1 == 0x08be86 and fs2 == 0 and fe2 == 0x84 and
      fm2 == 0x7e6538 and fs3 == 0 and fe3 == 0x1b and fm3 == 0x07e31a and rm_val
      == 3  #nosat'
    : 1 #  rs1_val==fnorm(0x0a88be86) and rs2_val==fnorm(0x427e6538) and rs3_val==fnorm(0x0d87e31a) | Guard = 0 Round = 1 Sticky = 0 --> IR ∈ (-MinSubNorm, -MinSubNorm / 2)
    ? 'fs1 == 0 and fe1 == 0x15 and fm1 == 0x08be86 and fs2 == 0 and fe2 == 0x84 and
      fm2 == 0x7e6538 and fs3 == 0 and fe3 == 0x1b and fm3 == 0x07e31a and rm_val
      == 2  #nosat'
    : 1 #  rs1_val==fnorm(0x0a88be86) and rs2_val==fnorm(0x427e6538) and rs3_val==fnorm(0x0d87e31a) | Guard = 0 Round = 1 Sticky = 0 --> IR ∈ (-MinSubNorm, -MinSubNorm / 2)
    ? 'fs1 == 0 and fe1 == 0x15 and fm1 == 0x08be86 and fs2 == 0 and fe2 == 0x84 and
      fm2 == 0x7e6538 and fs3 == 0 and fe3 == 0x1b and fm3 == 0x07e31a and rm_val
      == 1  #nosat'
    : 1 #  rs1_val==fnorm(0x0a88be86) and rs2_val==fnorm(0x427e6538) and rs3_val==fnorm(0x0d87e31a) | Guard = 0 Round = 1 Sticky = 0 --> IR ∈ (-MinSubNorm, -MinSubNorm / 2)
    ? 'fs1 == 0 and fe1 == 0x15 and fm1 == 0x08be86 and fs2 == 0 and fe2 == 0x84 and
      fm2 == 0x7e6538 and fs3 == 0 and fe3 == 0x1b and fm3 == 0x07e31a and rm_val
      == 0  #nosat'
    : 1 #  rs1_val==fnorm(0x0a88be86) and rs2_val==fnorm(0x427e6538) and rs3_val==fnorm(0x0d87e31a) | Guard = 0 Round = 1 Sticky = 0 --> IR ∈ (-MinSubNorm, -MinSubNorm / 2)
    ? 'fs1 == 0 and fe1 == 0x1a and fm1 == 0x4b0ecf and fs2 == 0 and fe2 == 0x7b and
      fm2 == 0x567a4f and fs3 == 0 and fe3 == 0x17 and fm3 == 0x2a1f65 and rm_val
      == 4  #nosat'
    : 1 #  rs1_val==fnorm(0x0d4b0ecf) and rs2_val==fnorm(0x3dd67a4f) and rs3_val==fnorm(0x0baa1f65) | Guard = 0 Round = 0 Sticky = 1 --> IR ∈ (-MinSubNorm, -MinSubNorm / 2)
    ? 'fs1 == 0 and fe1 == 0x1a and fm1 == 0x4b0ecf and fs2 == 0 and fe2 == 0x7b and
      fm2 == 0x567a4f and fs3 == 0 and fe3 == 0x17 and fm3 == 0x2a1f65 and rm_val
      == 3  #nosat'
    : 1 #  rs1_val==fnorm(0x0d4b0ecf) and rs2_val==fnorm(0x3dd67a4f) and rs3_val==fnorm(0x0baa1f65) | Guard = 0 Round = 0 Sticky = 1 --> IR ∈ (-MinSubNorm, -MinSubNorm / 2)
    ? 'fs1 == 0 and fe1 == 0x1a and fm1 == 0x4b0ecf and fs2 == 0 and fe2 == 0x7b and
      fm2 == 0x567a4f and fs3 == 0 and fe3 == 0x17 and fm3 == 0x2a1f65 and rm_val
      == 2  #nosat'
    : 1 #  rs1_val==fnorm(0x0d4b0ecf) and rs2_val==fnorm(0x3dd67a4f) and rs3_val==fnorm(0x0baa1f65) | Guard = 0 Round = 0 Sticky = 1 --> IR ∈ (-MinSubNorm, -MinSubNorm / 2)
    ? 'fs1 == 0 and fe1 == 0x1a and fm1 == 0x4b0ecf and fs2 == 0 and fe2 == 0x7b and
      fm2 == 0x567a4f and fs3 == 0 and fe3 == 0x17 and fm3 == 0x2a1f65 and rm_val
      == 1  #nosat'
    : 1 #  rs1_val==fnorm(0x0d4b0ecf) and rs2_val==fnorm(0x3dd67a4f) and rs3_val==fnorm(0x0baa1f65) | Guard = 0 Round = 0 Sticky = 1 --> IR ∈ (-MinSubNorm, -MinSubNorm / 2)
    coverage: 140/140
  total_coverage: 281/281
