---
fdiv.d_b4:
  config:
  - check ISA:=regex(.*I.*Zfinx.*Zdinx.*)
  mnemonics:
    fdiv.d: 142
    coverage: 1/1
  op_comb:
    rs1 != rs2  and rs1 != rd and rs2 != rd: 138
    rs1 == rd != rs2: 1
    rs1 == rs2 != rd: 1
    rs1 == rs2 == rd: 1
    rs2 == rd != rs1: 1
    coverage: 5/5
  rd:
    x10: 1
    x12: 1
    x14: 1
    x16: 1
    x18: 1
    x2: 1
    x20: 1
    x22: 1
    x24: 1
    x26: 1
    x28: 1
    x30: 128
    x4: 1
    x6: 1
    x8: 1
    coverage: 15/15
  rs1:
    x10: 1
    x12: 1
    x14: 1
    x16: 1
    x18: 1
    x2: 1
    x20: 1
    x22: 1
    x24: 1
    x26: 1
    x28: 128
    x30: 1
    x4: 1
    x6: 1
    x8: 1
    coverage: 15/15
  rs2:
    x10: 1
    x12: 1
    x14: 1
    x16: 1
    x18: 1
    x2: 1
    x20: 1
    x22: 1
    x24: 1
    x26: 128
    x28: 1
    x30: 1
    x4: 1
    x6: 1
    x8: 1
    coverage: 15/15
  val_comb:
    ? 'fs1 == 0 and fe1 == 0x7fe and fm1 == 0x4733f0771afc6 and fs2 == 0 and fe2 ==
      0x3fe and fm2 == 0x4733f0771afc7 and fcsr == 0x2 and rm_val == 7   #nosat'
    : 1
    ? 'fs1 == 0 and fe1 == 0x7fe and fm1 == 0x4733f0771afc6 and fs2 == 0 and fe2 ==
      0x3fe and fm2 == 0x4733f0771afc7 and fcsr == 0x22 and rm_val == 7   #nosat'
    : 1
    ? 'fs1 == 0 and fe1 == 0x7fe and fm1 == 0x4733f0771afc6 and fs2 == 0 and fe2 ==
      0x3fe and fm2 == 0x4733f0771afc7 and fcsr == 0x42 and rm_val == 7   #nosat'
    : 1
    ? 'fs1 == 0 and fe1 == 0x7fe and fm1 == 0x4733f0771afc6 and fs2 == 0 and fe2 ==
      0x3fe and fm2 == 0x4733f0771afc7 and fcsr == 0x62 and rm_val == 7   #nosat'
    : 1
    ? 'fs1 == 0 and fe1 == 0x7fe and fm1 == 0x4733f0771afc6 and fs2 == 0 and fe2 ==
      0x3fe and fm2 == 0x4733f0771afc7 and fcsr == 0x82 and rm_val == 7   #nosat'
    : 1
    ? 'fs1 == 0 and fe1 == 0x7fe and fm1 == 0x450c74c9b42e4 and fs2 == 0 and fe2 ==
      0x3fe and fm2 == 0x450c74c9b42e5 and fcsr == 0x2 and rm_val == 7   #nosat'
    : 1
    ? 'fs1 == 0 and fe1 == 0x7fe and fm1 == 0x450c74c9b42e4 and fs2 == 0 and fe2 ==
      0x3fe and fm2 == 0x450c74c9b42e5 and fcsr == 0x22 and rm_val == 7   #nosat'
    : 1
    ? 'fs1 == 0 and fe1 == 0x7fe and fm1 == 0x450c74c9b42e4 and fs2 == 0 and fe2 ==
      0x3fe and fm2 == 0x450c74c9b42e5 and fcsr == 0x42 and rm_val == 7   #nosat'
    : 1
    ? 'fs1 == 0 and fe1 == 0x7fe and fm1 == 0x450c74c9b42e4 and fs2 == 0 and fe2 ==
      0x3fe and fm2 == 0x450c74c9b42e5 and fcsr == 0x62 and rm_val == 7   #nosat'
    : 1
    ? 'fs1 == 0 and fe1 == 0x7fe and fm1 == 0x450c74c9b42e4 and fs2 == 0 and fe2 ==
      0x3fe and fm2 == 0x450c74c9b42e5 and fcsr == 0x82 and rm_val == 7   #nosat'
    : 1
    ? 'fs1 == 0 and fe1 == 0x7fe and fm1 == 0x0bde6858f4b91 and fs2 == 0 and fe2 ==
      0x3fe and fm2 == 0x0bde6858f4b92 and fcsr == 0x2 and rm_val == 7   #nosat'
    : 1
    ? 'fs1 == 0 and fe1 == 0x7fe and fm1 == 0x0bde6858f4b91 and fs2 == 0 and fe2 ==
      0x3fe and fm2 == 0x0bde6858f4b92 and fcsr == 0x22 and rm_val == 7   #nosat'
    : 1
    ? 'fs1 == 0 and fe1 == 0x7fe and fm1 == 0x0bde6858f4b91 and fs2 == 0 and fe2 ==
      0x3fe and fm2 == 0x0bde6858f4b92 and fcsr == 0x42 and rm_val == 7   #nosat'
    : 1
    ? 'fs1 == 0 and fe1 == 0x7fe and fm1 == 0x0bde6858f4b91 and fs2 == 0 and fe2 ==
      0x3fe and fm2 == 0x0bde6858f4b92 and fcsr == 0x62 and rm_val == 7   #nosat'
    : 1
    ? 'fs1 == 0 and fe1 == 0x7fe and fm1 == 0x0bde6858f4b91 and fs2 == 0 and fe2 ==
      0x3fe and fm2 == 0x0bde6858f4b92 and fcsr == 0x82 and rm_val == 7   #nosat'
    : 1
    ? 'fs1 == 0 and fe1 == 0x7fe and fm1 == 0x57c33eb1be367 and fs2 == 0 and fe2 ==
      0x3fe and fm2 == 0x57c33eb1be368 and fcsr == 0x2 and rm_val == 7   #nosat'
    : 1
    ? 'fs1 == 0 and fe1 == 0x7fe and fm1 == 0x57c33eb1be367 and fs2 == 0 and fe2 ==
      0x3fe and fm2 == 0x57c33eb1be368 and fcsr == 0x22 and rm_val == 7   #nosat'
    : 1
    ? 'fs1 == 0 and fe1 == 0x7fe and fm1 == 0x57c33eb1be367 and fs2 == 0 and fe2 ==
      0x3fe and fm2 == 0x57c33eb1be368 and fcsr == 0x42 and rm_val == 7   #nosat'
    : 1
    ? 'fs1 == 0 and fe1 == 0x7fe and fm1 == 0x57c33eb1be367 and fs2 == 0 and fe2 ==
      0x3fe and fm2 == 0x57c33eb1be368 and fcsr == 0x62 and rm_val == 7   #nosat'
    : 1
    ? 'fs1 == 0 and fe1 == 0x7fe and fm1 == 0x57c33eb1be367 and fs2 == 0 and fe2 ==
      0x3fe and fm2 == 0x57c33eb1be368 and fcsr == 0x82 and rm_val == 7   #nosat'
    : 1
    ? 'fs1 == 0 and fe1 == 0x7fe and fm1 == 0x8436c13d47a1b and fs2 == 0 and fe2 ==
      0x3fe and fm2 == 0x8436c13d47a1c and fcsr == 0x2 and rm_val == 7   #nosat'
    : 1
    ? 'fs1 == 0 and fe1 == 0x7fe and fm1 == 0x8436c13d47a1b and fs2 == 0 and fe2 ==
      0x3fe and fm2 == 0x8436c13d47a1c and fcsr == 0x22 and rm_val == 7   #nosat'
    : 1
    ? 'fs1 == 0 and fe1 == 0x7fe and fm1 == 0x8436c13d47a1b and fs2 == 0 and fe2 ==
      0x3fe and fm2 == 0x8436c13d47a1c and fcsr == 0x42 and rm_val == 7   #nosat'
    : 1
    ? 'fs1 == 0 and fe1 == 0x7fe and fm1 == 0x8436c13d47a1b and fs2 == 0 and fe2 ==
      0x3fe and fm2 == 0x8436c13d47a1c and fcsr == 0x62 and rm_val == 7   #nosat'
    : 1
    ? 'fs1 == 0 and fe1 == 0x7fe and fm1 == 0x8436c13d47a1b and fs2 == 0 and fe2 ==
      0x3fe and fm2 == 0x8436c13d47a1c and fcsr == 0x82 and rm_val == 7   #nosat'
    : 1
    ? 'fs1 == 0 and fe1 == 0x7fd and fm1 == 0x347f8263d98bd and fs2 == 0 and fe2 ==
      0x3fd and fm2 == 0x347f8263d98be and fcsr == 0x2 and rm_val == 7   #nosat'
    : 1
    ? 'fs1 == 0 and fe1 == 0x7fd and fm1 == 0x347f8263d98bd and fs2 == 0 and fe2 ==
      0x3fd and fm2 == 0x347f8263d98be and fcsr == 0x22 and rm_val == 7   #nosat'
    : 1
    ? 'fs1 == 0 and fe1 == 0x7fd and fm1 == 0x347f8263d98bd and fs2 == 0 and fe2 ==
      0x3fd and fm2 == 0x347f8263d98be and fcsr == 0x42 and rm_val == 7   #nosat'
    : 1
    ? 'fs1 == 0 and fe1 == 0x7fd and fm1 == 0x347f8263d98bd and fs2 == 0 and fe2 ==
      0x3fd and fm2 == 0x347f8263d98be and fcsr == 0x62 and rm_val == 7   #nosat'
    : 1
    ? 'fs1 == 0 and fe1 == 0x7fd and fm1 == 0x347f8263d98bd and fs2 == 0 and fe2 ==
      0x3fd and fm2 == 0x347f8263d98be and fcsr == 0x82 and rm_val == 7   #nosat'
    : 1
    ? 'fs1 == 0 and fe1 == 0x7fe and fm1 == 0xbb2662d13e5e4 and fs2 == 0 and fe2 ==
      0x3fe and fm2 == 0xbb2662d13e5e5 and fcsr == 0x2 and rm_val == 7   #nosat'
    : 1
    ? 'fs1 == 0 and fe1 == 0x7fe and fm1 == 0xbb2662d13e5e4 and fs2 == 0 and fe2 ==
      0x3fe and fm2 == 0xbb2662d13e5e5 and fcsr == 0x22 and rm_val == 7   #nosat'
    : 1
    ? 'fs1 == 0 and fe1 == 0x7fe and fm1 == 0xbb2662d13e5e4 and fs2 == 0 and fe2 ==
      0x3fe and fm2 == 0xbb2662d13e5e5 and fcsr == 0x42 and rm_val == 7   #nosat'
    : 1
    ? 'fs1 == 0 and fe1 == 0x7fe and fm1 == 0xbb2662d13e5e4 and fs2 == 0 and fe2 ==
      0x3fe and fm2 == 0xbb2662d13e5e5 and fcsr == 0x62 and rm_val == 7   #nosat'
    : 1
    ? 'fs1 == 0 and fe1 == 0x7fe and fm1 == 0xbb2662d13e5e4 and fs2 == 0 and fe2 ==
      0x3fe and fm2 == 0xbb2662d13e5e5 and fcsr == 0x82 and rm_val == 7   #nosat'
    : 1
    ? 'fs1 == 0 and fe1 == 0x7fe and fm1 == 0x7009b07ae3d88 and fs2 == 0 and fe2 ==
      0x3fe and fm2 == 0x7009b07ae3d89 and fcsr == 0x2 and rm_val == 7   #nosat'
    : 1
    ? 'fs1 == 0 and fe1 == 0x7fe and fm1 == 0x7009b07ae3d88 and fs2 == 0 and fe2 ==
      0x3fe and fm2 == 0x7009b07ae3d89 and fcsr == 0x22 and rm_val == 7   #nosat'
    : 1
    ? 'fs1 == 0 and fe1 == 0x7fe and fm1 == 0x7009b07ae3d88 and fs2 == 0 and fe2 ==
      0x3fe and fm2 == 0x7009b07ae3d89 and fcsr == 0x42 and rm_val == 7   #nosat'
    : 1
    ? 'fs1 == 0 and fe1 == 0x7fe and fm1 == 0x7009b07ae3d88 and fs2 == 0 and fe2 ==
      0x3fe and fm2 == 0x7009b07ae3d89 and fcsr == 0x62 and rm_val == 7   #nosat'
    : 1
    ? 'fs1 == 0 and fe1 == 0x7fe and fm1 == 0x7009b07ae3d88 and fs2 == 0 and fe2 ==
      0x3fe and fm2 == 0x7009b07ae3d89 and fcsr == 0x82 and rm_val == 7   #nosat'
    : 1
    ? 'fs1 == 0 and fe1 == 0x7fe and fm1 == 0x6da2613270600 and fs2 == 0 and fe2 ==
      0x3fe and fm2 == 0x6da2613270601 and fcsr == 0x2 and rm_val == 7   #nosat'
    : 1
    ? 'fs1 == 0 and fe1 == 0x7fe and fm1 == 0x6da2613270600 and fs2 == 0 and fe2 ==
      0x3fe and fm2 == 0x6da2613270601 and fcsr == 0x22 and rm_val == 7   #nosat'
    : 1
    ? 'fs1 == 0 and fe1 == 0x7fe and fm1 == 0x6da2613270600 and fs2 == 0 and fe2 ==
      0x3fe and fm2 == 0x6da2613270601 and fcsr == 0x42 and rm_val == 7   #nosat'
    : 1
    ? 'fs1 == 0 and fe1 == 0x7fe and fm1 == 0x6da2613270600 and fs2 == 0 and fe2 ==
      0x3fe and fm2 == 0x6da2613270601 and fcsr == 0x62 and rm_val == 7   #nosat'
    : 1
    ? 'fs1 == 0 and fe1 == 0x7fe and fm1 == 0x6da2613270600 and fs2 == 0 and fe2 ==
      0x3fe and fm2 == 0x6da2613270601 and fcsr == 0x82 and rm_val == 7   #nosat'
    : 1
    ? 'fs1 == 0 and fe1 == 0x7fd and fm1 == 0x9471495d333b3 and fs2 == 0 and fe2 ==
      0x3fd and fm2 == 0x9471495d333b5 and fcsr == 0x2 and rm_val == 7   #nosat'
    : 1
    ? 'fs1 == 0 and fe1 == 0x7fd and fm1 == 0x9471495d333b3 and fs2 == 0 and fe2 ==
      0x3fd and fm2 == 0x9471495d333b5 and fcsr == 0x22 and rm_val == 7   #nosat'
    : 1
    ? 'fs1 == 0 and fe1 == 0x7fd and fm1 == 0x9471495d333b3 and fs2 == 0 and fe2 ==
      0x3fd and fm2 == 0x9471495d333b5 and fcsr == 0x42 and rm_val == 7   #nosat'
    : 1
    ? 'fs1 == 0 and fe1 == 0x7fd and fm1 == 0x9471495d333b3 and fs2 == 0 and fe2 ==
      0x3fd and fm2 == 0x9471495d333b5 and fcsr == 0x62 and rm_val == 7   #nosat'
    : 1
    ? 'fs1 == 0 and fe1 == 0x7fd and fm1 == 0x9471495d333b3 and fs2 == 0 and fe2 ==
      0x3fd and fm2 == 0x9471495d333b5 and fcsr == 0x82 and rm_val == 7   #nosat'
    : 1
    ? 'fs1 == 0 and fe1 == 0x7fd and fm1 == 0xc74abdfb676c7 and fs2 == 0 and fe2 ==
      0x3fd and fm2 == 0xc74abdfb676c8 and fcsr == 0x2 and rm_val == 7   #nosat'
    : 1
    ? 'fs1 == 0 and fe1 == 0x7fd and fm1 == 0xc74abdfb676c7 and fs2 == 0 and fe2 ==
      0x3fd and fm2 == 0xc74abdfb676c8 and fcsr == 0x22 and rm_val == 7   #nosat'
    : 1
    ? 'fs1 == 0 and fe1 == 0x7fd and fm1 == 0xc74abdfb676c7 and fs2 == 0 and fe2 ==
      0x3fd and fm2 == 0xc74abdfb676c8 and fcsr == 0x42 and rm_val == 7   #nosat'
    : 1
    ? 'fs1 == 0 and fe1 == 0x7fd and fm1 == 0xc74abdfb676c7 and fs2 == 0 and fe2 ==
      0x3fd and fm2 == 0xc74abdfb676c8 and fcsr == 0x62 and rm_val == 7   #nosat'
    : 1
    ? 'fs1 == 0 and fe1 == 0x7fd and fm1 == 0xc74abdfb676c7 and fs2 == 0 and fe2 ==
      0x3fd and fm2 == 0xc74abdfb676c8 and fcsr == 0x82 and rm_val == 7   #nosat'
    : 1
    ? 'fs1 == 0 and fe1 == 0x7fe and fm1 == 0xc1facf9764ac8 and fs2 == 0 and fe2 ==
      0x3fe and fm2 == 0xc1facf9764aca and fcsr == 0x2 and rm_val == 7   #nosat'
    : 1
    ? 'fs1 == 0 and fe1 == 0x7fe and fm1 == 0xc1facf9764ac8 and fs2 == 0 and fe2 ==
      0x3fe and fm2 == 0xc1facf9764aca and fcsr == 0x22 and rm_val == 7   #nosat'
    : 1
    ? 'fs1 == 0 and fe1 == 0x7fe and fm1 == 0xc1facf9764ac8 and fs2 == 0 and fe2 ==
      0x3fe and fm2 == 0xc1facf9764aca and fcsr == 0x42 and rm_val == 7   #nosat'
    : 1
    ? 'fs1 == 0 and fe1 == 0x7fe and fm1 == 0xc1facf9764ac8 and fs2 == 0 and fe2 ==
      0x3fe and fm2 == 0xc1facf9764aca and fcsr == 0x62 and rm_val == 7   #nosat'
    : 1
    ? 'fs1 == 0 and fe1 == 0x7fe and fm1 == 0xc1facf9764ac8 and fs2 == 0 and fe2 ==
      0x3fe and fm2 == 0xc1facf9764aca and fcsr == 0x82 and rm_val == 7   #nosat'
    : 1
    ? 'fs1 == 0 and fe1 == 0x7fc and fm1 == 0x1676d77eb0adb and fs2 == 0 and fe2 ==
      0x3fc and fm2 == 0x1676d77eb0adc and fcsr == 0x2 and rm_val == 7   #nosat'
    : 1
    ? 'fs1 == 0 and fe1 == 0x7fc and fm1 == 0x1676d77eb0adb and fs2 == 0 and fe2 ==
      0x3fc and fm2 == 0x1676d77eb0adc and fcsr == 0x22 and rm_val == 7   #nosat'
    : 1
    ? 'fs1 == 0 and fe1 == 0x7fc and fm1 == 0x1676d77eb0adb and fs2 == 0 and fe2 ==
      0x3fc and fm2 == 0x1676d77eb0adc and fcsr == 0x42 and rm_val == 7   #nosat'
    : 1
    ? 'fs1 == 0 and fe1 == 0x7fc and fm1 == 0x1676d77eb0adb and fs2 == 0 and fe2 ==
      0x3fc and fm2 == 0x1676d77eb0adc and fcsr == 0x62 and rm_val == 7   #nosat'
    : 1
    ? 'fs1 == 0 and fe1 == 0x7fc and fm1 == 0x1676d77eb0adb and fs2 == 0 and fe2 ==
      0x3fc and fm2 == 0x1676d77eb0adc and fcsr == 0x82 and rm_val == 7   #nosat'
    : 1
    ? 'fs1 == 0 and fe1 == 0x7fe and fm1 == 0xee5369ab02b92 and fs2 == 0 and fe2 ==
      0x3fe and fm2 == 0xee5369ab02b94 and fcsr == 0x2 and rm_val == 7   #nosat'
    : 1
    ? 'fs1 == 0 and fe1 == 0x7fe and fm1 == 0xee5369ab02b92 and fs2 == 0 and fe2 ==
      0x3fe and fm2 == 0xee5369ab02b94 and fcsr == 0x22 and rm_val == 7   #nosat'
    : 1
    ? 'fs1 == 0 and fe1 == 0x7fe and fm1 == 0xee5369ab02b92 and fs2 == 0 and fe2 ==
      0x3fe and fm2 == 0xee5369ab02b94 and fcsr == 0x42 and rm_val == 7   #nosat'
    : 1
    ? 'fs1 == 0 and fe1 == 0x7fe and fm1 == 0xee5369ab02b92 and fs2 == 0 and fe2 ==
      0x3fe and fm2 == 0xee5369ab02b94 and fcsr == 0x62 and rm_val == 7   #nosat'
    : 1
    ? 'fs1 == 0 and fe1 == 0x7fe and fm1 == 0xee5369ab02b92 and fs2 == 0 and fe2 ==
      0x3fe and fm2 == 0xee5369ab02b94 and fcsr == 0x82 and rm_val == 7   #nosat'
    : 1
    ? 'fs1 == 0 and fe1 == 0x7fe and fm1 == 0x40d80b76bc040 and fs2 == 0 and fe2 ==
      0x400 and fm2 == 0x51122ed26efd8 and fcsr == 0x2 and rm_val == 7   #nosat'
    : 1
    ? 'fs1 == 0 and fe1 == 0x7fe and fm1 == 0x40d80b76bc040 and fs2 == 0 and fe2 ==
      0x400 and fm2 == 0x51122ed26efd8 and fcsr == 0x22 and rm_val == 7   #nosat'
    : 1
    ? 'fs1 == 0 and fe1 == 0x7fe and fm1 == 0x40d80b76bc040 and fs2 == 0 and fe2 ==
      0x400 and fm2 == 0x51122ed26efd8 and fcsr == 0x42 and rm_val == 7   #nosat'
    : 1
    ? 'fs1 == 0 and fe1 == 0x7fe and fm1 == 0x40d80b76bc040 and fs2 == 0 and fe2 ==
      0x400 and fm2 == 0x51122ed26efd8 and fcsr == 0x62 and rm_val == 7   #nosat'
    : 1
    ? 'fs1 == 0 and fe1 == 0x7fe and fm1 == 0x40d80b76bc040 and fs2 == 0 and fe2 ==
      0x400 and fm2 == 0x51122ed26efd8 and fcsr == 0x82 and rm_val == 7   #nosat'
    : 1
    ? 'fs1 == 0 and fe1 == 0x7fe and fm1 == 0x03b55a3557b05 and fs2 == 1 and fe2 ==
      0x3fe and fm2 == 0xdd343eb3a6aa7 and fcsr == 0x2 and rm_val == 7   #nosat'
    : 1
    ? 'fs1 == 0 and fe1 == 0x7fe and fm1 == 0x03b55a3557b05 and fs2 == 1 and fe2 ==
      0x3fe and fm2 == 0xdd343eb3a6aa7 and fcsr == 0x22 and rm_val == 7   #nosat'
    : 1
    ? 'fs1 == 0 and fe1 == 0x7fe and fm1 == 0x03b55a3557b05 and fs2 == 1 and fe2 ==
      0x3fe and fm2 == 0xdd343eb3a6aa7 and fcsr == 0x42 and rm_val == 7   #nosat'
    : 1
    ? 'fs1 == 0 and fe1 == 0x7fe and fm1 == 0x03b55a3557b05 and fs2 == 1 and fe2 ==
      0x3fe and fm2 == 0xdd343eb3a6aa7 and fcsr == 0x62 and rm_val == 7   #nosat'
    : 1
    ? 'fs1 == 0 and fe1 == 0x7fe and fm1 == 0x03b55a3557b05 and fs2 == 1 and fe2 ==
      0x3fe and fm2 == 0xdd343eb3a6aa7 and fcsr == 0x82 and rm_val == 7   #nosat'
    : 1
    ? 'fs1 == 0 and fe1 == 0x7fd and fm1 == 0x675514445d7d5 and fs2 == 0 and fe2 ==
      0x3fe and fm2 == 0xe5a4a18c215cc and fcsr == 0x2 and rm_val == 7   #nosat'
    : 1
    ? 'fs1 == 0 and fe1 == 0x7fd and fm1 == 0x675514445d7d5 and fs2 == 0 and fe2 ==
      0x3fe and fm2 == 0xe5a4a18c215cc and fcsr == 0x22 and rm_val == 7   #nosat'
    : 1
    ? 'fs1 == 0 and fe1 == 0x7fd and fm1 == 0x675514445d7d5 and fs2 == 0 and fe2 ==
      0x3fe and fm2 == 0xe5a4a18c215cc and fcsr == 0x42 and rm_val == 7   #nosat'
    : 1
    ? 'fs1 == 0 and fe1 == 0x7fd and fm1 == 0x675514445d7d5 and fs2 == 0 and fe2 ==
      0x3fe and fm2 == 0xe5a4a18c215cc and fcsr == 0x62 and rm_val == 7   #nosat'
    : 1
    ? 'fs1 == 0 and fe1 == 0x7fd and fm1 == 0x675514445d7d5 and fs2 == 0 and fe2 ==
      0x3fe and fm2 == 0xe5a4a18c215cc and fcsr == 0x82 and rm_val == 7   #nosat'
    : 1
    ? 'fs1 == 0 and fe1 == 0x7fe and fm1 == 0x2b230d0edf6b7 and fs2 == 1 and fe2 ==
      0x402 and fm2 == 0x35940f409b3a7 and fcsr == 0x2 and rm_val == 7   #nosat'
    : 1
    ? 'fs1 == 0 and fe1 == 0x7fe and fm1 == 0x2b230d0edf6b7 and fs2 == 1 and fe2 ==
      0x402 and fm2 == 0x35940f409b3a7 and fcsr == 0x22 and rm_val == 7   #nosat'
    : 1
    ? 'fs1 == 0 and fe1 == 0x7fe and fm1 == 0x2b230d0edf6b7 and fs2 == 1 and fe2 ==
      0x402 and fm2 == 0x35940f409b3a7 and fcsr == 0x42 and rm_val == 7   #nosat'
    : 1
    ? 'fs1 == 0 and fe1 == 0x7fe and fm1 == 0x2b230d0edf6b7 and fs2 == 1 and fe2 ==
      0x402 and fm2 == 0x35940f409b3a7 and fcsr == 0x62 and rm_val == 7   #nosat'
    : 1
    ? 'fs1 == 0 and fe1 == 0x7fe and fm1 == 0x2b230d0edf6b7 and fs2 == 1 and fe2 ==
      0x402 and fm2 == 0x35940f409b3a7 and fcsr == 0x82 and rm_val == 7   #nosat'
    : 1
    ? 'fs1 == 0 and fe1 == 0x7fe and fm1 == 0x5d2cc33a9b554 and fs2 == 0 and fe2 ==
      0x402 and fm2 == 0x5cc5dca299a03 and fcsr == 0x2 and rm_val == 7   #nosat'
    : 1
    ? 'fs1 == 0 and fe1 == 0x7fe and fm1 == 0x5d2cc33a9b554 and fs2 == 0 and fe2 ==
      0x402 and fm2 == 0x5cc5dca299a03 and fcsr == 0x22 and rm_val == 7   #nosat'
    : 1
    ? 'fs1 == 0 and fe1 == 0x7fe and fm1 == 0x5d2cc33a9b554 and fs2 == 0 and fe2 ==
      0x402 and fm2 == 0x5cc5dca299a03 and fcsr == 0x42 and rm_val == 7   #nosat'
    : 1
    ? 'fs1 == 0 and fe1 == 0x7fe and fm1 == 0x5d2cc33a9b554 and fs2 == 0 and fe2 ==
      0x402 and fm2 == 0x5cc5dca299a03 and fcsr == 0x62 and rm_val == 7   #nosat'
    : 1
    ? 'fs1 == 0 and fe1 == 0x7fe and fm1 == 0x5d2cc33a9b554 and fs2 == 0 and fe2 ==
      0x402 and fm2 == 0x5cc5dca299a03 and fcsr == 0x82 and rm_val == 7   #nosat'
    : 1
    ? 'fs1 == 0 and fe1 == 0x7fe and fm1 == 0xb67a2291e65ec and fs2 == 1 and fe2 ==
      0x402 and fm2 == 0xa235bc761aff3 and fcsr == 0x2 and rm_val == 7   #nosat'
    : 1
    ? 'fs1 == 0 and fe1 == 0x7fe and fm1 == 0xb67a2291e65ec and fs2 == 1 and fe2 ==
      0x402 and fm2 == 0xa235bc761aff3 and fcsr == 0x22 and rm_val == 7   #nosat'
    : 1
    ? 'fs1 == 0 and fe1 == 0x7fe and fm1 == 0xb67a2291e65ec and fs2 == 1 and fe2 ==
      0x402 and fm2 == 0xa235bc761aff3 and fcsr == 0x42 and rm_val == 7   #nosat'
    : 1
    ? 'fs1 == 0 and fe1 == 0x7fe and fm1 == 0xb67a2291e65ec and fs2 == 1 and fe2 ==
      0x402 and fm2 == 0xa235bc761aff3 and fcsr == 0x62 and rm_val == 7   #nosat'
    : 1
    ? 'fs1 == 0 and fe1 == 0x7fe and fm1 == 0xb67a2291e65ec and fs2 == 1 and fe2 ==
      0x402 and fm2 == 0xa235bc761aff3 and fcsr == 0x82 and rm_val == 7   #nosat'
    : 1
    ? 'fs1 == 0 and fe1 == 0x7fe and fm1 == 0x57b12a6c8424b and fs2 == 0 and fe2 ==
      0x401 and fm2 == 0x4641d0f801954 and fcsr == 0x2 and rm_val == 7   #nosat'
    : 1
    ? 'fs1 == 0 and fe1 == 0x7fe and fm1 == 0x57b12a6c8424b and fs2 == 0 and fe2 ==
      0x401 and fm2 == 0x4641d0f801954 and fcsr == 0x22 and rm_val == 7   #nosat'
    : 1
    ? 'fs1 == 0 and fe1 == 0x7fe and fm1 == 0x57b12a6c8424b and fs2 == 0 and fe2 ==
      0x401 and fm2 == 0x4641d0f801954 and fcsr == 0x42 and rm_val == 7   #nosat'
    : 1
    ? 'fs1 == 0 and fe1 == 0x7fe and fm1 == 0x57b12a6c8424b and fs2 == 0 and fe2 ==
      0x401 and fm2 == 0x4641d0f801954 and fcsr == 0x62 and rm_val == 7   #nosat'
    : 1
    ? 'fs1 == 0 and fe1 == 0x7fe and fm1 == 0x57b12a6c8424b and fs2 == 0 and fe2 ==
      0x401 and fm2 == 0x4641d0f801954 and fcsr == 0x82 and rm_val == 7   #nosat'
    : 1
    ? 'fs1 == 0 and fe1 == 0x7fe and fm1 == 0xb8a57b94e3940 and fs2 == 1 and fe2 ==
      0x402 and fm2 == 0x48da4dd1231eb and fcsr == 0x2 and rm_val == 7   #nosat'
    : 1
    ? 'fs1 == 0 and fe1 == 0x7fe and fm1 == 0xb8a57b94e3940 and fs2 == 1 and fe2 ==
      0x402 and fm2 == 0x48da4dd1231eb and fcsr == 0x22 and rm_val == 7   #nosat'
    : 1
    ? 'fs1 == 0 and fe1 == 0x7fe and fm1 == 0xb8a57b94e3940 and fs2 == 1 and fe2 ==
      0x402 and fm2 == 0x48da4dd1231eb and fcsr == 0x42 and rm_val == 7   #nosat'
    : 1
    ? 'fs1 == 0 and fe1 == 0x7fe and fm1 == 0xb8a57b94e3940 and fs2 == 1 and fe2 ==
      0x402 and fm2 == 0x48da4dd1231eb and fcsr == 0x62 and rm_val == 7   #nosat'
    : 1
    ? 'fs1 == 0 and fe1 == 0x7fe and fm1 == 0xb8a57b94e3940 and fs2 == 1 and fe2 ==
      0x402 and fm2 == 0x48da4dd1231eb and fcsr == 0x82 and rm_val == 7   #nosat'
    : 1
    ? 'fs1 == 0 and fe1 == 0x7fe and fm1 == 0xcf344fe49aeb9 and fs2 == 0 and fe2 ==
      0x3fd and fm2 == 0x6532d1e36a2eb and fcsr == 0x2 and rm_val == 7   #nosat'
    : 1
    ? 'fs1 == 0 and fe1 == 0x7fe and fm1 == 0xcf344fe49aeb9 and fs2 == 0 and fe2 ==
      0x3fd and fm2 == 0x6532d1e36a2eb and fcsr == 0x22 and rm_val == 7   #nosat'
    : 1
    ? 'fs1 == 0 and fe1 == 0x7fe and fm1 == 0xcf344fe49aeb9 and fs2 == 0 and fe2 ==
      0x3fd and fm2 == 0x6532d1e36a2eb and fcsr == 0x42 and rm_val == 7   #nosat'
    : 1
    ? 'fs1 == 0 and fe1 == 0x7fe and fm1 == 0xcf344fe49aeb9 and fs2 == 0 and fe2 ==
      0x3fd and fm2 == 0x6532d1e36a2eb and fcsr == 0x62 and rm_val == 7   #nosat'
    : 1
    ? 'fs1 == 0 and fe1 == 0x7fe and fm1 == 0xcf344fe49aeb9 and fs2 == 0 and fe2 ==
      0x3fd and fm2 == 0x6532d1e36a2eb and fcsr == 0x82 and rm_val == 7   #nosat'
    : 1
    ? 'fs1 == 0 and fe1 == 0x7fe and fm1 == 0x6d796ca9f3e52 and fs2 == 1 and fe2 ==
      0x3fd and fm2 == 0x37ee1635d02ad and fcsr == 0x2 and rm_val == 7   #nosat'
    : 1
    ? 'fs1 == 0 and fe1 == 0x7fe and fm1 == 0x6d796ca9f3e52 and fs2 == 1 and fe2 ==
      0x3fd and fm2 == 0x37ee1635d02ad and fcsr == 0x22 and rm_val == 7   #nosat'
    : 1
    ? 'fs1 == 0 and fe1 == 0x7fe and fm1 == 0x6d796ca9f3e52 and fs2 == 1 and fe2 ==
      0x3fd and fm2 == 0x37ee1635d02ad and fcsr == 0x42 and rm_val == 7   #nosat'
    : 1
    ? 'fs1 == 0 and fe1 == 0x7fe and fm1 == 0x6d796ca9f3e52 and fs2 == 1 and fe2 ==
      0x3fd and fm2 == 0x37ee1635d02ad and fcsr == 0x62 and rm_val == 7   #nosat'
    : 1
    ? 'fs1 == 0 and fe1 == 0x7fe and fm1 == 0x6d796ca9f3e52 and fs2 == 1 and fe2 ==
      0x3fd and fm2 == 0x37ee1635d02ad and fcsr == 0x82 and rm_val == 7   #nosat'
    : 1
    ? 'fs1 == 0 and fe1 == 0x7fe and fm1 == 0xa9c883bf3c926 and fs2 == 0 and fe2 ==
      0x3fe and fm2 == 0xaba54e6a92610 and fcsr == 0x2 and rm_val == 7   #nosat'
    : 1
    ? 'fs1 == 0 and fe1 == 0x7fe and fm1 == 0xa9c883bf3c926 and fs2 == 0 and fe2 ==
      0x3fe and fm2 == 0xaba54e6a92610 and fcsr == 0x22 and rm_val == 7   #nosat'
    : 1
    ? 'fs1 == 0 and fe1 == 0x7fe and fm1 == 0xa9c883bf3c926 and fs2 == 0 and fe2 ==
      0x3fe and fm2 == 0xaba54e6a92610 and fcsr == 0x42 and rm_val == 7   #nosat'
    : 1
    ? 'fs1 == 0 and fe1 == 0x7fe and fm1 == 0xa9c883bf3c926 and fs2 == 0 and fe2 ==
      0x3fe and fm2 == 0xaba54e6a92610 and fcsr == 0x62 and rm_val == 7   #nosat'
    : 1
    ? 'fs1 == 0 and fe1 == 0x7fe and fm1 == 0xa9c883bf3c926 and fs2 == 0 and fe2 ==
      0x3fe and fm2 == 0xaba54e6a92610 and fcsr == 0x82 and rm_val == 7   #nosat'
    : 1
    ? 'fs1 == 0 and fe1 == 0x7fd and fm1 == 0x23cbe38fed7af and fs2 == 1 and fe2 ==
      0x3fa and fm2 == 0xf0658023805a7 and fcsr == 0x2 and rm_val == 7   #nosat'
    : 1
    ? 'fs1 == 0 and fe1 == 0x7fd and fm1 == 0x23cbe38fed7af and fs2 == 1 and fe2 ==
      0x3fa and fm2 == 0xf0658023805a7 and fcsr == 0x22 and rm_val == 7   #nosat'
    : 1
    ? 'fs1 == 0 and fe1 == 0x7fd and fm1 == 0x23cbe38fed7af and fs2 == 1 and fe2 ==
      0x3fa and fm2 == 0xf0658023805a7 and fcsr == 0x42 and rm_val == 7   #nosat'
    : 1
    ? 'fs1 == 0 and fe1 == 0x7fd and fm1 == 0x23cbe38fed7af and fs2 == 1 and fe2 ==
      0x3fa and fm2 == 0xf0658023805a7 and fcsr == 0x62 and rm_val == 7   #nosat'
    : 1
    ? 'fs1 == 0 and fe1 == 0x7fd and fm1 == 0x23cbe38fed7af and fs2 == 1 and fe2 ==
      0x3fa and fm2 == 0xf0658023805a7 and fcsr == 0x82 and rm_val == 7   #nosat'
    : 1
    ? 'fs1 == 0 and fe1 == 0x7fe and fm1 == 0xb537f328e16b0 and fs2 == 0 and fe2 ==
      0x3ff and fm2 == 0x05599f9cea6c5 and fcsr == 0x2 and rm_val == 7   #nosat'
    : 1
    ? 'fs1 == 0 and fe1 == 0x7fe and fm1 == 0xb537f328e16b0 and fs2 == 0 and fe2 ==
      0x3ff and fm2 == 0x05599f9cea6c5 and fcsr == 0x22 and rm_val == 7   #nosat'
    : 1
    ? 'fs1 == 0 and fe1 == 0x7fe and fm1 == 0xb537f328e16b0 and fs2 == 0 and fe2 ==
      0x3ff and fm2 == 0x05599f9cea6c5 and fcsr == 0x42 and rm_val == 7   #nosat'
    : 1
    ? 'fs1 == 0 and fe1 == 0x7fe and fm1 == 0xb537f328e16b0 and fs2 == 0 and fe2 ==
      0x3ff and fm2 == 0x05599f9cea6c5 and fcsr == 0x62 and rm_val == 7   #nosat'
    : 1
    ? 'fs1 == 0 and fe1 == 0x7fe and fm1 == 0xb537f328e16b0 and fs2 == 0 and fe2 ==
      0x3ff and fm2 == 0x05599f9cea6c5 and fcsr == 0x82 and rm_val == 7   #nosat'
    : 1
    ? 'fs1 == 0 and fe1 == 0x7fb and fm1 == 0x6a91f2b02b477 and fs2 == 1 and fe2 ==
      0x3f9 and fm2 == 0x307470eb37ae6 and fcsr == 0x2 and rm_val == 7   #nosat'
    : 1
    ? 'fs1 == 0 and fe1 == 0x7fb and fm1 == 0x6a91f2b02b477 and fs2 == 1 and fe2 ==
      0x3f9 and fm2 == 0x307470eb37ae6 and fcsr == 0x22 and rm_val == 7   #nosat'
    : 1
    ? 'fs1 == 0 and fe1 == 0x7fb and fm1 == 0x6a91f2b02b477 and fs2 == 1 and fe2 ==
      0x3f9 and fm2 == 0x307470eb37ae6 and fcsr == 0x42 and rm_val == 7   #nosat'
    : 1
    ? 'fs1 == 0 and fe1 == 0x7fb and fm1 == 0x6a91f2b02b477 and fs2 == 1 and fe2 ==
      0x3f9 and fm2 == 0x307470eb37ae6 and fcsr == 0x62 and rm_val == 7   #nosat'
    : 1
    ? 'fs1 == 0 and fe1 == 0x7fb and fm1 == 0x6a91f2b02b477 and fs2 == 1 and fe2 ==
      0x3f9 and fm2 == 0x307470eb37ae6 and fcsr == 0x82 and rm_val == 7   #nosat'
    : 1
    coverage: 140/140
  total_coverage: 191/191
