---
fadd_b2:
  config:
  - check ISA:=regex(.*I.*F.*)
  op_comb:
    rs1 != rs2  and rs1 != rd and rs2 != rd: 274
    rs1 == rd != rs2: 1
    rs1 == rs2 != rd: 1
    rs1 == rs2 == rd: 1
    rs2 == rd != rs1: 1
    coverage: 5/5
  opcode:
    fadd.s: 278
    coverage: 1/1
  rd:
    f0: 1
    f1: 1
    f10: 1
    f11: 1
    f12: 1
    f13: 1
    f14: 1
    f15: 1
    f16: 1
    f17: 1
    f18: 1
    f19: 1
    f2: 1
    f20: 1
    f21: 1
    f22: 1
    f23: 1
    f24: 1
    f25: 1
    f26: 1
    f27: 1
    f28: 1
    f29: 1
    f3: 1
    f30: 1
    f31: 247
    f4: 1
    f5: 1
    f6: 1
    f7: 1
    f8: 1
    f9: 1
    coverage: 32/32
  rs1:
    f0: 1
    f1: 1
    f10: 1
    f11: 1
    f12: 1
    f13: 1
    f14: 1
    f15: 1
    f16: 1
    f17: 1
    f18: 1
    f19: 1
    f2: 1
    f20: 1
    f21: 1
    f22: 1
    f23: 1
    f24: 1
    f25: 1
    f26: 1
    f27: 1
    f28: 1
    f29: 1
    f3: 1
    f30: 247
    f31: 1
    f4: 1
    f5: 1
    f6: 1
    f7: 1
    f8: 1
    f9: 1
    coverage: 32/32
  rs2:
    f0: 1
    f1: 1
    f10: 1
    f11: 1
    f12: 1
    f13: 1
    f14: 1
    f15: 1
    f16: 1
    f17: 1
    f18: 1
    f19: 1
    f2: 1
    f20: 1
    f21: 1
    f22: 1
    f23: 1
    f24: 1
    f25: 1
    f26: 1
    f27: 1
    f28: 1
    f29: 247
    f3: 1
    f30: 1
    f31: 1
    f4: 1
    f5: 1
    f6: 1
    f7: 1
    f8: 1
    f9: 1
    coverage: 32/32
  val_comb:
    'fs1 == 0 and fe1 == 0x00 and fm1 == 0x000032 and fs2 == 1 and fe2 == 0x00 and fm2 == 0x000031 and rm_val == 0  #nosat': 1  #  rs1_val==fsubnorm(0x00000032) and rs2_val==fsubnorm(0x80000031) | Result = fzero(0x00000000)^0x000001
    'fs1 == 0 and fe1 == 0xfe and fm1 == 0x000031 and fs2 == 1 and fe2 == 0xff and fm2 == 0x000000 and rm_val == 0  #nosat': 1 #  rs1_val==fnorm(0x7f000031) and rs2_val==finfinity(0xFF800000) | Result = fmaxnorm(0xff7fffff)^0x400000
    'fs1 == 0 and fe1 == 0xfe and fm1 == 0x00004e and fs2 == 1 and fe2 == 0xff and fm2 == 0x000000 and rm_val == 0  #nosat': 1 #  rs1_val==fnorm(0x7f00004e) and rs2_val==finfinity(0xFF800000) | Result = fmaxnorm(0xff7fffff)^0x200000
    'fs1 == 0 and fe1 == 0xfe and fm1 == 0x000013 and fs2 == 1 and fe2 == 0xff and fm2 == 0x000000 and rm_val == 0  #nosat': 1 #  rs1_val==fnorm(0x7f000013) and rs2_val==finfinity(0xFF800000) | Result = fmaxnorm(0xff7fffff)^0x100000
    'fs1 == 0 and fe1 == 0xfe and fm1 == 0x000005 and fs2 == 1 and fe2 == 0xff and fm2 == 0x000000 and rm_val == 0  #nosat': 2 #  rs1_val==fnorm(0x7f000005) and rs2_val==finfinity(0xFF800000) | Result = fmaxnorm(0xff7fffff)^0x080000
    'fs1 == 0 and fe1 == 0xfe and fm1 == 0x000029 and fs2 == 1 and fe2 == 0xff and fm2 == 0x000000 and rm_val == 0  #nosat': 1 #  rs1_val==fnorm(0x7f000029) and rs2_val==finfinity(0xFF800000) | Result = fmaxnorm(0xff7fffff)^0x040000
    'fs1 == 0 and fe1 == 0xfe and fm1 == 0x00005b and fs2 == 1 and fe2 == 0xff and fm2 == 0x000000 and rm_val == 0  #nosat': 1 #  rs1_val==fnorm(0x7f00005b) and rs2_val==finfinity(0xFF800000) | Result = fmaxnorm(0xff7fffff)^0x020000
    'fs1 == 0 and fe1 == 0xfe and fm1 == 0x000002 and fs2 == 1 and fe2 == 0xff and fm2 == 0x000000 and rm_val == 0  #nosat': 1 #  rs1_val==fnorm(0x7f000002) and rs2_val==finfinity(0xFF800000) | Result = fmaxnorm(0xff7fffff)^0x010000
    'fs1 == 0 and fe1 == 0xfe and fm1 == 0x00004f and fs2 == 1 and fe2 == 0xff and fm2 == 0x000000 and rm_val == 0  #nosat': 1 #  rs1_val==fnorm(0x7f00004f) and rs2_val==finfinity(0xFF800000) | Result = fmaxnorm(0xff7fffff)^0x008000
    'fs1 == 0 and fe1 == 0xfe and fm1 == 0x00001a and fs2 == 1 and fe2 == 0xff and fm2 == 0x000000 and rm_val == 0  #nosat': 1 #  rs1_val==fnorm(0x7f00001a) and rs2_val==finfinity(0xFF800000) | Result = fmaxnorm(0xff7fffff)^0x004000
    'fs1 == 0 and fe1 == 0xfe and fm1 == 0x000052 and fs2 == 1 and fe2 == 0xff and fm2 == 0x000000 and rm_val == 0  #nosat': 1 #  rs1_val==fnorm(0x7f000052) and rs2_val==finfinity(0xFF800000) | Result = fmaxnorm(0xff7fffff)^0x002000
    'fs1 == 0 and fe1 == 0xfe and fm1 == 0x000040 and fs2 == 1 and fe2 == 0xff and fm2 == 0x000000 and rm_val == 0  #nosat': 1 #  rs1_val==fnorm(0x7f000040) and rs2_val==finfinity(0xFF800000) | Result = fmaxnorm(0xff7fffff)^0x001000
    'fs1 == 0 and fe1 == 0xfe and fm1 == 0x000057 and fs2 == 1 and fe2 == 0xff and fm2 == 0x000000 and rm_val == 0  #nosat': 1 #  rs1_val==fnorm(0x7f000057) and rs2_val==finfinity(0xFF800000) | Result = fmaxnorm(0xff7fffff)^0x000800
    'fs1 == 0 and fe1 == 0xfe and fm1 == 0x000043 and fs2 == 1 and fe2 == 0xff and fm2 == 0x000000 and rm_val == 0  #nosat': 1 #  rs1_val==fnorm(0x7f000043) and rs2_val==finfinity(0xFF800000) | Result = fmaxnorm(0xff7fffff)^0x000400
    'fs1 == 0 and fe1 == 0xfe and fm1 == 0x000058 and fs2 == 1 and fe2 == 0xff and fm2 == 0x000000 and rm_val == 0  #nosat': 1 #  rs1_val==fnorm(0x7f000058) and rs2_val==finfinity(0xFF800000) | Result = fmaxnorm(0xff7fffff)^0x000200
    'fs1 == 0 and fe1 == 0xfe and fm1 == 0x000034 and fs2 == 1 and fe2 == 0xff and fm2 == 0x000000 and rm_val == 0  #nosat': 1 #  rs1_val==fnorm(0x7f000034) and rs2_val==finfinity(0xFF800000) | Result = fmaxnorm(0xff7fffff)^0x000100
    'fs1 == 0 and fe1 == 0xfe and fm1 == 0x00004d and fs2 == 1 and fe2 == 0xff and fm2 == 0x000000 and rm_val == 0  #nosat': 1 #  rs1_val==fnorm(0x7f00004d) and rs2_val==finfinity(0xFF800000) | Result = fmaxnorm(0xff7fffff)^0x000040
    'fs1 == 0 and fe1 == 0xfe and fm1 == 0x000014 and fs2 == 1 and fe2 == 0xff and fm2 == 0x000000 and rm_val == 0  #nosat': 1 #  rs1_val==fnorm(0x7f000014) and rs2_val==finfinity(0xFF800000) | Result = fmaxnorm(0xff7fffff)^0x000020
    'fs1 == 0 and fe1 == 0xfe and fm1 == 0x00002f and fs2 == 1 and fe2 == 0xff and fm2 == 0x000000 and rm_val == 0  #nosat': 1 #  rs1_val==fnorm(0x7f00002f) and rs2_val==finfinity(0xFF800000) | Result = fmaxnorm(0xff7fffff)^0x000010
    'fs1 == 0 and fe1 == 0xfe and fm1 == 0x00003b and fs2 == 1 and fe2 == 0xff and fm2 == 0x000000 and rm_val == 0  #nosat': 1 #  rs1_val==fnorm(0x7f00003b) and rs2_val==finfinity(0xFF800000) | Result = fmaxnorm(0xff7fffff)^0x000008
    'fs1 == 0 and fe1 == 0xfe and fm1 == 0x00000e and fs2 == 1 and fe2 == 0xff and fm2 == 0x000000 and rm_val == 0  #nosat': 1 #  rs1_val==fnorm(0x7f00000e) and rs2_val==finfinity(0xFF800000) | Result = fmaxnorm(0xff7fffff)^0x000004
    'fs1 == 0 and fe1 == 0xfe and fm1 == 0x000050 and fs2 == 1 and fe2 == 0xff and fm2 == 0x000000 and rm_val == 0  #nosat': 1 #  rs1_val==fnorm(0x7f000050) and rs2_val==finfinity(0xFF800000) | Result = fmaxnorm(0xff7fffff)^0x000002
    'fs1 == 0 and fe1 == 0xfe and fm1 == 0x000006 and fs2 == 1 and fe2 == 0xff and fm2 == 0x000000 and rm_val == 0  #nosat': 1 #  rs1_val==fnorm(0x7f000006) and rs2_val==finfinity(0xFF800000) | Result = fmaxnorm(0xff7fffff)^0x000001
    'fs1 == 0 and fe1 == 0xfe and fm1 == 0x00001b and fs2 == 0 and fe2 == 0xfc and fm2 == 0x7fff90 and rm_val == 0  #nosat': 1 #  rs1_val==fnorm(0x7f00001b) and rs2_val==fnorm(0x7e7fff90) | Result = fmaxnorm(0x7f7fffff)^0x400000
    'fs1 == 0 and fe1 == 0xfe and fm1 == 0x000033 and fs2 == 0 and fe2 == 0xfd and fm2 == 0x3fff98 and rm_val == 0  #nosat': 1 #  rs1_val==fnorm(0x7f000033) and rs2_val==fnorm(0x7ebfff98) | Result = fmaxnorm(0x7f7fffff)^0x200000
    'fs1 == 0 and fe1 == 0xfe and fm1 == 0x000010 and fs2 == 0 and fe2 == 0xfd and fm2 == 0x5fffde and rm_val == 0  #nosat': 1 #  rs1_val==fnorm(0x7f000010) and rs2_val==fnorm(0x7edfffde) | Result = fmaxnorm(0x7f7fffff)^0x100000
    'fs1 == 0 and fe1 == 0xfe and fm1 == 0x000057 and fs2 == 0 and fe2 == 0xfd and fm2 == 0x6fff50 and rm_val == 0  #nosat': 1 #  rs1_val==fnorm(0x7f000057) and rs2_val==fnorm(0x7eefff50) | Result = fmaxnorm(0x7f7fffff)^0x080000
    'fs1 == 0 and fe1 == 0xfe and fm1 == 0x00003a and fs2 == 0 and fe2 == 0xfd and fm2 == 0x77ff8a and rm_val == 0  #nosat': 1 #  rs1_val==fnorm(0x7f00003a) and rs2_val==fnorm(0x7ef7ff8a) | Result = fmaxnorm(0x7f7fffff)^0x040000
    'fs1 == 0 and fe1 == 0xfe and fm1 == 0x000004 and fs2 == 0 and fe2 == 0xfd and fm2 == 0x7bfff6 and rm_val == 0  #nosat': 1 #  rs1_val==fnorm(0x7f000004) and rs2_val==fnorm(0x7efbfff6) | Result = fmaxnorm(0x7f7fffff)^0x020000
    'fs1 == 0 and fe1 == 0xfe and fm1 == 0x000009 and fs2 == 0 and fe2 == 0xfd and fm2 == 0x7dffec and rm_val == 0  #nosat': 1 #  rs1_val==fnorm(0x7f000009) and rs2_val==fnorm(0x7efdffec) | Result = fmaxnorm(0x7f7fffff)^0x010000
    'fs1 == 0 and fe1 == 0xfe and fm1 == 0x00002e and fs2 == 0 and fe2 == 0xfd and fm2 == 0x7effa2 and rm_val == 0  #nosat': 1 #  rs1_val==fnorm(0x7f00002e) and rs2_val==fnorm(0x7efeffa2) | Result = fmaxnorm(0x7f7fffff)^0x008000
    'fs1 == 0 and fe1 == 0xfe and fm1 == 0x000038 and fs2 == 0 and fe2 == 0xfd and fm2 == 0x7f7f8e and rm_val == 0  #nosat': 1 #  rs1_val==fnorm(0x7f000038) and rs2_val==fnorm(0x7eff7f8e) | Result = fmaxnorm(0x7f7fffff)^0x004000
    'fs1 == 0 and fe1 == 0xfe and fm1 == 0x00004b and fs2 == 0 and fe2 == 0xfd and fm2 == 0x7fbf68 and rm_val == 0  #nosat': 1 #  rs1_val==fnorm(0x7f00004b) and rs2_val==fnorm(0x7effbf68) | Result = fmaxnorm(0x7f7fffff)^0x002000
    'fs1 == 0 and fe1 == 0xfe and fm1 == 0x00001d and fs2 == 0 and fe2 == 0xfd and fm2 == 0x7fdfc4 and rm_val == 0  #nosat': 1 #  rs1_val==fnorm(0x7f00001d) and rs2_val==fnorm(0x7effdfc4) | Result = fmaxnorm(0x7f7fffff)^0x001000
    'fs1 == 0 and fe1 == 0xfe and fm1 == 0x00000b and fs2 == 0 and fe2 == 0xfd and fm2 == 0x7fefe8 and rm_val == 0  #nosat': 1 #  rs1_val==fnorm(0x7f00000b) and rs2_val==fnorm(0x7effefe8) | Result = fmaxnorm(0x7f7fffff)^0x000800
    'fs1 == 0 and fe1 == 0xfe and fm1 == 0x00001c and fs2 == 0 and fe2 == 0xfd and fm2 == 0x7ff7c6 and rm_val == 0  #nosat': 1 #  rs1_val==fnorm(0x7f00001c) and rs2_val==fnorm(0x7efff7c6) | Result = fmaxnorm(0x7f7fffff)^0x000400
    'fs1 == 0 and fe1 == 0xfe and fm1 == 0x00005c and fs2 == 0 and fe2 == 0xfd and fm2 == 0x7ffb46 and rm_val == 0  #nosat': 1 #  rs1_val==fnorm(0x7f00005c) and rs2_val==fnorm(0x7efffb46) | Result = fmaxnorm(0x7f7fffff)^0x000200
    'fs1 == 0 and fe1 == 0xfe and fm1 == 0x00003f and fs2 == 0 and fe2 == 0xfd and fm2 == 0x7ffd80 and rm_val == 0  #nosat': 1 #  rs1_val==fnorm(0x7f00003f) and rs2_val==fnorm(0x7efffd80) | Result = fmaxnorm(0x7f7fffff)^0x000100
    'fs1 == 0 and fe1 == 0xfe and fm1 == 0x000026 and fs2 == 0 and fe2 == 0xfd and fm2 == 0x7ffeb2 and rm_val == 0  #nosat': 1 #  rs1_val==fnorm(0x7f000026) and rs2_val==fnorm(0x7efffeb2) | Result = fmaxnorm(0x7f7fffff)^0x000080
    'fs1 == 0 and fe1 == 0xfe and fm1 == 0x000048 and fs2 == 0 and fe2 == 0xfd and fm2 == 0x7ffeee and rm_val == 0  #nosat': 1 #  rs1_val==fnorm(0x7f000048) and rs2_val==fnorm(0x7efffeee) | Result = fmaxnorm(0x7f7fffff)^0x000040
    'fs1 == 0 and fe1 == 0xfe and fm1 == 0x00000d and fs2 == 0 and fe2 == 0xfd and fm2 == 0x7fffa4 and rm_val == 0  #nosat': 1 #  rs1_val==fnorm(0x7f00000d) and rs2_val==fnorm(0x7effffa4) | Result = fmaxnorm(0x7f7fffff)^0x000020
    'fs1 == 0 and fe1 == 0xfe and fm1 == 0x000032 and fs2 == 0 and fe2 == 0xfd and fm2 == 0x7fff7a and rm_val == 0  #nosat': 1 #  rs1_val==fnorm(0x7f000032) and rs2_val==fnorm(0x7effff7a) | Result = fmaxnorm(0x7f7fffff)^0x000010
    'fs1 == 0 and fe1 == 0xfe and fm1 == 0x00001d and fs2 == 0 and fe2 == 0xfd and fm2 == 0x7fffb4 and rm_val == 0  #nosat': 1 #  rs1_val==fnorm(0x7f00001d) and rs2_val==fnorm(0x7effffb4) | Result = fmaxnorm(0x7f7fffff)^0x000008
    'fs1 == 0 and fe1 == 0xfe and fm1 == 0x00001a and fs2 == 0 and fe2 == 0xfd and fm2 == 0x7fffc2 and rm_val == 0  #nosat': 1 #  rs1_val==fnorm(0x7f00001a) and rs2_val==fnorm(0x7effffc2) | Result = fmaxnorm(0x7f7fffff)^0x000004
    'fs1 == 0 and fe1 == 0xfe and fm1 == 0x000009 and fs2 == 0 and fe2 == 0xfd and fm2 == 0x7fffe8 and rm_val == 0  #nosat': 1 #  rs1_val==fnorm(0x7f000009) and rs2_val==fnorm(0x7effffe8) | Result = fmaxnorm(0x7f7fffff)^0x000002
    'fs1 == 0 and fe1 == 0xfe and fm1 == 0x000052 and fs2 == 0 and fe2 == 0xfd and fm2 == 0x7fff58 and rm_val == 0  #nosat': 1 #  rs1_val==fnorm(0x7f000052) and rs2_val==fnorm(0x7effff58) | Result = fmaxnorm(0x7f7fffff)^0x000001
    'fs1 == 0 and fe1 == 0x01 and fm1 == 0x000049 and fs2 == 1 and fe2 == 0x02 and fm2 == 0x200024 and rm_val == 0  #nosat': 1 #  rs1_val==fnorm(0x00800049) and rs2_val==fnorm(0x81200024) | Result = fminnorm(0x80800000)^0x400000
    'fs1 == 0 and fe1 == 0x01 and fm1 == 0x000016 and fs2 == 1 and fe2 == 0x02 and fm2 == 0x10000b and rm_val == 0  #nosat': 1 #  rs1_val==fnorm(0x00800016) and rs2_val==fnorm(0x8110000b) | Result = fminnorm(0x80800000)^0x200000
    'fs1 == 0 and fe1 == 0x01 and fm1 == 0x000058 and fs2 == 1 and fe2 == 0x02 and fm2 == 0x08002c and rm_val == 0  #nosat': 1 #  rs1_val==fnorm(0x00800058) and rs2_val==fnorm(0x8108002c) | Result = fminnorm(0x80800000)^0x100000
    'fs1 == 0 and fe1 == 0x01 and fm1 == 0x00002b and fs2 == 1 and fe2 == 0x02 and fm2 == 0x040016 and rm_val == 0  #nosat': 1 #  rs1_val==fnorm(0x0080002b) and rs2_val==fnorm(0x81040016) | Result = fminnorm(0x80800000)^0x080000
    'fs1 == 0 and fe1 == 0x01 and fm1 == 0x000005 and fs2 == 1 and fe2 == 0x02 and fm2 == 0x020002 and rm_val == 0  #nosat': 1 #  rs1_val==fnorm(0x00800005) and rs2_val==fnorm(0x81020002) | Result = fminnorm(0x80800000)^0x040000
    'fs1 == 0 and fe1 == 0x01 and fm1 == 0x000040 and fs2 == 1 and fe2 == 0x02 and fm2 == 0x010020 and rm_val == 0  #nosat': 1 #  rs1_val==fnorm(0x00800040) and rs2_val==fnorm(0x81010020) | Result = fminnorm(0x80800000)^0x020000
    'fs1 == 0 and fe1 == 0x01 and fm1 == 0x00000f and fs2 == 1 and fe2 == 0x02 and fm2 == 0x008008 and rm_val == 0  #nosat': 1 #  rs1_val==fnorm(0x0080000f) and rs2_val==fnorm(0x81008008) | Result = fminnorm(0x80800000)^0x010000
    'fs1 == 0 and fe1 == 0x01 and fm1 == 0x000010 and fs2 == 1 and fe2 == 0x02 and fm2 == 0x004008 and rm_val == 0  #nosat': 1 #  rs1_val==fnorm(0x00800010) and rs2_val==fnorm(0x81004008) | Result = fminnorm(0x80800000)^0x008000
    'fs1 == 0 and fe1 == 0x01 and fm1 == 0x00002c and fs2 == 1 and fe2 == 0x02 and fm2 == 0x002016 and rm_val == 0  #nosat': 1 #  rs1_val==fnorm(0x0080002c) and rs2_val==fnorm(0x81002016) | Result = fminnorm(0x80800000)^0x004000
    'fs1 == 0 and fe1 == 0x01 and fm1 == 0x00003e and fs2 == 1 and fe2 == 0x02 and fm2 == 0x00101f and rm_val == 0  #nosat': 1 #  rs1_val==fnorm(0x0080003e) and rs2_val==fnorm(0x8100101f) | Result = fminnorm(0x80800000)^0x002000
    'fs1 == 0 and fe1 == 0x01 and fm1 == 0x00000d and fs2 == 1 and fe2 == 0x02 and fm2 == 0x000806 and rm_val == 0  #nosat': 1 #  rs1_val==fnorm(0x0080000d) and rs2_val==fnorm(0x81000806) | Result = fminnorm(0x80800000)^0x001000
    'fs1 == 0 and fe1 == 0x01 and fm1 == 0x000036 and fs2 == 1 and fe2 == 0x02 and fm2 == 0x00041b and rm_val == 0  #nosat': 1 #  rs1_val==fnorm(0x00800036) and rs2_val==fnorm(0x8100041b) | Result = fminnorm(0x80800000)^0x000800
    'fs1 == 0 and fe1 == 0x01 and fm1 == 0x00002b and fs2 == 1 and fe2 == 0x02 and fm2 == 0x000216 and rm_val == 0  #nosat': 1 #  rs1_val==fnorm(0x0080002b) and rs2_val==fnorm(0x81000216) | Result = fminnorm(0x80800000)^0x000400
    'fs1 == 0 and fe1 == 0x01 and fm1 == 0x000027 and fs2 == 1 and fe2 == 0x02 and fm2 == 0x000114 and rm_val == 0  #nosat': 1 #  rs1_val==fnorm(0x00800027) and rs2_val==fnorm(0x81000114) | Result = fminnorm(0x80800000)^0x000200
    'fs1 == 0 and fe1 == 0x01 and fm1 == 0x00005e and fs2 == 1 and fe2 == 0x02 and fm2 == 0x0000af and rm_val == 0  #nosat': 1 #  rs1_val==fnorm(0x0080005e) and rs2_val==fnorm(0x810000af) | Result = fminnorm(0x80800000)^0x000100
    'fs1 == 0 and fe1 == 0x01 and fm1 == 0x000017 and fs2 == 1 and fe2 == 0x02 and fm2 == 0x00004c and rm_val == 0  #nosat': 1 #  rs1_val==fnorm(0x00800017) and rs2_val==fnorm(0x8100004c) | Result = fminnorm(0x80800000)^0x000080
    'fs1 == 0 and fe1 == 0x01 and fm1 == 0x000007 and fs2 == 1 and fe2 == 0x02 and fm2 == 0x000024 and rm_val == 0  #nosat': 1 #  rs1_val==fnorm(0x00800007) and rs2_val==fnorm(0x81000024) | Result = fminnorm(0x80800000)^0x000040
    'fs1 == 0 and fe1 == 0x01 and fm1 == 0x00005e and fs2 == 1 and fe2 == 0x02 and fm2 == 0x00003f and rm_val == 0  #nosat': 1 #  rs1_val==fnorm(0x0080005e) and rs2_val==fnorm(0x8100003f) | Result = fminnorm(0x80800000)^0x000020
    'fs1 == 0 and fe1 == 0x01 and fm1 == 0x00000f and fs2 == 1 and fe2 == 0x02 and fm2 == 0x000010 and rm_val == 0  #nosat': 1 #  rs1_val==fnorm(0x0080000f) and rs2_val==fnorm(0x81000010) | Result = fminnorm(0x80800000)^0x000010
    'fs1 == 0 and fe1 == 0x01 and fm1 == 0x000011 and fs2 == 1 and fe2 == 0x02 and fm2 == 0x00000c and rm_val == 0  #nosat': 1 #  rs1_val==fnorm(0x00800011) and rs2_val==fnorm(0x8100000c) | Result = fminnorm(0x80800000)^0x000008
    'fs1 == 0 and fe1 == 0x01 and fm1 == 0x000033 and fs2 == 1 and fe2 == 0x02 and fm2 == 0x00001c and rm_val == 0  #nosat': 1 #  rs1_val==fnorm(0x00800033) and rs2_val==fnorm(0x8100001c) | Result = fminnorm(0x80800000)^0x000004
    'fs1 == 0 and fe1 == 0x01 and fm1 == 0x000026 and fs2 == 1 and fe2 == 0x02 and fm2 == 0x000014 and rm_val == 0  #nosat': 1 #  rs1_val==fnorm(0x00800026) and rs2_val==fnorm(0x81000014) | Result = fminnorm(0x80800000)^0x000002
    'fs1 == 0 and fe1 == 0x01 and fm1 == 0x000014 and fs2 == 1 and fe2 == 0x02 and fm2 == 0x00000a and rm_val == 0  #nosat': 1 #  rs1_val==fnorm(0x00800014) and rs2_val==fnorm(0x8100000a) | Result = fminnorm(0x80800000)^0x000001
    'fs1 == 0 and fe1 == 0x01 and fm1 == 0x000023 and fs2 == 0 and fe2 == 0x00 and fm2 == 0x3fffdd and rm_val == 0  #nosat': 1 #  rs1_val==fnorm(0x00800023) and rs2_val==fsubnorm(0x003fffdd) | Result = fminnorm(0x00800000)^0x400000
    'fs1 == 0 and fe1 == 0x01 and fm1 == 0x000005 and fs2 == 0 and fe2 == 0x00 and fm2 == 0x1ffffb and rm_val == 0  #nosat': 1 #  rs1_val==fnorm(0x00800005) and rs2_val==fsubnorm(0x001ffffb) | Result = fminnorm(0x00800000)^0x200000
    'fs1 == 0 and fe1 == 0x01 and fm1 == 0x00002c and fs2 == 0 and fe2 == 0x00 and fm2 == 0x0fffd4 and rm_val == 0  #nosat': 1 #  rs1_val==fnorm(0x0080002c) and rs2_val==fsubnorm(0x000fffd4) | Result = fminnorm(0x00800000)^0x100000
    'fs1 == 0 and fe1 == 0x01 and fm1 == 0x00005c and fs2 == 0 and fe2 == 0x00 and fm2 == 0x07ffa4 and rm_val == 0  #nosat': 1 #  rs1_val==fnorm(0x0080005c) and rs2_val==fsubnorm(0x0007ffa4) | Result = fminnorm(0x00800000)^0x080000
    'fs1 == 0 and fe1 == 0x01 and fm1 == 0x00002c and fs2 == 0 and fe2 == 0x00 and fm2 == 0x03ffd4 and rm_val == 0  #nosat': 1 #  rs1_val==fnorm(0x0080002c) and rs2_val==fsubnorm(0x0003ffd4) | Result = fminnorm(0x00800000)^0x040000
    'fs1 == 0 and fe1 == 0x01 and fm1 == 0x000023 and fs2 == 0 and fe2 == 0x00 and fm2 == 0x01ffdd and rm_val == 0  #nosat': 1 #  rs1_val==fnorm(0x00800023) and rs2_val==fsubnorm(0x0001ffdd) | Result = fminnorm(0x00800000)^0x020000
    'fs1 == 0 and fe1 == 0x01 and fm1 == 0x000012 and fs2 == 0 and fe2 == 0x00 and fm2 == 0x00ffee and rm_val == 0  #nosat': 1 #  rs1_val==fnorm(0x00800012) and rs2_val==fsubnorm(0x0000ffee) | Result = fminnorm(0x00800000)^0x010000
    'fs1 == 0 and fe1 == 0x01 and fm1 == 0x000026 and fs2 == 0 and fe2 == 0x00 and fm2 == 0x007fda and rm_val == 0  #nosat': 1 #  rs1_val==fnorm(0x00800026) and rs2_val==fsubnorm(0x00007fda) | Result = fminnorm(0x00800000)^0x008000
    'fs1 == 0 and fe1 == 0x01 and fm1 == 0x000031 and fs2 == 0 and fe2 == 0x00 and fm2 == 0x003fcf and rm_val == 0  #nosat': 1 #  rs1_val==fnorm(0x00800031) and rs2_val==fsubnorm(0x00003fcf) | Result = fminnorm(0x00800000)^0x004000
    'fs1 == 0 and fe1 == 0x01 and fm1 == 0x000017 and fs2 == 0 and fe2 == 0x00 and fm2 == 0x001fe9 and rm_val == 0  #nosat': 1 #  rs1_val==fnorm(0x00800017) and rs2_val==fsubnorm(0x00001fe9) | Result = fminnorm(0x00800000)^0x002000
    'fs1 == 0 and fe1 == 0x01 and fm1 == 0x000030 and fs2 == 0 and fe2 == 0x00 and fm2 == 0x000fd0 and rm_val == 0  #nosat': 1 #  rs1_val==fnorm(0x00800030) and rs2_val==fsubnorm(0x00000fd0) | Result = fminnorm(0x00800000)^0x001000
    'fs1 == 0 and fe1 == 0x01 and fm1 == 0x000052 and fs2 == 0 and fe2 == 0x00 and fm2 == 0x0007ae and rm_val == 0  #nosat': 1 #  rs1_val==fnorm(0x00800052) and rs2_val==fsubnorm(0x000007ae) | Result = fminnorm(0x00800000)^0x000800
    'fs1 == 0 and fe1 == 0x01 and fm1 == 0x000053 and fs2 == 0 and fe2 == 0x00 and fm2 == 0x0003ad and rm_val == 0  #nosat': 1 #  rs1_val==fnorm(0x00800053) and rs2_val==fsubnorm(0x000003ad) | Result = fminnorm(0x00800000)^0x000400
    'fs1 == 0 and fe1 == 0x01 and fm1 == 0x000040 and fs2 == 0 and fe2 == 0x00 and fm2 == 0x0001c0 and rm_val == 0  #nosat': 1 #  rs1_val==fnorm(0x00800040) and rs2_val==fsubnorm(0x000001c0) | Result = fminnorm(0x00800000)^0x000200
    'fs1 == 0 and fe1 == 0x01 and fm1 == 0x00004e and fs2 == 0 and fe2 == 0x00 and fm2 == 0x0000b2 and rm_val == 0  #nosat': 1 #  rs1_val==fnorm(0x0080004e) and rs2_val==fsubnorm(0x000000b2) | Result = fminnorm(0x00800000)^0x000100
    'fs1 == 0 and fe1 == 0x01 and fm1 == 0x000060 and fs2 == 0 and fe2 == 0x00 and fm2 == 0x000020 and rm_val == 0  #nosat': 1 #  rs1_val==fnorm(0x00800060) and rs2_val==fsubnorm(0x00000020) | Result = fminnorm(0x00800000)^0x000080
    'fs1 == 0 and fe1 == 0x01 and fm1 == 0x000049 and fs2 == 1 and fe2 == 0x00 and fm2 == 0x000009 and rm_val == 0  #nosat': 1 #  rs1_val==fnorm(0x00800049) and rs2_val==fsubnorm(0x80000009) | Result = fminnorm(0x00800000)^0x000040
    'fs1 == 0 and fe1 == 0x01 and fm1 == 0x000029 and fs2 == 1 and fe2 == 0x00 and fm2 == 0x000009 and rm_val == 0  #nosat': 1 #  rs1_val==fnorm(0x00800029) and rs2_val==fsubnorm(0x80000009) | Result = fminnorm(0x00800000)^0x000020
    'fs1 == 0 and fe1 == 0x01 and fm1 == 0x000022 and fs2 == 1 and fe2 == 0x00 and fm2 == 0x000012 and rm_val == 0  #nosat': 1 #  rs1_val==fnorm(0x00800022) and rs2_val==fsubnorm(0x80000012) | Result = fminnorm(0x00800000)^0x000010
    'fs1 == 0 and fe1 == 0x01 and fm1 == 0x00001b and fs2 == 1 and fe2 == 0x00 and fm2 == 0x000013 and rm_val == 0  #nosat': 1 #  rs1_val==fnorm(0x0080001b) and rs2_val==fsubnorm(0x80000013) | Result = fminnorm(0x00800000)^0x000008
    'fs1 == 0 and fe1 == 0x01 and fm1 == 0x000006 and fs2 == 1 and fe2 == 0x00 and fm2 == 0x000002 and rm_val == 0  #nosat': 1 #  rs1_val==fnorm(0x00800006) and rs2_val==fsubnorm(0x80000002) | Result = fminnorm(0x00800000)^0x000004
    'fs1 == 0 and fe1 == 0x01 and fm1 == 0x000024 and fs2 == 1 and fe2 == 0x00 and fm2 == 0x000022 and rm_val == 0  #nosat': 1 #  rs1_val==fnorm(0x00800024) and rs2_val==fsubnorm(0x80000022) | Result = fminnorm(0x00800000)^0x000002
    'fs1 == 0 and fe1 == 0x01 and fm1 == 0x00000f and fs2 == 1 and fe2 == 0x00 and fm2 == 0x00000e and rm_val == 0  #nosat': 1 #  rs1_val==fnorm(0x0080000f) and rs2_val==fsubnorm(0x8000000e) | Result = fminnorm(0x00800000)^0x000001
    'fs1 == 0 and fe1 == 0x00 and fm1 == 0x000053 and fs2 == 1 and fe2 == 0x00 and fm2 == 0x400052 and rm_val == 0  #nosat': 1 #  rs1_val==fsubnorm(0x00000053) and rs2_val==fsubnorm(0x80400052) | Result = fmaxsubnorm(0x807fffff)^0x400000
    'fs1 == 0 and fe1 == 0x00 and fm1 == 0x000043 and fs2 == 1 and fe2 == 0x00 and fm2 == 0x600042 and rm_val == 0  #nosat': 1 #  rs1_val==fsubnorm(0x00000043) and rs2_val==fsubnorm(0x80600042) | Result = fmaxsubnorm(0x807fffff)^0x200000
    'fs1 == 0 and fe1 == 0x00 and fm1 == 0x000012 and fs2 == 1 and fe2 == 0x00 and fm2 == 0x700011 and rm_val == 0  #nosat': 1 #  rs1_val==fsubnorm(0x00000012) and rs2_val==fsubnorm(0x80700011) | Result = fmaxsubnorm(0x807fffff)^0x100000
    'fs1 == 0 and fe1 == 0x00 and fm1 == 0x00000f and fs2 == 1 and fe2 == 0x00 and fm2 == 0x78000e and rm_val == 0  #nosat': 1 #  rs1_val==fsubnorm(0x0000000f) and rs2_val==fsubnorm(0x8078000e) | Result = fmaxsubnorm(0x807fffff)^0x080000
    'fs1 == 0 and fe1 == 0x00 and fm1 == 0x000024 and fs2 == 1 and fe2 == 0x00 and fm2 == 0x7c0023 and rm_val == 0  #nosat': 1 #  rs1_val==fsubnorm(0x00000024) and rs2_val==fsubnorm(0x807c0023) | Result = fmaxsubnorm(0x807fffff)^0x040000
    'fs1 == 0 and fe1 == 0x00 and fm1 == 0x00000b and fs2 == 1 and fe2 == 0x00 and fm2 == 0x7e000a and rm_val == 0  #nosat': 1 #  rs1_val==fsubnorm(0x0000000b) and rs2_val==fsubnorm(0x807e000a) | Result = fmaxsubnorm(0x807fffff)^0x020000
    'fs1 == 0 and fe1 == 0x00 and fm1 == 0x000033 and fs2 == 1 and fe2 == 0x00 and fm2 == 0x7f0032 and rm_val == 0  #nosat': 1 #  rs1_val==fsubnorm(0x00000033) and rs2_val==fsubnorm(0x807f0032) | Result = fmaxsubnorm(0x807fffff)^0x010000
    'fs1 == 0 and fe1 == 0x00 and fm1 == 0x00000d and fs2 == 1 and fe2 == 0x00 and fm2 == 0x7f800c and rm_val == 0  #nosat': 1 #  rs1_val==fsubnorm(0x0000000d) and rs2_val==fsubnorm(0x807f800c) | Result = fmaxsubnorm(0x807fffff)^0x008000
    'fs1 == 0 and fe1 == 0x00 and fm1 == 0x000059 and fs2 == 1 and fe2 == 0x00 and fm2 == 0x7fc058 and rm_val == 0  #nosat': 1 #  rs1_val==fsubnorm(0x00000059) and rs2_val==fsubnorm(0x807fc058) | Result = fmaxsubnorm(0x807fffff)^0x004000
    'fs1 == 0 and fe1 == 0x00 and fm1 == 0x000027 and fs2 == 1 and fe2 == 0x00 and fm2 == 0x7fe026 and rm_val == 0  #nosat': 1 #  rs1_val==fsubnorm(0x00000027) and rs2_val==fsubnorm(0x807fe026) | Result = fmaxsubnorm(0x807fffff)^0x002000
    'fs1 == 0 and fe1 == 0x00 and fm1 == 0x000054 and fs2 == 1 and fe2 == 0x00 and fm2 == 0x7ff053 and rm_val == 0  #nosat': 1 #  rs1_val==fsubnorm(0x00000054) and rs2_val==fsubnorm(0x807ff053) | Result = fmaxsubnorm(0x807fffff)^0x001000
    'fs1 == 0 and fe1 == 0x00 and fm1 == 0x000010 and fs2 == 1 and fe2 == 0x00 and fm2 == 0x7ff80f and rm_val == 0  #nosat': 1 #  rs1_val==fsubnorm(0x00000010) and rs2_val==fsubnorm(0x807ff80f) | Result = fmaxsubnorm(0x807fffff)^0x000800
    'fs1 == 0 and fe1 == 0x00 and fm1 == 0x00000d and fs2 == 1 and fe2 == 0x00 and fm2 == 0x7ffc0c and rm_val == 0  #nosat': 1 #  rs1_val==fsubnorm(0x0000000d) and rs2_val==fsubnorm(0x807ffc0c) | Result = fmaxsubnorm(0x807fffff)^0x000400
    'fs1 == 0 and fe1 == 0x00 and fm1 == 0x000044 and fs2 == 1 and fe2 == 0x00 and fm2 == 0x7ffe43 and rm_val == 0  #nosat': 1 #  rs1_val==fsubnorm(0x00000044) and rs2_val==fsubnorm(0x807ffe43) | Result = fmaxsubnorm(0x807fffff)^0x000200
    'fs1 == 0 and fe1 == 0x00 and fm1 == 0x000001 and fs2 == 1 and fe2 == 0x00 and fm2 == 0x7fff00 and rm_val == 0  #nosat': 1 #  rs1_val==fminsubnorm(0x00000001) and rs2_val==fsubnorm(0x807fff00) | Result = fmaxsubnorm(0x807fffff)^0x000100
    'fs1 == 0 and fe1 == 0x00 and fm1 == 0x00005c and fs2 == 1 and fe2 == 0x00 and fm2 == 0x7fffdb and rm_val == 0  #nosat': 1 #  rs1_val==fsubnorm(0x0000005c) and rs2_val==fsubnorm(0x807fffdb) | Result = fmaxsubnorm(0x807fffff)^0x000080
    'fs1 == 0 and fe1 == 0x00 and fm1 == 0x00001c and fs2 == 1 and fe2 == 0x00 and fm2 == 0x7fffdb and rm_val == 0  #nosat': 1 #  rs1_val==fsubnorm(0x0000001c) and rs2_val==fsubnorm(0x807fffdb) | Result = fmaxsubnorm(0x807fffff)^0x000040
    'fs1 == 0 and fe1 == 0x00 and fm1 == 0x000029 and fs2 == 1 and fe2 == 0x01 and fm2 == 0x000008 and rm_val == 0  #nosat': 1 #  rs1_val==fsubnorm(0x00000029) and rs2_val==fnorm(0x80800008) | Result = fmaxsubnorm(0x807fffff)^0x000020
    'fs1 == 0 and fe1 == 0x00 and fm1 == 0x000057 and fs2 == 1 and fe2 == 0x01 and fm2 == 0x000046 and rm_val == 0  #nosat': 1 #  rs1_val==fsubnorm(0x00000057) and rs2_val==fnorm(0x80800046) | Result = fmaxsubnorm(0x807fffff)^0x000010
    'fs1 == 0 and fe1 == 0x00 and fm1 == 0x000002 and fs2 == 1 and fe2 == 0x00 and fm2 == 0x7ffff9 and rm_val == 0  #nosat': 1 #  rs1_val==fsubnorm(0x00000002) and rs2_val==fsubnorm(0x807ffff9) | Result = fmaxsubnorm(0x807fffff)^0x000008
    'fs1 == 0 and fe1 == 0x00 and fm1 == 0x00005d and fs2 == 1 and fe2 == 0x01 and fm2 == 0x000058 and rm_val == 0  #nosat': 1 #  rs1_val==fsubnorm(0x0000005d) and rs2_val==fnorm(0x80800058) | Result = fmaxsubnorm(0x807fffff)^0x000004
    'fs1 == 0 and fe1 == 0x00 and fm1 == 0x000052 and fs2 == 1 and fe2 == 0x01 and fm2 == 0x00004f and rm_val == 0  #nosat': 1 #  rs1_val==fsubnorm(0x00000052) and rs2_val==fnorm(0x8080004f) | Result = fmaxsubnorm(0x807fffff)^0x000002
    'fs1 == 0 and fe1 == 0x00 and fm1 == 0x000019 and fs2 == 1 and fe2 == 0x01 and fm2 == 0x000017 and rm_val == 0  #nosat': 1 #  rs1_val==fsubnorm(0x00000019) and rs2_val==fnorm(0x80800017) | Result = fmaxsubnorm(0x807fffff)^0x000001
    'fs1 == 0 and fe1 == 0x00 and fm1 == 0x000007 and fs2 == 0 and fe2 == 0x00 and fm2 == 0x3ffff8 and rm_val == 0  #nosat': 1 #  rs1_val==fsubnorm(0x00000007) and rs2_val==fsubnorm(0x003ffff8) | Result = fmaxsubnorm(0x007fffff)^0x400000
    'fs1 == 0 and fe1 == 0x00 and fm1 == 0x000028 and fs2 == 0 and fe2 == 0x00 and fm2 == 0x5fffd7 and rm_val == 0  #nosat': 1 #  rs1_val==fsubnorm(0x00000028) and rs2_val==fsubnorm(0x005fffd7) | Result = fmaxsubnorm(0x007fffff)^0x200000
    'fs1 == 0 and fe1 == 0x00 and fm1 == 0x000040 and fs2 == 0 and fe2 == 0x00 and fm2 == 0x6fffbf and rm_val == 0  #nosat': 1 #  rs1_val==fsubnorm(0x00000040) and rs2_val==fsubnorm(0x006fffbf) | Result = fmaxsubnorm(0x007fffff)^0x100000
    'fs1 == 0 and fe1 == 0x00 and fm1 == 0x000001 and fs2 == 0 and fe2 == 0x00 and fm2 == 0x77fffe and rm_val == 0  #nosat': 1 #  rs1_val==fminsubnorm(0x00000001) and rs2_val==fsubnorm(0x0077fffe) | Result = fmaxsubnorm(0x007fffff)^0x080000
    'fs1 == 0 and fe1 == 0x00 and fm1 == 0x00004e and fs2 == 0 and fe2 == 0x00 and fm2 == 0x7bffb1 and rm_val == 0  #nosat': 1 #  rs1_val==fsubnorm(0x0000004e) and rs2_val==fsubnorm(0x007bffb1) | Result = fmaxsubnorm(0x007fffff)^0x040000
    'fs1 == 0 and fe1 == 0x00 and fm1 == 0x00003f and fs2 == 0 and fe2 == 0x00 and fm2 == 0x7dffc0 and rm_val == 0  #nosat': 1 #  rs1_val==fsubnorm(0x0000003f) and rs2_val==fsubnorm(0x007dffc0) | Result = fmaxsubnorm(0x007fffff)^0x020000
    'fs1 == 0 and fe1 == 0x00 and fm1 == 0x00003a and fs2 == 0 and fe2 == 0x00 and fm2 == 0x7effc5 and rm_val == 0  #nosat': 1 #  rs1_val==fsubnorm(0x0000003a) and rs2_val==fsubnorm(0x007effc5) | Result = fmaxsubnorm(0x007fffff)^0x010000
    'fs1 == 0 and fe1 == 0x00 and fm1 == 0x00005a and fs2 == 0 and fe2 == 0x00 and fm2 == 0x7f7fa5 and rm_val == 0  #nosat': 1 #  rs1_val==fsubnorm(0x0000005a) and rs2_val==fsubnorm(0x007f7fa5) | Result = fmaxsubnorm(0x007fffff)^0x008000
    'fs1 == 0 and fe1 == 0x00 and fm1 == 0x000009 and fs2 == 0 and fe2 == 0x00 and fm2 == 0x7fbff6 and rm_val == 0  #nosat': 1 #  rs1_val==fsubnorm(0x00000009) and rs2_val==fsubnorm(0x007fbff6) | Result = fmaxsubnorm(0x007fffff)^0x004000
    'fs1 == 0 and fe1 == 0x00 and fm1 == 0x000016 and fs2 == 0 and fe2 == 0x00 and fm2 == 0x7fdfe9 and rm_val == 0  #nosat': 1 #  rs1_val==fsubnorm(0x00000016) and rs2_val==fsubnorm(0x007fdfe9) | Result = fmaxsubnorm(0x007fffff)^0x002000
    'fs1 == 0 and fe1 == 0x00 and fm1 == 0x00005b and fs2 == 0 and fe2 == 0x00 and fm2 == 0x7fefa4 and rm_val == 0  #nosat': 1 #  rs1_val==fsubnorm(0x0000005b) and rs2_val==fsubnorm(0x007fefa4) | Result = fmaxsubnorm(0x007fffff)^0x001000
    'fs1 == 0 and fe1 == 0x00 and fm1 == 0x000063 and fs2 == 0 and fe2 == 0x00 and fm2 == 0x7ff79c and rm_val == 0  #nosat': 1 #  rs1_val==fsubnorm(0x00000063) and rs2_val==fsubnorm(0x007ff79c) | Result = fmaxsubnorm(0x007fffff)^0x000800
    'fs1 == 0 and fe1 == 0x00 and fm1 == 0x000049 and fs2 == 0 and fe2 == 0x00 and fm2 == 0x7ffbb6 and rm_val == 0  #nosat': 1 #  rs1_val==fsubnorm(0x00000049) and rs2_val==fsubnorm(0x007ffbb6) | Result = fmaxsubnorm(0x007fffff)^0x000400
    'fs1 == 0 and fe1 == 0x00 and fm1 == 0x000034 and fs2 == 0 and fe2 == 0x00 and fm2 == 0x7ffdcb and rm_val == 0  #nosat': 1 #  rs1_val==fsubnorm(0x00000034) and rs2_val==fsubnorm(0x007ffdcb) | Result = fmaxsubnorm(0x007fffff)^0x000200
    'fs1 == 0 and fe1 == 0x00 and fm1 == 0x000036 and fs2 == 0 and fe2 == 0x00 and fm2 == 0x7ffec9 and rm_val == 0  #nosat': 1 #  rs1_val==fsubnorm(0x00000036) and rs2_val==fsubnorm(0x007ffec9) | Result = fmaxsubnorm(0x007fffff)^0x000100
    'fs1 == 0 and fe1 == 0x00 and fm1 == 0x000057 and fs2 == 0 and fe2 == 0x00 and fm2 == 0x7fff28 and rm_val == 0  #nosat': 1 #  rs1_val==fsubnorm(0x00000057) and rs2_val==fsubnorm(0x007fff28) | Result = fmaxsubnorm(0x007fffff)^0x000080
    'fs1 == 0 and fe1 == 0x00 and fm1 == 0x000031 and fs2 == 0 and fe2 == 0x00 and fm2 == 0x7fff8e and rm_val == 0  #nosat': 1 #  rs1_val==fsubnorm(0x00000031) and rs2_val==fsubnorm(0x007fff8e) | Result = fmaxsubnorm(0x007fffff)^0x000040
    'fs1 == 0 and fe1 == 0x00 and fm1 == 0x000052 and fs2 == 0 and fe2 == 0x00 and fm2 == 0x7fff8d and rm_val == 0  #nosat': 1 #  rs1_val==fsubnorm(0x00000052) and rs2_val==fsubnorm(0x007fff8d) | Result = fmaxsubnorm(0x007fffff)^0x000020
    'fs1 == 0 and fe1 == 0x00 and fm1 == 0x00001f and fs2 == 0 and fe2 == 0x00 and fm2 == 0x7fffd0 and rm_val == 0  #nosat': 1 #  rs1_val==fsubnorm(0x0000001f) and rs2_val==fsubnorm(0x007fffd0) | Result = fmaxsubnorm(0x007fffff)^0x000010
    'fs1 == 0 and fe1 == 0x00 and fm1 == 0x00002b and fs2 == 0 and fe2 == 0x00 and fm2 == 0x7fffcc and rm_val == 0  #nosat': 1 #  rs1_val==fsubnorm(0x0000002b) and rs2_val==fsubnorm(0x007fffcc) | Result = fmaxsubnorm(0x007fffff)^0x000008
    'fs1 == 0 and fe1 == 0x00 and fm1 == 0x000019 and fs2 == 0 and fe2 == 0x00 and fm2 == 0x7fffe2 and rm_val == 0  #nosat': 1 #  rs1_val==fsubnorm(0x00000019) and rs2_val==fsubnorm(0x007fffe2) | Result = fmaxsubnorm(0x007fffff)^0x000004
    'fs1 == 0 and fe1 == 0x00 and fm1 == 0x000001 and fs2 == 0 and fe2 == 0x00 and fm2 == 0x7ffffc and rm_val == 0  #nosat': 1 #  rs1_val==fminsubnorm(0x00000001) and rs2_val==fsubnorm(0x007ffffc) | Result = fmaxsubnorm(0x007fffff)^0x000002
    'fs1 == 0 and fe1 == 0x00 and fm1 == 0x000054 and fs2 == 0 and fe2 == 0x00 and fm2 == 0x7fffaa and rm_val == 0  #nosat': 1 #  rs1_val==fsubnorm(0x00000054) and rs2_val==fsubnorm(0x007fffaa) | Result = fmaxsubnorm(0x007fffff)^0x000001
    'fs1 == 0 and fe1 == 0x00 and fm1 == 0x000060 and fs2 == 1 and fe2 == 0x00 and fm2 == 0x400061 and rm_val == 0  #nosat': 1 #  rs1_val==fsubnorm(0x00000060) and rs2_val==fsubnorm(0x80400061) | Result = fminsubnorm(0x80000001)^0x400000
    'fs1 == 0 and fe1 == 0x00 and fm1 == 0x000028 and fs2 == 1 and fe2 == 0x00 and fm2 == 0x200029 and rm_val == 0  #nosat': 1 #  rs1_val==fsubnorm(0x00000028) and rs2_val==fsubnorm(0x80200029) | Result = fminsubnorm(0x80000001)^0x200000
    'fs1 == 0 and fe1 == 0x00 and fm1 == 0x000011 and fs2 == 1 and fe2 == 0x00 and fm2 == 0x100012 and rm_val == 0  #nosat': 1 #  rs1_val==fsubnorm(0x00000011) and rs2_val==fsubnorm(0x80100012) | Result = fminsubnorm(0x80000001)^0x100000
    'fs1 == 0 and fe1 == 0x00 and fm1 == 0x000052 and fs2 == 1 and fe2 == 0x00 and fm2 == 0x080053 and rm_val == 0  #nosat': 1 #  rs1_val==fsubnorm(0x00000052) and rs2_val==fsubnorm(0x80080053) | Result = fminsubnorm(0x80000001)^0x080000
    'fs1 == 0 and fe1 == 0x00 and fm1 == 0x00002e and fs2 == 1 and fe2 == 0x00 and fm2 == 0x04002f and rm_val == 0  #nosat': 1 #  rs1_val==fsubnorm(0x0000002e) and rs2_val==fsubnorm(0x8004002f) | Result = fminsubnorm(0x80000001)^0x040000
    'fs1 == 0 and fe1 == 0x00 and fm1 == 0x000025 and fs2 == 1 and fe2 == 0x00 and fm2 == 0x020026 and rm_val == 0  #nosat': 1 #  rs1_val==fsubnorm(0x00000025) and rs2_val==fsubnorm(0x80020026) | Result = fminsubnorm(0x80000001)^0x020000
    'fs1 == 0 and fe1 == 0x00 and fm1 == 0x00002e and fs2 == 1 and fe2 == 0x00 and fm2 == 0x01002f and rm_val == 0  #nosat': 1 #  rs1_val==fsubnorm(0x0000002e) and rs2_val==fsubnorm(0x8001002f) | Result = fminsubnorm(0x80000001)^0x010000
    'fs1 == 0 and fe1 == 0x00 and fm1 == 0x000062 and fs2 == 1 and fe2 == 0x00 and fm2 == 0x008063 and rm_val == 0  #nosat': 1 #  rs1_val==fsubnorm(0x00000062) and rs2_val==fsubnorm(0x80008063) | Result = fminsubnorm(0x80000001)^0x008000
    'fs1 == 0 and fe1 == 0x00 and fm1 == 0x000012 and fs2 == 1 and fe2 == 0x00 and fm2 == 0x004013 and rm_val == 0  #nosat': 1 #  rs1_val==fsubnorm(0x00000012) and rs2_val==fsubnorm(0x80004013) | Result = fminsubnorm(0x80000001)^0x004000
    'fs1 == 0 and fe1 == 0x00 and fm1 == 0x000046 and fs2 == 1 and fe2 == 0x00 and fm2 == 0x002047 and rm_val == 0  #nosat': 1 #  rs1_val==fsubnorm(0x00000046) and rs2_val==fsubnorm(0x80002047) | Result = fminsubnorm(0x80000001)^0x002000
    'fs1 == 0 and fe1 == 0x00 and fm1 == 0x00005f and fs2 == 1 and fe2 == 0x00 and fm2 == 0x001060 and rm_val == 0  #nosat': 1 #  rs1_val==fsubnorm(0x0000005f) and rs2_val==fsubnorm(0x80001060) | Result = fminsubnorm(0x80000001)^0x001000
    'fs1 == 0 and fe1 == 0x00 and fm1 == 0x00000b and fs2 == 1 and fe2 == 0x00 and fm2 == 0x00080c and rm_val == 0  #nosat': 1 #  rs1_val==fsubnorm(0x0000000b) and rs2_val==fsubnorm(0x8000080c) | Result = fminsubnorm(0x80000001)^0x000800
    'fs1 == 0 and fe1 == 0x00 and fm1 == 0x00003b and fs2 == 1 and fe2 == 0x00 and fm2 == 0x00043c and rm_val == 0  #nosat': 1 #  rs1_val==fsubnorm(0x0000003b) and rs2_val==fsubnorm(0x8000043c) | Result = fminsubnorm(0x80000001)^0x000400
    'fs1 == 0 and fe1 == 0x00 and fm1 == 0x000059 and fs2 == 1 and fe2 == 0x00 and fm2 == 0x00025a and rm_val == 0  #nosat': 1 #  rs1_val==fsubnorm(0x00000059) and rs2_val==fsubnorm(0x8000025a) | Result = fminsubnorm(0x80000001)^0x000200
    'fs1 == 0 and fe1 == 0x00 and fm1 == 0x000014 and fs2 == 1 and fe2 == 0x00 and fm2 == 0x000115 and rm_val == 0  #nosat': 1 #  rs1_val==fsubnorm(0x00000014) and rs2_val==fsubnorm(0x80000115) | Result = fminsubnorm(0x80000001)^0x000100
    'fs1 == 0 and fe1 == 0x00 and fm1 == 0x000055 and fs2 == 1 and fe2 == 0x00 and fm2 == 0x0000d6 and rm_val == 0  #nosat': 1 #  rs1_val==fsubnorm(0x00000055) and rs2_val==fsubnorm(0x800000d6) | Result = fminsubnorm(0x80000001)^0x000080
    'fs1 == 0 and fe1 == 0x00 and fm1 == 0x00002e and fs2 == 1 and fe2 == 0x00 and fm2 == 0x00006f and rm_val == 0  #nosat': 1 #  rs1_val==fsubnorm(0x0000002e) and rs2_val==fsubnorm(0x8000006f) | Result = fminsubnorm(0x80000001)^0x000040
    'fs1 == 0 and fe1 == 0x00 and fm1 == 0x000028 and fs2 == 1 and fe2 == 0x00 and fm2 == 0x000049 and rm_val == 0  #nosat': 1 #  rs1_val==fsubnorm(0x00000028) and rs2_val==fsubnorm(0x80000049) | Result = fminsubnorm(0x80000001)^0x000020
    'fs1 == 0 and fe1 == 0x00 and fm1 == 0x000049 and fs2 == 1 and fe2 == 0x00 and fm2 == 0x00005a and rm_val == 0  #nosat': 1 #  rs1_val==fsubnorm(0x00000049) and rs2_val==fsubnorm(0x8000005a) | Result = fminsubnorm(0x80000001)^0x000010
    'fs1 == 0 and fe1 == 0x00 and fm1 == 0x000058 and fs2 == 1 and fe2 == 0x00 and fm2 == 0x000061 and rm_val == 0  #nosat': 1 #  rs1_val==fsubnorm(0x00000058) and rs2_val==fsubnorm(0x80000061) | Result = fminsubnorm(0x80000001)^0x000008
    'fs1 == 0 and fe1 == 0x00 and fm1 == 0x000002 and fs2 == 1 and fe2 == 0x00 and fm2 == 0x000007 and rm_val == 0  #nosat': 1 #  rs1_val==fsubnorm(0x00000002) and rs2_val==fsubnorm(0x80000007) | Result = fminsubnorm(0x80000001)^0x000004
    'fs1 == 0 and fe1 == 0x00 and fm1 == 0x000056 and fs2 == 1 and fe2 == 0x00 and fm2 == 0x000059 and rm_val == 0  #nosat': 1 #  rs1_val==fsubnorm(0x00000056) and rs2_val==fsubnorm(0x80000059) | Result = fminsubnorm(0x80000001)^0x000002
    'fs1 == 0 and fe1 == 0x00 and fm1 == 0x00004d and fs2 == 1 and fe2 == 0x00 and fm2 == 0x00004e and rm_val == 0  #nosat': 1 #  rs1_val==fsubnorm(0x0000004d) and rs2_val==fsubnorm(0x8000004e) | Result = fminsubnorm(0x80000001)^0x000001
    'fs1 == 0 and fe1 == 0x00 and fm1 == 0x000021 and fs2 == 0 and fe2 == 0x00 and fm2 == 0x3fffe0 and rm_val == 0  #nosat': 1 #  rs1_val==fsubnorm(0x00000021) and rs2_val==fsubnorm(0x003fffe0) | Result = fminsubnorm(0x00000001)^0x400000
    'fs1 == 0 and fe1 == 0x00 and fm1 == 0x00002c and fs2 == 0 and fe2 == 0x00 and fm2 == 0x1fffd5 and rm_val == 0  #nosat': 1 #  rs1_val==fsubnorm(0x0000002c) and rs2_val==fsubnorm(0x001fffd5) | Result = fminsubnorm(0x00000001)^0x200000
    'fs1 == 0 and fe1 == 0x00 and fm1 == 0x000015 and fs2 == 0 and fe2 == 0x00 and fm2 == 0x0fffec and rm_val == 0  #nosat': 1 #  rs1_val==fsubnorm(0x00000015) and rs2_val==fsubnorm(0x000fffec) | Result = fminsubnorm(0x00000001)^0x100000
    'fs1 == 0 and fe1 == 0x00 and fm1 == 0x000008 and fs2 == 0 and fe2 == 0x00 and fm2 == 0x07fff9 and rm_val == 0  #nosat': 1 #  rs1_val==fsubnorm(0x00000008) and rs2_val==fsubnorm(0x0007fff9) | Result = fminsubnorm(0x00000001)^0x080000
    'fs1 == 0 and fe1 == 0x00 and fm1 == 0x00001b and fs2 == 0 and fe2 == 0x00 and fm2 == 0x03ffe6 and rm_val == 0  #nosat': 1 #  rs1_val==fsubnorm(0x0000001b) and rs2_val==fsubnorm(0x0003ffe6) | Result = fminsubnorm(0x00000001)^0x040000
    'fs1 == 0 and fe1 == 0x00 and fm1 == 0x00005a and fs2 == 0 and fe2 == 0x00 and fm2 == 0x01ffa7 and rm_val == 0  #nosat': 1 #  rs1_val==fsubnorm(0x0000005a) and rs2_val==fsubnorm(0x0001ffa7) | Result = fminsubnorm(0x00000001)^0x020000
    'fs1 == 0 and fe1 == 0x00 and fm1 == 0x000049 and fs2 == 0 and fe2 == 0x00 and fm2 == 0x00ffb8 and rm_val == 0  #nosat': 1 #  rs1_val==fsubnorm(0x00000049) and rs2_val==fsubnorm(0x0000ffb8) | Result = fminsubnorm(0x00000001)^0x010000
    'fs1 == 0 and fe1 == 0x00 and fm1 == 0x00005e and fs2 == 0 and fe2 == 0x00 and fm2 == 0x007fa3 and rm_val == 0  #nosat': 1 #  rs1_val==fsubnorm(0x0000005e) and rs2_val==fsubnorm(0x00007fa3) | Result = fminsubnorm(0x00000001)^0x008000
    'fs1 == 0 and fe1 == 0x00 and fm1 == 0x000022 and fs2 == 0 and fe2 == 0x00 and fm2 == 0x003fdf and rm_val == 0  #nosat': 1 #  rs1_val==fsubnorm(0x00000022) and rs2_val==fsubnorm(0x00003fdf) | Result = fminsubnorm(0x00000001)^0x004000
    'fs1 == 0 and fe1 == 0x00 and fm1 == 0x000033 and fs2 == 0 and fe2 == 0x00 and fm2 == 0x001fce and rm_val == 0  #nosat': 1 #  rs1_val==fsubnorm(0x00000033) and rs2_val==fsubnorm(0x00001fce) | Result = fminsubnorm(0x00000001)^0x002000
    'fs1 == 0 and fe1 == 0x00 and fm1 == 0x00000d and fs2 == 0 and fe2 == 0x00 and fm2 == 0x000ff4 and rm_val == 0  #nosat': 1 #  rs1_val==fsubnorm(0x0000000d) and rs2_val==fsubnorm(0x00000ff4) | Result = fminsubnorm(0x00000001)^0x001000
    'fs1 == 0 and fe1 == 0x00 and fm1 == 0x000006 and fs2 == 0 and fe2 == 0x00 and fm2 == 0x0007fb and rm_val == 0  #nosat': 1 #  rs1_val==fsubnorm(0x00000006) and rs2_val==fsubnorm(0x000007fb) | Result = fminsubnorm(0x00000001)^0x000800
    'fs1 == 0 and fe1 == 0x00 and fm1 == 0x000041 and fs2 == 0 and fe2 == 0x00 and fm2 == 0x0003c0 and rm_val == 0  #nosat': 1 #  rs1_val==fsubnorm(0x00000041) and rs2_val==fsubnorm(0x000003c0) | Result = fminsubnorm(0x00000001)^0x000400
    'fs1 == 0 and fe1 == 0x00 and fm1 == 0x000018 and fs2 == 0 and fe2 == 0x00 and fm2 == 0x0001e9 and rm_val == 0  #nosat': 1 #  rs1_val==fsubnorm(0x00000018) and rs2_val==fsubnorm(0x000001e9) | Result = fminsubnorm(0x00000001)^0x000200
    'fs1 == 0 and fe1 == 0x00 and fm1 == 0x00002d and fs2 == 0 and fe2 == 0x00 and fm2 == 0x0000d4 and rm_val == 0  #nosat': 1 #  rs1_val==fsubnorm(0x0000002d) and rs2_val==fsubnorm(0x000000d4) | Result = fminsubnorm(0x00000001)^0x000100
    'fs1 == 0 and fe1 == 0x00 and fm1 == 0x000053 and fs2 == 0 and fe2 == 0x00 and fm2 == 0x00002e and rm_val == 0  #nosat': 1 #  rs1_val==fsubnorm(0x00000053) and rs2_val==fsubnorm(0x0000002e) | Result = fminsubnorm(0x00000001)^0x000080
    'fs1 == 0 and fe1 == 0x00 and fm1 == 0x00001d and fs2 == 0 and fe2 == 0x00 and fm2 == 0x000024 and rm_val == 0  #nosat': 1 #  rs1_val==fsubnorm(0x0000001d) and rs2_val==fsubnorm(0x00000024) | Result = fminsubnorm(0x00000001)^0x000040
    'fs1 == 0 and fe1 == 0x00 and fm1 == 0x000022 and fs2 == 1 and fe2 == 0x00 and fm2 == 0x000001 and rm_val == 0  #nosat': 1 #  rs1_val==fsubnorm(0x00000022) and rs2_val==fminsubnorm(0x80000001) | Result = fminsubnorm(0x00000001)^0x000020
    'fs1 == 0 and fe1 == 0x00 and fm1 == 0x000050 and fs2 == 1 and fe2 == 0x00 and fm2 == 0x00003f and rm_val == 0  #nosat': 1 #  rs1_val==fsubnorm(0x00000050) and rs2_val==fsubnorm(0x8000003f) | Result = fminsubnorm(0x00000001)^0x000010
    'fs1 == 0 and fe1 == 0x00 and fm1 == 0x000046 and fs2 == 1 and fe2 == 0x00 and fm2 == 0x00003d and rm_val == 0  #nosat': 1 #  rs1_val==fsubnorm(0x00000046) and rs2_val==fsubnorm(0x8000003d) | Result = fminsubnorm(0x00000001)^0x000008
    'fs1 == 0 and fe1 == 0x00 and fm1 == 0x000057 and fs2 == 1 and fe2 == 0x00 and fm2 == 0x000052 and rm_val == 0  #nosat': 1 #  rs1_val==fsubnorm(0x00000057) and rs2_val==fsubnorm(0x80000052) | Result = fminsubnorm(0x00000001)^0x000004
    'fs1 == 0 and fe1 == 0x00 and fm1 == 0x00005e and fs2 == 1 and fe2 == 0x00 and fm2 == 0x00005b and rm_val == 0  #nosat': 1 #  rs1_val==fsubnorm(0x0000005e) and rs2_val==fsubnorm(0x8000005b) | Result = fminsubnorm(0x00000001)^0x000002
    'fs1 == 0 and fe1 == 0x00 and fm1 == 0x00003e and fs2 == 1 and fe2 == 0x00 and fm2 == 0x00003d and rm_val == 0  #nosat': 1 #  rs1_val==fsubnorm(0x0000003e) and rs2_val==fsubnorm(0x8000003d) | Result = fminsubnorm(0x00000001)^0x000001
    'fs1 == 0 and fe1 == 0x7f and fm1 == 0x00005c and fs2 == 1 and fe2 == 0x80 and fm2 == 0x20002e and rm_val == 0  #nosat': 1 #  rs1_val==fnorm(0x3f80005c) and rs2_val==fnorm(0xc020002e) | Result = fone(0xbf800000)^0x400000
    'fs1 == 0 and fe1 == 0x7f and fm1 == 0x000019 and fs2 == 1 and fe2 == 0x80 and fm2 == 0x10000c and rm_val == 0  #nosat': 1 #  rs1_val==fnorm(0x3f800019) and rs2_val==fnorm(0xc010000c) | Result = fone(0xbf800000)^0x200000
    'fs1 == 0 and fe1 == 0x7f and fm1 == 0x00004e and fs2 == 1 and fe2 == 0x80 and fm2 == 0x080027 and rm_val == 0  #nosat': 1 #  rs1_val==fnorm(0x3f80004e) and rs2_val==fnorm(0xc0080027) | Result = fone(0xbf800000)^0x100000
    'fs1 == 0 and fe1 == 0x7f and fm1 == 0x00000f and fs2 == 1 and fe2 == 0x80 and fm2 == 0x040008 and rm_val == 0  #nosat': 1 #  rs1_val==fnorm(0x3f80000f) and rs2_val==fnorm(0xc0040008) | Result = fone(0xbf800000)^0x080000
    'fs1 == 0 and fe1 == 0x7f and fm1 == 0x00000c and fs2 == 1 and fe2 == 0x80 and fm2 == 0x020006 and rm_val == 0  #nosat': 1 #  rs1_val==fnorm(0x3f80000c) and rs2_val==fnorm(0xc0020006) | Result = fone(0xbf800000)^0x040000
    'fs1 == 0 and fe1 == 0x7f and fm1 == 0x000010 and fs2 == 1 and fe2 == 0x80 and fm2 == 0x010008 and rm_val == 0  #nosat': 1 #  rs1_val==fnorm(0x3f800010) and rs2_val==fnorm(0xc0010008) | Result = fone(0xbf800000)^0x020000
    'fs1 == 0 and fe1 == 0x7f and fm1 == 0x00004e and fs2 == 1 and fe2 == 0x80 and fm2 == 0x008027 and rm_val == 0  #nosat': 1 #  rs1_val==fnorm(0x3f80004e) and rs2_val==fnorm(0xc0008027) | Result = fone(0xbf800000)^0x010000
    'fs1 == 0 and fe1 == 0x7f and fm1 == 0x000052 and fs2 == 1 and fe2 == 0x80 and fm2 == 0x004029 and rm_val == 0  #nosat': 1 #  rs1_val==fnorm(0x3f800052) and rs2_val==fnorm(0xc0004029) | Result = fone(0xbf800000)^0x008000
    'fs1 == 0 and fe1 == 0x7f and fm1 == 0x000004 and fs2 == 1 and fe2 == 0x80 and fm2 == 0x002002 and rm_val == 0  #nosat': 1 #  rs1_val==fnorm(0x3f800004) and rs2_val==fnorm(0xc0002002) | Result = fone(0xbf800000)^0x004000
    'fs1 == 0 and fe1 == 0x7f and fm1 == 0x000058 and fs2 == 1 and fe2 == 0x80 and fm2 == 0x00102c and rm_val == 0  #nosat': 1 #  rs1_val==fnorm(0x3f800058) and rs2_val==fnorm(0xc000102c) | Result = fone(0xbf800000)^0x002000
    'fs1 == 0 and fe1 == 0x7f and fm1 == 0x000045 and fs2 == 1 and fe2 == 0x80 and fm2 == 0x000822 and rm_val == 0  #nosat': 1 #  rs1_val==fnorm(0x3f800045) and rs2_val==fnorm(0xc0000822) | Result = fone(0xbf800000)^0x001000
    'fs1 == 0 and fe1 == 0x7f and fm1 == 0x00004a and fs2 == 1 and fe2 == 0x80 and fm2 == 0x000425 and rm_val == 0  #nosat': 1 #  rs1_val==fnorm(0x3f80004a) and rs2_val==fnorm(0xc0000425) | Result = fone(0xbf800000)^0x000800
    'fs1 == 0 and fe1 == 0x7f and fm1 == 0x00001d and fs2 == 1 and fe2 == 0x80 and fm2 == 0x00020e and rm_val == 0  #nosat': 1 #  rs1_val==fnorm(0x3f80001d) and rs2_val==fnorm(0xc000020e) | Result = fone(0xbf800000)^0x000400
    'fs1 == 0 and fe1 == 0x7f and fm1 == 0x000013 and fs2 == 1 and fe2 == 0x80 and fm2 == 0x00010a and rm_val == 0  #nosat': 1 #  rs1_val==fnorm(0x3f800013) and rs2_val==fnorm(0xc000010a) | Result = fone(0xbf800000)^0x000200
    'fs1 == 0 and fe1 == 0x7f and fm1 == 0x000008 and fs2 == 1 and fe2 == 0x80 and fm2 == 0x000084 and rm_val == 0  #nosat': 1 #  rs1_val==fnorm(0x3f800008) and rs2_val==fnorm(0xc0000084) | Result = fone(0xbf800000)^0x000100
    'fs1 == 0 and fe1 == 0x7f and fm1 == 0x00002b and fs2 == 1 and fe2 == 0x80 and fm2 == 0x000056 and rm_val == 0  #nosat': 1 #  rs1_val==fnorm(0x3f80002b) and rs2_val==fnorm(0xc0000056) | Result = fone(0xbf800000)^0x000080
    'fs1 == 0 and fe1 == 0x7f and fm1 == 0x000030 and fs2 == 1 and fe2 == 0x80 and fm2 == 0x000038 and rm_val == 0  #nosat': 1 #  rs1_val==fnorm(0x3f800030) and rs2_val==fnorm(0xc0000038) | Result = fone(0xbf800000)^0x000040
    'fs1 == 0 and fe1 == 0x7f and fm1 == 0x00005b and fs2 == 1 and fe2 == 0x80 and fm2 == 0x00003e and rm_val == 0  #nosat': 1 #  rs1_val==fnorm(0x3f80005b) and rs2_val==fnorm(0xc000003e) | Result = fone(0xbf800000)^0x000020
    'fs1 == 0 and fe1 == 0x7f and fm1 == 0x000023 and fs2 == 1 and fe2 == 0x80 and fm2 == 0x00001a and rm_val == 0  #nosat': 1 #  rs1_val==fnorm(0x3f800023) and rs2_val==fnorm(0xc000001a) | Result = fone(0xbf800000)^0x000010
    'fs1 == 0 and fe1 == 0x7f and fm1 == 0x000003 and fs2 == 1 and fe2 == 0x80 and fm2 == 0x000006 and rm_val == 0  #nosat': 1 #  rs1_val==fnorm(0x3f800003) and rs2_val==fnorm(0xc0000006) | Result = fone(0xbf800000)^0x000008
    'fs1 == 0 and fe1 == 0x7f and fm1 == 0x000019 and fs2 == 1 and fe2 == 0x80 and fm2 == 0x00000e and rm_val == 0  #nosat': 1 #  rs1_val==fnorm(0x3f800019) and rs2_val==fnorm(0xc000000e) | Result = fone(0xbf800000)^0x000004
    'fs1 == 0 and fe1 == 0x7f and fm1 == 0x000051 and fs2 == 1 and fe2 == 0x80 and fm2 == 0x00002a and rm_val == 0  #nosat': 1 #  rs1_val==fnorm(0x3f800051) and rs2_val==fnorm(0xc000002a) | Result = fone(0xbf800000)^0x000002
    'fs1 == 0 and fe1 == 0x7f and fm1 == 0x00003f and fs2 == 1 and fe2 == 0x80 and fm2 == 0x000020 and rm_val == 0  #nosat': 1 #  rs1_val==fnorm(0x3f80003f) and rs2_val==fnorm(0xc0000020) | Result = fone(0xbf800000)^0x000001
    'fs1 == 0 and fe1 == 0x7f and fm1 == 0x00004f and fs2 == 0 and fe2 == 0x7d and fm2 == 0x7ffec4 and rm_val == 0  #nosat': 1 #  rs1_val==fnorm(0x3f80004f) and rs2_val==fnorm(0x3efffec4) | Result = fone(0x3f800000)^0x400000
    'fs1 == 0 and fe1 == 0x7f and fm1 == 0x00000b and fs2 == 0 and fe2 == 0x7c and fm2 == 0x7fffa8 and rm_val == 0  #nosat': 1 #  rs1_val==fnorm(0x3f80000b) and rs2_val==fnorm(0x3e7fffa8) | Result = fone(0x3f800000)^0x200000
    'fs1 == 0 and fe1 == 0x7f and fm1 == 0x00005a and fs2 == 0 and fe2 == 0x7b and fm2 == 0x7ffa60 and rm_val == 0  #nosat': 1 #  rs1_val==fnorm(0x3f80005a) and rs2_val==fnorm(0x3dfffa60) | Result = fone(0x3f800000)^0x100000
    'fs1 == 0 and fe1 == 0x7f and fm1 == 0x000055 and fs2 == 0 and fe2 == 0x7a and fm2 == 0x7ff560 and rm_val == 0  #nosat': 1 #  rs1_val==fnorm(0x3f800055) and rs2_val==fnorm(0x3d7ff560) | Result = fone(0x3f800000)^0x080000
    'fs1 == 0 and fe1 == 0x7f and fm1 == 0x00003a and fs2 == 0 and fe2 == 0x79 and fm2 == 0x7ff180 and rm_val == 0  #nosat': 1 #  rs1_val==fnorm(0x3f80003a) and rs2_val==fnorm(0x3cfff180) | Result = fone(0x3f800000)^0x040000
    'fs1 == 0 and fe1 == 0x7f and fm1 == 0x00004b and fs2 == 0 and fe2 == 0x78 and fm2 == 0x7fda80 and rm_val == 0  #nosat': 1 #  rs1_val==fnorm(0x3f80004b) and rs2_val==fnorm(0x3c7fda80) | Result = fone(0x3f800000)^0x020000
    'fs1 == 0 and fe1 == 0x7f and fm1 == 0x00004c and fs2 == 0 and fe2 == 0x77 and fm2 == 0x7fb400 and rm_val == 0  #nosat': 1 #  rs1_val==fnorm(0x3f80004c) and rs2_val==fnorm(0x3bffb400) | Result = fone(0x3f800000)^0x010000
    'fs1 == 0 and fe1 == 0x7f and fm1 == 0x00001c and fs2 == 0 and fe2 == 0x76 and fm2 == 0x7fc800 and rm_val == 0  #nosat': 1 #  rs1_val==fnorm(0x3f80001c) and rs2_val==fnorm(0x3b7fc800) | Result = fone(0x3f800000)^0x008000
    'fs1 == 0 and fe1 == 0x7f and fm1 == 0x000043 and fs2 == 0 and fe2 == 0x75 and fm2 == 0x7ef400 and rm_val == 0  #nosat': 1 #  rs1_val==fnorm(0x3f800043) and rs2_val==fnorm(0x3afef400) | Result = fone(0x3f800000)^0x004000
    'fs1 == 0 and fe1 == 0x7f and fm1 == 0x000044 and fs2 == 0 and fe2 == 0x74 and fm2 == 0x7de000 and rm_val == 0  #nosat': 1 #  rs1_val==fnorm(0x3f800044) and rs2_val==fnorm(0x3a7de000) | Result = fone(0x3f800000)^0x002000
    'fs1 == 0 and fe1 == 0x7f and fm1 == 0x000033 and fs2 == 0 and fe2 == 0x73 and fm2 == 0x7cd000 and rm_val == 0  #nosat': 1 #  rs1_val==fnorm(0x3f800033) and rs2_val==fnorm(0x39fcd000) | Result = fone(0x3f800000)^0x001000
    'fs1 == 0 and fe1 == 0x7f and fm1 == 0x000046 and fs2 == 0 and fe2 == 0x72 and fm2 == 0x774000 and rm_val == 0  #nosat': 1 #  rs1_val==fnorm(0x3f800046) and rs2_val==fnorm(0x39774000) | Result = fone(0x3f800000)^0x000800
    'fs1 == 0 and fe1 == 0x7f and fm1 == 0x00000b and fs2 == 0 and fe2 == 0x71 and fm2 == 0x7d4000 and rm_val == 0  #nosat': 1 #  rs1_val==fnorm(0x3f80000b) and rs2_val==fnorm(0x38fd4000) | Result = fone(0x3f800000)^0x000400
    'fs1 == 0 and fe1 == 0x7f and fm1 == 0x000014 and fs2 == 0 and fe2 == 0x70 and fm2 == 0x760000 and rm_val == 0  #nosat': 1 #  rs1_val==fnorm(0x3f800014) and rs2_val==fnorm(0x38760000) | Result = fone(0x3f800000)^0x000200
    'fs1 == 0 and fe1 == 0x7f and fm1 == 0x000061 and fs2 == 0 and fe2 == 0x6f and fm2 == 0x1f0000 and rm_val == 0  #nosat': 1 #  rs1_val==fnorm(0x3f800061) and rs2_val==fnorm(0x379f0000) | Result = fone(0x3f800000)^0x000100
    'fs1 == 0 and fe1 == 0x7f and fm1 == 0x00000c and fs2 == 0 and fe2 == 0x6e and fm2 == 0x680000 and rm_val == 0  #nosat': 1 #  rs1_val==fnorm(0x3f80000c) and rs2_val==fnorm(0x37680000) | Result = fone(0x3f800000)^0x000080
    'fs1 == 0 and fe1 == 0x7f and fm1 == 0x00003d and fs2 == 0 and fe2 == 0x69 and fm2 == 0x400000 and rm_val == 0  #nosat': 1 #  rs1_val==fnorm(0x3f80003d) and rs2_val==fnorm(0x34c00000) | Result = fone(0x3f800000)^0x000040
    'fs1 == 0 and fe1 == 0x7f and fm1 == 0x000055 and fs2 == 1 and fe2 == 0x6d and fm2 == 0x540000 and rm_val == 0  #nosat': 1 #  rs1_val==fnorm(0x3f800055) and rs2_val==fnorm(0xb6d40000) | Result = fone(0x3f800000)^0x000020
    'fs1 == 0 and fe1 == 0x7f and fm1 == 0x000005 and fs2 == 0 and fe2 == 0x6b and fm2 == 0x300000 and rm_val == 0  #nosat': 1 #  rs1_val==fnorm(0x3f800005) and rs2_val==fnorm(0x35b00000) | Result = fone(0x3f800000)^0x000010
    'fs1 == 0 and fe1 == 0x7f and fm1 == 0x000019 and fs2 == 1 and fe2 == 0x6c and fm2 == 0x080000 and rm_val == 0  #nosat': 1 #  rs1_val==fnorm(0x3f800019) and rs2_val==fnorm(0xb6080000) | Result = fone(0x3f800000)^0x000008
    'fs1 == 0 and fe1 == 0x7f and fm1 == 0x000026 and fs2 == 1 and fe2 == 0x6d and fm2 == 0x080000 and rm_val == 0  #nosat': 1 #  rs1_val==fnorm(0x3f800026) and rs2_val==fnorm(0xb6880000) | Result = fone(0x3f800000)^0x000004
    'fs1 == 0 and fe1 == 0x7f and fm1 == 0x00004a and fs2 == 1 and fe2 == 0x6e and fm2 == 0x100000 and rm_val == 0  #nosat': 1 #  rs1_val==fnorm(0x3f80004a) and rs2_val==fnorm(0xb7100000) | Result = fone(0x3f800000)^0x000002
    'fs1 == 0 and fe1 == 0x7f and fm1 == 0x000032 and fs2 == 1 and fe2 == 0x6d and fm2 == 0x440000 and rm_val == 0  #nosat': 1 #  rs1_val==fnorm(0x3f800032) and rs2_val==fnorm(0xb6c40000) | Result = fone(0x3f800000)^0x000001
    'fs1 == 0 and fe1 == 0x00 and fm1 == 0x00000c and fs2 == 1 and fe2 == 0x00 and fm2 == 0x40000c and rm_val == 0  #nosat': 1 #  rs1_val==fsubnorm(0x0000000c) and rs2_val==fsubnorm(0x8040000c) | Result = fzero(0x80000000)^0x400000
    'fs1 == 0 and fe1 == 0x00 and fm1 == 0x000025 and fs2 == 1 and fe2 == 0x00 and fm2 == 0x200025 and rm_val == 0  #nosat': 1 #  rs1_val==fsubnorm(0x00000025) and rs2_val==fsubnorm(0x80200025) | Result = fzero(0x80000000)^0x200000
    'fs1 == 0 and fe1 == 0x00 and fm1 == 0x000047 and fs2 == 1 and fe2 == 0x00 and fm2 == 0x100047 and rm_val == 0  #nosat': 1 #  rs1_val==fsubnorm(0x00000047) and rs2_val==fsubnorm(0x80100047) | Result = fzero(0x80000000)^0x100000
    'fs1 == 0 and fe1 == 0x00 and fm1 == 0x00001b and fs2 == 1 and fe2 == 0x00 and fm2 == 0x08001b and rm_val == 0  #nosat': 1 #  rs1_val==fsubnorm(0x0000001b) and rs2_val==fsubnorm(0x8008001b) | Result = fzero(0x80000000)^0x080000
    'fs1 == 0 and fe1 == 0x00 and fm1 == 0x00002b and fs2 == 1 and fe2 == 0x00 and fm2 == 0x04002b and rm_val == 0  #nosat': 1 #  rs1_val==fsubnorm(0x0000002b) and rs2_val==fsubnorm(0x8004002b) | Result = fzero(0x80000000)^0x040000
    'fs1 == 0 and fe1 == 0x00 and fm1 == 0x000010 and fs2 == 1 and fe2 == 0x00 and fm2 == 0x020010 and rm_val == 0  #nosat': 1 #  rs1_val==fsubnorm(0x00000010) and rs2_val==fsubnorm(0x80020010) | Result = fzero(0x80000000)^0x020000
    'fs1 == 0 and fe1 == 0x00 and fm1 == 0x000026 and fs2 == 1 and fe2 == 0x00 and fm2 == 0x010026 and rm_val == 0  #nosat': 1 #  rs1_val==fsubnorm(0x00000026) and rs2_val==fsubnorm(0x80010026) | Result = fzero(0x80000000)^0x010000
    'fs1 == 0 and fe1 == 0x00 and fm1 == 0x000027 and fs2 == 1 and fe2 == 0x00 and fm2 == 0x008027 and rm_val == 0  #nosat': 1 #  rs1_val==fsubnorm(0x00000027) and rs2_val==fsubnorm(0x80008027) | Result = fzero(0x80000000)^0x008000
    'fs1 == 0 and fe1 == 0x00 and fm1 == 0x00003f and fs2 == 1 and fe2 == 0x00 and fm2 == 0x00403f and rm_val == 0  #nosat': 1 #  rs1_val==fsubnorm(0x0000003f) and rs2_val==fsubnorm(0x8000403f) | Result = fzero(0x80000000)^0x004000
    'fs1 == 0 and fe1 == 0x00 and fm1 == 0x000029 and fs2 == 1 and fe2 == 0x00 and fm2 == 0x002029 and rm_val == 0  #nosat': 1 #  rs1_val==fsubnorm(0x00000029) and rs2_val==fsubnorm(0x80002029) | Result = fzero(0x80000000)^0x002000
    'fs1 == 0 and fe1 == 0x00 and fm1 == 0x00000c and fs2 == 1 and fe2 == 0x00 and fm2 == 0x00100c and rm_val == 0  #nosat': 1 #  rs1_val==fsubnorm(0x0000000c) and rs2_val==fsubnorm(0x8000100c) | Result = fzero(0x80000000)^0x001000
    'fs1 == 0 and fe1 == 0x00 and fm1 == 0x000046 and fs2 == 1 and fe2 == 0x00 and fm2 == 0x000846 and rm_val == 0  #nosat': 1 #  rs1_val==fsubnorm(0x00000046) and rs2_val==fsubnorm(0x80000846) | Result = fzero(0x80000000)^0x000800
    'fs1 == 0 and fe1 == 0x00 and fm1 == 0x00001f and fs2 == 1 and fe2 == 0x00 and fm2 == 0x00041f and rm_val == 0  #nosat': 1 #  rs1_val==fsubnorm(0x0000001f) and rs2_val==fsubnorm(0x8000041f) | Result = fzero(0x80000000)^0x000400
    'fs1 == 0 and fe1 == 0x00 and fm1 == 0x000049 and fs2 == 1 and fe2 == 0x00 and fm2 == 0x000249 and rm_val == 0  #nosat': 1 #  rs1_val==fsubnorm(0x00000049) and rs2_val==fsubnorm(0x80000249) | Result = fzero(0x80000000)^0x000200
    'fs1 == 0 and fe1 == 0x00 and fm1 == 0x000009 and fs2 == 1 and fe2 == 0x00 and fm2 == 0x000109 and rm_val == 0  #nosat': 1 #  rs1_val==fsubnorm(0x00000009) and rs2_val==fsubnorm(0x80000109) | Result = fzero(0x80000000)^0x000100
    'fs1 == 0 and fe1 == 0x00 and fm1 == 0x00002a and fs2 == 1 and fe2 == 0x00 and fm2 == 0x0000aa and rm_val == 0  #nosat': 1 #  rs1_val==fsubnorm(0x0000002a) and rs2_val==fsubnorm(0x800000aa) | Result = fzero(0x80000000)^0x000080
    'fs1 == 0 and fe1 == 0x00 and fm1 == 0x000020 and fs2 == 1 and fe2 == 0x00 and fm2 == 0x000060 and rm_val == 0  #nosat': 1 #  rs1_val==fsubnorm(0x00000020) and rs2_val==fsubnorm(0x80000060) | Result = fzero(0x80000000)^0x000040
    'fs1 == 0 and fe1 == 0x00 and fm1 == 0x000040 and fs2 == 1 and fe2 == 0x00 and fm2 == 0x000060 and rm_val == 0  #nosat': 1 #  rs1_val==fsubnorm(0x00000040) and rs2_val==fsubnorm(0x80000060) | Result = fzero(0x80000000)^0x000020
    'fs1 == 0 and fe1 == 0x00 and fm1 == 0x000001 and fs2 == 1 and fe2 == 0x00 and fm2 == 0x000011 and rm_val == 0  #nosat': 1 #  rs1_val==fminsubnorm(0x00000001) and rs2_val==fsubnorm(0x80000011) | Result = fzero(0x80000000)^0x000010
    'fs1 == 0 and fe1 == 0x00 and fm1 == 0x000056 and fs2 == 1 and fe2 == 0x00 and fm2 == 0x00005e and rm_val == 0  #nosat': 1 #  rs1_val==fsubnorm(0x00000056) and rs2_val==fsubnorm(0x8000005e) | Result = fzero(0x80000000)^0x000008
    'fs1 == 0 and fe1 == 0x00 and fm1 == 0x000034 and fs2 == 1 and fe2 == 0x00 and fm2 == 0x000038 and rm_val == 0  #nosat': 1 #  rs1_val==fsubnorm(0x00000034) and rs2_val==fsubnorm(0x80000038) | Result = fzero(0x80000000)^0x000004
    'fs1 == 0 and fe1 == 0x00 and fm1 == 0x00000c and fs2 == 1 and fe2 == 0x00 and fm2 == 0x00000e and rm_val == 0  #nosat': 1 #  rs1_val==fsubnorm(0x0000000c) and rs2_val==fsubnorm(0x8000000e) | Result = fzero(0x80000000)^0x000002
    'fs1 == 0 and fe1 == 0x00 and fm1 == 0x000047 and fs2 == 1 and fe2 == 0x00 and fm2 == 0x000048 and rm_val == 0  #nosat': 1 #  rs1_val==fsubnorm(0x00000047) and rs2_val==fsubnorm(0x80000048) | Result = fzero(0x80000000)^0x000001
    'fs1 == 0 and fe1 == 0x00 and fm1 == 0x000022 and fs2 == 0 and fe2 == 0x00 and fm2 == 0x3fffde and rm_val == 0  #nosat': 1 #  rs1_val==fsubnorm(0x00000022) and rs2_val==fsubnorm(0x003fffde) | Result = fzero(0x00000000)^0x400000
    'fs1 == 0 and fe1 == 0x00 and fm1 == 0x000039 and fs2 == 0 and fe2 == 0x00 and fm2 == 0x1fffc7 and rm_val == 0  #nosat': 1 #  rs1_val==fsubnorm(0x00000039) and rs2_val==fsubnorm(0x001fffc7) | Result = fzero(0x00000000)^0x200000
    'fs1 == 0 and fe1 == 0x00 and fm1 == 0x000047 and fs2 == 0 and fe2 == 0x00 and fm2 == 0x0fffb9 and rm_val == 0  #nosat': 1 #  rs1_val==fsubnorm(0x00000047) and rs2_val==fsubnorm(0x000fffb9) | Result = fzero(0x00000000)^0x100000
    'fs1 == 0 and fe1 == 0x00 and fm1 == 0x000052 and fs2 == 0 and fe2 == 0x00 and fm2 == 0x07ffae and rm_val == 0  #nosat': 1 #  rs1_val==fsubnorm(0x00000052) and rs2_val==fsubnorm(0x0007ffae) | Result = fzero(0x00000000)^0x080000
    'fs1 == 0 and fe1 == 0x00 and fm1 == 0x000029 and fs2 == 0 and fe2 == 0x00 and fm2 == 0x03ffd7 and rm_val == 0  #nosat': 1 #  rs1_val==fsubnorm(0x00000029) and rs2_val==fsubnorm(0x0003ffd7) | Result = fzero(0x00000000)^0x040000
    'fs1 == 0 and fe1 == 0x00 and fm1 == 0x00002e and fs2 == 0 and fe2 == 0x00 and fm2 == 0x01ffd2 and rm_val == 0  #nosat': 1 #  rs1_val==fsubnorm(0x0000002e) and rs2_val==fsubnorm(0x0001ffd2) | Result = fzero(0x00000000)^0x020000
    'fs1 == 0 and fe1 == 0x00 and fm1 == 0x000048 and fs2 == 0 and fe2 == 0x00 and fm2 == 0x00ffb8 and rm_val == 0  #nosat': 1 #  rs1_val==fsubnorm(0x00000048) and rs2_val==fsubnorm(0x0000ffb8) | Result = fzero(0x00000000)^0x010000
    'fs1 == 0 and fe1 == 0x00 and fm1 == 0x00002b and fs2 == 0 and fe2 == 0x00 and fm2 == 0x007fd5 and rm_val == 0  #nosat': 1 #  rs1_val==fsubnorm(0x0000002b) and rs2_val==fsubnorm(0x00007fd5) | Result = fzero(0x00000000)^0x008000
    'fs1 == 0 and fe1 == 0x00 and fm1 == 0x00000a and fs2 == 0 and fe2 == 0x00 and fm2 == 0x003ff6 and rm_val == 0  #nosat': 1 #  rs1_val==fsubnorm(0x0000000a) and rs2_val==fsubnorm(0x00003ff6) | Result = fzero(0x00000000)^0x004000
    'fs1 == 0 and fe1 == 0x00 and fm1 == 0x00000d and fs2 == 0 and fe2 == 0x00 and fm2 == 0x001ff3 and rm_val == 0  #nosat': 1 #  rs1_val==fsubnorm(0x0000000d) and rs2_val==fsubnorm(0x00001ff3) | Result = fzero(0x00000000)^0x002000
    'fs1 == 0 and fe1 == 0x00 and fm1 == 0x000013 and fs2 == 0 and fe2 == 0x00 and fm2 == 0x000fed and rm_val == 0  #nosat': 1 #  rs1_val==fsubnorm(0x00000013) and rs2_val==fsubnorm(0x00000fed) | Result = fzero(0x00000000)^0x001000
    'fs1 == 0 and fe1 == 0x00 and fm1 == 0x00005b and fs2 == 0 and fe2 == 0x00 and fm2 == 0x0007a5 and rm_val == 0  #nosat': 1 #  rs1_val==fsubnorm(0x0000005b) and rs2_val==fsubnorm(0x000007a5) | Result = fzero(0x00000000)^0x000800
    'fs1 == 0 and fe1 == 0x00 and fm1 == 0x000021 and fs2 == 0 and fe2 == 0x00 and fm2 == 0x0003df and rm_val == 0  #nosat': 1 #  rs1_val==fsubnorm(0x00000021) and rs2_val==fsubnorm(0x000003df) | Result = fzero(0x00000000)^0x000400
    'fs1 == 0 and fe1 == 0x00 and fm1 == 0x00000d and fs2 == 0 and fe2 == 0x00 and fm2 == 0x0001f3 and rm_val == 0  #nosat': 1 #  rs1_val==fsubnorm(0x0000000d) and rs2_val==fsubnorm(0x000001f3) | Result = fzero(0x00000000)^0x000200
    'fs1 == 0 and fe1 == 0x00 and fm1 == 0x000012 and fs2 == 0 and fe2 == 0x00 and fm2 == 0x0000ee and rm_val == 0  #nosat': 1 #  rs1_val==fsubnorm(0x00000012) and rs2_val==fsubnorm(0x000000ee) | Result = fzero(0x00000000)^0x000100
    'fs1 == 0 and fe1 == 0x00 and fm1 == 0x000012 and fs2 == 0 and fe2 == 0x00 and fm2 == 0x00006e and rm_val == 0  #nosat': 1 #  rs1_val==fsubnorm(0x00000012) and rs2_val==fsubnorm(0x0000006e) | Result = fzero(0x00000000)^0x000080
    'fs1 == 0 and fe1 == 0x00 and fm1 == 0x00001c and fs2 == 0 and fe2 == 0x00 and fm2 == 0x000024 and rm_val == 0  #nosat': 1 #  rs1_val==fsubnorm(0x0000001c) and rs2_val==fsubnorm(0x00000024) | Result = fzero(0x00000000)^0x000040
    'fs1 == 0 and fe1 == 0x00 and fm1 == 0x00002e and fs2 == 1 and fe2 == 0x00 and fm2 == 0x00000e and rm_val == 0  #nosat': 1 #  rs1_val==fsubnorm(0x0000002e) and rs2_val==fsubnorm(0x8000000e) | Result = fzero(0x00000000)^0x000020
    'fs1 == 0 and fe1 == 0x00 and fm1 == 0x000027 and fs2 == 1 and fe2 == 0x00 and fm2 == 0x000017 and rm_val == 0  #nosat': 1 #  rs1_val==fsubnorm(0x00000027) and rs2_val==fsubnorm(0x80000017) | Result = fzero(0x00000000)^0x000010
    'fs1 == 0 and fe1 == 0x00 and fm1 == 0x00003f and fs2 == 1 and fe2 == 0x00 and fm2 == 0x000037 and rm_val == 0  #nosat': 1 #  rs1_val==fsubnorm(0x0000003f) and rs2_val==fsubnorm(0x80000037) | Result = fzero(0x00000000)^0x000008
    'fs1 == 0 and fe1 == 0x00 and fm1 == 0x000022 and fs2 == 1 and fe2 == 0x00 and fm2 == 0x00001e and rm_val == 0  #nosat': 1 #  rs1_val==fsubnorm(0x00000022) and rs2_val==fsubnorm(0x8000001e) | Result = fzero(0x00000000)^0x000004
    'fs1 == 0 and fe1 == 0x00 and fm1 == 0x000036 and fs2 == 1 and fe2 == 0x00 and fm2 == 0x000034 and rm_val == 0  #nosat': 1 #  rs1_val==fsubnorm(0x00000036) and rs2_val==fsubnorm(0x80000034) | Result = fzero(0x00000000)^0x000002
    coverage: 275/275
  total_coverage: 377/377
