---
fnmsub.d_b4:
  config:
  - check ISA:=regex(.*I.*D.*)
  mnemonics:
    fnmsub.d: 148
    coverage: 1/1
  op_comb:
    rd == rs2 == rs3 != rs1: 1
    rs1 != rs2 and rs1 != rd and rs1 != rs3 and rs2 != rs3 and rs2 != rd and rs3 != rd: 137
    rs1 == rd != rs2 and rs1 == rd != rs3 and rs3 != rs2: 1
    rs1 == rd == rs3 != rs2: 1
    rs1 == rs2 != rs3 and rs1 == rs2 != rd and rd != rs3: 1
    rs1 == rs2 == rd != rs3: 1
    rs1 == rs2 == rs3 != rd: 1
    rs1 == rs2 == rs3 == rd: 1
    rs1 == rs3 != rs2 and rs1 == rs3 != rd and rd != rs2: 1
    rs2 == rd != rs1 and rs2 == rd != rs3 and rs3 != rs1: 1
    rs2 == rs3 != rs1 and rs2 == rs3 != rd and rd != rs1: 1
    rs3 == rd != rs1 and rs3 == rd != rs2 and rs2 != rs1: 1
    coverage: 12/12
  rd:
    f0: 1
    f1: 1
    f10: 1
    f11: 1
    f12: 1
    f13: 1
    f14: 1
    f15: 1
    f16: 1
    f17: 1
    f18: 1
    f19: 1
    f2: 1
    f20: 1
    f21: 1
    f22: 1
    f23: 1
    f24: 1
    f25: 1
    f26: 1
    f27: 1
    f28: 1
    f29: 1
    f3: 1
    f30: 1
    f31: 117
    f4: 1
    f5: 1
    f6: 1
    f7: 1
    f8: 1
    f9: 1
    coverage: 32/32
  rs1:
    f0: 1
    f1: 1
    f10: 1
    f11: 1
    f12: 1
    f13: 1
    f14: 1
    f15: 1
    f16: 1
    f17: 1
    f18: 1
    f19: 1
    f2: 1
    f20: 1
    f21: 1
    f22: 1
    f23: 1
    f24: 1
    f25: 1
    f26: 1
    f27: 1
    f28: 1
    f29: 1
    f3: 1
    f30: 115
    f31: 3
    f4: 1
    f5: 1
    f6: 1
    f7: 1
    f8: 1
    f9: 1
    coverage: 32/32
  rs2:
    f0: 1
    f1: 1
    f10: 1
    f11: 1
    f12: 1
    f13: 1
    f14: 1
    f15: 1
    f16: 1
    f17: 1
    f18: 1
    f19: 1
    f2: 1
    f20: 1
    f21: 1
    f22: 1
    f23: 1
    f24: 1
    f25: 1
    f26: 1
    f27: 1
    f28: 1
    f29: 113
    f3: 1
    f30: 5
    f31: 1
    f4: 1
    f5: 1
    f6: 1
    f7: 1
    f8: 1
    f9: 1
    coverage: 32/32
  rs3:
    f0: 1
    f1: 1
    f10: 1
    f11: 1
    f12: 1
    f13: 1
    f14: 1
    f15: 1
    f16: 1
    f17: 1
    f18: 1
    f19: 1
    f2: 1
    f20: 1
    f21: 1
    f22: 1
    f23: 1
    f24: 1
    f25: 1
    f26: 1
    f27: 1
    f28: 111
    f29: 7
    f3: 1
    f30: 1
    f31: 1
    f4: 1
    f5: 1
    f6: 1
    f7: 1
    f8: 1
    f9: 1
    coverage: 32/32
  val_comb:
    ? 'fs1 == 0 and fe1 == 0x7fb and fm1 == 0x6edc5cf85ef57 and fs2 == 1 and fe2 ==
      0x402 and fm2 == 0xb8f2e4f11fd26 and fs3 == 0 and fe3 == 0x7fc and fm3 == 0xdf9b50c24f6a7
      and fcsr == 0x2 and rm_val == 7   #nosat'
    : 1
    ? 'fs1 == 0 and fe1 == 0x7fb and fm1 == 0x6edc5cf85ef57 and fs2 == 1 and fe2 ==
      0x402 and fm2 == 0xb8f2e4f11fd26 and fs3 == 0 and fe3 == 0x7fc and fm3 == 0xdf9b50c24f6a7
      and fcsr == 0x22 and rm_val == 7   #nosat'
    : 1
    ? 'fs1 == 0 and fe1 == 0x7fb and fm1 == 0x6edc5cf85ef57 and fs2 == 1 and fe2 ==
      0x402 and fm2 == 0xb8f2e4f11fd26 and fs3 == 0 and fe3 == 0x7fc and fm3 == 0xdf9b50c24f6a7
      and fcsr == 0x42 and rm_val == 7   #nosat'
    : 1
    ? 'fs1 == 0 and fe1 == 0x7fb and fm1 == 0x6edc5cf85ef57 and fs2 == 1 and fe2 ==
      0x402 and fm2 == 0xb8f2e4f11fd26 and fs3 == 0 and fe3 == 0x7fc and fm3 == 0xdf9b50c24f6a7
      and fcsr == 0x62 and rm_val == 7   #nosat'
    : 1
    ? 'fs1 == 0 and fe1 == 0x7fb and fm1 == 0x6edc5cf85ef57 and fs2 == 1 and fe2 ==
      0x402 and fm2 == 0xb8f2e4f11fd26 and fs3 == 0 and fe3 == 0x7fc and fm3 == 0xdf9b50c24f6a7
      and fcsr == 0x82 and rm_val == 7   #nosat'
    : 1
    ? 'fs1 == 0 and fe1 == 0x7f9 and fm1 == 0x47899d9bfab7f and fs2 == 1 and fe2 ==
      0x404 and fm2 == 0xfaed66280d8b5 and fs3 == 0 and fe3 == 0x7fd and fm3 == 0x112b7d42952fb
      and fcsr == 0x2 and rm_val == 7   #nosat'
    : 1
    ? 'fs1 == 0 and fe1 == 0x7f9 and fm1 == 0x47899d9bfab7f and fs2 == 1 and fe2 ==
      0x404 and fm2 == 0xfaed66280d8b5 and fs3 == 0 and fe3 == 0x7fd and fm3 == 0x112b7d42952fb
      and fcsr == 0x22 and rm_val == 7   #nosat'
    : 1
    ? 'fs1 == 0 and fe1 == 0x7f9 and fm1 == 0x47899d9bfab7f and fs2 == 1 and fe2 ==
      0x404 and fm2 == 0xfaed66280d8b5 and fs3 == 0 and fe3 == 0x7fd and fm3 == 0x112b7d42952fb
      and fcsr == 0x42 and rm_val == 7   #nosat'
    : 1
    ? 'fs1 == 0 and fe1 == 0x7f9 and fm1 == 0x47899d9bfab7f and fs2 == 1 and fe2 ==
      0x404 and fm2 == 0xfaed66280d8b5 and fs3 == 0 and fe3 == 0x7fd and fm3 == 0x112b7d42952fb
      and fcsr == 0x62 and rm_val == 7   #nosat'
    : 1
    ? 'fs1 == 0 and fe1 == 0x7f9 and fm1 == 0x47899d9bfab7f and fs2 == 1 and fe2 ==
      0x404 and fm2 == 0xfaed66280d8b5 and fs3 == 0 and fe3 == 0x7fd and fm3 == 0x112b7d42952fb
      and fcsr == 0x82 and rm_val == 7   #nosat'
    : 1
    ? 'fs1 == 0 and fe1 == 0x7fd and fm1 == 0xa172a2bcb69dd and fs2 == 1 and fe2 ==
      0x401 and fm2 == 0x2a9bea1ec3bd8 and fs3 == 0 and fe3 == 0x7fe and fm3 == 0xcddb5f3a506a8
      and fcsr == 0x2 and rm_val == 7   #nosat'
    : 1
    ? 'fs1 == 0 and fe1 == 0x7fd and fm1 == 0xa172a2bcb69dd and fs2 == 1 and fe2 ==
      0x401 and fm2 == 0x2a9bea1ec3bd8 and fs3 == 0 and fe3 == 0x7fe and fm3 == 0xcddb5f3a506a8
      and fcsr == 0x22 and rm_val == 7   #nosat'
    : 1
    ? 'fs1 == 0 and fe1 == 0x7fd and fm1 == 0xa172a2bcb69dd and fs2 == 1 and fe2 ==
      0x401 and fm2 == 0x2a9bea1ec3bd8 and fs3 == 0 and fe3 == 0x7fe and fm3 == 0xcddb5f3a506a8
      and fcsr == 0x42 and rm_val == 7   #nosat'
    : 1
    ? 'fs1 == 0 and fe1 == 0x7fd and fm1 == 0xa172a2bcb69dd and fs2 == 1 and fe2 ==
      0x401 and fm2 == 0x2a9bea1ec3bd8 and fs3 == 0 and fe3 == 0x7fe and fm3 == 0xcddb5f3a506a8
      and fcsr == 0x62 and rm_val == 7   #nosat'
    : 1
    ? 'fs1 == 0 and fe1 == 0x7fd and fm1 == 0xa172a2bcb69dd and fs2 == 1 and fe2 ==
      0x401 and fm2 == 0x2a9bea1ec3bd8 and fs3 == 0 and fe3 == 0x7fe and fm3 == 0xcddb5f3a506a8
      and fcsr == 0x82 and rm_val == 7   #nosat'
    : 1
    ? 'fs1 == 0 and fe1 == 0x7fd and fm1 == 0x842c58dceda19 and fs2 == 1 and fe2 ==
      0x400 and fm2 == 0x781104c024b06 and fs3 == 0 and fe3 == 0x7fb and fm3 == 0xd1d785536fc77
      and fcsr == 0x2 and rm_val == 7   #nosat'
    : 1
    ? 'fs1 == 0 and fe1 == 0x7fd and fm1 == 0x842c58dceda19 and fs2 == 1 and fe2 ==
      0x400 and fm2 == 0x781104c024b06 and fs3 == 0 and fe3 == 0x7fb and fm3 == 0xd1d785536fc77
      and fcsr == 0x22 and rm_val == 7   #nosat'
    : 1
    ? 'fs1 == 0 and fe1 == 0x7fd and fm1 == 0x842c58dceda19 and fs2 == 1 and fe2 ==
      0x400 and fm2 == 0x781104c024b06 and fs3 == 0 and fe3 == 0x7fb and fm3 == 0xd1d785536fc77
      and fcsr == 0x42 and rm_val == 7   #nosat'
    : 1
    ? 'fs1 == 0 and fe1 == 0x7fd and fm1 == 0x842c58dceda19 and fs2 == 1 and fe2 ==
      0x400 and fm2 == 0x781104c024b06 and fs3 == 0 and fe3 == 0x7fb and fm3 == 0xd1d785536fc77
      and fcsr == 0x62 and rm_val == 7   #nosat'
    : 1
    ? 'fs1 == 0 and fe1 == 0x7fd and fm1 == 0x842c58dceda19 and fs2 == 1 and fe2 ==
      0x400 and fm2 == 0x781104c024b06 and fs3 == 0 and fe3 == 0x7fb and fm3 == 0xd1d785536fc77
      and fcsr == 0x82 and rm_val == 7   #nosat'
    : 1
    ? 'fs1 == 0 and fe1 == 0x7fd and fm1 == 0x088ea90c6ff9b and fs2 == 1 and fe2 ==
      0x401 and fm2 == 0xed5bda0d17287 and fs3 == 0 and fe3 == 0x7fe and fm3 == 0xfbb34f341c62f
      and fcsr == 0x2 and rm_val == 7   #nosat'
    : 1
    ? 'fs1 == 0 and fe1 == 0x7fd and fm1 == 0x088ea90c6ff9b and fs2 == 1 and fe2 ==
      0x401 and fm2 == 0xed5bda0d17287 and fs3 == 0 and fe3 == 0x7fe and fm3 == 0xfbb34f341c62f
      and fcsr == 0x22 and rm_val == 7   #nosat'
    : 1
    ? 'fs1 == 0 and fe1 == 0x7fd and fm1 == 0x088ea90c6ff9b and fs2 == 1 and fe2 ==
      0x401 and fm2 == 0xed5bda0d17287 and fs3 == 0 and fe3 == 0x7fe and fm3 == 0xfbb34f341c62f
      and fcsr == 0x42 and rm_val == 7   #nosat'
    : 1
    ? 'fs1 == 0 and fe1 == 0x7fd and fm1 == 0x088ea90c6ff9b and fs2 == 1 and fe2 ==
      0x401 and fm2 == 0xed5bda0d17287 and fs3 == 0 and fe3 == 0x7fe and fm3 == 0xfbb34f341c62f
      and fcsr == 0x62 and rm_val == 7   #nosat'
    : 1
    ? 'fs1 == 0 and fe1 == 0x7fd and fm1 == 0x088ea90c6ff9b and fs2 == 1 and fe2 ==
      0x401 and fm2 == 0xed5bda0d17287 and fs3 == 0 and fe3 == 0x7fe and fm3 == 0xfbb34f341c62f
      and fcsr == 0x82 and rm_val == 7   #nosat'
    : 1
    ? 'fs1 == 0 and fe1 == 0x7fb and fm1 == 0x026946c5d22f7 and fs2 == 1 and fe2 ==
      0x403 and fm2 == 0x9ae4916027c77 and fs3 == 0 and fe3 == 0x7fe and fm3 == 0x3d86a7b5170e5
      and fcsr == 0x2 and rm_val == 7   #nosat'
    : 1
    ? 'fs1 == 0 and fe1 == 0x7fb and fm1 == 0x026946c5d22f7 and fs2 == 1 and fe2 ==
      0x403 and fm2 == 0x9ae4916027c77 and fs3 == 0 and fe3 == 0x7fe and fm3 == 0x3d86a7b5170e5
      and fcsr == 0x22 and rm_val == 7   #nosat'
    : 1
    ? 'fs1 == 0 and fe1 == 0x7fb and fm1 == 0x026946c5d22f7 and fs2 == 1 and fe2 ==
      0x403 and fm2 == 0x9ae4916027c77 and fs3 == 0 and fe3 == 0x7fe and fm3 == 0x3d86a7b5170e5
      and fcsr == 0x42 and rm_val == 7   #nosat'
    : 1
    ? 'fs1 == 0 and fe1 == 0x7fb and fm1 == 0x026946c5d22f7 and fs2 == 1 and fe2 ==
      0x403 and fm2 == 0x9ae4916027c77 and fs3 == 0 and fe3 == 0x7fe and fm3 == 0x3d86a7b5170e5
      and fcsr == 0x62 and rm_val == 7   #nosat'
    : 1
    ? 'fs1 == 0 and fe1 == 0x7fb and fm1 == 0x026946c5d22f7 and fs2 == 1 and fe2 ==
      0x403 and fm2 == 0x9ae4916027c77 and fs3 == 0 and fe3 == 0x7fe and fm3 == 0x3d86a7b5170e5
      and fcsr == 0x82 and rm_val == 7   #nosat'
    : 1
    ? 'fs1 == 0 and fe1 == 0x7fd and fm1 == 0x8242100dca0f9 and fs2 == 1 and fe2 ==
      0x401 and fm2 == 0x19cb243429355 and fs3 == 0 and fe3 == 0x7fe and fm3 == 0x525a0943b7292
      and fcsr == 0x2 and rm_val == 7   #nosat'
    : 1
    ? 'fs1 == 0 and fe1 == 0x7fd and fm1 == 0x8242100dca0f9 and fs2 == 1 and fe2 ==
      0x401 and fm2 == 0x19cb243429355 and fs3 == 0 and fe3 == 0x7fe and fm3 == 0x525a0943b7292
      and fcsr == 0x22 and rm_val == 7   #nosat'
    : 1
    ? 'fs1 == 0 and fe1 == 0x7fd and fm1 == 0x8242100dca0f9 and fs2 == 1 and fe2 ==
      0x401 and fm2 == 0x19cb243429355 and fs3 == 0 and fe3 == 0x7fe and fm3 == 0x525a0943b7292
      and fcsr == 0x42 and rm_val == 7   #nosat'
    : 1
    ? 'fs1 == 0 and fe1 == 0x7fd and fm1 == 0x8242100dca0f9 and fs2 == 1 and fe2 ==
      0x401 and fm2 == 0x19cb243429355 and fs3 == 0 and fe3 == 0x7fe and fm3 == 0x525a0943b7292
      and fcsr == 0x62 and rm_val == 7   #nosat'
    : 1
    ? 'fs1 == 0 and fe1 == 0x7fd and fm1 == 0x8242100dca0f9 and fs2 == 1 and fe2 ==
      0x401 and fm2 == 0x19cb243429355 and fs3 == 0 and fe3 == 0x7fe and fm3 == 0x525a0943b7292
      and fcsr == 0x82 and rm_val == 7   #nosat'
    : 1
    ? 'fs1 == 0 and fe1 == 0x7fd and fm1 == 0x5a8fa51e01729 and fs2 == 1 and fe2 ==
      0x401 and fm2 == 0x3fd4ccd713462 and fs3 == 0 and fe3 == 0x7fe and fm3 == 0x61f2260581ec6
      and fcsr == 0x2 and rm_val == 7   #nosat'
    : 1
    ? 'fs1 == 0 and fe1 == 0x7fd and fm1 == 0x5a8fa51e01729 and fs2 == 1 and fe2 ==
      0x401 and fm2 == 0x3fd4ccd713462 and fs3 == 0 and fe3 == 0x7fe and fm3 == 0x61f2260581ec6
      and fcsr == 0x22 and rm_val == 7   #nosat'
    : 1
    ? 'fs1 == 0 and fe1 == 0x7fd and fm1 == 0x5a8fa51e01729 and fs2 == 1 and fe2 ==
      0x401 and fm2 == 0x3fd4ccd713462 and fs3 == 0 and fe3 == 0x7fe and fm3 == 0x61f2260581ec6
      and fcsr == 0x42 and rm_val == 7   #nosat'
    : 1
    ? 'fs1 == 0 and fe1 == 0x7fd and fm1 == 0x5a8fa51e01729 and fs2 == 1 and fe2 ==
      0x401 and fm2 == 0x3fd4ccd713462 and fs3 == 0 and fe3 == 0x7fe and fm3 == 0x61f2260581ec6
      and fcsr == 0x62 and rm_val == 7   #nosat'
    : 1
    ? 'fs1 == 0 and fe1 == 0x7fd and fm1 == 0x5a8fa51e01729 and fs2 == 1 and fe2 ==
      0x401 and fm2 == 0x3fd4ccd713462 and fs3 == 0 and fe3 == 0x7fe and fm3 == 0x61f2260581ec6
      and fcsr == 0x82 and rm_val == 7   #nosat'
    : 1
    ? 'fs1 == 0 and fe1 == 0x7fd and fm1 == 0xfd85c073a2591 and fs2 == 1 and fe2 ==
      0x400 and fm2 == 0xa861d98748e27 and fs3 == 0 and fe3 == 0x7fe and fm3 == 0x4ca84761136ef
      and fcsr == 0x2 and rm_val == 7   #nosat'
    : 1
    ? 'fs1 == 0 and fe1 == 0x7fd and fm1 == 0xfd85c073a2591 and fs2 == 1 and fe2 ==
      0x400 and fm2 == 0xa861d98748e27 and fs3 == 0 and fe3 == 0x7fe and fm3 == 0x4ca84761136ef
      and fcsr == 0x22 and rm_val == 7   #nosat'
    : 1
    ? 'fs1 == 0 and fe1 == 0x7fd and fm1 == 0xfd85c073a2591 and fs2 == 1 and fe2 ==
      0x400 and fm2 == 0xa861d98748e27 and fs3 == 0 and fe3 == 0x7fe and fm3 == 0x4ca84761136ef
      and fcsr == 0x42 and rm_val == 7   #nosat'
    : 1
    ? 'fs1 == 0 and fe1 == 0x7fd and fm1 == 0xfd85c073a2591 and fs2 == 1 and fe2 ==
      0x400 and fm2 == 0xa861d98748e27 and fs3 == 0 and fe3 == 0x7fe and fm3 == 0x4ca84761136ef
      and fcsr == 0x62 and rm_val == 7   #nosat'
    : 1
    ? 'fs1 == 0 and fe1 == 0x7fd and fm1 == 0xfd85c073a2591 and fs2 == 1 and fe2 ==
      0x400 and fm2 == 0xa861d98748e27 and fs3 == 0 and fe3 == 0x7fe and fm3 == 0x4ca84761136ef
      and fcsr == 0x82 and rm_val == 7   #nosat'
    : 1
    ? 'fs1 == 0 and fe1 == 0x7fe and fm1 == 0xcd8104cd4e803 and fs2 == 1 and fe2 ==
      0x3ff and fm2 == 0xc12c4e221f23c and fs3 == 0 and fe3 == 0x7fe and fm3 == 0x29bf2873bcb4b
      and fcsr == 0x2 and rm_val == 7   #nosat'
    : 1
    ? 'fs1 == 0 and fe1 == 0x7fe and fm1 == 0xcd8104cd4e803 and fs2 == 1 and fe2 ==
      0x3ff and fm2 == 0xc12c4e221f23c and fs3 == 0 and fe3 == 0x7fe and fm3 == 0x29bf2873bcb4b
      and fcsr == 0x22 and rm_val == 7   #nosat'
    : 1
    ? 'fs1 == 0 and fe1 == 0x7fe and fm1 == 0xcd8104cd4e803 and fs2 == 1 and fe2 ==
      0x3ff and fm2 == 0xc12c4e221f23c and fs3 == 0 and fe3 == 0x7fe and fm3 == 0x29bf2873bcb4b
      and fcsr == 0x42 and rm_val == 7   #nosat'
    : 1
    ? 'fs1 == 0 and fe1 == 0x7fe and fm1 == 0xcd8104cd4e803 and fs2 == 1 and fe2 ==
      0x3ff and fm2 == 0xc12c4e221f23c and fs3 == 0 and fe3 == 0x7fe and fm3 == 0x29bf2873bcb4b
      and fcsr == 0x62 and rm_val == 7   #nosat'
    : 1
    ? 'fs1 == 0 and fe1 == 0x7fe and fm1 == 0xcd8104cd4e803 and fs2 == 1 and fe2 ==
      0x3ff and fm2 == 0xc12c4e221f23c and fs3 == 0 and fe3 == 0x7fe and fm3 == 0x29bf2873bcb4b
      and fcsr == 0x82 and rm_val == 7   #nosat'
    : 1
    ? 'fs1 == 0 and fe1 == 0x7fc and fm1 == 0x23193c9b51c5f and fs2 == 1 and fe2 ==
      0x401 and fm2 == 0xdf407fe3fe871 and fs3 == 0 and fe3 == 0x7fb and fm3 == 0x07ac811455a27
      and fcsr == 0x2 and rm_val == 7   #nosat'
    : 1
    ? 'fs1 == 0 and fe1 == 0x7fc and fm1 == 0x23193c9b51c5f and fs2 == 1 and fe2 ==
      0x401 and fm2 == 0xdf407fe3fe871 and fs3 == 0 and fe3 == 0x7fb and fm3 == 0x07ac811455a27
      and fcsr == 0x22 and rm_val == 7   #nosat'
    : 1
    ? 'fs1 == 0 and fe1 == 0x7fc and fm1 == 0x23193c9b51c5f and fs2 == 1 and fe2 ==
      0x401 and fm2 == 0xdf407fe3fe871 and fs3 == 0 and fe3 == 0x7fb and fm3 == 0x07ac811455a27
      and fcsr == 0x42 and rm_val == 7   #nosat'
    : 1
    ? 'fs1 == 0 and fe1 == 0x7fc and fm1 == 0x23193c9b51c5f and fs2 == 1 and fe2 ==
      0x401 and fm2 == 0xdf407fe3fe871 and fs3 == 0 and fe3 == 0x7fb and fm3 == 0x07ac811455a27
      and fcsr == 0x62 and rm_val == 7   #nosat'
    : 1
    ? 'fs1 == 0 and fe1 == 0x7fc and fm1 == 0x23193c9b51c5f and fs2 == 1 and fe2 ==
      0x401 and fm2 == 0xdf407fe3fe871 and fs3 == 0 and fe3 == 0x7fb and fm3 == 0x07ac811455a27
      and fcsr == 0x82 and rm_val == 7   #nosat'
    : 1
    ? 'fs1 == 0 and fe1 == 0x7fe and fm1 == 0xe460da8265d2d and fs2 == 1 and fe2 ==
      0x3ff and fm2 == 0x92d4b2f309f8a and fs3 == 0 and fe3 == 0x7fd and fm3 == 0xf46513d9d53ab
      and fcsr == 0x2 and rm_val == 7   #nosat'
    : 1
    ? 'fs1 == 0 and fe1 == 0x7fe and fm1 == 0xe460da8265d2d and fs2 == 1 and fe2 ==
      0x3ff and fm2 == 0x92d4b2f309f8a and fs3 == 0 and fe3 == 0x7fd and fm3 == 0xf46513d9d53ab
      and fcsr == 0x22 and rm_val == 7   #nosat'
    : 1
    ? 'fs1 == 0 and fe1 == 0x7fe and fm1 == 0xe460da8265d2d and fs2 == 1 and fe2 ==
      0x3ff and fm2 == 0x92d4b2f309f8a and fs3 == 0 and fe3 == 0x7fd and fm3 == 0xf46513d9d53ab
      and fcsr == 0x42 and rm_val == 7   #nosat'
    : 1
    ? 'fs1 == 0 and fe1 == 0x7fe and fm1 == 0xe460da8265d2d and fs2 == 1 and fe2 ==
      0x3ff and fm2 == 0x92d4b2f309f8a and fs3 == 0 and fe3 == 0x7fd and fm3 == 0xf46513d9d53ab
      and fcsr == 0x62 and rm_val == 7   #nosat'
    : 1
    ? 'fs1 == 0 and fe1 == 0x7fe and fm1 == 0xe460da8265d2d and fs2 == 1 and fe2 ==
      0x3ff and fm2 == 0x92d4b2f309f8a and fs3 == 0 and fe3 == 0x7fd and fm3 == 0xf46513d9d53ab
      and fcsr == 0x82 and rm_val == 7   #nosat'
    : 1
    ? 'fs1 == 0 and fe1 == 0x7fc and fm1 == 0x8d035325f0f1f and fs2 == 1 and fe2 ==
      0x402 and fm2 == 0x413d1f8d0c012 and fs3 == 0 and fe3 == 0x7fe and fm3 == 0xe45febf70f5c4
      and fcsr == 0x2 and rm_val == 7   #nosat'
    : 1
    ? 'fs1 == 0 and fe1 == 0x7fc and fm1 == 0x8d035325f0f1f and fs2 == 1 and fe2 ==
      0x402 and fm2 == 0x413d1f8d0c012 and fs3 == 0 and fe3 == 0x7fe and fm3 == 0xe45febf70f5c4
      and fcsr == 0x22 and rm_val == 7   #nosat'
    : 1
    ? 'fs1 == 0 and fe1 == 0x7fc and fm1 == 0x8d035325f0f1f and fs2 == 1 and fe2 ==
      0x402 and fm2 == 0x413d1f8d0c012 and fs3 == 0 and fe3 == 0x7fe and fm3 == 0xe45febf70f5c4
      and fcsr == 0x42 and rm_val == 7   #nosat'
    : 1
    ? 'fs1 == 0 and fe1 == 0x7fc and fm1 == 0x8d035325f0f1f and fs2 == 1 and fe2 ==
      0x402 and fm2 == 0x413d1f8d0c012 and fs3 == 0 and fe3 == 0x7fe and fm3 == 0xe45febf70f5c4
      and fcsr == 0x62 and rm_val == 7   #nosat'
    : 1
    ? 'fs1 == 0 and fe1 == 0x7fc and fm1 == 0x8d035325f0f1f and fs2 == 1 and fe2 ==
      0x402 and fm2 == 0x413d1f8d0c012 and fs3 == 0 and fe3 == 0x7fe and fm3 == 0xe45febf70f5c4
      and fcsr == 0x82 and rm_val == 7   #nosat'
    : 1
    ? 'fs1 == 0 and fe1 == 0x7fe and fm1 == 0x286daddd336a6 and fs2 == 1 and fe2 ==
      0x400 and fm2 == 0x7e3e64752bdd8 and fs3 == 0 and fe3 == 0x7fe and fm3 == 0x7537d0a566421
      and fcsr == 0x2 and rm_val == 7   #nosat'
    : 1
    ? 'fs1 == 0 and fe1 == 0x7fe and fm1 == 0x286daddd336a6 and fs2 == 1 and fe2 ==
      0x400 and fm2 == 0x7e3e64752bdd8 and fs3 == 0 and fe3 == 0x7fe and fm3 == 0x7537d0a566421
      and fcsr == 0x22 and rm_val == 7   #nosat'
    : 1
    ? 'fs1 == 0 and fe1 == 0x7fe and fm1 == 0x286daddd336a6 and fs2 == 1 and fe2 ==
      0x400 and fm2 == 0x7e3e64752bdd8 and fs3 == 0 and fe3 == 0x7fe and fm3 == 0x7537d0a566421
      and fcsr == 0x42 and rm_val == 7   #nosat'
    : 1
    ? 'fs1 == 0 and fe1 == 0x7fe and fm1 == 0x286daddd336a6 and fs2 == 1 and fe2 ==
      0x400 and fm2 == 0x7e3e64752bdd8 and fs3 == 0 and fe3 == 0x7fe and fm3 == 0x7537d0a566421
      and fcsr == 0x62 and rm_val == 7   #nosat'
    : 1
    ? 'fs1 == 0 and fe1 == 0x7fe and fm1 == 0x286daddd336a6 and fs2 == 1 and fe2 ==
      0x400 and fm2 == 0x7e3e64752bdd8 and fs3 == 0 and fe3 == 0x7fe and fm3 == 0x7537d0a566421
      and fcsr == 0x82 and rm_val == 7   #nosat'
    : 1
    ? 'fs1 == 0 and fe1 == 0x7fe and fm1 == 0xc30d25dc7d1f8 and fs2 == 1 and fe2 ==
      0x3fe and fm2 == 0x29c66c9d482fb and fs3 == 0 and fe3 == 0x7fd and fm3 == 0x248247c756437
      and fcsr == 0x2 and rm_val == 7   #nosat'
    : 1
    ? 'fs1 == 0 and fe1 == 0x7fe and fm1 == 0xc30d25dc7d1f8 and fs2 == 1 and fe2 ==
      0x3fe and fm2 == 0x29c66c9d482fb and fs3 == 0 and fe3 == 0x7fd and fm3 == 0x248247c756437
      and fcsr == 0x22 and rm_val == 7   #nosat'
    : 1
    ? 'fs1 == 0 and fe1 == 0x7fe and fm1 == 0xc30d25dc7d1f8 and fs2 == 1 and fe2 ==
      0x3fe and fm2 == 0x29c66c9d482fb and fs3 == 0 and fe3 == 0x7fd and fm3 == 0x248247c756437
      and fcsr == 0x42 and rm_val == 7   #nosat'
    : 1
    ? 'fs1 == 0 and fe1 == 0x7fe and fm1 == 0xc30d25dc7d1f8 and fs2 == 1 and fe2 ==
      0x3fe and fm2 == 0x29c66c9d482fb and fs3 == 0 and fe3 == 0x7fd and fm3 == 0x248247c756437
      and fcsr == 0x62 and rm_val == 7   #nosat'
    : 1
    ? 'fs1 == 0 and fe1 == 0x7fe and fm1 == 0xc30d25dc7d1f8 and fs2 == 1 and fe2 ==
      0x3fe and fm2 == 0x29c66c9d482fb and fs3 == 0 and fe3 == 0x7fd and fm3 == 0x248247c756437
      and fcsr == 0x82 and rm_val == 7   #nosat'
    : 1
    ? 'fs1 == 0 and fe1 == 0x7fd and fm1 == 0x6d41e8ed71efb and fs2 == 1 and fe2 ==
      0x400 and fm2 == 0x18907e493e2f5 and fs3 == 0 and fe3 == 0x7fe and fm3 == 0xc1933e5b458c9
      and fcsr == 0x2 and rm_val == 7   #nosat'
    : 1
    ? 'fs1 == 0 and fe1 == 0x7fd and fm1 == 0x6d41e8ed71efb and fs2 == 1 and fe2 ==
      0x400 and fm2 == 0x18907e493e2f5 and fs3 == 0 and fe3 == 0x7fe and fm3 == 0xc1933e5b458c9
      and fcsr == 0x22 and rm_val == 7   #nosat'
    : 1
    ? 'fs1 == 0 and fe1 == 0x7fd and fm1 == 0x6d41e8ed71efb and fs2 == 1 and fe2 ==
      0x400 and fm2 == 0x18907e493e2f5 and fs3 == 0 and fe3 == 0x7fe and fm3 == 0xc1933e5b458c9
      and fcsr == 0x42 and rm_val == 7   #nosat'
    : 1
    ? 'fs1 == 0 and fe1 == 0x7fd and fm1 == 0x6d41e8ed71efb and fs2 == 1 and fe2 ==
      0x400 and fm2 == 0x18907e493e2f5 and fs3 == 0 and fe3 == 0x7fe and fm3 == 0xc1933e5b458c9
      and fcsr == 0x62 and rm_val == 7   #nosat'
    : 1
    ? 'fs1 == 0 and fe1 == 0x7fd and fm1 == 0x6d41e8ed71efb and fs2 == 1 and fe2 ==
      0x400 and fm2 == 0x18907e493e2f5 and fs3 == 0 and fe3 == 0x7fe and fm3 == 0xc1933e5b458c9
      and fcsr == 0x82 and rm_val == 7   #nosat'
    : 1
    ? 'fs1 == 0 and fe1 == 0x7fc and fm1 == 0x146e28288654f and fs2 == 1 and fe2 ==
      0x401 and fm2 == 0xa64c77bdc4c08 and fs3 == 0 and fe3 == 0x7fe and fm3 == 0x8751b6a67be4c
      and fcsr == 0x2 and rm_val == 7   #nosat'
    : 1
    ? 'fs1 == 0 and fe1 == 0x7fc and fm1 == 0x146e28288654f and fs2 == 1 and fe2 ==
      0x401 and fm2 == 0xa64c77bdc4c08 and fs3 == 0 and fe3 == 0x7fe and fm3 == 0x8751b6a67be4c
      and fcsr == 0x22 and rm_val == 7   #nosat'
    : 1
    ? 'fs1 == 0 and fe1 == 0x7fc and fm1 == 0x146e28288654f and fs2 == 1 and fe2 ==
      0x401 and fm2 == 0xa64c77bdc4c08 and fs3 == 0 and fe3 == 0x7fe and fm3 == 0x8751b6a67be4c
      and fcsr == 0x42 and rm_val == 7   #nosat'
    : 1
    ? 'fs1 == 0 and fe1 == 0x7fc and fm1 == 0x146e28288654f and fs2 == 1 and fe2 ==
      0x401 and fm2 == 0xa64c77bdc4c08 and fs3 == 0 and fe3 == 0x7fe and fm3 == 0x8751b6a67be4c
      and fcsr == 0x62 and rm_val == 7   #nosat'
    : 1
    ? 'fs1 == 0 and fe1 == 0x7fc and fm1 == 0x146e28288654f and fs2 == 1 and fe2 ==
      0x401 and fm2 == 0xa64c77bdc4c08 and fs3 == 0 and fe3 == 0x7fe and fm3 == 0x8751b6a67be4c
      and fcsr == 0x82 and rm_val == 7   #nosat'
    : 1
    ? 'fs1 == 0 and fe1 == 0x7fb and fm1 == 0x8fd64f104922f and fs2 == 1 and fe2 ==
      0x401 and fm2 == 0x964aae7b394df and fs3 == 0 and fe3 == 0x7fe and fm3 == 0x615f701415147
      and fcsr == 0x2 and rm_val == 7   #nosat'
    : 1
    ? 'fs1 == 0 and fe1 == 0x7fb and fm1 == 0x8fd64f104922f and fs2 == 1 and fe2 ==
      0x401 and fm2 == 0x964aae7b394df and fs3 == 0 and fe3 == 0x7fe and fm3 == 0x615f701415147
      and fcsr == 0x22 and rm_val == 7   #nosat'
    : 1
    ? 'fs1 == 0 and fe1 == 0x7fb and fm1 == 0x8fd64f104922f and fs2 == 1 and fe2 ==
      0x401 and fm2 == 0x964aae7b394df and fs3 == 0 and fe3 == 0x7fe and fm3 == 0x615f701415147
      and fcsr == 0x42 and rm_val == 7   #nosat'
    : 1
    ? 'fs1 == 0 and fe1 == 0x7fb and fm1 == 0x8fd64f104922f and fs2 == 1 and fe2 ==
      0x401 and fm2 == 0x964aae7b394df and fs3 == 0 and fe3 == 0x7fe and fm3 == 0x615f701415147
      and fcsr == 0x62 and rm_val == 7   #nosat'
    : 1
    ? 'fs1 == 0 and fe1 == 0x7fb and fm1 == 0x8fd64f104922f and fs2 == 1 and fe2 ==
      0x401 and fm2 == 0x964aae7b394df and fs3 == 0 and fe3 == 0x7fe and fm3 == 0x615f701415147
      and fcsr == 0x82 and rm_val == 7   #nosat'
    : 1
    ? 'fs1 == 0 and fe1 == 0x7fe and fm1 == 0x677f9a96d9966 and fs2 == 1 and fe2 ==
      0x3ff and fm2 == 0x796cd8a02d3f6 and fs3 == 0 and fe3 == 0x7fe and fm3 == 0xe6665d6935c36
      and fcsr == 0x2 and rm_val == 7   #nosat'
    : 1
    ? 'fs1 == 0 and fe1 == 0x7fe and fm1 == 0x677f9a96d9966 and fs2 == 1 and fe2 ==
      0x3ff and fm2 == 0x796cd8a02d3f6 and fs3 == 0 and fe3 == 0x7fe and fm3 == 0xe6665d6935c36
      and fcsr == 0x22 and rm_val == 7   #nosat'
    : 1
    ? 'fs1 == 0 and fe1 == 0x7fe and fm1 == 0x677f9a96d9966 and fs2 == 1 and fe2 ==
      0x3ff and fm2 == 0x796cd8a02d3f6 and fs3 == 0 and fe3 == 0x7fe and fm3 == 0xe6665d6935c36
      and fcsr == 0x42 and rm_val == 7   #nosat'
    : 1
    ? 'fs1 == 0 and fe1 == 0x7fe and fm1 == 0x677f9a96d9966 and fs2 == 1 and fe2 ==
      0x3ff and fm2 == 0x796cd8a02d3f6 and fs3 == 0 and fe3 == 0x7fe and fm3 == 0xe6665d6935c36
      and fcsr == 0x62 and rm_val == 7   #nosat'
    : 1
    ? 'fs1 == 0 and fe1 == 0x7fe and fm1 == 0x677f9a96d9966 and fs2 == 1 and fe2 ==
      0x3ff and fm2 == 0x796cd8a02d3f6 and fs3 == 0 and fe3 == 0x7fe and fm3 == 0xe6665d6935c36
      and fcsr == 0x82 and rm_val == 7   #nosat'
    : 1
    ? 'fs1 == 0 and fe1 == 0x7fe and fm1 == 0xafde4f5fa80c8 and fs2 == 1 and fe2 ==
      0x3fd and fm2 == 0x3700bd52d2c4f and fs3 == 0 and fe3 == 0x7fe and fm3 == 0x01daaa27ef61b
      and fcsr == 0x2 and rm_val == 7   #nosat'
    : 1
    ? 'fs1 == 0 and fe1 == 0x7fe and fm1 == 0xafde4f5fa80c8 and fs2 == 1 and fe2 ==
      0x3fd and fm2 == 0x3700bd52d2c4f and fs3 == 0 and fe3 == 0x7fe and fm3 == 0x01daaa27ef61b
      and fcsr == 0x22 and rm_val == 7   #nosat'
    : 1
    ? 'fs1 == 0 and fe1 == 0x7fe and fm1 == 0xafde4f5fa80c8 and fs2 == 1 and fe2 ==
      0x3fd and fm2 == 0x3700bd52d2c4f and fs3 == 0 and fe3 == 0x7fe and fm3 == 0x01daaa27ef61b
      and fcsr == 0x42 and rm_val == 7   #nosat'
    : 1
    ? 'fs1 == 0 and fe1 == 0x7fe and fm1 == 0xafde4f5fa80c8 and fs2 == 1 and fe2 ==
      0x3fd and fm2 == 0x3700bd52d2c4f and fs3 == 0 and fe3 == 0x7fe and fm3 == 0x01daaa27ef61b
      and fcsr == 0x62 and rm_val == 7   #nosat'
    : 1
    ? 'fs1 == 0 and fe1 == 0x7fe and fm1 == 0xafde4f5fa80c8 and fs2 == 1 and fe2 ==
      0x3fd and fm2 == 0x3700bd52d2c4f and fs3 == 0 and fe3 == 0x7fe and fm3 == 0x01daaa27ef61b
      and fcsr == 0x82 and rm_val == 7   #nosat'
    : 1
    ? 'fs1 == 0 and fe1 == 0x7fc and fm1 == 0x94c88e4f0cf23 and fs2 == 1 and fe2 ==
      0x3ff and fm2 == 0x43e6e4398ff87 and fs3 == 0 and fe3 == 0x7fc and fm3 == 0x3387045b11b73
      and fcsr == 0x2 and rm_val == 7   #nosat'
    : 1
    ? 'fs1 == 0 and fe1 == 0x7fc and fm1 == 0x94c88e4f0cf23 and fs2 == 1 and fe2 ==
      0x3ff and fm2 == 0x43e6e4398ff87 and fs3 == 0 and fe3 == 0x7fc and fm3 == 0x3387045b11b73
      and fcsr == 0x22 and rm_val == 7   #nosat'
    : 1
    ? 'fs1 == 0 and fe1 == 0x7fc and fm1 == 0x94c88e4f0cf23 and fs2 == 1 and fe2 ==
      0x3ff and fm2 == 0x43e6e4398ff87 and fs3 == 0 and fe3 == 0x7fc and fm3 == 0x3387045b11b73
      and fcsr == 0x42 and rm_val == 7   #nosat'
    : 1
    ? 'fs1 == 0 and fe1 == 0x7fc and fm1 == 0x94c88e4f0cf23 and fs2 == 1 and fe2 ==
      0x3ff and fm2 == 0x43e6e4398ff87 and fs3 == 0 and fe3 == 0x7fc and fm3 == 0x3387045b11b73
      and fcsr == 0x62 and rm_val == 7   #nosat'
    : 1
    ? 'fs1 == 0 and fe1 == 0x7fc and fm1 == 0x94c88e4f0cf23 and fs2 == 1 and fe2 ==
      0x3ff and fm2 == 0x43e6e4398ff87 and fs3 == 0 and fe3 == 0x7fc and fm3 == 0x3387045b11b73
      and fcsr == 0x82 and rm_val == 7   #nosat'
    : 1
    ? 'fs1 == 0 and fe1 == 0x7fe and fm1 == 0x0eb469d232dd1 and fs2 == 1 and fe2 ==
      0x3fe and fm2 == 0x22e4c1eeb8fbf and fs3 == 0 and fe3 == 0x7fe and fm3 == 0x05034d6a0d355
      and fcsr == 0x2 and rm_val == 7   #nosat'
    : 1
    ? 'fs1 == 0 and fe1 == 0x7fe and fm1 == 0x0eb469d232dd1 and fs2 == 1 and fe2 ==
      0x3fe and fm2 == 0x22e4c1eeb8fbf and fs3 == 0 and fe3 == 0x7fe and fm3 == 0x05034d6a0d355
      and fcsr == 0x22 and rm_val == 7   #nosat'
    : 1
    ? 'fs1 == 0 and fe1 == 0x7fe and fm1 == 0x0eb469d232dd1 and fs2 == 1 and fe2 ==
      0x3fe and fm2 == 0x22e4c1eeb8fbf and fs3 == 0 and fe3 == 0x7fe and fm3 == 0x05034d6a0d355
      and fcsr == 0x42 and rm_val == 7   #nosat'
    : 1
    ? 'fs1 == 0 and fe1 == 0x7fe and fm1 == 0x0eb469d232dd1 and fs2 == 1 and fe2 ==
      0x3fe and fm2 == 0x22e4c1eeb8fbf and fs3 == 0 and fe3 == 0x7fe and fm3 == 0x05034d6a0d355
      and fcsr == 0x62 and rm_val == 7   #nosat'
    : 1
    ? 'fs1 == 0 and fe1 == 0x7fe and fm1 == 0x0eb469d232dd1 and fs2 == 1 and fe2 ==
      0x3fe and fm2 == 0x22e4c1eeb8fbf and fs3 == 0 and fe3 == 0x7fe and fm3 == 0x05034d6a0d355
      and fcsr == 0x82 and rm_val == 7   #nosat'
    : 1
    ? 'fs1 == 0 and fe1 == 0x7fb and fm1 == 0x248a2b9dc22bf and fs2 == 1 and fe2 ==
      0x403 and fm2 == 0x5a233041e3ac1 and fs3 == 0 and fe3 == 0x7fe and fm3 == 0xce72ef36d4887
      and fcsr == 0x2 and rm_val == 7   #nosat'
    : 1
    ? 'fs1 == 0 and fe1 == 0x7fb and fm1 == 0x248a2b9dc22bf and fs2 == 1 and fe2 ==
      0x403 and fm2 == 0x5a233041e3ac1 and fs3 == 0 and fe3 == 0x7fe and fm3 == 0xce72ef36d4887
      and fcsr == 0x22 and rm_val == 7   #nosat'
    : 1
    ? 'fs1 == 0 and fe1 == 0x7fb and fm1 == 0x248a2b9dc22bf and fs2 == 1 and fe2 ==
      0x403 and fm2 == 0x5a233041e3ac1 and fs3 == 0 and fe3 == 0x7fe and fm3 == 0xce72ef36d4887
      and fcsr == 0x42 and rm_val == 7   #nosat'
    : 1
    ? 'fs1 == 0 and fe1 == 0x7fb and fm1 == 0x248a2b9dc22bf and fs2 == 1 and fe2 ==
      0x403 and fm2 == 0x5a233041e3ac1 and fs3 == 0 and fe3 == 0x7fe and fm3 == 0xce72ef36d4887
      and fcsr == 0x62 and rm_val == 7   #nosat'
    : 1
    ? 'fs1 == 0 and fe1 == 0x7fb and fm1 == 0x248a2b9dc22bf and fs2 == 1 and fe2 ==
      0x403 and fm2 == 0x5a233041e3ac1 and fs3 == 0 and fe3 == 0x7fe and fm3 == 0xce72ef36d4887
      and fcsr == 0x82 and rm_val == 7   #nosat'
    : 1
    ? 'fs1 == 0 and fe1 == 0x7fe and fm1 == 0x03cc30fa6fa7d and fs2 == 0 and fe2 ==
      0x401 and fm2 == 0xeaa5a1d3c9b55 and fs3 == 0 and fe3 == 0x7fe and fm3 == 0x67101be2e03ab
      and fcsr == 0x2 and rm_val == 7   #nosat'
    : 1
    ? 'fs1 == 0 and fe1 == 0x7fe and fm1 == 0x03cc30fa6fa7d and fs2 == 0 and fe2 ==
      0x401 and fm2 == 0xeaa5a1d3c9b55 and fs3 == 0 and fe3 == 0x7fe and fm3 == 0x67101be2e03ab
      and fcsr == 0x22 and rm_val == 7   #nosat'
    : 1
    ? 'fs1 == 0 and fe1 == 0x7fe and fm1 == 0x03cc30fa6fa7d and fs2 == 0 and fe2 ==
      0x401 and fm2 == 0xeaa5a1d3c9b55 and fs3 == 0 and fe3 == 0x7fe and fm3 == 0x67101be2e03ab
      and fcsr == 0x42 and rm_val == 7   #nosat'
    : 1
    ? 'fs1 == 0 and fe1 == 0x7fe and fm1 == 0x03cc30fa6fa7d and fs2 == 0 and fe2 ==
      0x401 and fm2 == 0xeaa5a1d3c9b55 and fs3 == 0 and fe3 == 0x7fe and fm3 == 0x67101be2e03ab
      and fcsr == 0x62 and rm_val == 7   #nosat'
    : 1
    ? 'fs1 == 0 and fe1 == 0x7fe and fm1 == 0x03cc30fa6fa7d and fs2 == 0 and fe2 ==
      0x401 and fm2 == 0xeaa5a1d3c9b55 and fs3 == 0 and fe3 == 0x7fe and fm3 == 0x67101be2e03ab
      and fcsr == 0x82 and rm_val == 7   #nosat'
    : 1
    ? 'fs1 == 0 and fe1 == 0x7fc and fm1 == 0xc277c8581da67 and fs2 == 1 and fe2 ==
      0x403 and fm2 == 0x5b5bea83c3f5c and fs3 == 0 and fe3 == 0x7fc and fm3 == 0xf37aa6e86c68b
      and fcsr == 0x2 and rm_val == 7   #nosat'
    : 1
    ? 'fs1 == 0 and fe1 == 0x7fc and fm1 == 0xc277c8581da67 and fs2 == 1 and fe2 ==
      0x403 and fm2 == 0x5b5bea83c3f5c and fs3 == 0 and fe3 == 0x7fc and fm3 == 0xf37aa6e86c68b
      and fcsr == 0x22 and rm_val == 7   #nosat'
    : 1
    ? 'fs1 == 0 and fe1 == 0x7fc and fm1 == 0xc277c8581da67 and fs2 == 1 and fe2 ==
      0x403 and fm2 == 0x5b5bea83c3f5c and fs3 == 0 and fe3 == 0x7fc and fm3 == 0xf37aa6e86c68b
      and fcsr == 0x42 and rm_val == 7   #nosat'
    : 1
    ? 'fs1 == 0 and fe1 == 0x7fc and fm1 == 0xc277c8581da67 and fs2 == 1 and fe2 ==
      0x403 and fm2 == 0x5b5bea83c3f5c and fs3 == 0 and fe3 == 0x7fc and fm3 == 0xf37aa6e86c68b
      and fcsr == 0x62 and rm_val == 7   #nosat'
    : 1
    ? 'fs1 == 0 and fe1 == 0x7fc and fm1 == 0xc277c8581da67 and fs2 == 1 and fe2 ==
      0x403 and fm2 == 0x5b5bea83c3f5c and fs3 == 0 and fe3 == 0x7fc and fm3 == 0xf37aa6e86c68b
      and fcsr == 0x82 and rm_val == 7   #nosat'
    : 1
    ? 'fs1 == 0 and fe1 == 0x7f8 and fm1 == 0x867824bb36ebf and fs2 == 0 and fe2 ==
      0x407 and fm2 == 0x8295552baee7e and fs3 == 0 and fe3 == 0x7fd and fm3 == 0x5f78051c221f1
      and fcsr == 0x2 and rm_val == 7   #nosat'
    : 1
    ? 'fs1 == 0 and fe1 == 0x7f8 and fm1 == 0x867824bb36ebf and fs2 == 0 and fe2 ==
      0x407 and fm2 == 0x8295552baee7e and fs3 == 0 and fe3 == 0x7fd and fm3 == 0x5f78051c221f1
      and fcsr == 0x22 and rm_val == 7   #nosat'
    : 1
    ? 'fs1 == 0 and fe1 == 0x7f8 and fm1 == 0x867824bb36ebf and fs2 == 0 and fe2 ==
      0x407 and fm2 == 0x8295552baee7e and fs3 == 0 and fe3 == 0x7fd and fm3 == 0x5f78051c221f1
      and fcsr == 0x42 and rm_val == 7   #nosat'
    : 1
    ? 'fs1 == 0 and fe1 == 0x7f8 and fm1 == 0x867824bb36ebf and fs2 == 0 and fe2 ==
      0x407 and fm2 == 0x8295552baee7e and fs3 == 0 and fe3 == 0x7fd and fm3 == 0x5f78051c221f1
      and fcsr == 0x62 and rm_val == 7   #nosat'
    : 1
    ? 'fs1 == 0 and fe1 == 0x7f8 and fm1 == 0x867824bb36ebf and fs2 == 0 and fe2 ==
      0x407 and fm2 == 0x8295552baee7e and fs3 == 0 and fe3 == 0x7fd and fm3 == 0x5f78051c221f1
      and fcsr == 0x82 and rm_val == 7   #nosat'
    : 1
    ? 'fs1 == 0 and fe1 == 0x7fd and fm1 == 0x113f1b844ec29 and fs2 == 1 and fe2 ==
      0x402 and fm2 == 0x194cca6feaee6 and fs3 == 0 and fe3 == 0x7fd and fm3 == 0xb19041a09c655
      and fcsr == 0x2 and rm_val == 7   #nosat'
    : 1
    ? 'fs1 == 0 and fe1 == 0x7fd and fm1 == 0x113f1b844ec29 and fs2 == 1 and fe2 ==
      0x402 and fm2 == 0x194cca6feaee6 and fs3 == 0 and fe3 == 0x7fd and fm3 == 0xb19041a09c655
      and fcsr == 0x22 and rm_val == 7   #nosat'
    : 1
    ? 'fs1 == 0 and fe1 == 0x7fd and fm1 == 0x113f1b844ec29 and fs2 == 1 and fe2 ==
      0x402 and fm2 == 0x194cca6feaee6 and fs3 == 0 and fe3 == 0x7fd and fm3 == 0xb19041a09c655
      and fcsr == 0x42 and rm_val == 7   #nosat'
    : 1
    ? 'fs1 == 0 and fe1 == 0x7fd and fm1 == 0x113f1b844ec29 and fs2 == 1 and fe2 ==
      0x402 and fm2 == 0x194cca6feaee6 and fs3 == 0 and fe3 == 0x7fd and fm3 == 0xb19041a09c655
      and fcsr == 0x62 and rm_val == 7   #nosat'
    : 1
    ? 'fs1 == 0 and fe1 == 0x7fd and fm1 == 0x113f1b844ec29 and fs2 == 1 and fe2 ==
      0x402 and fm2 == 0x194cca6feaee6 and fs3 == 0 and fe3 == 0x7fd and fm3 == 0xb19041a09c655
      and fcsr == 0x82 and rm_val == 7   #nosat'
    : 1
    ? 'fs1 == 0 and fe1 == 0x7fd and fm1 == 0x81f8e726306f5 and fs2 == 1 and fe2 ==
      0x3f8 and fm2 == 0x49e96e9cad6d5 and fs3 == 0 and fe3 == 0x7fe and fm3 == 0xab2b7e6d25349
      and fcsr == 0x2 and rm_val == 7   #nosat'
    : 1
    ? 'fs1 == 0 and fe1 == 0x7fd and fm1 == 0x81f8e726306f5 and fs2 == 1 and fe2 ==
      0x3f8 and fm2 == 0x49e96e9cad6d5 and fs3 == 0 and fe3 == 0x7fe and fm3 == 0xab2b7e6d25349
      and fcsr == 0x22 and rm_val == 7   #nosat'
    : 1
    ? 'fs1 == 0 and fe1 == 0x7fd and fm1 == 0x81f8e726306f5 and fs2 == 1 and fe2 ==
      0x3f8 and fm2 == 0x49e96e9cad6d5 and fs3 == 0 and fe3 == 0x7fe and fm3 == 0xab2b7e6d25349
      and fcsr == 0x42 and rm_val == 7   #nosat'
    : 1
    ? 'fs1 == 0 and fe1 == 0x7fd and fm1 == 0x81f8e726306f5 and fs2 == 1 and fe2 ==
      0x3f8 and fm2 == 0x49e96e9cad6d5 and fs3 == 0 and fe3 == 0x7fe and fm3 == 0xab2b7e6d25349
      and fcsr == 0x62 and rm_val == 7   #nosat'
    : 1
    ? 'fs1 == 0 and fe1 == 0x7fd and fm1 == 0x81f8e726306f5 and fs2 == 1 and fe2 ==
      0x3f8 and fm2 == 0x49e96e9cad6d5 and fs3 == 0 and fe3 == 0x7fe and fm3 == 0xab2b7e6d25349
      and fcsr == 0x82 and rm_val == 7   #nosat'
    : 1
    coverage: 140/140
  total_coverage: 281/281
