---
fcvt.d.wu_b25:
  config:
  - check ISA:=regex(.*I.*F.*)
  opcode:
    fcvt.d.wu: 32
    coverage: 1/1
  rd:
    f0: 1
    f1: 1
    f10: 1
    f11: 1
    f12: 1
    f13: 1
    f14: 1
    f15: 1
    f16: 1
    f17: 1
    f18: 1
    f19: 1
    f2: 1
    f20: 1
    f21: 1
    f22: 1
    f23: 1
    f24: 1
    f25: 1
    f26: 1
    f27: 1
    f28: 1
    f29: 1
    f3: 1
    f30: 1
    f31: 1
    f4: 1
    f5: 1
    f6: 1
    f7: 1
    f8: 1
    f9: 1
    coverage: 32/32
  rs1:
    x0: 1
    x1: 1
    x10: 1
    x11: 1
    x12: 1
    x13: 1
    x14: 1
    x15: 1
    x16: 1
    x17: 1
    x18: 1
    x19: 1
    x2: 1
    x20: 1
    x21: 1
    x22: 1
    x23: 1
    x24: 1
    x25: 1
    x26: 1
    x27: 1
    x28: 1
    x29: 1
    x3: 1
    x30: 1
    x31: 1
    x4: 1
    x5: 1
    x6: 1
    x7: 1
    x8: 1
    x9: 1
    coverage: 32/32
  val_comb:
    'rs1_val == 0 and rm_val == 0  #nosat': 26  #  Number = 0
    'rs1_val == -5270258713649211392 and rm_val == 0  #nosat': 1 #  Number = -ve Random Number
    'rs1_val == 5270258713649211392 and rm_val == 0  #nosat': 1 #  Number = +ve Random Number
    'rs1_val == -9223372036854775807 and rm_val == 0  #nosat': 1 #  Number = -MaxInt
    'rs1_val == 9223372036854775807 and rm_val == 0  #nosat': 1 #  Number = MaxInt
    'rs1_val == -1 and rm_val == 0  #nosat': 1 #  Number = -1
    'rs1_val == 1 and rm_val == 0  #nosat': 1 #  Number = 1
    coverage: 7/7
  total_coverage: 72/72
