datasets:
  all_fregs:
    f0: 0
    f1: 0
    f10: 0
    f11: 0
    f12: 0
    f13: 0
    f14: 0
    f15: 0
    f16: 0
    f17: 0
    f18: 0
    f19: 0
    f2: 0
    f20: 0
    f21: 0
    f22: 0
    f23: 0
    f24: 0
    f25: 0
    f26: 0
    f27: 0
    f28: 0
    f29: 0
    f3: 0
    f30: 0
    f31: 0
    f4: 0
    f5: 0
    f6: 0
    f7: 0
    f8: 0
    f9: 0
  all_regs:
    x0: 0
    x1: 0
    x10: 0
    x11: 0
    x12: 0
    x13: 0
    x14: 0
    x15: 0
    x16: 0
    x17: 0
    x18: 0
    x19: 0
    x2: 0
    x20: 0
    x21: 0
    x22: 0
    x23: 0
    x24: 0
    x25: 0
    x26: 0
    x27: 0
    x28: 0
    x29: 0
    x3: 0
    x30: 0
    x31: 0
    x4: 0
    x5: 0
    x6: 0
    x7: 0
    x8: 0
    x9: 0
  all_regs_mx0:
    x1: 0
    x10: 0
    x11: 0
    x12: 0
    x13: 0
    x14: 0
    x15: 0
    x16: 0
    x17: 0
    x18: 0
    x19: 0
    x2: 0
    x20: 0
    x21: 0
    x22: 0
    x23: 0
    x24: 0
    x25: 0
    x26: 0
    x27: 0
    x28: 0
    x29: 0
    x3: 0
    x30: 0
    x31: 0
    x4: 0
    x5: 0
    x6: 0
    x7: 0
    x8: 0
    x9: 0
  all_regs_mx2:
    x1: 0
    x10: 0
    x11: 0
    x12: 0
    x13: 0
    x14: 0
    x15: 0
    x16: 0
    x17: 0
    x18: 0
    x19: 0
    x20: 0
    x21: 0
    x22: 0
    x23: 0
    x24: 0
    x25: 0
    x26: 0
    x27: 0
    x28: 0
    x29: 0
    x3: 0
    x30: 0
    x31: 0
    x4: 0
    x5: 0
    x6: 0
    x7: 0
    x8: 0
    x9: 0
  base_rs1val_sgn:
    rs1_val == (-2**(xlen-1)): 0
    rs1_val == (2**(xlen-1)-1): 0
    rs1_val == 0: 0
    rs1_val == 1: 0
  base_rs1val_unsgn:
    rs1_val == (2**(xlen)-1): 0
    rs1_val == 0: 0
    rs1_val == 1: 0
  base_rs2val_sgn:
    rs2_val == (-2**(xlen-1)): 0
    rs2_val == (2**(xlen-1)-1): 0
    rs2_val == 0: 0
    rs2_val == 1: 0
  base_rs2val_unsgn:
    rs2_val == (2**(xlen)-1): 0
    rs2_val == 0: 0
    rs2_val == 1: 0
  base_rs3val_sgn:
    rs3_val == (-2**(xlen-1)): 0
    rs3_val == (2**(xlen-1)-1): 0
    rs3_val == 0: 0
    rs3_val == 1: 0
  base_rs3val_unsgn:
    rs3_val == (2**(xlen)-1): 0
    rs3_val == 0: 0
    rs3_val == 1: 0
  bfmt_base_branch_val_align_sgn:
    rs1_val < 0 and rs2_val < 0 and imm_val & 0x03 == 0: 0
    rs1_val < 0 and rs2_val > 0 and imm_val & 0x03 == 0: 0
    rs1_val < rs2_val and imm_val < 0 and imm_val & 0x03 == 0: 0
    rs1_val < rs2_val and imm_val > 0 and imm_val & 0x03 == 0: 0
    rs1_val == rs2_val and imm_val < 0 and imm_val & 0x03 == 0: 0
    rs1_val == rs2_val and imm_val > 0 and imm_val & 0x03 == 0: 0
    rs1_val > 0 and rs2_val < 0 and imm_val & 0x03 == 0: 0
    rs1_val > 0 and rs2_val > 0 and imm_val & 0x03 == 0: 0
    rs1_val > rs2_val and imm_val < 0 and imm_val & 0x03 == 0: 0
    rs1_val > rs2_val and imm_val > 0 and imm_val & 0x03 == 0: 0
  bfmt_base_branch_val_align_unsgn:
    rs1_val > 0 and rs2_val > 0: 0
    'rs1_val > 0 and rs2_val > 0 and rs1_val < rs2_val and imm_val < 0 ': 0
    'rs1_val > 0 and rs2_val > 0 and rs1_val < rs2_val and imm_val > 0 ': 0
    rs1_val > 0 and rs2_val > 0 and rs1_val == rs2_val and imm_val < 0: 0
    rs1_val > 0 and rs2_val > 0 and rs1_val == rs2_val and imm_val > 0: 0
    'rs1_val > 0 and rs2_val > 0 and rs1_val > rs2_val and imm_val < 0 ': 0
    'rs1_val > 0 and rs2_val > 0 and rs1_val > rs2_val and imm_val > 0 ': 0
  c_regs:
    x10: 0
    x11: 0
    x12: 0
    x13: 0
    x14: 0
    x15: 0
    x8: 0
    x9: 0
  cbfmt_immval_sgn:
    imm_val == (-2**(6-1)): 0
    imm_val == (2**(6-1)-1): 0
    imm_val == 0: 0
    imm_val == 1: 0
  cbimm_val_walking:
    alternate("imm_val",6): 0
    walking_ones("imm_val", 6): 0
    walking_zeros("imm_val", 6): 0
  crfmt_val_comb_sgn:
    rs2_val < 0: 0
    rs2_val > 0: 0
  ifmt_base_immval_sgn:
    imm_val == (-2**(12-1)): 0
    imm_val == (2**(12-1)-1): 0
    imm_val == 0: 0
    imm_val == 1: 0
  ifmt_base_immval_sgn_len:
    imm_val == (-2**(ceil(log(xlen,2))-1)): 0
    imm_val == (2**(ceil(log(xlen,2))-1)-1): 0
    imm_val == 0: 0
    imm_val == 1: 0
  ifmt_base_immval_unsgn:
    imm_val == (2**(12)-1): 0
    imm_val == 0: 0
    imm_val == 1: 0
  ifmt_base_immval_unsgn_len_sub_3:
    imm_val == (2**(ceil(log(xlen,2))-3)-1): 0
    imm_val == 0: 0
    imm_val == 1: 0
  ifmt_base_shift:
    rs1_val < 0 and imm_val == (xlen-1): 0
    rs1_val < 0 and imm_val == 0: 0
    rs1_val < 0 and imm_val > 0 and imm_val < xlen: 0
    rs1_val == (-2**(xlen-1)) and imm_val >= 0 and imm_val < xlen: 0
    rs1_val == (2**(xlen-1)-1) and imm_val >= 0 and imm_val < xlen: 0
    rs1_val == 0 and imm_val >= 0 and imm_val < xlen: 0
    rs1_val == 1 and imm_val >= 0 and imm_val < xlen: 0
    rs1_val == imm_val and imm_val > 0 and imm_val < xlen: 0
    rs1_val > 0 and imm_val == (xlen-1): 0
    rs1_val > 0 and imm_val == 0: 0
    rs1_val > 0 and imm_val > 0 and imm_val < xlen: 0
  ifmt_base_shift_32w:
    rs1_val < 0 and imm_val == 0: 0
    rs1_val < 0 and imm_val == 31: 0
    rs1_val < 0 and imm_val > 0 and imm_val < 32: 0
    rs1_val == (-2**(xlen-1)) and imm_val >= 0 and imm_val < 32: 0
    rs1_val == (2**(xlen-1)-1) and imm_val >= 0 and imm_val < 32: 0
    rs1_val == 0 and imm_val >= 0 and imm_val < 32: 0
    rs1_val == 1 and imm_val >= 0 and imm_val < 32: 0
    rs1_val == imm_val and imm_val > 0 and imm_val < 32: 0
    rs1_val > 0 and imm_val == 0: 0
    rs1_val > 0 and imm_val == 31: 0
    rs1_val > 0 and imm_val > 0 and imm_val < 32: 0
  ifmt_immval_walking:
    alternate("imm_val",12): 0
    walking_ones("imm_val", 12): 0
    walking_zeros("imm_val", 12): 0
  ifmt_immval_walking_5u:
    alternate("imm_val", 5, False): 0
    walking_ones("imm_val", 5, False): 0
    walking_zeros("imm_val", 5, False): 0
  ifmt_immval_walking_len:
    alternate("imm_val",ceil(log(xlen,2)), False): 0
    walking_ones("imm_val", ceil(log(xlen,2)), False): 0
    walking_zeros("imm_val", ceil(log(xlen,2)), False): 0
  ifmt_immval_walking_len_sub_3:
    alternate("imm_val", ceil(log(xlen,2))-3, False): 0
    walking_ones("imm_val", ceil(log(xlen,2))-3, False): 0
    walking_zeros("imm_val", ceil(log(xlen,2))-3, False): 0
  ifmt_immval_walking_unsgn:
    alternate("imm_val",12,False): 0
    walking_ones("imm_val", 12,False): 0
    walking_zeros("imm_val", 12,False): 0
  ifmt_op_comb:
    rs1 != rd: 0
    rs1 == rd: 0
  ifmt_val_comb_sgn:
    rs1_val != imm_val: 0
    rs1_val < 0 and imm_val < 0: 0
    rs1_val < 0 and imm_val > 0: 0
    rs1_val == imm_val: 0
    rs1_val > 0 and imm_val < 0: 0
    rs1_val > 0 and imm_val > 0: 0
  ifmt_val_comb_unsgn:
    rs1_val != imm_val and rs1_val > 0 and imm_val > 0: 0
    rs1_val == imm_val and rs1_val > 0 and imm_val > 0: 0
  pair_regs:
    x10: 0
    x12: 0
    x14: 0
    x16: 0
    x18: 0
    x2: 0
    x20: 0
    x22: 0
    x24: 0
    x26: 0
    x28: 0
    x30: 0
    x4: 0
    x6: 0
    x8: 0
  r4fmt_op_comb:
    rd == rs2 == rs3 != rs1: 0
    rs1 != rs2 and rs1 != rd and rs1 != rs3 and rs2 != rs3 and rs2 != rd and rs3 != rd: 0
    rs1 == rd != rs2 and rs1 == rd != rs3 and rs3 != rs2: 0
    rs1 == rd == rs3 != rs2: 0
    rs1 == rs2 != rs3 and rs1 == rs2 != rd and rd != rs3: 0
    rs1 == rs2 == rd != rs3: 0
    rs1 == rs2 == rs3 != rd: 0
    rs1 == rs2 == rs3 == rd: 0
    rs1 == rs3 != rs2 and rs1 == rs3 != rd and rd != rs2: 0
    rs2 == rd != rs1 and rs2 == rd != rs3 and rs3 != rs1: 0
    rs2 == rs3 != rs1 and rs2 == rs3 != rd and rd != rs1: 0
    rs3 == rd != rs1 and rs3 == rd != rs2 and rs2 != rs1: 0
  rfmt_base_shift:
    rs1_val < 0 and rs2_val == 0: 0
    rs1_val < 0 and rs2_val > 0 and rs2_val < xlen: 0
    rs1_val == (-2**(xlen-1)) and rs2_val >= 0 and rs2_val < xlen: 0
    rs1_val == (2**(xlen-1)-1) and rs2_val >= 0 and rs2_val < xlen: 0
    rs1_val == 0 and rs2_val >= 0 and rs2_val < xlen: 0
    rs1_val == 1 and rs2_val >= 0 and rs2_val < xlen: 0
    rs1_val == rs2_val and rs2_val > 0 and rs2_val < xlen: 0
    rs1_val > 0 and rs2_val == 0: 0
    rs1_val > 0 and rs2_val > 0 and rs2_val < xlen: 0
  rfmt_op_comb:
    rs1 != rs2  and rs1 != rd and rs2 != rd: 0
    rs1 == rd != rs2: 0
    rs1 == rs2 != rd: 0
    rs1 == rs2 == rd: 0
    rs2 == rd != rs1: 0
  rfmt_val_comb_sgn:
    rs1_val != rs2_val: 0
    rs1_val < 0 and rs2_val < 0: 0
    rs1_val < 0 and rs2_val > 0: 0
    rs1_val == rs2_val: 0
    rs1_val > 0 and rs2_val < 0: 0
    rs1_val > 0 and rs2_val > 0: 0
  rfmt_val_comb_unsgn:
    rs1_val != rs2_val and rs1_val > 0 and rs2_val > 0: 0
    rs1_val == rs2_val and rs1_val > 0 and rs2_val > 0: 0
    rs1_val > 0 and rs2_val > 0: 0
  rs1val_walking:
    alternate("rs1_val",xlen): 0
    walking_ones("rs1_val", xlen): 0
    walking_zeros("rs1_val", xlen): 0
  rs1val_walking_unsgn:
    alternate("rs1_val",xlen,False): 0
    walking_ones("rs1_val", xlen,False): 0
    walking_zeros("rs1_val", xlen,False): 0
  rs2val_walking:
    alternate("rs2_val",xlen): 0
    walking_ones("rs2_val", xlen): 0
    walking_zeros("rs2_val", xlen): 0
  rs2val_walking_unsgn:
    alternate("rs2_val",xlen,False): 0
    walking_ones("rs2_val", xlen,False): 0
    walking_zeros("rs2_val", xlen,False): 0
  rs3val_walking:
    alternate("rs3_val",xlen): 0
    walking_ones("rs3_val", xlen): 0
    walking_zeros("rs3_val", xlen): 0
  rv32e_regs:
    x0: 0
    x1: 0
    x10: 0
    x11: 0
    x12: 0
    x13: 0
    x14: 0
    x15: 0
    x2: 0
    x3: 0
    x4: 0
    x5: 0
    x6: 0
    x7: 0
    x8: 0
    x9: 0
  rv32e_regs_mx0:
    x1: 0
    x10: 0
    x11: 0
    x12: 0
    x13: 0
    x14: 0
    x15: 0
    x2: 0
    x3: 0
    x4: 0
    x5: 0
    x6: 0
    x7: 0
    x8: 0
    x9: 0
  rv32e_regs_mx2:
    x1: 0
    x10: 0
    x11: 0
    x12: 0
    x13: 0
    x14: 0
    x15: 0
    x3: 0
    x4: 0
    x5: 0
    x6: 0
    x7: 0
    x8: 0
    x9: 0
  rvp64_rs1val_sgn:
    rs1_val == (-2**63): 0
    rs1_val == (2**63-1): 0
    rs1_val == 0: 0
    rs1_val == 1: 0
  rvp64_rs1val_unsgn:
    rs1_val == (2**64-1): 0
    rs1_val == 0: 0
    rs1_val == 1: 0
  rvp64_rs1val_walking_sgn:
    alternate("rs1_val",64): 0
    walking_ones("rs1_val", 64): 0
    walking_zeros("rs1_val", 64): 0
  rvp64_rs1val_walking_unsgn:
    alternate("rs1_val",64, signed=False): 0
    walking_ones("rs1_val", 64, signed=False): 0
    walking_zeros("rs1_val", 64, signed=False): 0
  rvp64_rs2val_sgn:
    rs2_val == (-2**63): 0
    rs2_val == (2**63-1): 0
    rs2_val == 0: 0
    rs2_val == 1: 0
  rvp64_rs2val_unsgn:
    rs2_val == (2**64-1): 0
    rs2_val == 0: 0
    rs2_val == 1: 0
  rvp64_rs2val_walking_sgn:
    alternate("rs2_val",64): 0
    walking_ones("rs2_val", 64): 0
    walking_zeros("rs2_val", 64): 0
  rvp64_rs2val_walking_unsgn:
    alternate("rs2_val",64, signed=False): 0
    walking_ones("rs2_val", 64, signed=False): 0
    walking_zeros("rs2_val", 64, signed=False): 0
  sfmt_op_comb:
    rs1 != rs2: 0
    rs1 == rs2: 0
fcvt.s.l_b25:
  config:
  - check ISA:=regex(.*RV64.*I.*Zfinx.*)
  mnemonics:
    fcvt.s.l: 34
    coverage: 1/1
  rd:
    x0: 1
    x1: 1
    x10: 1
    x11: 1
    x12: 1
    x13: 1
    x14: 1
    x15: 1
    x16: 1
    x17: 1
    x18: 1
    x19: 1
    x2: 1
    x20: 1
    x21: 1
    x22: 1
    x23: 1
    x24: 1
    x25: 1
    x26: 1
    x27: 1
    x28: 1
    x29: 1
    x3: 1
    x30: 1
    x31: 3
    x4: 1
    x5: 1
    x6: 1
    x7: 1
    x8: 1
    x9: 1
    coverage: 32/32
  rs1:
    x0: 1
    x1: 1
    x10: 1
    x11: 1
    x12: 1
    x13: 1
    x14: 1
    x15: 1
    x16: 1
    x17: 1
    x18: 1
    x19: 1
    x2: 1
    x20: 1
    x21: 1
    x22: 1
    x23: 1
    x24: 1
    x25: 1
    x26: 1
    x27: 1
    x28: 1
    x29: 1
    x3: 1
    x30: 3
    x31: 1
    x4: 1
    x5: 1
    x6: 1
    x7: 1
    x8: 1
    x9: 1
    coverage: 32/32
  val_comb:
    'rs1_val == 0 and  fcsr == 0 and rm_val == 7  #nosat': 28  #  Number = 0
    'rs1_val == 1 and  fcsr == 0 and rm_val == 7  #nosat': 1 #  Number = 1
    'rs1_val == -1 and  fcsr == 0 and rm_val == 7  #nosat': 0 #  Number = -1
    'rs1_val == 9223372036854775807 and  fcsr == 0 and rm_val == 7  #nosat': 1 #  Number = MaxInt
    'rs1_val == -9223372036854775807 and  fcsr == 0 and rm_val == 7  #nosat': 0 #  Number = -MaxInt
    'rs1_val == 5270258713649211392 and  fcsr == 0 and rm_val == 7  #nosat': 1 #  Number = +ve Random Number
    'rs1_val == -5270258713649211392 and  fcsr == 0 and rm_val == 7  #nosat': 0 #  Number = -ve Random Number
    coverage: 4/7
  total_coverage: 69/72
fcvt.s.l_b26:
  config:
  - check ISA:=regex(.*RV64.*I.*Zfinx.*)
  mnemonics:
    fcvt.s.l: 66
    coverage: 1/1
  rd:
    x0: 1
    x1: 1
    x10: 1
    x11: 1
    x12: 1
    x13: 1
    x14: 1
    x15: 1
    x16: 1
    x17: 1
    x18: 1
    x19: 1
    x2: 1
    x20: 1
    x21: 1
    x22: 1
    x23: 1
    x24: 1
    x25: 1
    x26: 1
    x27: 1
    x28: 1
    x29: 1
    x3: 1
    x30: 1
    x31: 35
    x4: 1
    x5: 1
    x6: 1
    x7: 1
    x8: 1
    x9: 1
    coverage: 32/32
  rs1:
    x0: 1
    x1: 1
    x10: 1
    x11: 1
    x12: 1
    x13: 1
    x14: 1
    x15: 1
    x16: 1
    x17: 1
    x18: 1
    x19: 1
    x2: 1
    x20: 1
    x21: 1
    x22: 1
    x23: 1
    x24: 1
    x25: 1
    x26: 1
    x27: 1
    x28: 1
    x29: 1
    x3: 1
    x30: 35
    x31: 1
    x4: 1
    x5: 1
    x6: 1
    x7: 1
    x8: 1
    x9: 1
    coverage: 32/32
  val_comb:
    'rs1_val == 0 and  fcsr == 0 and rm_val == 7  #nosat': 2  #  Number in [0]
    'rs1_val == 1 and  fcsr == 0 and rm_val == 7  #nosat': 1 #  Number in [1]
    'rs1_val == 2 and  fcsr == 0 and rm_val == 7  #nosat': 1 #  Random number chosen in the range: [2, 3]
    'rs1_val == 7 and  fcsr == 0 and rm_val == 7  #nosat': 1 #  Random number chosen in the range: [4, 7]
    'rs1_val == 15 and  fcsr == 0 and rm_val == 7  #nosat': 1 #  Random number chosen in the range: [8, 15]
    'rs1_val == 16 and  fcsr == 0 and rm_val == 7  #nosat': 1 #  Random number chosen in the range: [16, 31]
    'rs1_val == 45 and  fcsr == 0 and rm_val == 7  #nosat': 1 #  Random number chosen in the range: [32, 63]
    'rs1_val == 123 and  fcsr == 0 and rm_val == 7  #nosat': 1 #  Random number chosen in the range: [64, 127]
    'rs1_val == 253 and  fcsr == 0 and rm_val == 7  #nosat': 1 #  Random number chosen in the range: [128, 255]
    'rs1_val == 398 and  fcsr == 0 and rm_val == 7  #nosat': 1 #  Random number chosen in the range: [256, 511]
    'rs1_val == 676 and  fcsr == 0 and rm_val == 7  #nosat': 1 #  Random number chosen in the range: [512, 1023]
    'rs1_val == 1094 and  fcsr == 0 and rm_val == 7  #nosat': 1 #  Random number chosen in the range: [1024, 2047]
    'rs1_val == 4055 and  fcsr == 0 and rm_val == 7  #nosat': 1 #  Random number chosen in the range: [2048, 4095]
    'rs1_val == 6781 and  fcsr == 0 and rm_val == 7  #nosat': 1 #  Random number chosen in the range: [4096, 8191]
    'rs1_val == 9438 and  fcsr == 0 and rm_val == 7  #nosat': 1 #  Random number chosen in the range: [8192, 16383]
    'rs1_val == 24575 and  fcsr == 0 and rm_val == 7  #nosat': 1 #  Random number chosen in the range: [16384, 32767]
    'rs1_val == 56436 and  fcsr == 0 and rm_val == 7  #nosat': 1 #  Random number chosen in the range: [32768, 65535]
    'rs1_val == 71376 and  fcsr == 0 and rm_val == 7  #nosat': 1 #  Random number chosen in the range: [65536, 131071]
    'rs1_val == 241276 and  fcsr == 0 and rm_val == 7  #nosat': 1 #  Random number chosen in the range: [131072, 262143]
    'rs1_val == 334857 and  fcsr == 0 and rm_val == 7  #nosat': 1 #  Random number chosen in the range: [262144, 524287]
    'rs1_val == 896618 and  fcsr == 0 and rm_val == 7  #nosat': 1 #  Random number chosen in the range: [524288, 1048575]
    'rs1_val == 1848861 and  fcsr == 0 and rm_val == 7  #nosat': 1 #  Random number chosen in the range: [1048576, 2097151]
    'rs1_val == 3864061 and  fcsr == 0 and rm_val == 7  #nosat': 1 #  Random number chosen in the range: [2097152, 4194303]
    'rs1_val == 6573466 and  fcsr == 0 and rm_val == 7  #nosat': 1 #  Random number chosen in the range: [4194304, 8388607]
    'rs1_val == 12789625 and  fcsr == 0 and rm_val == 7  #nosat': 1 #  Random number chosen in the range: [8388608, 16777215]
    'rs1_val == 32105925 and  fcsr == 0 and rm_val == 7  #nosat': 1 #  Random number chosen in the range: [16777216, 33554431]
    'rs1_val == 45276376 and  fcsr == 0 and rm_val == 7  #nosat': 1 #  Random number chosen in the range: [33554432, 67108863]
    'rs1_val == 107790943 and  fcsr == 0 and rm_val == 7  #nosat': 1 #  Random number chosen in the range: [67108864, 134217727]
    'rs1_val == 231549045 and  fcsr == 0 and rm_val == 7  #nosat': 1 #  Random number chosen in the range: [134217728, 268435455]
    'rs1_val == 339827553 and  fcsr == 0 and rm_val == 7  #nosat': 1 #  Random number chosen in the range: [268435456, 536870911]
    'rs1_val == 1027494066 and  fcsr == 0 and rm_val == 7  #nosat': 1 #  Random number chosen in the range: [536870912, 1073741823]
    'rs1_val == 1587807073 and  fcsr == 0 and rm_val == 7  #nosat': 2 #  Random number chosen in the range: [1073741824, 2147483647]
    'rs1_val == 4035756470 and  fcsr == 0 and rm_val == 7  #nosat': 1 #  Random number chosen in the range: [2147483648, 4294967295]
    'rs1_val == 6929185936 and  fcsr == 0 and rm_val == 7  #nosat': 1 #  Random number chosen in the range: [4294967296, 8589934591]
    'rs1_val == 8607351303 and  fcsr == 0 and rm_val == 7  #nosat': 1 #  Random number chosen in the range: [8589934592, 17179869183]
    'rs1_val == 22050244097 and  fcsr == 0 and rm_val == 7  #nosat': 1 #  Random number chosen in the range: [17179869184, 34359738367]
    'rs1_val == 51102363774 and  fcsr == 0 and rm_val == 7  #nosat': 1 #  Random number chosen in the range: [34359738368, 68719476735]
    'rs1_val == 131206879410 and  fcsr == 0 and rm_val == 7  #nosat': 1 #  Random number chosen in the range: [68719476736, 137438953471]
    'rs1_val == 268160711063 and  fcsr == 0 and rm_val == 7  #nosat': 1 #  Random number chosen in the range: [137438953472, 274877906943]
    'rs1_val == 453482173015 and  fcsr == 0 and rm_val == 7  #nosat': 1 #  Random number chosen in the range: [274877906944, 549755813887]
    'rs1_val == 813522083007 and  fcsr == 0 and rm_val == 7  #nosat': 1 #  Random number chosen in the range: [549755813888, 1099511627775]
    'rs1_val == 1168389695644 and  fcsr == 0 and rm_val == 7  #nosat': 1 #  Random number chosen in the range: [1099511627776, 2199023255551]
    'rs1_val == 3524006078498 and  fcsr == 0 and rm_val == 7  #nosat': 1 #  Random number chosen in the range: [2199023255552, 4398046511103]
    'rs1_val == 5032232323694 and  fcsr == 0 and rm_val == 7  #nosat': 1 #  Random number chosen in the range: [4398046511104, 8796093022207]
    'rs1_val == 10221399934292 and  fcsr == 0 and rm_val == 7  #nosat': 1 #  Random number chosen in the range: [8796093022208, 17592186044415]
    'rs1_val == 31117680965175 and  fcsr == 0 and rm_val == 7  #nosat': 1 #  Random number chosen in the range: [17592186044416, 35184372088831]
    'rs1_val == 45718214482007 and  fcsr == 0 and rm_val == 7  #nosat': 1 #  Random number chosen in the range: [35184372088832, 70368744177663]
    'rs1_val == 132508745935081 and  fcsr == 0 and rm_val == 7  #nosat': 1 #  Random number chosen in the range: [70368744177664, 140737488355327]
    'rs1_val == 194479587133174 and  fcsr == 0 and rm_val == 7  #nosat': 1 #  Random number chosen in the range: [140737488355328, 281474976710655]
    'rs1_val == 477767642386861 and  fcsr == 0 and rm_val == 7  #nosat': 1 #  Random number chosen in the range: [281474976710656, 562949953421311]
    'rs1_val == 1064659746632576 and  fcsr == 0 and rm_val == 7  #nosat': 1 #  Random number chosen in the range: [562949953421312, 1125899906842623]
    'rs1_val == 1449063015970349 and  fcsr == 0 and rm_val == 7  #nosat': 1 #  Random number chosen in the range: [1125899906842624, 2251799813685247]
    'rs1_val == 3454382579804098 and  fcsr == 0 and rm_val == 7  #nosat': 1 #  Random number chosen in the range: [2251799813685248, 4503599627370495]
    'rs1_val == 7228908657904184 and  fcsr == 0 and rm_val == 7  #nosat': 1 #  Random number chosen in the range: [4503599627370496, 9007199254740991]
    'rs1_val == 12147253371253868 and  fcsr == 0 and rm_val == 7  #nosat': 1 #  Random number chosen in the range: [9007199254740992, 18014398509481983]
    'rs1_val == 24358691315317906 and  fcsr == 0 and rm_val == 7  #nosat': 1 #  Random number chosen in the range: [18014398509481984, 36028797018963967]
    'rs1_val == 59668294213987868 and  fcsr == 0 and rm_val == 7  #nosat': 1 #  Random number chosen in the range: [36028797018963968, 72057594037927935]
    'rs1_val == 104291213792325832 and  fcsr == 0 and rm_val == 7  #nosat': 1 #  Random number chosen in the range: [72057594037927936, 144115188075855871]
    'rs1_val == 156703057381110404 and  fcsr == 0 and rm_val == 7  #nosat': 1 #  Random number chosen in the range: [144115188075855872, 288230376151711743]
    'rs1_val == 428092830716901554 and  fcsr == 0 and rm_val == 7  #nosat': 1 #  Random number chosen in the range: [288230376151711744, 576460752303423487]
    'rs1_val == 878257878219487117 and  fcsr == 0 and rm_val == 7  #nosat': 1 #  Random number chosen in the range: [576460752303423488, 1152921504606846975]
    'rs1_val == 2086309477244717835 and  fcsr == 0 and rm_val == 7  #nosat': 1 #  Random number chosen in the range: [1152921504606846976, 2305843009213693951]
    'rs1_val == 3035559518675506972 and  fcsr == 0 and rm_val == 7  #nosat': 1 #  Random number chosen in the range: [2305843009213693952, 4611686018427387903]
    'rs1_val == 9184267462870993263 and  fcsr == 0 and rm_val == 7  #nosat': 1 #  Random number chosen in the range: [4611686018427387904, 9223372036854775807]
    coverage: 64/64
  total_coverage: 129/129
