---
fcvt.w.s_b29:
  config:
  - check ISA:=regex(.*I.*Zfinx.*)
  mnemonics:
    fcvt.w.s: 82
    coverage: 1/1
  rd:
    x0: 1
    x1: 1
    x10: 1
    x11: 1
    x12: 1
    x13: 1
    x14: 1
    x15: 1
    x16: 1
    x17: 1
    x18: 1
    x19: 1
    x2: 1
    x20: 1
    x21: 1
    x22: 1
    x23: 1
    x24: 1
    x25: 1
    x26: 1
    x27: 1
    x28: 1
    x29: 1
    x3: 1
    x30: 1
    x31: 51
    x4: 1
    x5: 1
    x6: 1
    x7: 1
    x8: 1
    x9: 1
    coverage: 32/32
  rs1:
    x0: 1
    x1: 1
    x10: 1
    x11: 1
    x12: 1
    x13: 1
    x14: 1
    x15: 1
    x16: 1
    x17: 1
    x18: 1
    x19: 1
    x2: 1
    x20: 1
    x21: 1
    x22: 1
    x23: 1
    x24: 1
    x25: 1
    x26: 1
    x27: 1
    x28: 1
    x29: 1
    x3: 1
    x30: 51
    x31: 1
    x4: 1
    x5: 1
    x6: 1
    x7: 1
    x8: 1
    x9: 1
    coverage: 32/32
  val_comb:
    'fs1 == 0 and fe1 == 0x7c and fm1 == 0x4923b8 and  fcsr == 0x0 and rm_val == 7  and rs1_sgn_prefix == 0x00000000  #nosat': 1
    'fs1 == 0 and fe1 == 0x7c and fm1 == 0x4923b8 and  fcsr == 0x20 and rm_val == 7  and rs1_sgn_prefix == 0x00000000  #nosat': 1
    'fs1 == 0 and fe1 == 0x7c and fm1 == 0x4923b8 and  fcsr == 0x40 and rm_val == 7  and rs1_sgn_prefix == 0x00000000  #nosat': 1
    'fs1 == 0 and fe1 == 0x7c and fm1 == 0x4923b8 and  fcsr == 0x60 and rm_val == 7  and rs1_sgn_prefix == 0x00000000  #nosat': 1
    'fs1 == 0 and fe1 == 0x7c and fm1 == 0x4923b8 and  fcsr == 0x80 and rm_val == 7  and rs1_sgn_prefix == 0x00000000  #nosat': 1
    'fs1 == 0 and fe1 == 0x7c and fm1 == 0x4923b9 and  fcsr == 0x0 and rm_val == 7  and rs1_sgn_prefix == 0x00000000  #nosat': 1
    'fs1 == 0 and fe1 == 0x7c and fm1 == 0x4923b9 and  fcsr == 0x20 and rm_val == 7  and rs1_sgn_prefix == 0x00000000  #nosat': 1
    'fs1 == 0 and fe1 == 0x7c and fm1 == 0x4923b9 and  fcsr == 0x40 and rm_val == 7  and rs1_sgn_prefix == 0x00000000  #nosat': 1
    'fs1 == 0 and fe1 == 0x7c and fm1 == 0x4923b9 and  fcsr == 0x60 and rm_val == 7  and rs1_sgn_prefix == 0x00000000  #nosat': 1
    'fs1 == 0 and fe1 == 0x7c and fm1 == 0x4923b9 and  fcsr == 0x80 and rm_val == 7  and rs1_sgn_prefix == 0x00000000  #nosat': 1
    'fs1 == 0 and fe1 == 0x7c and fm1 == 0x4923ba and  fcsr == 0x0 and rm_val == 7  and rs1_sgn_prefix == 0x00000000  #nosat': 1
    'fs1 == 0 and fe1 == 0x7c and fm1 == 0x4923ba and  fcsr == 0x20 and rm_val == 7  and rs1_sgn_prefix == 0x00000000  #nosat': 1
    'fs1 == 0 and fe1 == 0x7c and fm1 == 0x4923ba and  fcsr == 0x40 and rm_val == 7  and rs1_sgn_prefix == 0x00000000  #nosat': 1
    'fs1 == 0 and fe1 == 0x7c and fm1 == 0x4923ba and  fcsr == 0x60 and rm_val == 7  and rs1_sgn_prefix == 0x00000000  #nosat': 1
    'fs1 == 0 and fe1 == 0x7c and fm1 == 0x4923ba and  fcsr == 0x80 and rm_val == 7  and rs1_sgn_prefix == 0x00000000  #nosat': 1
    'fs1 == 0 and fe1 == 0x7c and fm1 == 0x4923bb and  fcsr == 0x0 and rm_val == 7  and rs1_sgn_prefix == 0x00000000  #nosat': 1
    'fs1 == 0 and fe1 == 0x7c and fm1 == 0x4923bb and  fcsr == 0x20 and rm_val == 7  and rs1_sgn_prefix == 0x00000000  #nosat': 1
    'fs1 == 0 and fe1 == 0x7c and fm1 == 0x4923bb and  fcsr == 0x40 and rm_val == 7  and rs1_sgn_prefix == 0x00000000  #nosat': 1
    'fs1 == 0 and fe1 == 0x7c and fm1 == 0x4923bb and  fcsr == 0x60 and rm_val == 7  and rs1_sgn_prefix == 0x00000000  #nosat': 1
    'fs1 == 0 and fe1 == 0x7c and fm1 == 0x4923bb and  fcsr == 0x80 and rm_val == 7  and rs1_sgn_prefix == 0x00000000  #nosat': 1
    'fs1 == 0 and fe1 == 0x7c and fm1 == 0x4923bc and  fcsr == 0x0 and rm_val == 7  and rs1_sgn_prefix == 0x00000000  #nosat': 1
    'fs1 == 0 and fe1 == 0x7c and fm1 == 0x4923bc and  fcsr == 0x20 and rm_val == 7  and rs1_sgn_prefix == 0x00000000  #nosat': 1
    'fs1 == 0 and fe1 == 0x7c and fm1 == 0x4923bc and  fcsr == 0x40 and rm_val == 7  and rs1_sgn_prefix == 0x00000000  #nosat': 1
    'fs1 == 0 and fe1 == 0x7c and fm1 == 0x4923bc and  fcsr == 0x60 and rm_val == 7  and rs1_sgn_prefix == 0x00000000  #nosat': 1
    'fs1 == 0 and fe1 == 0x7c and fm1 == 0x4923bc and  fcsr == 0x80 and rm_val == 7  and rs1_sgn_prefix == 0x00000000  #nosat': 1
    'fs1 == 0 and fe1 == 0x7c and fm1 == 0x4923bd and  fcsr == 0x0 and rm_val == 7  and rs1_sgn_prefix == 0x00000000  #nosat': 1
    'fs1 == 0 and fe1 == 0x7c and fm1 == 0x4923bd and  fcsr == 0x20 and rm_val == 7  and rs1_sgn_prefix == 0x00000000  #nosat': 1
    'fs1 == 0 and fe1 == 0x7c and fm1 == 0x4923bd and  fcsr == 0x40 and rm_val == 7  and rs1_sgn_prefix == 0x00000000  #nosat': 1
    'fs1 == 0 and fe1 == 0x7c and fm1 == 0x4923bd and  fcsr == 0x60 and rm_val == 7  and rs1_sgn_prefix == 0x00000000  #nosat': 1
    'fs1 == 0 and fe1 == 0x7c and fm1 == 0x4923bd and  fcsr == 0x80 and rm_val == 7  and rs1_sgn_prefix == 0x00000000  #nosat': 1
    'fs1 == 0 and fe1 == 0x7c and fm1 == 0x4923be and  fcsr == 0x0 and rm_val == 7  and rs1_sgn_prefix == 0x00000000  #nosat': 1
    'fs1 == 0 and fe1 == 0x7c and fm1 == 0x4923be and  fcsr == 0x20 and rm_val == 7  and rs1_sgn_prefix == 0x00000000  #nosat': 2
    'fs1 == 0 and fe1 == 0x7c and fm1 == 0x4923be and  fcsr == 0x40 and rm_val == 7  and rs1_sgn_prefix == 0x00000000  #nosat': 1
    'fs1 == 0 and fe1 == 0x7c and fm1 == 0x4923be and  fcsr == 0x60 and rm_val == 7  and rs1_sgn_prefix == 0x00000000  #nosat': 1
    'fs1 == 0 and fe1 == 0x7c and fm1 == 0x4923be and  fcsr == 0x80 and rm_val == 7  and rs1_sgn_prefix == 0x00000000  #nosat': 1
    'fs1 == 0 and fe1 == 0x7c and fm1 == 0x4923bf and  fcsr == 0x0 and rm_val == 7  and rs1_sgn_prefix == 0x00000000  #nosat': 1
    'fs1 == 0 and fe1 == 0x7c and fm1 == 0x4923bf and  fcsr == 0x20 and rm_val == 7  and rs1_sgn_prefix == 0x00000000  #nosat': 1
    'fs1 == 0 and fe1 == 0x7c and fm1 == 0x4923bf and  fcsr == 0x40 and rm_val == 7  and rs1_sgn_prefix == 0x00000000  #nosat': 1
    'fs1 == 0 and fe1 == 0x7c and fm1 == 0x4923bf and  fcsr == 0x60 and rm_val == 7  and rs1_sgn_prefix == 0x00000000  #nosat': 1
    'fs1 == 0 and fe1 == 0x7c and fm1 == 0x4923bf and  fcsr == 0x80 and rm_val == 7  and rs1_sgn_prefix == 0x00000000  #nosat': 1
    'fs1 == 1 and fe1 == 0x7c and fm1 == 0x4923b8 and  fcsr == 0x0 and rm_val == 7  and rs1_sgn_prefix == 0xffffffff  #nosat': 1
    'fs1 == 1 and fe1 == 0x7c and fm1 == 0x4923b8 and  fcsr == 0x20 and rm_val == 7  and rs1_sgn_prefix == 0xffffffff  #nosat': 1
    'fs1 == 1 and fe1 == 0x7c and fm1 == 0x4923b8 and  fcsr == 0x40 and rm_val == 7  and rs1_sgn_prefix == 0xffffffff  #nosat': 1
    'fs1 == 1 and fe1 == 0x7c and fm1 == 0x4923b8 and  fcsr == 0x60 and rm_val == 7  and rs1_sgn_prefix == 0xffffffff  #nosat': 1
    'fs1 == 1 and fe1 == 0x7c and fm1 == 0x4923b8 and  fcsr == 0x80 and rm_val == 7  and rs1_sgn_prefix == 0xffffffff  #nosat': 1
    'fs1 == 1 and fe1 == 0x7c and fm1 == 0x4923b9 and  fcsr == 0x0 and rm_val == 7  and rs1_sgn_prefix == 0xffffffff  #nosat': 1
    'fs1 == 1 and fe1 == 0x7c and fm1 == 0x4923b9 and  fcsr == 0x20 and rm_val == 7  and rs1_sgn_prefix == 0xffffffff  #nosat': 1
    'fs1 == 1 and fe1 == 0x7c and fm1 == 0x4923b9 and  fcsr == 0x40 and rm_val == 7  and rs1_sgn_prefix == 0xffffffff  #nosat': 1
    'fs1 == 1 and fe1 == 0x7c and fm1 == 0x4923b9 and  fcsr == 0x60 and rm_val == 7  and rs1_sgn_prefix == 0xffffffff  #nosat': 1
    'fs1 == 1 and fe1 == 0x7c and fm1 == 0x4923b9 and  fcsr == 0x80 and rm_val == 7  and rs1_sgn_prefix == 0xffffffff  #nosat': 1
    'fs1 == 1 and fe1 == 0x7c and fm1 == 0x4923ba and  fcsr == 0x0 and rm_val == 7  and rs1_sgn_prefix == 0xffffffff  #nosat': 1
    'fs1 == 1 and fe1 == 0x7c and fm1 == 0x4923ba and  fcsr == 0x20 and rm_val == 7  and rs1_sgn_prefix == 0xffffffff  #nosat': 1
    'fs1 == 1 and fe1 == 0x7c and fm1 == 0x4923ba and  fcsr == 0x40 and rm_val == 7  and rs1_sgn_prefix == 0xffffffff  #nosat': 1
    'fs1 == 1 and fe1 == 0x7c and fm1 == 0x4923ba and  fcsr == 0x60 and rm_val == 7  and rs1_sgn_prefix == 0xffffffff  #nosat': 1
    'fs1 == 1 and fe1 == 0x7c and fm1 == 0x4923ba and  fcsr == 0x80 and rm_val == 7  and rs1_sgn_prefix == 0xffffffff  #nosat': 1
    'fs1 == 1 and fe1 == 0x7c and fm1 == 0x4923bb and  fcsr == 0x0 and rm_val == 7  and rs1_sgn_prefix == 0xffffffff  #nosat': 1
    'fs1 == 1 and fe1 == 0x7c and fm1 == 0x4923bb and  fcsr == 0x20 and rm_val == 7  and rs1_sgn_prefix == 0xffffffff  #nosat': 1
    'fs1 == 1 and fe1 == 0x7c and fm1 == 0x4923bb and  fcsr == 0x40 and rm_val == 7  and rs1_sgn_prefix == 0xffffffff  #nosat': 1
    'fs1 == 1 and fe1 == 0x7c and fm1 == 0x4923bb and  fcsr == 0x60 and rm_val == 7  and rs1_sgn_prefix == 0xffffffff  #nosat': 1
    'fs1 == 1 and fe1 == 0x7c and fm1 == 0x4923bb and  fcsr == 0x80 and rm_val == 7  and rs1_sgn_prefix == 0xffffffff  #nosat': 1
    'fs1 == 1 and fe1 == 0x7c and fm1 == 0x4923bc and  fcsr == 0x0 and rm_val == 7  and rs1_sgn_prefix == 0xffffffff  #nosat': 1
    'fs1 == 1 and fe1 == 0x7c and fm1 == 0x4923bc and  fcsr == 0x20 and rm_val == 7  and rs1_sgn_prefix == 0xffffffff  #nosat': 1
    'fs1 == 1 and fe1 == 0x7c and fm1 == 0x4923bc and  fcsr == 0x40 and rm_val == 7  and rs1_sgn_prefix == 0xffffffff  #nosat': 1
    'fs1 == 1 and fe1 == 0x7c and fm1 == 0x4923bc and  fcsr == 0x60 and rm_val == 7  and rs1_sgn_prefix == 0xffffffff  #nosat': 1
    'fs1 == 1 and fe1 == 0x7c and fm1 == 0x4923bc and  fcsr == 0x80 and rm_val == 7  and rs1_sgn_prefix == 0xffffffff  #nosat': 1
    'fs1 == 1 and fe1 == 0x7c and fm1 == 0x4923bd and  fcsr == 0x0 and rm_val == 7  and rs1_sgn_prefix == 0xffffffff  #nosat': 1
    'fs1 == 1 and fe1 == 0x7c and fm1 == 0x4923bd and  fcsr == 0x20 and rm_val == 7  and rs1_sgn_prefix == 0xffffffff  #nosat': 1
    'fs1 == 1 and fe1 == 0x7c and fm1 == 0x4923bd and  fcsr == 0x40 and rm_val == 7  and rs1_sgn_prefix == 0xffffffff  #nosat': 1
    'fs1 == 1 and fe1 == 0x7c and fm1 == 0x4923bd and  fcsr == 0x60 and rm_val == 7  and rs1_sgn_prefix == 0xffffffff  #nosat': 1
    'fs1 == 1 and fe1 == 0x7c and fm1 == 0x4923bd and  fcsr == 0x80 and rm_val == 7  and rs1_sgn_prefix == 0xffffffff  #nosat': 1
    'fs1 == 1 and fe1 == 0x7c and fm1 == 0x4923be and  fcsr == 0x0 and rm_val == 7  and rs1_sgn_prefix == 0xffffffff  #nosat': 1
    'fs1 == 1 and fe1 == 0x7c and fm1 == 0x4923be and  fcsr == 0x20 and rm_val == 7  and rs1_sgn_prefix == 0xffffffff  #nosat': 1
    'fs1 == 1 and fe1 == 0x7c and fm1 == 0x4923be and  fcsr == 0x40 and rm_val == 7  and rs1_sgn_prefix == 0xffffffff  #nosat': 1
    'fs1 == 1 and fe1 == 0x7c and fm1 == 0x4923be and  fcsr == 0x60 and rm_val == 7  and rs1_sgn_prefix == 0xffffffff  #nosat': 1
    'fs1 == 1 and fe1 == 0x7c and fm1 == 0x4923be and  fcsr == 0x80 and rm_val == 7  and rs1_sgn_prefix == 0xffffffff  #nosat': 1
    'fs1 == 1 and fe1 == 0x7c and fm1 == 0x4923bf and  fcsr == 0x0 and rm_val == 7  and rs1_sgn_prefix == 0xffffffff  #nosat': 1
    'fs1 == 1 and fe1 == 0x7c and fm1 == 0x4923bf and  fcsr == 0x20 and rm_val == 7  and rs1_sgn_prefix == 0xffffffff  #nosat': 1
    'fs1 == 1 and fe1 == 0x7c and fm1 == 0x4923bf and  fcsr == 0x40 and rm_val == 7  and rs1_sgn_prefix == 0xffffffff  #nosat': 1
    'fs1 == 1 and fe1 == 0x7c and fm1 == 0x4923bf and  fcsr == 0x60 and rm_val == 7  and rs1_sgn_prefix == 0xffffffff  #nosat': 1
    'fs1 == 1 and fe1 == 0x7c and fm1 == 0x4923bf and  fcsr == 0x80 and rm_val == 7  and rs1_sgn_prefix == 0xffffffff  #nosat': 1
    coverage: 80/80
  total_coverage: 145/145
