---
fcvt.d.s_b29:
  config:
  - check ISA:=regex(.*I.*F.*)
  op_comb:
    rs1 != rd: 31
    rs1 == rd: 1
    coverage: 2/2
  opcode:
    fcvt.d.s: 32
    coverage: 1/1
  rd:
    f0: 1
    f1: 1
    f10: 1
    f11: 1
    f12: 1
    f13: 1
    f14: 1
    f15: 1
    f16: 1
    f17: 1
    f18: 1
    f19: 1
    f2: 1
    f20: 1
    f21: 1
    f22: 1
    f23: 1
    f24: 1
    f25: 1
    f26: 1
    f27: 1
    f28: 1
    f29: 1
    f3: 1
    f30: 1
    f31: 1
    f4: 1
    f5: 1
    f6: 1
    f7: 1
    f8: 1
    f9: 1
    coverage: 32/32
  rs1:
    f0: 1
    f1: 1
    f10: 1
    f11: 1
    f12: 1
    f13: 1
    f14: 1
    f15: 1
    f16: 1
    f17: 1
    f18: 1
    f19: 1
    f2: 1
    f20: 1
    f21: 1
    f22: 1
    f23: 1
    f24: 1
    f25: 1
    f26: 1
    f27: 1
    f28: 1
    f29: 1
    f3: 1
    f30: 1
    f31: 1
    f4: 1
    f5: 1
    f6: 1
    f7: 1
    f8: 1
    f9: 1
    coverage: 32/32
  val_comb:
    'fs1 == 0 and fe1 == 0x3fc and fm1 == 0x08574923b8698 and rm_val == 0  #nosat': 1  #  rs1_val==dnorm(0x3fc08574923b8698) | Exp = -3; Sign = 0; LSB = 0; Guard = 0; Sticky = 0
    'fs1 == 1 and fe1 == 0x3fc and fm1 == 0x08574923b869f and rm_val == 0  #nosat': 1 #  rs1_val==dnorm(0xbfc08574923b869f) | Exp = -3; Sign = 1; LSB = 1; Guard = 1; Sticky = 1
    'fs1 == 1 and fe1 == 0x3fc and fm1 == 0x08574923b869e and rm_val == 0  #nosat': 1 #  rs1_val==dnorm(0xbfc08574923b869e) | Exp = -3; Sign = 1; LSB = 1; Guard = 1; Sticky = 0
    'fs1 == 1 and fe1 == 0x3fc and fm1 == 0x08574923b869d and rm_val == 0  #nosat': 1 #  rs1_val==dnorm(0xbfc08574923b869d) | Exp = -3; Sign = 1; LSB = 1; Guard = 0; Sticky = 1
    'fs1 == 1 and fe1 == 0x3fc and fm1 == 0x08574923b869c and rm_val == 0  #nosat': 1 #  rs1_val==dnorm(0xbfc08574923b869c) | Exp = -3; Sign = 1; LSB = 1; Guard = 0; Sticky = 0
    'fs1 == 1 and fe1 == 0x3fc and fm1 == 0x08574923b869b and rm_val == 0  #nosat': 1 #  rs1_val==dnorm(0xbfc08574923b869b) | Exp = -3; Sign = 1; LSB = 0; Guard = 1; Sticky = 1
    'fs1 == 1 and fe1 == 0x3fc and fm1 == 0x08574923b869a and rm_val == 0  #nosat': 1 #  rs1_val==dnorm(0xbfc08574923b869a) | Exp = -3; Sign = 1; LSB = 0; Guard = 1; Sticky = 0
    'fs1 == 1 and fe1 == 0x3fc and fm1 == 0x08574923b8699 and rm_val == 0  #nosat': 1 #  rs1_val==dnorm(0xbfc08574923b8699) | Exp = -3; Sign = 1; LSB = 0; Guard = 0; Sticky = 1
    'fs1 == 1 and fe1 == 0x3fc and fm1 == 0x08574923b8698 and rm_val == 0  #nosat': 1 #  rs1_val==dnorm(0xbfc08574923b8698) | Exp = -3; Sign = 1; LSB = 0; Guard = 0; Sticky = 0
    'fs1 == 0 and fe1 == 0x3fc and fm1 == 0x08574923b869f and rm_val == 0  #nosat': 1 #  rs1_val==dnorm(0x3fc08574923b869f) | Exp = -3; Sign = 0; LSB = 1; Guard = 1; Sticky = 1
    'fs1 == 0 and fe1 == 0x3fc and fm1 == 0x08574923b869e and rm_val == 0  #nosat': 1 #  rs1_val==dnorm(0x3fc08574923b869e) | Exp = -3; Sign = 0; LSB = 1; Guard = 1; Sticky = 0
    'fs1 == 0 and fe1 == 0x3fc and fm1 == 0x08574923b869d and rm_val == 0  #nosat': 1 #  rs1_val==dnorm(0x3fc08574923b869d) | Exp = -3; Sign = 0; LSB = 1; Guard = 0; Sticky = 1
    'fs1 == 0 and fe1 == 0x3fc and fm1 == 0x08574923b869c and rm_val == 0  #nosat': 1 #  rs1_val==dnorm(0x3fc08574923b869c) | Exp = -3; Sign = 0; LSB = 1; Guard = 0; Sticky = 0
    'fs1 == 0 and fe1 == 0x3fc and fm1 == 0x08574923b869b and rm_val == 0  #nosat': 1 #  rs1_val==dnorm(0x3fc08574923b869b) | Exp = -3; Sign = 0; LSB = 0; Guard = 1; Sticky = 1
    'fs1 == 0 and fe1 == 0x3fc and fm1 == 0x08574923b869a and rm_val == 0  #nosat': 1 #  rs1_val==dnorm(0x3fc08574923b869a) | Exp = -3; Sign = 0; LSB = 0; Guard = 1; Sticky = 0
    'fs1 == 0 and fe1 == 0x3fc and fm1 == 0x08574923b8699 and rm_val == 0  #nosat': 1 #  rs1_val==dnorm(0x3fc08574923b8699) | Exp = -3; Sign = 0; LSB = 0; Guard = 0; Sticky = 1
    coverage: 16/16
  total_coverage: 83/83
