---
fsub_b10:
  config:
  - check ISA:=regex(.*I.*F.*)
  op_comb:
    rs1 != rs2  and rs1 != rd and rs2 != rd: 69
    rs1 == rd != rs2: 1
    rs1 == rs2 != rd: 1
    rs1 == rs2 == rd: 1
    rs2 == rd != rs1: 1
    coverage: 5/5
  opcode:
    fsub.s: 73
    coverage: 1/1
  rd:
    f0: 1
    f1: 1
    f10: 1
    f11: 1
    f12: 1
    f13: 1
    f14: 1
    f15: 1
    f16: 1
    f17: 1
    f18: 1
    f19: 1
    f2: 1
    f20: 1
    f21: 1
    f22: 1
    f23: 1
    f24: 1
    f25: 1
    f26: 1
    f27: 1
    f28: 1
    f29: 1
    f3: 1
    f30: 1
    f31: 42
    f4: 1
    f5: 1
    f6: 1
    f7: 1
    f8: 1
    f9: 1
    coverage: 32/32
  rs1:
    f0: 1
    f1: 1
    f10: 1
    f11: 1
    f12: 1
    f13: 1
    f14: 1
    f15: 1
    f16: 1
    f17: 1
    f18: 1
    f19: 1
    f2: 1
    f20: 1
    f21: 1
    f22: 1
    f23: 1
    f24: 1
    f25: 1
    f26: 1
    f27: 1
    f28: 1
    f29: 1
    f3: 1
    f30: 42
    f31: 1
    f4: 1
    f5: 1
    f6: 1
    f7: 1
    f8: 1
    f9: 1
    coverage: 32/32
  rs2:
    f0: 1
    f1: 1
    f10: 1
    f11: 1
    f12: 1
    f13: 1
    f14: 1
    f15: 1
    f16: 1
    f17: 1
    f18: 1
    f19: 1
    f2: 1
    f20: 1
    f21: 1
    f22: 1
    f23: 1
    f24: 1
    f25: 1
    f26: 1
    f27: 1
    f28: 1
    f29: 42
    f3: 1
    f30: 1
    f31: 1
    f4: 1
    f5: 1
    f6: 1
    f7: 1
    f8: 1
    f9: 1
    coverage: 32/32
  val_comb:
    'fs1 == 0 and fe1 == 0xf1 and fm1 == 0x535630 and fs2 == 0 and fe2 == 0x00 and fm2 == 0x178cde and rm_val == 0  #nosat': 1  #  rs1_val==fnorm(0x78d35630) and rs2_val==fsubnorm(0x00178cde) | Exponent = -132 --> A value smaller than -(p + 4)
    'fs1 == 0 and fe1 == 0xf1 and fm1 == 0x535630 and fs2 == 0 and fe2 == 0xfe and fm2 == 0x7fffff and rm_val == 0  #nosat': 1 #  rs1_val==fnorm(0x78d35630) and rs2_val==fmaxnorm(0x7f7fffff) | Exponent = 181 --> A value larger than (p + 4)
    'fs1 == 0 and fe1 == 0xf1 and fm1 == 0x535630 and fs2 == 0 and fe2 == 0xf1 and fm2 == 0x054a30 and rm_val == 0  #nosat': 1 #  rs1_val==fnorm(0x78d35630) and rs2_val==fnorm(0x78854a30) | Exponent = 115 --> Values in the range [-(p + 4) , (p + 4)]
    'fs1 == 0 and fe1 == 0xf1 and fm1 == 0x535630 and fs2 == 0 and fe2 == 0xed and fm2 == 0x554380 and rm_val == 0  #nosat': 1 #  rs1_val==fnorm(0x78d35630) and rs2_val==fnorm(0x76d54380) | Exponent = 112 --> Values in the range [-(p + 4) , (p + 4)]
    'fs1 == 0 and fe1 == 0xf1 and fm1 == 0x535630 and fs2 == 0 and fe2 == 0xea and fm2 == 0x2a9c66 and rm_val == 0  #nosat': 1 #  rs1_val==fnorm(0x78d35630) and rs2_val==fnorm(0x752a9c66) | Exponent = 109 --> Values in the range [-(p + 4) , (p + 4)]
    'fs1 == 0 and fe1 == 0xf1 and fm1 == 0x535630 and fs2 == 0 and fe2 == 0xe7 and fm2 == 0x087d1e and rm_val == 0  #nosat': 1 #  rs1_val==fnorm(0x78d35630) and rs2_val==fnorm(0x73887d1e) | Exponent = 106 --> Values in the range [-(p + 4) , (p + 4)]
    'fs1 == 0 and fe1 == 0xf1 and fm1 == 0x535630 and fs2 == 0 and fe2 == 0xe3 and fm2 == 0x5a61ca and rm_val == 0  #nosat': 1 #  rs1_val==fnorm(0x78d35630) and rs2_val==fnorm(0x71da61ca) | Exponent = 102 --> Values in the range [-(p + 4) , (p + 4)]
    'fs1 == 0 and fe1 == 0xf1 and fm1 == 0x535630 and fs2 == 0 and fe2 == 0xe0 and fm2 == 0x2eb4a2 and rm_val == 0  #nosat': 1 #  rs1_val==fnorm(0x78d35630) and rs2_val==fnorm(0x702eb4a2) | Exponent = 99 --> Values in the range [-(p + 4) , (p + 4)]
    'fs1 == 0 and fe1 == 0xf1 and fm1 == 0x535630 and fs2 == 0 and fe2 == 0xdd and fm2 == 0x0bc3b5 and rm_val == 0  #nosat': 1 #  rs1_val==fnorm(0x78d35630) and rs2_val==fnorm(0x6e8bc3b5) | Exponent = 96 --> Values in the range [-(p + 4) , (p + 4)]
    'fs1 == 0 and fe1 == 0xf1 and fm1 == 0x535630 and fs2 == 0 and fe2 == 0xd9 and fm2 == 0x5f9f88 and rm_val == 0  #nosat': 1 #  rs1_val==fnorm(0x78d35630) and rs2_val==fnorm(0x6cdf9f88) | Exponent = 93 --> Values in the range [-(p + 4) , (p + 4)]
    'fs1 == 0 and fe1 == 0xf1 and fm1 == 0x535630 and fs2 == 0 and fe2 == 0xd6 and fm2 == 0x32e606 and rm_val == 0  #nosat': 1 #  rs1_val==fnorm(0x78d35630) and rs2_val==fnorm(0x6b32e606) | Exponent = 89 --> Values in the range [-(p + 4) , (p + 4)]
    'fs1 == 0 and fe1 == 0xf1 and fm1 == 0x535630 and fs2 == 0 and fe2 == 0xd3 and fm2 == 0x0f1e6b and rm_val == 0  #nosat': 1 #  rs1_val==fnorm(0x78d35630) and rs2_val==fnorm(0x698f1e6b) | Exponent = 86 --> Values in the range [-(p + 4) , (p + 4)]
    'fs1 == 0 and fe1 == 0xf1 and fm1 == 0x535630 and fs2 == 0 and fe2 == 0xcf and fm2 == 0x64fd78 and rm_val == 0  #nosat': 1 #  rs1_val==fnorm(0x78d35630) and rs2_val==fnorm(0x67e4fd78) | Exponent = 83 --> Values in the range [-(p + 4) , (p + 4)]
    'fs1 == 0 and fe1 == 0xf1 and fm1 == 0x535630 and fs2 == 0 and fe2 == 0xcc and fm2 == 0x37312d and rm_val == 0  #nosat': 1 #  rs1_val==fnorm(0x78d35630) and rs2_val==fnorm(0x6637312d) | Exponent = 79 --> Values in the range [-(p + 4) , (p + 4)]
    'fs1 == 0 and fe1 == 0xf1 and fm1 == 0x535630 and fs2 == 0 and fe2 == 0xc9 and fm2 == 0x128dbe and rm_val == 0  #nosat': 1 #  rs1_val==fnorm(0x78d35630) and rs2_val==fnorm(0x64928dbe) | Exponent = 76 --> Values in the range [-(p + 4) , (p + 4)]
    'fs1 == 0 and fe1 == 0xf1 and fm1 == 0x535630 and fs2 == 0 and fe2 == 0xc5 and fm2 == 0x6a7c63 and rm_val == 0  #nosat': 1 #  rs1_val==fnorm(0x78d35630) and rs2_val==fnorm(0x62ea7c63) | Exponent = 73 --> Values in the range [-(p + 4) , (p + 4)]
    'fs1 == 0 and fe1 == 0xf1 and fm1 == 0x535630 and fs2 == 0 and fe2 == 0xc2 and fm2 == 0x3b96b5 and rm_val == 0  #nosat': 1 #  rs1_val==fnorm(0x78d35630) and rs2_val==fnorm(0x613b96b5) | Exponent = 69 --> Values in the range [-(p + 4) , (p + 4)]
    'fs1 == 0 and fe1 == 0xf1 and fm1 == 0x535630 and fs2 == 0 and fe2 == 0xbf and fm2 == 0x16122b and rm_val == 0  #nosat': 1 #  rs1_val==fnorm(0x78d35630) and rs2_val==fnorm(0x5f96122b) | Exponent = 66 --> Values in the range [-(p + 4) , (p + 4)]
    'fs1 == 0 and fe1 == 0xf1 and fm1 == 0x535630 and fs2 == 0 and fe2 == 0xbb and fm2 == 0x701d11 and rm_val == 0  #nosat': 1 #  rs1_val==fnorm(0x78d35630) and rs2_val==fnorm(0x5df01d11) | Exponent = 63 --> Values in the range [-(p + 4) , (p + 4)]
    'fs1 == 0 and fe1 == 0xf1 and fm1 == 0x535630 and fs2 == 0 and fe2 == 0xb8 and fm2 == 0x401741 and rm_val == 0  #nosat': 1 #  rs1_val==fnorm(0x78d35630) and rs2_val==fnorm(0x5c401741) | Exponent = 59 --> Values in the range [-(p + 4) , (p + 4)]
    'fs1 == 0 and fe1 == 0xf1 and fm1 == 0x535630 and fs2 == 0 and fe2 == 0xb5 and fm2 == 0x19ac34 and rm_val == 0  #nosat': 1 #  rs1_val==fnorm(0x78d35630) and rs2_val==fnorm(0x5a99ac34) | Exponent = 56 --> Values in the range [-(p + 4) , (p + 4)]
    'fs1 == 0 and fe1 == 0xf1 and fm1 == 0x535630 and fs2 == 0 and fe2 == 0xb1 and fm2 == 0x75e053 and rm_val == 0  #nosat': 1 #  rs1_val==fnorm(0x78d35630) and rs2_val==fnorm(0x58f5e053) | Exponent = 53 --> Values in the range [-(p + 4) , (p + 4)]
    'fs1 == 0 and fe1 == 0xf1 and fm1 == 0x535630 and fs2 == 0 and fe2 == 0xae and fm2 == 0x44b376 and rm_val == 0  #nosat': 1 #  rs1_val==fnorm(0x78d35630) and rs2_val==fnorm(0x5744b376) | Exponent = 49 --> Values in the range [-(p + 4) , (p + 4)]
    'fs1 == 0 and fe1 == 0xf1 and fm1 == 0x535630 and fs2 == 0 and fe2 == 0xab and fm2 == 0x1d5c5e and rm_val == 0  #nosat': 1 #  rs1_val==fnorm(0x78d35630) and rs2_val==fnorm(0x559d5c5e) | Exponent = 46 --> Values in the range [-(p + 4) , (p + 4)]
    'fs1 == 0 and fe1 == 0xf1 and fm1 == 0x535630 and fs2 == 0 and fe2 == 0xa7 and fm2 == 0x7bc6fd and rm_val == 0  #nosat': 1 #  rs1_val==fnorm(0x78d35630) and rs2_val==fnorm(0x53fbc6fd) | Exponent = 43 --> Values in the range [-(p + 4) , (p + 4)]
    'fs1 == 0 and fe1 == 0xf1 and fm1 == 0x535630 and fs2 == 0 and fe2 == 0xa4 and fm2 == 0x496bfe and rm_val == 0  #nosat': 1 #  rs1_val==fnorm(0x78d35630) and rs2_val==fnorm(0x52496bfe) | Exponent = 39 --> Values in the range [-(p + 4) , (p + 4)]
    'fs1 == 0 and fe1 == 0xf1 and fm1 == 0x535630 and fs2 == 0 and fe2 == 0xa1 and fm2 == 0x212331 and rm_val == 0  #nosat': 1 #  rs1_val==fnorm(0x78d35630) and rs2_val==fnorm(0x50a12331) | Exponent = 36 --> Values in the range [-(p + 4) , (p + 4)]
    'fs1 == 0 and fe1 == 0xf1 and fm1 == 0x535630 and fs2 == 0 and fe2 == 0x9e and fm2 == 0x00e8f4 and rm_val == 0  #nosat': 1 #  rs1_val==fnorm(0x78d35630) and rs2_val==fnorm(0x4f00e8f4) | Exponent = 33 --> Values in the range [-(p + 4) , (p + 4)]
    'fs1 == 0 and fe1 == 0xf1 and fm1 == 0x535630 and fs2 == 0 and fe2 == 0x9a and fm2 == 0x4e4187 and rm_val == 0  #nosat': 1 #  rs1_val==fnorm(0x78d35630) and rs2_val==fnorm(0x4d4e4187) | Exponent = 29 --> Values in the range [-(p + 4) , (p + 4)]
    'fs1 == 0 and fe1 == 0xf1 and fm1 == 0x535630 and fs2 == 0 and fe2 == 0x97 and fm2 == 0x250138 and rm_val == 0  #nosat': 1 #  rs1_val==fnorm(0x78d35630) and rs2_val==fnorm(0x4ba50138) | Exponent = 26 --> Values in the range [-(p + 4) , (p + 4)]
    'fs1 == 0 and fe1 == 0xf1 and fm1 == 0x535630 and fs2 == 0 and fe2 == 0x94 and fm2 == 0x0400fa and rm_val == 0  #nosat': 1 #  rs1_val==fnorm(0x78d35630) and rs2_val==fnorm(0x4a0400fa) | Exponent = 23 --> Values in the range [-(p + 4) , (p + 4)]
    'fs1 == 0 and fe1 == 0xf1 and fm1 == 0x535630 and fs2 == 0 and fe2 == 0x90 and fm2 == 0x5334c3 and rm_val == 0  #nosat': 1 #  rs1_val==fnorm(0x78d35630) and rs2_val==fnorm(0x485334c3) | Exponent = 19 --> Values in the range [-(p + 4) , (p + 4)]
    'fs1 == 0 and fe1 == 0xf1 and fm1 == 0x535630 and fs2 == 0 and fe2 == 0x8d and fm2 == 0x28f703 and rm_val == 0  #nosat': 1 #  rs1_val==fnorm(0x78d35630) and rs2_val==fnorm(0x46a8f703) | Exponent = 16 --> Values in the range [-(p + 4) , (p + 4)]
    'fs1 == 0 and fe1 == 0xf1 and fm1 == 0x535630 and fs2 == 0 and fe2 == 0x8a and fm2 == 0x072c02 and rm_val == 0  #nosat': 1 #  rs1_val==fnorm(0x78d35630) and rs2_val==fnorm(0x45072c02) | Exponent = 13 --> Values in the range [-(p + 4) , (p + 4)]
    'fs1 == 0 and fe1 == 0xf1 and fm1 == 0x535630 and fs2 == 0 and fe2 == 0x86 and fm2 == 0x58466a and rm_val == 0  #nosat': 1 #  rs1_val==fnorm(0x78d35630) and rs2_val==fnorm(0x4358466a) | Exponent = 9 --> Values in the range [-(p + 4) , (p + 4)]
    'fs1 == 0 and fe1 == 0xf1 and fm1 == 0x535630 and fs2 == 0 and fe2 == 0x83 and fm2 == 0x2d0521 and rm_val == 0  #nosat': 1 #  rs1_val==fnorm(0x78d35630) and rs2_val==fnorm(0x41ad0521) | Exponent = 6 --> Values in the range [-(p + 4) , (p + 4)]
    'fs1 == 0 and fe1 == 0xf1 and fm1 == 0x535630 and fs2 == 0 and fe2 == 0x80 and fm2 == 0x0a6a81 and rm_val == 0  #nosat': 1 #  rs1_val==fnorm(0x78d35630) and rs2_val==fnorm(0x400a6a81) | Exponent = 3 --> Values in the range [-(p + 4) , (p + 4)]
    'fs1 == 0 and fe1 == 0xf1 and fm1 == 0x535630 and fs2 == 0 and fe2 == 0x7c and fm2 == 0x5d7735 and rm_val == 0  #nosat': 1 #  rs1_val==fnorm(0x78d35630) and rs2_val==fnorm(0x3e5d7735) | Exponent = -4 --> Values in the range [-(p + 4) , (p + 4)]
    'fs1 == 0 and fe1 == 0xf1 and fm1 == 0x535630 and fs2 == 0 and fe2 == 0x79 and fm2 == 0x312c2a and rm_val == 0  #nosat': 1 #  rs1_val==fnorm(0x78d35630) and rs2_val==fnorm(0x3cb12c2a) | Exponent = -7 --> Values in the range [-(p + 4) , (p + 4)]
    'fs1 == 0 and fe1 == 0xf1 and fm1 == 0x535630 and fs2 == 0 and fe2 == 0x76 and fm2 == 0x0dbcef and rm_val == 0  #nosat': 1 #  rs1_val==fnorm(0x78d35630) and rs2_val==fnorm(0x3b0dbcef) | Exponent = -10 --> Values in the range [-(p + 4) , (p + 4)]
    'fs1 == 0 and fe1 == 0xf1 and fm1 == 0x535630 and fs2 == 0 and fe2 == 0x72 and fm2 == 0x62c7e4 and rm_val == 0  #nosat': 1 #  rs1_val==fnorm(0x78d35630) and rs2_val==fnorm(0x3962c7e4) | Exponent = -14 --> Values in the range [-(p + 4) , (p + 4)]
    'fs1 == 0 and fe1 == 0xf1 and fm1 == 0x535630 and fs2 == 0 and fe2 == 0x6f and fm2 == 0x356cb7 and rm_val == 0  #nosat': 1 #  rs1_val==fnorm(0x78d35630) and rs2_val==fnorm(0x37b56cb7) | Exponent = -17 --> Values in the range [-(p + 4) , (p + 4)]
    'fs1 == 0 and fe1 == 0xf1 and fm1 == 0x535630 and fs2 == 0 and fe2 == 0x6c and fm2 == 0x1123c5 and rm_val == 0  #nosat': 1 #  rs1_val==fnorm(0x78d35630) and rs2_val==fnorm(0x361123c5) | Exponent = -20 --> Values in the range [-(p + 4) , (p + 4)]
    'fs1 == 0 and fe1 == 0xf1 and fm1 == 0x535630 and fs2 == 0 and fe2 == 0x68 and fm2 == 0x68393c and rm_val == 0  #nosat': 1 #  rs1_val==fnorm(0x78d35630) and rs2_val==fnorm(0x3468393c) | Exponent = -24 --> Values in the range [-(p + 4) , (p + 4)]
    'fs1 == 0 and fe1 == 0xf1 and fm1 == 0x535630 and fs2 == 0 and fe2 == 0x65 and fm2 == 0x39c763 and rm_val == 0  #nosat': 1 #  rs1_val==fnorm(0x78d35630) and rs2_val==fnorm(0x32b9c763) | Exponent = -27 --> Values in the range [-(p + 4) , (p + 4)]
    'fs1 == 0 and fe1 == 0xf1 and fm1 == 0x535630 and fs2 == 0 and fe2 == 0x62 and fm2 == 0x149f82 and rm_val == 0  #nosat': 1 #  rs1_val==fnorm(0x78d35630) and rs2_val==fnorm(0x31149f82) | Exponent = -30 --> Values in the range [-(p + 4) , (p + 4)]
    'fs1 == 0 and fe1 == 0xf1 and fm1 == 0x535630 and fs2 == 0 and fe2 == 0x5e and fm2 == 0x6dcc04 and rm_val == 0  #nosat': 1 #  rs1_val==fnorm(0x78d35630) and rs2_val==fnorm(0x2f6dcc04) | Exponent = -34 --> Values in the range [-(p + 4) , (p + 4)]
    'fs1 == 0 and fe1 == 0xf1 and fm1 == 0x535630 and fs2 == 0 and fe2 == 0x5b and fm2 == 0x3e3cd0 and rm_val == 0  #nosat': 1 #  rs1_val==fnorm(0x78d35630) and rs2_val==fnorm(0x2dbe3cd0) | Exponent = -37 --> Values in the range [-(p + 4) , (p + 4)]
    'fs1 == 0 and fe1 == 0xf1 and fm1 == 0x535630 and fs2 == 0 and fe2 == 0x58 and fm2 == 0x1830a6 and rm_val == 0  #nosat': 1 #  rs1_val==fnorm(0x78d35630) and rs2_val==fnorm(0x2c1830a6) | Exponent = -40 --> Values in the range [-(p + 4) , (p + 4)]
    'fs1 == 0 and fe1 == 0xf1 and fm1 == 0x535630 and fs2 == 0 and fe2 == 0x54 and fm2 == 0x73810a and rm_val == 0  #nosat': 1 #  rs1_val==fnorm(0x78d35630) and rs2_val==fnorm(0x2a73810a) | Exponent = -44 --> Values in the range [-(p + 4) , (p + 4)]
    'fs1 == 0 and fe1 == 0xf1 and fm1 == 0x535630 and fs2 == 0 and fe2 == 0x51 and fm2 == 0x42cda2 and rm_val == 0  #nosat': 1 #  rs1_val==fnorm(0x78d35630) and rs2_val==fnorm(0x28c2cda2) | Exponent = -47 --> Values in the range [-(p + 4) , (p + 4)]
    'fs1 == 0 and fe1 == 0xf1 and fm1 == 0x535630 and fs2 == 0 and fe2 == 0x4e and fm2 == 0x1bd7b4 and rm_val == 0  #nosat': 1 #  rs1_val==fnorm(0x78d35630) and rs2_val==fnorm(0x271bd7b4) | Exponent = -50 --> Values in the range [-(p + 4) , (p + 4)]
    'fs1 == 0 and fe1 == 0xf1 and fm1 == 0x535630 and fs2 == 0 and fe2 == 0x4a and fm2 == 0x795921 and rm_val == 0  #nosat': 1 #  rs1_val==fnorm(0x78d35630) and rs2_val==fnorm(0x25795921) | Exponent = -54 --> Values in the range [-(p + 4) , (p + 4)]
    'fs1 == 0 and fe1 == 0xf1 and fm1 == 0x535630 and fs2 == 0 and fe2 == 0x47 and fm2 == 0x477a81 and rm_val == 0  #nosat': 1 #  rs1_val==fnorm(0x78d35630) and rs2_val==fnorm(0x23c77a81) | Exponent = -57 --> Values in the range [-(p + 4) , (p + 4)]
    'fs1 == 0 and fe1 == 0xf1 and fm1 == 0x535630 and fs2 == 0 and fe2 == 0x44 and fm2 == 0x1f9534 and rm_val == 0  #nosat': 1 #  rs1_val==fnorm(0x78d35630) and rs2_val==fnorm(0x221f9534) | Exponent = -60 --> Values in the range [-(p + 4) , (p + 4)]
    'fs1 == 0 and fe1 == 0xf1 and fm1 == 0x535630 and fs2 == 0 and fe2 == 0x40 and fm2 == 0x7f5520 and rm_val == 0  #nosat': 1 #  rs1_val==fnorm(0x78d35630) and rs2_val==fnorm(0x207f5520) | Exponent = -64 --> Values in the range [-(p + 4) , (p + 4)]
    'fs1 == 0 and fe1 == 0xf1 and fm1 == 0x535630 and fs2 == 0 and fe2 == 0x3d and fm2 == 0x4c4419 and rm_val == 0  #nosat': 1 #  rs1_val==fnorm(0x78d35630) and rs2_val==fnorm(0x1ecc4419) | Exponent = -67 --> Values in the range [-(p + 4) , (p + 4)]
    'fs1 == 0 and fe1 == 0xf1 and fm1 == 0x535630 and fs2 == 0 and fe2 == 0x3a and fm2 == 0x2369ae and rm_val == 0  #nosat': 1 #  rs1_val==fnorm(0x78d35630) and rs2_val==fnorm(0x1d2369ae) | Exponent = -70 --> Values in the range [-(p + 4) , (p + 4)]
    'fs1 == 0 and fe1 == 0xf1 and fm1 == 0x535630 and fs2 == 0 and fe2 == 0x37 and fm2 == 0x02baf1 and rm_val == 0  #nosat': 1 #  rs1_val==fnorm(0x78d35630) and rs2_val==fnorm(0x1b82baf1) | Exponent = -74 --> Values in the range [-(p + 4) , (p + 4)]
    'fs1 == 0 and fe1 == 0xf1 and fm1 == 0x535630 and fs2 == 0 and fe2 == 0x33 and fm2 == 0x512b1c and rm_val == 0  #nosat': 1 #  rs1_val==fnorm(0x78d35630) and rs2_val==fnorm(0x19d12b1c) | Exponent = -77 --> Values in the range [-(p + 4) , (p + 4)]
    'fs1 == 0 and fe1 == 0xf1 and fm1 == 0x535630 and fs2 == 0 and fe2 == 0x30 and fm2 == 0x2755b0 and rm_val == 0  #nosat': 1 #  rs1_val==fnorm(0x78d35630) and rs2_val==fnorm(0x182755b0) | Exponent = -80 --> Values in the range [-(p + 4) , (p + 4)]
    'fs1 == 0 and fe1 == 0xf1 and fm1 == 0x535630 and fs2 == 0 and fe2 == 0x2d and fm2 == 0x05de26 and rm_val == 0  #nosat': 1 #  rs1_val==fnorm(0x78d35630) and rs2_val==fnorm(0x1685de26) | Exponent = -84 --> Values in the range [-(p + 4) , (p + 4)]
    'fs1 == 0 and fe1 == 0xf1 and fm1 == 0x535630 and fs2 == 0 and fe2 == 0x29 and fm2 == 0x56303d and rm_val == 0  #nosat': 1 #  rs1_val==fnorm(0x78d35630) and rs2_val==fnorm(0x14d6303d) | Exponent = -87 --> Values in the range [-(p + 4) , (p + 4)]
    'fs1 == 0 and fe1 == 0xf1 and fm1 == 0x535630 and fs2 == 0 and fe2 == 0x26 and fm2 == 0x2b59cb and rm_val == 0  #nosat': 1 #  rs1_val==fnorm(0x78d35630) and rs2_val==fnorm(0x132b59cb) | Exponent = -90 --> Values in the range [-(p + 4) , (p + 4)]
    'fs1 == 0 and fe1 == 0xf1 and fm1 == 0x535630 and fs2 == 0 and fe2 == 0x23 and fm2 == 0x0914a2 and rm_val == 0  #nosat': 1 #  rs1_val==fnorm(0x78d35630) and rs2_val==fnorm(0x118914a2) | Exponent = -94 --> Values in the range [-(p + 4) , (p + 4)]
    'fs1 == 0 and fe1 == 0xf1 and fm1 == 0x535630 and fs2 == 0 and fe2 == 0x1f and fm2 == 0x5b5437 and rm_val == 0  #nosat': 1 #  rs1_val==fnorm(0x78d35630) and rs2_val==fnorm(0x0fdb5437) | Exponent = -97 --> Values in the range [-(p + 4) , (p + 4)]
    'fs1 == 0 and fe1 == 0xf1 and fm1 == 0x535630 and fs2 == 0 and fe2 == 0x1c and fm2 == 0x2f7692 and rm_val == 0  #nosat': 1 #  rs1_val==fnorm(0x78d35630) and rs2_val==fnorm(0x0e2f7692) | Exponent = -100 --> Values in the range [-(p + 4) , (p + 4)]
    'fs1 == 0 and fe1 == 0xf1 and fm1 == 0x535630 and fs2 == 0 and fe2 == 0x19 and fm2 == 0x0c5edb and rm_val == 0  #nosat': 1 #  rs1_val==fnorm(0x78d35630) and rs2_val==fnorm(0x0c8c5edb) | Exponent = -103 --> Values in the range [-(p + 4) , (p + 4)]
    'fs1 == 0 and fe1 == 0xf1 and fm1 == 0x535630 and fs2 == 0 and fe2 == 0x15 and fm2 == 0x6097c5 and rm_val == 0  #nosat': 1 #  rs1_val==fnorm(0x78d35630) and rs2_val==fnorm(0x0ae097c5) | Exponent = -107 --> Values in the range [-(p + 4) , (p + 4)]
    'fs1 == 0 and fe1 == 0xf1 and fm1 == 0x535630 and fs2 == 0 and fe2 == 0x12 and fm2 == 0x33ac9e and rm_val == 0  #nosat': 1 #  rs1_val==fnorm(0x78d35630) and rs2_val==fnorm(0x0933ac9e) | Exponent = -110 --> Values in the range [-(p + 4) , (p + 4)]
    'fs1 == 0 and fe1 == 0xf1 and fm1 == 0x535630 and fs2 == 0 and fe2 == 0x0f and fm2 == 0x0fbd4b and rm_val == 0  #nosat': 1 #  rs1_val==fnorm(0x78d35630) and rs2_val==fnorm(0x078fbd4b) | Exponent = -113 --> Values in the range [-(p + 4) , (p + 4)]
    coverage: 71/71
  total_coverage: 173/173
