---
fmadd_b5:
  config:
  - check ISA:=regex(.*I.*F.*Zfh.*)
  mnemonics:
    fmadd.h: 228
    coverage: 1/1
  op_comb:
    rd == rs2 == rs3 != rs1: 1
    rs1 != rs2 and rs1 != rd and rs1 != rs3 and rs2 != rs3 and rs2 != rd and rs3 != rd: 217
    rs1 == rd != rs2 and rs1 == rd != rs3 and rs3 != rs2: 1
    rs1 == rd == rs3 != rs2: 1
    rs1 == rs2 != rs3 and rs1 == rs2 != rd and rd != rs3: 1
    rs1 == rs2 == rd != rs3: 1
    rs1 == rs2 == rs3 != rd: 1
    rs1 == rs2 == rs3 == rd: 1
    rs1 == rs3 != rs2 and rs1 == rs3 != rd and rd != rs2: 1
    rs2 == rd != rs1 and rs2 == rd != rs3 and rs3 != rs1: 1
    rs2 == rs3 != rs1 and rs2 == rs3 != rd and rd != rs1: 1
    rs3 == rd != rs1 and rs3 == rd != rs2 and rs2 != rs1: 1
    coverage: 12/12
  rd:
    f0: 1
    f1: 1
    f10: 1
    f11: 1
    f12: 1
    f13: 1
    f14: 1
    f15: 1
    f16: 1
    f17: 1
    f18: 1
    f19: 1
    f2: 1
    f20: 1
    f21: 1
    f22: 1
    f23: 1
    f24: 1
    f25: 1
    f26: 1
    f27: 1
    f28: 1
    f29: 1
    f3: 1
    f30: 1
    f31: 197
    f4: 1
    f5: 1
    f6: 1
    f7: 1
    f8: 1
    f9: 1
    coverage: 32/32
  rs1:
    f0: 1
    f1: 1
    f10: 1
    f11: 1
    f12: 1
    f13: 1
    f14: 1
    f15: 1
    f16: 1
    f17: 1
    f18: 1
    f19: 1
    f2: 1
    f20: 1
    f21: 1
    f22: 1
    f23: 1
    f24: 1
    f25: 1
    f26: 1
    f27: 1
    f28: 1
    f29: 1
    f3: 1
    f30: 196
    f31: 2
    f4: 1
    f5: 1
    f6: 1
    f7: 1
    f8: 1
    f9: 1
    coverage: 32/32
  rs2:
    f0: 1
    f1: 1
    f10: 1
    f11: 1
    f12: 1
    f13: 1
    f14: 1
    f15: 1
    f16: 1
    f17: 1
    f18: 1
    f19: 1
    f2: 1
    f20: 1
    f21: 1
    f22: 1
    f23: 1
    f24: 1
    f25: 1
    f26: 1
    f27: 1
    f28: 1
    f29: 195
    f3: 1
    f30: 3
    f31: 1
    f4: 1
    f5: 1
    f6: 1
    f7: 1
    f8: 1
    f9: 1
    coverage: 32/32
  rs3:
    f0: 1
    f1: 1
    f10: 1
    f11: 1
    f12: 1
    f13: 1
    f14: 1
    f15: 1
    f16: 1
    f17: 1
    f18: 1
    f19: 1
    f2: 1
    f20: 1
    f21: 1
    f22: 1
    f23: 1
    f24: 1
    f25: 1
    f26: 1
    f27: 1
    f28: 194
    f29: 4
    f3: 1
    f30: 1
    f31: 1
    f4: 1
    f5: 1
    f6: 1
    f7: 1
    f8: 1
    f9: 1
    coverage: 32/32
  val_comb:
    ? 'fs1 == 0 and fe1 == 0x1e and fm1 == 0x0fb and fs2 == 1 and fe2 == 0x0f and
      fm2 == 0x0c3 and fs3 == 0 and fe3 == 0x1e and fm3 == 0x1ee and fcsr == 0x2 and
      rm_val == 7  and rs1_nan_prefix == 0xffff and rs2_nan_prefix == 0xffff and rs3_nan_prefix
      == 0xffff  #nosat'
    : 1
    ? 'fs1 == 0 and fe1 == 0x1e and fm1 == 0x0fb and fs2 == 1 and fe2 == 0x0f and
      fm2 == 0x0c3 and fs3 == 0 and fe3 == 0x1e and fm3 == 0x1ee and fcsr == 0x22
      and rm_val == 7  and rs1_nan_prefix == 0xffff and rs2_nan_prefix == 0xffff and
      rs3_nan_prefix == 0xffff  #nosat'
    : 1
    ? 'fs1 == 0 and fe1 == 0x1e and fm1 == 0x0fb and fs2 == 1 and fe2 == 0x0f and
      fm2 == 0x0c3 and fs3 == 0 and fe3 == 0x1e and fm3 == 0x1ee and fcsr == 0x42
      and rm_val == 7  and rs1_nan_prefix == 0xffff and rs2_nan_prefix == 0xffff and
      rs3_nan_prefix == 0xffff  #nosat'
    : 1
    ? 'fs1 == 0 and fe1 == 0x1e and fm1 == 0x0fb and fs2 == 1 and fe2 == 0x0f and
      fm2 == 0x0c3 and fs3 == 0 and fe3 == 0x1e and fm3 == 0x1ee and fcsr == 0x62
      and rm_val == 7  and rs1_nan_prefix == 0xffff and rs2_nan_prefix == 0xffff and
      rs3_nan_prefix == 0xffff  #nosat'
    : 1
    ? 'fs1 == 0 and fe1 == 0x1e and fm1 == 0x0fb and fs2 == 1 and fe2 == 0x0f and
      fm2 == 0x0c3 and fs3 == 0 and fe3 == 0x1e and fm3 == 0x1ee and fcsr == 0x82
      and rm_val == 7  and rs1_nan_prefix == 0xffff and rs2_nan_prefix == 0xffff and
      rs3_nan_prefix == 0xffff  #nosat'
    : 1
    ? 'fs1 == 0 and fe1 == 0x1e and fm1 == 0x25b and fs2 == 1 and fe2 == 0x0f and
      fm2 == 0x0bd and fs3 == 0 and fe3 == 0x1e and fm3 == 0x389 and fcsr == 0x2 and
      rm_val == 7  and rs1_nan_prefix == 0xffff and rs2_nan_prefix == 0xffff and rs3_nan_prefix
      == 0xffff  #nosat'
    : 1
    ? 'fs1 == 0 and fe1 == 0x1e and fm1 == 0x25b and fs2 == 1 and fe2 == 0x0f and
      fm2 == 0x0bd and fs3 == 0 and fe3 == 0x1e and fm3 == 0x389 and fcsr == 0x22
      and rm_val == 7  and rs1_nan_prefix == 0xffff and rs2_nan_prefix == 0xffff and
      rs3_nan_prefix == 0xffff  #nosat'
    : 1
    ? 'fs1 == 0 and fe1 == 0x1e and fm1 == 0x25b and fs2 == 1 and fe2 == 0x0f and
      fm2 == 0x0bd and fs3 == 0 and fe3 == 0x1e and fm3 == 0x389 and fcsr == 0x42
      and rm_val == 7  and rs1_nan_prefix == 0xffff and rs2_nan_prefix == 0xffff and
      rs3_nan_prefix == 0xffff  #nosat'
    : 1
    ? 'fs1 == 0 and fe1 == 0x1e and fm1 == 0x25b and fs2 == 1 and fe2 == 0x0f and
      fm2 == 0x0bd and fs3 == 0 and fe3 == 0x1e and fm3 == 0x389 and fcsr == 0x62
      and rm_val == 7  and rs1_nan_prefix == 0xffff and rs2_nan_prefix == 0xffff and
      rs3_nan_prefix == 0xffff  #nosat'
    : 1
    ? 'fs1 == 0 and fe1 == 0x1e and fm1 == 0x25b and fs2 == 1 and fe2 == 0x0f and
      fm2 == 0x0bd and fs3 == 0 and fe3 == 0x1e and fm3 == 0x389 and fcsr == 0x82
      and rm_val == 7  and rs1_nan_prefix == 0xffff and rs2_nan_prefix == 0xffff and
      rs3_nan_prefix == 0xffff  #nosat'
    : 1
    ? 'fs1 == 0 and fe1 == 0x1e and fm1 == 0x1ea and fs2 == 1 and fe2 == 0x0f and
      fm2 == 0x0fc and fs3 == 0 and fe3 == 0x1e and fm3 == 0x360 and fcsr == 0x2 and
      rm_val == 7  and rs1_nan_prefix == 0xffff and rs2_nan_prefix == 0xffff and rs3_nan_prefix
      == 0xffff  #nosat'
    : 1
    ? 'fs1 == 0 and fe1 == 0x1e and fm1 == 0x1ea and fs2 == 1 and fe2 == 0x0f and
      fm2 == 0x0fc and fs3 == 0 and fe3 == 0x1e and fm3 == 0x360 and fcsr == 0x22
      and rm_val == 7  and rs1_nan_prefix == 0xffff and rs2_nan_prefix == 0xffff and
      rs3_nan_prefix == 0xffff  #nosat'
    : 1
    ? 'fs1 == 0 and fe1 == 0x1e and fm1 == 0x1ea and fs2 == 1 and fe2 == 0x0f and
      fm2 == 0x0fc and fs3 == 0 and fe3 == 0x1e and fm3 == 0x360 and fcsr == 0x42
      and rm_val == 7  and rs1_nan_prefix == 0xffff and rs2_nan_prefix == 0xffff and
      rs3_nan_prefix == 0xffff  #nosat'
    : 1
    ? 'fs1 == 0 and fe1 == 0x1e and fm1 == 0x1ea and fs2 == 1 and fe2 == 0x0f and
      fm2 == 0x0fc and fs3 == 0 and fe3 == 0x1e and fm3 == 0x360 and fcsr == 0x62
      and rm_val == 7  and rs1_nan_prefix == 0xffff and rs2_nan_prefix == 0xffff and
      rs3_nan_prefix == 0xffff  #nosat'
    : 1
    ? 'fs1 == 0 and fe1 == 0x1e and fm1 == 0x1ea and fs2 == 1 and fe2 == 0x0f and
      fm2 == 0x0fc and fs3 == 0 and fe3 == 0x1e and fm3 == 0x360 and fcsr == 0x82
      and rm_val == 7  and rs1_nan_prefix == 0xffff and rs2_nan_prefix == 0xffff and
      rs3_nan_prefix == 0xffff  #nosat'
    : 1
    ? 'fs1 == 0 and fe1 == 0x19 and fm1 == 0x36c and fs2 == 1 and fe2 == 0x13 and
      fm2 == 0x002 and fs3 == 0 and fe3 == 0x1d and fm3 == 0x372 and fcsr == 0x2 and
      rm_val == 7  and rs1_nan_prefix == 0xffff and rs2_nan_prefix == 0xffff and rs3_nan_prefix
      == 0xffff  #nosat'
    : 1
    ? 'fs1 == 0 and fe1 == 0x19 and fm1 == 0x36c and fs2 == 1 and fe2 == 0x13 and
      fm2 == 0x002 and fs3 == 0 and fe3 == 0x1d and fm3 == 0x372 and fcsr == 0x22
      and rm_val == 7  and rs1_nan_prefix == 0xffff and rs2_nan_prefix == 0xffff and
      rs3_nan_prefix == 0xffff  #nosat'
    : 1
    ? 'fs1 == 0 and fe1 == 0x19 and fm1 == 0x36c and fs2 == 1 and fe2 == 0x13 and
      fm2 == 0x002 and fs3 == 0 and fe3 == 0x1d and fm3 == 0x372 and fcsr == 0x42
      and rm_val == 7  and rs1_nan_prefix == 0xffff and rs2_nan_prefix == 0xffff and
      rs3_nan_prefix == 0xffff  #nosat'
    : 1
    ? 'fs1 == 0 and fe1 == 0x19 and fm1 == 0x36c and fs2 == 1 and fe2 == 0x13 and
      fm2 == 0x002 and fs3 == 0 and fe3 == 0x1d and fm3 == 0x372 and fcsr == 0x62
      and rm_val == 7  and rs1_nan_prefix == 0xffff and rs2_nan_prefix == 0xffff and
      rs3_nan_prefix == 0xffff  #nosat'
    : 1
    ? 'fs1 == 0 and fe1 == 0x19 and fm1 == 0x36c and fs2 == 1 and fe2 == 0x13 and
      fm2 == 0x002 and fs3 == 0 and fe3 == 0x1d and fm3 == 0x372 and fcsr == 0x82
      and rm_val == 7  and rs1_nan_prefix == 0xffff and rs2_nan_prefix == 0xffff and
      rs3_nan_prefix == 0xffff  #nosat'
    : 1
    ? 'fs1 == 0 and fe1 == 0x1e and fm1 == 0x38b and fs2 == 1 and fe2 == 0x0e and
      fm2 == 0x180 and fs3 == 0 and fe3 == 0x1e and fm3 == 0x130 and fcsr == 0x2 and
      rm_val == 7  and rs1_nan_prefix == 0xffff and rs2_nan_prefix == 0xffff and rs3_nan_prefix
      == 0xffff  #nosat'
    : 1
    ? 'fs1 == 0 and fe1 == 0x1e and fm1 == 0x38b and fs2 == 1 and fe2 == 0x0e and
      fm2 == 0x180 and fs3 == 0 and fe3 == 0x1e and fm3 == 0x130 and fcsr == 0x22
      and rm_val == 7  and rs1_nan_prefix == 0xffff and rs2_nan_prefix == 0xffff and
      rs3_nan_prefix == 0xffff  #nosat'
    : 1
    ? 'fs1 == 0 and fe1 == 0x1e and fm1 == 0x38b and fs2 == 1 and fe2 == 0x0e and
      fm2 == 0x180 and fs3 == 0 and fe3 == 0x1e and fm3 == 0x130 and fcsr == 0x42
      and rm_val == 7  and rs1_nan_prefix == 0xffff and rs2_nan_prefix == 0xffff and
      rs3_nan_prefix == 0xffff  #nosat'
    : 1
    ? 'fs1 == 0 and fe1 == 0x1e and fm1 == 0x38b and fs2 == 1 and fe2 == 0x0e and
      fm2 == 0x180 and fs3 == 0 and fe3 == 0x1e and fm3 == 0x130 and fcsr == 0x62
      and rm_val == 7  and rs1_nan_prefix == 0xffff and rs2_nan_prefix == 0xffff and
      rs3_nan_prefix == 0xffff  #nosat'
    : 1
    ? 'fs1 == 0 and fe1 == 0x1e and fm1 == 0x38b and fs2 == 1 and fe2 == 0x0e and
      fm2 == 0x180 and fs3 == 0 and fe3 == 0x1e and fm3 == 0x130 and fcsr == 0x82
      and rm_val == 7  and rs1_nan_prefix == 0xffff and rs2_nan_prefix == 0xffff and
      rs3_nan_prefix == 0xffff  #nosat'
    : 1
    ? 'fs1 == 0 and fe1 == 0x1e and fm1 == 0x334 and fs2 == 1 and fe2 == 0x0c and
      fm2 == 0x005 and fs3 == 0 and fe3 == 0x1b and fm3 == 0x33e and fcsr == 0x2 and
      rm_val == 7  and rs1_nan_prefix == 0xffff and rs2_nan_prefix == 0xffff and rs3_nan_prefix
      == 0xffff  #nosat'
    : 1
    ? 'fs1 == 0 and fe1 == 0x1e and fm1 == 0x334 and fs2 == 1 and fe2 == 0x0c and
      fm2 == 0x005 and fs3 == 0 and fe3 == 0x1b and fm3 == 0x33e and fcsr == 0x22
      and rm_val == 7  and rs1_nan_prefix == 0xffff and rs2_nan_prefix == 0xffff and
      rs3_nan_prefix == 0xffff  #nosat'
    : 1
    ? 'fs1 == 0 and fe1 == 0x1e and fm1 == 0x334 and fs2 == 1 and fe2 == 0x0c and
      fm2 == 0x005 and fs3 == 0 and fe3 == 0x1b and fm3 == 0x33e and fcsr == 0x42
      and rm_val == 7  and rs1_nan_prefix == 0xffff and rs2_nan_prefix == 0xffff and
      rs3_nan_prefix == 0xffff  #nosat'
    : 1
    ? 'fs1 == 0 and fe1 == 0x1e and fm1 == 0x334 and fs2 == 1 and fe2 == 0x0c and
      fm2 == 0x005 and fs3 == 0 and fe3 == 0x1b and fm3 == 0x33e and fcsr == 0x62
      and rm_val == 7  and rs1_nan_prefix == 0xffff and rs2_nan_prefix == 0xffff and
      rs3_nan_prefix == 0xffff  #nosat'
    : 1
    ? 'fs1 == 0 and fe1 == 0x1e and fm1 == 0x334 and fs2 == 1 and fe2 == 0x0c and
      fm2 == 0x005 and fs3 == 0 and fe3 == 0x1b and fm3 == 0x33e and fcsr == 0x82
      and rm_val == 7  and rs1_nan_prefix == 0xffff and rs2_nan_prefix == 0xffff and
      rs3_nan_prefix == 0xffff  #nosat'
    : 1
    ? 'fs1 == 0 and fe1 == 0x1d and fm1 == 0x380 and fs2 == 1 and fe2 == 0x0e and
      fm2 == 0x034 and fs3 == 0 and fe3 == 0x1c and fm3 == 0x3e3 and fcsr == 0x2 and
      rm_val == 7  and rs1_nan_prefix == 0xffff and rs2_nan_prefix == 0xffff and rs3_nan_prefix
      == 0xffff  #nosat'
    : 1
    ? 'fs1 == 0 and fe1 == 0x1d and fm1 == 0x380 and fs2 == 1 and fe2 == 0x0e and
      fm2 == 0x034 and fs3 == 0 and fe3 == 0x1c and fm3 == 0x3e3 and fcsr == 0x22
      and rm_val == 7  and rs1_nan_prefix == 0xffff and rs2_nan_prefix == 0xffff and
      rs3_nan_prefix == 0xffff  #nosat'
    : 1
    ? 'fs1 == 0 and fe1 == 0x1d and fm1 == 0x380 and fs2 == 1 and fe2 == 0x0e and
      fm2 == 0x034 and fs3 == 0 and fe3 == 0x1c and fm3 == 0x3e3 and fcsr == 0x42
      and rm_val == 7  and rs1_nan_prefix == 0xffff and rs2_nan_prefix == 0xffff and
      rs3_nan_prefix == 0xffff  #nosat'
    : 1
    ? 'fs1 == 0 and fe1 == 0x1d and fm1 == 0x380 and fs2 == 1 and fe2 == 0x0e and
      fm2 == 0x034 and fs3 == 0 and fe3 == 0x1c and fm3 == 0x3e3 and fcsr == 0x62
      and rm_val == 7  and rs1_nan_prefix == 0xffff and rs2_nan_prefix == 0xffff and
      rs3_nan_prefix == 0xffff  #nosat'
    : 1
    ? 'fs1 == 0 and fe1 == 0x1d and fm1 == 0x380 and fs2 == 1 and fe2 == 0x0e and
      fm2 == 0x034 and fs3 == 0 and fe3 == 0x1c and fm3 == 0x3e3 and fcsr == 0x82
      and rm_val == 7  and rs1_nan_prefix == 0xffff and rs2_nan_prefix == 0xffff and
      rs3_nan_prefix == 0xffff  #nosat'
    : 1
    ? 'fs1 == 0 and fe1 == 0x1e and fm1 == 0x059 and fs2 == 1 and fe2 == 0x0f and
      fm2 == 0x038 and fs3 == 0 and fe3 == 0x1e and fm3 == 0x096 and fcsr == 0x2 and
      rm_val == 7  and rs1_nan_prefix == 0xffff and rs2_nan_prefix == 0xffff and rs3_nan_prefix
      == 0xffff  #nosat'
    : 1
    ? 'fs1 == 0 and fe1 == 0x1e and fm1 == 0x059 and fs2 == 1 and fe2 == 0x0f and
      fm2 == 0x038 and fs3 == 0 and fe3 == 0x1e and fm3 == 0x096 and fcsr == 0x22
      and rm_val == 7  and rs1_nan_prefix == 0xffff and rs2_nan_prefix == 0xffff and
      rs3_nan_prefix == 0xffff  #nosat'
    : 1
    ? 'fs1 == 0 and fe1 == 0x1e and fm1 == 0x059 and fs2 == 1 and fe2 == 0x0f and
      fm2 == 0x038 and fs3 == 0 and fe3 == 0x1e and fm3 == 0x096 and fcsr == 0x42
      and rm_val == 7  and rs1_nan_prefix == 0xffff and rs2_nan_prefix == 0xffff and
      rs3_nan_prefix == 0xffff  #nosat'
    : 1
    ? 'fs1 == 0 and fe1 == 0x1e and fm1 == 0x059 and fs2 == 1 and fe2 == 0x0f and
      fm2 == 0x038 and fs3 == 0 and fe3 == 0x1e and fm3 == 0x096 and fcsr == 0x62
      and rm_val == 7  and rs1_nan_prefix == 0xffff and rs2_nan_prefix == 0xffff and
      rs3_nan_prefix == 0xffff  #nosat'
    : 1
    ? 'fs1 == 0 and fe1 == 0x1e and fm1 == 0x059 and fs2 == 1 and fe2 == 0x0f and
      fm2 == 0x038 and fs3 == 0 and fe3 == 0x1e and fm3 == 0x096 and fcsr == 0x82
      and rm_val == 7  and rs1_nan_prefix == 0xffff and rs2_nan_prefix == 0xffff and
      rs3_nan_prefix == 0xffff  #nosat'
    : 1
    ? 'fs1 == 0 and fe1 == 0x18 and fm1 == 0x2b8 and fs2 == 1 and fe2 == 0x13 and
      fm2 == 0x020 and fs3 == 0 and fe3 == 0x1c and fm3 == 0x2ee and fcsr == 0x2 and
      rm_val == 7  and rs1_nan_prefix == 0xffff and rs2_nan_prefix == 0xffff and rs3_nan_prefix
      == 0xffff  #nosat'
    : 1
    ? 'fs1 == 0 and fe1 == 0x18 and fm1 == 0x2b8 and fs2 == 1 and fe2 == 0x13 and
      fm2 == 0x020 and fs3 == 0 and fe3 == 0x1c and fm3 == 0x2ee and fcsr == 0x22
      and rm_val == 7  and rs1_nan_prefix == 0xffff and rs2_nan_prefix == 0xffff and
      rs3_nan_prefix == 0xffff  #nosat'
    : 1
    ? 'fs1 == 0 and fe1 == 0x18 and fm1 == 0x2b8 and fs2 == 1 and fe2 == 0x13 and
      fm2 == 0x020 and fs3 == 0 and fe3 == 0x1c and fm3 == 0x2ee and fcsr == 0x42
      and rm_val == 7  and rs1_nan_prefix == 0xffff and rs2_nan_prefix == 0xffff and
      rs3_nan_prefix == 0xffff  #nosat'
    : 1
    ? 'fs1 == 0 and fe1 == 0x18 and fm1 == 0x2b8 and fs2 == 1 and fe2 == 0x13 and
      fm2 == 0x020 and fs3 == 0 and fe3 == 0x1c and fm3 == 0x2ee and fcsr == 0x62
      and rm_val == 7  and rs1_nan_prefix == 0xffff and rs2_nan_prefix == 0xffff and
      rs3_nan_prefix == 0xffff  #nosat'
    : 1
    ? 'fs1 == 0 and fe1 == 0x18 and fm1 == 0x2b8 and fs2 == 1 and fe2 == 0x13 and
      fm2 == 0x020 and fs3 == 0 and fe3 == 0x1c and fm3 == 0x2ee and fcsr == 0x82
      and rm_val == 7  and rs1_nan_prefix == 0xffff and rs2_nan_prefix == 0xffff and
      rs3_nan_prefix == 0xffff  #nosat'
    : 1
    ? 'fs1 == 0 and fe1 == 0x1d and fm1 == 0x078 and fs2 == 1 and fe2 == 0x10 and
      fm2 == 0x28e and fs3 == 0 and fe3 == 0x1e and fm3 == 0x353 and fcsr == 0x2 and
      rm_val == 7  and rs1_nan_prefix == 0xffff and rs2_nan_prefix == 0xffff and rs3_nan_prefix
      == 0xffff  #nosat'
    : 1
    ? 'fs1 == 0 and fe1 == 0x1d and fm1 == 0x078 and fs2 == 1 and fe2 == 0x10 and
      fm2 == 0x28e and fs3 == 0 and fe3 == 0x1e and fm3 == 0x353 and fcsr == 0x22
      and rm_val == 7  and rs1_nan_prefix == 0xffff and rs2_nan_prefix == 0xffff and
      rs3_nan_prefix == 0xffff  #nosat'
    : 1
    ? 'fs1 == 0 and fe1 == 0x1d and fm1 == 0x078 and fs2 == 1 and fe2 == 0x10 and
      fm2 == 0x28e and fs3 == 0 and fe3 == 0x1e and fm3 == 0x353 and fcsr == 0x42
      and rm_val == 7  and rs1_nan_prefix == 0xffff and rs2_nan_prefix == 0xffff and
      rs3_nan_prefix == 0xffff  #nosat'
    : 1
    ? 'fs1 == 0 and fe1 == 0x1d and fm1 == 0x078 and fs2 == 1 and fe2 == 0x10 and
      fm2 == 0x28e and fs3 == 0 and fe3 == 0x1e and fm3 == 0x353 and fcsr == 0x62
      and rm_val == 7  and rs1_nan_prefix == 0xffff and rs2_nan_prefix == 0xffff and
      rs3_nan_prefix == 0xffff  #nosat'
    : 1
    ? 'fs1 == 0 and fe1 == 0x1d and fm1 == 0x078 and fs2 == 1 and fe2 == 0x10 and
      fm2 == 0x28e and fs3 == 0 and fe3 == 0x1e and fm3 == 0x353 and fcsr == 0x82
      and rm_val == 7  and rs1_nan_prefix == 0xffff and rs2_nan_prefix == 0xffff and
      rs3_nan_prefix == 0xffff  #nosat'
    : 1
    ? 'fs1 == 0 and fe1 == 0x1e and fm1 == 0x21f and fs2 == 1 and fe2 == 0x0c and
      fm2 == 0x2ab and fs3 == 0 and fe3 == 0x1c and fm3 == 0x11a and fcsr == 0x2 and
      rm_val == 7  and rs1_nan_prefix == 0xffff and rs2_nan_prefix == 0xffff and rs3_nan_prefix
      == 0xffff  #nosat'
    : 1
    ? 'fs1 == 0 and fe1 == 0x1e and fm1 == 0x21f and fs2 == 1 and fe2 == 0x0c and
      fm2 == 0x2ab and fs3 == 0 and fe3 == 0x1c and fm3 == 0x11a and fcsr == 0x22
      and rm_val == 7  and rs1_nan_prefix == 0xffff and rs2_nan_prefix == 0xffff and
      rs3_nan_prefix == 0xffff  #nosat'
    : 1
    ? 'fs1 == 0 and fe1 == 0x1e and fm1 == 0x21f and fs2 == 1 and fe2 == 0x0c and
      fm2 == 0x2ab and fs3 == 0 and fe3 == 0x1c and fm3 == 0x11a and fcsr == 0x42
      and rm_val == 7  and rs1_nan_prefix == 0xffff and rs2_nan_prefix == 0xffff and
      rs3_nan_prefix == 0xffff  #nosat'
    : 1
    ? 'fs1 == 0 and fe1 == 0x1e and fm1 == 0x21f and fs2 == 1 and fe2 == 0x0c and
      fm2 == 0x2ab and fs3 == 0 and fe3 == 0x1c and fm3 == 0x11a and fcsr == 0x62
      and rm_val == 7  and rs1_nan_prefix == 0xffff and rs2_nan_prefix == 0xffff and
      rs3_nan_prefix == 0xffff  #nosat'
    : 1
    ? 'fs1 == 0 and fe1 == 0x1e and fm1 == 0x21f and fs2 == 1 and fe2 == 0x0c and
      fm2 == 0x2ab and fs3 == 0 and fe3 == 0x1c and fm3 == 0x11a and fcsr == 0x82
      and rm_val == 7  and rs1_nan_prefix == 0xffff and rs2_nan_prefix == 0xffff and
      rs3_nan_prefix == 0xffff  #nosat'
    : 1
    ? 'fs1 == 0 and fe1 == 0x1e and fm1 == 0x25f and fs2 == 1 and fe2 == 0x0c and
      fm2 == 0x192 and fs3 == 0 and fe3 == 0x1c and fm3 == 0x070 and fcsr == 0x2 and
      rm_val == 7  and rs1_nan_prefix == 0xffff and rs2_nan_prefix == 0xffff and rs3_nan_prefix
      == 0xffff  #nosat'
    : 1
    ? 'fs1 == 0 and fe1 == 0x1e and fm1 == 0x25f and fs2 == 1 and fe2 == 0x0c and
      fm2 == 0x192 and fs3 == 0 and fe3 == 0x1c and fm3 == 0x070 and fcsr == 0x22
      and rm_val == 7  and rs1_nan_prefix == 0xffff and rs2_nan_prefix == 0xffff and
      rs3_nan_prefix == 0xffff  #nosat'
    : 1
    ? 'fs1 == 0 and fe1 == 0x1e and fm1 == 0x25f and fs2 == 1 and fe2 == 0x0c and
      fm2 == 0x192 and fs3 == 0 and fe3 == 0x1c and fm3 == 0x070 and fcsr == 0x42
      and rm_val == 7  and rs1_nan_prefix == 0xffff and rs2_nan_prefix == 0xffff and
      rs3_nan_prefix == 0xffff  #nosat'
    : 1
    ? 'fs1 == 0 and fe1 == 0x1e and fm1 == 0x25f and fs2 == 1 and fe2 == 0x0c and
      fm2 == 0x192 and fs3 == 0 and fe3 == 0x1c and fm3 == 0x070 and fcsr == 0x62
      and rm_val == 7  and rs1_nan_prefix == 0xffff and rs2_nan_prefix == 0xffff and
      rs3_nan_prefix == 0xffff  #nosat'
    : 1
    ? 'fs1 == 0 and fe1 == 0x1e and fm1 == 0x25f and fs2 == 1 and fe2 == 0x0c and
      fm2 == 0x192 and fs3 == 0 and fe3 == 0x1c and fm3 == 0x070 and fcsr == 0x82
      and rm_val == 7  and rs1_nan_prefix == 0xffff and rs2_nan_prefix == 0xffff and
      rs3_nan_prefix == 0xffff  #nosat'
    : 1
    ? 'fs1 == 0 and fe1 == 0x1e and fm1 == 0x0ef and fs2 == 1 and fe2 == 0x0c and
      fm2 == 0x291 and fs3 == 0 and fe3 == 0x1c and fm3 == 0x00d and fcsr == 0x2 and
      rm_val == 7  and rs1_nan_prefix == 0xffff and rs2_nan_prefix == 0xffff and rs3_nan_prefix
      == 0xffff  #nosat'
    : 1
    ? 'fs1 == 0 and fe1 == 0x1e and fm1 == 0x0ef and fs2 == 1 and fe2 == 0x0c and
      fm2 == 0x291 and fs3 == 0 and fe3 == 0x1c and fm3 == 0x00d and fcsr == 0x22
      and rm_val == 7  and rs1_nan_prefix == 0xffff and rs2_nan_prefix == 0xffff and
      rs3_nan_prefix == 0xffff  #nosat'
    : 1
    ? 'fs1 == 0 and fe1 == 0x1e and fm1 == 0x0ef and fs2 == 1 and fe2 == 0x0c and
      fm2 == 0x291 and fs3 == 0 and fe3 == 0x1c and fm3 == 0x00d and fcsr == 0x42
      and rm_val == 7  and rs1_nan_prefix == 0xffff and rs2_nan_prefix == 0xffff and
      rs3_nan_prefix == 0xffff  #nosat'
    : 1
    ? 'fs1 == 0 and fe1 == 0x1e and fm1 == 0x0ef and fs2 == 1 and fe2 == 0x0c and
      fm2 == 0x291 and fs3 == 0 and fe3 == 0x1c and fm3 == 0x00d and fcsr == 0x62
      and rm_val == 7  and rs1_nan_prefix == 0xffff and rs2_nan_prefix == 0xffff and
      rs3_nan_prefix == 0xffff  #nosat'
    : 1
    ? 'fs1 == 0 and fe1 == 0x1e and fm1 == 0x0ef and fs2 == 1 and fe2 == 0x0c and
      fm2 == 0x291 and fs3 == 0 and fe3 == 0x1c and fm3 == 0x00d and fcsr == 0x82
      and rm_val == 7  and rs1_nan_prefix == 0xffff and rs2_nan_prefix == 0xffff and
      rs3_nan_prefix == 0xffff  #nosat'
    : 1
    ? 'fs1 == 0 and fe1 == 0x15 and fm1 == 0x354 and fs2 == 1 and fe2 == 0x17 and
      fm2 == 0x39b and fs3 == 0 and fe3 == 0x1e and fm3 == 0x2f7 and fcsr == 0x2 and
      rm_val == 7  and rs1_nan_prefix == 0xffff and rs2_nan_prefix == 0xffff and rs3_nan_prefix
      == 0xffff  #nosat'
    : 1
    ? 'fs1 == 0 and fe1 == 0x15 and fm1 == 0x354 and fs2 == 1 and fe2 == 0x17 and
      fm2 == 0x39b and fs3 == 0 and fe3 == 0x1e and fm3 == 0x2f7 and fcsr == 0x22
      and rm_val == 7  and rs1_nan_prefix == 0xffff and rs2_nan_prefix == 0xffff and
      rs3_nan_prefix == 0xffff  #nosat'
    : 1
    ? 'fs1 == 0 and fe1 == 0x15 and fm1 == 0x354 and fs2 == 1 and fe2 == 0x17 and
      fm2 == 0x39b and fs3 == 0 and fe3 == 0x1e and fm3 == 0x2f7 and fcsr == 0x42
      and rm_val == 7  and rs1_nan_prefix == 0xffff and rs2_nan_prefix == 0xffff and
      rs3_nan_prefix == 0xffff  #nosat'
    : 1
    ? 'fs1 == 0 and fe1 == 0x15 and fm1 == 0x354 and fs2 == 1 and fe2 == 0x17 and
      fm2 == 0x39b and fs3 == 0 and fe3 == 0x1e and fm3 == 0x2f7 and fcsr == 0x62
      and rm_val == 7  and rs1_nan_prefix == 0xffff and rs2_nan_prefix == 0xffff and
      rs3_nan_prefix == 0xffff  #nosat'
    : 1
    ? 'fs1 == 0 and fe1 == 0x15 and fm1 == 0x354 and fs2 == 1 and fe2 == 0x17 and
      fm2 == 0x39b and fs3 == 0 and fe3 == 0x1e and fm3 == 0x2f7 and fcsr == 0x82
      and rm_val == 7  and rs1_nan_prefix == 0xffff and rs2_nan_prefix == 0xffff and
      rs3_nan_prefix == 0xffff  #nosat'
    : 1
    ? 'fs1 == 0 and fe1 == 0x1c and fm1 == 0x2b3 and fs2 == 1 and fe2 == 0x0f and
      fm2 == 0x01d and fs3 == 0 and fe3 == 0x1c and fm3 == 0x2e4 and fcsr == 0x2 and
      rm_val == 7  and rs1_nan_prefix == 0xffff and rs2_nan_prefix == 0xffff and rs3_nan_prefix
      == 0xffff  #nosat'
    : 1
    ? 'fs1 == 0 and fe1 == 0x1c and fm1 == 0x2b3 and fs2 == 1 and fe2 == 0x0f and
      fm2 == 0x01d and fs3 == 0 and fe3 == 0x1c and fm3 == 0x2e4 and fcsr == 0x22
      and rm_val == 7  and rs1_nan_prefix == 0xffff and rs2_nan_prefix == 0xffff and
      rs3_nan_prefix == 0xffff  #nosat'
    : 1
    ? 'fs1 == 0 and fe1 == 0x1c and fm1 == 0x2b3 and fs2 == 1 and fe2 == 0x0f and
      fm2 == 0x01d and fs3 == 0 and fe3 == 0x1c and fm3 == 0x2e4 and fcsr == 0x42
      and rm_val == 7  and rs1_nan_prefix == 0xffff and rs2_nan_prefix == 0xffff and
      rs3_nan_prefix == 0xffff  #nosat'
    : 1
    ? 'fs1 == 0 and fe1 == 0x1c and fm1 == 0x2b3 and fs2 == 1 and fe2 == 0x0f and
      fm2 == 0x01d and fs3 == 0 and fe3 == 0x1c and fm3 == 0x2e4 and fcsr == 0x62
      and rm_val == 7  and rs1_nan_prefix == 0xffff and rs2_nan_prefix == 0xffff and
      rs3_nan_prefix == 0xffff  #nosat'
    : 1
    ? 'fs1 == 0 and fe1 == 0x1c and fm1 == 0x2b3 and fs2 == 1 and fe2 == 0x0f and
      fm2 == 0x01d and fs3 == 0 and fe3 == 0x1c and fm3 == 0x2e4 and fcsr == 0x82
      and rm_val == 7  and rs1_nan_prefix == 0xffff and rs2_nan_prefix == 0xffff and
      rs3_nan_prefix == 0xffff  #nosat'
    : 1
    ? 'fs1 == 0 and fe1 == 0x1e and fm1 == 0x3db and fs2 == 1 and fe2 == 0x0e and
      fm2 == 0x31a and fs3 == 0 and fe3 == 0x1e and fm3 == 0x2f9 and fcsr == 0x2 and
      rm_val == 7  and rs1_nan_prefix == 0xffff and rs2_nan_prefix == 0xffff and rs3_nan_prefix
      == 0xffff  #nosat'
    : 1
    ? 'fs1 == 0 and fe1 == 0x1e and fm1 == 0x3db and fs2 == 1 and fe2 == 0x0e and
      fm2 == 0x31a and fs3 == 0 and fe3 == 0x1e and fm3 == 0x2f9 and fcsr == 0x22
      and rm_val == 7  and rs1_nan_prefix == 0xffff and rs2_nan_prefix == 0xffff and
      rs3_nan_prefix == 0xffff  #nosat'
    : 1
    ? 'fs1 == 0 and fe1 == 0x1e and fm1 == 0x3db and fs2 == 1 and fe2 == 0x0e and
      fm2 == 0x31a and fs3 == 0 and fe3 == 0x1e and fm3 == 0x2f9 and fcsr == 0x42
      and rm_val == 7  and rs1_nan_prefix == 0xffff and rs2_nan_prefix == 0xffff and
      rs3_nan_prefix == 0xffff  #nosat'
    : 1
    ? 'fs1 == 0 and fe1 == 0x1e and fm1 == 0x3db and fs2 == 1 and fe2 == 0x0e and
      fm2 == 0x31a and fs3 == 0 and fe3 == 0x1e and fm3 == 0x2f9 and fcsr == 0x62
      and rm_val == 7  and rs1_nan_prefix == 0xffff and rs2_nan_prefix == 0xffff and
      rs3_nan_prefix == 0xffff  #nosat'
    : 1
    ? 'fs1 == 0 and fe1 == 0x1e and fm1 == 0x3db and fs2 == 1 and fe2 == 0x0e and
      fm2 == 0x31a and fs3 == 0 and fe3 == 0x1e and fm3 == 0x2f9 and fcsr == 0x82
      and rm_val == 7  and rs1_nan_prefix == 0xffff and rs2_nan_prefix == 0xffff and
      rs3_nan_prefix == 0xffff  #nosat'
    : 1
    ? 'fs1 == 0 and fe1 == 0x1d and fm1 == 0x0a0 and fs2 == 1 and fe2 == 0x10 and
      fm2 == 0x2a5 and fs3 == 0 and fe3 == 0x1e and fm3 == 0x3b0 and fcsr == 0x2 and
      rm_val == 7  and rs1_nan_prefix == 0xffff and rs2_nan_prefix == 0xffff and rs3_nan_prefix
      == 0xffff  #nosat'
    : 1
    ? 'fs1 == 0 and fe1 == 0x1d and fm1 == 0x0a0 and fs2 == 1 and fe2 == 0x10 and
      fm2 == 0x2a5 and fs3 == 0 and fe3 == 0x1e and fm3 == 0x3b0 and fcsr == 0x22
      and rm_val == 7  and rs1_nan_prefix == 0xffff and rs2_nan_prefix == 0xffff and
      rs3_nan_prefix == 0xffff  #nosat'
    : 1
    ? 'fs1 == 0 and fe1 == 0x1d and fm1 == 0x0a0 and fs2 == 1 and fe2 == 0x10 and
      fm2 == 0x2a5 and fs3 == 0 and fe3 == 0x1e and fm3 == 0x3b0 and fcsr == 0x42
      and rm_val == 7  and rs1_nan_prefix == 0xffff and rs2_nan_prefix == 0xffff and
      rs3_nan_prefix == 0xffff  #nosat'
    : 1
    ? 'fs1 == 0 and fe1 == 0x1d and fm1 == 0x0a0 and fs2 == 1 and fe2 == 0x10 and
      fm2 == 0x2a5 and fs3 == 0 and fe3 == 0x1e and fm3 == 0x3b0 and fcsr == 0x62
      and rm_val == 7  and rs1_nan_prefix == 0xffff and rs2_nan_prefix == 0xffff and
      rs3_nan_prefix == 0xffff  #nosat'
    : 1
    ? 'fs1 == 0 and fe1 == 0x1d and fm1 == 0x0a0 and fs2 == 1 and fe2 == 0x10 and
      fm2 == 0x2a5 and fs3 == 0 and fe3 == 0x1e and fm3 == 0x3b0 and fcsr == 0x82
      and rm_val == 7  and rs1_nan_prefix == 0xffff and rs2_nan_prefix == 0xffff and
      rs3_nan_prefix == 0xffff  #nosat'
    : 1
    ? 'fs1 == 0 and fe1 == 0x1e and fm1 == 0x04f and fs2 == 1 and fe2 == 0x0f and
      fm2 == 0x107 and fs3 == 0 and fe3 == 0x1e and fm3 == 0x16b and fcsr == 0x2 and
      rm_val == 7  and rs1_nan_prefix == 0xffff and rs2_nan_prefix == 0xffff and rs3_nan_prefix
      == 0xffff  #nosat'
    : 1
    ? 'fs1 == 0 and fe1 == 0x1e and fm1 == 0x04f and fs2 == 1 and fe2 == 0x0f and
      fm2 == 0x107 and fs3 == 0 and fe3 == 0x1e and fm3 == 0x16b and fcsr == 0x22
      and rm_val == 7  and rs1_nan_prefix == 0xffff and rs2_nan_prefix == 0xffff and
      rs3_nan_prefix == 0xffff  #nosat'
    : 1
    ? 'fs1 == 0 and fe1 == 0x1e and fm1 == 0x04f and fs2 == 1 and fe2 == 0x0f and
      fm2 == 0x107 and fs3 == 0 and fe3 == 0x1e and fm3 == 0x16b and fcsr == 0x42
      and rm_val == 7  and rs1_nan_prefix == 0xffff and rs2_nan_prefix == 0xffff and
      rs3_nan_prefix == 0xffff  #nosat'
    : 1
    ? 'fs1 == 0 and fe1 == 0x1e and fm1 == 0x04f and fs2 == 1 and fe2 == 0x0f and
      fm2 == 0x107 and fs3 == 0 and fe3 == 0x1e and fm3 == 0x16b and fcsr == 0x62
      and rm_val == 7  and rs1_nan_prefix == 0xffff and rs2_nan_prefix == 0xffff and
      rs3_nan_prefix == 0xffff  #nosat'
    : 1
    ? 'fs1 == 0 and fe1 == 0x1e and fm1 == 0x04f and fs2 == 1 and fe2 == 0x0f and
      fm2 == 0x107 and fs3 == 0 and fe3 == 0x1e and fm3 == 0x16b and fcsr == 0x82
      and rm_val == 7  and rs1_nan_prefix == 0xffff and rs2_nan_prefix == 0xffff and
      rs3_nan_prefix == 0xffff  #nosat'
    : 1
    ? 'fs1 == 0 and fe1 == 0x1c and fm1 == 0x28c and fs2 == 1 and fe2 == 0x11 and
      fm2 == 0x098 and fs3 == 0 and fe3 == 0x1e and fm3 == 0x386 and fcsr == 0x2 and
      rm_val == 7  and rs1_nan_prefix == 0xffff and rs2_nan_prefix == 0xffff and rs3_nan_prefix
      == 0xffff  #nosat'
    : 1
    ? 'fs1 == 0 and fe1 == 0x1c and fm1 == 0x28c and fs2 == 1 and fe2 == 0x11 and
      fm2 == 0x098 and fs3 == 0 and fe3 == 0x1e and fm3 == 0x386 and fcsr == 0x22
      and rm_val == 7  and rs1_nan_prefix == 0xffff and rs2_nan_prefix == 0xffff and
      rs3_nan_prefix == 0xffff  #nosat'
    : 1
    ? 'fs1 == 0 and fe1 == 0x1c and fm1 == 0x28c and fs2 == 1 and fe2 == 0x11 and
      fm2 == 0x098 and fs3 == 0 and fe3 == 0x1e and fm3 == 0x386 and fcsr == 0x42
      and rm_val == 7  and rs1_nan_prefix == 0xffff and rs2_nan_prefix == 0xffff and
      rs3_nan_prefix == 0xffff  #nosat'
    : 1
    ? 'fs1 == 0 and fe1 == 0x1c and fm1 == 0x28c and fs2 == 1 and fe2 == 0x11 and
      fm2 == 0x098 and fs3 == 0 and fe3 == 0x1e and fm3 == 0x386 and fcsr == 0x62
      and rm_val == 7  and rs1_nan_prefix == 0xffff and rs2_nan_prefix == 0xffff and
      rs3_nan_prefix == 0xffff  #nosat'
    : 1
    ? 'fs1 == 0 and fe1 == 0x1c and fm1 == 0x28c and fs2 == 1 and fe2 == 0x11 and
      fm2 == 0x098 and fs3 == 0 and fe3 == 0x1e and fm3 == 0x386 and fcsr == 0x82
      and rm_val == 7  and rs1_nan_prefix == 0xffff and rs2_nan_prefix == 0xffff and
      rs3_nan_prefix == 0xffff  #nosat'
    : 1
    ? 'fs1 == 0 and fe1 == 0x1e and fm1 == 0x185 and fs2 == 1 and fe2 == 0x0f and
      fm2 == 0x199 and fs3 == 0 and fe3 == 0x1e and fm3 == 0x3ba and fcsr == 0x2 and
      rm_val == 7  and rs1_nan_prefix == 0xffff and rs2_nan_prefix == 0xffff and rs3_nan_prefix
      == 0xffff  #nosat'
    : 1
    ? 'fs1 == 0 and fe1 == 0x1e and fm1 == 0x185 and fs2 == 1 and fe2 == 0x0f and
      fm2 == 0x199 and fs3 == 0 and fe3 == 0x1e and fm3 == 0x3ba and fcsr == 0x22
      and rm_val == 7  and rs1_nan_prefix == 0xffff and rs2_nan_prefix == 0xffff and
      rs3_nan_prefix == 0xffff  #nosat'
    : 1
    ? 'fs1 == 0 and fe1 == 0x1e and fm1 == 0x185 and fs2 == 1 and fe2 == 0x0f and
      fm2 == 0x199 and fs3 == 0 and fe3 == 0x1e and fm3 == 0x3ba and fcsr == 0x42
      and rm_val == 7  and rs1_nan_prefix == 0xffff and rs2_nan_prefix == 0xffff and
      rs3_nan_prefix == 0xffff  #nosat'
    : 1
    ? 'fs1 == 0 and fe1 == 0x1e and fm1 == 0x185 and fs2 == 1 and fe2 == 0x0f and
      fm2 == 0x199 and fs3 == 0 and fe3 == 0x1e and fm3 == 0x3ba and fcsr == 0x62
      and rm_val == 7  and rs1_nan_prefix == 0xffff and rs2_nan_prefix == 0xffff and
      rs3_nan_prefix == 0xffff  #nosat'
    : 1
    ? 'fs1 == 0 and fe1 == 0x1e and fm1 == 0x185 and fs2 == 1 and fe2 == 0x0f and
      fm2 == 0x199 and fs3 == 0 and fe3 == 0x1e and fm3 == 0x3ba and fcsr == 0x82
      and rm_val == 7  and rs1_nan_prefix == 0xffff and rs2_nan_prefix == 0xffff and
      rs3_nan_prefix == 0xffff  #nosat'
    : 1
    ? 'fs1 == 0 and fe1 == 0x1e and fm1 == 0x325 and fs2 == 1 and fe2 == 0x0d and
      fm2 == 0x159 and fs3 == 0 and fe3 == 0x1d and fm3 == 0x0c7 and fcsr == 0x2 and
      rm_val == 7  and rs1_nan_prefix == 0xffff and rs2_nan_prefix == 0xffff and rs3_nan_prefix
      == 0xffff  #nosat'
    : 1
    ? 'fs1 == 0 and fe1 == 0x1e and fm1 == 0x325 and fs2 == 1 and fe2 == 0x0d and
      fm2 == 0x159 and fs3 == 0 and fe3 == 0x1d and fm3 == 0x0c7 and fcsr == 0x22
      and rm_val == 7  and rs1_nan_prefix == 0xffff and rs2_nan_prefix == 0xffff and
      rs3_nan_prefix == 0xffff  #nosat'
    : 1
    ? 'fs1 == 0 and fe1 == 0x1e and fm1 == 0x325 and fs2 == 1 and fe2 == 0x0d and
      fm2 == 0x159 and fs3 == 0 and fe3 == 0x1d and fm3 == 0x0c7 and fcsr == 0x42
      and rm_val == 7  and rs1_nan_prefix == 0xffff and rs2_nan_prefix == 0xffff and
      rs3_nan_prefix == 0xffff  #nosat'
    : 1
    ? 'fs1 == 0 and fe1 == 0x1e and fm1 == 0x325 and fs2 == 1 and fe2 == 0x0d and
      fm2 == 0x159 and fs3 == 0 and fe3 == 0x1d and fm3 == 0x0c7 and fcsr == 0x62
      and rm_val == 7  and rs1_nan_prefix == 0xffff and rs2_nan_prefix == 0xffff and
      rs3_nan_prefix == 0xffff  #nosat'
    : 1
    ? 'fs1 == 0 and fe1 == 0x1e and fm1 == 0x325 and fs2 == 1 and fe2 == 0x0d and
      fm2 == 0x159 and fs3 == 0 and fe3 == 0x1d and fm3 == 0x0c7 and fcsr == 0x82
      and rm_val == 7  and rs1_nan_prefix == 0xffff and rs2_nan_prefix == 0xffff and
      rs3_nan_prefix == 0xffff  #nosat'
    : 1
    ? 'fs1 == 0 and fe1 == 0x1d and fm1 == 0x1c6 and fs2 == 1 and fe2 == 0x0d and
      fm2 == 0x35a and fs3 == 0 and fe3 == 0x1c and fm3 == 0x14e and fcsr == 0x2 and
      rm_val == 7  and rs1_nan_prefix == 0xffff and rs2_nan_prefix == 0xffff and rs3_nan_prefix
      == 0xffff  #nosat'
    : 1
    ? 'fs1 == 0 and fe1 == 0x1d and fm1 == 0x1c6 and fs2 == 1 and fe2 == 0x0d and
      fm2 == 0x35a and fs3 == 0 and fe3 == 0x1c and fm3 == 0x14e and fcsr == 0x22
      and rm_val == 7  and rs1_nan_prefix == 0xffff and rs2_nan_prefix == 0xffff and
      rs3_nan_prefix == 0xffff  #nosat'
    : 1
    ? 'fs1 == 0 and fe1 == 0x1d and fm1 == 0x1c6 and fs2 == 1 and fe2 == 0x0d and
      fm2 == 0x35a and fs3 == 0 and fe3 == 0x1c and fm3 == 0x14e and fcsr == 0x42
      and rm_val == 7  and rs1_nan_prefix == 0xffff and rs2_nan_prefix == 0xffff and
      rs3_nan_prefix == 0xffff  #nosat'
    : 1
    ? 'fs1 == 0 and fe1 == 0x1d and fm1 == 0x1c6 and fs2 == 1 and fe2 == 0x0d and
      fm2 == 0x35a and fs3 == 0 and fe3 == 0x1c and fm3 == 0x14e and fcsr == 0x62
      and rm_val == 7  and rs1_nan_prefix == 0xffff and rs2_nan_prefix == 0xffff and
      rs3_nan_prefix == 0xffff  #nosat'
    : 1
    ? 'fs1 == 0 and fe1 == 0x1d and fm1 == 0x1c6 and fs2 == 1 and fe2 == 0x0d and
      fm2 == 0x35a and fs3 == 0 and fe3 == 0x1c and fm3 == 0x14e and fcsr == 0x82
      and rm_val == 7  and rs1_nan_prefix == 0xffff and rs2_nan_prefix == 0xffff and
      rs3_nan_prefix == 0xffff  #nosat'
    : 1
    ? 'fs1 == 0 and fe1 == 0x1c and fm1 == 0x0a9 and fs2 == 1 and fe2 == 0x0d and
      fm2 == 0x327 and fs3 == 0 and fe3 == 0x1b and fm3 == 0x02a and fcsr == 0x2 and
      rm_val == 7  and rs1_nan_prefix == 0xffff and rs2_nan_prefix == 0xffff and rs3_nan_prefix
      == 0xffff  #nosat'
    : 1
    ? 'fs1 == 0 and fe1 == 0x1c and fm1 == 0x0a9 and fs2 == 1 and fe2 == 0x0d and
      fm2 == 0x327 and fs3 == 0 and fe3 == 0x1b and fm3 == 0x02a and fcsr == 0x22
      and rm_val == 7  and rs1_nan_prefix == 0xffff and rs2_nan_prefix == 0xffff and
      rs3_nan_prefix == 0xffff  #nosat'
    : 1
    ? 'fs1 == 0 and fe1 == 0x1c and fm1 == 0x0a9 and fs2 == 1 and fe2 == 0x0d and
      fm2 == 0x327 and fs3 == 0 and fe3 == 0x1b and fm3 == 0x02a and fcsr == 0x42
      and rm_val == 7  and rs1_nan_prefix == 0xffff and rs2_nan_prefix == 0xffff and
      rs3_nan_prefix == 0xffff  #nosat'
    : 1
    ? 'fs1 == 0 and fe1 == 0x1c and fm1 == 0x0a9 and fs2 == 1 and fe2 == 0x0d and
      fm2 == 0x327 and fs3 == 0 and fe3 == 0x1b and fm3 == 0x02a and fcsr == 0x62
      and rm_val == 7  and rs1_nan_prefix == 0xffff and rs2_nan_prefix == 0xffff and
      rs3_nan_prefix == 0xffff  #nosat'
    : 1
    ? 'fs1 == 0 and fe1 == 0x1c and fm1 == 0x0a9 and fs2 == 1 and fe2 == 0x0d and
      fm2 == 0x327 and fs3 == 0 and fe3 == 0x1b and fm3 == 0x02a and fcsr == 0x82
      and rm_val == 7  and rs1_nan_prefix == 0xffff and rs2_nan_prefix == 0xffff and
      rs3_nan_prefix == 0xffff  #nosat'
    : 1
    ? 'fs1 == 0 and fe1 == 0x1d and fm1 == 0x0d1 and fs2 == 1 and fe2 == 0x10 and
      fm2 == 0x000 and fs3 == 0 and fe3 == 0x1e and fm3 == 0x0d2 and fcsr == 0x2 and
      rm_val == 7  and rs1_nan_prefix == 0xffff and rs2_nan_prefix == 0xffff and rs3_nan_prefix
      == 0xffff  #nosat'
    : 1
    ? 'fs1 == 0 and fe1 == 0x1d and fm1 == 0x0d1 and fs2 == 1 and fe2 == 0x10 and
      fm2 == 0x000 and fs3 == 0 and fe3 == 0x1e and fm3 == 0x0d2 and fcsr == 0x22
      and rm_val == 7  and rs1_nan_prefix == 0xffff and rs2_nan_prefix == 0xffff and
      rs3_nan_prefix == 0xffff  #nosat'
    : 1
    ? 'fs1 == 0 and fe1 == 0x1d and fm1 == 0x0d1 and fs2 == 1 and fe2 == 0x10 and
      fm2 == 0x000 and fs3 == 0 and fe3 == 0x1e and fm3 == 0x0d2 and fcsr == 0x42
      and rm_val == 7  and rs1_nan_prefix == 0xffff and rs2_nan_prefix == 0xffff and
      rs3_nan_prefix == 0xffff  #nosat'
    : 1
    ? 'fs1 == 0 and fe1 == 0x1d and fm1 == 0x0d1 and fs2 == 1 and fe2 == 0x10 and
      fm2 == 0x000 and fs3 == 0 and fe3 == 0x1e and fm3 == 0x0d2 and fcsr == 0x62
      and rm_val == 7  and rs1_nan_prefix == 0xffff and rs2_nan_prefix == 0xffff and
      rs3_nan_prefix == 0xffff  #nosat'
    : 1
    ? 'fs1 == 0 and fe1 == 0x1d and fm1 == 0x0d1 and fs2 == 1 and fe2 == 0x10 and
      fm2 == 0x000 and fs3 == 0 and fe3 == 0x1e and fm3 == 0x0d2 and fcsr == 0x82
      and rm_val == 7  and rs1_nan_prefix == 0xffff and rs2_nan_prefix == 0xffff and
      rs3_nan_prefix == 0xffff  #nosat'
    : 1
    ? 'fs1 == 0 and fe1 == 0x16 and fm1 == 0x2f4 and fs2 == 1 and fe2 == 0x16 and
      fm2 == 0x23b and fs3 == 0 and fe3 == 0x1e and fm3 == 0x16b and fcsr == 0x2 and
      rm_val == 7  and rs1_nan_prefix == 0xffff and rs2_nan_prefix == 0xffff and rs3_nan_prefix
      == 0xffff  #nosat'
    : 1
    ? 'fs1 == 0 and fe1 == 0x16 and fm1 == 0x2f4 and fs2 == 1 and fe2 == 0x16 and
      fm2 == 0x23b and fs3 == 0 and fe3 == 0x1e and fm3 == 0x16b and fcsr == 0x22
      and rm_val == 7  and rs1_nan_prefix == 0xffff and rs2_nan_prefix == 0xffff and
      rs3_nan_prefix == 0xffff  #nosat'
    : 1
    ? 'fs1 == 0 and fe1 == 0x16 and fm1 == 0x2f4 and fs2 == 1 and fe2 == 0x16 and
      fm2 == 0x23b and fs3 == 0 and fe3 == 0x1e and fm3 == 0x16b and fcsr == 0x42
      and rm_val == 7  and rs1_nan_prefix == 0xffff and rs2_nan_prefix == 0xffff and
      rs3_nan_prefix == 0xffff  #nosat'
    : 1
    ? 'fs1 == 0 and fe1 == 0x16 and fm1 == 0x2f4 and fs2 == 1 and fe2 == 0x16 and
      fm2 == 0x23b and fs3 == 0 and fe3 == 0x1e and fm3 == 0x16b and fcsr == 0x62
      and rm_val == 7  and rs1_nan_prefix == 0xffff and rs2_nan_prefix == 0xffff and
      rs3_nan_prefix == 0xffff  #nosat'
    : 1
    ? 'fs1 == 0 and fe1 == 0x16 and fm1 == 0x2f4 and fs2 == 1 and fe2 == 0x16 and
      fm2 == 0x23b and fs3 == 0 and fe3 == 0x1e and fm3 == 0x16b and fcsr == 0x82
      and rm_val == 7  and rs1_nan_prefix == 0xffff and rs2_nan_prefix == 0xffff and
      rs3_nan_prefix == 0xffff  #nosat'
    : 1
    ? 'fs1 == 0 and fe1 == 0x1d and fm1 == 0x167 and fs2 == 1 and fe2 == 0x0e and
      fm2 == 0x356 and fs3 == 0 and fe3 == 0x1d and fm3 == 0x0f5 and fcsr == 0x2 and
      rm_val == 7  and rs1_nan_prefix == 0xffff and rs2_nan_prefix == 0xffff and rs3_nan_prefix
      == 0xffff  #nosat'
    : 1
    ? 'fs1 == 0 and fe1 == 0x1d and fm1 == 0x167 and fs2 == 1 and fe2 == 0x0e and
      fm2 == 0x356 and fs3 == 0 and fe3 == 0x1d and fm3 == 0x0f5 and fcsr == 0x22
      and rm_val == 7  and rs1_nan_prefix == 0xffff and rs2_nan_prefix == 0xffff and
      rs3_nan_prefix == 0xffff  #nosat'
    : 1
    ? 'fs1 == 0 and fe1 == 0x1d and fm1 == 0x167 and fs2 == 1 and fe2 == 0x0e and
      fm2 == 0x356 and fs3 == 0 and fe3 == 0x1d and fm3 == 0x0f5 and fcsr == 0x42
      and rm_val == 7  and rs1_nan_prefix == 0xffff and rs2_nan_prefix == 0xffff and
      rs3_nan_prefix == 0xffff  #nosat'
    : 1
    ? 'fs1 == 0 and fe1 == 0x1d and fm1 == 0x167 and fs2 == 1 and fe2 == 0x0e and
      fm2 == 0x356 and fs3 == 0 and fe3 == 0x1d and fm3 == 0x0f5 and fcsr == 0x62
      and rm_val == 7  and rs1_nan_prefix == 0xffff and rs2_nan_prefix == 0xffff and
      rs3_nan_prefix == 0xffff  #nosat'
    : 1
    ? 'fs1 == 0 and fe1 == 0x1d and fm1 == 0x167 and fs2 == 1 and fe2 == 0x0e and
      fm2 == 0x356 and fs3 == 0 and fe3 == 0x1d and fm3 == 0x0f5 and fcsr == 0x82
      and rm_val == 7  and rs1_nan_prefix == 0xffff and rs2_nan_prefix == 0xffff and
      rs3_nan_prefix == 0xffff  #nosat'
    : 1
    ? 'fs1 == 0 and fe1 == 0x1e and fm1 == 0x28b and fs2 == 1 and fe2 == 0x0e and
      fm2 == 0x0b2 and fs3 == 0 and fe3 == 0x1d and fm3 == 0x3b0 and fcsr == 0x2 and
      rm_val == 7  and rs1_nan_prefix == 0xffff and rs2_nan_prefix == 0xffff and rs3_nan_prefix
      == 0xffff  #nosat'
    : 1
    ? 'fs1 == 0 and fe1 == 0x1e and fm1 == 0x28b and fs2 == 1 and fe2 == 0x0e and
      fm2 == 0x0b2 and fs3 == 0 and fe3 == 0x1d and fm3 == 0x3b0 and fcsr == 0x22
      and rm_val == 7  and rs1_nan_prefix == 0xffff and rs2_nan_prefix == 0xffff and
      rs3_nan_prefix == 0xffff  #nosat'
    : 1
    ? 'fs1 == 0 and fe1 == 0x1e and fm1 == 0x28b and fs2 == 1 and fe2 == 0x0e and
      fm2 == 0x0b2 and fs3 == 0 and fe3 == 0x1d and fm3 == 0x3b0 and fcsr == 0x42
      and rm_val == 7  and rs1_nan_prefix == 0xffff and rs2_nan_prefix == 0xffff and
      rs3_nan_prefix == 0xffff  #nosat'
    : 1
    ? 'fs1 == 0 and fe1 == 0x1e and fm1 == 0x28b and fs2 == 1 and fe2 == 0x0e and
      fm2 == 0x0b2 and fs3 == 0 and fe3 == 0x1d and fm3 == 0x3b0 and fcsr == 0x62
      and rm_val == 7  and rs1_nan_prefix == 0xffff and rs2_nan_prefix == 0xffff and
      rs3_nan_prefix == 0xffff  #nosat'
    : 1
    ? 'fs1 == 0 and fe1 == 0x1e and fm1 == 0x28b and fs2 == 1 and fe2 == 0x0e and
      fm2 == 0x0b2 and fs3 == 0 and fe3 == 0x1d and fm3 == 0x3b0 and fcsr == 0x82
      and rm_val == 7  and rs1_nan_prefix == 0xffff and rs2_nan_prefix == 0xffff and
      rs3_nan_prefix == 0xffff  #nosat'
    : 1
    ? 'fs1 == 0 and fe1 == 0x1d and fm1 == 0x10c and fs2 == 1 and fe2 == 0x0f and
      fm2 == 0x218 and fs3 == 0 and fe3 == 0x1d and fm3 == 0x3b2 and fcsr == 0x2 and
      rm_val == 7  and rs1_nan_prefix == 0xffff and rs2_nan_prefix == 0xffff and rs3_nan_prefix
      == 0xffff  #nosat'
    : 1
    ? 'fs1 == 0 and fe1 == 0x1d and fm1 == 0x10c and fs2 == 1 and fe2 == 0x0f and
      fm2 == 0x218 and fs3 == 0 and fe3 == 0x1d and fm3 == 0x3b2 and fcsr == 0x22
      and rm_val == 7  and rs1_nan_prefix == 0xffff and rs2_nan_prefix == 0xffff and
      rs3_nan_prefix == 0xffff  #nosat'
    : 1
    ? 'fs1 == 0 and fe1 == 0x1d and fm1 == 0x10c and fs2 == 1 and fe2 == 0x0f and
      fm2 == 0x218 and fs3 == 0 and fe3 == 0x1d and fm3 == 0x3b2 and fcsr == 0x42
      and rm_val == 7  and rs1_nan_prefix == 0xffff and rs2_nan_prefix == 0xffff and
      rs3_nan_prefix == 0xffff  #nosat'
    : 1
    ? 'fs1 == 0 and fe1 == 0x1d and fm1 == 0x10c and fs2 == 1 and fe2 == 0x0f and
      fm2 == 0x218 and fs3 == 0 and fe3 == 0x1d and fm3 == 0x3b2 and fcsr == 0x62
      and rm_val == 7  and rs1_nan_prefix == 0xffff and rs2_nan_prefix == 0xffff and
      rs3_nan_prefix == 0xffff  #nosat'
    : 1
    ? 'fs1 == 0 and fe1 == 0x1d and fm1 == 0x10c and fs2 == 1 and fe2 == 0x0f and
      fm2 == 0x218 and fs3 == 0 and fe3 == 0x1d and fm3 == 0x3b2 and fcsr == 0x82
      and rm_val == 7  and rs1_nan_prefix == 0xffff and rs2_nan_prefix == 0xffff and
      rs3_nan_prefix == 0xffff  #nosat'
    : 1
    ? 'fs1 == 0 and fe1 == 0x1e and fm1 == 0x1a2 and fs2 == 1 and fe2 == 0x0b and
      fm2 == 0x12d and fs3 == 0 and fe3 == 0x1a and fm3 == 0x34b and fcsr == 0x2 and
      rm_val == 7  and rs1_nan_prefix == 0xffff and rs2_nan_prefix == 0xffff and rs3_nan_prefix
      == 0xffff  #nosat'
    : 1
    ? 'fs1 == 0 and fe1 == 0x1e and fm1 == 0x1a2 and fs2 == 1 and fe2 == 0x0b and
      fm2 == 0x12d and fs3 == 0 and fe3 == 0x1a and fm3 == 0x34b and fcsr == 0x22
      and rm_val == 7  and rs1_nan_prefix == 0xffff and rs2_nan_prefix == 0xffff and
      rs3_nan_prefix == 0xffff  #nosat'
    : 1
    ? 'fs1 == 0 and fe1 == 0x1e and fm1 == 0x1a2 and fs2 == 1 and fe2 == 0x0b and
      fm2 == 0x12d and fs3 == 0 and fe3 == 0x1a and fm3 == 0x34b and fcsr == 0x42
      and rm_val == 7  and rs1_nan_prefix == 0xffff and rs2_nan_prefix == 0xffff and
      rs3_nan_prefix == 0xffff  #nosat'
    : 1
    ? 'fs1 == 0 and fe1 == 0x1e and fm1 == 0x1a2 and fs2 == 1 and fe2 == 0x0b and
      fm2 == 0x12d and fs3 == 0 and fe3 == 0x1a and fm3 == 0x34b and fcsr == 0x62
      and rm_val == 7  and rs1_nan_prefix == 0xffff and rs2_nan_prefix == 0xffff and
      rs3_nan_prefix == 0xffff  #nosat'
    : 1
    ? 'fs1 == 0 and fe1 == 0x1e and fm1 == 0x1a2 and fs2 == 1 and fe2 == 0x0b and
      fm2 == 0x12d and fs3 == 0 and fe3 == 0x1a and fm3 == 0x34b and fcsr == 0x82
      and rm_val == 7  and rs1_nan_prefix == 0xffff and rs2_nan_prefix == 0xffff and
      rs3_nan_prefix == 0xffff  #nosat'
    : 1
    ? 'fs1 == 0 and fe1 == 0x1e and fm1 == 0x3cc and fs2 == 1 and fe2 == 0x09 and
      fm2 == 0x201 and fs3 == 0 and fe3 == 0x19 and fm3 == 0x1da and fcsr == 0x2 and
      rm_val == 7  and rs1_nan_prefix == 0xffff and rs2_nan_prefix == 0xffff and rs3_nan_prefix
      == 0xffff  #nosat'
    : 1
    ? 'fs1 == 0 and fe1 == 0x1e and fm1 == 0x3cc and fs2 == 1 and fe2 == 0x09 and
      fm2 == 0x201 and fs3 == 0 and fe3 == 0x19 and fm3 == 0x1da and fcsr == 0x22
      and rm_val == 7  and rs1_nan_prefix == 0xffff and rs2_nan_prefix == 0xffff and
      rs3_nan_prefix == 0xffff  #nosat'
    : 1
    ? 'fs1 == 0 and fe1 == 0x1e and fm1 == 0x3cc and fs2 == 1 and fe2 == 0x09 and
      fm2 == 0x201 and fs3 == 0 and fe3 == 0x19 and fm3 == 0x1da and fcsr == 0x42
      and rm_val == 7  and rs1_nan_prefix == 0xffff and rs2_nan_prefix == 0xffff and
      rs3_nan_prefix == 0xffff  #nosat'
    : 1
    ? 'fs1 == 0 and fe1 == 0x1e and fm1 == 0x3cc and fs2 == 1 and fe2 == 0x09 and
      fm2 == 0x201 and fs3 == 0 and fe3 == 0x19 and fm3 == 0x1da and fcsr == 0x62
      and rm_val == 7  and rs1_nan_prefix == 0xffff and rs2_nan_prefix == 0xffff and
      rs3_nan_prefix == 0xffff  #nosat'
    : 1
    ? 'fs1 == 0 and fe1 == 0x1e and fm1 == 0x3cc and fs2 == 1 and fe2 == 0x09 and
      fm2 == 0x201 and fs3 == 0 and fe3 == 0x19 and fm3 == 0x1da and fcsr == 0x82
      and rm_val == 7  and rs1_nan_prefix == 0xffff and rs2_nan_prefix == 0xffff and
      rs3_nan_prefix == 0xffff  #nosat'
    : 1
    ? 'fs1 == 0 and fe1 == 0x1e and fm1 == 0x1fe and fs2 == 1 and fe2 == 0x0f and
      fm2 == 0x081 and fs3 == 0 and fe3 == 0x1e and fm3 == 0x2c1 and fcsr == 0x2 and
      rm_val == 7  and rs1_nan_prefix == 0xffff and rs2_nan_prefix == 0xffff and rs3_nan_prefix
      == 0xffff  #nosat'
    : 1
    ? 'fs1 == 0 and fe1 == 0x1e and fm1 == 0x1fe and fs2 == 1 and fe2 == 0x0f and
      fm2 == 0x081 and fs3 == 0 and fe3 == 0x1e and fm3 == 0x2c1 and fcsr == 0x22
      and rm_val == 7  and rs1_nan_prefix == 0xffff and rs2_nan_prefix == 0xffff and
      rs3_nan_prefix == 0xffff  #nosat'
    : 1
    ? 'fs1 == 0 and fe1 == 0x1e and fm1 == 0x1fe and fs2 == 1 and fe2 == 0x0f and
      fm2 == 0x081 and fs3 == 0 and fe3 == 0x1e and fm3 == 0x2c1 and fcsr == 0x42
      and rm_val == 7  and rs1_nan_prefix == 0xffff and rs2_nan_prefix == 0xffff and
      rs3_nan_prefix == 0xffff  #nosat'
    : 1
    ? 'fs1 == 0 and fe1 == 0x1e and fm1 == 0x1fe and fs2 == 1 and fe2 == 0x0f and
      fm2 == 0x081 and fs3 == 0 and fe3 == 0x1e and fm3 == 0x2c1 and fcsr == 0x62
      and rm_val == 7  and rs1_nan_prefix == 0xffff and rs2_nan_prefix == 0xffff and
      rs3_nan_prefix == 0xffff  #nosat'
    : 1
    ? 'fs1 == 0 and fe1 == 0x1e and fm1 == 0x1fe and fs2 == 1 and fe2 == 0x0f and
      fm2 == 0x081 and fs3 == 0 and fe3 == 0x1e and fm3 == 0x2c1 and fcsr == 0x82
      and rm_val == 7  and rs1_nan_prefix == 0xffff and rs2_nan_prefix == 0xffff and
      rs3_nan_prefix == 0xffff  #nosat'
    : 1
    ? 'fs1 == 0 and fe1 == 0x19 and fm1 == 0x0a0 and fs2 == 1 and fe2 == 0x14 and
      fm2 == 0x172 and fs3 == 0 and fe3 == 0x1e and fm3 == 0x24c and fcsr == 0x2 and
      rm_val == 7  and rs1_nan_prefix == 0xffff and rs2_nan_prefix == 0xffff and rs3_nan_prefix
      == 0xffff  #nosat'
    : 1
    ? 'fs1 == 0 and fe1 == 0x19 and fm1 == 0x0a0 and fs2 == 1 and fe2 == 0x14 and
      fm2 == 0x172 and fs3 == 0 and fe3 == 0x1e and fm3 == 0x24c and fcsr == 0x22
      and rm_val == 7  and rs1_nan_prefix == 0xffff and rs2_nan_prefix == 0xffff and
      rs3_nan_prefix == 0xffff  #nosat'
    : 1
    ? 'fs1 == 0 and fe1 == 0x19 and fm1 == 0x0a0 and fs2 == 1 and fe2 == 0x14 and
      fm2 == 0x172 and fs3 == 0 and fe3 == 0x1e and fm3 == 0x24c and fcsr == 0x42
      and rm_val == 7  and rs1_nan_prefix == 0xffff and rs2_nan_prefix == 0xffff and
      rs3_nan_prefix == 0xffff  #nosat'
    : 1
    ? 'fs1 == 0 and fe1 == 0x19 and fm1 == 0x0a0 and fs2 == 1 and fe2 == 0x14 and
      fm2 == 0x172 and fs3 == 0 and fe3 == 0x1e and fm3 == 0x24c and fcsr == 0x62
      and rm_val == 7  and rs1_nan_prefix == 0xffff and rs2_nan_prefix == 0xffff and
      rs3_nan_prefix == 0xffff  #nosat'
    : 1
    ? 'fs1 == 0 and fe1 == 0x19 and fm1 == 0x0a0 and fs2 == 1 and fe2 == 0x14 and
      fm2 == 0x172 and fs3 == 0 and fe3 == 0x1e and fm3 == 0x24c and fcsr == 0x82
      and rm_val == 7  and rs1_nan_prefix == 0xffff and rs2_nan_prefix == 0xffff and
      rs3_nan_prefix == 0xffff  #nosat'
    : 1
    ? 'fs1 == 0 and fe1 == 0x1d and fm1 == 0x1db and fs2 == 1 and fe2 == 0x0f and
      fm2 == 0x251 and fs3 == 0 and fe3 == 0x1e and fm3 == 0x0a0 and fcsr == 0x2 and
      rm_val == 7  and rs1_nan_prefix == 0xffff and rs2_nan_prefix == 0xffff and rs3_nan_prefix
      == 0xffff  #nosat'
    : 1
    ? 'fs1 == 0 and fe1 == 0x1d and fm1 == 0x1db and fs2 == 1 and fe2 == 0x0f and
      fm2 == 0x251 and fs3 == 0 and fe3 == 0x1e and fm3 == 0x0a0 and fcsr == 0x22
      and rm_val == 7  and rs1_nan_prefix == 0xffff and rs2_nan_prefix == 0xffff and
      rs3_nan_prefix == 0xffff  #nosat'
    : 1
    ? 'fs1 == 0 and fe1 == 0x1d and fm1 == 0x1db and fs2 == 1 and fe2 == 0x0f and
      fm2 == 0x251 and fs3 == 0 and fe3 == 0x1e and fm3 == 0x0a0 and fcsr == 0x42
      and rm_val == 7  and rs1_nan_prefix == 0xffff and rs2_nan_prefix == 0xffff and
      rs3_nan_prefix == 0xffff  #nosat'
    : 1
    ? 'fs1 == 0 and fe1 == 0x1d and fm1 == 0x1db and fs2 == 1 and fe2 == 0x0f and
      fm2 == 0x251 and fs3 == 0 and fe3 == 0x1e and fm3 == 0x0a0 and fcsr == 0x62
      and rm_val == 7  and rs1_nan_prefix == 0xffff and rs2_nan_prefix == 0xffff and
      rs3_nan_prefix == 0xffff  #nosat'
    : 1
    ? 'fs1 == 0 and fe1 == 0x1d and fm1 == 0x1db and fs2 == 1 and fe2 == 0x0f and
      fm2 == 0x251 and fs3 == 0 and fe3 == 0x1e and fm3 == 0x0a0 and fcsr == 0x82
      and rm_val == 7  and rs1_nan_prefix == 0xffff and rs2_nan_prefix == 0xffff and
      rs3_nan_prefix == 0xffff  #nosat'
    : 1
    ? 'fs1 == 0 and fe1 == 0x18 and fm1 == 0x0a7 and fs2 == 1 and fe2 == 0x11 and
      fm2 == 0x123 and fs3 == 0 and fe3 == 0x1a and fm3 == 0x1fa and fcsr == 0x2 and
      rm_val == 7  and rs1_nan_prefix == 0xffff and rs2_nan_prefix == 0xffff and rs3_nan_prefix
      == 0xffff  #nosat'
    : 1
    ? 'fs1 == 0 and fe1 == 0x18 and fm1 == 0x0a7 and fs2 == 1 and fe2 == 0x11 and
      fm2 == 0x123 and fs3 == 0 and fe3 == 0x1a and fm3 == 0x1fa and fcsr == 0x22
      and rm_val == 7  and rs1_nan_prefix == 0xffff and rs2_nan_prefix == 0xffff and
      rs3_nan_prefix == 0xffff  #nosat'
    : 1
    ? 'fs1 == 0 and fe1 == 0x18 and fm1 == 0x0a7 and fs2 == 1 and fe2 == 0x11 and
      fm2 == 0x123 and fs3 == 0 and fe3 == 0x1a and fm3 == 0x1fa and fcsr == 0x42
      and rm_val == 7  and rs1_nan_prefix == 0xffff and rs2_nan_prefix == 0xffff and
      rs3_nan_prefix == 0xffff  #nosat'
    : 1
    ? 'fs1 == 0 and fe1 == 0x18 and fm1 == 0x0a7 and fs2 == 1 and fe2 == 0x11 and
      fm2 == 0x123 and fs3 == 0 and fe3 == 0x1a and fm3 == 0x1fa and fcsr == 0x62
      and rm_val == 7  and rs1_nan_prefix == 0xffff and rs2_nan_prefix == 0xffff and
      rs3_nan_prefix == 0xffff  #nosat'
    : 1
    ? 'fs1 == 0 and fe1 == 0x18 and fm1 == 0x0a7 and fs2 == 1 and fe2 == 0x11 and
      fm2 == 0x123 and fs3 == 0 and fe3 == 0x1a and fm3 == 0x1fa and fcsr == 0x82
      and rm_val == 7  and rs1_nan_prefix == 0xffff and rs2_nan_prefix == 0xffff and
      rs3_nan_prefix == 0xffff  #nosat'
    : 1
    ? 'fs1 == 0 and fe1 == 0x1c and fm1 == 0x1c9 and fs2 == 1 and fe2 == 0x11 and
      fm2 == 0x147 and fs3 == 0 and fe3 == 0x1e and fm3 == 0x3a3 and fcsr == 0x2 and
      rm_val == 7  and rs1_nan_prefix == 0xffff and rs2_nan_prefix == 0xffff and rs3_nan_prefix
      == 0xffff  #nosat'
    : 1
    ? 'fs1 == 0 and fe1 == 0x1c and fm1 == 0x1c9 and fs2 == 1 and fe2 == 0x11 and
      fm2 == 0x147 and fs3 == 0 and fe3 == 0x1e and fm3 == 0x3a3 and fcsr == 0x22
      and rm_val == 7  and rs1_nan_prefix == 0xffff and rs2_nan_prefix == 0xffff and
      rs3_nan_prefix == 0xffff  #nosat'
    : 1
    ? 'fs1 == 0 and fe1 == 0x1c and fm1 == 0x1c9 and fs2 == 1 and fe2 == 0x11 and
      fm2 == 0x147 and fs3 == 0 and fe3 == 0x1e and fm3 == 0x3a3 and fcsr == 0x42
      and rm_val == 7  and rs1_nan_prefix == 0xffff and rs2_nan_prefix == 0xffff and
      rs3_nan_prefix == 0xffff  #nosat'
    : 1
    ? 'fs1 == 0 and fe1 == 0x1c and fm1 == 0x1c9 and fs2 == 1 and fe2 == 0x11 and
      fm2 == 0x147 and fs3 == 0 and fe3 == 0x1e and fm3 == 0x3a3 and fcsr == 0x62
      and rm_val == 7  and rs1_nan_prefix == 0xffff and rs2_nan_prefix == 0xffff and
      rs3_nan_prefix == 0xffff  #nosat'
    : 1
    ? 'fs1 == 0 and fe1 == 0x1c and fm1 == 0x1c9 and fs2 == 1 and fe2 == 0x11 and
      fm2 == 0x147 and fs3 == 0 and fe3 == 0x1e and fm3 == 0x3a3 and fcsr == 0x82
      and rm_val == 7  and rs1_nan_prefix == 0xffff and rs2_nan_prefix == 0xffff and
      rs3_nan_prefix == 0xffff  #nosat'
    : 1
    ? 'fs1 == 0 and fe1 == 0x1c and fm1 == 0x249 and fs2 == 1 and fe2 == 0x10 and
      fm2 == 0x3b0 and fs3 == 0 and fe3 == 0x1e and fm3 == 0x20b and fcsr == 0x2 and
      rm_val == 7  and rs1_nan_prefix == 0xffff and rs2_nan_prefix == 0xffff and rs3_nan_prefix
      == 0xffff  #nosat'
    : 1
    ? 'fs1 == 0 and fe1 == 0x1c and fm1 == 0x249 and fs2 == 1 and fe2 == 0x10 and
      fm2 == 0x3b0 and fs3 == 0 and fe3 == 0x1e and fm3 == 0x20b and fcsr == 0x22
      and rm_val == 7  and rs1_nan_prefix == 0xffff and rs2_nan_prefix == 0xffff and
      rs3_nan_prefix == 0xffff  #nosat'
    : 1
    ? 'fs1 == 0 and fe1 == 0x1c and fm1 == 0x249 and fs2 == 1 and fe2 == 0x10 and
      fm2 == 0x3b0 and fs3 == 0 and fe3 == 0x1e and fm3 == 0x20b and fcsr == 0x42
      and rm_val == 7  and rs1_nan_prefix == 0xffff and rs2_nan_prefix == 0xffff and
      rs3_nan_prefix == 0xffff  #nosat'
    : 1
    ? 'fs1 == 0 and fe1 == 0x1c and fm1 == 0x249 and fs2 == 1 and fe2 == 0x10 and
      fm2 == 0x3b0 and fs3 == 0 and fe3 == 0x1e and fm3 == 0x20b and fcsr == 0x62
      and rm_val == 7  and rs1_nan_prefix == 0xffff and rs2_nan_prefix == 0xffff and
      rs3_nan_prefix == 0xffff  #nosat'
    : 1
    ? 'fs1 == 0 and fe1 == 0x1c and fm1 == 0x249 and fs2 == 1 and fe2 == 0x10 and
      fm2 == 0x3b0 and fs3 == 0 and fe3 == 0x1e and fm3 == 0x20b and fcsr == 0x82
      and rm_val == 7  and rs1_nan_prefix == 0xffff and rs2_nan_prefix == 0xffff and
      rs3_nan_prefix == 0xffff  #nosat'
    : 1
    ? 'fs1 == 0 and fe1 == 0x1e and fm1 == 0x36f and fs2 == 1 and fe2 == 0x0f and
      fm2 == 0x00d and fs3 == 0 and fe3 == 0x1e and fm3 == 0x388 and fcsr == 0x2 and
      rm_val == 7  and rs1_nan_prefix == 0xffff and rs2_nan_prefix == 0xffff and rs3_nan_prefix
      == 0xffff  #nosat'
    : 1
    ? 'fs1 == 0 and fe1 == 0x1e and fm1 == 0x36f and fs2 == 1 and fe2 == 0x0f and
      fm2 == 0x00d and fs3 == 0 and fe3 == 0x1e and fm3 == 0x388 and fcsr == 0x22
      and rm_val == 7  and rs1_nan_prefix == 0xffff and rs2_nan_prefix == 0xffff and
      rs3_nan_prefix == 0xffff  #nosat'
    : 1
    ? 'fs1 == 0 and fe1 == 0x1e and fm1 == 0x36f and fs2 == 1 and fe2 == 0x0f and
      fm2 == 0x00d and fs3 == 0 and fe3 == 0x1e and fm3 == 0x388 and fcsr == 0x42
      and rm_val == 7  and rs1_nan_prefix == 0xffff and rs2_nan_prefix == 0xffff and
      rs3_nan_prefix == 0xffff  #nosat'
    : 1
    ? 'fs1 == 0 and fe1 == 0x1e and fm1 == 0x36f and fs2 == 1 and fe2 == 0x0f and
      fm2 == 0x00d and fs3 == 0 and fe3 == 0x1e and fm3 == 0x388 and fcsr == 0x62
      and rm_val == 7  and rs1_nan_prefix == 0xffff and rs2_nan_prefix == 0xffff and
      rs3_nan_prefix == 0xffff  #nosat'
    : 1
    ? 'fs1 == 0 and fe1 == 0x1e and fm1 == 0x36f and fs2 == 1 and fe2 == 0x0f and
      fm2 == 0x00d and fs3 == 0 and fe3 == 0x1e and fm3 == 0x388 and fcsr == 0x82
      and rm_val == 7  and rs1_nan_prefix == 0xffff and rs2_nan_prefix == 0xffff and
      rs3_nan_prefix == 0xffff  #nosat'
    : 1
    ? 'fs1 == 0 and fe1 == 0x1d and fm1 == 0x181 and fs2 == 1 and fe2 == 0x0f and
      fm2 == 0x01e and fs3 == 0 and fe3 == 0x1d and fm3 == 0x1ac and fcsr == 0x2 and
      rm_val == 7  and rs1_nan_prefix == 0xffff and rs2_nan_prefix == 0xffff and rs3_nan_prefix
      == 0xffff  #nosat'
    : 1
    ? 'fs1 == 0 and fe1 == 0x1d and fm1 == 0x181 and fs2 == 1 and fe2 == 0x0f and
      fm2 == 0x01e and fs3 == 0 and fe3 == 0x1d and fm3 == 0x1ac and fcsr == 0x22
      and rm_val == 7  and rs1_nan_prefix == 0xffff and rs2_nan_prefix == 0xffff and
      rs3_nan_prefix == 0xffff  #nosat'
    : 1
    ? 'fs1 == 0 and fe1 == 0x1d and fm1 == 0x181 and fs2 == 1 and fe2 == 0x0f and
      fm2 == 0x01e and fs3 == 0 and fe3 == 0x1d and fm3 == 0x1ac and fcsr == 0x42
      and rm_val == 7  and rs1_nan_prefix == 0xffff and rs2_nan_prefix == 0xffff and
      rs3_nan_prefix == 0xffff  #nosat'
    : 1
    ? 'fs1 == 0 and fe1 == 0x1d and fm1 == 0x181 and fs2 == 1 and fe2 == 0x0f and
      fm2 == 0x01e and fs3 == 0 and fe3 == 0x1d and fm3 == 0x1ac and fcsr == 0x62
      and rm_val == 7  and rs1_nan_prefix == 0xffff and rs2_nan_prefix == 0xffff and
      rs3_nan_prefix == 0xffff  #nosat'
    : 1
    ? 'fs1 == 0 and fe1 == 0x1d and fm1 == 0x181 and fs2 == 1 and fe2 == 0x0f and
      fm2 == 0x01e and fs3 == 0 and fe3 == 0x1d and fm3 == 0x1ac and fcsr == 0x82
      and rm_val == 7  and rs1_nan_prefix == 0xffff and rs2_nan_prefix == 0xffff and
      rs3_nan_prefix == 0xffff  #nosat'
    : 1
    ? 'fs1 == 0 and fe1 == 0x1e and fm1 == 0x032 and fs2 == 1 and fe2 == 0x0f and
      fm2 == 0x1e9 and fs3 == 0 and fe3 == 0x1e and fm3 == 0x233 and fcsr == 0x2 and
      rm_val == 7  and rs1_nan_prefix == 0xffff and rs2_nan_prefix == 0xffff and rs3_nan_prefix
      == 0xffff  #nosat'
    : 1
    ? 'fs1 == 0 and fe1 == 0x1e and fm1 == 0x032 and fs2 == 1 and fe2 == 0x0f and
      fm2 == 0x1e9 and fs3 == 0 and fe3 == 0x1e and fm3 == 0x233 and fcsr == 0x22
      and rm_val == 7  and rs1_nan_prefix == 0xffff and rs2_nan_prefix == 0xffff and
      rs3_nan_prefix == 0xffff  #nosat'
    : 1
    ? 'fs1 == 0 and fe1 == 0x1e and fm1 == 0x032 and fs2 == 1 and fe2 == 0x0f and
      fm2 == 0x1e9 and fs3 == 0 and fe3 == 0x1e and fm3 == 0x233 and fcsr == 0x42
      and rm_val == 7  and rs1_nan_prefix == 0xffff and rs2_nan_prefix == 0xffff and
      rs3_nan_prefix == 0xffff  #nosat'
    : 1
    ? 'fs1 == 0 and fe1 == 0x1e and fm1 == 0x032 and fs2 == 1 and fe2 == 0x0f and
      fm2 == 0x1e9 and fs3 == 0 and fe3 == 0x1e and fm3 == 0x233 and fcsr == 0x62
      and rm_val == 7  and rs1_nan_prefix == 0xffff and rs2_nan_prefix == 0xffff and
      rs3_nan_prefix == 0xffff  #nosat'
    : 1
    ? 'fs1 == 0 and fe1 == 0x1e and fm1 == 0x032 and fs2 == 1 and fe2 == 0x0f and
      fm2 == 0x1e9 and fs3 == 0 and fe3 == 0x1e and fm3 == 0x233 and fcsr == 0x82
      and rm_val == 7  and rs1_nan_prefix == 0xffff and rs2_nan_prefix == 0xffff and
      rs3_nan_prefix == 0xffff  #nosat'
    : 1
    ? 'fs1 == 0 and fe1 == 0x1b and fm1 == 0x2e9 and fs2 == 1 and fe2 == 0x11 and
      fm2 == 0x2ec and fs3 == 0 and fe3 == 0x1e and fm3 == 0x1fb and fcsr == 0x2 and
      rm_val == 7  and rs1_nan_prefix == 0xffff and rs2_nan_prefix == 0xffff and rs3_nan_prefix
      == 0xffff  #nosat'
    : 1
    ? 'fs1 == 0 and fe1 == 0x1b and fm1 == 0x2e9 and fs2 == 1 and fe2 == 0x11 and
      fm2 == 0x2ec and fs3 == 0 and fe3 == 0x1e and fm3 == 0x1fb and fcsr == 0x22
      and rm_val == 7  and rs1_nan_prefix == 0xffff and rs2_nan_prefix == 0xffff and
      rs3_nan_prefix == 0xffff  #nosat'
    : 1
    ? 'fs1 == 0 and fe1 == 0x1b and fm1 == 0x2e9 and fs2 == 1 and fe2 == 0x11 and
      fm2 == 0x2ec and fs3 == 0 and fe3 == 0x1e and fm3 == 0x1fb and fcsr == 0x42
      and rm_val == 7  and rs1_nan_prefix == 0xffff and rs2_nan_prefix == 0xffff and
      rs3_nan_prefix == 0xffff  #nosat'
    : 1
    ? 'fs1 == 0 and fe1 == 0x1b and fm1 == 0x2e9 and fs2 == 1 and fe2 == 0x11 and
      fm2 == 0x2ec and fs3 == 0 and fe3 == 0x1e and fm3 == 0x1fb and fcsr == 0x62
      and rm_val == 7  and rs1_nan_prefix == 0xffff and rs2_nan_prefix == 0xffff and
      rs3_nan_prefix == 0xffff  #nosat'
    : 1
    ? 'fs1 == 0 and fe1 == 0x1b and fm1 == 0x2e9 and fs2 == 1 and fe2 == 0x11 and
      fm2 == 0x2ec and fs3 == 0 and fe3 == 0x1e and fm3 == 0x1fb and fcsr == 0x82
      and rm_val == 7  and rs1_nan_prefix == 0xffff and rs2_nan_prefix == 0xffff and
      rs3_nan_prefix == 0xffff  #nosat'
    : 1
    ? 'fs1 == 0 and fe1 == 0x1e and fm1 == 0x25f and fs2 == 1 and fe2 == 0x0f and
      fm2 == 0x050 and fs3 == 0 and fe3 == 0x1e and fm3 == 0x2df and fcsr == 0x2 and
      rm_val == 7  and rs1_nan_prefix == 0xffff and rs2_nan_prefix == 0xffff and rs3_nan_prefix
      == 0xffff  #nosat'
    : 1
    ? 'fs1 == 0 and fe1 == 0x1e and fm1 == 0x25f and fs2 == 1 and fe2 == 0x0f and
      fm2 == 0x050 and fs3 == 0 and fe3 == 0x1e and fm3 == 0x2df and fcsr == 0x22
      and rm_val == 7  and rs1_nan_prefix == 0xffff and rs2_nan_prefix == 0xffff and
      rs3_nan_prefix == 0xffff  #nosat'
    : 1
    ? 'fs1 == 0 and fe1 == 0x1e and fm1 == 0x25f and fs2 == 1 and fe2 == 0x0f and
      fm2 == 0x050 and fs3 == 0 and fe3 == 0x1e and fm3 == 0x2df and fcsr == 0x42
      and rm_val == 7  and rs1_nan_prefix == 0xffff and rs2_nan_prefix == 0xffff and
      rs3_nan_prefix == 0xffff  #nosat'
    : 1
    ? 'fs1 == 0 and fe1 == 0x1e and fm1 == 0x25f and fs2 == 1 and fe2 == 0x0f and
      fm2 == 0x050 and fs3 == 0 and fe3 == 0x1e and fm3 == 0x2df and fcsr == 0x62
      and rm_val == 7  and rs1_nan_prefix == 0xffff and rs2_nan_prefix == 0xffff and
      rs3_nan_prefix == 0xffff  #nosat'
    : 1
    ? 'fs1 == 0 and fe1 == 0x1e and fm1 == 0x25f and fs2 == 1 and fe2 == 0x0f and
      fm2 == 0x050 and fs3 == 0 and fe3 == 0x1e and fm3 == 0x2df and fcsr == 0x82
      and rm_val == 7  and rs1_nan_prefix == 0xffff and rs2_nan_prefix == 0xffff and
      rs3_nan_prefix == 0xffff  #nosat'
    : 1
    ? 'fs1 == 0 and fe1 == 0x1a and fm1 == 0x0b0 and fs2 == 1 and fe2 == 0x13 and
      fm2 == 0x273 and fs3 == 0 and fe3 == 0x1e and fm3 == 0x390 and fcsr == 0x2 and
      rm_val == 7  and rs1_nan_prefix == 0xffff and rs2_nan_prefix == 0xffff and rs3_nan_prefix
      == 0xffff  #nosat'
    : 1
    ? 'fs1 == 0 and fe1 == 0x1a and fm1 == 0x0b0 and fs2 == 1 and fe2 == 0x13 and
      fm2 == 0x273 and fs3 == 0 and fe3 == 0x1e and fm3 == 0x390 and fcsr == 0x22
      and rm_val == 7  and rs1_nan_prefix == 0xffff and rs2_nan_prefix == 0xffff and
      rs3_nan_prefix == 0xffff  #nosat'
    : 1
    ? 'fs1 == 0 and fe1 == 0x1a and fm1 == 0x0b0 and fs2 == 1 and fe2 == 0x13 and
      fm2 == 0x273 and fs3 == 0 and fe3 == 0x1e and fm3 == 0x390 and fcsr == 0x42
      and rm_val == 7  and rs1_nan_prefix == 0xffff and rs2_nan_prefix == 0xffff and
      rs3_nan_prefix == 0xffff  #nosat'
    : 1
    ? 'fs1 == 0 and fe1 == 0x1a and fm1 == 0x0b0 and fs2 == 1 and fe2 == 0x13 and
      fm2 == 0x273 and fs3 == 0 and fe3 == 0x1e and fm3 == 0x390 and fcsr == 0x62
      and rm_val == 7  and rs1_nan_prefix == 0xffff and rs2_nan_prefix == 0xffff and
      rs3_nan_prefix == 0xffff  #nosat'
    : 1
    ? 'fs1 == 0 and fe1 == 0x1a and fm1 == 0x0b0 and fs2 == 1 and fe2 == 0x13 and
      fm2 == 0x273 and fs3 == 0 and fe3 == 0x1e and fm3 == 0x390 and fcsr == 0x82
      and rm_val == 7  and rs1_nan_prefix == 0xffff and rs2_nan_prefix == 0xffff and
      rs3_nan_prefix == 0xffff  #nosat'
    : 1
    ? 'fs1 == 0 and fe1 == 0x1b and fm1 == 0x1d5 and fs2 == 1 and fe2 == 0x10 and
      fm2 == 0x379 and fs3 == 0 and fe3 == 0x1d and fm3 == 0x173 and fcsr == 0x2 and
      rm_val == 7  and rs1_nan_prefix == 0xffff and rs2_nan_prefix == 0xffff and rs3_nan_prefix
      == 0xffff  #nosat'
    : 1
    ? 'fs1 == 0 and fe1 == 0x1b and fm1 == 0x1d5 and fs2 == 1 and fe2 == 0x10 and
      fm2 == 0x379 and fs3 == 0 and fe3 == 0x1d and fm3 == 0x173 and fcsr == 0x22
      and rm_val == 7  and rs1_nan_prefix == 0xffff and rs2_nan_prefix == 0xffff and
      rs3_nan_prefix == 0xffff  #nosat'
    : 1
    ? 'fs1 == 0 and fe1 == 0x1b and fm1 == 0x1d5 and fs2 == 1 and fe2 == 0x10 and
      fm2 == 0x379 and fs3 == 0 and fe3 == 0x1d and fm3 == 0x173 and fcsr == 0x42
      and rm_val == 7  and rs1_nan_prefix == 0xffff and rs2_nan_prefix == 0xffff and
      rs3_nan_prefix == 0xffff  #nosat'
    : 1
    ? 'fs1 == 0 and fe1 == 0x1b and fm1 == 0x1d5 and fs2 == 1 and fe2 == 0x10 and
      fm2 == 0x379 and fs3 == 0 and fe3 == 0x1d and fm3 == 0x173 and fcsr == 0x62
      and rm_val == 7  and rs1_nan_prefix == 0xffff and rs2_nan_prefix == 0xffff and
      rs3_nan_prefix == 0xffff  #nosat'
    : 1
    ? 'fs1 == 0 and fe1 == 0x1b and fm1 == 0x1d5 and fs2 == 1 and fe2 == 0x10 and
      fm2 == 0x379 and fs3 == 0 and fe3 == 0x1d and fm3 == 0x173 and fcsr == 0x82
      and rm_val == 7  and rs1_nan_prefix == 0xffff and rs2_nan_prefix == 0xffff and
      rs3_nan_prefix == 0xffff  #nosat'
    : 1
    ? 'fs1 == 0 and fe1 == 0x1e and fm1 == 0x0e2 and fs2 == 1 and fe2 == 0x0f and
      fm2 == 0x203 and fs3 == 0 and fe3 == 0x1e and fm3 == 0x357 and fcsr == 0x2 and
      rm_val == 7  and rs1_nan_prefix == 0xffff and rs2_nan_prefix == 0xffff and rs3_nan_prefix
      == 0xffff  #nosat'
    : 1
    ? 'fs1 == 0 and fe1 == 0x1e and fm1 == 0x0e2 and fs2 == 1 and fe2 == 0x0f and
      fm2 == 0x203 and fs3 == 0 and fe3 == 0x1e and fm3 == 0x357 and fcsr == 0x22
      and rm_val == 7  and rs1_nan_prefix == 0xffff and rs2_nan_prefix == 0xffff and
      rs3_nan_prefix == 0xffff  #nosat'
    : 1
    ? 'fs1 == 0 and fe1 == 0x1e and fm1 == 0x0e2 and fs2 == 1 and fe2 == 0x0f and
      fm2 == 0x203 and fs3 == 0 and fe3 == 0x1e and fm3 == 0x357 and fcsr == 0x42
      and rm_val == 7  and rs1_nan_prefix == 0xffff and rs2_nan_prefix == 0xffff and
      rs3_nan_prefix == 0xffff  #nosat'
    : 1
    ? 'fs1 == 0 and fe1 == 0x1e and fm1 == 0x0e2 and fs2 == 1 and fe2 == 0x0f and
      fm2 == 0x203 and fs3 == 0 and fe3 == 0x1e and fm3 == 0x357 and fcsr == 0x62
      and rm_val == 7  and rs1_nan_prefix == 0xffff and rs2_nan_prefix == 0xffff and
      rs3_nan_prefix == 0xffff  #nosat'
    : 1
    ? 'fs1 == 0 and fe1 == 0x1e and fm1 == 0x0e2 and fs2 == 1 and fe2 == 0x0f and
      fm2 == 0x203 and fs3 == 0 and fe3 == 0x1e and fm3 == 0x357 and fcsr == 0x82
      and rm_val == 7  and rs1_nan_prefix == 0xffff and rs2_nan_prefix == 0xffff and
      rs3_nan_prefix == 0xffff  #nosat'
    : 1
    coverage: 220/220
  total_coverage: 361/361
