---
fsub_b5:
  config:
  - check ISA:=regex(.*I.*F.*)
  op_comb:
    rs1 != rs2  and rs1 != rd and rs2 != rd: 208
    rs1 == rd != rs2: 1
    rs1 == rs2 != rd: 1
    rs1 == rs2 == rd: 1
    rs2 == rd != rs1: 1
    coverage: 5/5
  opcode:
    fsub.d: 212
    coverage: 1/1
  rd:
    f0: 1
    f1: 1
    f10: 1
    f11: 1
    f12: 1
    f13: 1
    f14: 1
    f15: 1
    f16: 1
    f17: 1
    f18: 1
    f19: 1
    f2: 1
    f20: 1
    f21: 1
    f22: 1
    f23: 1
    f24: 1
    f25: 1
    f26: 1
    f27: 1
    f28: 1
    f29: 1
    f3: 1
    f30: 1
    f31: 181
    f4: 1
    f5: 1
    f6: 1
    f7: 1
    f8: 1
    f9: 1
    coverage: 32/32
  rs1:
    f0: 1
    f1: 1
    f10: 1
    f11: 1
    f12: 1
    f13: 1
    f14: 1
    f15: 1
    f16: 1
    f17: 1
    f18: 1
    f19: 1
    f2: 1
    f20: 1
    f21: 1
    f22: 1
    f23: 1
    f24: 1
    f25: 1
    f26: 1
    f27: 1
    f28: 1
    f29: 1
    f3: 1
    f30: 181
    f31: 1
    f4: 1
    f5: 1
    f6: 1
    f7: 1
    f8: 1
    f9: 1
    coverage: 32/32
  rs2:
    f0: 1
    f1: 1
    f10: 1
    f11: 1
    f12: 1
    f13: 1
    f14: 1
    f15: 1
    f16: 1
    f17: 1
    f18: 1
    f19: 1
    f2: 1
    f20: 1
    f21: 1
    f22: 1
    f23: 1
    f24: 1
    f25: 1
    f26: 1
    f27: 1
    f28: 1
    f29: 181
    f3: 1
    f30: 1
    f31: 1
    f4: 1
    f5: 1
    f6: 1
    f7: 1
    f8: 1
    f9: 1
    coverage: 32/32
  val_comb:
    ? 'fs1 == 0 and fe1 == 0x7fc and fm1 == 0x132d8f91b7583 and fs2 == 0 and fe2 ==
      0x7fc and fm2 == 0x132d8f91b7583 and rm_val == 0  #nosat'
    : 2  #  rs1_val==dnorm(0x7fc132d8f91b7583) and rs2_val==dnorm(0x7fc132d8f91b7583) | Guard = 0 Round = 0 Sticky = 1 --> Minsubnorm + 1 ulp
    ? 'fs1 == 0 and fe1 == 0x7fe and fm1 == 0xb877e6e317fa2 and fs2 == 0 and fe2 ==
      0x7fe and fm2 == 0xb877e6e317fa2 and rm_val == 4  #nosat'
    : 1 #  rs1_val==dnorm(0x7feb877e6e317fa2) and rs2_val==dnorm(0x7feb877e6e317fa2) | Exponent = MinNorm.exp + 5
    ? 'fs1 == 0 and fe1 == 0x7fe and fm1 == 0xb877e6e317fa2 and fs2 == 0 and fe2 ==
      0x7fe and fm2 == 0xb877e6e317fa2 and rm_val == 3  #nosat'
    : 1 #  rs1_val==dnorm(0x7feb877e6e317fa2) and rs2_val==dnorm(0x7feb877e6e317fa2) | Exponent = MinNorm.exp + 5
    ? 'fs1 == 0 and fe1 == 0x7fe and fm1 == 0xb877e6e317fa2 and fs2 == 0 and fe2 ==
      0x7fe and fm2 == 0xb877e6e317fa2 and rm_val == 2  #nosat'
    : 1 #  rs1_val==dnorm(0x7feb877e6e317fa2) and rs2_val==dnorm(0x7feb877e6e317fa2) | Exponent = MinNorm.exp + 5
    ? 'fs1 == 0 and fe1 == 0x7fe and fm1 == 0xb877e6e317fa2 and fs2 == 0 and fe2 ==
      0x7fe and fm2 == 0xb877e6e317fa2 and rm_val == 1  #nosat'
    : 2 #  rs1_val==dnorm(0x7feb877e6e317fa2) and rs2_val==dnorm(0x7feb877e6e317fa2) | Exponent = MinNorm.exp + 5
    ? 'fs1 == 0 and fe1 == 0x7fe and fm1 == 0xb877e6e317fa2 and fs2 == 0 and fe2 ==
      0x7fe and fm2 == 0xb877e6e317fa2 and rm_val == 0  #nosat'
    : 1 #  rs1_val==dnorm(0x7feb877e6e317fa2) and rs2_val==dnorm(0x7feb877e6e317fa2) | Exponent = MinNorm.exp + 5
    ? 'fs1 == 0 and fe1 == 0x7fe and fm1 == 0x8a82024cc4e03 and fs2 == 0 and fe2 ==
      0x7fe and fm2 == 0x8a82024cc4e03 and rm_val == 4  #nosat'
    : 1 #  rs1_val==dnorm(0x7fe8a82024cc4e03) and rs2_val==dnorm(0x7fe8a82024cc4e03) | Exponent = MinNorm.exp + 4
    ? 'fs1 == 0 and fe1 == 0x7fe and fm1 == 0x8a82024cc4e03 and fs2 == 0 and fe2 ==
      0x7fe and fm2 == 0x8a82024cc4e03 and rm_val == 3  #nosat'
    : 1 #  rs1_val==dnorm(0x7fe8a82024cc4e03) and rs2_val==dnorm(0x7fe8a82024cc4e03) | Exponent = MinNorm.exp + 4
    ? 'fs1 == 0 and fe1 == 0x7fe and fm1 == 0x8a82024cc4e03 and fs2 == 0 and fe2 ==
      0x7fe and fm2 == 0x8a82024cc4e03 and rm_val == 2  #nosat'
    : 1 #  rs1_val==dnorm(0x7fe8a82024cc4e03) and rs2_val==dnorm(0x7fe8a82024cc4e03) | Exponent = MinNorm.exp + 4
    ? 'fs1 == 0 and fe1 == 0x7fe and fm1 == 0x8a82024cc4e03 and fs2 == 0 and fe2 ==
      0x7fe and fm2 == 0x8a82024cc4e03 and rm_val == 1  #nosat'
    : 1 #  rs1_val==dnorm(0x7fe8a82024cc4e03) and rs2_val==dnorm(0x7fe8a82024cc4e03) | Exponent = MinNorm.exp + 4
    ? 'fs1 == 0 and fe1 == 0x7fe and fm1 == 0x8a82024cc4e03 and fs2 == 0 and fe2 ==
      0x7fe and fm2 == 0x8a82024cc4e03 and rm_val == 0  #nosat'
    : 1 #  rs1_val==dnorm(0x7fe8a82024cc4e03) and rs2_val==dnorm(0x7fe8a82024cc4e03) | Exponent = MinNorm.exp + 4
    ? 'fs1 == 0 and fe1 == 0x7fe and fm1 == 0x0125698e86242 and fs2 == 0 and fe2 ==
      0x7fe and fm2 == 0x0125698e86242 and rm_val == 4  #nosat'
    : 1 #  rs1_val==dnorm(0x7fe0125698e86242) and rs2_val==dnorm(0x7fe0125698e86242) | Exponent = MinNorm.exp + 3
    ? 'fs1 == 0 and fe1 == 0x7fe and fm1 == 0x0125698e86242 and fs2 == 0 and fe2 ==
      0x7fe and fm2 == 0x0125698e86242 and rm_val == 3  #nosat'
    : 1 #  rs1_val==dnorm(0x7fe0125698e86242) and rs2_val==dnorm(0x7fe0125698e86242) | Exponent = MinNorm.exp + 3
    ? 'fs1 == 0 and fe1 == 0x7fe and fm1 == 0x0125698e86242 and fs2 == 0 and fe2 ==
      0x7fe and fm2 == 0x0125698e86242 and rm_val == 2  #nosat'
    : 1 #  rs1_val==dnorm(0x7fe0125698e86242) and rs2_val==dnorm(0x7fe0125698e86242) | Exponent = MinNorm.exp + 3
    ? 'fs1 == 0 and fe1 == 0x7fe and fm1 == 0x0125698e86242 and fs2 == 0 and fe2 ==
      0x7fe and fm2 == 0x0125698e86242 and rm_val == 1  #nosat'
    : 1 #  rs1_val==dnorm(0x7fe0125698e86242) and rs2_val==dnorm(0x7fe0125698e86242) | Exponent = MinNorm.exp + 3
    ? 'fs1 == 0 and fe1 == 0x7fe and fm1 == 0x0125698e86242 and fs2 == 0 and fe2 ==
      0x7fe and fm2 == 0x0125698e86242 and rm_val == 0  #nosat'
    : 1 #  rs1_val==dnorm(0x7fe0125698e86242) and rs2_val==dnorm(0x7fe0125698e86242) | Exponent = MinNorm.exp + 3
    ? 'fs1 == 0 and fe1 == 0x7fd and fm1 == 0x930bcbd2d6035 and fs2 == 0 and fe2 ==
      0x7fd and fm2 == 0x930bcbd2d6035 and rm_val == 4  #nosat'
    : 1 #  rs1_val==dnorm(0x7fd930bcbd2d6035) and rs2_val==dnorm(0x7fd930bcbd2d6035) | Exponent = MinNorm.exp + 2
    ? 'fs1 == 0 and fe1 == 0x7fd and fm1 == 0x930bcbd2d6035 and fs2 == 0 and fe2 ==
      0x7fd and fm2 == 0x930bcbd2d6035 and rm_val == 3  #nosat'
    : 1 #  rs1_val==dnorm(0x7fd930bcbd2d6035) and rs2_val==dnorm(0x7fd930bcbd2d6035) | Exponent = MinNorm.exp + 2
    ? 'fs1 == 0 and fe1 == 0x7fd and fm1 == 0x930bcbd2d6035 and fs2 == 0 and fe2 ==
      0x7fd and fm2 == 0x930bcbd2d6035 and rm_val == 2  #nosat'
    : 1 #  rs1_val==dnorm(0x7fd930bcbd2d6035) and rs2_val==dnorm(0x7fd930bcbd2d6035) | Exponent = MinNorm.exp + 2
    ? 'fs1 == 0 and fe1 == 0x7fd and fm1 == 0x930bcbd2d6035 and fs2 == 0 and fe2 ==
      0x7fd and fm2 == 0x930bcbd2d6035 and rm_val == 1  #nosat'
    : 1 #  rs1_val==dnorm(0x7fd930bcbd2d6035) and rs2_val==dnorm(0x7fd930bcbd2d6035) | Exponent = MinNorm.exp + 2
    ? 'fs1 == 0 and fe1 == 0x7fd and fm1 == 0x930bcbd2d6035 and fs2 == 0 and fe2 ==
      0x7fd and fm2 == 0x930bcbd2d6035 and rm_val == 0  #nosat'
    : 1 #  rs1_val==dnorm(0x7fd930bcbd2d6035) and rs2_val==dnorm(0x7fd930bcbd2d6035) | Exponent = MinNorm.exp + 2
    ? 'fs1 == 0 and fe1 == 0x7fe and fm1 == 0xf7646167590ef and fs2 == 0 and fe2 ==
      0x7fe and fm2 == 0xf7646167590ef and rm_val == 4  #nosat'
    : 1 #  rs1_val==dnorm(0x7fef7646167590ef) and rs2_val==dnorm(0x7fef7646167590ef) | Exponent = MinNorm.exp + 1
    ? 'fs1 == 0 and fe1 == 0x7fe and fm1 == 0xf7646167590ef and fs2 == 0 and fe2 ==
      0x7fe and fm2 == 0xf7646167590ef and rm_val == 3  #nosat'
    : 1 #  rs1_val==dnorm(0x7fef7646167590ef) and rs2_val==dnorm(0x7fef7646167590ef) | Exponent = MinNorm.exp + 1
    ? 'fs1 == 0 and fe1 == 0x7fe and fm1 == 0xf7646167590ef and fs2 == 0 and fe2 ==
      0x7fe and fm2 == 0xf7646167590ef and rm_val == 2  #nosat'
    : 1 #  rs1_val==dnorm(0x7fef7646167590ef) and rs2_val==dnorm(0x7fef7646167590ef) | Exponent = MinNorm.exp + 1
    ? 'fs1 == 0 and fe1 == 0x7fe and fm1 == 0xf7646167590ef and fs2 == 0 and fe2 ==
      0x7fe and fm2 == 0xf7646167590ef and rm_val == 1  #nosat'
    : 1 #  rs1_val==dnorm(0x7fef7646167590ef) and rs2_val==dnorm(0x7fef7646167590ef) | Exponent = MinNorm.exp + 1
    ? 'fs1 == 0 and fe1 == 0x7fe and fm1 == 0xf7646167590ef and fs2 == 0 and fe2 ==
      0x7fe and fm2 == 0xf7646167590ef and rm_val == 0  #nosat'
    : 1 #  rs1_val==dnorm(0x7fef7646167590ef) and rs2_val==dnorm(0x7fef7646167590ef) | Exponent = MinNorm.exp + 1
    ? 'fs1 == 0 and fe1 == 0x7fa and fm1 == 0x643f753bef22f and fs2 == 0 and fe2 ==
      0x7fa and fm2 == 0x643f753bef22f and rm_val == 4  #nosat'
    : 1 #  rs1_val==dnorm(0x7fa643f753bef22f) and rs2_val==dnorm(0x7fa643f753bef22f) | Guard = 1 Round = 1 Sticky = 1 --> Minnorm + 7 ulp
    ? 'fs1 == 0 and fe1 == 0x7fa and fm1 == 0x643f753bef22f and fs2 == 0 and fe2 ==
      0x7fa and fm2 == 0x643f753bef22f and rm_val == 3  #nosat'
    : 1 #  rs1_val==dnorm(0x7fa643f753bef22f) and rs2_val==dnorm(0x7fa643f753bef22f) | Guard = 1 Round = 1 Sticky = 1 --> Minnorm + 7 ulp
    ? 'fs1 == 0 and fe1 == 0x7fa and fm1 == 0x643f753bef22f and fs2 == 0 and fe2 ==
      0x7fa and fm2 == 0x643f753bef22f and rm_val == 2  #nosat'
    : 1 #  rs1_val==dnorm(0x7fa643f753bef22f) and rs2_val==dnorm(0x7fa643f753bef22f) | Guard = 1 Round = 1 Sticky = 1 --> Minnorm + 7 ulp
    ? 'fs1 == 0 and fe1 == 0x7fa and fm1 == 0x643f753bef22f and fs2 == 0 and fe2 ==
      0x7fa and fm2 == 0x643f753bef22f and rm_val == 1  #nosat'
    : 1 #  rs1_val==dnorm(0x7fa643f753bef22f) and rs2_val==dnorm(0x7fa643f753bef22f) | Guard = 1 Round = 1 Sticky = 1 --> Minnorm + 7 ulp
    ? 'fs1 == 0 and fe1 == 0x7fa and fm1 == 0x643f753bef22f and fs2 == 0 and fe2 ==
      0x7fa and fm2 == 0x643f753bef22f and rm_val == 0  #nosat'
    : 1 #  rs1_val==dnorm(0x7fa643f753bef22f) and rs2_val==dnorm(0x7fa643f753bef22f) | Guard = 1 Round = 1 Sticky = 1 --> Minnorm + 7 ulp
    ? 'fs1 == 0 and fe1 == 0x7fd and fm1 == 0xf57237ddcb451 and fs2 == 0 and fe2 ==
      0x7fd and fm2 == 0xf57237ddcb451 and rm_val == 4  #nosat'
    : 1 #  rs1_val==dnorm(0x7fdf57237ddcb451) and rs2_val==dnorm(0x7fdf57237ddcb451) | Guard = 1 Round = 1 Sticky = 0 --> Minnorm + 6 ulp
    ? 'fs1 == 0 and fe1 == 0x7fd and fm1 == 0xf57237ddcb451 and fs2 == 0 and fe2 ==
      0x7fd and fm2 == 0xf57237ddcb451 and rm_val == 3  #nosat'
    : 1 #  rs1_val==dnorm(0x7fdf57237ddcb451) and rs2_val==dnorm(0x7fdf57237ddcb451) | Guard = 1 Round = 1 Sticky = 0 --> Minnorm + 6 ulp
    ? 'fs1 == 0 and fe1 == 0x7fd and fm1 == 0xf57237ddcb451 and fs2 == 0 and fe2 ==
      0x7fd and fm2 == 0xf57237ddcb451 and rm_val == 2  #nosat'
    : 1 #  rs1_val==dnorm(0x7fdf57237ddcb451) and rs2_val==dnorm(0x7fdf57237ddcb451) | Guard = 1 Round = 1 Sticky = 0 --> Minnorm + 6 ulp
    ? 'fs1 == 0 and fe1 == 0x7fd and fm1 == 0xf57237ddcb451 and fs2 == 0 and fe2 ==
      0x7fd and fm2 == 0xf57237ddcb451 and rm_val == 1  #nosat'
    : 1 #  rs1_val==dnorm(0x7fdf57237ddcb451) and rs2_val==dnorm(0x7fdf57237ddcb451) | Guard = 1 Round = 1 Sticky = 0 --> Minnorm + 6 ulp
    ? 'fs1 == 0 and fe1 == 0x7fd and fm1 == 0xf57237ddcb451 and fs2 == 0 and fe2 ==
      0x7fd and fm2 == 0xf57237ddcb451 and rm_val == 0  #nosat'
    : 1 #  rs1_val==dnorm(0x7fdf57237ddcb451) and rs2_val==dnorm(0x7fdf57237ddcb451) | Guard = 1 Round = 1 Sticky = 0 --> Minnorm + 6 ulp
    ? 'fs1 == 0 and fe1 == 0x7fe and fm1 == 0x0ab870b5c1c40 and fs2 == 0 and fe2 ==
      0x7fe and fm2 == 0x0ab870b5c1c40 and rm_val == 4  #nosat'
    : 1 #  rs1_val==dnorm(0x7fe0ab870b5c1c40) and rs2_val==dnorm(0x7fe0ab870b5c1c40) | Guard = 1 Round = 0 Sticky = 1 --> Minnorm + 5 ulp
    ? 'fs1 == 0 and fe1 == 0x7fe and fm1 == 0x0ab870b5c1c40 and fs2 == 0 and fe2 ==
      0x7fe and fm2 == 0x0ab870b5c1c40 and rm_val == 3  #nosat'
    : 1 #  rs1_val==dnorm(0x7fe0ab870b5c1c40) and rs2_val==dnorm(0x7fe0ab870b5c1c40) | Guard = 1 Round = 0 Sticky = 1 --> Minnorm + 5 ulp
    ? 'fs1 == 0 and fe1 == 0x7fe and fm1 == 0x0ab870b5c1c40 and fs2 == 0 and fe2 ==
      0x7fe and fm2 == 0x0ab870b5c1c40 and rm_val == 2  #nosat'
    : 1 #  rs1_val==dnorm(0x7fe0ab870b5c1c40) and rs2_val==dnorm(0x7fe0ab870b5c1c40) | Guard = 1 Round = 0 Sticky = 1 --> Minnorm + 5 ulp
    ? 'fs1 == 0 and fe1 == 0x7fe and fm1 == 0x0ab870b5c1c40 and fs2 == 0 and fe2 ==
      0x7fe and fm2 == 0x0ab870b5c1c40 and rm_val == 1  #nosat'
    : 1 #  rs1_val==dnorm(0x7fe0ab870b5c1c40) and rs2_val==dnorm(0x7fe0ab870b5c1c40) | Guard = 1 Round = 0 Sticky = 1 --> Minnorm + 5 ulp
    ? 'fs1 == 0 and fe1 == 0x7fe and fm1 == 0x0ab870b5c1c40 and fs2 == 0 and fe2 ==
      0x7fe and fm2 == 0x0ab870b5c1c40 and rm_val == 0  #nosat'
    : 1 #  rs1_val==dnorm(0x7fe0ab870b5c1c40) and rs2_val==dnorm(0x7fe0ab870b5c1c40) | Guard = 1 Round = 0 Sticky = 1 --> Minnorm + 5 ulp
    ? 'fs1 == 0 and fe1 == 0x7fe and fm1 == 0x04507a06e8587 and fs2 == 0 and fe2 ==
      0x7fe and fm2 == 0x04507a06e8587 and rm_val == 4  #nosat'
    : 1 #  rs1_val==dnorm(0x7fe04507a06e8587) and rs2_val==dnorm(0x7fe04507a06e8587) | Guard = 1 Round = 0 Sticky = 0 --> Minnorm + 4 ulp
    ? 'fs1 == 0 and fe1 == 0x7fe and fm1 == 0x04507a06e8587 and fs2 == 0 and fe2 ==
      0x7fe and fm2 == 0x04507a06e8587 and rm_val == 3  #nosat'
    : 1 #  rs1_val==dnorm(0x7fe04507a06e8587) and rs2_val==dnorm(0x7fe04507a06e8587) | Guard = 1 Round = 0 Sticky = 0 --> Minnorm + 4 ulp
    ? 'fs1 == 0 and fe1 == 0x7fe and fm1 == 0x04507a06e8587 and fs2 == 0 and fe2 ==
      0x7fe and fm2 == 0x04507a06e8587 and rm_val == 2  #nosat'
    : 1 #  rs1_val==dnorm(0x7fe04507a06e8587) and rs2_val==dnorm(0x7fe04507a06e8587) | Guard = 1 Round = 0 Sticky = 0 --> Minnorm + 4 ulp
    ? 'fs1 == 0 and fe1 == 0x7fe and fm1 == 0x04507a06e8587 and fs2 == 0 and fe2 ==
      0x7fe and fm2 == 0x04507a06e8587 and rm_val == 1  #nosat'
    : 1 #  rs1_val==dnorm(0x7fe04507a06e8587) and rs2_val==dnorm(0x7fe04507a06e8587) | Guard = 1 Round = 0 Sticky = 0 --> Minnorm + 4 ulp
    ? 'fs1 == 0 and fe1 == 0x7fe and fm1 == 0x04507a06e8587 and fs2 == 0 and fe2 ==
      0x7fe and fm2 == 0x04507a06e8587 and rm_val == 0  #nosat'
    : 1 #  rs1_val==dnorm(0x7fe04507a06e8587) and rs2_val==dnorm(0x7fe04507a06e8587) | Guard = 1 Round = 0 Sticky = 0 --> Minnorm + 4 ulp
    ? 'fs1 == 0 and fe1 == 0x7fd and fm1 == 0x7fb2260b115e9 and fs2 == 0 and fe2 ==
      0x7fd and fm2 == 0x7fb2260b115e9 and rm_val == 4  #nosat'
    : 1 #  rs1_val==dnorm(0x7fd7fb2260b115e9) and rs2_val==dnorm(0x7fd7fb2260b115e9) | Guard = 0 Round = 1 Sticky = 1 --> Minnorm + 3 ulp
    ? 'fs1 == 0 and fe1 == 0x7fd and fm1 == 0x7fb2260b115e9 and fs2 == 0 and fe2 ==
      0x7fd and fm2 == 0x7fb2260b115e9 and rm_val == 3  #nosat'
    : 1 #  rs1_val==dnorm(0x7fd7fb2260b115e9) and rs2_val==dnorm(0x7fd7fb2260b115e9) | Guard = 0 Round = 1 Sticky = 1 --> Minnorm + 3 ulp
    ? 'fs1 == 0 and fe1 == 0x7fd and fm1 == 0x7fb2260b115e9 and fs2 == 0 and fe2 ==
      0x7fd and fm2 == 0x7fb2260b115e9 and rm_val == 2  #nosat'
    : 1 #  rs1_val==dnorm(0x7fd7fb2260b115e9) and rs2_val==dnorm(0x7fd7fb2260b115e9) | Guard = 0 Round = 1 Sticky = 1 --> Minnorm + 3 ulp
    ? 'fs1 == 0 and fe1 == 0x7fd and fm1 == 0x7fb2260b115e9 and fs2 == 0 and fe2 ==
      0x7fd and fm2 == 0x7fb2260b115e9 and rm_val == 1  #nosat'
    : 1 #  rs1_val==dnorm(0x7fd7fb2260b115e9) and rs2_val==dnorm(0x7fd7fb2260b115e9) | Guard = 0 Round = 1 Sticky = 1 --> Minnorm + 3 ulp
    ? 'fs1 == 0 and fe1 == 0x7fd and fm1 == 0x7fb2260b115e9 and fs2 == 0 and fe2 ==
      0x7fd and fm2 == 0x7fb2260b115e9 and rm_val == 0  #nosat'
    : 1 #  rs1_val==dnorm(0x7fd7fb2260b115e9) and rs2_val==dnorm(0x7fd7fb2260b115e9) | Guard = 0 Round = 1 Sticky = 1 --> Minnorm + 3 ulp
    ? 'fs1 == 0 and fe1 == 0x7fe and fm1 == 0x67f4f571a752e and fs2 == 0 and fe2 ==
      0x7fe and fm2 == 0x67f4f571a752e and rm_val == 4  #nosat'
    : 1 #  rs1_val==dnorm(0x7fe67f4f571a752e) and rs2_val==dnorm(0x7fe67f4f571a752e) | Guard = 0 Round = 1 Sticky = 0 --> Minnorm + 2 ulp
    ? 'fs1 == 0 and fe1 == 0x7fe and fm1 == 0x67f4f571a752e and fs2 == 0 and fe2 ==
      0x7fe and fm2 == 0x67f4f571a752e and rm_val == 3  #nosat'
    : 1 #  rs1_val==dnorm(0x7fe67f4f571a752e) and rs2_val==dnorm(0x7fe67f4f571a752e) | Guard = 0 Round = 1 Sticky = 0 --> Minnorm + 2 ulp
    ? 'fs1 == 0 and fe1 == 0x7fe and fm1 == 0x67f4f571a752e and fs2 == 0 and fe2 ==
      0x7fe and fm2 == 0x67f4f571a752e and rm_val == 2  #nosat'
    : 1 #  rs1_val==dnorm(0x7fe67f4f571a752e) and rs2_val==dnorm(0x7fe67f4f571a752e) | Guard = 0 Round = 1 Sticky = 0 --> Minnorm + 2 ulp
    ? 'fs1 == 0 and fe1 == 0x7fe and fm1 == 0x67f4f571a752e and fs2 == 0 and fe2 ==
      0x7fe and fm2 == 0x67f4f571a752e and rm_val == 1  #nosat'
    : 1 #  rs1_val==dnorm(0x7fe67f4f571a752e) and rs2_val==dnorm(0x7fe67f4f571a752e) | Guard = 0 Round = 1 Sticky = 0 --> Minnorm + 2 ulp
    ? 'fs1 == 0 and fe1 == 0x7fe and fm1 == 0x67f4f571a752e and fs2 == 0 and fe2 ==
      0x7fe and fm2 == 0x67f4f571a752e and rm_val == 0  #nosat'
    : 1 #  rs1_val==dnorm(0x7fe67f4f571a752e) and rs2_val==dnorm(0x7fe67f4f571a752e) | Guard = 0 Round = 1 Sticky = 0 --> Minnorm + 2 ulp
    ? 'fs1 == 0 and fe1 == 0x7fc and fm1 == 0x6251b45dfbd3b and fs2 == 0 and fe2 ==
      0x7fc and fm2 == 0x6251b45dfbd3b and rm_val == 4  #nosat'
    : 1 #  rs1_val==dnorm(0x7fc6251b45dfbd3b) and rs2_val==dnorm(0x7fc6251b45dfbd3b) | Guard = 0 Round = 0 Sticky = 1 --> Minnorm + 1 ulp
    ? 'fs1 == 0 and fe1 == 0x7fc and fm1 == 0x6251b45dfbd3b and fs2 == 0 and fe2 ==
      0x7fc and fm2 == 0x6251b45dfbd3b and rm_val == 3  #nosat'
    : 1 #  rs1_val==dnorm(0x7fc6251b45dfbd3b) and rs2_val==dnorm(0x7fc6251b45dfbd3b) | Guard = 0 Round = 0 Sticky = 1 --> Minnorm + 1 ulp
    ? 'fs1 == 0 and fe1 == 0x7fc and fm1 == 0x6251b45dfbd3b and fs2 == 0 and fe2 ==
      0x7fc and fm2 == 0x6251b45dfbd3b and rm_val == 2  #nosat'
    : 1 #  rs1_val==dnorm(0x7fc6251b45dfbd3b) and rs2_val==dnorm(0x7fc6251b45dfbd3b) | Guard = 0 Round = 0 Sticky = 1 --> Minnorm + 1 ulp
    ? 'fs1 == 0 and fe1 == 0x7fc and fm1 == 0x6251b45dfbd3b and fs2 == 0 and fe2 ==
      0x7fc and fm2 == 0x6251b45dfbd3b and rm_val == 1  #nosat'
    : 1 #  rs1_val==dnorm(0x7fc6251b45dfbd3b) and rs2_val==dnorm(0x7fc6251b45dfbd3b) | Guard = 0 Round = 0 Sticky = 1 --> Minnorm + 1 ulp
    ? 'fs1 == 0 and fe1 == 0x7fc and fm1 == 0x6251b45dfbd3b and fs2 == 0 and fe2 ==
      0x7fc and fm2 == 0x6251b45dfbd3b and rm_val == 0  #nosat'
    : 1 #  rs1_val==dnorm(0x7fc6251b45dfbd3b) and rs2_val==dnorm(0x7fc6251b45dfbd3b) | Guard = 0 Round = 0 Sticky = 1 --> Minnorm + 1 ulp
    ? 'fs1 == 0 and fe1 == 0x7fe and fm1 == 0x98455e99dfdb1 and fs2 == 0 and fe2 ==
      0x7fe and fm2 == 0x98455e99dfdb1 and rm_val == 4  #nosat'
    : 1 #  rs1_val==dnorm(0x7fe98455e99dfdb1) and rs2_val==dnorm(0x7fe98455e99dfdb1) | Guard = 0 Round = 0 Sticky = 0 --> Minnorm + 0 ulp
    ? 'fs1 == 0 and fe1 == 0x7fe and fm1 == 0x98455e99dfdb1 and fs2 == 0 and fe2 ==
      0x7fe and fm2 == 0x98455e99dfdb1 and rm_val == 3  #nosat'
    : 1 #  rs1_val==dnorm(0x7fe98455e99dfdb1) and rs2_val==dnorm(0x7fe98455e99dfdb1) | Guard = 0 Round = 0 Sticky = 0 --> Minnorm + 0 ulp
    ? 'fs1 == 0 and fe1 == 0x7fe and fm1 == 0x98455e99dfdb1 and fs2 == 0 and fe2 ==
      0x7fe and fm2 == 0x98455e99dfdb1 and rm_val == 2  #nosat'
    : 1 #  rs1_val==dnorm(0x7fe98455e99dfdb1) and rs2_val==dnorm(0x7fe98455e99dfdb1) | Guard = 0 Round = 0 Sticky = 0 --> Minnorm + 0 ulp
    ? 'fs1 == 0 and fe1 == 0x7fe and fm1 == 0x98455e99dfdb1 and fs2 == 0 and fe2 ==
      0x7fe and fm2 == 0x98455e99dfdb1 and rm_val == 1  #nosat'
    : 1 #  rs1_val==dnorm(0x7fe98455e99dfdb1) and rs2_val==dnorm(0x7fe98455e99dfdb1) | Guard = 0 Round = 0 Sticky = 0 --> Minnorm + 0 ulp
    ? 'fs1 == 0 and fe1 == 0x7fe and fm1 == 0x98455e99dfdb1 and fs2 == 0 and fe2 ==
      0x7fe and fm2 == 0x98455e99dfdb1 and rm_val == 0  #nosat'
    : 1 #  rs1_val==dnorm(0x7fe98455e99dfdb1) and rs2_val==dnorm(0x7fe98455e99dfdb1) | Guard = 0 Round = 0 Sticky = 0 --> Minnorm + 0 ulp
    ? 'fs1 == 0 and fe1 == 0x7fa and fm1 == 0x1ad5e9ebc09df and fs2 == 0 and fe2 ==
      0x7fa and fm2 == 0x1ad5e9ebc09df and rm_val == 4  #nosat'
    : 1 #  rs1_val==dnorm(0x7fa1ad5e9ebc09df) and rs2_val==dnorm(0x7fa1ad5e9ebc09df) | Guard = 0 Round = 0 Sticky = 0 --> Minsubnorm + 0 ulp
    ? 'fs1 == 0 and fe1 == 0x7fa and fm1 == 0x1ad5e9ebc09df and fs2 == 0 and fe2 ==
      0x7fa and fm2 == 0x1ad5e9ebc09df and rm_val == 3  #nosat'
    : 1 #  rs1_val==dnorm(0x7fa1ad5e9ebc09df) and rs2_val==dnorm(0x7fa1ad5e9ebc09df) | Guard = 0 Round = 0 Sticky = 0 --> Minsubnorm + 0 ulp
    ? 'fs1 == 0 and fe1 == 0x7fa and fm1 == 0x1ad5e9ebc09df and fs2 == 0 and fe2 ==
      0x7fa and fm2 == 0x1ad5e9ebc09df and rm_val == 2  #nosat'
    : 1 #  rs1_val==dnorm(0x7fa1ad5e9ebc09df) and rs2_val==dnorm(0x7fa1ad5e9ebc09df) | Guard = 0 Round = 0 Sticky = 0 --> Minsubnorm + 0 ulp
    ? 'fs1 == 0 and fe1 == 0x7fa and fm1 == 0x1ad5e9ebc09df and fs2 == 0 and fe2 ==
      0x7fa and fm2 == 0x1ad5e9ebc09df and rm_val == 1  #nosat'
    : 1 #  rs1_val==dnorm(0x7fa1ad5e9ebc09df) and rs2_val==dnorm(0x7fa1ad5e9ebc09df) | Guard = 0 Round = 0 Sticky = 0 --> Minsubnorm + 0 ulp
    ? 'fs1 == 0 and fe1 == 0x7fa and fm1 == 0x1ad5e9ebc09df and fs2 == 0 and fe2 ==
      0x7fa and fm2 == 0x1ad5e9ebc09df and rm_val == 0  #nosat'
    : 1 #  rs1_val==dnorm(0x7fa1ad5e9ebc09df) and rs2_val==dnorm(0x7fa1ad5e9ebc09df) | Guard = 0 Round = 0 Sticky = 0 --> Minsubnorm + 0 ulp
    ? 'fs1 == 0 and fe1 == 0x7fe and fm1 == 0x02b48f992cb49 and fs2 == 0 and fe2 ==
      0x7fe and fm2 == 0x02b48f992cb49 and rm_val == 4  #nosat'
    : 1 #  rs1_val==dnorm(0x7fe02b48f992cb49) and rs2_val==dnorm(0x7fe02b48f992cb49) | Guard = 1 Round = 1 Sticky = 1 --> Minsubnorm + 7 ulp
    ? 'fs1 == 0 and fe1 == 0x7fe and fm1 == 0x02b48f992cb49 and fs2 == 0 and fe2 ==
      0x7fe and fm2 == 0x02b48f992cb49 and rm_val == 3  #nosat'
    : 1 #  rs1_val==dnorm(0x7fe02b48f992cb49) and rs2_val==dnorm(0x7fe02b48f992cb49) | Guard = 1 Round = 1 Sticky = 1 --> Minsubnorm + 7 ulp
    ? 'fs1 == 0 and fe1 == 0x7fe and fm1 == 0x02b48f992cb49 and fs2 == 0 and fe2 ==
      0x7fe and fm2 == 0x02b48f992cb49 and rm_val == 2  #nosat'
    : 1 #  rs1_val==dnorm(0x7fe02b48f992cb49) and rs2_val==dnorm(0x7fe02b48f992cb49) | Guard = 1 Round = 1 Sticky = 1 --> Minsubnorm + 7 ulp
    ? 'fs1 == 0 and fe1 == 0x7fe and fm1 == 0x02b48f992cb49 and fs2 == 0 and fe2 ==
      0x7fe and fm2 == 0x02b48f992cb49 and rm_val == 1  #nosat'
    : 1 #  rs1_val==dnorm(0x7fe02b48f992cb49) and rs2_val==dnorm(0x7fe02b48f992cb49) | Guard = 1 Round = 1 Sticky = 1 --> Minsubnorm + 7 ulp
    ? 'fs1 == 0 and fe1 == 0x7fe and fm1 == 0x02b48f992cb49 and fs2 == 0 and fe2 ==
      0x7fe and fm2 == 0x02b48f992cb49 and rm_val == 0  #nosat'
    : 1 #  rs1_val==dnorm(0x7fe02b48f992cb49) and rs2_val==dnorm(0x7fe02b48f992cb49) | Guard = 1 Round = 1 Sticky = 1 --> Minsubnorm + 7 ulp
    ? 'fs1 == 0 and fe1 == 0x7fe and fm1 == 0xc3d4499ff58c3 and fs2 == 0 and fe2 ==
      0x7fe and fm2 == 0xc3d4499ff58c3 and rm_val == 4  #nosat'
    : 1 #  rs1_val==dnorm(0x7fec3d4499ff58c3) and rs2_val==dnorm(0x7fec3d4499ff58c3) | Guard = 1 Round = 1 Sticky = 0 --> Minsubnorm + 6 ulp
    ? 'fs1 == 0 and fe1 == 0x7fe and fm1 == 0xc3d4499ff58c3 and fs2 == 0 and fe2 ==
      0x7fe and fm2 == 0xc3d4499ff58c3 and rm_val == 3  #nosat'
    : 1 #  rs1_val==dnorm(0x7fec3d4499ff58c3) and rs2_val==dnorm(0x7fec3d4499ff58c3) | Guard = 1 Round = 1 Sticky = 0 --> Minsubnorm + 6 ulp
    ? 'fs1 == 0 and fe1 == 0x7fe and fm1 == 0xc3d4499ff58c3 and fs2 == 0 and fe2 ==
      0x7fe and fm2 == 0xc3d4499ff58c3 and rm_val == 2  #nosat'
    : 1 #  rs1_val==dnorm(0x7fec3d4499ff58c3) and rs2_val==dnorm(0x7fec3d4499ff58c3) | Guard = 1 Round = 1 Sticky = 0 --> Minsubnorm + 6 ulp
    ? 'fs1 == 0 and fe1 == 0x7fe and fm1 == 0xc3d4499ff58c3 and fs2 == 0 and fe2 ==
      0x7fe and fm2 == 0xc3d4499ff58c3 and rm_val == 1  #nosat'
    : 1 #  rs1_val==dnorm(0x7fec3d4499ff58c3) and rs2_val==dnorm(0x7fec3d4499ff58c3) | Guard = 1 Round = 1 Sticky = 0 --> Minsubnorm + 6 ulp
    ? 'fs1 == 0 and fe1 == 0x7fe and fm1 == 0xc3d4499ff58c3 and fs2 == 0 and fe2 ==
      0x7fe and fm2 == 0xc3d4499ff58c3 and rm_val == 0  #nosat'
    : 1 #  rs1_val==dnorm(0x7fec3d4499ff58c3) and rs2_val==dnorm(0x7fec3d4499ff58c3) | Guard = 1 Round = 1 Sticky = 0 --> Minsubnorm + 6 ulp
    ? 'fs1 == 0 and fe1 == 0x7fd and fm1 == 0x36a63c245f557 and fs2 == 0 and fe2 ==
      0x7fd and fm2 == 0x36a63c245f557 and rm_val == 4  #nosat'
    : 1 #  rs1_val==dnorm(0x7fd36a63c245f557) and rs2_val==dnorm(0x7fd36a63c245f557) | Guard = 1 Round = 0 Sticky = 1 --> Minsubnorm + 5 ulp
    ? 'fs1 == 0 and fe1 == 0x7fd and fm1 == 0x36a63c245f557 and fs2 == 0 and fe2 ==
      0x7fd and fm2 == 0x36a63c245f557 and rm_val == 3  #nosat'
    : 1 #  rs1_val==dnorm(0x7fd36a63c245f557) and rs2_val==dnorm(0x7fd36a63c245f557) | Guard = 1 Round = 0 Sticky = 1 --> Minsubnorm + 5 ulp
    ? 'fs1 == 0 and fe1 == 0x7fd and fm1 == 0x36a63c245f557 and fs2 == 0 and fe2 ==
      0x7fd and fm2 == 0x36a63c245f557 and rm_val == 2  #nosat'
    : 1 #  rs1_val==dnorm(0x7fd36a63c245f557) and rs2_val==dnorm(0x7fd36a63c245f557) | Guard = 1 Round = 0 Sticky = 1 --> Minsubnorm + 5 ulp
    ? 'fs1 == 0 and fe1 == 0x7fd and fm1 == 0x36a63c245f557 and fs2 == 0 and fe2 ==
      0x7fd and fm2 == 0x36a63c245f557 and rm_val == 1  #nosat'
    : 1 #  rs1_val==dnorm(0x7fd36a63c245f557) and rs2_val==dnorm(0x7fd36a63c245f557) | Guard = 1 Round = 0 Sticky = 1 --> Minsubnorm + 5 ulp
    ? 'fs1 == 0 and fe1 == 0x7fd and fm1 == 0x36a63c245f557 and fs2 == 0 and fe2 ==
      0x7fd and fm2 == 0x36a63c245f557 and rm_val == 0  #nosat'
    : 1 #  rs1_val==dnorm(0x7fd36a63c245f557) and rs2_val==dnorm(0x7fd36a63c245f557) | Guard = 1 Round = 0 Sticky = 1 --> Minsubnorm + 5 ulp
    ? 'fs1 == 0 and fe1 == 0x7fe and fm1 == 0xa8fa703a4078c and fs2 == 0 and fe2 ==
      0x7fe and fm2 == 0xa8fa703a4078c and rm_val == 4  #nosat'
    : 1 #  rs1_val==dnorm(0x7fea8fa703a4078c) and rs2_val==dnorm(0x7fea8fa703a4078c) | Guard = 1 Round = 0 Sticky = 0 --> Minsubnorm + 4 ulp
    ? 'fs1 == 0 and fe1 == 0x7fe and fm1 == 0xa8fa703a4078c and fs2 == 0 and fe2 ==
      0x7fe and fm2 == 0xa8fa703a4078c and rm_val == 3  #nosat'
    : 1 #  rs1_val==dnorm(0x7fea8fa703a4078c) and rs2_val==dnorm(0x7fea8fa703a4078c) | Guard = 1 Round = 0 Sticky = 0 --> Minsubnorm + 4 ulp
    ? 'fs1 == 0 and fe1 == 0x7fe and fm1 == 0xa8fa703a4078c and fs2 == 0 and fe2 ==
      0x7fe and fm2 == 0xa8fa703a4078c and rm_val == 2  #nosat'
    : 1 #  rs1_val==dnorm(0x7fea8fa703a4078c) and rs2_val==dnorm(0x7fea8fa703a4078c) | Guard = 1 Round = 0 Sticky = 0 --> Minsubnorm + 4 ulp
    ? 'fs1 == 0 and fe1 == 0x7fe and fm1 == 0xa8fa703a4078c and fs2 == 0 and fe2 ==
      0x7fe and fm2 == 0xa8fa703a4078c and rm_val == 1  #nosat'
    : 1 #  rs1_val==dnorm(0x7fea8fa703a4078c) and rs2_val==dnorm(0x7fea8fa703a4078c) | Guard = 1 Round = 0 Sticky = 0 --> Minsubnorm + 4 ulp
    ? 'fs1 == 0 and fe1 == 0x7fe and fm1 == 0xa8fa703a4078c and fs2 == 0 and fe2 ==
      0x7fe and fm2 == 0xa8fa703a4078c and rm_val == 0  #nosat'
    : 1 #  rs1_val==dnorm(0x7fea8fa703a4078c) and rs2_val==dnorm(0x7fea8fa703a4078c) | Guard = 1 Round = 0 Sticky = 0 --> Minsubnorm + 4 ulp
    ? 'fs1 == 0 and fe1 == 0x7fe and fm1 == 0xdf7523fde6c5d and fs2 == 0 and fe2 ==
      0x7fe and fm2 == 0xdf7523fde6c5d and rm_val == 4  #nosat'
    : 1 #  rs1_val==dnorm(0x7fedf7523fde6c5d) and rs2_val==dnorm(0x7fedf7523fde6c5d) | Guard = 0 Round = 1 Sticky = 1 --> Minsubnorm + 3 ulp
    ? 'fs1 == 0 and fe1 == 0x7fe and fm1 == 0xdf7523fde6c5d and fs2 == 0 and fe2 ==
      0x7fe and fm2 == 0xdf7523fde6c5d and rm_val == 3  #nosat'
    : 1 #  rs1_val==dnorm(0x7fedf7523fde6c5d) and rs2_val==dnorm(0x7fedf7523fde6c5d) | Guard = 0 Round = 1 Sticky = 1 --> Minsubnorm + 3 ulp
    ? 'fs1 == 0 and fe1 == 0x7fe and fm1 == 0xdf7523fde6c5d and fs2 == 0 and fe2 ==
      0x7fe and fm2 == 0xdf7523fde6c5d and rm_val == 2  #nosat'
    : 1 #  rs1_val==dnorm(0x7fedf7523fde6c5d) and rs2_val==dnorm(0x7fedf7523fde6c5d) | Guard = 0 Round = 1 Sticky = 1 --> Minsubnorm + 3 ulp
    ? 'fs1 == 0 and fe1 == 0x7fe and fm1 == 0xdf7523fde6c5d and fs2 == 0 and fe2 ==
      0x7fe and fm2 == 0xdf7523fde6c5d and rm_val == 1  #nosat'
    : 1 #  rs1_val==dnorm(0x7fedf7523fde6c5d) and rs2_val==dnorm(0x7fedf7523fde6c5d) | Guard = 0 Round = 1 Sticky = 1 --> Minsubnorm + 3 ulp
    ? 'fs1 == 0 and fe1 == 0x7fe and fm1 == 0xdf7523fde6c5d and fs2 == 0 and fe2 ==
      0x7fe and fm2 == 0xdf7523fde6c5d and rm_val == 0  #nosat'
    : 1 #  rs1_val==dnorm(0x7fedf7523fde6c5d) and rs2_val==dnorm(0x7fedf7523fde6c5d) | Guard = 0 Round = 1 Sticky = 1 --> Minsubnorm + 3 ulp
    ? 'fs1 == 0 and fe1 == 0x7fe and fm1 == 0x7166677e49c3c and fs2 == 0 and fe2 ==
      0x7fe and fm2 == 0x7166677e49c3c and rm_val == 4  #nosat'
    : 1 #  rs1_val==dnorm(0x7fe7166677e49c3c) and rs2_val==dnorm(0x7fe7166677e49c3c) | Guard = 0 Round = 1 Sticky = 0 --> Minsubnorm + 2 ulp
    ? 'fs1 == 0 and fe1 == 0x7fe and fm1 == 0x7166677e49c3c and fs2 == 0 and fe2 ==
      0x7fe and fm2 == 0x7166677e49c3c and rm_val == 3  #nosat'
    : 1 #  rs1_val==dnorm(0x7fe7166677e49c3c) and rs2_val==dnorm(0x7fe7166677e49c3c) | Guard = 0 Round = 1 Sticky = 0 --> Minsubnorm + 2 ulp
    ? 'fs1 == 0 and fe1 == 0x7fe and fm1 == 0x7166677e49c3c and fs2 == 0 and fe2 ==
      0x7fe and fm2 == 0x7166677e49c3c and rm_val == 2  #nosat'
    : 1 #  rs1_val==dnorm(0x7fe7166677e49c3c) and rs2_val==dnorm(0x7fe7166677e49c3c) | Guard = 0 Round = 1 Sticky = 0 --> Minsubnorm + 2 ulp
    ? 'fs1 == 0 and fe1 == 0x7fe and fm1 == 0x7166677e49c3c and fs2 == 0 and fe2 ==
      0x7fe and fm2 == 0x7166677e49c3c and rm_val == 1  #nosat'
    : 1 #  rs1_val==dnorm(0x7fe7166677e49c3c) and rs2_val==dnorm(0x7fe7166677e49c3c) | Guard = 0 Round = 1 Sticky = 0 --> Minsubnorm + 2 ulp
    ? 'fs1 == 0 and fe1 == 0x7fe and fm1 == 0x7166677e49c3c and fs2 == 0 and fe2 ==
      0x7fe and fm2 == 0x7166677e49c3c and rm_val == 0  #nosat'
    : 1 #  rs1_val==dnorm(0x7fe7166677e49c3c) and rs2_val==dnorm(0x7fe7166677e49c3c) | Guard = 0 Round = 1 Sticky = 0 --> Minsubnorm + 2 ulp
    ? 'fs1 == 0 and fe1 == 0x7fb and fm1 == 0xef2a4f7c7db7f and fs2 == 0 and fe2 ==
      0x7fb and fm2 == 0xef2a4f7c7db7f and rm_val == 4  #nosat'
    : 1 #  rs1_val==dnorm(0x7fbef2a4f7c7db7f) and rs2_val==dnorm(0x7fbef2a4f7c7db7f) | Guard = 0 Round = 0 Sticky = 1 --> Minsubnorm + 1 ulp
    ? 'fs1 == 0 and fe1 == 0x7fb and fm1 == 0xef2a4f7c7db7f and fs2 == 0 and fe2 ==
      0x7fb and fm2 == 0xef2a4f7c7db7f and rm_val == 3  #nosat'
    : 1 #  rs1_val==dnorm(0x7fbef2a4f7c7db7f) and rs2_val==dnorm(0x7fbef2a4f7c7db7f) | Guard = 0 Round = 0 Sticky = 1 --> Minsubnorm + 1 ulp
    ? 'fs1 == 0 and fe1 == 0x7fb and fm1 == 0xef2a4f7c7db7f and fs2 == 0 and fe2 ==
      0x7fb and fm2 == 0xef2a4f7c7db7f and rm_val == 2  #nosat'
    : 1 #  rs1_val==dnorm(0x7fbef2a4f7c7db7f) and rs2_val==dnorm(0x7fbef2a4f7c7db7f) | Guard = 0 Round = 0 Sticky = 1 --> Minsubnorm + 1 ulp
    ? 'fs1 == 0 and fe1 == 0x7fb and fm1 == 0xef2a4f7c7db7f and fs2 == 0 and fe2 ==
      0x7fb and fm2 == 0xef2a4f7c7db7f and rm_val == 1  #nosat'
    : 1 #  rs1_val==dnorm(0x7fbef2a4f7c7db7f) and rs2_val==dnorm(0x7fbef2a4f7c7db7f) | Guard = 0 Round = 0 Sticky = 1 --> Minsubnorm + 1 ulp
    ? 'fs1 == 0 and fe1 == 0x7fb and fm1 == 0xef2a4f7c7db7f and fs2 == 0 and fe2 ==
      0x7fb and fm2 == 0xef2a4f7c7db7f and rm_val == 0  #nosat'
    : 1 #  rs1_val==dnorm(0x7fbef2a4f7c7db7f) and rs2_val==dnorm(0x7fbef2a4f7c7db7f) | Guard = 0 Round = 0 Sticky = 1 --> Minsubnorm + 1 ulp
    ? 'fs1 == 0 and fe1 == 0x7fe and fm1 == 0xfc2ea66e5019e and fs2 == 0 and fe2 ==
      0x7fe and fm2 == 0xfc2ea66e5019e and rm_val == 4  #nosat'
    : 1 #  rs1_val==dnorm(0x7fefc2ea66e5019e) and rs2_val==dnorm(0x7fefc2ea66e5019e) | Exponent = MinNorm.exp + 5
    ? 'fs1 == 0 and fe1 == 0x7fe and fm1 == 0xfc2ea66e5019e and fs2 == 0 and fe2 ==
      0x7fe and fm2 == 0xfc2ea66e5019e and rm_val == 3  #nosat'
    : 1 #  rs1_val==dnorm(0x7fefc2ea66e5019e) and rs2_val==dnorm(0x7fefc2ea66e5019e) | Exponent = MinNorm.exp + 5
    ? 'fs1 == 0 and fe1 == 0x7fe and fm1 == 0xfc2ea66e5019e and fs2 == 0 and fe2 ==
      0x7fe and fm2 == 0xfc2ea66e5019e and rm_val == 2  #nosat'
    : 1 #  rs1_val==dnorm(0x7fefc2ea66e5019e) and rs2_val==dnorm(0x7fefc2ea66e5019e) | Exponent = MinNorm.exp + 5
    ? 'fs1 == 0 and fe1 == 0x7fe and fm1 == 0xfc2ea66e5019e and fs2 == 0 and fe2 ==
      0x7fe and fm2 == 0xfc2ea66e5019e and rm_val == 1  #nosat'
    : 1 #  rs1_val==dnorm(0x7fefc2ea66e5019e) and rs2_val==dnorm(0x7fefc2ea66e5019e) | Exponent = MinNorm.exp + 5
    ? 'fs1 == 0 and fe1 == 0x7fe and fm1 == 0xfc2ea66e5019e and fs2 == 0 and fe2 ==
      0x7fe and fm2 == 0xfc2ea66e5019e and rm_val == 0  #nosat'
    : 1 #  rs1_val==dnorm(0x7fefc2ea66e5019e) and rs2_val==dnorm(0x7fefc2ea66e5019e) | Exponent = MinNorm.exp + 5
    ? 'fs1 == 0 and fe1 == 0x7fe and fm1 == 0x48dace8666677 and fs2 == 0 and fe2 ==
      0x7fe and fm2 == 0x48dace8666677 and rm_val == 4  #nosat'
    : 1 #  rs1_val==dnorm(0x7fe48dace8666677) and rs2_val==dnorm(0x7fe48dace8666677) | Exponent = MinNorm.exp + 4
    ? 'fs1 == 0 and fe1 == 0x7fe and fm1 == 0x48dace8666677 and fs2 == 0 and fe2 ==
      0x7fe and fm2 == 0x48dace8666677 and rm_val == 3  #nosat'
    : 1 #  rs1_val==dnorm(0x7fe48dace8666677) and rs2_val==dnorm(0x7fe48dace8666677) | Exponent = MinNorm.exp + 4
    ? 'fs1 == 0 and fe1 == 0x7fe and fm1 == 0x48dace8666677 and fs2 == 0 and fe2 ==
      0x7fe and fm2 == 0x48dace8666677 and rm_val == 2  #nosat'
    : 1 #  rs1_val==dnorm(0x7fe48dace8666677) and rs2_val==dnorm(0x7fe48dace8666677) | Exponent = MinNorm.exp + 4
    ? 'fs1 == 0 and fe1 == 0x7fe and fm1 == 0x48dace8666677 and fs2 == 0 and fe2 ==
      0x7fe and fm2 == 0x48dace8666677 and rm_val == 1  #nosat'
    : 1 #  rs1_val==dnorm(0x7fe48dace8666677) and rs2_val==dnorm(0x7fe48dace8666677) | Exponent = MinNorm.exp + 4
    ? 'fs1 == 0 and fe1 == 0x7fe and fm1 == 0x48dace8666677 and fs2 == 0 and fe2 ==
      0x7fe and fm2 == 0x48dace8666677 and rm_val == 0  #nosat'
    : 1 #  rs1_val==dnorm(0x7fe48dace8666677) and rs2_val==dnorm(0x7fe48dace8666677) | Exponent = MinNorm.exp + 4
    ? 'fs1 == 0 and fe1 == 0x7fe and fm1 == 0xacd7053aa42a2 and fs2 == 0 and fe2 ==
      0x7fe and fm2 == 0xacd7053aa42a2 and rm_val == 4  #nosat'
    : 1 #  rs1_val==dnorm(0x7feacd7053aa42a2) and rs2_val==dnorm(0x7feacd7053aa42a2) | Exponent = MinNorm.exp + 3
    ? 'fs1 == 0 and fe1 == 0x7fe and fm1 == 0xacd7053aa42a2 and fs2 == 0 and fe2 ==
      0x7fe and fm2 == 0xacd7053aa42a2 and rm_val == 3  #nosat'
    : 1 #  rs1_val==dnorm(0x7feacd7053aa42a2) and rs2_val==dnorm(0x7feacd7053aa42a2) | Exponent = MinNorm.exp + 3
    ? 'fs1 == 0 and fe1 == 0x7fe and fm1 == 0xacd7053aa42a2 and fs2 == 0 and fe2 ==
      0x7fe and fm2 == 0xacd7053aa42a2 and rm_val == 2  #nosat'
    : 1 #  rs1_val==dnorm(0x7feacd7053aa42a2) and rs2_val==dnorm(0x7feacd7053aa42a2) | Exponent = MinNorm.exp + 3
    ? 'fs1 == 0 and fe1 == 0x7fe and fm1 == 0xacd7053aa42a2 and fs2 == 0 and fe2 ==
      0x7fe and fm2 == 0xacd7053aa42a2 and rm_val == 1  #nosat'
    : 1 #  rs1_val==dnorm(0x7feacd7053aa42a2) and rs2_val==dnorm(0x7feacd7053aa42a2) | Exponent = MinNorm.exp + 3
    ? 'fs1 == 0 and fe1 == 0x7fe and fm1 == 0xacd7053aa42a2 and fs2 == 0 and fe2 ==
      0x7fe and fm2 == 0xacd7053aa42a2 and rm_val == 0  #nosat'
    : 1 #  rs1_val==dnorm(0x7feacd7053aa42a2) and rs2_val==dnorm(0x7feacd7053aa42a2) | Exponent = MinNorm.exp + 3
    ? 'fs1 == 0 and fe1 == 0x7fd and fm1 == 0x28bc82f697c4d and fs2 == 0 and fe2 ==
      0x7fd and fm2 == 0x28bc82f697c4d and rm_val == 4  #nosat'
    : 1 #  rs1_val==dnorm(0x7fd28bc82f697c4d) and rs2_val==dnorm(0x7fd28bc82f697c4d) | Exponent = MinNorm.exp + 2
    ? 'fs1 == 0 and fe1 == 0x7fd and fm1 == 0x28bc82f697c4d and fs2 == 0 and fe2 ==
      0x7fd and fm2 == 0x28bc82f697c4d and rm_val == 3  #nosat'
    : 1 #  rs1_val==dnorm(0x7fd28bc82f697c4d) and rs2_val==dnorm(0x7fd28bc82f697c4d) | Exponent = MinNorm.exp + 2
    ? 'fs1 == 0 and fe1 == 0x7fd and fm1 == 0x28bc82f697c4d and fs2 == 0 and fe2 ==
      0x7fd and fm2 == 0x28bc82f697c4d and rm_val == 2  #nosat'
    : 1 #  rs1_val==dnorm(0x7fd28bc82f697c4d) and rs2_val==dnorm(0x7fd28bc82f697c4d) | Exponent = MinNorm.exp + 2
    ? 'fs1 == 0 and fe1 == 0x7fd and fm1 == 0x28bc82f697c4d and fs2 == 0 and fe2 ==
      0x7fd and fm2 == 0x28bc82f697c4d and rm_val == 1  #nosat'
    : 1 #  rs1_val==dnorm(0x7fd28bc82f697c4d) and rs2_val==dnorm(0x7fd28bc82f697c4d) | Exponent = MinNorm.exp + 2
    ? 'fs1 == 0 and fe1 == 0x7fd and fm1 == 0x28bc82f697c4d and fs2 == 0 and fe2 ==
      0x7fd and fm2 == 0x28bc82f697c4d and rm_val == 0  #nosat'
    : 1 #  rs1_val==dnorm(0x7fd28bc82f697c4d) and rs2_val==dnorm(0x7fd28bc82f697c4d) | Exponent = MinNorm.exp + 2
    ? 'fs1 == 0 and fe1 == 0x7fc and fm1 == 0xc01045c2cd787 and fs2 == 0 and fe2 ==
      0x7fc and fm2 == 0xc01045c2cd787 and rm_val == 4  #nosat'
    : 1 #  rs1_val==dnorm(0x7fcc01045c2cd787) and rs2_val==dnorm(0x7fcc01045c2cd787) | Exponent = MinNorm.exp + 1
    ? 'fs1 == 0 and fe1 == 0x7fc and fm1 == 0xc01045c2cd787 and fs2 == 0 and fe2 ==
      0x7fc and fm2 == 0xc01045c2cd787 and rm_val == 3  #nosat'
    : 1 #  rs1_val==dnorm(0x7fcc01045c2cd787) and rs2_val==dnorm(0x7fcc01045c2cd787) | Exponent = MinNorm.exp + 1
    ? 'fs1 == 0 and fe1 == 0x7fc and fm1 == 0xc01045c2cd787 and fs2 == 0 and fe2 ==
      0x7fc and fm2 == 0xc01045c2cd787 and rm_val == 2  #nosat'
    : 1 #  rs1_val==dnorm(0x7fcc01045c2cd787) and rs2_val==dnorm(0x7fcc01045c2cd787) | Exponent = MinNorm.exp + 1
    ? 'fs1 == 0 and fe1 == 0x7fc and fm1 == 0xc01045c2cd787 and fs2 == 0 and fe2 ==
      0x7fc and fm2 == 0xc01045c2cd787 and rm_val == 1  #nosat'
    : 1 #  rs1_val==dnorm(0x7fcc01045c2cd787) and rs2_val==dnorm(0x7fcc01045c2cd787) | Exponent = MinNorm.exp + 1
    ? 'fs1 == 0 and fe1 == 0x7fc and fm1 == 0xc01045c2cd787 and fs2 == 0 and fe2 ==
      0x7fc and fm2 == 0xc01045c2cd787 and rm_val == 0  #nosat'
    : 1 #  rs1_val==dnorm(0x7fcc01045c2cd787) and rs2_val==dnorm(0x7fcc01045c2cd787) | Exponent = MinNorm.exp + 1
    ? 'fs1 == 0 and fe1 == 0x7fc and fm1 == 0xdd5b61587fd27 and fs2 == 0 and fe2 ==
      0x7fc and fm2 == 0xdd5b61587fd27 and rm_val == 4  #nosat'
    : 1 #  rs1_val==dnorm(0x7fcdd5b61587fd27) and rs2_val==dnorm(0x7fcdd5b61587fd27) | Guard = 1 Round = 1 Sticky = 1 --> Minnorm + 7 ulp
    ? 'fs1 == 0 and fe1 == 0x7fc and fm1 == 0xdd5b61587fd27 and fs2 == 0 and fe2 ==
      0x7fc and fm2 == 0xdd5b61587fd27 and rm_val == 3  #nosat'
    : 1 #  rs1_val==dnorm(0x7fcdd5b61587fd27) and rs2_val==dnorm(0x7fcdd5b61587fd27) | Guard = 1 Round = 1 Sticky = 1 --> Minnorm + 7 ulp
    ? 'fs1 == 0 and fe1 == 0x7fc and fm1 == 0xdd5b61587fd27 and fs2 == 0 and fe2 ==
      0x7fc and fm2 == 0xdd5b61587fd27 and rm_val == 2  #nosat'
    : 1 #  rs1_val==dnorm(0x7fcdd5b61587fd27) and rs2_val==dnorm(0x7fcdd5b61587fd27) | Guard = 1 Round = 1 Sticky = 1 --> Minnorm + 7 ulp
    ? 'fs1 == 0 and fe1 == 0x7fc and fm1 == 0xdd5b61587fd27 and fs2 == 0 and fe2 ==
      0x7fc and fm2 == 0xdd5b61587fd27 and rm_val == 1  #nosat'
    : 1 #  rs1_val==dnorm(0x7fcdd5b61587fd27) and rs2_val==dnorm(0x7fcdd5b61587fd27) | Guard = 1 Round = 1 Sticky = 1 --> Minnorm + 7 ulp
    ? 'fs1 == 0 and fe1 == 0x7fc and fm1 == 0xdd5b61587fd27 and fs2 == 0 and fe2 ==
      0x7fc and fm2 == 0xdd5b61587fd27 and rm_val == 0  #nosat'
    : 1 #  rs1_val==dnorm(0x7fcdd5b61587fd27) and rs2_val==dnorm(0x7fcdd5b61587fd27) | Guard = 1 Round = 1 Sticky = 1 --> Minnorm + 7 ulp
    ? 'fs1 == 0 and fe1 == 0x7fd and fm1 == 0xc0659af8369fd and fs2 == 0 and fe2 ==
      0x7fd and fm2 == 0xc0659af8369fd and rm_val == 4  #nosat'
    : 1 #  rs1_val==dnorm(0x7fdc0659af8369fd) and rs2_val==dnorm(0x7fdc0659af8369fd) | Guard = 1 Round = 1 Sticky = 0 --> Minnorm + 6 ulp
    ? 'fs1 == 0 and fe1 == 0x7fd and fm1 == 0xc0659af8369fd and fs2 == 0 and fe2 ==
      0x7fd and fm2 == 0xc0659af8369fd and rm_val == 3  #nosat'
    : 1 #  rs1_val==dnorm(0x7fdc0659af8369fd) and rs2_val==dnorm(0x7fdc0659af8369fd) | Guard = 1 Round = 1 Sticky = 0 --> Minnorm + 6 ulp
    ? 'fs1 == 0 and fe1 == 0x7fd and fm1 == 0xc0659af8369fd and fs2 == 0 and fe2 ==
      0x7fd and fm2 == 0xc0659af8369fd and rm_val == 2  #nosat'
    : 1 #  rs1_val==dnorm(0x7fdc0659af8369fd) and rs2_val==dnorm(0x7fdc0659af8369fd) | Guard = 1 Round = 1 Sticky = 0 --> Minnorm + 6 ulp
    ? 'fs1 == 0 and fe1 == 0x7fd and fm1 == 0xc0659af8369fd and fs2 == 0 and fe2 ==
      0x7fd and fm2 == 0xc0659af8369fd and rm_val == 1  #nosat'
    : 1 #  rs1_val==dnorm(0x7fdc0659af8369fd) and rs2_val==dnorm(0x7fdc0659af8369fd) | Guard = 1 Round = 1 Sticky = 0 --> Minnorm + 6 ulp
    ? 'fs1 == 0 and fe1 == 0x7fd and fm1 == 0xc0659af8369fd and fs2 == 0 and fe2 ==
      0x7fd and fm2 == 0xc0659af8369fd and rm_val == 0  #nosat'
    : 1 #  rs1_val==dnorm(0x7fdc0659af8369fd) and rs2_val==dnorm(0x7fdc0659af8369fd) | Guard = 1 Round = 1 Sticky = 0 --> Minnorm + 6 ulp
    ? 'fs1 == 0 and fe1 == 0x7f9 and fm1 == 0xdbcde43895c3f and fs2 == 0 and fe2 ==
      0x7f9 and fm2 == 0xdbcde43895c3f and rm_val == 4  #nosat'
    : 1 #  rs1_val==dnorm(0x7f9dbcde43895c3f) and rs2_val==dnorm(0x7f9dbcde43895c3f) | Guard = 1 Round = 0 Sticky = 1 --> Minnorm + 5 ulp
    ? 'fs1 == 0 and fe1 == 0x7f9 and fm1 == 0xdbcde43895c3f and fs2 == 0 and fe2 ==
      0x7f9 and fm2 == 0xdbcde43895c3f and rm_val == 3  #nosat'
    : 1 #  rs1_val==dnorm(0x7f9dbcde43895c3f) and rs2_val==dnorm(0x7f9dbcde43895c3f) | Guard = 1 Round = 0 Sticky = 1 --> Minnorm + 5 ulp
    ? 'fs1 == 0 and fe1 == 0x7f9 and fm1 == 0xdbcde43895c3f and fs2 == 0 and fe2 ==
      0x7f9 and fm2 == 0xdbcde43895c3f and rm_val == 2  #nosat'
    : 1 #  rs1_val==dnorm(0x7f9dbcde43895c3f) and rs2_val==dnorm(0x7f9dbcde43895c3f) | Guard = 1 Round = 0 Sticky = 1 --> Minnorm + 5 ulp
    ? 'fs1 == 0 and fe1 == 0x7f9 and fm1 == 0xdbcde43895c3f and fs2 == 0 and fe2 ==
      0x7f9 and fm2 == 0xdbcde43895c3f and rm_val == 1  #nosat'
    : 1 #  rs1_val==dnorm(0x7f9dbcde43895c3f) and rs2_val==dnorm(0x7f9dbcde43895c3f) | Guard = 1 Round = 0 Sticky = 1 --> Minnorm + 5 ulp
    ? 'fs1 == 0 and fe1 == 0x7f9 and fm1 == 0xdbcde43895c3f and fs2 == 0 and fe2 ==
      0x7f9 and fm2 == 0xdbcde43895c3f and rm_val == 0  #nosat'
    : 1 #  rs1_val==dnorm(0x7f9dbcde43895c3f) and rs2_val==dnorm(0x7f9dbcde43895c3f) | Guard = 1 Round = 0 Sticky = 1 --> Minnorm + 5 ulp
    ? 'fs1 == 0 and fe1 == 0x7fc and fm1 == 0xbb9876f8130c3 and fs2 == 0 and fe2 ==
      0x7fc and fm2 == 0xbb9876f8130c3 and rm_val == 4  #nosat'
    : 1 #  rs1_val==dnorm(0x7fcbb9876f8130c3) and rs2_val==dnorm(0x7fcbb9876f8130c3) | Guard = 1 Round = 0 Sticky = 0 --> Minnorm + 4 ulp
    ? 'fs1 == 0 and fe1 == 0x7fc and fm1 == 0xbb9876f8130c3 and fs2 == 0 and fe2 ==
      0x7fc and fm2 == 0xbb9876f8130c3 and rm_val == 3  #nosat'
    : 1 #  rs1_val==dnorm(0x7fcbb9876f8130c3) and rs2_val==dnorm(0x7fcbb9876f8130c3) | Guard = 1 Round = 0 Sticky = 0 --> Minnorm + 4 ulp
    ? 'fs1 == 0 and fe1 == 0x7fc and fm1 == 0xbb9876f8130c3 and fs2 == 0 and fe2 ==
      0x7fc and fm2 == 0xbb9876f8130c3 and rm_val == 2  #nosat'
    : 1 #  rs1_val==dnorm(0x7fcbb9876f8130c3) and rs2_val==dnorm(0x7fcbb9876f8130c3) | Guard = 1 Round = 0 Sticky = 0 --> Minnorm + 4 ulp
    ? 'fs1 == 0 and fe1 == 0x7fc and fm1 == 0xbb9876f8130c3 and fs2 == 0 and fe2 ==
      0x7fc and fm2 == 0xbb9876f8130c3 and rm_val == 1  #nosat'
    : 1 #  rs1_val==dnorm(0x7fcbb9876f8130c3) and rs2_val==dnorm(0x7fcbb9876f8130c3) | Guard = 1 Round = 0 Sticky = 0 --> Minnorm + 4 ulp
    ? 'fs1 == 0 and fe1 == 0x7fc and fm1 == 0xbb9876f8130c3 and fs2 == 0 and fe2 ==
      0x7fc and fm2 == 0xbb9876f8130c3 and rm_val == 0  #nosat'
    : 1 #  rs1_val==dnorm(0x7fcbb9876f8130c3) and rs2_val==dnorm(0x7fcbb9876f8130c3) | Guard = 1 Round = 0 Sticky = 0 --> Minnorm + 4 ulp
    ? 'fs1 == 0 and fe1 == 0x7fe and fm1 == 0xe0d828b86622a and fs2 == 0 and fe2 ==
      0x7fe and fm2 == 0xe0d828b86622a and rm_val == 4  #nosat'
    : 1 #  rs1_val==dnorm(0x7fee0d828b86622a) and rs2_val==dnorm(0x7fee0d828b86622a) | Guard = 0 Round = 1 Sticky = 1 --> Minnorm + 3 ulp
    ? 'fs1 == 0 and fe1 == 0x7fe and fm1 == 0xe0d828b86622a and fs2 == 0 and fe2 ==
      0x7fe and fm2 == 0xe0d828b86622a and rm_val == 3  #nosat'
    : 1 #  rs1_val==dnorm(0x7fee0d828b86622a) and rs2_val==dnorm(0x7fee0d828b86622a) | Guard = 0 Round = 1 Sticky = 1 --> Minnorm + 3 ulp
    ? 'fs1 == 0 and fe1 == 0x7fe and fm1 == 0xe0d828b86622a and fs2 == 0 and fe2 ==
      0x7fe and fm2 == 0xe0d828b86622a and rm_val == 2  #nosat'
    : 1 #  rs1_val==dnorm(0x7fee0d828b86622a) and rs2_val==dnorm(0x7fee0d828b86622a) | Guard = 0 Round = 1 Sticky = 1 --> Minnorm + 3 ulp
    ? 'fs1 == 0 and fe1 == 0x7fe and fm1 == 0xe0d828b86622a and fs2 == 0 and fe2 ==
      0x7fe and fm2 == 0xe0d828b86622a and rm_val == 1  #nosat'
    : 1 #  rs1_val==dnorm(0x7fee0d828b86622a) and rs2_val==dnorm(0x7fee0d828b86622a) | Guard = 0 Round = 1 Sticky = 1 --> Minnorm + 3 ulp
    ? 'fs1 == 0 and fe1 == 0x7fe and fm1 == 0xe0d828b86622a and fs2 == 0 and fe2 ==
      0x7fe and fm2 == 0xe0d828b86622a and rm_val == 0  #nosat'
    : 1 #  rs1_val==dnorm(0x7fee0d828b86622a) and rs2_val==dnorm(0x7fee0d828b86622a) | Guard = 0 Round = 1 Sticky = 1 --> Minnorm + 3 ulp
    ? 'fs1 == 0 and fe1 == 0x7f9 and fm1 == 0xa0e7ad32453df and fs2 == 0 and fe2 ==
      0x7f9 and fm2 == 0xa0e7ad32453df and rm_val == 4  #nosat'
    : 1 #  rs1_val==dnorm(0x7f9a0e7ad32453df) and rs2_val==dnorm(0x7f9a0e7ad32453df) | Guard = 0 Round = 1 Sticky = 0 --> Minnorm + 2 ulp
    ? 'fs1 == 0 and fe1 == 0x7f9 and fm1 == 0xa0e7ad32453df and fs2 == 0 and fe2 ==
      0x7f9 and fm2 == 0xa0e7ad32453df and rm_val == 3  #nosat'
    : 1 #  rs1_val==dnorm(0x7f9a0e7ad32453df) and rs2_val==dnorm(0x7f9a0e7ad32453df) | Guard = 0 Round = 1 Sticky = 0 --> Minnorm + 2 ulp
    ? 'fs1 == 0 and fe1 == 0x7f9 and fm1 == 0xa0e7ad32453df and fs2 == 0 and fe2 ==
      0x7f9 and fm2 == 0xa0e7ad32453df and rm_val == 2  #nosat'
    : 1 #  rs1_val==dnorm(0x7f9a0e7ad32453df) and rs2_val==dnorm(0x7f9a0e7ad32453df) | Guard = 0 Round = 1 Sticky = 0 --> Minnorm + 2 ulp
    ? 'fs1 == 0 and fe1 == 0x7f9 and fm1 == 0xa0e7ad32453df and fs2 == 0 and fe2 ==
      0x7f9 and fm2 == 0xa0e7ad32453df and rm_val == 1  #nosat'
    : 1 #  rs1_val==dnorm(0x7f9a0e7ad32453df) and rs2_val==dnorm(0x7f9a0e7ad32453df) | Guard = 0 Round = 1 Sticky = 0 --> Minnorm + 2 ulp
    ? 'fs1 == 0 and fe1 == 0x7f9 and fm1 == 0xa0e7ad32453df and fs2 == 0 and fe2 ==
      0x7f9 and fm2 == 0xa0e7ad32453df and rm_val == 0  #nosat'
    : 1 #  rs1_val==dnorm(0x7f9a0e7ad32453df) and rs2_val==dnorm(0x7f9a0e7ad32453df) | Guard = 0 Round = 1 Sticky = 0 --> Minnorm + 2 ulp
    ? 'fs1 == 0 and fe1 == 0x7fe and fm1 == 0xcd87e65450c45 and fs2 == 0 and fe2 ==
      0x7fe and fm2 == 0xcd87e65450c45 and rm_val == 4  #nosat'
    : 1 #  rs1_val==dnorm(0x7fecd87e65450c45) and rs2_val==dnorm(0x7fecd87e65450c45) | Guard = 0 Round = 0 Sticky = 1 --> Minnorm + 1 ulp
    ? 'fs1 == 0 and fe1 == 0x7fe and fm1 == 0xcd87e65450c45 and fs2 == 0 and fe2 ==
      0x7fe and fm2 == 0xcd87e65450c45 and rm_val == 3  #nosat'
    : 1 #  rs1_val==dnorm(0x7fecd87e65450c45) and rs2_val==dnorm(0x7fecd87e65450c45) | Guard = 0 Round = 0 Sticky = 1 --> Minnorm + 1 ulp
    ? 'fs1 == 0 and fe1 == 0x7fe and fm1 == 0xcd87e65450c45 and fs2 == 0 and fe2 ==
      0x7fe and fm2 == 0xcd87e65450c45 and rm_val == 2  #nosat'
    : 1 #  rs1_val==dnorm(0x7fecd87e65450c45) and rs2_val==dnorm(0x7fecd87e65450c45) | Guard = 0 Round = 0 Sticky = 1 --> Minnorm + 1 ulp
    ? 'fs1 == 0 and fe1 == 0x7fe and fm1 == 0xcd87e65450c45 and fs2 == 0 and fe2 ==
      0x7fe and fm2 == 0xcd87e65450c45 and rm_val == 1  #nosat'
    : 1 #  rs1_val==dnorm(0x7fecd87e65450c45) and rs2_val==dnorm(0x7fecd87e65450c45) | Guard = 0 Round = 0 Sticky = 1 --> Minnorm + 1 ulp
    ? 'fs1 == 0 and fe1 == 0x7fe and fm1 == 0xcd87e65450c45 and fs2 == 0 and fe2 ==
      0x7fe and fm2 == 0xcd87e65450c45 and rm_val == 0  #nosat'
    : 1 #  rs1_val==dnorm(0x7fecd87e65450c45) and rs2_val==dnorm(0x7fecd87e65450c45) | Guard = 0 Round = 0 Sticky = 1 --> Minnorm + 1 ulp
    ? 'fs1 == 0 and fe1 == 0x7fc and fm1 == 0xd481499755d4b and fs2 == 0 and fe2 ==
      0x7fc and fm2 == 0xd481499755d4b and rm_val == 4  #nosat'
    : 1 #  rs1_val==dnorm(0x7fcd481499755d4b) and rs2_val==dnorm(0x7fcd481499755d4b) | Guard = 0 Round = 0 Sticky = 0 --> Minnorm + 0 ulp
    ? 'fs1 == 0 and fe1 == 0x7fc and fm1 == 0xd481499755d4b and fs2 == 0 and fe2 ==
      0x7fc and fm2 == 0xd481499755d4b and rm_val == 3  #nosat'
    : 1 #  rs1_val==dnorm(0x7fcd481499755d4b) and rs2_val==dnorm(0x7fcd481499755d4b) | Guard = 0 Round = 0 Sticky = 0 --> Minnorm + 0 ulp
    ? 'fs1 == 0 and fe1 == 0x7fc and fm1 == 0xd481499755d4b and fs2 == 0 and fe2 ==
      0x7fc and fm2 == 0xd481499755d4b and rm_val == 2  #nosat'
    : 1 #  rs1_val==dnorm(0x7fcd481499755d4b) and rs2_val==dnorm(0x7fcd481499755d4b) | Guard = 0 Round = 0 Sticky = 0 --> Minnorm + 0 ulp
    ? 'fs1 == 0 and fe1 == 0x7fc and fm1 == 0xd481499755d4b and fs2 == 0 and fe2 ==
      0x7fc and fm2 == 0xd481499755d4b and rm_val == 1  #nosat'
    : 1 #  rs1_val==dnorm(0x7fcd481499755d4b) and rs2_val==dnorm(0x7fcd481499755d4b) | Guard = 0 Round = 0 Sticky = 0 --> Minnorm + 0 ulp
    ? 'fs1 == 0 and fe1 == 0x7fc and fm1 == 0xd481499755d4b and fs2 == 0 and fe2 ==
      0x7fc and fm2 == 0xd481499755d4b and rm_val == 0  #nosat'
    : 1 #  rs1_val==dnorm(0x7fcd481499755d4b) and rs2_val==dnorm(0x7fcd481499755d4b) | Guard = 0 Round = 0 Sticky = 0 --> Minnorm + 0 ulp
    ? 'fs1 == 0 and fe1 == 0x7fd and fm1 == 0xc81394a2171e9 and fs2 == 0 and fe2 ==
      0x7fd and fm2 == 0xc81394a2171e9 and rm_val == 4  #nosat'
    : 1 #  rs1_val==dnorm(0x7fdc81394a2171e9) and rs2_val==dnorm(0x7fdc81394a2171e9) | Guard = 0 Round = 0 Sticky = 0 --> Minsubnorm + 0 ulp
    ? 'fs1 == 0 and fe1 == 0x7fd and fm1 == 0xc81394a2171e9 and fs2 == 0 and fe2 ==
      0x7fd and fm2 == 0xc81394a2171e9 and rm_val == 3  #nosat'
    : 1 #  rs1_val==dnorm(0x7fdc81394a2171e9) and rs2_val==dnorm(0x7fdc81394a2171e9) | Guard = 0 Round = 0 Sticky = 0 --> Minsubnorm + 0 ulp
    ? 'fs1 == 0 and fe1 == 0x7fd and fm1 == 0xc81394a2171e9 and fs2 == 0 and fe2 ==
      0x7fd and fm2 == 0xc81394a2171e9 and rm_val == 2  #nosat'
    : 1 #  rs1_val==dnorm(0x7fdc81394a2171e9) and rs2_val==dnorm(0x7fdc81394a2171e9) | Guard = 0 Round = 0 Sticky = 0 --> Minsubnorm + 0 ulp
    ? 'fs1 == 0 and fe1 == 0x7fd and fm1 == 0xc81394a2171e9 and fs2 == 0 and fe2 ==
      0x7fd and fm2 == 0xc81394a2171e9 and rm_val == 1  #nosat'
    : 1 #  rs1_val==dnorm(0x7fdc81394a2171e9) and rs2_val==dnorm(0x7fdc81394a2171e9) | Guard = 0 Round = 0 Sticky = 0 --> Minsubnorm + 0 ulp
    ? 'fs1 == 0 and fe1 == 0x7fd and fm1 == 0xc81394a2171e9 and fs2 == 0 and fe2 ==
      0x7fd and fm2 == 0xc81394a2171e9 and rm_val == 0  #nosat'
    : 1 #  rs1_val==dnorm(0x7fdc81394a2171e9) and rs2_val==dnorm(0x7fdc81394a2171e9) | Guard = 0 Round = 0 Sticky = 0 --> Minsubnorm + 0 ulp
    ? 'fs1 == 0 and fe1 == 0x7fe and fm1 == 0x86499331191c4 and fs2 == 0 and fe2 ==
      0x7fe and fm2 == 0x86499331191c4 and rm_val == 4  #nosat'
    : 1 #  rs1_val==dnorm(0x7fe86499331191c4) and rs2_val==dnorm(0x7fe86499331191c4) | Guard = 1 Round = 1 Sticky = 1 --> Minsubnorm + 7 ulp
    ? 'fs1 == 0 and fe1 == 0x7fe and fm1 == 0x86499331191c4 and fs2 == 0 and fe2 ==
      0x7fe and fm2 == 0x86499331191c4 and rm_val == 3  #nosat'
    : 1 #  rs1_val==dnorm(0x7fe86499331191c4) and rs2_val==dnorm(0x7fe86499331191c4) | Guard = 1 Round = 1 Sticky = 1 --> Minsubnorm + 7 ulp
    ? 'fs1 == 0 and fe1 == 0x7fe and fm1 == 0x86499331191c4 and fs2 == 0 and fe2 ==
      0x7fe and fm2 == 0x86499331191c4 and rm_val == 2  #nosat'
    : 1 #  rs1_val==dnorm(0x7fe86499331191c4) and rs2_val==dnorm(0x7fe86499331191c4) | Guard = 1 Round = 1 Sticky = 1 --> Minsubnorm + 7 ulp
    ? 'fs1 == 0 and fe1 == 0x7fe and fm1 == 0x86499331191c4 and fs2 == 0 and fe2 ==
      0x7fe and fm2 == 0x86499331191c4 and rm_val == 1  #nosat'
    : 1 #  rs1_val==dnorm(0x7fe86499331191c4) and rs2_val==dnorm(0x7fe86499331191c4) | Guard = 1 Round = 1 Sticky = 1 --> Minsubnorm + 7 ulp
    ? 'fs1 == 0 and fe1 == 0x7fe and fm1 == 0x86499331191c4 and fs2 == 0 and fe2 ==
      0x7fe and fm2 == 0x86499331191c4 and rm_val == 0  #nosat'
    : 1 #  rs1_val==dnorm(0x7fe86499331191c4) and rs2_val==dnorm(0x7fe86499331191c4) | Guard = 1 Round = 1 Sticky = 1 --> Minsubnorm + 7 ulp
    ? 'fs1 == 0 and fe1 == 0x7fe and fm1 == 0xabe96758f2a09 and fs2 == 0 and fe2 ==
      0x7fe and fm2 == 0xabe96758f2a09 and rm_val == 4  #nosat'
    : 1 #  rs1_val==dnorm(0x7feabe96758f2a09) and rs2_val==dnorm(0x7feabe96758f2a09) | Guard = 1 Round = 1 Sticky = 0 --> Minsubnorm + 6 ulp
    ? 'fs1 == 0 and fe1 == 0x7fe and fm1 == 0xabe96758f2a09 and fs2 == 0 and fe2 ==
      0x7fe and fm2 == 0xabe96758f2a09 and rm_val == 3  #nosat'
    : 1 #  rs1_val==dnorm(0x7feabe96758f2a09) and rs2_val==dnorm(0x7feabe96758f2a09) | Guard = 1 Round = 1 Sticky = 0 --> Minsubnorm + 6 ulp
    ? 'fs1 == 0 and fe1 == 0x7fe and fm1 == 0xabe96758f2a09 and fs2 == 0 and fe2 ==
      0x7fe and fm2 == 0xabe96758f2a09 and rm_val == 2  #nosat'
    : 1 #  rs1_val==dnorm(0x7feabe96758f2a09) and rs2_val==dnorm(0x7feabe96758f2a09) | Guard = 1 Round = 1 Sticky = 0 --> Minsubnorm + 6 ulp
    ? 'fs1 == 0 and fe1 == 0x7fe and fm1 == 0xabe96758f2a09 and fs2 == 0 and fe2 ==
      0x7fe and fm2 == 0xabe96758f2a09 and rm_val == 1  #nosat'
    : 1 #  rs1_val==dnorm(0x7feabe96758f2a09) and rs2_val==dnorm(0x7feabe96758f2a09) | Guard = 1 Round = 1 Sticky = 0 --> Minsubnorm + 6 ulp
    ? 'fs1 == 0 and fe1 == 0x7fe and fm1 == 0xabe96758f2a09 and fs2 == 0 and fe2 ==
      0x7fe and fm2 == 0xabe96758f2a09 and rm_val == 0  #nosat'
    : 1 #  rs1_val==dnorm(0x7feabe96758f2a09) and rs2_val==dnorm(0x7feabe96758f2a09) | Guard = 1 Round = 1 Sticky = 0 --> Minsubnorm + 6 ulp
    ? 'fs1 == 0 and fe1 == 0x7fb and fm1 == 0x8072e8f9c858f and fs2 == 0 and fe2 ==
      0x7fb and fm2 == 0x8072e8f9c858f and rm_val == 4  #nosat'
    : 1 #  rs1_val==dnorm(0x7fb8072e8f9c858f) and rs2_val==dnorm(0x7fb8072e8f9c858f) | Guard = 1 Round = 0 Sticky = 1 --> Minsubnorm + 5 ulp
    ? 'fs1 == 0 and fe1 == 0x7fb and fm1 == 0x8072e8f9c858f and fs2 == 0 and fe2 ==
      0x7fb and fm2 == 0x8072e8f9c858f and rm_val == 3  #nosat'
    : 1 #  rs1_val==dnorm(0x7fb8072e8f9c858f) and rs2_val==dnorm(0x7fb8072e8f9c858f) | Guard = 1 Round = 0 Sticky = 1 --> Minsubnorm + 5 ulp
    ? 'fs1 == 0 and fe1 == 0x7fb and fm1 == 0x8072e8f9c858f and fs2 == 0 and fe2 ==
      0x7fb and fm2 == 0x8072e8f9c858f and rm_val == 2  #nosat'
    : 1 #  rs1_val==dnorm(0x7fb8072e8f9c858f) and rs2_val==dnorm(0x7fb8072e8f9c858f) | Guard = 1 Round = 0 Sticky = 1 --> Minsubnorm + 5 ulp
    ? 'fs1 == 0 and fe1 == 0x7fb and fm1 == 0x8072e8f9c858f and fs2 == 0 and fe2 ==
      0x7fb and fm2 == 0x8072e8f9c858f and rm_val == 1  #nosat'
    : 1 #  rs1_val==dnorm(0x7fb8072e8f9c858f) and rs2_val==dnorm(0x7fb8072e8f9c858f) | Guard = 1 Round = 0 Sticky = 1 --> Minsubnorm + 5 ulp
    ? 'fs1 == 0 and fe1 == 0x7fb and fm1 == 0x8072e8f9c858f and fs2 == 0 and fe2 ==
      0x7fb and fm2 == 0x8072e8f9c858f and rm_val == 0  #nosat'
    : 1 #  rs1_val==dnorm(0x7fb8072e8f9c858f) and rs2_val==dnorm(0x7fb8072e8f9c858f) | Guard = 1 Round = 0 Sticky = 1 --> Minsubnorm + 5 ulp
    ? 'fs1 == 0 and fe1 == 0x7fe and fm1 == 0x4d9d98184b9d9 and fs2 == 0 and fe2 ==
      0x7fe and fm2 == 0x4d9d98184b9d9 and rm_val == 4  #nosat'
    : 1 #  rs1_val==dnorm(0x7fe4d9d98184b9d9) and rs2_val==dnorm(0x7fe4d9d98184b9d9) | Guard = 1 Round = 0 Sticky = 0 --> Minsubnorm + 4 ulp
    ? 'fs1 == 0 and fe1 == 0x7fe and fm1 == 0x4d9d98184b9d9 and fs2 == 0 and fe2 ==
      0x7fe and fm2 == 0x4d9d98184b9d9 and rm_val == 3  #nosat'
    : 1 #  rs1_val==dnorm(0x7fe4d9d98184b9d9) and rs2_val==dnorm(0x7fe4d9d98184b9d9) | Guard = 1 Round = 0 Sticky = 0 --> Minsubnorm + 4 ulp
    ? 'fs1 == 0 and fe1 == 0x7fe and fm1 == 0x4d9d98184b9d9 and fs2 == 0 and fe2 ==
      0x7fe and fm2 == 0x4d9d98184b9d9 and rm_val == 2  #nosat'
    : 1 #  rs1_val==dnorm(0x7fe4d9d98184b9d9) and rs2_val==dnorm(0x7fe4d9d98184b9d9) | Guard = 1 Round = 0 Sticky = 0 --> Minsubnorm + 4 ulp
    ? 'fs1 == 0 and fe1 == 0x7fe and fm1 == 0x4d9d98184b9d9 and fs2 == 0 and fe2 ==
      0x7fe and fm2 == 0x4d9d98184b9d9 and rm_val == 1  #nosat'
    : 1 #  rs1_val==dnorm(0x7fe4d9d98184b9d9) and rs2_val==dnorm(0x7fe4d9d98184b9d9) | Guard = 1 Round = 0 Sticky = 0 --> Minsubnorm + 4 ulp
    ? 'fs1 == 0 and fe1 == 0x7fe and fm1 == 0x4d9d98184b9d9 and fs2 == 0 and fe2 ==
      0x7fe and fm2 == 0x4d9d98184b9d9 and rm_val == 0  #nosat'
    : 1 #  rs1_val==dnorm(0x7fe4d9d98184b9d9) and rs2_val==dnorm(0x7fe4d9d98184b9d9) | Guard = 1 Round = 0 Sticky = 0 --> Minsubnorm + 4 ulp
    ? 'fs1 == 0 and fe1 == 0x7fd and fm1 == 0xfb5355e167379 and fs2 == 0 and fe2 ==
      0x7fd and fm2 == 0xfb5355e167379 and rm_val == 4  #nosat'
    : 1 #  rs1_val==dnorm(0x7fdfb5355e167379) and rs2_val==dnorm(0x7fdfb5355e167379) | Guard = 0 Round = 1 Sticky = 1 --> Minsubnorm + 3 ulp
    ? 'fs1 == 0 and fe1 == 0x7fd and fm1 == 0xfb5355e167379 and fs2 == 0 and fe2 ==
      0x7fd and fm2 == 0xfb5355e167379 and rm_val == 3  #nosat'
    : 1 #  rs1_val==dnorm(0x7fdfb5355e167379) and rs2_val==dnorm(0x7fdfb5355e167379) | Guard = 0 Round = 1 Sticky = 1 --> Minsubnorm + 3 ulp
    ? 'fs1 == 0 and fe1 == 0x7fd and fm1 == 0xfb5355e167379 and fs2 == 0 and fe2 ==
      0x7fd and fm2 == 0xfb5355e167379 and rm_val == 2  #nosat'
    : 1 #  rs1_val==dnorm(0x7fdfb5355e167379) and rs2_val==dnorm(0x7fdfb5355e167379) | Guard = 0 Round = 1 Sticky = 1 --> Minsubnorm + 3 ulp
    ? 'fs1 == 0 and fe1 == 0x7fd and fm1 == 0xfb5355e167379 and fs2 == 0 and fe2 ==
      0x7fd and fm2 == 0xfb5355e167379 and rm_val == 1  #nosat'
    : 1 #  rs1_val==dnorm(0x7fdfb5355e167379) and rs2_val==dnorm(0x7fdfb5355e167379) | Guard = 0 Round = 1 Sticky = 1 --> Minsubnorm + 3 ulp
    ? 'fs1 == 0 and fe1 == 0x7fd and fm1 == 0xfb5355e167379 and fs2 == 0 and fe2 ==
      0x7fd and fm2 == 0xfb5355e167379 and rm_val == 0  #nosat'
    : 1 #  rs1_val==dnorm(0x7fdfb5355e167379) and rs2_val==dnorm(0x7fdfb5355e167379) | Guard = 0 Round = 1 Sticky = 1 --> Minsubnorm + 3 ulp
    ? 'fs1 == 0 and fe1 == 0x7fe and fm1 == 0x870d778409f12 and fs2 == 0 and fe2 ==
      0x7fe and fm2 == 0x870d778409f12 and rm_val == 4  #nosat'
    : 1 #  rs1_val==dnorm(0x7fe870d778409f12) and rs2_val==dnorm(0x7fe870d778409f12) | Guard = 0 Round = 1 Sticky = 0 --> Minsubnorm + 2 ulp
    ? 'fs1 == 0 and fe1 == 0x7fe and fm1 == 0x870d778409f12 and fs2 == 0 and fe2 ==
      0x7fe and fm2 == 0x870d778409f12 and rm_val == 3  #nosat'
    : 1 #  rs1_val==dnorm(0x7fe870d778409f12) and rs2_val==dnorm(0x7fe870d778409f12) | Guard = 0 Round = 1 Sticky = 0 --> Minsubnorm + 2 ulp
    ? 'fs1 == 0 and fe1 == 0x7fe and fm1 == 0x870d778409f12 and fs2 == 0 and fe2 ==
      0x7fe and fm2 == 0x870d778409f12 and rm_val == 2  #nosat'
    : 1 #  rs1_val==dnorm(0x7fe870d778409f12) and rs2_val==dnorm(0x7fe870d778409f12) | Guard = 0 Round = 1 Sticky = 0 --> Minsubnorm + 2 ulp
    ? 'fs1 == 0 and fe1 == 0x7fe and fm1 == 0x870d778409f12 and fs2 == 0 and fe2 ==
      0x7fe and fm2 == 0x870d778409f12 and rm_val == 1  #nosat'
    : 1 #  rs1_val==dnorm(0x7fe870d778409f12) and rs2_val==dnorm(0x7fe870d778409f12) | Guard = 0 Round = 1 Sticky = 0 --> Minsubnorm + 2 ulp
    ? 'fs1 == 0 and fe1 == 0x7fe and fm1 == 0x870d778409f12 and fs2 == 0 and fe2 ==
      0x7fe and fm2 == 0x870d778409f12 and rm_val == 0  #nosat'
    : 1 #  rs1_val==dnorm(0x7fe870d778409f12) and rs2_val==dnorm(0x7fe870d778409f12) | Guard = 0 Round = 1 Sticky = 0 --> Minsubnorm + 2 ulp
    ? 'fs1 == 0 and fe1 == 0x7fc and fm1 == 0x132d8f91b7583 and fs2 == 0 and fe2 ==
      0x7fc and fm2 == 0x132d8f91b7583 and rm_val == 4  #nosat'
    : 1 #  rs1_val==dnorm(0x7fc132d8f91b7583) and rs2_val==dnorm(0x7fc132d8f91b7583) | Guard = 0 Round = 0 Sticky = 1 --> Minsubnorm + 1 ulp
    ? 'fs1 == 0 and fe1 == 0x7fc and fm1 == 0x132d8f91b7583 and fs2 == 0 and fe2 ==
      0x7fc and fm2 == 0x132d8f91b7583 and rm_val == 3  #nosat'
    : 1 #  rs1_val==dnorm(0x7fc132d8f91b7583) and rs2_val==dnorm(0x7fc132d8f91b7583) | Guard = 0 Round = 0 Sticky = 1 --> Minsubnorm + 1 ulp
    ? 'fs1 == 0 and fe1 == 0x7fc and fm1 == 0x132d8f91b7583 and fs2 == 0 and fe2 ==
      0x7fc and fm2 == 0x132d8f91b7583 and rm_val == 2  #nosat'
    : 1 #  rs1_val==dnorm(0x7fc132d8f91b7583) and rs2_val==dnorm(0x7fc132d8f91b7583) | Guard = 0 Round = 0 Sticky = 1 --> Minsubnorm + 1 ulp
    ? 'fs1 == 0 and fe1 == 0x7fc and fm1 == 0x132d8f91b7583 and fs2 == 0 and fe2 ==
      0x7fc and fm2 == 0x132d8f91b7583 and rm_val == 1  #nosat'
    : 1 #  rs1_val==dnorm(0x7fc132d8f91b7583) and rs2_val==dnorm(0x7fc132d8f91b7583) | Guard = 0 Round = 0 Sticky = 1 --> Minsubnorm + 1 ulp
    coverage: 210/210
  total_coverage: 312/312
