---
fsub.d_b2:
  config:
  - check ISA:=regex(.*I.*Zfinx.*Zdinx.*)
  mnemonics:
    fsub.d: 276
    coverage: 1/1
  op_comb:
    rs1 != rs2  and rs1 != rd and rs2 != rd: 272
    rs1 == rd != rs2: 1
    rs1 == rs2 != rd: 1
    rs1 == rs2 == rd: 1
    rs2 == rd != rs1: 1
    coverage: 5/5
  rd:
    x10: 1
    x12: 1
    x14: 1
    x16: 1
    x18: 1
    x2: 1
    x20: 1
    x22: 1
    x24: 1
    x26: 1
    x28: 1
    x30: 262
    x4: 1
    x6: 1
    x8: 1
    coverage: 15/15
  rs1:
    x10: 1
    x12: 1
    x14: 1
    x16: 1
    x18: 1
    x2: 1
    x20: 1
    x22: 1
    x24: 1
    x26: 1
    x28: 261
    x30: 2
    x4: 1
    x6: 1
    x8: 1
    coverage: 15/15
  rs2:
    x10: 1
    x12: 1
    x14: 1
    x16: 1
    x18: 1
    x2: 1
    x20: 1
    x22: 1
    x24: 1
    x26: 260
    x28: 3
    x30: 1
    x4: 1
    x6: 1
    x8: 1
    coverage: 15/15
  val_comb:
    ? 'fs1 == 0 and fe1 == 0x000 and fm1 == 0x0000000000012 and fs2 == 0 and fe2 ==
      0x000 and fm2 == 0x0000000000011 and  fcsr == 0x0 and rm_val == 7   #nosat'
    : 1
    ? 'fs1 == 0 and fe1 == 0x000 and fm1 == 0x0000000000062 and fs2 == 0 and fe2 ==
      0x000 and fm2 == 0x0000000000060 and  fcsr == 0x0 and rm_val == 7   #nosat'
    : 1
    ? 'fs1 == 0 and fe1 == 0x000 and fm1 == 0x0000000000021 and fs2 == 0 and fe2 ==
      0x000 and fm2 == 0x000000000001d and  fcsr == 0x0 and rm_val == 7   #nosat'
    : 1
    ? 'fs1 == 0 and fe1 == 0x000 and fm1 == 0x0000000000040 and fs2 == 0 and fe2 ==
      0x000 and fm2 == 0x0000000000038 and  fcsr == 0x0 and rm_val == 7   #nosat'
    : 1
    ? 'fs1 == 0 and fe1 == 0x000 and fm1 == 0x000000000003a and fs2 == 0 and fe2 ==
      0x000 and fm2 == 0x000000000002a and  fcsr == 0x0 and rm_val == 7   #nosat'
    : 1
    ? 'fs1 == 0 and fe1 == 0x000 and fm1 == 0x0000000000054 and fs2 == 0 and fe2 ==
      0x000 and fm2 == 0x0000000000034 and  fcsr == 0x0 and rm_val == 7   #nosat'
    : 1
    ? 'fs1 == 0 and fe1 == 0x000 and fm1 == 0x000000000001b and fs2 == 1 and fe2 ==
      0x000 and fm2 == 0x0000000000025 and  fcsr == 0x0 and rm_val == 7   #nosat'
    : 1
    ? 'fs1 == 0 and fe1 == 0x000 and fm1 == 0x000000000003f and fs2 == 1 and fe2 ==
      0x000 and fm2 == 0x0000000000041 and  fcsr == 0x0 and rm_val == 7   #nosat'
    : 1
    ? 'fs1 == 0 and fe1 == 0x000 and fm1 == 0x0000000000032 and fs2 == 1 and fe2 ==
      0x000 and fm2 == 0x00000000000ce and  fcsr == 0x0 and rm_val == 7   #nosat'
    : 1
    ? 'fs1 == 0 and fe1 == 0x000 and fm1 == 0x000000000004e and fs2 == 1 and fe2 ==
      0x000 and fm2 == 0x00000000001b2 and  fcsr == 0x0 and rm_val == 7   #nosat'
    : 1
    ? 'fs1 == 0 and fe1 == 0x000 and fm1 == 0x0000000000063 and fs2 == 1 and fe2 ==
      0x000 and fm2 == 0x000000000039d and  fcsr == 0x0 and rm_val == 7   #nosat'
    : 1
    ? 'fs1 == 0 and fe1 == 0x000 and fm1 == 0x000000000005a and fs2 == 1 and fe2 ==
      0x000 and fm2 == 0x00000000007a6 and  fcsr == 0x0 and rm_val == 7   #nosat'
    : 1
    ? 'fs1 == 0 and fe1 == 0x000 and fm1 == 0x0000000000023 and fs2 == 1 and fe2 ==
      0x000 and fm2 == 0x0000000000fdd and  fcsr == 0x0 and rm_val == 7   #nosat'
    : 1
    ? 'fs1 == 0 and fe1 == 0x000 and fm1 == 0x000000000001e and fs2 == 1 and fe2 ==
      0x000 and fm2 == 0x0000000001fe2 and  fcsr == 0x0 and rm_val == 7   #nosat'
    : 1
    ? 'fs1 == 0 and fe1 == 0x000 and fm1 == 0x000000000000e and fs2 == 1 and fe2 ==
      0x000 and fm2 == 0x0000000003ff2 and  fcsr == 0x0 and rm_val == 7   #nosat'
    : 1
    ? 'fs1 == 0 and fe1 == 0x000 and fm1 == 0x0000000000004 and fs2 == 1 and fe2 ==
      0x000 and fm2 == 0x0000000007ffc and  fcsr == 0x0 and rm_val == 7   #nosat'
    : 1
    ? 'fs1 == 0 and fe1 == 0x000 and fm1 == 0x0000000000004 and fs2 == 1 and fe2 ==
      0x000 and fm2 == 0x000000000fffc and  fcsr == 0x0 and rm_val == 7   #nosat'
    : 1
    ? 'fs1 == 0 and fe1 == 0x000 and fm1 == 0x0000000000046 and fs2 == 1 and fe2 ==
      0x000 and fm2 == 0x000000001ffba and  fcsr == 0x0 and rm_val == 7   #nosat'
    : 1
    ? 'fs1 == 0 and fe1 == 0x000 and fm1 == 0x0000000000031 and fs2 == 1 and fe2 ==
      0x000 and fm2 == 0x000000003ffcf and  fcsr == 0x0 and rm_val == 7   #nosat'
    : 1
    ? 'fs1 == 0 and fe1 == 0x000 and fm1 == 0x000000000001c and fs2 == 1 and fe2 ==
      0x000 and fm2 == 0x000000007ffe4 and  fcsr == 0x0 and rm_val == 7   #nosat'
    : 1
    ? 'fs1 == 0 and fe1 == 0x000 and fm1 == 0x000000000005d and fs2 == 1 and fe2 ==
      0x000 and fm2 == 0x00000000fffa3 and  fcsr == 0x0 and rm_val == 7   #nosat'
    : 1
    ? 'fs1 == 0 and fe1 == 0x000 and fm1 == 0x0000000000044 and fs2 == 1 and fe2 ==
      0x000 and fm2 == 0x00000001fffbc and  fcsr == 0x0 and rm_val == 7   #nosat'
    : 1
    ? 'fs1 == 0 and fe1 == 0x000 and fm1 == 0x0000000000062 and fs2 == 1 and fe2 ==
      0x000 and fm2 == 0x00000003fff9e and  fcsr == 0x0 and rm_val == 7   #nosat'
    : 1
    ? 'fs1 == 0 and fe1 == 0x000 and fm1 == 0x0000000000040 and fs2 == 0 and fe2 ==
      0x000 and fm2 == 0x0000000000041 and  fcsr == 0x0 and rm_val == 7   #nosat'
    : 1
    ? 'fs1 == 0 and fe1 == 0x000 and fm1 == 0x000000000001e and fs2 == 0 and fe2 ==
      0x000 and fm2 == 0x0000000000020 and  fcsr == 0x0 and rm_val == 7   #nosat'
    : 1
    ? 'fs1 == 0 and fe1 == 0x000 and fm1 == 0x000000000001e and fs2 == 0 and fe2 ==
      0x000 and fm2 == 0x0000000000022 and  fcsr == 0x0 and rm_val == 7   #nosat'
    : 1
    ? 'fs1 == 0 and fe1 == 0x000 and fm1 == 0x000000000001d and fs2 == 0 and fe2 ==
      0x000 and fm2 == 0x0000000000025 and  fcsr == 0x0 and rm_val == 7   #nosat'
    : 1
    ? 'fs1 == 0 and fe1 == 0x000 and fm1 == 0x000000000003b and fs2 == 0 and fe2 ==
      0x000 and fm2 == 0x000000000004b and  fcsr == 0x0 and rm_val == 7   #nosat'
    : 1
    ? 'fs1 == 0 and fe1 == 0x000 and fm1 == 0x0000000000003 and fs2 == 0 and fe2 ==
      0x000 and fm2 == 0x0000000000023 and  fcsr == 0x0 and rm_val == 7   #nosat'
    : 1
    ? 'fs1 == 0 and fe1 == 0x000 and fm1 == 0x0000000000048 and fs2 == 0 and fe2 ==
      0x000 and fm2 == 0x0000000000088 and  fcsr == 0x0 and rm_val == 7   #nosat'
    : 1
    ? 'fs1 == 0 and fe1 == 0x000 and fm1 == 0x000000000000d and fs2 == 0 and fe2 ==
      0x000 and fm2 == 0x000000000008d and  fcsr == 0x0 and rm_val == 7   #nosat'
    : 1
    ? 'fs1 == 0 and fe1 == 0x000 and fm1 == 0x0000000000051 and fs2 == 0 and fe2 ==
      0x000 and fm2 == 0x0000000000151 and  fcsr == 0x0 and rm_val == 7   #nosat'
    : 1
    ? 'fs1 == 0 and fe1 == 0x000 and fm1 == 0x0000000000026 and fs2 == 0 and fe2 ==
      0x000 and fm2 == 0x0000000000226 and  fcsr == 0x0 and rm_val == 7   #nosat'
    : 1
    ? 'fs1 == 0 and fe1 == 0x000 and fm1 == 0x0000000000060 and fs2 == 0 and fe2 ==
      0x000 and fm2 == 0x0000000000460 and  fcsr == 0x0 and rm_val == 7   #nosat'
    : 1
    ? 'fs1 == 0 and fe1 == 0x000 and fm1 == 0x000000000005d and fs2 == 0 and fe2 ==
      0x000 and fm2 == 0x000000000085d and  fcsr == 0x0 and rm_val == 7   #nosat'
    : 1
    ? 'fs1 == 0 and fe1 == 0x000 and fm1 == 0x0000000000041 and fs2 == 0 and fe2 ==
      0x000 and fm2 == 0x0000000001041 and  fcsr == 0x0 and rm_val == 7   #nosat'
    : 1
    ? 'fs1 == 0 and fe1 == 0x000 and fm1 == 0x0000000000041 and fs2 == 0 and fe2 ==
      0x000 and fm2 == 0x0000000002041 and  fcsr == 0x0 and rm_val == 7   #nosat'
    : 1
    ? 'fs1 == 0 and fe1 == 0x000 and fm1 == 0x0000000000019 and fs2 == 0 and fe2 ==
      0x000 and fm2 == 0x0000000004019 and  fcsr == 0x0 and rm_val == 7   #nosat'
    : 1
    ? 'fs1 == 0 and fe1 == 0x000 and fm1 == 0x0000000000025 and fs2 == 0 and fe2 ==
      0x000 and fm2 == 0x0000000008025 and  fcsr == 0x0 and rm_val == 7   #nosat'
    : 1
    ? 'fs1 == 0 and fe1 == 0x000 and fm1 == 0x0000000000040 and fs2 == 0 and fe2 ==
      0x000 and fm2 == 0x0000000010040 and  fcsr == 0x0 and rm_val == 7   #nosat'
    : 1
    ? 'fs1 == 0 and fe1 == 0x000 and fm1 == 0x0000000000033 and fs2 == 0 and fe2 ==
      0x000 and fm2 == 0x0000000020033 and  fcsr == 0x0 and rm_val == 7   #nosat'
    : 1
    ? 'fs1 == 0 and fe1 == 0x000 and fm1 == 0x0000000000005 and fs2 == 0 and fe2 ==
      0x000 and fm2 == 0x0000000040005 and  fcsr == 0x0 and rm_val == 7   #nosat'
    : 1
    ? 'fs1 == 0 and fe1 == 0x000 and fm1 == 0x0000000000020 and fs2 == 0 and fe2 ==
      0x000 and fm2 == 0x0000000080020 and  fcsr == 0x0 and rm_val == 7   #nosat'
    : 1
    ? 'fs1 == 0 and fe1 == 0x000 and fm1 == 0x0000000000034 and fs2 == 0 and fe2 ==
      0x000 and fm2 == 0x0000000100034 and  fcsr == 0x0 and rm_val == 7   #nosat'
    : 1
    ? 'fs1 == 0 and fe1 == 0x000 and fm1 == 0x0000000000056 and fs2 == 0 and fe2 ==
      0x000 and fm2 == 0x0000000200056 and  fcsr == 0x0 and rm_val == 7   #nosat'
    : 1
    ? 'fs1 == 0 and fe1 == 0x000 and fm1 == 0x000000000002f and fs2 == 0 and fe2 ==
      0x000 and fm2 == 0x000000040002f and  fcsr == 0x0 and rm_val == 7   #nosat'
    : 1
    ? 'fs1 == 0 and fe1 == 0x3ff and fm1 == 0x000000000005a and fs2 == 0 and fe2 ==
      0x3d1 and fm2 == 0x6400000000000 and  fcsr == 0x0 and rm_val == 7   #nosat'
    : 1
    ? 'fs1 == 0 and fe1 == 0x3ff and fm1 == 0x000000000005f and fs2 == 0 and fe2 ==
      0x3d1 and fm2 == 0x7400000000000 and  fcsr == 0x0 and rm_val == 7   #nosat'
    : 1
    ? 'fs1 == 0 and fe1 == 0x3ff and fm1 == 0x000000000000c and fs2 == 0 and fe2 ==
      0x3ce and fm2 == 0x0000000000000 and  fcsr == 0x0 and rm_val == 7   #nosat'
    : 1
    ? 'fs1 == 0 and fe1 == 0x3ff and fm1 == 0x0000000000055 and fs2 == 0 and fe2 ==
      0x3d1 and fm2 == 0x3400000000000 and  fcsr == 0x0 and rm_val == 7   #nosat'
    : 1
    ? 'fs1 == 0 and fe1 == 0x3ff and fm1 == 0x000000000000e and fs2 == 1 and fe2 ==
      0x3cc and fm2 == 0x0000000000000 and  fcsr == 0x0 and rm_val == 7   #nosat'
    : 1
    ? 'fs1 == 0 and fe1 == 0x3ff and fm1 == 0x0000000000043 and fs2 == 0 and fe2 ==
      0x3d0 and fm2 == 0x1800000000000 and  fcsr == 0x0 and rm_val == 7   #nosat'
    : 1
    ? 'fs1 == 0 and fe1 == 0x3ff and fm1 == 0x0000000000030 and fs2 == 1 and fe2 ==
      0x3cf and fm2 == 0x0000000000000 and  fcsr == 0x0 and rm_val == 7   #nosat'
    : 1
    ? 'fs1 == 0 and fe1 == 0x3ff and fm1 == 0x000000000005e and fs2 == 1 and fe2 ==
      0x3d0 and fm2 == 0x1000000000000 and  fcsr == 0x0 and rm_val == 7   #nosat'
    : 1
    ? 'fs1 == 0 and fe1 == 0x3ff and fm1 == 0x000000000003d and fs2 == 1 and fe2 ==
      0x3d2 and fm2 == 0x8600000000000 and  fcsr == 0x0 and rm_val == 7   #nosat'
    : 1
    ? 'fs1 == 0 and fe1 == 0x3ff and fm1 == 0x0000000000028 and fs2 == 1 and fe2 ==
      0x3d3 and fm2 == 0xd800000000000 and  fcsr == 0x0 and rm_val == 7   #nosat'
    : 1
    ? 'fs1 == 0 and fe1 == 0x3ff and fm1 == 0x000000000004f and fs2 == 1 and fe2 ==
      0x3d4 and fm2 == 0xd880000000000 and  fcsr == 0x0 and rm_val == 7   #nosat'
    : 1
    ? 'fs1 == 0 and fe1 == 0x3ff and fm1 == 0x000000000004b and fs2 == 1 and fe2 ==
      0x3d5 and fm2 == 0xed40000000000 and  fcsr == 0x0 and rm_val == 7   #nosat'
    : 1
    ? 'fs1 == 0 and fe1 == 0x3ff and fm1 == 0x0000000000053 and fs2 == 1 and fe2 ==
      0x3d6 and fm2 == 0xf5a0000000000 and  fcsr == 0x0 and rm_val == 7   #nosat'
    : 1
    ? 'fs1 == 0 and fe1 == 0x3ff and fm1 == 0x0000000000016 and fs2 == 1 and fe2 ==
      0x3d7 and fm2 == 0xfea0000000000 and  fcsr == 0x0 and rm_val == 7   #nosat'
    : 1
    ? 'fs1 == 0 and fe1 == 0x3ff and fm1 == 0x000000000001e and fs2 == 1 and fe2 ==
      0x3d8 and fm2 == 0xff10000000000 and  fcsr == 0x0 and rm_val == 7   #nosat'
    : 1
    ? 'fs1 == 0 and fe1 == 0x3ff and fm1 == 0x0000000000063 and fs2 == 1 and fe2 ==
      0x3d9 and fm2 == 0xfe74000000000 and  fcsr == 0x0 and rm_val == 7   #nosat'
    : 1
    ? 'fs1 == 0 and fe1 == 0x3ff and fm1 == 0x0000000000046 and fs2 == 1 and fe2 ==
      0x3da and fm2 == 0xff74000000000 and  fcsr == 0x0 and rm_val == 7   #nosat'
    : 1
    ? 'fs1 == 0 and fe1 == 0x3ff and fm1 == 0x000000000001e and fs2 == 1 and fe2 ==
      0x3db and fm2 == 0xffe2000000000 and  fcsr == 0x0 and rm_val == 7   #nosat'
    : 1
    ? 'fs1 == 0 and fe1 == 0x3ff and fm1 == 0x0000000000042 and fs2 == 1 and fe2 ==
      0x3dc and fm2 == 0xffdf000000000 and  fcsr == 0x0 and rm_val == 7   #nosat'
    : 1
    ? 'fs1 == 0 and fe1 == 0x3ff and fm1 == 0x000000000004a and fs2 == 1 and fe2 ==
      0x3dd and fm2 == 0xffed800000000 and  fcsr == 0x0 and rm_val == 7   #nosat'
    : 1
    ? 'fs1 == 0 and fe1 == 0x3ff and fm1 == 0x000000000003b and fs2 == 1 and fe2 ==
      0x3de and fm2 == 0xfff8a00000000 and  fcsr == 0x0 and rm_val == 7   #nosat'
    : 1
    ? 'fs1 == 0 and fe1 == 0x3ff and fm1 == 0x0000000000055 and fs2 == 1 and fe2 ==
      0x3df and fm2 == 0xfffab00000000 and  fcsr == 0x0 and rm_val == 7   #nosat'
    : 1
    ? 'fs1 == 0 and fe1 == 0x3ff and fm1 == 0x000000000004e and fs2 == 1 and fe2 ==
      0x3e0 and fm2 == 0xfffd900000000 and  fcsr == 0x0 and rm_val == 7   #nosat'
    : 1
    ? 'fs1 == 0 and fe1 == 0x3f8 and fm1 == 0x0000000000001 and fs2 == 0 and fe2 ==
      0x3f9 and fm2 == 0x0000000000001 and  fcsr == 0x0 and rm_val == 7   #nosat'
    : 1
    ? 'fs1 == 0 and fe1 == 0x3f8 and fm1 == 0x000000000005f and fs2 == 0 and fe2 ==
      0x3f9 and fm2 == 0x0000000000030 and  fcsr == 0x0 and rm_val == 7   #nosat'
    : 1
    ? 'fs1 == 0 and fe1 == 0x3f8 and fm1 == 0x0000000000011 and fs2 == 0 and fe2 ==
      0x3f9 and fm2 == 0x000000000000a and  fcsr == 0x0 and rm_val == 7   #nosat'
    : 1
    ? 'fs1 == 0 and fe1 == 0x3f8 and fm1 == 0x0000000000048 and fs2 == 0 and fe2 ==
      0x3f9 and fm2 == 0x0000000000028 and  fcsr == 0x0 and rm_val == 7   #nosat'
    : 1
    ? 'fs1 == 0 and fe1 == 0x3f8 and fm1 == 0x0000000000037 and fs2 == 0 and fe2 ==
      0x3f9 and fm2 == 0x0000000000024 and  fcsr == 0x0 and rm_val == 7   #nosat'
    : 1
    ? 'fs1 == 0 and fe1 == 0x3f8 and fm1 == 0x000000000003e and fs2 == 0 and fe2 ==
      0x3f9 and fm2 == 0x000000000002f and  fcsr == 0x0 and rm_val == 7   #nosat'
    : 1
    ? 'fs1 == 0 and fe1 == 0x3f8 and fm1 == 0x0000000000049 and fs2 == 0 and fe2 ==
      0x3f9 and fm2 == 0x0000000000044 and  fcsr == 0x0 and rm_val == 7   #nosat'
    : 1
    ? 'fs1 == 0 and fe1 == 0x3f8 and fm1 == 0x000000000001a and fs2 == 0 and fe2 ==
      0x3f9 and fm2 == 0x000000000004d and  fcsr == 0x0 and rm_val == 7   #nosat'
    : 1
    ? 'fs1 == 0 and fe1 == 0x3f8 and fm1 == 0x0000000000035 and fs2 == 0 and fe2 ==
      0x3f9 and fm2 == 0x000000000009a and  fcsr == 0x0 and rm_val == 7   #nosat'
    : 1
    ? 'fs1 == 0 and fe1 == 0x3f8 and fm1 == 0x000000000002e and fs2 == 0 and fe2 ==
      0x3f9 and fm2 == 0x0000000000117 and  fcsr == 0x0 and rm_val == 7   #nosat'
    : 1
    ? 'fs1 == 0 and fe1 == 0x3f8 and fm1 == 0x000000000002d and fs2 == 0 and fe2 ==
      0x3f9 and fm2 == 0x0000000000216 and  fcsr == 0x0 and rm_val == 7   #nosat'
    : 1
    ? 'fs1 == 0 and fe1 == 0x3f8 and fm1 == 0x0000000000045 and fs2 == 0 and fe2 ==
      0x3f9 and fm2 == 0x0000000000422 and  fcsr == 0x0 and rm_val == 7   #nosat'
    : 1
    ? 'fs1 == 0 and fe1 == 0x3f8 and fm1 == 0x0000000000050 and fs2 == 0 and fe2 ==
      0x3f9 and fm2 == 0x0000000000828 and  fcsr == 0x0 and rm_val == 7   #nosat'
    : 1
    ? 'fs1 == 0 and fe1 == 0x3f8 and fm1 == 0x000000000002b and fs2 == 0 and fe2 ==
      0x3f9 and fm2 == 0x0000000001016 and  fcsr == 0x0 and rm_val == 7   #nosat'
    : 1
    ? 'fs1 == 0 and fe1 == 0x3f8 and fm1 == 0x000000000004d and fs2 == 0 and fe2 ==
      0x3f9 and fm2 == 0x0000000002026 and  fcsr == 0x0 and rm_val == 7   #nosat'
    : 1
    ? 'fs1 == 0 and fe1 == 0x3f8 and fm1 == 0x000000000001e and fs2 == 0 and fe2 ==
      0x3f9 and fm2 == 0x000000000400f and  fcsr == 0x0 and rm_val == 7   #nosat'
    : 1
    ? 'fs1 == 0 and fe1 == 0x3f8 and fm1 == 0x0000000000017 and fs2 == 0 and fe2 ==
      0x3f9 and fm2 == 0x000000000800c and  fcsr == 0x0 and rm_val == 7   #nosat'
    : 1
    ? 'fs1 == 0 and fe1 == 0x3f8 and fm1 == 0x000000000004b and fs2 == 0 and fe2 ==
      0x3f9 and fm2 == 0x0000000010026 and  fcsr == 0x0 and rm_val == 7   #nosat'
    : 1
    ? 'fs1 == 0 and fe1 == 0x3f8 and fm1 == 0x000000000000c and fs2 == 0 and fe2 ==
      0x3f9 and fm2 == 0x0000000020006 and  fcsr == 0x0 and rm_val == 7   #nosat'
    : 1
    ? 'fs1 == 0 and fe1 == 0x3f8 and fm1 == 0x0000000000021 and fs2 == 0 and fe2 ==
      0x3f9 and fm2 == 0x0000000040010 and  fcsr == 0x0 and rm_val == 7   #nosat'
    : 1
    ? 'fs1 == 0 and fe1 == 0x3f8 and fm1 == 0x0000000000057 and fs2 == 0 and fe2 ==
      0x3f9 and fm2 == 0x000000008002c and  fcsr == 0x0 and rm_val == 7   #nosat'
    : 1
    ? 'fs1 == 0 and fe1 == 0x3f8 and fm1 == 0x000000000000b and fs2 == 0 and fe2 ==
      0x3f9 and fm2 == 0x0000000100006 and  fcsr == 0x0 and rm_val == 7   #nosat'
    : 1
    ? 'fs1 == 0 and fe1 == 0x3f8 and fm1 == 0x000000000003a and fs2 == 0 and fe2 ==
      0x3f9 and fm2 == 0x000000020001d and  fcsr == 0x0 and rm_val == 7   #nosat'
    : 1
    ? 'fs1 == 0 and fe1 == 0x000 and fm1 == 0x0000000000061 and fs2 == 0 and fe2 ==
      0x000 and fm2 == 0x0000000000061 and  fcsr == 0x0 and rm_val == 7   #nosat'
    : 1
    ? 'fs1 == 0 and fe1 == 0x000 and fm1 == 0x0000000000024 and fs2 == 0 and fe2 ==
      0x000 and fm2 == 0x0000000000021 and  fcsr == 0x0 and rm_val == 7   #nosat'
    : 1
    ? 'fs1 == 0 and fe1 == 0x000 and fm1 == 0x0000000000023 and fs2 == 0 and fe2 ==
      0x000 and fm2 == 0x000000000001e and  fcsr == 0x0 and rm_val == 7   #nosat'
    : 1
    ? 'fs1 == 0 and fe1 == 0x000 and fm1 == 0x0000000000050 and fs2 == 0 and fe2 ==
      0x000 and fm2 == 0x0000000000047 and  fcsr == 0x0 and rm_val == 7   #nosat'
    : 1
    ? 'fs1 == 0 and fe1 == 0x000 and fm1 == 0x000000000002d and fs2 == 0 and fe2 ==
      0x000 and fm2 == 0x000000000001c and  fcsr == 0x0 and rm_val == 7   #nosat'
    : 1
    ? 'fs1 == 0 and fe1 == 0x000 and fm1 == 0x0000000000009 and fs2 == 1 and fe2 ==
      0x000 and fm2 == 0x0000000000018 and  fcsr == 0x0 and rm_val == 7   #nosat'
    : 1
    ? 'fs1 == 0 and fe1 == 0x000 and fm1 == 0x0000000000015 and fs2 == 1 and fe2 ==
      0x000 and fm2 == 0x000000000002c and  fcsr == 0x0 and rm_val == 7   #nosat'
    : 1
    ? 'fs1 == 0 and fe1 == 0x000 and fm1 == 0x0000000000044 and fs2 == 1 and fe2 ==
      0x000 and fm2 == 0x000000000003d and  fcsr == 0x0 and rm_val == 7   #nosat'
    : 1
    ? 'fs1 == 0 and fe1 == 0x000 and fm1 == 0x0000000000055 and fs2 == 1 and fe2 ==
      0x000 and fm2 == 0x00000000000ac and  fcsr == 0x0 and rm_val == 7   #nosat'
    : 1
    ? 'fs1 == 0 and fe1 == 0x000 and fm1 == 0x0000000000053 and fs2 == 1 and fe2 ==
      0x000 and fm2 == 0x00000000001ae and  fcsr == 0x0 and rm_val == 7   #nosat'
    : 1
    ? 'fs1 == 0 and fe1 == 0x000 and fm1 == 0x0000000000026 and fs2 == 1 and fe2 ==
      0x000 and fm2 == 0x00000000003db and  fcsr == 0x0 and rm_val == 7   #nosat'
    : 1
    ? 'fs1 == 0 and fe1 == 0x000 and fm1 == 0x000000000005a and fs2 == 1 and fe2 ==
      0x000 and fm2 == 0x00000000007a7 and  fcsr == 0x0 and rm_val == 7   #nosat'
    : 1
    ? 'fs1 == 0 and fe1 == 0x000 and fm1 == 0x0000000000040 and fs2 == 1 and fe2 ==
      0x000 and fm2 == 0x0000000000fc1 and  fcsr == 0x0 and rm_val == 7   #nosat'
    : 1
    ? 'fs1 == 0 and fe1 == 0x000 and fm1 == 0x000000000000f and fs2 == 1 and fe2 ==
      0x000 and fm2 == 0x0000000001ff2 and  fcsr == 0x0 and rm_val == 7   #nosat'
    : 1
    ? 'fs1 == 0 and fe1 == 0x000 and fm1 == 0x0000000000028 and fs2 == 1 and fe2 ==
      0x000 and fm2 == 0x0000000003fd9 and  fcsr == 0x0 and rm_val == 7   #nosat'
    : 1
    ? 'fs1 == 0 and fe1 == 0x000 and fm1 == 0x000000000002c and fs2 == 1 and fe2 ==
      0x000 and fm2 == 0x0000000007fd5 and  fcsr == 0x0 and rm_val == 7   #nosat'
    : 1
    ? 'fs1 == 0 and fe1 == 0x000 and fm1 == 0x0000000000019 and fs2 == 1 and fe2 ==
      0x000 and fm2 == 0x000000000ffe8 and  fcsr == 0x0 and rm_val == 7   #nosat'
    : 1
    ? 'fs1 == 0 and fe1 == 0x000 and fm1 == 0x000000000000e and fs2 == 1 and fe2 ==
      0x000 and fm2 == 0x000000001fff3 and  fcsr == 0x0 and rm_val == 7   #nosat'
    : 1
    ? 'fs1 == 0 and fe1 == 0x000 and fm1 == 0x000000000005e and fs2 == 1 and fe2 ==
      0x000 and fm2 == 0x000000003ffa3 and  fcsr == 0x0 and rm_val == 7   #nosat'
    : 1
    ? 'fs1 == 0 and fe1 == 0x000 and fm1 == 0x000000000001b and fs2 == 1 and fe2 ==
      0x000 and fm2 == 0x000000007ffe6 and  fcsr == 0x0 and rm_val == 7   #nosat'
    : 1
    ? 'fs1 == 0 and fe1 == 0x000 and fm1 == 0x0000000000038 and fs2 == 1 and fe2 ==
      0x000 and fm2 == 0x00000000fffc9 and  fcsr == 0x0 and rm_val == 7   #nosat'
    : 1
    ? 'fs1 == 0 and fe1 == 0x000 and fm1 == 0x000000000001d and fs2 == 1 and fe2 ==
      0x000 and fm2 == 0x00000001fffe4 and  fcsr == 0x0 and rm_val == 7   #nosat'
    : 1
    ? 'fs1 == 0 and fe1 == 0x000 and fm1 == 0x0000000000033 and fs2 == 1 and fe2 ==
      0x000 and fm2 == 0x00000003fffce and  fcsr == 0x0 and rm_val == 7   #nosat'
    : 1
    ? 'fs1 == 0 and fe1 == 0x000 and fm1 == 0x0000000000005 and fs2 == 0 and fe2 ==
      0x000 and fm2 == 0x0000000000005 and  fcsr == 0x0 and rm_val == 7   #nosat'
    : 1
    ? 'fs1 == 0 and fe1 == 0x000 and fm1 == 0x0000000000015 and fs2 == 0 and fe2 ==
      0x000 and fm2 == 0x0000000000018 and  fcsr == 0x0 and rm_val == 7   #nosat'
    : 1
    ? 'fs1 == 0 and fe1 == 0x000 and fm1 == 0x000000000005b and fs2 == 0 and fe2 ==
      0x000 and fm2 == 0x0000000000060 and  fcsr == 0x0 and rm_val == 7   #nosat'
    : 1
    ? 'fs1 == 0 and fe1 == 0x000 and fm1 == 0x0000000000057 and fs2 == 0 and fe2 ==
      0x000 and fm2 == 0x0000000000060 and  fcsr == 0x0 and rm_val == 7   #nosat'
    : 1
    ? 'fs1 == 0 and fe1 == 0x000 and fm1 == 0x0000000000046 and fs2 == 0 and fe2 ==
      0x000 and fm2 == 0x0000000000057 and  fcsr == 0x0 and rm_val == 7   #nosat'
    : 1
    ? 'fs1 == 0 and fe1 == 0x000 and fm1 == 0x0000000000051 and fs2 == 0 and fe2 ==
      0x000 and fm2 == 0x0000000000072 and  fcsr == 0x0 and rm_val == 7   #nosat'
    : 1
    ? 'fs1 == 0 and fe1 == 0x000 and fm1 == 0x0000000000043 and fs2 == 0 and fe2 ==
      0x000 and fm2 == 0x0000000000084 and  fcsr == 0x0 and rm_val == 7   #nosat'
    : 1
    ? 'fs1 == 0 and fe1 == 0x000 and fm1 == 0x000000000001d and fs2 == 0 and fe2 ==
      0x000 and fm2 == 0x000000000009e and  fcsr == 0x0 and rm_val == 7   #nosat'
    : 1
    ? 'fs1 == 0 and fe1 == 0x000 and fm1 == 0x0000000000054 and fs2 == 0 and fe2 ==
      0x000 and fm2 == 0x0000000000155 and  fcsr == 0x0 and rm_val == 7   #nosat'
    : 1
    ? 'fs1 == 0 and fe1 == 0x000 and fm1 == 0x0000000000033 and fs2 == 0 and fe2 ==
      0x000 and fm2 == 0x0000000000234 and  fcsr == 0x0 and rm_val == 7   #nosat'
    : 1
    ? 'fs1 == 0 and fe1 == 0x000 and fm1 == 0x000000000004a and fs2 == 0 and fe2 ==
      0x000 and fm2 == 0x000000000044b and  fcsr == 0x0 and rm_val == 7   #nosat'
    : 1
    ? 'fs1 == 0 and fe1 == 0x000 and fm1 == 0x0000000000055 and fs2 == 0 and fe2 ==
      0x000 and fm2 == 0x0000000000856 and  fcsr == 0x0 and rm_val == 7   #nosat'
    : 1
    ? 'fs1 == 0 and fe1 == 0x000 and fm1 == 0x0000000000037 and fs2 == 0 and fe2 ==
      0x000 and fm2 == 0x0000000001038 and  fcsr == 0x0 and rm_val == 7   #nosat'
    : 1
    ? 'fs1 == 0 and fe1 == 0x000 and fm1 == 0x000000000005f and fs2 == 0 and fe2 ==
      0x000 and fm2 == 0x0000000002060 and  fcsr == 0x0 and rm_val == 7   #nosat'
    : 1
    ? 'fs1 == 0 and fe1 == 0x000 and fm1 == 0x0000000000011 and fs2 == 0 and fe2 ==
      0x000 and fm2 == 0x0000000004012 and  fcsr == 0x0 and rm_val == 7   #nosat'
    : 1
    ? 'fs1 == 0 and fe1 == 0x000 and fm1 == 0x0000000000007 and fs2 == 0 and fe2 ==
      0x000 and fm2 == 0x0000000008008 and  fcsr == 0x0 and rm_val == 7   #nosat'
    : 1
    ? 'fs1 == 0 and fe1 == 0x000 and fm1 == 0x000000000000a and fs2 == 0 and fe2 ==
      0x000 and fm2 == 0x000000001000b and  fcsr == 0x0 and rm_val == 7   #nosat'
    : 1
    ? 'fs1 == 0 and fe1 == 0x000 and fm1 == 0x0000000000028 and fs2 == 0 and fe2 ==
      0x000 and fm2 == 0x0000000020029 and  fcsr == 0x0 and rm_val == 7   #nosat'
    : 1
    ? 'fs1 == 0 and fe1 == 0x000 and fm1 == 0x0000000000060 and fs2 == 0 and fe2 ==
      0x000 and fm2 == 0x0000000040061 and  fcsr == 0x0 and rm_val == 7   #nosat'
    : 1
    ? 'fs1 == 0 and fe1 == 0x000 and fm1 == 0x0000000000036 and fs2 == 0 and fe2 ==
      0x000 and fm2 == 0x0000000080037 and  fcsr == 0x0 and rm_val == 7   #nosat'
    : 1
    ? 'fs1 == 0 and fe1 == 0x000 and fm1 == 0x0000000000021 and fs2 == 0 and fe2 ==
      0x000 and fm2 == 0x0000000100022 and  fcsr == 0x0 and rm_val == 7   #nosat'
    : 1
    ? 'fs1 == 0 and fe1 == 0x000 and fm1 == 0x0000000000002 and fs2 == 0 and fe2 ==
      0x000 and fm2 == 0x0000000200003 and  fcsr == 0x0 and rm_val == 7   #nosat'
    : 1
    ? 'fs1 == 0 and fe1 == 0x000 and fm1 == 0x0000000000005 and fs2 == 0 and fe2 ==
      0x000 and fm2 == 0x0000000400006 and  fcsr == 0x0 and rm_val == 7   #nosat'
    : 1
    ? 'fs1 == 0 and fe1 == 0x000 and fm1 == 0x000000000001c and fs2 == 1 and fe2 ==
      0x000 and fm2 == 0xfffffffffffe2 and  fcsr == 0x0 and rm_val == 7   #nosat'
    : 1
    ? 'fs1 == 0 and fe1 == 0x000 and fm1 == 0x000000000003b and fs2 == 1 and fe2 ==
      0x000 and fm2 == 0xfffffffffffc2 and  fcsr == 0x0 and rm_val == 7   #nosat'
    : 1
    ? 'fs1 == 0 and fe1 == 0x000 and fm1 == 0x000000000005b and fs2 == 1 and fe2 ==
      0x000 and fm2 == 0xfffffffffffa0 and  fcsr == 0x0 and rm_val == 7   #nosat'
    : 1
    ? 'fs1 == 0 and fe1 == 0x000 and fm1 == 0x0000000000042 and fs2 == 1 and fe2 ==
      0x000 and fm2 == 0xfffffffffffb5 and  fcsr == 0x0 and rm_val == 7   #nosat'
    : 1
    ? 'fs1 == 0 and fe1 == 0x000 and fm1 == 0x0000000000031 and fs2 == 1 and fe2 ==
      0x000 and fm2 == 0xfffffffffffbe and  fcsr == 0x0 and rm_val == 7   #nosat'
    : 1
    ? 'fs1 == 0 and fe1 == 0x000 and fm1 == 0x000000000002d and fs2 == 1 and fe2 ==
      0x000 and fm2 == 0xfffffffffffb2 and  fcsr == 0x0 and rm_val == 7   #nosat'
    : 1
    ? 'fs1 == 0 and fe1 == 0x000 and fm1 == 0x000000000001b and fs2 == 1 and fe2 ==
      0x000 and fm2 == 0xfffffffffffa4 and  fcsr == 0x0 and rm_val == 7   #nosat'
    : 1
    ? 'fs1 == 0 and fe1 == 0x000 and fm1 == 0x0000000000057 and fs2 == 1 and fe2 ==
      0x000 and fm2 == 0xfffffffffff28 and  fcsr == 0x0 and rm_val == 7   #nosat'
    : 1
    ? 'fs1 == 0 and fe1 == 0x000 and fm1 == 0x000000000004c and fs2 == 1 and fe2 ==
      0x000 and fm2 == 0xffffffffffeb3 and  fcsr == 0x0 and rm_val == 7   #nosat'
    : 1
    ? 'fs1 == 0 and fe1 == 0x000 and fm1 == 0x0000000000040 and fs2 == 1 and fe2 ==
      0x000 and fm2 == 0xffffffffffdbf and  fcsr == 0x0 and rm_val == 7   #nosat'
    : 1
    ? 'fs1 == 0 and fe1 == 0x000 and fm1 == 0x0000000000056 and fs2 == 1 and fe2 ==
      0x000 and fm2 == 0xffffffffffba9 and  fcsr == 0x0 and rm_val == 7   #nosat'
    : 1
    ? 'fs1 == 0 and fe1 == 0x000 and fm1 == 0x0000000000026 and fs2 == 1 and fe2 ==
      0x000 and fm2 == 0xffffffffff7d9 and  fcsr == 0x0 and rm_val == 7   #nosat'
    : 1
    ? 'fs1 == 0 and fe1 == 0x000 and fm1 == 0x0000000000040 and fs2 == 1 and fe2 ==
      0x000 and fm2 == 0xfffffffffefbf and  fcsr == 0x0 and rm_val == 7   #nosat'
    : 1
    ? 'fs1 == 0 and fe1 == 0x000 and fm1 == 0x000000000002a and fs2 == 1 and fe2 ==
      0x000 and fm2 == 0xfffffffffdfd5 and  fcsr == 0x0 and rm_val == 7   #nosat'
    : 1
    ? 'fs1 == 0 and fe1 == 0x000 and fm1 == 0x0000000000034 and fs2 == 1 and fe2 ==
      0x000 and fm2 == 0xfffffffffbfcb and  fcsr == 0x0 and rm_val == 7   #nosat'
    : 1
    ? 'fs1 == 0 and fe1 == 0x000 and fm1 == 0x0000000000003 and fs2 == 1 and fe2 ==
      0x000 and fm2 == 0xfffffffff7ffc and  fcsr == 0x0 and rm_val == 7   #nosat'
    : 1
    ? 'fs1 == 0 and fe1 == 0x000 and fm1 == 0x000000000001a and fs2 == 1 and fe2 ==
      0x000 and fm2 == 0xffffffffeffe5 and  fcsr == 0x0 and rm_val == 7   #nosat'
    : 1
    ? 'fs1 == 0 and fe1 == 0x000 and fm1 == 0x0000000000049 and fs2 == 1 and fe2 ==
      0x000 and fm2 == 0xffffffffdffb6 and  fcsr == 0x0 and rm_val == 7   #nosat'
    : 1
    ? 'fs1 == 0 and fe1 == 0x000 and fm1 == 0x000000000002c and fs2 == 1 and fe2 ==
      0x000 and fm2 == 0xffffffffbffd3 and  fcsr == 0x0 and rm_val == 7   #nosat'
    : 1
    ? 'fs1 == 0 and fe1 == 0x000 and fm1 == 0x000000000001c and fs2 == 1 and fe2 ==
      0x000 and fm2 == 0xffffffff7ffe3 and  fcsr == 0x0 and rm_val == 7   #nosat'
    : 1
    ? 'fs1 == 0 and fe1 == 0x000 and fm1 == 0x0000000000057 and fs2 == 1 and fe2 ==
      0x000 and fm2 == 0xfffffffefffa8 and  fcsr == 0x0 and rm_val == 7   #nosat'
    : 1
    ? 'fs1 == 0 and fe1 == 0x000 and fm1 == 0x0000000000031 and fs2 == 1 and fe2 ==
      0x000 and fm2 == 0xfffffffdfffce and  fcsr == 0x0 and rm_val == 7   #nosat'
    : 1
    ? 'fs1 == 0 and fe1 == 0x000 and fm1 == 0x000000000002d and fs2 == 1 and fe2 ==
      0x000 and fm2 == 0xfffffffbfffd2 and  fcsr == 0x0 and rm_val == 7   #nosat'
    : 1
    ? 'fs1 == 0 and fe1 == 0x000 and fm1 == 0x0000000000045 and fs2 == 0 and fe2 ==
      0x001 and fm2 == 0x0000000000043 and  fcsr == 0x0 and rm_val == 7   #nosat'
    : 1
    ? 'fs1 == 0 and fe1 == 0x000 and fm1 == 0x0000000000063 and fs2 == 0 and fe2 ==
      0x001 and fm2 == 0x0000000000060 and  fcsr == 0x0 and rm_val == 7   #nosat'
    : 1
    ? 'fs1 == 0 and fe1 == 0x000 and fm1 == 0x000000000001f and fs2 == 0 and fe2 ==
      0x001 and fm2 == 0x000000000001a and  fcsr == 0x0 and rm_val == 7   #nosat'
    : 1
    ? 'fs1 == 0 and fe1 == 0x000 and fm1 == 0x000000000005d and fs2 == 0 and fe2 ==
      0x001 and fm2 == 0x0000000000054 and  fcsr == 0x0 and rm_val == 7   #nosat'
    : 1
    ? 'fs1 == 0 and fe1 == 0x000 and fm1 == 0x000000000000b and fs2 == 0 and fe2 ==
      0x000 and fm2 == 0xffffffffffffa and  fcsr == 0x0 and rm_val == 7   #nosat'
    : 1
    ? 'fs1 == 0 and fe1 == 0x000 and fm1 == 0x0000000000016 and fs2 == 0 and fe2 ==
      0x000 and fm2 == 0xffffffffffff5 and  fcsr == 0x0 and rm_val == 7   #nosat'
    : 1
    ? 'fs1 == 0 and fe1 == 0x000 and fm1 == 0x0000000000045 and fs2 == 0 and fe2 ==
      0x001 and fm2 == 0x0000000000004 and  fcsr == 0x0 and rm_val == 7   #nosat'
    : 1
    ? 'fs1 == 0 and fe1 == 0x000 and fm1 == 0x0000000000023 and fs2 == 0 and fe2 ==
      0x000 and fm2 == 0xfffffffffffa2 and  fcsr == 0x0 and rm_val == 7   #nosat'
    : 1
    ? 'fs1 == 0 and fe1 == 0x000 and fm1 == 0x000000000002b and fs2 == 0 and fe2 ==
      0x000 and fm2 == 0xfffffffffff2a and  fcsr == 0x0 and rm_val == 7   #nosat'
    : 1
    ? 'fs1 == 0 and fe1 == 0x000 and fm1 == 0x0000000000041 and fs2 == 0 and fe2 ==
      0x000 and fm2 == 0xffffffffffe40 and  fcsr == 0x0 and rm_val == 7   #nosat'
    : 1
    ? 'fs1 == 0 and fe1 == 0x000 and fm1 == 0x0000000000030 and fs2 == 0 and fe2 ==
      0x000 and fm2 == 0xffffffffffc2f and  fcsr == 0x0 and rm_val == 7   #nosat'
    : 1
    ? 'fs1 == 0 and fe1 == 0x000 and fm1 == 0x000000000002c and fs2 == 0 and fe2 ==
      0x000 and fm2 == 0xffffffffff82b and  fcsr == 0x0 and rm_val == 7   #nosat'
    : 1
    ? 'fs1 == 0 and fe1 == 0x000 and fm1 == 0x0000000000026 and fs2 == 0 and fe2 ==
      0x000 and fm2 == 0xffffffffff025 and  fcsr == 0x0 and rm_val == 7   #nosat'
    : 1
    ? 'fs1 == 0 and fe1 == 0x000 and fm1 == 0x000000000004e and fs2 == 0 and fe2 ==
      0x000 and fm2 == 0xfffffffffe04d and  fcsr == 0x0 and rm_val == 7   #nosat'
    : 1
    ? 'fs1 == 0 and fe1 == 0x000 and fm1 == 0x000000000003f and fs2 == 0 and fe2 ==
      0x000 and fm2 == 0xfffffffffc03e and  fcsr == 0x0 and rm_val == 7   #nosat'
    : 1
    ? 'fs1 == 0 and fe1 == 0x000 and fm1 == 0x000000000004b and fs2 == 0 and fe2 ==
      0x000 and fm2 == 0xfffffffff804a and  fcsr == 0x0 and rm_val == 7   #nosat'
    : 1
    ? 'fs1 == 0 and fe1 == 0x000 and fm1 == 0x0000000000063 and fs2 == 0 and fe2 ==
      0x000 and fm2 == 0xfffffffff0062 and  fcsr == 0x0 and rm_val == 7   #nosat'
    : 1
    ? 'fs1 == 0 and fe1 == 0x000 and fm1 == 0x000000000002a and fs2 == 0 and fe2 ==
      0x000 and fm2 == 0xffffffffe0029 and  fcsr == 0x0 and rm_val == 7   #nosat'
    : 1
    ? 'fs1 == 0 and fe1 == 0x000 and fm1 == 0x0000000000035 and fs2 == 0 and fe2 ==
      0x000 and fm2 == 0xffffffffc0034 and  fcsr == 0x0 and rm_val == 7   #nosat'
    : 1
    ? 'fs1 == 0 and fe1 == 0x000 and fm1 == 0x0000000000031 and fs2 == 0 and fe2 ==
      0x000 and fm2 == 0xffffffff80030 and  fcsr == 0x0 and rm_val == 7   #nosat'
    : 1
    ? 'fs1 == 0 and fe1 == 0x000 and fm1 == 0x0000000000011 and fs2 == 0 and fe2 ==
      0x000 and fm2 == 0xffffffff00010 and  fcsr == 0x0 and rm_val == 7   #nosat'
    : 1
    ? 'fs1 == 0 and fe1 == 0x000 and fm1 == 0x000000000000f and fs2 == 0 and fe2 ==
      0x000 and fm2 == 0xfffffffe0000e and  fcsr == 0x0 and rm_val == 7   #nosat'
    : 1
    ? 'fs1 == 0 and fe1 == 0x000 and fm1 == 0x000000000004c and fs2 == 0 and fe2 ==
      0x000 and fm2 == 0xfffffffc0004b and  fcsr == 0x0 and rm_val == 7   #nosat'
    : 1
    ? 'fs1 == 0 and fe1 == 0x001 and fm1 == 0x000000000000a and fs2 == 0 and fe2 ==
      0x000 and fm2 == 0x0000000000009 and  fcsr == 0x0 and rm_val == 7   #nosat'
    : 1
    ? 'fs1 == 0 and fe1 == 0x001 and fm1 == 0x0000000000047 and fs2 == 0 and fe2 ==
      0x000 and fm2 == 0x0000000000045 and  fcsr == 0x0 and rm_val == 7   #nosat'
    : 1
    ? 'fs1 == 0 and fe1 == 0x001 and fm1 == 0x0000000000049 and fs2 == 0 and fe2 ==
      0x000 and fm2 == 0x0000000000045 and  fcsr == 0x0 and rm_val == 7   #nosat'
    : 1
    ? 'fs1 == 0 and fe1 == 0x001 and fm1 == 0x0000000000023 and fs2 == 0 and fe2 ==
      0x000 and fm2 == 0x000000000001b and  fcsr == 0x0 and rm_val == 7   #nosat'
    : 1
    ? 'fs1 == 0 and fe1 == 0x001 and fm1 == 0x0000000000026 and fs2 == 0 and fe2 ==
      0x000 and fm2 == 0x0000000000016 and  fcsr == 0x0 and rm_val == 7   #nosat'
    : 1
    ? 'fs1 == 0 and fe1 == 0x001 and fm1 == 0x0000000000045 and fs2 == 0 and fe2 ==
      0x000 and fm2 == 0x0000000000025 and  fcsr == 0x0 and rm_val == 7   #nosat'
    : 1
    ? 'fs1 == 0 and fe1 == 0x001 and fm1 == 0x000000000003b and fs2 == 1 and fe2 ==
      0x000 and fm2 == 0x0000000000005 and  fcsr == 0x0 and rm_val == 7   #nosat'
    : 1
    ? 'fs1 == 0 and fe1 == 0x001 and fm1 == 0x000000000000e and fs2 == 1 and fe2 ==
      0x000 and fm2 == 0x0000000000072 and  fcsr == 0x0 and rm_val == 7   #nosat'
    : 1
    ? 'fs1 == 0 and fe1 == 0x001 and fm1 == 0x0000000000026 and fs2 == 1 and fe2 ==
      0x000 and fm2 == 0x00000000000da and  fcsr == 0x0 and rm_val == 7   #nosat'
    : 1
    ? 'fs1 == 0 and fe1 == 0x001 and fm1 == 0x000000000004f and fs2 == 1 and fe2 ==
      0x000 and fm2 == 0x00000000001b1 and  fcsr == 0x0 and rm_val == 7   #nosat'
    : 1
    ? 'fs1 == 0 and fe1 == 0x001 and fm1 == 0x0000000000002 and fs2 == 1 and fe2 ==
      0x000 and fm2 == 0x00000000003fe and  fcsr == 0x0 and rm_val == 7   #nosat'
    : 1
    ? 'fs1 == 0 and fe1 == 0x001 and fm1 == 0x0000000000035 and fs2 == 1 and fe2 ==
      0x000 and fm2 == 0x00000000007cb and  fcsr == 0x0 and rm_val == 7   #nosat'
    : 1
    ? 'fs1 == 0 and fe1 == 0x001 and fm1 == 0x0000000000006 and fs2 == 1 and fe2 ==
      0x000 and fm2 == 0x0000000000ffa and  fcsr == 0x0 and rm_val == 7   #nosat'
    : 1
    ? 'fs1 == 0 and fe1 == 0x001 and fm1 == 0x000000000001f and fs2 == 1 and fe2 ==
      0x000 and fm2 == 0x0000000001fe1 and  fcsr == 0x0 and rm_val == 7   #nosat'
    : 1
    ? 'fs1 == 0 and fe1 == 0x001 and fm1 == 0x0000000000036 and fs2 == 1 and fe2 ==
      0x000 and fm2 == 0x0000000003fca and  fcsr == 0x0 and rm_val == 7   #nosat'
    : 1
    ? 'fs1 == 0 and fe1 == 0x001 and fm1 == 0x000000000000f and fs2 == 1 and fe2 ==
      0x000 and fm2 == 0x0000000007ff1 and  fcsr == 0x0 and rm_val == 7   #nosat'
    : 1
    ? 'fs1 == 0 and fe1 == 0x001 and fm1 == 0x0000000000016 and fs2 == 1 and fe2 ==
      0x000 and fm2 == 0x000000000ffea and  fcsr == 0x0 and rm_val == 7   #nosat'
    : 1
    ? 'fs1 == 0 and fe1 == 0x001 and fm1 == 0x000000000001f and fs2 == 1 and fe2 ==
      0x000 and fm2 == 0x000000001ffe1 and  fcsr == 0x0 and rm_val == 7   #nosat'
    : 1
    ? 'fs1 == 0 and fe1 == 0x001 and fm1 == 0x0000000000060 and fs2 == 1 and fe2 ==
      0x000 and fm2 == 0x000000003ffa0 and  fcsr == 0x0 and rm_val == 7   #nosat'
    : 1
    ? 'fs1 == 0 and fe1 == 0x001 and fm1 == 0x0000000000038 and fs2 == 1 and fe2 ==
      0x000 and fm2 == 0x000000007ffc8 and  fcsr == 0x0 and rm_val == 7   #nosat'
    : 1
    ? 'fs1 == 0 and fe1 == 0x001 and fm1 == 0x0000000000046 and fs2 == 1 and fe2 ==
      0x000 and fm2 == 0x00000000fffba and  fcsr == 0x0 and rm_val == 7   #nosat'
    : 1
    ? 'fs1 == 0 and fe1 == 0x001 and fm1 == 0x0000000000047 and fs2 == 1 and fe2 ==
      0x000 and fm2 == 0x00000001fffb9 and  fcsr == 0x0 and rm_val == 7   #nosat'
    : 1
    ? 'fs1 == 0 and fe1 == 0x001 and fm1 == 0x000000000005c and fs2 == 1 and fe2 ==
      0x000 and fm2 == 0x00000003fffa4 and  fcsr == 0x0 and rm_val == 7   #nosat'
    : 1
    ? 'fs1 == 0 and fe1 == 0x001 and fm1 == 0x0000000000029 and fs2 == 0 and fe2 ==
      0x002 and fm2 == 0x0000000000015 and  fcsr == 0x0 and rm_val == 7   #nosat'
    : 1
    ? 'fs1 == 0 and fe1 == 0x001 and fm1 == 0x000000000001b and fs2 == 0 and fe2 ==
      0x002 and fm2 == 0x000000000000e and  fcsr == 0x0 and rm_val == 7   #nosat'
    : 1
    ? 'fs1 == 0 and fe1 == 0x001 and fm1 == 0x0000000000029 and fs2 == 0 and fe2 ==
      0x002 and fm2 == 0x0000000000016 and  fcsr == 0x0 and rm_val == 7   #nosat'
    : 1
    ? 'fs1 == 0 and fe1 == 0x001 and fm1 == 0x0000000000004 and fs2 == 0 and fe2 ==
      0x002 and fm2 == 0x0000000000006 and  fcsr == 0x0 and rm_val == 7   #nosat'
    : 1
    ? 'fs1 == 0 and fe1 == 0x001 and fm1 == 0x0000000000026 and fs2 == 0 and fe2 ==
      0x002 and fm2 == 0x000000000001b and  fcsr == 0x0 and rm_val == 7   #nosat'
    : 1
    ? 'fs1 == 0 and fe1 == 0x001 and fm1 == 0x000000000004d and fs2 == 0 and fe2 ==
      0x002 and fm2 == 0x0000000000036 and  fcsr == 0x0 and rm_val == 7   #nosat'
    : 1
    ? 'fs1 == 0 and fe1 == 0x001 and fm1 == 0x000000000003a and fs2 == 0 and fe2 ==
      0x002 and fm2 == 0x000000000003d and  fcsr == 0x0 and rm_val == 7   #nosat'
    : 1
    ? 'fs1 == 0 and fe1 == 0x001 and fm1 == 0x0000000000029 and fs2 == 0 and fe2 ==
      0x002 and fm2 == 0x0000000000054 and  fcsr == 0x0 and rm_val == 7   #nosat'
    : 1
    ? 'fs1 == 0 and fe1 == 0x001 and fm1 == 0x0000000000009 and fs2 == 0 and fe2 ==
      0x002 and fm2 == 0x0000000000084 and  fcsr == 0x0 and rm_val == 7   #nosat'
    : 1
    ? 'fs1 == 0 and fe1 == 0x001 and fm1 == 0x0000000000029 and fs2 == 0 and fe2 ==
      0x002 and fm2 == 0x0000000000114 and  fcsr == 0x0 and rm_val == 7   #nosat'
    : 1
    ? 'fs1 == 0 and fe1 == 0x001 and fm1 == 0x000000000003b and fs2 == 0 and fe2 ==
      0x002 and fm2 == 0x000000000021e and  fcsr == 0x0 and rm_val == 7   #nosat'
    : 1
    ? 'fs1 == 0 and fe1 == 0x001 and fm1 == 0x0000000000021 and fs2 == 0 and fe2 ==
      0x002 and fm2 == 0x0000000000410 and  fcsr == 0x0 and rm_val == 7   #nosat'
    : 1
    ? 'fs1 == 0 and fe1 == 0x001 and fm1 == 0x0000000000050 and fs2 == 0 and fe2 ==
      0x002 and fm2 == 0x0000000000828 and  fcsr == 0x0 and rm_val == 7   #nosat'
    : 1
    ? 'fs1 == 0 and fe1 == 0x001 and fm1 == 0x0000000000059 and fs2 == 0 and fe2 ==
      0x002 and fm2 == 0x000000000102c and  fcsr == 0x0 and rm_val == 7   #nosat'
    : 1
    ? 'fs1 == 0 and fe1 == 0x001 and fm1 == 0x0000000000055 and fs2 == 0 and fe2 ==
      0x002 and fm2 == 0x000000000202a and  fcsr == 0x0 and rm_val == 7   #nosat'
    : 1
    ? 'fs1 == 0 and fe1 == 0x001 and fm1 == 0x0000000000022 and fs2 == 0 and fe2 ==
      0x002 and fm2 == 0x0000000004011 and  fcsr == 0x0 and rm_val == 7   #nosat'
    : 1
    ? 'fs1 == 0 and fe1 == 0x001 and fm1 == 0x0000000000046 and fs2 == 0 and fe2 ==
      0x002 and fm2 == 0x0000000008023 and  fcsr == 0x0 and rm_val == 7   #nosat'
    : 1
    ? 'fs1 == 0 and fe1 == 0x001 and fm1 == 0x0000000000028 and fs2 == 0 and fe2 ==
      0x002 and fm2 == 0x0000000010014 and  fcsr == 0x0 and rm_val == 7   #nosat'
    : 1
    ? 'fs1 == 0 and fe1 == 0x001 and fm1 == 0x0000000000020 and fs2 == 0 and fe2 ==
      0x002 and fm2 == 0x0000000020010 and  fcsr == 0x0 and rm_val == 7   #nosat'
    : 1
    ? 'fs1 == 0 and fe1 == 0x001 and fm1 == 0x000000000000b and fs2 == 0 and fe2 ==
      0x002 and fm2 == 0x0000000040006 and  fcsr == 0x0 and rm_val == 7   #nosat'
    : 1
    ? 'fs1 == 0 and fe1 == 0x001 and fm1 == 0x000000000000c and fs2 == 0 and fe2 ==
      0x002 and fm2 == 0x0000000080006 and  fcsr == 0x0 and rm_val == 7   #nosat'
    : 1
    ? 'fs1 == 0 and fe1 == 0x001 and fm1 == 0x000000000003a and fs2 == 0 and fe2 ==
      0x002 and fm2 == 0x000000010001d and  fcsr == 0x0 and rm_val == 7   #nosat'
    : 1
    ? 'fs1 == 0 and fe1 == 0x001 and fm1 == 0x0000000000054 and fs2 == 0 and fe2 ==
      0x002 and fm2 == 0x000000020002a and  fcsr == 0x0 and rm_val == 7   #nosat'
    : 1
    ? 'fs1 == 0 and fe1 == 0x7fe and fm1 == 0x0000000000053 and fs2 == 1 and fe2 ==
      0x7fd and fm2 == 0xfffffffffff56 and  fcsr == 0x0 and rm_val == 7   #nosat'
    : 1
    ? 'fs1 == 0 and fe1 == 0x7fe and fm1 == 0x000000000001e and fs2 == 1 and fe2 ==
      0x7fd and fm2 == 0xfffffffffffbe and  fcsr == 0x0 and rm_val == 7   #nosat'
    : 1
    ? 'fs1 == 0 and fe1 == 0x7fe and fm1 == 0x0000000000028 and fs2 == 1 and fe2 ==
      0x7fd and fm2 == 0xfffffffffffa6 and  fcsr == 0x0 and rm_val == 7   #nosat'
    : 1
    ? 'fs1 == 0 and fe1 == 0x7fe and fm1 == 0x000000000002a and fs2 == 1 and fe2 ==
      0x7fd and fm2 == 0xfffffffffff9a and  fcsr == 0x0 and rm_val == 7   #nosat'
    : 1
    ? 'fs1 == 0 and fe1 == 0x7fe and fm1 == 0x0000000000029 and fs2 == 1 and fe2 ==
      0x7fd and fm2 == 0xfffffffffff8c and  fcsr == 0x0 and rm_val == 7   #nosat'
    : 1
    ? 'fs1 == 0 and fe1 == 0x7fe and fm1 == 0x0000000000027 and fs2 == 1 and fe2 ==
      0x7fd and fm2 == 0xfffffffffff70 and  fcsr == 0x0 and rm_val == 7   #nosat'
    : 1
    ? 'fs1 == 0 and fe1 == 0x7fe and fm1 == 0x000000000002b and fs2 == 1 and fe2 ==
      0x7fd and fm2 == 0xfffffffffff28 and  fcsr == 0x0 and rm_val == 7   #nosat'
    : 1
    ? 'fs1 == 0 and fe1 == 0x7fe and fm1 == 0x0000000000046 and fs2 == 1 and fe2 ==
      0x7fd and fm2 == 0xffffffffffe72 and  fcsr == 0x0 and rm_val == 7   #nosat'
    : 1
    ? 'fs1 == 0 and fe1 == 0x7fe and fm1 == 0x000000000004b and fs2 == 1 and fe2 ==
      0x7fd and fm2 == 0xffffffffffd68 and  fcsr == 0x0 and rm_val == 7   #nosat'
    : 1
    ? 'fs1 == 0 and fe1 == 0x7fe and fm1 == 0x000000000000c and fs2 == 1 and fe2 ==
      0x7fd and fm2 == 0xffffffffffbe6 and  fcsr == 0x0 and rm_val == 7   #nosat'
    : 1
    ? 'fs1 == 0 and fe1 == 0x7fe and fm1 == 0x000000000001d and fs2 == 1 and fe2 ==
      0x7fd and fm2 == 0xffffffffff7c4 and  fcsr == 0x0 and rm_val == 7   #nosat'
    : 1
    ? 'fs1 == 0 and fe1 == 0x7fe and fm1 == 0x0000000000020 and fs2 == 1 and fe2 ==
      0x7fd and fm2 == 0xfffffffffefbe and  fcsr == 0x0 and rm_val == 7   #nosat'
    : 1
    ? 'fs1 == 0 and fe1 == 0x7fe and fm1 == 0x000000000000a and fs2 == 1 and fe2 ==
      0x7fd and fm2 == 0xfffffffffdfea and  fcsr == 0x0 and rm_val == 7   #nosat'
    : 1
    ? 'fs1 == 0 and fe1 == 0x7fe and fm1 == 0x0000000000047 and fs2 == 1 and fe2 ==
      0x7fd and fm2 == 0xfffffffffbf70 and  fcsr == 0x0 and rm_val == 7   #nosat'
    : 1
    ? 'fs1 == 0 and fe1 == 0x7fe and fm1 == 0x000000000005e and fs2 == 1 and fe2 ==
      0x7fd and fm2 == 0xfffffffff7f42 and  fcsr == 0x0 and rm_val == 7   #nosat'
    : 1
    ? 'fs1 == 0 and fe1 == 0x7fe and fm1 == 0x0000000000003 and fs2 == 1 and fe2 ==
      0x7fd and fm2 == 0xffffffffefff8 and  fcsr == 0x0 and rm_val == 7   #nosat'
    : 1
    ? 'fs1 == 0 and fe1 == 0x7fe and fm1 == 0x0000000000002 and fs2 == 1 and fe2 ==
      0x7fd and fm2 == 0xffffffffdfffa and  fcsr == 0x0 and rm_val == 7   #nosat'
    : 1
    ? 'fs1 == 0 and fe1 == 0x7fe and fm1 == 0x0000000000061 and fs2 == 1 and fe2 ==
      0x7fd and fm2 == 0xffffffffbff3c and  fcsr == 0x0 and rm_val == 7   #nosat'
    : 1
    ? 'fs1 == 0 and fe1 == 0x7fe and fm1 == 0x0000000000040 and fs2 == 1 and fe2 ==
      0x7fd and fm2 == 0xffffffff7ff7e and  fcsr == 0x0 and rm_val == 7   #nosat'
    : 1
    ? 'fs1 == 0 and fe1 == 0x7fe and fm1 == 0x0000000000014 and fs2 == 1 and fe2 ==
      0x7fd and fm2 == 0xfffffffefffd6 and  fcsr == 0x0 and rm_val == 7   #nosat'
    : 1
    ? 'fs1 == 0 and fe1 == 0x7fe and fm1 == 0x0000000000041 and fs2 == 1 and fe2 ==
      0x7fd and fm2 == 0xfffffffdfff7c and  fcsr == 0x0 and rm_val == 7   #nosat'
    : 1
    ? 'fs1 == 0 and fe1 == 0x7fe and fm1 == 0x000000000000a and fs2 == 1 and fe2 ==
      0x7fd and fm2 == 0xfffffffbfffea and  fcsr == 0x0 and rm_val == 7   #nosat'
    : 1
    ? 'fs1 == 0 and fe1 == 0x7fe and fm1 == 0x0000000000056 and fs2 == 1 and fe2 ==
      0x7fd and fm2 == 0xfffffff7fff52 and  fcsr == 0x0 and rm_val == 7   #nosat'
    : 1
    ? 'fs1 == 0 and fe1 == 0x7fe and fm1 == 0x0000000000017 and fs2 == 0 and fe2 ==
      0x7ff and fm2 == 0x0000000000000 and  fcsr == 0x0 and rm_val == 7   #nosat'
    : 1
    ? 'fs1 == 0 and fe1 == 0x7fe and fm1 == 0x0000000000013 and fs2 == 0 and fe2 ==
      0x7ff and fm2 == 0x0000000000000 and  fcsr == 0x0 and rm_val == 7   #nosat'
    : 1
    ? 'fs1 == 0 and fe1 == 0x7fe and fm1 == 0x0000000000028 and fs2 == 0 and fe2 ==
      0x7ff and fm2 == 0x0000000000000 and  fcsr == 0x0 and rm_val == 7   #nosat'
    : 1
    ? 'fs1 == 0 and fe1 == 0x7fe and fm1 == 0x000000000005b and fs2 == 0 and fe2 ==
      0x7ff and fm2 == 0x0000000000000 and  fcsr == 0x0 and rm_val == 7   #nosat'
    : 1
    ? 'fs1 == 0 and fe1 == 0x7fe and fm1 == 0x000000000004e and fs2 == 0 and fe2 ==
      0x7ff and fm2 == 0x0000000000000 and  fcsr == 0x0 and rm_val == 7   #nosat'
    : 1
    ? 'fs1 == 0 and fe1 == 0x7fe and fm1 == 0x0000000000011 and fs2 == 0 and fe2 ==
      0x7ff and fm2 == 0x0000000000000 and  fcsr == 0x0 and rm_val == 7   #nosat'
    : 1
    ? 'fs1 == 0 and fe1 == 0x7fe and fm1 == 0x000000000005d and fs2 == 0 and fe2 ==
      0x7ff and fm2 == 0x0000000000000 and  fcsr == 0x0 and rm_val == 7   #nosat'
    : 1
    ? 'fs1 == 0 and fe1 == 0x7fe and fm1 == 0x0000000000029 and fs2 == 0 and fe2 ==
      0x7ff and fm2 == 0x0000000000000 and  fcsr == 0x0 and rm_val == 7   #nosat'
    : 1
    ? 'fs1 == 0 and fe1 == 0x7fe and fm1 == 0x0000000000057 and fs2 == 0 and fe2 ==
      0x7ff and fm2 == 0x0000000000000 and  fcsr == 0x0 and rm_val == 7   #nosat'
    : 1
    ? 'fs1 == 0 and fe1 == 0x7fe and fm1 == 0x0000000000060 and fs2 == 0 and fe2 ==
      0x7ff and fm2 == 0x0000000000000 and  fcsr == 0x0 and rm_val == 7   #nosat'
    : 1
    ? 'fs1 == 0 and fe1 == 0x7fe and fm1 == 0x000000000001b and fs2 == 0 and fe2 ==
      0x7ff and fm2 == 0x0000000000000 and  fcsr == 0x0 and rm_val == 7   #nosat'
    : 1
    ? 'fs1 == 0 and fe1 == 0x7fe and fm1 == 0x0000000000027 and fs2 == 0 and fe2 ==
      0x7ff and fm2 == 0x0000000000000 and  fcsr == 0x0 and rm_val == 7   #nosat'
    : 1
    ? 'fs1 == 0 and fe1 == 0x7fe and fm1 == 0x0000000000045 and fs2 == 0 and fe2 ==
      0x7ff and fm2 == 0x0000000000000 and  fcsr == 0x0 and rm_val == 7   #nosat'
    : 1
    ? 'fs1 == 0 and fe1 == 0x7fe and fm1 == 0x0000000000007 and fs2 == 0 and fe2 ==
      0x7ff and fm2 == 0x0000000000000 and  fcsr == 0x0 and rm_val == 7   #nosat'
    : 1
    ? 'fs1 == 0 and fe1 == 0x7fe and fm1 == 0x0000000000056 and fs2 == 0 and fe2 ==
      0x7ff and fm2 == 0x0000000000000 and  fcsr == 0x0 and rm_val == 7   #nosat'
    : 1
    ? 'fs1 == 0 and fe1 == 0x7fe and fm1 == 0x0000000000021 and fs2 == 0 and fe2 ==
      0x7ff and fm2 == 0x0000000000000 and  fcsr == 0x0 and rm_val == 7   #nosat'
    : 1
    ? 'fs1 == 0 and fe1 == 0x7fe and fm1 == 0x0000000000058 and fs2 == 0 and fe2 ==
      0x7ff and fm2 == 0x0000000000000 and  fcsr == 0x0 and rm_val == 7   #nosat'
    : 1
    ? 'fs1 == 0 and fe1 == 0x7fe and fm1 == 0x0000000000038 and fs2 == 0 and fe2 ==
      0x7ff and fm2 == 0x0000000000000 and  fcsr == 0x0 and rm_val == 7   #nosat'
    : 1
    ? 'fs1 == 0 and fe1 == 0x7fe and fm1 == 0x0000000000039 and fs2 == 0 and fe2 ==
      0x7ff and fm2 == 0x0000000000000 and  fcsr == 0x0 and rm_val == 7   #nosat'
    : 1
    ? 'fs1 == 0 and fe1 == 0x7fe and fm1 == 0x000000000003b and fs2 == 0 and fe2 ==
      0x7ff and fm2 == 0x0000000000000 and  fcsr == 0x0 and rm_val == 7   #nosat'
    : 1
    ? 'fs1 == 0 and fe1 == 0x7fe and fm1 == 0x0000000000033 and fs2 == 0 and fe2 ==
      0x7ff and fm2 == 0x0000000000000 and  fcsr == 0x0 and rm_val == 7   #nosat'
    : 1
    coverage: 274/274
  total_coverage: 325/325
