---
fcvt.lu.d_b27:
  config:
  - check ISA:=regex(.*I.*Zfinx.*Zdinx.*)
  mnemonics:
    fcvt.lu.d: 16
    coverage: 1/1
  rd:
    x10: 1
    x12: 1
    x14: 1
    x16: 1
    x18: 1
    x2: 1
    x20: 1
    x22: 1
    x24: 1
    x26: 1
    x28: 1
    x30: 1
    x4: 1
    x6: 1
    x8: 1
    coverage: 15/15
  rs1:
    x10: 1
    x12: 1
    x14: 1
    x16: 1
    x18: 1
    x2: 1
    x20: 1
    x22: 1
    x24: 1
    x26: 1
    x28: 1
    x30: 1
    x4: 1
    x6: 1
    x8: 1
    coverage: 15/15
  val_comb:
    'fs1 == 0 and fe1 == 0x7ff and fm1 == 0x0000000000001 and  fcsr == 0x0 and rm_val == 7   #nosat': 1
    'fs1 == 1 and fe1 == 0x7ff and fm1 == 0x0000000000001 and  fcsr == 0x0 and rm_val == 7   #nosat': 1
    'fs1 == 0 and fe1 == 0x7ff and fm1 == 0x4aaaaaaaaaaaa and  fcsr == 0x0 and rm_val == 7   #nosat': 1
    'fs1 == 1 and fe1 == 0x7ff and fm1 == 0x4aaaaaaaaaaaa and  fcsr == 0x0 and rm_val == 7   #nosat': 1
    'fs1 == 0 and fe1 == 0x7ff and fm1 == 0x8000000000001 and  fcsr == 0x0 and rm_val == 7   #nosat': 1
    'fs1 == 1 and fe1 == 0x7ff and fm1 == 0x8000000000001 and  fcsr == 0x0 and rm_val == 7   #nosat': 1
    'fs1 == 0 and fe1 == 0x7ff and fm1 == 0xc000000000001 and  fcsr == 0x0 and rm_val == 7   #nosat': 1
    'fs1 == 1 and fe1 == 0x7ff and fm1 == 0xc000000000001 and  fcsr == 0x0 and rm_val == 7   #nosat': 1
    coverage: 8/8
  total_coverage: 39/39
