---
fnmsub_b18:
  config:
  - check ISA:=regex(.*I.*Zfinx.*)
  mnemonics:
    fnmsub.s: 285
    coverage: 1/1
  op_comb:
    rd == rs2 == rs3 != rs1: 1
    rs1 != rs2 and rs1 != rd and rs1 != rs3 and rs2 != rs3 and rs2 != rd and rs3 != rd: 274
    rs1 == rd != rs2 and rs1 == rd != rs3 and rs3 != rs2: 1
    rs1 == rd == rs3 != rs2: 1
    rs1 == rs2 != rs3 and rs1 == rs2 != rd and rd != rs3: 1
    rs1 == rs2 == rd != rs3: 1
    rs1 == rs2 == rs3 != rd: 1
    rs1 == rs2 == rs3 == rd: 1
    rs1 == rs3 != rs2 and rs1 == rs3 != rd and rd != rs2: 1
    rs2 == rd != rs1 and rs2 == rd != rs3 and rs3 != rs1: 1
    rs2 == rs3 != rs1 and rs2 == rs3 != rd and rd != rs1: 1
    rs3 == rd != rs1 and rs3 == rd != rs2 and rs2 != rs1: 1
    coverage: 12/12
  rd:
    x0: 1
    x1: 1
    x10: 1
    x11: 1
    x12: 1
    x13: 1
    x14: 1
    x15: 1
    x16: 1
    x17: 1
    x18: 1
    x19: 1
    x2: 1
    x20: 1
    x21: 1
    x22: 1
    x23: 1
    x24: 1
    x25: 1
    x26: 1
    x27: 1
    x28: 1
    x29: 1
    x3: 1
    x30: 1
    x31: 254
    x4: 1
    x5: 1
    x6: 1
    x7: 1
    x8: 1
    x9: 1
    coverage: 32/32
  rs1:
    x0: 1
    x1: 1
    x10: 1
    x11: 1
    x12: 1
    x13: 1
    x14: 1
    x15: 1
    x16: 1
    x17: 1
    x18: 1
    x19: 1
    x2: 1
    x20: 1
    x21: 1
    x22: 1
    x23: 1
    x24: 1
    x25: 1
    x26: 1
    x27: 1
    x28: 1
    x29: 1
    x3: 1
    x30: 253
    x31: 2
    x4: 1
    x5: 1
    x6: 1
    x7: 1
    x8: 1
    x9: 1
    coverage: 32/32
  rs2:
    x0: 1
    x1: 1
    x10: 1
    x11: 1
    x12: 1
    x13: 1
    x14: 1
    x15: 1
    x16: 1
    x17: 1
    x18: 1
    x19: 1
    x2: 1
    x20: 1
    x21: 1
    x22: 1
    x23: 1
    x24: 1
    x25: 1
    x26: 1
    x27: 1
    x28: 1
    x29: 252
    x3: 1
    x30: 3
    x31: 1
    x4: 1
    x5: 1
    x6: 1
    x7: 1
    x8: 1
    x9: 1
    coverage: 32/32
  rs3:
    x0: 1
    x1: 1
    x10: 1
    x11: 1
    x12: 1
    x13: 1
    x14: 1
    x15: 1
    x16: 1
    x17: 1
    x18: 1
    x19: 1
    x2: 1
    x20: 1
    x21: 1
    x22: 1
    x23: 1
    x24: 1
    x25: 1
    x26: 1
    x27: 1
    x28: 251
    x29: 4
    x3: 1
    x30: 1
    x31: 1
    x4: 1
    x5: 1
    x6: 1
    x7: 1
    x8: 1
    x9: 1
    coverage: 32/32
  val_comb:
    ? 'fs1 == 0 and fe1 == 0xfc and fm1 == 0x36c1bf and fs2 == 1 and fe2 == 0x00 and
      fm2 == 0x000000 and fs3 == 0 and fe3 == 0xe3 and fm3 == 0x3ffff8 and  fcsr ==
      0x0 and rm_val == 7   #nosat'
    : 2
    ? 'fs1 == 0 and fe1 == 0xfd and fm1 == 0x50fbe8 and fs2 == 1 and fe2 == 0x00 and
      fm2 == 0x000000 and fs3 == 0 and fe3 == 0xe3 and fm3 == 0x3ffff8 and  fcsr ==
      0x0 and rm_val == 7   #nosat'
    : 1
    ? 'fs1 == 0 and fe1 == 0xfd and fm1 == 0x0e1012 and fs2 == 1 and fe2 == 0x00 and
      fm2 == 0x000000 and fs3 == 0 and fe3 == 0xe3 and fm3 == 0x3ffff8 and  fcsr ==
      0x0 and rm_val == 7   #nosat'
    : 1
    ? 'fs1 == 0 and fe1 == 0xfd and fm1 == 0x67e7c0 and fs2 == 1 and fe2 == 0x00 and
      fm2 == 0x000000 and fs3 == 0 and fe3 == 0xe3 and fm3 == 0x3ffff8 and  fcsr ==
      0x0 and rm_val == 7   #nosat'
    : 1
    ? 'fs1 == 0 and fe1 == 0xfd and fm1 == 0x7046ce and fs2 == 1 and fe2 == 0x00 and
      fm2 == 0x000000 and fs3 == 0 and fe3 == 0xe3 and fm3 == 0x3ffff8 and  fcsr ==
      0x0 and rm_val == 7   #nosat'
    : 2
    ? 'fs1 == 0 and fe1 == 0xfa and fm1 == 0x494dfd and fs2 == 1 and fe2 == 0x00 and
      fm2 == 0x000000 and fs3 == 0 and fe3 == 0xe3 and fm3 == 0x3ffff8 and  fcsr ==
      0x0 and rm_val == 7   #nosat'
    : 1
    ? 'fs1 == 0 and fe1 == 0xf8 and fm1 == 0x21ceeb and fs2 == 1 and fe2 == 0x00 and
      fm2 == 0x000000 and fs3 == 0 and fe3 == 0xe3 and fm3 == 0x3ffff8 and  fcsr ==
      0x0 and rm_val == 7   #nosat'
    : 2
    ? 'fs1 == 0 and fe1 == 0xfe and fm1 == 0x20cb47 and fs2 == 0 and fe2 == 0x00 and
      fm2 == 0x000000 and fs3 == 0 and fe3 == 0xe3 and fm3 == 0x3ffff8 and  fcsr ==
      0x0 and rm_val == 7   #nosat'
    : 1
    ? 'fs1 == 0 and fe1 == 0xfc and fm1 == 0x472f12 and fs2 == 0 and fe2 == 0x00 and
      fm2 == 0x000000 and fs3 == 0 and fe3 == 0xe3 and fm3 == 0x3ffff8 and  fcsr ==
      0x0 and rm_val == 7   #nosat'
    : 1
    ? 'fs1 == 0 and fe1 == 0xfc and fm1 == 0x33f756 and fs2 == 0 and fe2 == 0x00 and
      fm2 == 0x000000 and fs3 == 0 and fe3 == 0xe3 and fm3 == 0x3ffff8 and  fcsr ==
      0x0 and rm_val == 7   #nosat'
    : 1
    ? 'fs1 == 0 and fe1 == 0xfe and fm1 == 0x3f29ee and fs2 == 0 and fe2 == 0x00 and
      fm2 == 0x000000 and fs3 == 0 and fe3 == 0xe3 and fm3 == 0x3ffff8 and  fcsr ==
      0x0 and rm_val == 7   #nosat'
    : 1
    ? 'fs1 == 0 and fe1 == 0xfd and fm1 == 0x3494c8 and fs2 == 0 and fe2 == 0x00 and
      fm2 == 0x000000 and fs3 == 0 and fe3 == 0xe3 and fm3 == 0x3ffff8 and  fcsr ==
      0x0 and rm_val == 7   #nosat'
    : 1
    ? 'fs1 == 0 and fe1 == 0xfe and fm1 == 0x2099c0 and fs2 == 0 and fe2 == 0x00 and
      fm2 == 0x000000 and fs3 == 0 and fe3 == 0xe3 and fm3 == 0x3ffff8 and  fcsr ==
      0x0 and rm_val == 7   #nosat'
    : 1
    ? 'fs1 == 0 and fe1 == 0xfd and fm1 == 0x36eb6c and fs2 == 0 and fe2 == 0x00 and
      fm2 == 0x000000 and fs3 == 0 and fe3 == 0xe3 and fm3 == 0x3ffff8 and  fcsr ==
      0x0 and rm_val == 7   #nosat'
    : 1
    ? 'fs1 == 0 and fe1 == 0xfd and fm1 == 0x7566f3 and fs2 == 0 and fe2 == 0x00 and
      fm2 == 0x000000 and fs3 == 0 and fe3 == 0xe3 and fm3 == 0x3ffff8 and  fcsr ==
      0x0 and rm_val == 7   #nosat'
    : 1
    ? 'fs1 == 0 and fe1 == 0xfb and fm1 == 0x6758c9 and fs2 == 0 and fe2 == 0x00 and
      fm2 == 0x000000 and fs3 == 0 and fe3 == 0xe3 and fm3 == 0x3ffff8 and  fcsr ==
      0x0 and rm_val == 7   #nosat'
    : 1
    ? 'fs1 == 0 and fe1 == 0xfd and fm1 == 0x73c956 and fs2 == 0 and fe2 == 0x00 and
      fm2 == 0x000000 and fs3 == 0 and fe3 == 0xe3 and fm3 == 0x3ffff8 and  fcsr ==
      0x0 and rm_val == 7   #nosat'
    : 1
    ? 'fs1 == 0 and fe1 == 0xfe and fm1 == 0x26aa29 and fs2 == 0 and fe2 == 0x00 and
      fm2 == 0x000000 and fs3 == 0 and fe3 == 0xe3 and fm3 == 0x3ffff8 and  fcsr ==
      0x0 and rm_val == 7   #nosat'
    : 1
    ? 'fs1 == 0 and fe1 == 0xfd and fm1 == 0x48e6cd and fs2 == 0 and fe2 == 0x00 and
      fm2 == 0x000000 and fs3 == 0 and fe3 == 0xe3 and fm3 == 0x3ffff8 and  fcsr ==
      0x0 and rm_val == 7   #nosat'
    : 1
    ? 'fs1 == 0 and fe1 == 0xfe and fm1 == 0x0e5202 and fs2 == 0 and fe2 == 0x00 and
      fm2 == 0x000000 and fs3 == 0 and fe3 == 0xe3 and fm3 == 0x3ffff8 and  fcsr ==
      0x0 and rm_val == 7   #nosat'
    : 1
    ? 'fs1 == 0 and fe1 == 0xfe and fm1 == 0x00e937 and fs2 == 0 and fe2 == 0x00 and
      fm2 == 0x000000 and fs3 == 0 and fe3 == 0xe3 and fm3 == 0x3ffff8 and  fcsr ==
      0x0 and rm_val == 7   #nosat'
    : 1
    ? 'fs1 == 0 and fe1 == 0xfa and fm1 == 0x44b45e and fs2 == 1 and fe2 == 0x00 and
      fm2 == 0x000000 and fs3 == 0 and fe3 == 0xe3 and fm3 == 0x3ffff8 and  fcsr ==
      0x0 and rm_val == 7   #nosat'
    : 1
    ? 'fs1 == 0 and fe1 == 0xfe and fm1 == 0x119488 and fs2 == 1 and fe2 == 0x00 and
      fm2 == 0x000000 and fs3 == 0 and fe3 == 0xe3 and fm3 == 0x3ffff8 and  fcsr ==
      0x0 and rm_val == 7   #nosat'
    : 1
    ? 'fs1 == 0 and fe1 == 0xfd and fm1 == 0x62fb73 and fs2 == 1 and fe2 == 0x00 and
      fm2 == 0x000000 and fs3 == 0 and fe3 == 0xe3 and fm3 == 0x3ffff8 and  fcsr ==
      0x0 and rm_val == 7   #nosat'
    : 1
    ? 'fs1 == 0 and fe1 == 0xfc and fm1 == 0x675fa1 and fs2 == 1 and fe2 == 0x00 and
      fm2 == 0x000000 and fs3 == 0 and fe3 == 0xe3 and fm3 == 0x3ffff8 and  fcsr ==
      0x0 and rm_val == 7   #nosat'
    : 1
    ? 'fs1 == 0 and fe1 == 0xf9 and fm1 == 0x3e8943 and fs2 == 1 and fe2 == 0x00 and
      fm2 == 0x000000 and fs3 == 0 and fe3 == 0xe3 and fm3 == 0x3ffff8 and  fcsr ==
      0x0 and rm_val == 7   #nosat'
    : 1
    ? 'fs1 == 0 and fe1 == 0xfe and fm1 == 0x262e64 and fs2 == 1 and fe2 == 0x00 and
      fm2 == 0x000000 and fs3 == 0 and fe3 == 0xe3 and fm3 == 0x3ffff8 and  fcsr ==
      0x0 and rm_val == 7   #nosat'
    : 1
    ? 'fs1 == 0 and fe1 == 0xfd and fm1 == 0x35891f and fs2 == 1 and fe2 == 0x00 and
      fm2 == 0x000000 and fs3 == 0 and fe3 == 0xe3 and fm3 == 0x3ffff8 and  fcsr ==
      0x0 and rm_val == 7   #nosat'
    : 1
    ? 'fs1 == 0 and fe1 == 0xfe and fm1 == 0x0a03a1 and fs2 == 1 and fe2 == 0x00 and
      fm2 == 0x000000 and fs3 == 0 and fe3 == 0xe3 and fm3 == 0x3ffff8 and  fcsr ==
      0x0 and rm_val == 7   #nosat'
    : 1
    ? 'fs1 == 0 and fe1 == 0xfe and fm1 == 0x28bb67 and fs2 == 1 and fe2 == 0x00 and
      fm2 == 0x000000 and fs3 == 0 and fe3 == 0xe3 and fm3 == 0x3ffff8 and  fcsr ==
      0x0 and rm_val == 7   #nosat'
    : 1
    ? 'fs1 == 0 and fe1 == 0xfe and fm1 == 0x091ce4 and fs2 == 1 and fe2 == 0x00 and
      fm2 == 0x000000 and fs3 == 0 and fe3 == 0xe3 and fm3 == 0x3ffff8 and  fcsr ==
      0x0 and rm_val == 7   #nosat'
    : 1
    ? 'fs1 == 0 and fe1 == 0xfe and fm1 == 0x30d9d7 and fs2 == 1 and fe2 == 0x00 and
      fm2 == 0x000000 and fs3 == 0 and fe3 == 0xe3 and fm3 == 0x3ffff8 and  fcsr ==
      0x0 and rm_val == 7   #nosat'
    : 1
    ? 'fs1 == 0 and fe1 == 0xfd and fm1 == 0x17aa7b and fs2 == 1 and fe2 == 0x00 and
      fm2 == 0x000000 and fs3 == 0 and fe3 == 0xe3 and fm3 == 0x3ffff8 and  fcsr ==
      0x0 and rm_val == 7   #nosat'
    : 1
    ? 'fs1 == 0 and fe1 == 0xfe and fm1 == 0x19c644 and fs2 == 1 and fe2 == 0x00 and
      fm2 == 0x000000 and fs3 == 0 and fe3 == 0xe3 and fm3 == 0x3ffff8 and  fcsr ==
      0x0 and rm_val == 7   #nosat'
    : 1
    ? 'fs1 == 0 and fe1 == 0xfd and fm1 == 0x2abc06 and fs2 == 1 and fe2 == 0x00 and
      fm2 == 0x000000 and fs3 == 0 and fe3 == 0xe3 and fm3 == 0x3ffff8 and  fcsr ==
      0x0 and rm_val == 7   #nosat'
    : 2
    ? 'fs1 == 0 and fe1 == 0xfe and fm1 == 0x33a1f4 and fs2 == 0 and fe2 == 0x00 and
      fm2 == 0x000000 and fs3 == 0 and fe3 == 0xe3 and fm3 == 0x3ffff8 and  fcsr ==
      0x0 and rm_val == 7   #nosat'
    : 1
    ? 'fs1 == 0 and fe1 == 0xfe and fm1 == 0x28be0d and fs2 == 0 and fe2 == 0x00 and
      fm2 == 0x000000 and fs3 == 0 and fe3 == 0xe3 and fm3 == 0x3ffff8 and  fcsr ==
      0x0 and rm_val == 7   #nosat'
    : 1
    ? 'fs1 == 0 and fe1 == 0xfb and fm1 == 0x15b097 and fs2 == 0 and fe2 == 0x00 and
      fm2 == 0x000000 and fs3 == 0 and fe3 == 0xe3 and fm3 == 0x3ffff8 and  fcsr ==
      0x0 and rm_val == 7   #nosat'
    : 1
    ? 'fs1 == 0 and fe1 == 0xfb and fm1 == 0x50d921 and fs2 == 0 and fe2 == 0x00 and
      fm2 == 0x000000 and fs3 == 0 and fe3 == 0xe3 and fm3 == 0x3ffff8 and  fcsr ==
      0x0 and rm_val == 7   #nosat'
    : 1
    ? 'fs1 == 0 and fe1 == 0xfc and fm1 == 0x26a55d and fs2 == 0 and fe2 == 0x00 and
      fm2 == 0x000000 and fs3 == 0 and fe3 == 0xe3 and fm3 == 0x3ffff8 and  fcsr ==
      0x0 and rm_val == 7   #nosat'
    : 1
    ? 'fs1 == 0 and fe1 == 0xfe and fm1 == 0x395f47 and fs2 == 0 and fe2 == 0x00 and
      fm2 == 0x000000 and fs3 == 0 and fe3 == 0xe3 and fm3 == 0x3ffff8 and  fcsr ==
      0x0 and rm_val == 7   #nosat'
    : 1
    ? 'fs1 == 0 and fe1 == 0xfd and fm1 == 0x277c74 and fs2 == 0 and fe2 == 0x00 and
      fm2 == 0x000000 and fs3 == 0 and fe3 == 0xe3 and fm3 == 0x3ffff8 and  fcsr ==
      0x0 and rm_val == 7   #nosat'
    : 1
    ? 'fs1 == 0 and fe1 == 0xfd and fm1 == 0x70a207 and fs2 == 0 and fe2 == 0x00 and
      fm2 == 0x000000 and fs3 == 0 and fe3 == 0xe3 and fm3 == 0x3ffff8 and  fcsr ==
      0x0 and rm_val == 7   #nosat'
    : 1
    ? 'fs1 == 0 and fe1 == 0xfc and fm1 == 0x673028 and fs2 == 0 and fe2 == 0x00 and
      fm2 == 0x000000 and fs3 == 0 and fe3 == 0xe3 and fm3 == 0x3ffff8 and  fcsr ==
      0x0 and rm_val == 7   #nosat'
    : 1
    ? 'fs1 == 0 and fe1 == 0xfd and fm1 == 0x42c803 and fs2 == 0 and fe2 == 0x00 and
      fm2 == 0x000000 and fs3 == 0 and fe3 == 0xe3 and fm3 == 0x3ffff8 and  fcsr ==
      0x0 and rm_val == 7   #nosat'
    : 1
    ? 'fs1 == 0 and fe1 == 0xfd and fm1 == 0x142c31 and fs2 == 0 and fe2 == 0x00 and
      fm2 == 0x000000 and fs3 == 0 and fe3 == 0xe3 and fm3 == 0x3ffff8 and  fcsr ==
      0x0 and rm_val == 7   #nosat'
    : 1
    ? 'fs1 == 0 and fe1 == 0xfd and fm1 == 0x06bfe7 and fs2 == 0 and fe2 == 0x00 and
      fm2 == 0x000000 and fs3 == 0 and fe3 == 0xe3 and fm3 == 0x3ffff8 and  fcsr ==
      0x0 and rm_val == 7   #nosat'
    : 1
    ? 'fs1 == 0 and fe1 == 0xfd and fm1 == 0x60ab1f and fs2 == 0 and fe2 == 0x00 and
      fm2 == 0x000000 and fs3 == 0 and fe3 == 0xe3 and fm3 == 0x3ffff8 and  fcsr ==
      0x0 and rm_val == 7   #nosat'
    : 1
    ? 'fs1 == 0 and fe1 == 0xfd and fm1 == 0x605a49 and fs2 == 0 and fe2 == 0x00 and
      fm2 == 0x000000 and fs3 == 0 and fe3 == 0xe3 and fm3 == 0x3ffff8 and  fcsr ==
      0x0 and rm_val == 7   #nosat'
    : 1
    ? 'fs1 == 0 and fe1 == 0xfe and fm1 == 0x2d9b52 and fs2 == 1 and fe2 == 0x00 and
      fm2 == 0x000000 and fs3 == 0 and fe3 == 0xe3 and fm3 == 0x3ffff8 and  fcsr ==
      0x0 and rm_val == 7   #nosat'
    : 1
    ? 'fs1 == 0 and fe1 == 0xfe and fm1 == 0x02f0c8 and fs2 == 1 and fe2 == 0x00 and
      fm2 == 0x000000 and fs3 == 0 and fe3 == 0xe3 and fm3 == 0x3ffff8 and  fcsr ==
      0x0 and rm_val == 7   #nosat'
    : 1
    ? 'fs1 == 0 and fe1 == 0xfe and fm1 == 0x325b88 and fs2 == 1 and fe2 == 0x00 and
      fm2 == 0x000000 and fs3 == 0 and fe3 == 0xe3 and fm3 == 0x3ffff8 and  fcsr ==
      0x0 and rm_val == 7   #nosat'
    : 1
    ? 'fs1 == 0 and fe1 == 0xfe and fm1 == 0x246dcc and fs2 == 1 and fe2 == 0x00 and
      fm2 == 0x000000 and fs3 == 0 and fe3 == 0xe3 and fm3 == 0x3ffff8 and  fcsr ==
      0x0 and rm_val == 7   #nosat'
    : 1
    ? 'fs1 == 0 and fe1 == 0xfe and fm1 == 0x3e451e and fs2 == 1 and fe2 == 0x00 and
      fm2 == 0x000000 and fs3 == 0 and fe3 == 0xe3 and fm3 == 0x3ffff8 and  fcsr ==
      0x0 and rm_val == 7   #nosat'
    : 1
    ? 'fs1 == 0 and fe1 == 0xfe and fm1 == 0x00e26f and fs2 == 1 and fe2 == 0x00 and
      fm2 == 0x000000 and fs3 == 0 and fe3 == 0xe3 and fm3 == 0x3ffff8 and  fcsr ==
      0x0 and rm_val == 7   #nosat'
    : 1
    ? 'fs1 == 0 and fe1 == 0xfb and fm1 == 0x7a8560 and fs2 == 1 and fe2 == 0x00 and
      fm2 == 0x000000 and fs3 == 0 and fe3 == 0xe3 and fm3 == 0x3ffff8 and  fcsr ==
      0x0 and rm_val == 7   #nosat'
    : 1
    ? 'fs1 == 0 and fe1 == 0xfe and fm1 == 0x253e0d and fs2 == 1 and fe2 == 0x00 and
      fm2 == 0x000000 and fs3 == 0 and fe3 == 0xe3 and fm3 == 0x3ffff8 and  fcsr ==
      0x0 and rm_val == 7   #nosat'
    : 1
    ? 'fs1 == 0 and fe1 == 0xfe and fm1 == 0x3935a3 and fs2 == 1 and fe2 == 0x00 and
      fm2 == 0x000000 and fs3 == 0 and fe3 == 0xe3 and fm3 == 0x3ffff8 and  fcsr ==
      0x0 and rm_val == 7   #nosat'
    : 1
    ? 'fs1 == 0 and fe1 == 0xfe and fm1 == 0x2db39d and fs2 == 1 and fe2 == 0x00 and
      fm2 == 0x000000 and fs3 == 0 and fe3 == 0xe3 and fm3 == 0x3ffff8 and  fcsr ==
      0x0 and rm_val == 7   #nosat'
    : 1
    ? 'fs1 == 0 and fe1 == 0xfd and fm1 == 0x5a898a and fs2 == 1 and fe2 == 0x00 and
      fm2 == 0x000000 and fs3 == 0 and fe3 == 0xe3 and fm3 == 0x3ffff8 and  fcsr ==
      0x0 and rm_val == 7   #nosat'
    : 1
    ? 'fs1 == 0 and fe1 == 0xfe and fm1 == 0x090d88 and fs2 == 1 and fe2 == 0x00 and
      fm2 == 0x000000 and fs3 == 0 and fe3 == 0xe3 and fm3 == 0x3ffff8 and  fcsr ==
      0x0 and rm_val == 7   #nosat'
    : 1
    ? 'fs1 == 0 and fe1 == 0xfc and fm1 == 0x2224db and fs2 == 1 and fe2 == 0x00 and
      fm2 == 0x000000 and fs3 == 0 and fe3 == 0xe3 and fm3 == 0x3ffff8 and  fcsr ==
      0x0 and rm_val == 7   #nosat'
    : 1
    ? 'fs1 == 0 and fe1 == 0xfe and fm1 == 0x1fab30 and fs2 == 1 and fe2 == 0x00 and
      fm2 == 0x000000 and fs3 == 0 and fe3 == 0xe3 and fm3 == 0x3ffff8 and  fcsr ==
      0x0 and rm_val == 7   #nosat'
    : 1
    ? 'fs1 == 0 and fe1 == 0xfd and fm1 == 0x5c3c85 and fs2 == 0 and fe2 == 0x00 and
      fm2 == 0x000000 and fs3 == 0 and fe3 == 0xe3 and fm3 == 0x3ffff8 and  fcsr ==
      0x0 and rm_val == 7   #nosat'
    : 1
    ? 'fs1 == 0 and fe1 == 0xfc and fm1 == 0x5ad8ea and fs2 == 0 and fe2 == 0x00 and
      fm2 == 0x000000 and fs3 == 0 and fe3 == 0xe3 and fm3 == 0x3ffff8 and  fcsr ==
      0x0 and rm_val == 7   #nosat'
    : 1
    ? 'fs1 == 0 and fe1 == 0xfa and fm1 == 0x42f36d and fs2 == 0 and fe2 == 0x00 and
      fm2 == 0x000000 and fs3 == 0 and fe3 == 0xe3 and fm3 == 0x3ffff8 and  fcsr ==
      0x0 and rm_val == 7   #nosat'
    : 1
    ? 'fs1 == 0 and fe1 == 0xfe and fm1 == 0x23f4fa and fs2 == 0 and fe2 == 0x00 and
      fm2 == 0x000000 and fs3 == 0 and fe3 == 0xe3 and fm3 == 0x3ffff8 and  fcsr ==
      0x0 and rm_val == 7   #nosat'
    : 1
    ? 'fs1 == 0 and fe1 == 0xfe and fm1 == 0x3e0af1 and fs2 == 0 and fe2 == 0x00 and
      fm2 == 0x000000 and fs3 == 0 and fe3 == 0xe3 and fm3 == 0x3ffff8 and  fcsr ==
      0x0 and rm_val == 7   #nosat'
    : 1
    ? 'fs1 == 0 and fe1 == 0xfb and fm1 == 0x07f6ba and fs2 == 0 and fe2 == 0x00 and
      fm2 == 0x000000 and fs3 == 0 and fe3 == 0xe3 and fm3 == 0x3ffff8 and  fcsr ==
      0x0 and rm_val == 7   #nosat'
    : 1
    ? 'fs1 == 0 and fe1 == 0xfe and fm1 == 0x19b6dc and fs2 == 0 and fe2 == 0x00 and
      fm2 == 0x000000 and fs3 == 0 and fe3 == 0xe3 and fm3 == 0x3ffff8 and  fcsr ==
      0x0 and rm_val == 7   #nosat'
    : 1
    ? 'fs1 == 0 and fe1 == 0xfd and fm1 == 0x1d9e09 and fs2 == 0 and fe2 == 0x00 and
      fm2 == 0x000000 and fs3 == 0 and fe3 == 0xe3 and fm3 == 0x3ffff8 and  fcsr ==
      0x0 and rm_val == 7   #nosat'
    : 1
    ? 'fs1 == 0 and fe1 == 0xfb and fm1 == 0x67935a and fs2 == 0 and fe2 == 0x00 and
      fm2 == 0x000000 and fs3 == 0 and fe3 == 0xe3 and fm3 == 0x3ffff8 and  fcsr ==
      0x0 and rm_val == 7   #nosat'
    : 1
    ? 'fs1 == 0 and fe1 == 0xfc and fm1 == 0x61b55e and fs2 == 0 and fe2 == 0x00 and
      fm2 == 0x000000 and fs3 == 0 and fe3 == 0xe3 and fm3 == 0x3ffff8 and  fcsr ==
      0x0 and rm_val == 7   #nosat'
    : 1
    ? 'fs1 == 0 and fe1 == 0xfe and fm1 == 0x139ba8 and fs2 == 0 and fe2 == 0x00 and
      fm2 == 0x000000 and fs3 == 0 and fe3 == 0xe3 and fm3 == 0x3ffff8 and  fcsr ==
      0x0 and rm_val == 7   #nosat'
    : 1
    ? 'fs1 == 0 and fe1 == 0xfe and fm1 == 0x27923e and fs2 == 0 and fe2 == 0x00 and
      fm2 == 0x000000 and fs3 == 0 and fe3 == 0xe3 and fm3 == 0x3ffff8 and  fcsr ==
      0x0 and rm_val == 7   #nosat'
    : 1
    ? 'fs1 == 0 and fe1 == 0xfa and fm1 == 0x07c07a and fs2 == 0 and fe2 == 0x00 and
      fm2 == 0x000000 and fs3 == 0 and fe3 == 0xe3 and fm3 == 0x3ffff8 and  fcsr ==
      0x0 and rm_val == 7   #nosat'
    : 1
    ? 'fs1 == 0 and fe1 == 0xfd and fm1 == 0x6bfb00 and fs2 == 0 and fe2 == 0x00 and
      fm2 == 0x000000 and fs3 == 0 and fe3 == 0xe3 and fm3 == 0x3ffff8 and  fcsr ==
      0x0 and rm_val == 7   #nosat'
    : 1
    ? 'fs1 == 0 and fe1 == 0xfa and fm1 == 0x0a0e71 and fs2 == 1 and fe2 == 0x00 and
      fm2 == 0x000000 and fs3 == 0 and fe3 == 0xe3 and fm3 == 0x3ffff8 and  fcsr ==
      0x0 and rm_val == 7   #nosat'
    : 1
    ? 'fs1 == 0 and fe1 == 0xfe and fm1 == 0x09f0c8 and fs2 == 1 and fe2 == 0x00 and
      fm2 == 0x000000 and fs3 == 0 and fe3 == 0xe3 and fm3 == 0x3ffff8 and  fcsr ==
      0x0 and rm_val == 7   #nosat'
    : 1
    ? 'fs1 == 0 and fe1 == 0xfc and fm1 == 0x7e2c3a and fs2 == 1 and fe2 == 0x00 and
      fm2 == 0x000000 and fs3 == 0 and fe3 == 0xe3 and fm3 == 0x3ffff8 and  fcsr ==
      0x0 and rm_val == 7   #nosat'
    : 1
    ? 'fs1 == 0 and fe1 == 0xfe and fm1 == 0x292241 and fs2 == 1 and fe2 == 0x00 and
      fm2 == 0x000000 and fs3 == 0 and fe3 == 0xe3 and fm3 == 0x3ffff8 and  fcsr ==
      0x0 and rm_val == 7   #nosat'
    : 1
    ? 'fs1 == 0 and fe1 == 0xfe and fm1 == 0x3c4834 and fs2 == 1 and fe2 == 0x00 and
      fm2 == 0x000000 and fs3 == 0 and fe3 == 0xe3 and fm3 == 0x3ffff8 and  fcsr ==
      0x0 and rm_val == 7   #nosat'
    : 1
    ? 'fs1 == 0 and fe1 == 0xfd and fm1 == 0x4214d7 and fs2 == 1 and fe2 == 0x00 and
      fm2 == 0x000000 and fs3 == 0 and fe3 == 0xe3 and fm3 == 0x3ffff8 and  fcsr ==
      0x0 and rm_val == 7   #nosat'
    : 1
    ? 'fs1 == 0 and fe1 == 0xfe and fm1 == 0x3fb6b5 and fs2 == 1 and fe2 == 0x00 and
      fm2 == 0x000000 and fs3 == 0 and fe3 == 0xe3 and fm3 == 0x3ffff8 and  fcsr ==
      0x0 and rm_val == 7   #nosat'
    : 1
    ? 'fs1 == 0 and fe1 == 0xfc and fm1 == 0x6dd39b and fs2 == 1 and fe2 == 0x00 and
      fm2 == 0x000000 and fs3 == 0 and fe3 == 0xe3 and fm3 == 0x3ffff8 and  fcsr ==
      0x0 and rm_val == 7   #nosat'
    : 1
    ? 'fs1 == 0 and fe1 == 0xfa and fm1 == 0x6c7439 and fs2 == 1 and fe2 == 0x00 and
      fm2 == 0x000000 and fs3 == 0 and fe3 == 0xe3 and fm3 == 0x3ffff8 and  fcsr ==
      0x0 and rm_val == 7   #nosat'
    : 1
    ? 'fs1 == 0 and fe1 == 0xfd and fm1 == 0x664f14 and fs2 == 1 and fe2 == 0x00 and
      fm2 == 0x000000 and fs3 == 0 and fe3 == 0xe3 and fm3 == 0x3ffff8 and  fcsr ==
      0x0 and rm_val == 7   #nosat'
    : 1
    ? 'fs1 == 0 and fe1 == 0xf9 and fm1 == 0x40c8f3 and fs2 == 1 and fe2 == 0x00 and
      fm2 == 0x000000 and fs3 == 0 and fe3 == 0xe3 and fm3 == 0x3ffff8 and  fcsr ==
      0x0 and rm_val == 7   #nosat'
    : 1
    ? 'fs1 == 0 and fe1 == 0xfc and fm1 == 0x179770 and fs2 == 1 and fe2 == 0x00 and
      fm2 == 0x000000 and fs3 == 0 and fe3 == 0xe3 and fm3 == 0x3ffff8 and  fcsr ==
      0x0 and rm_val == 7   #nosat'
    : 1
    ? 'fs1 == 0 and fe1 == 0xfd and fm1 == 0x1ca5c0 and fs2 == 1 and fe2 == 0x00 and
      fm2 == 0x000000 and fs3 == 0 and fe3 == 0xe3 and fm3 == 0x3ffff8 and  fcsr ==
      0x0 and rm_val == 7   #nosat'
    : 1
    ? 'fs1 == 0 and fe1 == 0xfd and fm1 == 0x6a6b5b and fs2 == 1 and fe2 == 0x00 and
      fm2 == 0x000000 and fs3 == 0 and fe3 == 0xe3 and fm3 == 0x3ffff8 and  fcsr ==
      0x0 and rm_val == 7   #nosat'
    : 1
    ? 'fs1 == 0 and fe1 == 0xfb and fm1 == 0x6febf0 and fs2 == 0 and fe2 == 0x00 and
      fm2 == 0x000000 and fs3 == 0 and fe3 == 0xe3 and fm3 == 0x3ffff8 and  fcsr ==
      0x0 and rm_val == 7   #nosat'
    : 1
    ? 'fs1 == 0 and fe1 == 0xfa and fm1 == 0x025ce3 and fs2 == 0 and fe2 == 0x00 and
      fm2 == 0x000000 and fs3 == 0 and fe3 == 0xe3 and fm3 == 0x3ffff8 and  fcsr ==
      0x0 and rm_val == 7   #nosat'
    : 1
    ? 'fs1 == 0 and fe1 == 0xfe and fm1 == 0x269d12 and fs2 == 0 and fe2 == 0x00 and
      fm2 == 0x000000 and fs3 == 0 and fe3 == 0xe3 and fm3 == 0x3ffff8 and  fcsr ==
      0x0 and rm_val == 7   #nosat'
    : 1
    ? 'fs1 == 0 and fe1 == 0xfc and fm1 == 0x710596 and fs2 == 0 and fe2 == 0x00 and
      fm2 == 0x000000 and fs3 == 0 and fe3 == 0xe3 and fm3 == 0x3ffff8 and  fcsr ==
      0x0 and rm_val == 7   #nosat'
    : 1
    ? 'fs1 == 0 and fe1 == 0xfe and fm1 == 0x381006 and fs2 == 0 and fe2 == 0x00 and
      fm2 == 0x000000 and fs3 == 0 and fe3 == 0xe3 and fm3 == 0x3ffff8 and  fcsr ==
      0x0 and rm_val == 7   #nosat'
    : 1
    ? 'fs1 == 0 and fe1 == 0xfe and fm1 == 0x2c289c and fs2 == 0 and fe2 == 0x00 and
      fm2 == 0x000000 and fs3 == 0 and fe3 == 0xe3 and fm3 == 0x3ffff8 and  fcsr ==
      0x0 and rm_val == 7   #nosat'
    : 1
    ? 'fs1 == 0 and fe1 == 0xfd and fm1 == 0x111231 and fs2 == 0 and fe2 == 0x00 and
      fm2 == 0x000000 and fs3 == 0 and fe3 == 0xe3 and fm3 == 0x3ffff8 and  fcsr ==
      0x0 and rm_val == 7   #nosat'
    : 1
    ? 'fs1 == 0 and fe1 == 0xfd and fm1 == 0x30cc1b and fs2 == 0 and fe2 == 0x00 and
      fm2 == 0x000000 and fs3 == 0 and fe3 == 0xe3 and fm3 == 0x3ffff8 and  fcsr ==
      0x0 and rm_val == 7   #nosat'
    : 1
    ? 'fs1 == 0 and fe1 == 0xfd and fm1 == 0x47b540 and fs2 == 0 and fe2 == 0x00 and
      fm2 == 0x000000 and fs3 == 0 and fe3 == 0xe3 and fm3 == 0x3ffff8 and  fcsr ==
      0x0 and rm_val == 7   #nosat'
    : 1
    ? 'fs1 == 0 and fe1 == 0xfd and fm1 == 0x7740d5 and fs2 == 0 and fe2 == 0x00 and
      fm2 == 0x000000 and fs3 == 0 and fe3 == 0xe3 and fm3 == 0x3ffff8 and  fcsr ==
      0x0 and rm_val == 7   #nosat'
    : 1
    ? 'fs1 == 0 and fe1 == 0xfd and fm1 == 0x64bacc and fs2 == 0 and fe2 == 0x00 and
      fm2 == 0x000000 and fs3 == 0 and fe3 == 0xe3 and fm3 == 0x3ffff8 and  fcsr ==
      0x0 and rm_val == 7   #nosat'
    : 1
    ? 'fs1 == 0 and fe1 == 0xfd and fm1 == 0x56c198 and fs2 == 0 and fe2 == 0x00 and
      fm2 == 0x000000 and fs3 == 0 and fe3 == 0xe3 and fm3 == 0x3ffff8 and  fcsr ==
      0x0 and rm_val == 7   #nosat'
    : 1
    ? 'fs1 == 0 and fe1 == 0xfd and fm1 == 0x6e20e0 and fs2 == 0 and fe2 == 0x00 and
      fm2 == 0x000000 and fs3 == 0 and fe3 == 0xe3 and fm3 == 0x3ffff8 and  fcsr ==
      0x0 and rm_val == 7   #nosat'
    : 1
    ? 'fs1 == 0 and fe1 == 0xfe and fm1 == 0x34996a and fs2 == 0 and fe2 == 0x00 and
      fm2 == 0x000000 and fs3 == 0 and fe3 == 0xe3 and fm3 == 0x3ffff8 and  fcsr ==
      0x0 and rm_val == 7   #nosat'
    : 1
    ? 'fs1 == 0 and fe1 == 0xfd and fm1 == 0x42b2c3 and fs2 == 1 and fe2 == 0x00 and
      fm2 == 0x000000 and fs3 == 0 and fe3 == 0xe3 and fm3 == 0x3ffff8 and  fcsr ==
      0x0 and rm_val == 7   #nosat'
    : 1
    ? 'fs1 == 0 and fe1 == 0xfd and fm1 == 0x2593da and fs2 == 1 and fe2 == 0x00 and
      fm2 == 0x000000 and fs3 == 0 and fe3 == 0xe3 and fm3 == 0x3ffff8 and  fcsr ==
      0x0 and rm_val == 7   #nosat'
    : 1
    ? 'fs1 == 0 and fe1 == 0xfe and fm1 == 0x0a4cbc and fs2 == 1 and fe2 == 0x00 and
      fm2 == 0x000000 and fs3 == 0 and fe3 == 0xe3 and fm3 == 0x3ffff8 and  fcsr ==
      0x0 and rm_val == 7   #nosat'
    : 1
    ? 'fs1 == 0 and fe1 == 0xfc and fm1 == 0x36810f and fs2 == 1 and fe2 == 0x00 and
      fm2 == 0x000000 and fs3 == 0 and fe3 == 0xe3 and fm3 == 0x3ffff8 and  fcsr ==
      0x0 and rm_val == 7   #nosat'
    : 1
    ? 'fs1 == 0 and fe1 == 0xfc and fm1 == 0x673c15 and fs2 == 1 and fe2 == 0x00 and
      fm2 == 0x000000 and fs3 == 0 and fe3 == 0xe3 and fm3 == 0x3ffff8 and  fcsr ==
      0x0 and rm_val == 7   #nosat'
    : 1
    ? 'fs1 == 0 and fe1 == 0xfe and fm1 == 0x3bbcb1 and fs2 == 1 and fe2 == 0x00 and
      fm2 == 0x000000 and fs3 == 0 and fe3 == 0xe3 and fm3 == 0x3ffff8 and  fcsr ==
      0x0 and rm_val == 7   #nosat'
    : 1
    ? 'fs1 == 0 and fe1 == 0xfd and fm1 == 0x481ce5 and fs2 == 1 and fe2 == 0x00 and
      fm2 == 0x000000 and fs3 == 0 and fe3 == 0xe3 and fm3 == 0x3ffff8 and  fcsr ==
      0x0 and rm_val == 7   #nosat'
    : 1
    ? 'fs1 == 0 and fe1 == 0xfd and fm1 == 0x5298e8 and fs2 == 1 and fe2 == 0x00 and
      fm2 == 0x000000 and fs3 == 0 and fe3 == 0xe3 and fm3 == 0x3ffff8 and  fcsr ==
      0x0 and rm_val == 7   #nosat'
    : 1
    ? 'fs1 == 0 and fe1 == 0xf8 and fm1 == 0x0cca22 and fs2 == 1 and fe2 == 0x00 and
      fm2 == 0x000000 and fs3 == 0 and fe3 == 0xe3 and fm3 == 0x3ffff8 and  fcsr ==
      0x0 and rm_val == 7   #nosat'
    : 1
    ? 'fs1 == 0 and fe1 == 0xfd and fm1 == 0x1f70d6 and fs2 == 1 and fe2 == 0x00 and
      fm2 == 0x000000 and fs3 == 0 and fe3 == 0xe3 and fm3 == 0x3ffff8 and  fcsr ==
      0x0 and rm_val == 7   #nosat'
    : 1
    ? 'fs1 == 0 and fe1 == 0xfd and fm1 == 0x5eb4e5 and fs2 == 1 and fe2 == 0x00 and
      fm2 == 0x000000 and fs3 == 0 and fe3 == 0xe3 and fm3 == 0x3ffff8 and  fcsr ==
      0x0 and rm_val == 7   #nosat'
    : 1
    ? 'fs1 == 0 and fe1 == 0xf8 and fm1 == 0x7668ef and fs2 == 1 and fe2 == 0x00 and
      fm2 == 0x000000 and fs3 == 0 and fe3 == 0xe3 and fm3 == 0x3ffff8 and  fcsr ==
      0x0 and rm_val == 7   #nosat'
    : 1
    ? 'fs1 == 0 and fe1 == 0xfd and fm1 == 0x6c7765 and fs2 == 1 and fe2 == 0x00 and
      fm2 == 0x000000 and fs3 == 0 and fe3 == 0xe3 and fm3 == 0x3ffff8 and  fcsr ==
      0x0 and rm_val == 7   #nosat'
    : 1
    ? 'fs1 == 0 and fe1 == 0xfd and fm1 == 0x72c1df and fs2 == 1 and fe2 == 0x00 and
      fm2 == 0x000000 and fs3 == 0 and fe3 == 0xe3 and fm3 == 0x3ffff8 and  fcsr ==
      0x0 and rm_val == 7   #nosat'
    : 1
    ? 'fs1 == 0 and fe1 == 0xfa and fm1 == 0x38913b and fs2 == 0 and fe2 == 0x00 and
      fm2 == 0x000000 and fs3 == 0 and fe3 == 0xe3 and fm3 == 0x3ffff8 and  fcsr ==
      0x0 and rm_val == 7   #nosat'
    : 1
    ? 'fs1 == 0 and fe1 == 0xfd and fm1 == 0x70e623 and fs2 == 0 and fe2 == 0x00 and
      fm2 == 0x000000 and fs3 == 0 and fe3 == 0xe3 and fm3 == 0x3ffff8 and  fcsr ==
      0x0 and rm_val == 7   #nosat'
    : 1
    ? 'fs1 == 0 and fe1 == 0xfd and fm1 == 0x330a47 and fs2 == 0 and fe2 == 0x00 and
      fm2 == 0x000000 and fs3 == 0 and fe3 == 0xe3 and fm3 == 0x3ffff8 and  fcsr ==
      0x0 and rm_val == 7   #nosat'
    : 1
    ? 'fs1 == 0 and fe1 == 0xfe and fm1 == 0x026c09 and fs2 == 0 and fe2 == 0x00 and
      fm2 == 0x000000 and fs3 == 0 and fe3 == 0xe3 and fm3 == 0x3ffff8 and  fcsr ==
      0x0 and rm_val == 7   #nosat'
    : 1
    ? 'fs1 == 0 and fe1 == 0xfd and fm1 == 0x0763b9 and fs2 == 0 and fe2 == 0x00 and
      fm2 == 0x000000 and fs3 == 0 and fe3 == 0xe3 and fm3 == 0x3ffff8 and  fcsr ==
      0x0 and rm_val == 7   #nosat'
    : 1
    ? 'fs1 == 0 and fe1 == 0xfe and fm1 == 0x07bc04 and fs2 == 0 and fe2 == 0x00 and
      fm2 == 0x000000 and fs3 == 0 and fe3 == 0xe3 and fm3 == 0x3ffff8 and  fcsr ==
      0x0 and rm_val == 7   #nosat'
    : 1
    ? 'fs1 == 0 and fe1 == 0xfe and fm1 == 0x0db3dc and fs2 == 0 and fe2 == 0x00 and
      fm2 == 0x000000 and fs3 == 0 and fe3 == 0xe3 and fm3 == 0x3ffff8 and  fcsr ==
      0x0 and rm_val == 7   #nosat'
    : 1
    ? 'fs1 == 0 and fe1 == 0xf9 and fm1 == 0x084a01 and fs2 == 0 and fe2 == 0x00 and
      fm2 == 0x000000 and fs3 == 0 and fe3 == 0xe3 and fm3 == 0x3ffff8 and  fcsr ==
      0x0 and rm_val == 7   #nosat'
    : 1
    ? 'fs1 == 0 and fe1 == 0xfa and fm1 == 0x3a1788 and fs2 == 0 and fe2 == 0x00 and
      fm2 == 0x000000 and fs3 == 0 and fe3 == 0xe3 and fm3 == 0x3ffff8 and  fcsr ==
      0x0 and rm_val == 7   #nosat'
    : 1
    ? 'fs1 == 0 and fe1 == 0xfe and fm1 == 0x01cbbf and fs2 == 0 and fe2 == 0x00 and
      fm2 == 0x000000 and fs3 == 0 and fe3 == 0xe3 and fm3 == 0x3ffff8 and  fcsr ==
      0x0 and rm_val == 7   #nosat'
    : 1
    ? 'fs1 == 0 and fe1 == 0xfe and fm1 == 0x38f464 and fs2 == 0 and fe2 == 0x00 and
      fm2 == 0x000000 and fs3 == 0 and fe3 == 0xe3 and fm3 == 0x3ffff8 and  fcsr ==
      0x0 and rm_val == 7   #nosat'
    : 1
    ? 'fs1 == 0 and fe1 == 0xfc and fm1 == 0x40dca5 and fs2 == 0 and fe2 == 0x00 and
      fm2 == 0x000000 and fs3 == 0 and fe3 == 0xe3 and fm3 == 0x3ffff8 and  fcsr ==
      0x0 and rm_val == 7   #nosat'
    : 1
    ? 'fs1 == 0 and fe1 == 0xfd and fm1 == 0x2f394e and fs2 == 0 and fe2 == 0x00 and
      fm2 == 0x000000 and fs3 == 0 and fe3 == 0xe3 and fm3 == 0x3ffff8 and  fcsr ==
      0x0 and rm_val == 7   #nosat'
    : 1
    ? 'fs1 == 0 and fe1 == 0xfd and fm1 == 0x639603 and fs2 == 0 and fe2 == 0x00 and
      fm2 == 0x000000 and fs3 == 0 and fe3 == 0xe3 and fm3 == 0x3ffff8 and  fcsr ==
      0x0 and rm_val == 7   #nosat'
    : 1
    ? 'fs1 == 0 and fe1 == 0xfc and fm1 == 0x75c78c and fs2 == 1 and fe2 == 0x00 and
      fm2 == 0x000000 and fs3 == 0 and fe3 == 0xe3 and fm3 == 0x3ffff8 and  fcsr ==
      0x0 and rm_val == 7   #nosat'
    : 1
    ? 'fs1 == 0 and fe1 == 0xfd and fm1 == 0x0bc23d and fs2 == 1 and fe2 == 0x00 and
      fm2 == 0x000000 and fs3 == 0 and fe3 == 0xe3 and fm3 == 0x3ffff8 and  fcsr ==
      0x0 and rm_val == 7   #nosat'
    : 1
    ? 'fs1 == 0 and fe1 == 0xfc and fm1 == 0x70218d and fs2 == 1 and fe2 == 0x00 and
      fm2 == 0x000000 and fs3 == 0 and fe3 == 0xe3 and fm3 == 0x3ffff8 and  fcsr ==
      0x0 and rm_val == 7   #nosat'
    : 1
    ? 'fs1 == 0 and fe1 == 0xfd and fm1 == 0x0dc14f and fs2 == 1 and fe2 == 0x00 and
      fm2 == 0x000000 and fs3 == 0 and fe3 == 0xe3 and fm3 == 0x3ffff8 and  fcsr ==
      0x0 and rm_val == 7   #nosat'
    : 1
    ? 'fs1 == 0 and fe1 == 0xfd and fm1 == 0x64b7f9 and fs2 == 1 and fe2 == 0x00 and
      fm2 == 0x000000 and fs3 == 0 and fe3 == 0xe3 and fm3 == 0x3ffff8 and  fcsr ==
      0x0 and rm_val == 7   #nosat'
    : 1
    ? 'fs1 == 0 and fe1 == 0xfc and fm1 == 0x66b5d2 and fs2 == 1 and fe2 == 0x00 and
      fm2 == 0x000000 and fs3 == 0 and fe3 == 0xe3 and fm3 == 0x3ffff8 and  fcsr ==
      0x0 and rm_val == 7   #nosat'
    : 1
    ? 'fs1 == 0 and fe1 == 0xfd and fm1 == 0x10d45e and fs2 == 1 and fe2 == 0x00 and
      fm2 == 0x000000 and fs3 == 0 and fe3 == 0xe3 and fm3 == 0x3ffff8 and  fcsr ==
      0x0 and rm_val == 7   #nosat'
    : 1
    ? 'fs1 == 0 and fe1 == 0xfe and fm1 == 0x1446c8 and fs2 == 1 and fe2 == 0x00 and
      fm2 == 0x000000 and fs3 == 0 and fe3 == 0xe3 and fm3 == 0x3ffff8 and  fcsr ==
      0x0 and rm_val == 7   #nosat'
    : 1
    ? 'fs1 == 0 and fe1 == 0xf9 and fm1 == 0x256764 and fs2 == 1 and fe2 == 0x00 and
      fm2 == 0x000000 and fs3 == 0 and fe3 == 0xe3 and fm3 == 0x3ffff8 and  fcsr ==
      0x0 and rm_val == 7   #nosat'
    : 1
    ? 'fs1 == 0 and fe1 == 0xfd and fm1 == 0x5a9856 and fs2 == 1 and fe2 == 0x00 and
      fm2 == 0x000000 and fs3 == 0 and fe3 == 0xe3 and fm3 == 0x3ffff8 and  fcsr ==
      0x0 and rm_val == 7   #nosat'
    : 1
    ? 'fs1 == 0 and fe1 == 0xfe and fm1 == 0x0d273b and fs2 == 1 and fe2 == 0x00 and
      fm2 == 0x000000 and fs3 == 0 and fe3 == 0xe3 and fm3 == 0x3ffff8 and  fcsr ==
      0x0 and rm_val == 7   #nosat'
    : 1
    ? 'fs1 == 0 and fe1 == 0xfc and fm1 == 0x6e17c2 and fs2 == 1 and fe2 == 0x00 and
      fm2 == 0x000000 and fs3 == 0 and fe3 == 0xe3 and fm3 == 0x3ffff8 and  fcsr ==
      0x0 and rm_val == 7   #nosat'
    : 1
    ? 'fs1 == 0 and fe1 == 0xfc and fm1 == 0x2ae8b7 and fs2 == 1 and fe2 == 0x00 and
      fm2 == 0x000000 and fs3 == 0 and fe3 == 0xe3 and fm3 == 0x3ffff8 and  fcsr ==
      0x0 and rm_val == 7   #nosat'
    : 1
    ? 'fs1 == 0 and fe1 == 0xfe and fm1 == 0x1a54c0 and fs2 == 1 and fe2 == 0x00 and
      fm2 == 0x000000 and fs3 == 0 and fe3 == 0xe3 and fm3 == 0x3ffff8 and  fcsr ==
      0x0 and rm_val == 7   #nosat'
    : 1
    ? 'fs1 == 0 and fe1 == 0xfc and fm1 == 0x375161 and fs2 == 0 and fe2 == 0x00 and
      fm2 == 0x000000 and fs3 == 0 and fe3 == 0xe3 and fm3 == 0x3ffff8 and  fcsr ==
      0x0 and rm_val == 7   #nosat'
    : 1
    ? 'fs1 == 0 and fe1 == 0xfc and fm1 == 0x0feb39 and fs2 == 0 and fe2 == 0x00 and
      fm2 == 0x000000 and fs3 == 0 and fe3 == 0xe3 and fm3 == 0x3ffff8 and  fcsr ==
      0x0 and rm_val == 7   #nosat'
    : 1
    ? 'fs1 == 0 and fe1 == 0xfd and fm1 == 0x272145 and fs2 == 0 and fe2 == 0x00 and
      fm2 == 0x000000 and fs3 == 0 and fe3 == 0xe3 and fm3 == 0x3ffff8 and  fcsr ==
      0x0 and rm_val == 7   #nosat'
    : 1
    ? 'fs1 == 0 and fe1 == 0xfe and fm1 == 0x06075b and fs2 == 0 and fe2 == 0x00 and
      fm2 == 0x000000 and fs3 == 0 and fe3 == 0xe3 and fm3 == 0x3ffff8 and  fcsr ==
      0x0 and rm_val == 7   #nosat'
    : 1
    ? 'fs1 == 0 and fe1 == 0xfb and fm1 == 0x1c6dc8 and fs2 == 0 and fe2 == 0x00 and
      fm2 == 0x000000 and fs3 == 0 and fe3 == 0xe3 and fm3 == 0x3ffff8 and  fcsr ==
      0x0 and rm_val == 7   #nosat'
    : 1
    ? 'fs1 == 0 and fe1 == 0xfc and fm1 == 0x774515 and fs2 == 0 and fe2 == 0x00 and
      fm2 == 0x000000 and fs3 == 0 and fe3 == 0xe3 and fm3 == 0x3ffff8 and  fcsr ==
      0x0 and rm_val == 7   #nosat'
    : 1
    ? 'fs1 == 0 and fe1 == 0xfd and fm1 == 0x002951 and fs2 == 0 and fe2 == 0x00 and
      fm2 == 0x000000 and fs3 == 0 and fe3 == 0xe3 and fm3 == 0x3ffff8 and  fcsr ==
      0x0 and rm_val == 7   #nosat'
    : 1
    ? 'fs1 == 0 and fe1 == 0xfe and fm1 == 0x200a1a and fs2 == 0 and fe2 == 0x00 and
      fm2 == 0x000000 and fs3 == 0 and fe3 == 0xe3 and fm3 == 0x3ffff8 and  fcsr ==
      0x0 and rm_val == 7   #nosat'
    : 1
    ? 'fs1 == 0 and fe1 == 0xfd and fm1 == 0x285b7e and fs2 == 0 and fe2 == 0x00 and
      fm2 == 0x000000 and fs3 == 0 and fe3 == 0xe3 and fm3 == 0x3ffff8 and  fcsr ==
      0x0 and rm_val == 7   #nosat'
    : 1
    ? 'fs1 == 0 and fe1 == 0xfe and fm1 == 0x244343 and fs2 == 0 and fe2 == 0x00 and
      fm2 == 0x000000 and fs3 == 0 and fe3 == 0xe3 and fm3 == 0x3ffff8 and  fcsr ==
      0x0 and rm_val == 7   #nosat'
    : 1
    ? 'fs1 == 0 and fe1 == 0xfc and fm1 == 0x0202a2 and fs2 == 0 and fe2 == 0x00 and
      fm2 == 0x000000 and fs3 == 0 and fe3 == 0xe3 and fm3 == 0x3ffff8 and  fcsr ==
      0x0 and rm_val == 7   #nosat'
    : 1
    ? 'fs1 == 0 and fe1 == 0xfd and fm1 == 0x014bf6 and fs2 == 0 and fe2 == 0x00 and
      fm2 == 0x000000 and fs3 == 0 and fe3 == 0xe3 and fm3 == 0x3ffff8 and  fcsr ==
      0x0 and rm_val == 7   #nosat'
    : 1
    ? 'fs1 == 0 and fe1 == 0xfd and fm1 == 0x79b070 and fs2 == 0 and fe2 == 0x00 and
      fm2 == 0x000000 and fs3 == 0 and fe3 == 0xe3 and fm3 == 0x3ffff8 and  fcsr ==
      0x0 and rm_val == 7   #nosat'
    : 1
    ? 'fs1 == 0 and fe1 == 0xfe and fm1 == 0x29e684 and fs2 == 0 and fe2 == 0x00 and
      fm2 == 0x000000 and fs3 == 0 and fe3 == 0xe3 and fm3 == 0x3ffff8 and  fcsr ==
      0x0 and rm_val == 7   #nosat'
    : 1
    ? 'fs1 == 0 and fe1 == 0xfd and fm1 == 0x2d3925 and fs2 == 1 and fe2 == 0x00 and
      fm2 == 0x000000 and fs3 == 0 and fe3 == 0xe3 and fm3 == 0x3ffff8 and  fcsr ==
      0x0 and rm_val == 7   #nosat'
    : 1
    ? 'fs1 == 0 and fe1 == 0xfc and fm1 == 0x2cd245 and fs2 == 1 and fe2 == 0x00 and
      fm2 == 0x000000 and fs3 == 0 and fe3 == 0xe3 and fm3 == 0x3ffff8 and  fcsr ==
      0x0 and rm_val == 7   #nosat'
    : 1
    ? 'fs1 == 0 and fe1 == 0xfb and fm1 == 0x39bb69 and fs2 == 1 and fe2 == 0x00 and
      fm2 == 0x000000 and fs3 == 0 and fe3 == 0xe3 and fm3 == 0x3ffff8 and  fcsr ==
      0x0 and rm_val == 7   #nosat'
    : 1
    ? 'fs1 == 0 and fe1 == 0xfd and fm1 == 0x4b6083 and fs2 == 1 and fe2 == 0x00 and
      fm2 == 0x000000 and fs3 == 0 and fe3 == 0xe3 and fm3 == 0x3ffff8 and  fcsr ==
      0x0 and rm_val == 7   #nosat'
    : 1
    ? 'fs1 == 0 and fe1 == 0xfc and fm1 == 0x12898d and fs2 == 1 and fe2 == 0x00 and
      fm2 == 0x000000 and fs3 == 0 and fe3 == 0xe3 and fm3 == 0x3ffff8 and  fcsr ==
      0x0 and rm_val == 7   #nosat'
    : 1
    ? 'fs1 == 0 and fe1 == 0xfe and fm1 == 0x1ae6b6 and fs2 == 1 and fe2 == 0x00 and
      fm2 == 0x000000 and fs3 == 0 and fe3 == 0xe3 and fm3 == 0x3ffff8 and  fcsr ==
      0x0 and rm_val == 7   #nosat'
    : 1
    ? 'fs1 == 0 and fe1 == 0xfe and fm1 == 0x20fcca and fs2 == 1 and fe2 == 0x00 and
      fm2 == 0x000000 and fs3 == 0 and fe3 == 0xe3 and fm3 == 0x3ffff8 and  fcsr ==
      0x0 and rm_val == 7   #nosat'
    : 1
    ? 'fs1 == 0 and fe1 == 0xfc and fm1 == 0x0cfe89 and fs2 == 1 and fe2 == 0x2c and
      fm2 == 0x686816 and fs3 == 0 and fe3 == 0xe3 and fm3 == 0x3ffff8 and  fcsr ==
      0x0 and rm_val == 7   #nosat'
    : 1
    ? 'fs1 == 0 and fe1 == 0xfc and fm1 == 0x55f571 and fs2 == 1 and fe2 == 0x2c and
      fm2 == 0x1926a8 and fs3 == 0 and fe3 == 0xe3 and fm3 == 0x3ffff8 and  fcsr ==
      0x0 and rm_val == 7   #nosat'
    : 1
    ? 'fs1 == 0 and fe1 == 0xfe and fm1 == 0x1afcca and fs2 == 1 and fe2 == 0x2a and
      fm2 == 0x536c6d and fs3 == 0 and fe3 == 0xe3 and fm3 == 0x3ffff8 and  fcsr ==
      0x0 and rm_val == 7   #nosat'
    : 1
    ? 'fs1 == 0 and fe1 == 0xfd and fm1 == 0x7680ff and fs2 == 1 and fe2 == 0x2b and
      fm2 == 0x04ee53 and fs3 == 0 and fe3 == 0xe3 and fm3 == 0x3ffff8 and  fcsr ==
      0x0 and rm_val == 7   #nosat'
    : 1
    ? 'fs1 == 0 and fe1 == 0xfe and fm1 == 0x1acd2f and fs2 == 1 and fe2 == 0x2a and
      fm2 == 0x53ad73 and fs3 == 0 and fe3 == 0xe3 and fm3 == 0x3ffff8 and  fcsr ==
      0x0 and rm_val == 7   #nosat'
    : 1
    ? 'fs1 == 0 and fe1 == 0xfd and fm1 == 0x0496ad and fs2 == 1 and fe2 == 0x2b and
      fm2 == 0x7723f2 and fs3 == 0 and fe3 == 0xe3 and fm3 == 0x3ffff8 and  fcsr ==
      0x0 and rm_val == 7   #nosat'
    : 1
    ? 'fs1 == 0 and fe1 == 0xfb and fm1 == 0x4733d7 and fs2 == 1 and fe2 == 0x2d and
      fm2 == 0x247ef4 and fs3 == 0 and fe3 == 0xe3 and fm3 == 0x3ffff8 and  fcsr ==
      0x0 and rm_val == 7   #nosat'
    : 1
    ? 'fs1 == 0 and fe1 == 0xfc and fm1 == 0x60364e and fs2 == 0 and fe2 == 0x2c and
      fm2 == 0x1225b6 and fs3 == 0 and fe3 == 0xe3 and fm3 == 0x3ffff8 and  fcsr ==
      0x0 and rm_val == 7   #nosat'
    : 1
    ? 'fs1 == 0 and fe1 == 0xfe and fm1 == 0x186be6 and fs2 == 0 and fe2 == 0x2a and
      fm2 == 0x56fb9a and fs3 == 0 and fe3 == 0xe3 and fm3 == 0x3ffff8 and  fcsr ==
      0x0 and rm_val == 7   #nosat'
    : 1
    ? 'fs1 == 0 and fe1 == 0xfc and fm1 == 0x504312 and fs2 == 0 and fe2 == 0x2c and
      fm2 == 0x1d571c and fs3 == 0 and fe3 == 0xe3 and fm3 == 0x3ffff8 and  fcsr ==
      0x0 and rm_val == 7   #nosat'
    : 1
    ? 'fs1 == 0 and fe1 == 0xfd and fm1 == 0x050002 and fs2 == 0 and fe2 == 0x2b and
      fm2 == 0x766039 and fs3 == 0 and fe3 == 0xe3 and fm3 == 0x3ffff8 and  fcsr ==
      0x0 and rm_val == 7   #nosat'
    : 1
    ? 'fs1 == 0 and fe1 == 0xfd and fm1 == 0x20177e and fs2 == 0 and fe2 == 0x2b and
      fm2 == 0x4caebe and fs3 == 0 and fe3 == 0xe3 and fm3 == 0x3ffff8 and  fcsr ==
      0x0 and rm_val == 7   #nosat'
    : 1
    ? 'fs1 == 0 and fe1 == 0xfd and fm1 == 0x21312f and fs2 == 0 and fe2 == 0x2b and
      fm2 == 0x4b490d and fs3 == 0 and fe3 == 0xe3 and fm3 == 0x3ffff8 and  fcsr ==
      0x0 and rm_val == 7   #nosat'
    : 1
    ? 'fs1 == 0 and fe1 == 0xfd and fm1 == 0x1d41a9 and fs2 == 0 and fe2 == 0x2b and
      fm2 == 0x505f7a and fs3 == 0 and fe3 == 0xe3 and fm3 == 0x3ffff8 and  fcsr ==
      0x0 and rm_val == 7   #nosat'
    : 1
    ? 'fs1 == 0 and fe1 == 0xfe and fm1 == 0x30c1f0 and fs2 == 0 and fe2 == 0x2a and
      fm2 == 0x396244 and fs3 == 0 and fe3 == 0xe3 and fm3 == 0x3ffff8 and  fcsr ==
      0x0 and rm_val == 7   #nosat'
    : 1
    ? 'fs1 == 0 and fe1 == 0xfb and fm1 == 0x6f9cda and fs2 == 0 and fe2 == 0x2d and
      fm2 == 0x08c107 and fs3 == 0 and fe3 == 0xe3 and fm3 == 0x3ffff8 and  fcsr ==
      0x0 and rm_val == 7   #nosat'
    : 1
    ? 'fs1 == 0 and fe1 == 0xf6 and fm1 == 0x6522f2 and fs2 == 0 and fe2 == 0x32 and
      fm2 == 0x0f01a6 and fs3 == 0 and fe3 == 0xe3 and fm3 == 0x3ffff8 and  fcsr ==
      0x0 and rm_val == 7   #nosat'
    : 1
    ? 'fs1 == 0 and fe1 == 0xfe and fm1 == 0x351b7f and fs2 == 0 and fe2 == 0x2a and
      fm2 == 0x34ee69 and fs3 == 0 and fe3 == 0xe3 and fm3 == 0x3ffff8 and  fcsr ==
      0x0 and rm_val == 7   #nosat'
    : 1
    ? 'fs1 == 0 and fe1 == 0xfe and fm1 == 0x28f4b0 and fs2 == 0 and fe2 == 0x2a and
      fm2 == 0x41f1b6 and fs3 == 0 and fe3 == 0xe3 and fm3 == 0x3ffff8 and  fcsr ==
      0x0 and rm_val == 7   #nosat'
    : 1
    ? 'fs1 == 0 and fe1 == 0xfe and fm1 == 0x3d7cc7 and fs2 == 0 and fe2 == 0x2a and
      fm2 == 0x2cee00 and fs3 == 0 and fe3 == 0xe3 and fm3 == 0x3ffff8 and  fcsr ==
      0x0 and rm_val == 7   #nosat'
    : 1
    ? 'fs1 == 0 and fe1 == 0xfd and fm1 == 0x26ca91 and fs2 == 0 and fe2 == 0x2b and
      fm2 == 0x44760b and fs3 == 0 and fe3 == 0xe3 and fm3 == 0x3ffff8 and  fcsr ==
      0x0 and rm_val == 7   #nosat'
    : 1
    ? 'fs1 == 0 and fe1 == 0xfe and fm1 == 0x366e51 and fs2 == 1 and fe2 == 0x2a and
      fm2 == 0x339e60 and fs3 == 0 and fe3 == 0xe3 and fm3 == 0x3ffff8 and  fcsr ==
      0x0 and rm_val == 7   #nosat'
    : 1
    ? 'fs1 == 0 and fe1 == 0xfe and fm1 == 0x320e71 and fs2 == 1 and fe2 == 0x2a and
      fm2 == 0x380814 and fs3 == 0 and fe3 == 0xe3 and fm3 == 0x3ffff8 and  fcsr ==
      0x0 and rm_val == 7   #nosat'
    : 1
    ? 'fs1 == 0 and fe1 == 0xfc and fm1 == 0x2a90d0 and fs2 == 1 and fe2 == 0x2c and
      fm2 == 0x401d1a and fs3 == 0 and fe3 == 0xe3 and fm3 == 0x3ffff8 and  fcsr ==
      0x0 and rm_val == 7   #nosat'
    : 1
    ? 'fs1 == 0 and fe1 == 0xfe and fm1 == 0x0f23f2 and fs2 == 1 and fe2 == 0x2a and
      fm2 == 0x64ec0d and fs3 == 0 and fe3 == 0xe3 and fm3 == 0x3ffff8 and  fcsr ==
      0x0 and rm_val == 7   #nosat'
    : 1
    ? 'fs1 == 0 and fe1 == 0xfe and fm1 == 0x20a569 and fs2 == 1 and fe2 == 0x2a and
      fm2 == 0x4bf9ec and fs3 == 0 and fe3 == 0xe3 and fm3 == 0x3ffff8 and  fcsr ==
      0x0 and rm_val == 7   #nosat'
    : 1
    ? 'fs1 == 0 and fe1 == 0xfd and fm1 == 0x7e964a and fs2 == 1 and fe2 == 0x2b and
      fm2 == 0x00b5db and fs3 == 0 and fe3 == 0xe3 and fm3 == 0x3ffff8 and  fcsr ==
      0x0 and rm_val == 7   #nosat'
    : 1
    ? 'fs1 == 0 and fe1 == 0xfd and fm1 == 0x474d3f and fs2 == 1 and fe2 == 0x2b and
      fm2 == 0x2469fd and fs3 == 0 and fe3 == 0xe3 and fm3 == 0x3ffff8 and  fcsr ==
      0x0 and rm_val == 7   #nosat'
    : 1
    ? 'fs1 == 0 and fe1 == 0xfc and fm1 == 0x5dfbef and fs2 == 1 and fe2 == 0x00 and
      fm2 == 0x000000 and fs3 == 0 and fe3 == 0xe3 and fm3 == 0x3ffff8 and  fcsr ==
      0x0 and rm_val == 7   #nosat'
    : 1
    ? 'fs1 == 0 and fe1 == 0xfd and fm1 == 0x02f86a and fs2 == 1 and fe2 == 0x00 and
      fm2 == 0x000000 and fs3 == 0 and fe3 == 0xe3 and fm3 == 0x3ffff8 and  fcsr ==
      0x0 and rm_val == 7   #nosat'
    : 1
    ? 'fs1 == 0 and fe1 == 0xfc and fm1 == 0x2eb1b3 and fs2 == 1 and fe2 == 0x00 and
      fm2 == 0x000000 and fs3 == 0 and fe3 == 0xe3 and fm3 == 0x3ffff8 and  fcsr ==
      0x0 and rm_val == 7   #nosat'
    : 1
    ? 'fs1 == 0 and fe1 == 0xfa and fm1 == 0x511a8e and fs2 == 1 and fe2 == 0x00 and
      fm2 == 0x000000 and fs3 == 0 and fe3 == 0xe3 and fm3 == 0x3ffff8 and  fcsr ==
      0x0 and rm_val == 7   #nosat'
    : 1
    ? 'fs1 == 0 and fe1 == 0xfd and fm1 == 0x620d5f and fs2 == 1 and fe2 == 0x00 and
      fm2 == 0x000000 and fs3 == 0 and fe3 == 0xe3 and fm3 == 0x3ffff8 and  fcsr ==
      0x0 and rm_val == 7   #nosat'
    : 1
    ? 'fs1 == 0 and fe1 == 0xfc and fm1 == 0x5c6cb0 and fs2 == 1 and fe2 == 0x00 and
      fm2 == 0x000000 and fs3 == 0 and fe3 == 0xe3 and fm3 == 0x3ffff8 and  fcsr ==
      0x0 and rm_val == 7   #nosat'
    : 1
    ? 'fs1 == 0 and fe1 == 0xfe and fm1 == 0x1b8e8c and fs2 == 1 and fe2 == 0x00 and
      fm2 == 0x000000 and fs3 == 0 and fe3 == 0xe3 and fm3 == 0x3ffff8 and  fcsr ==
      0x0 and rm_val == 7   #nosat'
    : 1
    ? 'fs1 == 0 and fe1 == 0xfa and fm1 == 0x0a79d8 and fs2 == 0 and fe2 == 0x00 and
      fm2 == 0x000000 and fs3 == 0 and fe3 == 0xe3 and fm3 == 0x3ffff8 and  fcsr ==
      0x0 and rm_val == 7   #nosat'
    : 1
    ? 'fs1 == 0 and fe1 == 0xfe and fm1 == 0x2d7e33 and fs2 == 0 and fe2 == 0x00 and
      fm2 == 0x000000 and fs3 == 0 and fe3 == 0xe3 and fm3 == 0x3ffff8 and  fcsr ==
      0x0 and rm_val == 7   #nosat'
    : 1
    ? 'fs1 == 0 and fe1 == 0xfe and fm1 == 0x053104 and fs2 == 0 and fe2 == 0x00 and
      fm2 == 0x000000 and fs3 == 0 and fe3 == 0xe3 and fm3 == 0x3ffff8 and  fcsr ==
      0x0 and rm_val == 7   #nosat'
    : 1
    ? 'fs1 == 0 and fe1 == 0xfe and fm1 == 0x31614f and fs2 == 0 and fe2 == 0x00 and
      fm2 == 0x000000 and fs3 == 0 and fe3 == 0xe3 and fm3 == 0x3ffff8 and  fcsr ==
      0x0 and rm_val == 7   #nosat'
    : 1
    ? 'fs1 == 0 and fe1 == 0xfe and fm1 == 0x2c2411 and fs2 == 0 and fe2 == 0x00 and
      fm2 == 0x000000 and fs3 == 0 and fe3 == 0xe3 and fm3 == 0x3ffff8 and  fcsr ==
      0x0 and rm_val == 7   #nosat'
    : 1
    ? 'fs1 == 0 and fe1 == 0xfe and fm1 == 0x2cbcd0 and fs2 == 0 and fe2 == 0x00 and
      fm2 == 0x000000 and fs3 == 0 and fe3 == 0xe3 and fm3 == 0x3ffff8 and  fcsr ==
      0x0 and rm_val == 7   #nosat'
    : 1
    ? 'fs1 == 0 and fe1 == 0xfd and fm1 == 0x5d8cd3 and fs2 == 0 and fe2 == 0x00 and
      fm2 == 0x000000 and fs3 == 0 and fe3 == 0xe3 and fm3 == 0x3ffff8 and  fcsr ==
      0x0 and rm_val == 7   #nosat'
    : 1
    ? 'fs1 == 0 and fe1 == 0xf8 and fm1 == 0x218502 and fs2 == 0 and fe2 == 0x00 and
      fm2 == 0x000000 and fs3 == 0 and fe3 == 0xe3 and fm3 == 0x3ffff8 and  fcsr ==
      0x0 and rm_val == 7   #nosat'
    : 1
    ? 'fs1 == 0 and fe1 == 0xfe and fm1 == 0x0f18e6 and fs2 == 0 and fe2 == 0x00 and
      fm2 == 0x000000 and fs3 == 0 and fe3 == 0xe3 and fm3 == 0x3ffff8 and  fcsr ==
      0x0 and rm_val == 7   #nosat'
    : 1
    ? 'fs1 == 0 and fe1 == 0xfc and fm1 == 0x03f57f and fs2 == 0 and fe2 == 0x00 and
      fm2 == 0x000000 and fs3 == 0 and fe3 == 0xe3 and fm3 == 0x3ffff8 and  fcsr ==
      0x0 and rm_val == 7   #nosat'
    : 1
    ? 'fs1 == 0 and fe1 == 0xfc and fm1 == 0x665064 and fs2 == 0 and fe2 == 0x00 and
      fm2 == 0x000000 and fs3 == 0 and fe3 == 0xe3 and fm3 == 0x3ffff8 and  fcsr ==
      0x0 and rm_val == 7   #nosat'
    : 1
    ? 'fs1 == 0 and fe1 == 0xfd and fm1 == 0x7e8d56 and fs2 == 0 and fe2 == 0x00 and
      fm2 == 0x000000 and fs3 == 0 and fe3 == 0xe3 and fm3 == 0x3ffff8 and  fcsr ==
      0x0 and rm_val == 7   #nosat'
    : 1
    ? 'fs1 == 0 and fe1 == 0xfd and fm1 == 0x499612 and fs2 == 0 and fe2 == 0x00 and
      fm2 == 0x000000 and fs3 == 0 and fe3 == 0xe3 and fm3 == 0x3ffff8 and  fcsr ==
      0x0 and rm_val == 7   #nosat'
    : 1
    ? 'fs1 == 0 and fe1 == 0xfd and fm1 == 0x1ee152 and fs2 == 0 and fe2 == 0x00 and
      fm2 == 0x000000 and fs3 == 0 and fe3 == 0xe3 and fm3 == 0x3ffff8 and  fcsr ==
      0x0 and rm_val == 7   #nosat'
    : 1
    ? 'fs1 == 0 and fe1 == 0xfe and fm1 == 0x344bd0 and fs2 == 1 and fe2 == 0x00 and
      fm2 == 0x000000 and fs3 == 0 and fe3 == 0xe3 and fm3 == 0x3ffff8 and  fcsr ==
      0x0 and rm_val == 7   #nosat'
    : 1
    ? 'fs1 == 0 and fe1 == 0xfd and fm1 == 0x6b1228 and fs2 == 1 and fe2 == 0x00 and
      fm2 == 0x000000 and fs3 == 0 and fe3 == 0xe3 and fm3 == 0x3ffff8 and  fcsr ==
      0x0 and rm_val == 7   #nosat'
    : 1
    ? 'fs1 == 0 and fe1 == 0xfd and fm1 == 0x031454 and fs2 == 1 and fe2 == 0x00 and
      fm2 == 0x000000 and fs3 == 0 and fe3 == 0xe3 and fm3 == 0x3ffff8 and  fcsr ==
      0x0 and rm_val == 7   #nosat'
    : 1
    ? 'fs1 == 0 and fe1 == 0xfc and fm1 == 0x41e692 and fs2 == 1 and fe2 == 0x00 and
      fm2 == 0x000000 and fs3 == 0 and fe3 == 0xe3 and fm3 == 0x3ffff8 and  fcsr ==
      0x0 and rm_val == 7   #nosat'
    : 1
    ? 'fs1 == 0 and fe1 == 0xfe and fm1 == 0x25708a and fs2 == 1 and fe2 == 0x00 and
      fm2 == 0x000000 and fs3 == 0 and fe3 == 0xe3 and fm3 == 0x3ffff8 and  fcsr ==
      0x0 and rm_val == 7   #nosat'
    : 1
    ? 'fs1 == 0 and fe1 == 0xfd and fm1 == 0x373e6b and fs2 == 1 and fe2 == 0x00 and
      fm2 == 0x000000 and fs3 == 0 and fe3 == 0xe3 and fm3 == 0x3ffff8 and  fcsr ==
      0x0 and rm_val == 7   #nosat'
    : 1
    ? 'fs1 == 0 and fe1 == 0xfe and fm1 == 0x1634d7 and fs2 == 1 and fe2 == 0x00 and
      fm2 == 0x000000 and fs3 == 0 and fe3 == 0xe3 and fm3 == 0x3ffff8 and  fcsr ==
      0x0 and rm_val == 7   #nosat'
    : 1
    ? 'fs1 == 0 and fe1 == 0xfd and fm1 == 0x071b70 and fs2 == 1 and fe2 == 0x80 and
      fm2 == 0x35e667 and fs3 == 1 and fe3 == 0xfe and fm3 == 0x3fffff and  fcsr ==
      0x0 and rm_val == 7   #nosat'
    : 1
    ? 'fs1 == 0 and fe1 == 0xfc and fm1 == 0x178d60 and fs2 == 1 and fe2 == 0x81 and
      fm2 == 0x222970 and fs3 == 1 and fe3 == 0xfe and fm3 == 0x3ffffe and  fcsr ==
      0x0 and rm_val == 7   #nosat'
    : 1
    ? 'fs1 == 0 and fe1 == 0xfd and fm1 == 0x4d4cf5 and fs2 == 1 and fe2 == 0x7f and
      fm2 == 0x6f6a2e and fs3 == 1 and fe3 == 0xfe and fm3 == 0x3fffff and  fcsr ==
      0x0 and rm_val == 7   #nosat'
    : 1
    ? 'fs1 == 0 and fe1 == 0xfe and fm1 == 0x1cd3e2 and fs2 == 1 and fe2 == 0x7f and
      fm2 == 0x1cb4ff and fs3 == 1 and fe3 == 0xfe and fm3 == 0x3fffff and  fcsr ==
      0x0 and rm_val == 7   #nosat'
    : 1
    ? 'fs1 == 0 and fe1 == 0xfc and fm1 == 0x038f64 and fs2 == 1 and fe2 == 0x81 and
      fm2 == 0x3acde7 and fs3 == 1 and fe3 == 0xfe and fm3 == 0x3fffff and  fcsr ==
      0x0 and rm_val == 7   #nosat'
    : 1
    ? 'fs1 == 0 and fe1 == 0xfe and fm1 == 0x180041 and fs2 == 1 and fe2 == 0x7f and
      fm2 == 0x21aee1 and fs3 == 1 and fe3 == 0xfe and fm3 == 0x3fffff and  fcsr ==
      0x0 and rm_val == 7   #nosat'
    : 1
    ? 'fs1 == 0 and fe1 == 0xfe and fm1 == 0x30faaa and fs2 == 1 and fe2 == 0x7f and
      fm2 == 0x0add22 and fs3 == 1 and fe3 == 0xfe and fm3 == 0x3fffff and  fcsr ==
      0x0 and rm_val == 7   #nosat'
    : 1
    ? 'fs1 == 0 and fe1 == 0xfe and fm1 == 0x1ac304 and fs2 == 1 and fe2 == 0x7f and
      fm2 == 0x1ecc83 and fs3 == 1 and fe3 == 0xfe and fm3 == 0x3fffff and  fcsr ==
      0x0 and rm_val == 7   #nosat'
    : 1
    ? 'fs1 == 0 and fe1 == 0xfe and fm1 == 0x1e1c9c and fs2 == 1 and fe2 == 0x7f and
      fm2 == 0x1b6f31 and fs3 == 1 and fe3 == 0xfe and fm3 == 0x3fffff and  fcsr ==
      0x0 and rm_val == 7   #nosat'
    : 1
    ? 'fs1 == 0 and fe1 == 0xf7 and fm1 == 0x386f9d and fs2 == 1 and fe2 == 0x86 and
      fm2 == 0x053fdd and fs3 == 1 and fe3 == 0xfe and fm3 == 0x3ffffe and  fcsr ==
      0x0 and rm_val == 7   #nosat'
    : 1
    ? 'fs1 == 0 and fe1 == 0xfd and fm1 == 0x716299 and fs2 == 1 and fe2 == 0x7f and
      fm2 == 0x4b9ff1 and fs3 == 1 and fe3 == 0xfe and fm3 == 0x3fffff and  fcsr ==
      0x0 and rm_val == 7   #nosat'
    : 1
    ? 'fs1 == 0 and fe1 == 0xfe and fm1 == 0x259c47 and fs2 == 1 and fe2 == 0x7f and
      fm2 == 0x14657a and fs3 == 1 and fe3 == 0xfe and fm3 == 0x3ffffe and  fcsr ==
      0x0 and rm_val == 7   #nosat'
    : 1
    ? 'fs1 == 0 and fe1 == 0xfa and fm1 == 0x196401 and fs2 == 1 and fe2 == 0x83 and
      fm2 == 0x2037e7 and fs3 == 1 and fe3 == 0xfe and fm3 == 0x3fffff and  fcsr ==
      0x0 and rm_val == 7   #nosat'
    : 1
    ? 'fs1 == 0 and fe1 == 0xfc and fm1 == 0x506ed3 and fs2 == 1 and fe2 == 0x80 and
      fm2 == 0x6bd11e and fs3 == 1 and fe3 == 0xfe and fm3 == 0x3ffffe and  fcsr ==
      0x0 and rm_val == 7   #nosat'
    : 1
    ? 'fs1 == 0 and fe1 == 0xfc and fm1 == 0x4e462d and fs2 == 1 and fe2 == 0x00 and
      fm2 == 0x000000 and fs3 == 0 and fe3 == 0xe3 and fm3 == 0x3ffff8 and  fcsr ==
      0x0 and rm_val == 7   #nosat'
    : 1
    ? 'fs1 == 0 and fe1 == 0xfd and fm1 == 0x4a785f and fs2 == 1 and fe2 == 0x00 and
      fm2 == 0x000000 and fs3 == 0 and fe3 == 0xe3 and fm3 == 0x3ffff8 and  fcsr ==
      0x0 and rm_val == 7   #nosat'
    : 1
    ? 'fs1 == 0 and fe1 == 0xfd and fm1 == 0x226d04 and fs2 == 1 and fe2 == 0x00 and
      fm2 == 0x000000 and fs3 == 0 and fe3 == 0xe3 and fm3 == 0x3ffff8 and  fcsr ==
      0x0 and rm_val == 7   #nosat'
    : 1
    ? 'fs1 == 0 and fe1 == 0xfd and fm1 == 0x3597f6 and fs2 == 1 and fe2 == 0x00 and
      fm2 == 0x000000 and fs3 == 0 and fe3 == 0xe3 and fm3 == 0x3ffff8 and  fcsr ==
      0x0 and rm_val == 7   #nosat'
    : 1
    ? 'fs1 == 0 and fe1 == 0xfe and fm1 == 0x151669 and fs2 == 1 and fe2 == 0x00 and
      fm2 == 0x000000 and fs3 == 0 and fe3 == 0xe3 and fm3 == 0x3ffff8 and  fcsr ==
      0x0 and rm_val == 7   #nosat'
    : 1
    ? 'fs1 == 0 and fe1 == 0xf5 and fm1 == 0x31cc28 and fs2 == 1 and fe2 == 0x00 and
      fm2 == 0x000000 and fs3 == 0 and fe3 == 0xe3 and fm3 == 0x3ffff8 and  fcsr ==
      0x0 and rm_val == 7   #nosat'
    : 1
    ? 'fs1 == 0 and fe1 == 0xfa and fm1 == 0x2872e3 and fs2 == 1 and fe2 == 0x00 and
      fm2 == 0x000000 and fs3 == 0 and fe3 == 0xe3 and fm3 == 0x3ffff8 and  fcsr ==
      0x0 and rm_val == 7   #nosat'
    : 1
    ? 'fs1 == 0 and fe1 == 0xfb and fm1 == 0x42dcac and fs2 == 1 and fe2 == 0x00 and
      fm2 == 0x000000 and fs3 == 0 and fe3 == 0xe3 and fm3 == 0x3ffff8 and  fcsr ==
      0x0 and rm_val == 7   #nosat'
    : 1
    ? 'fs1 == 0 and fe1 == 0xfb and fm1 == 0x3f6d07 and fs2 == 1 and fe2 == 0x00 and
      fm2 == 0x000000 and fs3 == 0 and fe3 == 0xe3 and fm3 == 0x3ffff8 and  fcsr ==
      0x0 and rm_val == 7   #nosat'
    : 1
    ? 'fs1 == 0 and fe1 == 0xfa and fm1 == 0x522d12 and fs2 == 1 and fe2 == 0x00 and
      fm2 == 0x000000 and fs3 == 0 and fe3 == 0xe3 and fm3 == 0x3ffff8 and  fcsr ==
      0x0 and rm_val == 7   #nosat'
    : 1
    ? 'fs1 == 0 and fe1 == 0xfe and fm1 == 0x3b2415 and fs2 == 1 and fe2 == 0x00 and
      fm2 == 0x000000 and fs3 == 0 and fe3 == 0xe3 and fm3 == 0x3ffff8 and  fcsr ==
      0x0 and rm_val == 7   #nosat'
    : 1
    ? 'fs1 == 0 and fe1 == 0xfe and fm1 == 0x240ddf and fs2 == 1 and fe2 == 0x00 and
      fm2 == 0x000000 and fs3 == 0 and fe3 == 0xe3 and fm3 == 0x3ffff8 and  fcsr ==
      0x0 and rm_val == 7   #nosat'
    : 1
    ? 'fs1 == 0 and fe1 == 0xfb and fm1 == 0x044ae8 and fs2 == 1 and fe2 == 0x00 and
      fm2 == 0x000000 and fs3 == 0 and fe3 == 0xe3 and fm3 == 0x3ffff8 and  fcsr ==
      0x0 and rm_val == 7   #nosat'
    : 1
    ? 'fs1 == 0 and fe1 == 0xfd and fm1 == 0x40d067 and fs2 == 1 and fe2 == 0x00 and
      fm2 == 0x000000 and fs3 == 0 and fe3 == 0xe3 and fm3 == 0x3ffff8 and  fcsr ==
      0x0 and rm_val == 7   #nosat'
    : 1
    ? 'fs1 == 0 and fe1 == 0xfc and fm1 == 0x729bb9 and fs2 == 1 and fe2 == 0x00 and
      fm2 == 0x000000 and fs3 == 0 and fe3 == 0xe3 and fm3 == 0x3ffff8 and  fcsr ==
      0x0 and rm_val == 7   #nosat'
    : 1
    ? 'fs1 == 0 and fe1 == 0xfc and fm1 == 0x7198e7 and fs2 == 1 and fe2 == 0x00 and
      fm2 == 0x000000 and fs3 == 0 and fe3 == 0xe3 and fm3 == 0x3ffff8 and  fcsr ==
      0x0 and rm_val == 7   #nosat'
    : 1
    ? 'fs1 == 0 and fe1 == 0xfd and fm1 == 0x06e52a and fs2 == 0 and fe2 == 0x00 and
      fm2 == 0x000000 and fs3 == 0 and fe3 == 0xe3 and fm3 == 0x3ffff8 and  fcsr ==
      0x0 and rm_val == 7   #nosat'
    : 1
    ? 'fs1 == 0 and fe1 == 0xfd and fm1 == 0x786a31 and fs2 == 0 and fe2 == 0x00 and
      fm2 == 0x000000 and fs3 == 0 and fe3 == 0xe3 and fm3 == 0x3ffff8 and  fcsr ==
      0x0 and rm_val == 7   #nosat'
    : 1
    ? 'fs1 == 0 and fe1 == 0xfd and fm1 == 0x614269 and fs2 == 0 and fe2 == 0x00 and
      fm2 == 0x000000 and fs3 == 0 and fe3 == 0xe3 and fm3 == 0x3ffff8 and  fcsr ==
      0x0 and rm_val == 7   #nosat'
    : 1
    ? 'fs1 == 0 and fe1 == 0xfd and fm1 == 0x0a8f7b and fs2 == 0 and fe2 == 0x00 and
      fm2 == 0x000000 and fs3 == 0 and fe3 == 0xe3 and fm3 == 0x3ffff8 and  fcsr ==
      0x0 and rm_val == 7   #nosat'
    : 1
    ? 'fs1 == 0 and fe1 == 0xfc and fm1 == 0x12c03f and fs2 == 0 and fe2 == 0x00 and
      fm2 == 0x000000 and fs3 == 0 and fe3 == 0xe3 and fm3 == 0x3ffff8 and  fcsr ==
      0x0 and rm_val == 7   #nosat'
    : 1
    ? 'fs1 == 0 and fe1 == 0xfc and fm1 == 0x7c800c and fs2 == 0 and fe2 == 0x00 and
      fm2 == 0x000000 and fs3 == 0 and fe3 == 0xe3 and fm3 == 0x3ffff8 and  fcsr ==
      0x0 and rm_val == 7   #nosat'
    : 1
    ? 'fs1 == 0 and fe1 == 0xfb and fm1 == 0x3e1674 and fs2 == 0 and fe2 == 0x00 and
      fm2 == 0x000000 and fs3 == 0 and fe3 == 0xe3 and fm3 == 0x3ffff8 and  fcsr ==
      0x0 and rm_val == 7   #nosat'
    : 1
    ? 'fs1 == 0 and fe1 == 0xfd and fm1 == 0x55526b and fs2 == 0 and fe2 == 0x00 and
      fm2 == 0x000000 and fs3 == 0 and fe3 == 0xe3 and fm3 == 0x3ffff8 and  fcsr ==
      0x0 and rm_val == 7   #nosat'
    : 1
    ? 'fs1 == 0 and fe1 == 0xfe and fm1 == 0x097aef and fs2 == 0 and fe2 == 0x00 and
      fm2 == 0x000000 and fs3 == 0 and fe3 == 0xe3 and fm3 == 0x3ffff8 and  fcsr ==
      0x0 and rm_val == 7   #nosat'
    : 1
    ? 'fs1 == 0 and fe1 == 0xfd and fm1 == 0x1202eb and fs2 == 0 and fe2 == 0x00 and
      fm2 == 0x000000 and fs3 == 0 and fe3 == 0xe3 and fm3 == 0x3ffff8 and  fcsr ==
      0x0 and rm_val == 7   #nosat'
    : 1
    ? 'fs1 == 0 and fe1 == 0xfa and fm1 == 0x7574e1 and fs2 == 0 and fe2 == 0x00 and
      fm2 == 0x000000 and fs3 == 0 and fe3 == 0xe3 and fm3 == 0x3ffff8 and  fcsr ==
      0x0 and rm_val == 7   #nosat'
    : 1
    ? 'fs1 == 0 and fe1 == 0xfc and fm1 == 0x092190 and fs2 == 0 and fe2 == 0x00 and
      fm2 == 0x000000 and fs3 == 0 and fe3 == 0xe3 and fm3 == 0x3ffff8 and  fcsr ==
      0x0 and rm_val == 7   #nosat'
    : 1
    ? 'fs1 == 0 and fe1 == 0xfd and fm1 == 0x0f5661 and fs2 == 0 and fe2 == 0x00 and
      fm2 == 0x000000 and fs3 == 0 and fe3 == 0xe3 and fm3 == 0x3ffff8 and  fcsr ==
      0x0 and rm_val == 7   #nosat'
    : 1
    ? 'fs1 == 0 and fe1 == 0xfd and fm1 == 0x681a5c and fs2 == 0 and fe2 == 0x00 and
      fm2 == 0x000000 and fs3 == 0 and fe3 == 0xe3 and fm3 == 0x3ffff8 and  fcsr ==
      0x0 and rm_val == 7   #nosat'
    : 1
    ? 'fs1 == 0 and fe1 == 0xfe and fm1 == 0x16436d and fs2 == 0 and fe2 == 0x00 and
      fm2 == 0x000000 and fs3 == 0 and fe3 == 0xe3 and fm3 == 0x3ffff8 and  fcsr ==
      0x0 and rm_val == 7   #nosat'
    : 1
    ? 'fs1 == 0 and fe1 == 0xfd and fm1 == 0x120589 and fs2 == 0 and fe2 == 0x00 and
      fm2 == 0x000000 and fs3 == 0 and fe3 == 0xe3 and fm3 == 0x3ffff8 and  fcsr ==
      0x0 and rm_val == 7   #nosat'
    : 1
    coverage: 270/270
  total_coverage: 411/411
