---
fcvt.wu.s_b22:
  config:
  - check ISA:=regex(.*I.*Zfinx.*)
  mnemonics:
    fcvt.wu.s: 42
    coverage: 1/1
  rd:
    x0: 1
    x1: 1
    x10: 1
    x11: 1
    x12: 1
    x13: 1
    x14: 1
    x15: 1
    x16: 1
    x17: 1
    x18: 1
    x19: 1
    x2: 1
    x20: 1
    x21: 1
    x22: 1
    x23: 1
    x24: 1
    x25: 1
    x26: 1
    x27: 1
    x28: 1
    x29: 1
    x3: 1
    x30: 1
    x31: 11
    x4: 1
    x5: 1
    x6: 1
    x7: 1
    x8: 1
    x9: 1
    coverage: 32/32
  rs1:
    x0: 1
    x1: 1
    x10: 1
    x11: 1
    x12: 1
    x13: 1
    x14: 1
    x15: 1
    x16: 1
    x17: 1
    x18: 1
    x19: 1
    x2: 1
    x20: 1
    x21: 1
    x22: 1
    x23: 1
    x24: 1
    x25: 1
    x26: 1
    x27: 1
    x28: 1
    x29: 1
    x3: 1
    x30: 11
    x31: 1
    x4: 1
    x5: 1
    x6: 1
    x7: 1
    x8: 1
    x9: 1
    coverage: 32/32
  val_comb:
    'fs1 == 0 and fe1 == 0x7c and fm1 == 0x4923b8 and  fcsr == 0x0 and rm_val == 7  and rs1_sgn_prefix == 0x00000000  #nosat': 1
    'fs1 == 0 and fe1 == 0x7d and fm1 == 0x36e5d6 and  fcsr == 0x0 and rm_val == 7  and rs1_sgn_prefix == 0x00000000  #nosat': 1
    'fs1 == 0 and fe1 == 0x7e and fm1 == 0x49fee5 and  fcsr == 0x0 and rm_val == 7  and rs1_sgn_prefix == 0x00000000  #nosat': 1
    'fs1 == 0 and fe1 == 0x7f and fm1 == 0x1a616d and  fcsr == 0x0 and rm_val == 7  and rs1_sgn_prefix == 0x00000000  #nosat': 1
    'fs1 == 0 and fe1 == 0x80 and fm1 == 0x681ae9 and  fcsr == 0x0 and rm_val == 7  and rs1_sgn_prefix == 0x00000000  #nosat': 1
    'fs1 == 0 and fe1 == 0x81 and fm1 == 0x696b5c and  fcsr == 0x0 and rm_val == 7  and rs1_sgn_prefix == 0x00000000  #nosat': 1
    'fs1 == 1 and fe1 == 0x82 and fm1 == 0x53a4fc and  fcsr == 0x0 and rm_val == 7  and rs1_sgn_prefix == 0xffffffff  #nosat': 1
    'fs1 == 0 and fe1 == 0x83 and fm1 == 0x148266 and  fcsr == 0x0 and rm_val == 7  and rs1_sgn_prefix == 0x00000000  #nosat': 1
    'fs1 == 0 and fe1 == 0x84 and fm1 == 0x42a54b and  fcsr == 0x0 and rm_val == 7  and rs1_sgn_prefix == 0x00000000  #nosat': 1
    'fs1 == 0 and fe1 == 0x85 and fm1 == 0x29f475 and  fcsr == 0x0 and rm_val == 7  and rs1_sgn_prefix == 0x00000000  #nosat': 1
    'fs1 == 1 and fe1 == 0x86 and fm1 == 0x1fffe4 and  fcsr == 0x0 and rm_val == 7  and rs1_sgn_prefix == 0xffffffff  #nosat': 1
    'fs1 == 1 and fe1 == 0x87 and fm1 == 0x79f5e7 and  fcsr == 0x0 and rm_val == 7  and rs1_sgn_prefix == 0xffffffff  #nosat': 1
    'fs1 == 0 and fe1 == 0x88 and fm1 == 0x7f8f2d and  fcsr == 0x0 and rm_val == 7  and rs1_sgn_prefix == 0x00000000  #nosat': 1
    'fs1 == 0 and fe1 == 0x89 and fm1 == 0x05b406 and  fcsr == 0x0 and rm_val == 7  and rs1_sgn_prefix == 0x00000000  #nosat': 1
    'fs1 == 0 and fe1 == 0x8a and fm1 == 0x6e19c1 and  fcsr == 0x0 and rm_val == 7  and rs1_sgn_prefix == 0x00000000  #nosat': 1
    'fs1 == 0 and fe1 == 0x8b and fm1 == 0x4d3559 and  fcsr == 0x0 and rm_val == 7  and rs1_sgn_prefix == 0x00000000  #nosat': 1
    'fs1 == 0 and fe1 == 0x8c and fm1 == 0x30d877 and  fcsr == 0x0 and rm_val == 7  and rs1_sgn_prefix == 0x00000000  #nosat': 1
    'fs1 == 1 and fe1 == 0x8d and fm1 == 0x244d9a and  fcsr == 0x0 and rm_val == 7  and rs1_sgn_prefix == 0xffffffff  #nosat': 1
    'fs1 == 0 and fe1 == 0x8e and fm1 == 0x56653f and  fcsr == 0x0 and rm_val == 7  and rs1_sgn_prefix == 0x00000000  #nosat': 1
    'fs1 == 0 and fe1 == 0x8f and fm1 == 0x3a7971 and  fcsr == 0x0 and rm_val == 7  and rs1_sgn_prefix == 0x00000000  #nosat': 1
    'fs1 == 0 and fe1 == 0x90 and fm1 == 0x57ca4f and  fcsr == 0x0 and rm_val == 7  and rs1_sgn_prefix == 0x00000000  #nosat': 1
    'fs1 == 0 and fe1 == 0x91 and fm1 == 0x54b761 and  fcsr == 0x0 and rm_val == 7  and rs1_sgn_prefix == 0x00000000  #nosat': 1
    'fs1 == 0 and fe1 == 0x92 and fm1 == 0x11056d and  fcsr == 0x0 and rm_val == 7  and rs1_sgn_prefix == 0x00000000  #nosat': 1
    'fs1 == 1 and fe1 == 0x93 and fm1 == 0x624882 and  fcsr == 0x0 and rm_val == 7  and rs1_sgn_prefix == 0xffffffff  #nosat': 1
    'fs1 == 0 and fe1 == 0x94 and fm1 == 0x7dbfb7 and  fcsr == 0x0 and rm_val == 7  and rs1_sgn_prefix == 0x00000000  #nosat': 1
    'fs1 == 0 and fe1 == 0x95 and fm1 == 0x7c14e9 and  fcsr == 0x0 and rm_val == 7  and rs1_sgn_prefix == 0x00000000  #nosat': 1
    'fs1 == 0 and fe1 == 0x96 and fm1 == 0x4e817e and  fcsr == 0x0 and rm_val == 7  and rs1_sgn_prefix == 0x00000000  #nosat': 1
    'fs1 == 1 and fe1 == 0x97 and fm1 == 0x05aa55 and  fcsr == 0x0 and rm_val == 7  and rs1_sgn_prefix == 0xffffffff  #nosat': 1
    'fs1 == 0 and fe1 == 0x98 and fm1 == 0x0084e1 and  fcsr == 0x0 and rm_val == 7  and rs1_sgn_prefix == 0x00000000  #nosat': 1
    'fs1 == 0 and fe1 == 0x99 and fm1 == 0x112603 and  fcsr == 0x0 and rm_val == 7  and rs1_sgn_prefix == 0x00000000  #nosat': 1
    'fs1 == 1 and fe1 == 0x9a and fm1 == 0x7872c3 and  fcsr == 0x0 and rm_val == 7  and rs1_sgn_prefix == 0xffffffff  #nosat': 1
    'fs1 == 1 and fe1 == 0x9b and fm1 == 0x26c422 and  fcsr == 0x0 and rm_val == 7  and rs1_sgn_prefix == 0xffffffff  #nosat': 2
    'fs1 == 1 and fe1 == 0x9c and fm1 == 0x2edddb and  fcsr == 0x0 and rm_val == 7  and rs1_sgn_prefix == 0xffffffff  #nosat': 1
    'fs1 == 0 and fe1 == 0x9d and fm1 == 0x72f818 and  fcsr == 0x0 and rm_val == 7  and rs1_sgn_prefix == 0x00000000  #nosat': 1
    'fs1 == 1 and fe1 == 0x9e and fm1 == 0x283d12 and  fcsr == 0x0 and rm_val == 7  and rs1_sgn_prefix == 0xffffffff  #nosat': 1
    'fs1 == 0 and fe1 == 0x9f and fm1 == 0x46450c and  fcsr == 0x0 and rm_val == 7  and rs1_sgn_prefix == 0x00000000  #nosat': 1
    'fs1 == 0 and fe1 == 0xa0 and fm1 == 0x37cfdc and  fcsr == 0x0 and rm_val == 7  and rs1_sgn_prefix == 0x00000000  #nosat': 1
    'fs1 == 1 and fe1 == 0xa1 and fm1 == 0x0851ba and  fcsr == 0x0 and rm_val == 7  and rs1_sgn_prefix == 0xffffffff  #nosat': 1
    'fs1 == 1 and fe1 == 0x29 and fm1 == 0x4ad269 and  fcsr == 0x0 and rm_val == 7  and rs1_sgn_prefix == 0xffffffff  #nosat': 1
    'fs1 == 1 and fe1 == 0xb6 and fm1 == 0x403ed1 and  fcsr == 0x0 and rm_val == 7  and rs1_sgn_prefix == 0xffffffff  #nosat': 1
    coverage: 40/40
  total_coverage: 105/105
