---
fsqrt_b8:
  config:
  - check ISA:=regex(.*I.*F.*)
  op_comb:
    rs1 != rd: 31
    rs1 == rd: 1
    coverage: 2/2
  opcode:
    fsqrt.d: 32
    coverage: 1/1
  rd:
    f0: 1
    f1: 1
    f10: 1
    f11: 1
    f12: 1
    f13: 1
    f14: 1
    f15: 1
    f16: 1
    f17: 1
    f18: 1
    f19: 1
    f2: 1
    f20: 1
    f21: 1
    f22: 1
    f23: 1
    f24: 1
    f25: 1
    f26: 1
    f27: 1
    f28: 1
    f29: 1
    f3: 1
    f30: 1
    f31: 1
    f4: 1
    f5: 1
    f6: 1
    f7: 1
    f8: 1
    f9: 1
    coverage: 32/32
  rs1:
    f0: 1
    f1: 1
    f10: 1
    f11: 1
    f12: 1
    f13: 1
    f14: 1
    f15: 1
    f16: 1
    f17: 1
    f18: 1
    f19: 1
    f2: 1
    f20: 1
    f21: 1
    f22: 1
    f23: 1
    f24: 1
    f25: 1
    f26: 1
    f27: 1
    f28: 1
    f29: 1
    f3: 1
    f30: 1
    f31: 1
    f4: 1
    f5: 1
    f6: 1
    f7: 1
    f8: 1
    f9: 1
    coverage: 32/32
  val_comb:
    'fs1 == 0 and fe1 == 0x000 and fm1 == 0x0000000000000 and rm_val == 0  #nosat': 28  #  rs1_val==dzero(0x0000000000000000) | Guard = 1 Round = 1 Sticky = 1 --> Mask On Extra Bits: 111111111111111111111
    'fs1 == 0 and fe1 == 0x000 and fm1 == 0x0000000000000 and rm_val == 4  #nosat': 1 #  rs1_val==dzero(0x0000000000000000) | Guard = 1 Round = 1 Sticky = 1 --> Mask On Extra Bits: 111111111111111111111
    'fs1 == 0 and fe1 == 0x000 and fm1 == 0x0000000000000 and rm_val == 3  #nosat': 1 #  rs1_val==dzero(0x0000000000000000) | Guard = 1 Round = 1 Sticky = 1 --> Mask On Extra Bits: 111111111111111111111
    'fs1 == 0 and fe1 == 0x000 and fm1 == 0x0000000000000 and rm_val == 2  #nosat': 1 #  rs1_val==dzero(0x0000000000000000) | Guard = 1 Round = 1 Sticky = 1 --> Mask On Extra Bits: 111111111111111111111
    'fs1 == 0 and fe1 == 0x000 and fm1 == 0x0000000000000 and rm_val == 1  #nosat': 1 #  rs1_val==dzero(0x0000000000000000) | Guard = 1 Round = 1 Sticky = 1 --> Mask On Extra Bits: 111111111111111111111
    coverage: 5/5
  total_coverage: 72/72
