---
c.fldsp:
  config:
  - check ISA:=regex(.*I.*F.*D.*C.*)
  mnemonics:
    c.fldsp: 32
    coverage: 1/1
  rd:
    f0: 1
    f1: 1
    f10: 1
    f11: 1
    f12: 1
    f13: 1
    f14: 1
    f15: 1
    f16: 1
    f17: 1
    f18: 1
    f19: 1
    f2: 1
    f20: 1
    f21: 1
    f22: 1
    f23: 1
    f24: 1
    f25: 1
    f26: 1
    f27: 1
    f28: 1
    f29: 1
    f3: 1
    f30: 1
    f31: 1
    f4: 1
    f5: 1
    f6: 1
    f7: 1
    f8: 1
    f9: 1
    coverage: 32/32
  val_comb:
    imm_val == 0: 17
    imm_val > 0: 15
    imm_val == 168: 1
    imm_val == 336: 1
    imm_val == 496: 1
    imm_val == 488: 1
    imm_val == 472: 1
    imm_val == 440: 1
    imm_val == 376: 1
    imm_val == 248: 1
    imm_val == 8: 1
    imm_val == 16: 1
    imm_val == 32: 1
    imm_val == 64: 1
    imm_val == 128: 1
    imm_val == 256: 1
    coverage: 16/16
  total_coverage: 49/49
