---
fcvt.l.d_b24:
  config:
  - check ISA:=regex(.*I.*F.*)
  opcode:
    fcvt.l.d: 106
    coverage: 1/1
  rd:
    x0: 1
    x1: 1
    x10: 1
    x11: 1
    x12: 1
    x13: 1
    x14: 1
    x15: 1
    x16: 1
    x17: 1
    x18: 1
    x19: 1
    x2: 1
    x20: 1
    x21: 1
    x22: 1
    x23: 1
    x24: 1
    x25: 1
    x26: 1
    x27: 1
    x28: 1
    x29: 1
    x3: 1
    x30: 1
    x31: 75
    x4: 1
    x5: 1
    x6: 1
    x7: 1
    x8: 1
    x9: 1
    coverage: 32/32
  rs1:
    f0: 1
    f1: 1
    f10: 1
    f11: 1
    f12: 1
    f13: 1
    f14: 1
    f15: 1
    f16: 1
    f17: 1
    f18: 1
    f19: 1
    f2: 1
    f20: 1
    f21: 1
    f22: 1
    f23: 1
    f24: 1
    f25: 1
    f26: 1
    f27: 1
    f28: 1
    f29: 1
    f3: 1
    f30: 1
    f31: 75
    f4: 1
    f5: 1
    f6: 1
    f7: 1
    f8: 1
    f9: 1
    coverage: 32/32
  val_comb:
    'fs1 == 1 and fe1 == 0x3ff and fm1 == 0x199999999999a and rm_val == 0  #nosat': 1  #  rs1_val==dnorm(0xbff199999999999a) | -1-0.1
    'fs1 == 1 and fe1 == 0x3fb and fm1 == 0x999999999999a and rm_val == 4  #nosat': 1 #  rs1_val==dnorm(0xbfb999999999999a) | +0-0.1
    'fs1 == 1 and fe1 == 0x3fb and fm1 == 0x999999999999a and rm_val == 3  #nosat': 1 #  rs1_val==dnorm(0xbfb999999999999a) | +0-0.1
    'fs1 == 1 and fe1 == 0x3fb and fm1 == 0x999999999999a and rm_val == 2  #nosat': 1 #  rs1_val==dnorm(0xbfb999999999999a) | +0-0.1
    'fs1 == 1 and fe1 == 0x3fb and fm1 == 0x999999999999a and rm_val == 1  #nosat': 1 #  rs1_val==dnorm(0xbfb999999999999a) | +0-0.1
    'fs1 == 1 and fe1 == 0x3fb and fm1 == 0x999999999999a and rm_val == 0  #nosat': 1 #  rs1_val==dnorm(0xbfb999999999999a) | +0-0.1
    'fs1 == 0 and fe1 == 0x3f8 and fm1 == 0x47ae147ae147b and rm_val == 4  #nosat': 1 #  rs1_val==dnorm(0x3f847ae147ae147b) | -0+0.01
    'fs1 == 0 and fe1 == 0x3f8 and fm1 == 0x47ae147ae147b and rm_val == 3  #nosat': 1 #  rs1_val==dnorm(0x3f847ae147ae147b) | -0+0.01
    'fs1 == 0 and fe1 == 0x3f8 and fm1 == 0x47ae147ae147b and rm_val == 2  #nosat': 1 #  rs1_val==dnorm(0x3f847ae147ae147b) | -0+0.01
    'fs1 == 0 and fe1 == 0x3f8 and fm1 == 0x47ae147ae147b and rm_val == 1  #nosat': 1 #  rs1_val==dnorm(0x3f847ae147ae147b) | -0+0.01
    'fs1 == 0 and fe1 == 0x3f8 and fm1 == 0x47ae147ae147b and rm_val == 0  #nosat': 1 #  rs1_val==dnorm(0x3f847ae147ae147b) | -0+0.01
    'fs1 == 0 and fe1 == 0x3ff and fm1 == 0x028f5c28f5c29 and rm_val == 4  #nosat': 1 #  rs1_val==dnorm(0x3ff028f5c28f5c29) | +1+0.01
    'fs1 == 0 and fe1 == 0x3ff and fm1 == 0x028f5c28f5c29 and rm_val == 3  #nosat': 1 #  rs1_val==dnorm(0x3ff028f5c28f5c29) | +1+0.01
    'fs1 == 0 and fe1 == 0x3ff and fm1 == 0x028f5c28f5c29 and rm_val == 2  #nosat': 1 #  rs1_val==dnorm(0x3ff028f5c28f5c29) | +1+0.01
    'fs1 == 0 and fe1 == 0x3ff and fm1 == 0x028f5c28f5c29 and rm_val == 1  #nosat': 1 #  rs1_val==dnorm(0x3ff028f5c28f5c29) | +1+0.01
    'fs1 == 0 and fe1 == 0x3ff and fm1 == 0x028f5c28f5c29 and rm_val == 0  #nosat': 1 #  rs1_val==dnorm(0x3ff028f5c28f5c29) | +1+0.01
    'fs1 == 0 and fe1 == 0x3fe and fm1 == 0xccccccccccccd and rm_val == 4  #nosat': 1 #  rs1_val==dnorm(0x3feccccccccccccd) | +1-0.1
    'fs1 == 0 and fe1 == 0x3fe and fm1 == 0xccccccccccccd and rm_val == 3  #nosat': 1 #  rs1_val==dnorm(0x3feccccccccccccd) | +1-0.1
    'fs1 == 0 and fe1 == 0x3fe and fm1 == 0xccccccccccccd and rm_val == 2  #nosat': 1 #  rs1_val==dnorm(0x3feccccccccccccd) | +1-0.1
    'fs1 == 0 and fe1 == 0x3fe and fm1 == 0xccccccccccccd and rm_val == 1  #nosat': 1 #  rs1_val==dnorm(0x3feccccccccccccd) | +1-0.1
    'fs1 == 0 and fe1 == 0x3fe and fm1 == 0xccccccccccccd and rm_val == 0  #nosat': 1 #  rs1_val==dnorm(0x3feccccccccccccd) | +1-0.1
    'fs1 == 0 and fe1 == 0x3fb and fm1 == 0x999999999999a and rm_val == 4  #nosat': 2 #  rs1_val==dnorm(0x3fb999999999999a) | -0+0.1
    'fs1 == 0 and fe1 == 0x3fb and fm1 == 0x999999999999a and rm_val == 3  #nosat': 1 #  rs1_val==dnorm(0x3fb999999999999a) | -0+0.1
    'fs1 == 0 and fe1 == 0x3fb and fm1 == 0x999999999999a and rm_val == 2  #nosat': 1 #  rs1_val==dnorm(0x3fb999999999999a) | -0+0.1
    'fs1 == 0 and fe1 == 0x3fb and fm1 == 0x999999999999a and rm_val == 1  #nosat': 1 #  rs1_val==dnorm(0x3fb999999999999a) | -0+0.1
    'fs1 == 0 and fe1 == 0x3fb and fm1 == 0x999999999999a and rm_val == 0  #nosat': 1 #  rs1_val==dnorm(0x3fb999999999999a) | -0+0.1
    'fs1 == 0 and fe1 == 0x3ff and fm1 == 0x199999999999a and rm_val == 4  #nosat': 1 #  rs1_val==dnorm(0x3ff199999999999a) | +1+0.1
    'fs1 == 0 and fe1 == 0x3ff and fm1 == 0x199999999999a and rm_val == 3  #nosat': 1 #  rs1_val==dnorm(0x3ff199999999999a) | +1+0.1
    'fs1 == 0 and fe1 == 0x3ff and fm1 == 0x199999999999a and rm_val == 2  #nosat': 1 #  rs1_val==dnorm(0x3ff199999999999a) | +1+0.1
    'fs1 == 0 and fe1 == 0x3ff and fm1 == 0x199999999999a and rm_val == 1  #nosat': 1 #  rs1_val==dnorm(0x3ff199999999999a) | +1+0.1
    'fs1 == 0 and fe1 == 0x3ff and fm1 == 0x199999999999a and rm_val == 0  #nosat': 1 #  rs1_val==dnorm(0x3ff199999999999a) | +1+0.1
    'fs1 == 0 and fe1 == 0x3fb and fm1 == 0xc28f5c28f5c29 and rm_val == 4  #nosat': 1 #  rs1_val==dnorm(0x3fbc28f5c28f5c29) | -0+0.11
    'fs1 == 0 and fe1 == 0x3fb and fm1 == 0xc28f5c28f5c29 and rm_val == 3  #nosat': 1 #  rs1_val==dnorm(0x3fbc28f5c28f5c29) | -0+0.11
    'fs1 == 0 and fe1 == 0x3fb and fm1 == 0xc28f5c28f5c29 and rm_val == 2  #nosat': 1 #  rs1_val==dnorm(0x3fbc28f5c28f5c29) | -0+0.11
    'fs1 == 0 and fe1 == 0x3fb and fm1 == 0xc28f5c28f5c29 and rm_val == 1  #nosat': 1 #  rs1_val==dnorm(0x3fbc28f5c28f5c29) | -0+0.11
    'fs1 == 0 and fe1 == 0x3fb and fm1 == 0xc28f5c28f5c29 and rm_val == 0  #nosat': 1 #  rs1_val==dnorm(0x3fbc28f5c28f5c29) | -0+0.11
    'fs1 == 1 and fe1 == 0x3ff and fm1 == 0x028f5c28f5c29 and rm_val == 4  #nosat': 1 #  rs1_val==dnorm(0xbff028f5c28f5c29) | -1-0.01
    'fs1 == 1 and fe1 == 0x3ff and fm1 == 0x028f5c28f5c29 and rm_val == 3  #nosat': 1 #  rs1_val==dnorm(0xbff028f5c28f5c29) | -1-0.01
    'fs1 == 1 and fe1 == 0x3ff and fm1 == 0x028f5c28f5c29 and rm_val == 2  #nosat': 1 #  rs1_val==dnorm(0xbff028f5c28f5c29) | -1-0.01
    'fs1 == 1 and fe1 == 0x3ff and fm1 == 0x028f5c28f5c29 and rm_val == 1  #nosat': 1 #  rs1_val==dnorm(0xbff028f5c28f5c29) | -1-0.01
    'fs1 == 1 and fe1 == 0x3ff and fm1 == 0x028f5c28f5c29 and rm_val == 0  #nosat': 1 #  rs1_val==dnorm(0xbff028f5c28f5c29) | -1-0.01
    'fs1 == 0 and fe1 == 0x3fe and fm1 == 0xc7ae147ae147b and rm_val == 4  #nosat': 1 #  rs1_val==dnorm(0x3fec7ae147ae147b) | +1-0.11
    'fs1 == 0 and fe1 == 0x3fe and fm1 == 0xc7ae147ae147b and rm_val == 3  #nosat': 1 #  rs1_val==dnorm(0x3fec7ae147ae147b) | +1-0.11
    'fs1 == 0 and fe1 == 0x3fe and fm1 == 0xc7ae147ae147b and rm_val == 2  #nosat': 1 #  rs1_val==dnorm(0x3fec7ae147ae147b) | +1-0.11
    'fs1 == 0 and fe1 == 0x3fe and fm1 == 0xc7ae147ae147b and rm_val == 1  #nosat': 1 #  rs1_val==dnorm(0x3fec7ae147ae147b) | +1-0.11
    'fs1 == 0 and fe1 == 0x3fe and fm1 == 0xc7ae147ae147b and rm_val == 0  #nosat': 1 #  rs1_val==dnorm(0x3fec7ae147ae147b) | +1-0.11
    'fs1 == 0 and fe1 == 0x3ff and fm1 == 0x0000000000000 and rm_val == 4  #nosat': 1 #  rs1_val==done(0x3ff0000000000000) | +1+0
    'fs1 == 0 and fe1 == 0x3ff and fm1 == 0x0000000000000 and rm_val == 3  #nosat': 1 #  rs1_val==done(0x3ff0000000000000) | +1+0
    'fs1 == 0 and fe1 == 0x3ff and fm1 == 0x0000000000000 and rm_val == 2  #nosat': 1 #  rs1_val==done(0x3ff0000000000000) | +1+0
    'fs1 == 0 and fe1 == 0x3ff and fm1 == 0x0000000000000 and rm_val == 1  #nosat': 1 #  rs1_val==done(0x3ff0000000000000) | +1+0
    'fs1 == 0 and fe1 == 0x3ff and fm1 == 0x0000000000000 and rm_val == 0  #nosat': 1 #  rs1_val==done(0x3ff0000000000000) | +1+0
    'fs1 == 1 and fe1 == 0x3ff and fm1 == 0x1c28f5c28f5c3 and rm_val == 4  #nosat': 1 #  rs1_val==dnorm(0xbff1c28f5c28f5c3) | -1-0.11
    'fs1 == 1 and fe1 == 0x3ff and fm1 == 0x1c28f5c28f5c3 and rm_val == 3  #nosat': 1 #  rs1_val==dnorm(0xbff1c28f5c28f5c3) | -1-0.11
    'fs1 == 1 and fe1 == 0x3ff and fm1 == 0x1c28f5c28f5c3 and rm_val == 2  #nosat': 1 #  rs1_val==dnorm(0xbff1c28f5c28f5c3) | -1-0.11
    'fs1 == 1 and fe1 == 0x3ff and fm1 == 0x1c28f5c28f5c3 and rm_val == 1  #nosat': 1 #  rs1_val==dnorm(0xbff1c28f5c28f5c3) | -1-0.11
    'fs1 == 1 and fe1 == 0x3ff and fm1 == 0x1c28f5c28f5c3 and rm_val == 0  #nosat': 1 #  rs1_val==dnorm(0xbff1c28f5c28f5c3) | -1-0.11
    'fs1 == 0 and fe1 == 0x000 and fm1 == 0x0000000000000 and rm_val == 4  #nosat': 1 #  rs1_val==dzero(0x0000000000000000) | +0-0
    'fs1 == 0 and fe1 == 0x000 and fm1 == 0x0000000000000 and rm_val == 3  #nosat': 1 #  rs1_val==dzero(0x0000000000000000) | +0-0
    'fs1 == 0 and fe1 == 0x000 and fm1 == 0x0000000000000 and rm_val == 2  #nosat': 1 #  rs1_val==dzero(0x0000000000000000) | +0-0
    'fs1 == 0 and fe1 == 0x000 and fm1 == 0x0000000000000 and rm_val == 1  #nosat': 1 #  rs1_val==dzero(0x0000000000000000) | +0-0
    'fs1 == 0 and fe1 == 0x000 and fm1 == 0x0000000000000 and rm_val == 0  #nosat': 1 #  rs1_val==dzero(0x0000000000000000) | +0-0
    'fs1 == 1 and fe1 == 0x3fb and fm1 == 0xc28f5c28f5c29 and rm_val == 4  #nosat': 1 #  rs1_val==dnorm(0xbfbc28f5c28f5c29) | -0-0.11
    'fs1 == 1 and fe1 == 0x3fb and fm1 == 0xc28f5c28f5c29 and rm_val == 3  #nosat': 1 #  rs1_val==dnorm(0xbfbc28f5c28f5c29) | -0-0.11
    'fs1 == 1 and fe1 == 0x3fb and fm1 == 0xc28f5c28f5c29 and rm_val == 2  #nosat': 1 #  rs1_val==dnorm(0xbfbc28f5c28f5c29) | -0-0.11
    'fs1 == 1 and fe1 == 0x3fb and fm1 == 0xc28f5c28f5c29 and rm_val == 1  #nosat': 1 #  rs1_val==dnorm(0xbfbc28f5c28f5c29) | -0-0.11
    'fs1 == 1 and fe1 == 0x3fb and fm1 == 0xc28f5c28f5c29 and rm_val == 0  #nosat': 1 #  rs1_val==dnorm(0xbfbc28f5c28f5c29) | -0-0.11
    'fs1 == 1 and fe1 == 0x3f8 and fm1 == 0x47ae147ae147b and rm_val == 4  #nosat': 1 #  rs1_val==dnorm(0xbf847ae147ae147b) | -0-0.01
    'fs1 == 1 and fe1 == 0x3f8 and fm1 == 0x47ae147ae147b and rm_val == 3  #nosat': 1 #  rs1_val==dnorm(0xbf847ae147ae147b) | -0-0.01
    'fs1 == 1 and fe1 == 0x3f8 and fm1 == 0x47ae147ae147b and rm_val == 2  #nosat': 1 #  rs1_val==dnorm(0xbf847ae147ae147b) | -0-0.01
    'fs1 == 1 and fe1 == 0x3f8 and fm1 == 0x47ae147ae147b and rm_val == 1  #nosat': 1 #  rs1_val==dnorm(0xbf847ae147ae147b) | -0-0.01
    'fs1 == 1 and fe1 == 0x3f8 and fm1 == 0x47ae147ae147b and rm_val == 0  #nosat': 1 #  rs1_val==dnorm(0xbf847ae147ae147b) | -0-0.01
    'fs1 == 1 and fe1 == 0x3fe and fm1 == 0xfae147ae147ae and rm_val == 4  #nosat': 1 #  rs1_val==dnorm(0xbfefae147ae147ae) | -1+0.01
    'fs1 == 1 and fe1 == 0x3fe and fm1 == 0xfae147ae147ae and rm_val == 3  #nosat': 1 #  rs1_val==dnorm(0xbfefae147ae147ae) | -1+0.01
    'fs1 == 1 and fe1 == 0x3fe and fm1 == 0xfae147ae147ae and rm_val == 2  #nosat': 1 #  rs1_val==dnorm(0xbfefae147ae147ae) | -1+0.01
    'fs1 == 1 and fe1 == 0x3fe and fm1 == 0xfae147ae147ae and rm_val == 1  #nosat': 1 #  rs1_val==dnorm(0xbfefae147ae147ae) | -1+0.01
    'fs1 == 1 and fe1 == 0x3fe and fm1 == 0xfae147ae147ae and rm_val == 0  #nosat': 1 #  rs1_val==dnorm(0xbfefae147ae147ae) | -1+0.01
    'fs1 == 1 and fe1 == 0x3ff and fm1 == 0x0000000000000 and rm_val == 4  #nosat': 1 #  rs1_val==dnorm(0xbff0000000000000) | -1+0
    'fs1 == 1 and fe1 == 0x3ff and fm1 == 0x0000000000000 and rm_val == 3  #nosat': 1 #  rs1_val==dnorm(0xbff0000000000000) | -1+0
    'fs1 == 1 and fe1 == 0x3ff and fm1 == 0x0000000000000 and rm_val == 2  #nosat': 1 #  rs1_val==dnorm(0xbff0000000000000) | -1+0
    'fs1 == 1 and fe1 == 0x3ff and fm1 == 0x0000000000000 and rm_val == 1  #nosat': 1 #  rs1_val==dnorm(0xbff0000000000000) | -1+0
    'fs1 == 1 and fe1 == 0x3ff and fm1 == 0x0000000000000 and rm_val == 0  #nosat': 1 #  rs1_val==dnorm(0xbff0000000000000) | -1+0
    'fs1 == 1 and fe1 == 0x3fe and fm1 == 0xc7ae147ae147b and rm_val == 4  #nosat': 1 #  rs1_val==dnorm(0xbfec7ae147ae147b) | -1+0.11
    'fs1 == 1 and fe1 == 0x3fe and fm1 == 0xc7ae147ae147b and rm_val == 3  #nosat': 1 #  rs1_val==dnorm(0xbfec7ae147ae147b) | -1+0.11
    'fs1 == 1 and fe1 == 0x3fe and fm1 == 0xc7ae147ae147b and rm_val == 2  #nosat': 1 #  rs1_val==dnorm(0xbfec7ae147ae147b) | -1+0.11
    'fs1 == 1 and fe1 == 0x3fe and fm1 == 0xc7ae147ae147b and rm_val == 1  #nosat': 1 #  rs1_val==dnorm(0xbfec7ae147ae147b) | -1+0.11
    'fs1 == 1 and fe1 == 0x3fe and fm1 == 0xc7ae147ae147b and rm_val == 0  #nosat': 1 #  rs1_val==dnorm(0xbfec7ae147ae147b) | -1+0.11
    'fs1 == 0 and fe1 == 0x3ff and fm1 == 0x1c28f5c28f5c3 and rm_val == 4  #nosat': 1 #  rs1_val==dnorm(0x3ff1c28f5c28f5c3) | +1+0.11
    'fs1 == 0 and fe1 == 0x3ff and fm1 == 0x1c28f5c28f5c3 and rm_val == 3  #nosat': 1 #  rs1_val==dnorm(0x3ff1c28f5c28f5c3) | +1+0.11
    'fs1 == 0 and fe1 == 0x3ff and fm1 == 0x1c28f5c28f5c3 and rm_val == 2  #nosat': 1 #  rs1_val==dnorm(0x3ff1c28f5c28f5c3) | +1+0.11
    'fs1 == 0 and fe1 == 0x3ff and fm1 == 0x1c28f5c28f5c3 and rm_val == 1  #nosat': 1 #  rs1_val==dnorm(0x3ff1c28f5c28f5c3) | +1+0.11
    'fs1 == 0 and fe1 == 0x3ff and fm1 == 0x1c28f5c28f5c3 and rm_val == 0  #nosat': 1 #  rs1_val==dnorm(0x3ff1c28f5c28f5c3) | +1+0.11
    'fs1 == 1 and fe1 == 0x3fe and fm1 == 0xccccccccccccd and rm_val == 4  #nosat': 1 #  rs1_val==dnorm(0xbfeccccccccccccd) | -1+0.1
    'fs1 == 1 and fe1 == 0x3fe and fm1 == 0xccccccccccccd and rm_val == 3  #nosat': 1 #  rs1_val==dnorm(0xbfeccccccccccccd) | -1+0.1
    'fs1 == 1 and fe1 == 0x3fe and fm1 == 0xccccccccccccd and rm_val == 2  #nosat': 1 #  rs1_val==dnorm(0xbfeccccccccccccd) | -1+0.1
    'fs1 == 1 and fe1 == 0x3fe and fm1 == 0xccccccccccccd and rm_val == 1  #nosat': 1 #  rs1_val==dnorm(0xbfeccccccccccccd) | -1+0.1
    'fs1 == 1 and fe1 == 0x3fe and fm1 == 0xccccccccccccd and rm_val == 0  #nosat': 1 #  rs1_val==dnorm(0xbfeccccccccccccd) | -1+0.1
    'fs1 == 0 and fe1 == 0x3fe and fm1 == 0xfae147ae147ae and rm_val == 4  #nosat': 1 #  rs1_val==dnorm(0x3fefae147ae147ae) | +1-0.01
    'fs1 == 0 and fe1 == 0x3fe and fm1 == 0xfae147ae147ae and rm_val == 3  #nosat': 1 #  rs1_val==dnorm(0x3fefae147ae147ae) | +1-0.01
    'fs1 == 0 and fe1 == 0x3fe and fm1 == 0xfae147ae147ae and rm_val == 2  #nosat': 1 #  rs1_val==dnorm(0x3fefae147ae147ae) | +1-0.01
    'fs1 == 0 and fe1 == 0x3fe and fm1 == 0xfae147ae147ae and rm_val == 1  #nosat': 1 #  rs1_val==dnorm(0x3fefae147ae147ae) | +1-0.01
    'fs1 == 0 and fe1 == 0x3fe and fm1 == 0xfae147ae147ae and rm_val == 0  #nosat': 1 #  rs1_val==dnorm(0x3fefae147ae147ae) | +1-0.01
    'fs1 == 1 and fe1 == 0x3ff and fm1 == 0x199999999999a and rm_val == 4  #nosat': 1 #  rs1_val==dnorm(0xbff199999999999a) | -1-0.1
    'fs1 == 1 and fe1 == 0x3ff and fm1 == 0x199999999999a and rm_val == 3  #nosat': 1 #  rs1_val==dnorm(0xbff199999999999a) | -1-0.1
    'fs1 == 1 and fe1 == 0x3ff and fm1 == 0x199999999999a and rm_val == 2  #nosat': 1 #  rs1_val==dnorm(0xbff199999999999a) | -1-0.1
    'fs1 == 1 and fe1 == 0x3ff and fm1 == 0x199999999999a and rm_val == 1  #nosat': 1 #  rs1_val==dnorm(0xbff199999999999a) | -1-0.1
    coverage: 105/105
  total_coverage: 170/170
