---
fdiv_b20:
  config:
  - check ISA:=regex(.*I.*F.*)
  op_comb:
    rs1 != rs2  and rs1 != rd and rs2 != rd: 100
    rs1 == rd != rs2: 1
    rs1 == rs2 != rd: 1
    rs1 == rs2 == rd: 1
    rs2 == rd != rs1: 1
    coverage: 5/5
  opcode:
    fdiv.s: 104
    coverage: 1/1
  rd:
    f0: 1
    f1: 1
    f10: 1
    f11: 1
    f12: 1
    f13: 1
    f14: 1
    f15: 1
    f16: 1
    f17: 1
    f18: 1
    f19: 1
    f2: 1
    f20: 1
    f21: 1
    f22: 1
    f23: 1
    f24: 1
    f25: 1
    f26: 1
    f27: 1
    f28: 1
    f29: 1
    f3: 1
    f30: 1
    f31: 73
    f4: 1
    f5: 1
    f6: 1
    f7: 1
    f8: 1
    f9: 1
    coverage: 32/32
  rs1:
    f0: 1
    f1: 1
    f10: 1
    f11: 1
    f12: 1
    f13: 1
    f14: 1
    f15: 1
    f16: 1
    f17: 1
    f18: 1
    f19: 1
    f2: 1
    f20: 1
    f21: 1
    f22: 1
    f23: 1
    f24: 1
    f25: 1
    f26: 1
    f27: 1
    f28: 1
    f29: 1
    f3: 1
    f30: 73
    f31: 1
    f4: 1
    f5: 1
    f6: 1
    f7: 1
    f8: 1
    f9: 1
    coverage: 32/32
  rs2:
    f0: 1
    f1: 1
    f10: 1
    f11: 1
    f12: 1
    f13: 1
    f14: 1
    f15: 1
    f16: 1
    f17: 1
    f18: 1
    f19: 1
    f2: 1
    f20: 1
    f21: 1
    f22: 1
    f23: 1
    f24: 1
    f25: 1
    f26: 1
    f27: 1
    f28: 1
    f29: 73
    f3: 1
    f30: 1
    f31: 1
    f4: 1
    f5: 1
    f6: 1
    f7: 1
    f8: 1
    f9: 1
    coverage: 32/32
  val_comb:
    'fs1 == 0 and fe1 == 0xfb and fm1 == 0x60f718 and fs2 == 1 and fe2 == 0xe9 and fm2 == 0x33f8e0 and rm_val == 0  #nosat': 1  #  rs1_val==fnorm(0x7de0f718) and rs2_val==fnorm(0xf4b3f8e0) | Intermediate result significand: 01000000000000000000000  Pattern: X1000000000000000000000
    'fs1 == 0 and fe1 == 0xfd and fm1 == 0x2fc88c and fs2 == 0 and fe2 == 0xfe and fm2 == 0x7fffff and rm_val == 0  #nosat': 1 #  rs1_val==fnorm(0x7eafc88c) and rs2_val==fmaxnorm(0x7f7fffff)Intermediate result significand: 00000000000000000000000  Pattern: 00000000000000000000000
    'fs1 == 0 and fe1 == 0xfe and fm1 == 0x319ce6 and fs2 == 0 and fe2 == 0xfe and fm2 == 0x7fffff and rm_val == 0  #nosat': 1 #  rs1_val==fnorm(0x7f319ce6) and rs2_val==fmaxnorm(0x7f7fffff)Intermediate result significand: 10000000000000000000000  Pattern: 10000000000000000000000
    'fs1 == 0 and fe1 == 0xfd and fm1 == 0x58bf61 and fs2 == 1 and fe2 == 0xab and fm2 == 0x17657f and rm_val == 0  #nosat': 1 #  rs1_val==fnorm(0x7ed8bf61) and rs2_val==fnorm(0xd597657f) | Intermediate result significand: 01101110100000001111100  Pattern: XXXXXXXXXXXXXXXXXXXX100
    'fs1 == 0 and fe1 == 0xfe and fm1 == 0x2b0708 and fs2 == 1 and fe2 == 0x86 and fm2 == 0x0d7389 and rm_val == 0  #nosat': 1 #  rs1_val==fnorm(0x7f2b0708) and rs2_val==fnorm(0xc30d7389) | Intermediate result significand: 00110101100001101111100  Pattern: XXXXXXXXXXXXXXXXXXXX100
    'fs1 == 0 and fe1 == 0xfc and fm1 == 0x4cd7ff and fs2 == 1 and fe2 == 0xf8 and fm2 == 0x6ccaee and rm_val == 0  #nosat': 1 #  rs1_val==fnorm(0x7e4cd7ff) and rs2_val==fnorm(0xfc6ccaee) | Intermediate result significand: 10111010111010110100100  Pattern: XXXXXXXXXXXXXXXXXXXX100
    'fs1 == 0 and fe1 == 0xfa and fm1 == 0x7b1d83 and fs2 == 1 and fe2 == 0xfe and fm2 == 0x7fffff and rm_val == 0  #nosat': 1 #  rs1_val==fnorm(0x7d7b1d83) and rs2_val==fmaxnorm(0xff7fffff) | Intermediate result significand: 00011011110101111100100  Pattern: XXXXXXXXXXXXXXXXXXXX100
    'fs1 == 0 and fe1 == 0xfc and fm1 == 0x2bcff9 and fs2 == 0 and fe2 == 0xfe and fm2 == 0x7fffff and rm_val == 0  #nosat': 1 #  rs1_val==fnorm(0x7e2bcff9) and rs2_val==fmaxnorm(0x7f7fffff) | Intermediate result significand: 11001011110100111111100  Pattern: XXXXXXXXXXXXXXXXXXXX100
    'fs1 == 0 and fe1 == 0xfd and fm1 == 0x5b2e1a and fs2 == 0 and fe2 == 0xfe and fm2 == 0x7fffff and rm_val == 0  #nosat': 1 #  rs1_val==fnorm(0x7edb2e1a) and rs2_val==fmaxnorm(0x7f7fffff) | Intermediate result significand: 01100010111101010111000  Pattern: XXXXXXXXXXXXXXXXXXX1000
    'fs1 == 0 and fe1 == 0xfd and fm1 == 0x112ace and fs2 == 0 and fe2 == 0xfe and fm2 == 0x7fffff and rm_val == 0  #nosat': 1 #  rs1_val==fnorm(0x7e912ace) and rs2_val==fmaxnorm(0x7f7fffff) | Intermediate result significand: 00011101001110111001000  Pattern: XXXXXXXXXXXXXXXXXXX1000
    'fs1 == 0 and fe1 == 0xfe and fm1 == 0x16201f and fs2 == 0 and fe2 == 0xfd and fm2 == 0x631e55 and rm_val == 0  #nosat': 1 #  rs1_val==fnorm(0x7f16201f) and rs2_val==fnorm(0x7ee31e55) | Intermediate result significand: 01010010011011101011000  Pattern: XXXXXXXXXXXXXXXXXXX1000
    'fs1 == 0 and fe1 == 0xfd and fm1 == 0x6c3b3e and fs2 == 1 and fe2 == 0xfe and fm2 == 0x7fffff and rm_val == 0  #nosat': 1 #  rs1_val==fnorm(0x7eec3b3e) and rs2_val==fmaxnorm(0xff7fffff) | Intermediate result significand: 01001011011000111111000  Pattern: XXXXXXXXXXXXXXXXXXX1000
    'fs1 == 0 and fe1 == 0xfd and fm1 == 0x02e795 and fs2 == 1 and fe2 == 0xd6 and fm2 == 0x4dad56 and rm_val == 0  #nosat': 1 #  rs1_val==fnorm(0x7e82e795) and rs2_val==fnorm(0xeb4dad56) | Intermediate result significand: 01000101110111011011000  Pattern: XXXXXXXXXXXXXXXXXXX1000
    'fs1 == 0 and fe1 == 0xfe and fm1 == 0x1f12b9 and fs2 == 1 and fe2 == 0xfe and fm2 == 0x7fffff and rm_val == 0  #nosat': 1 #  rs1_val==fnorm(0x7f1f12b9) and rs2_val==fmaxnorm(0xff7fffff) | Intermediate result significand: 11110011101100110110000  Pattern: XXXXXXXXXXXXXXXXXX10000
    'fs1 == 0 and fe1 == 0xfe and fm1 == 0x17517f and fs2 == 1 and fe2 == 0xfe and fm2 == 0x7fffff and rm_val == 0  #nosat': 1 #  rs1_val==fnorm(0x7f17517f) and rs2_val==fmaxnorm(0xff7fffff) | Intermediate result significand: 00101000110111010010000  Pattern: XXXXXXXXXXXXXXXXXX10000
    'fs1 == 0 and fe1 == 0xfe and fm1 == 0x264de7 and fs2 == 0 and fe2 == 0xfe and fm2 == 0x7fffff and rm_val == 0  #nosat': 1 #  rs1_val==fnorm(0x7f264de7) and rs2_val==fmaxnorm(0x7f7fffff) | Intermediate result significand: 01001010010100000010000  Pattern: XXXXXXXXXXXXXXXXXX10000
    'fs1 == 0 and fe1 == 0xfa and fm1 == 0x60d9a4 and fs2 == 0 and fe2 == 0xfe and fm2 == 0x7fffff and rm_val == 0  #nosat': 1 #  rs1_val==fnorm(0x7d60d9a4) and rs2_val==fmaxnorm(0x7f7fffff) | Intermediate result significand: 10011111111100110010000  Pattern: XXXXXXXXXXXXXXXXXX10000
    'fs1 == 0 and fe1 == 0xf9 and fm1 == 0x70766e and fs2 == 1 and fe2 == 0xfe and fm2 == 0x7fffff and rm_val == 0  #nosat': 1 #  rs1_val==fnorm(0x7cf0766e) and rs2_val==fmaxnorm(0xff7fffff) | Intermediate result significand: 01000100110001011010000  Pattern: XXXXXXXXXXXXXXXXXX10000
    'fs1 == 0 and fe1 == 0xfb and fm1 == 0x202a98 and fs2 == 0 and fe2 == 0xfe and fm2 == 0x7fffff and rm_val == 0  #nosat': 1 #  rs1_val==fnorm(0x7da02a98) and rs2_val==fmaxnorm(0x7f7fffff) | Intermediate result significand: 11000001011011100100000  Pattern: XXXXXXXXXXXXXXXXX100000
    'fs1 == 0 and fe1 == 0xfd and fm1 == 0x53a642 and fs2 == 1 and fe2 == 0xfe and fm2 == 0x7fffff and rm_val == 0  #nosat': 1 #  rs1_val==fnorm(0x7ed3a642) and rs2_val==fmaxnorm(0xff7fffff) | Intermediate result significand: 01110011111101111100000  Pattern: XXXXXXXXXXXXXXXXX100000
    'fs1 == 0 and fe1 == 0xfb and fm1 == 0x4fe433 and fs2 == 0 and fe2 == 0x9c and fm2 == 0x3feae5 and rm_val == 0  #nosat': 1 #  rs1_val==fnorm(0x7dcfe433) and rs2_val==fnorm(0x4e3feae5) | Intermediate result significand: 00010101010011101100000  Pattern: XXXXXXXXXXXXXXXXX100000
    'fs1 == 0 and fe1 == 0xfe and fm1 == 0x2a5ada and fs2 == 0 and fe2 == 0xd0 and fm2 == 0x2f4d13 and rm_val == 0  #nosat': 1 #  rs1_val==fnorm(0x7f2a5ada) and rs2_val==fnorm(0x682f4d13) | Intermediate result significand: 11110001100011011100000  Pattern: XXXXXXXXXXXXXXXXX100000
    'fs1 == 0 and fe1 == 0xfe and fm1 == 0x373a1e and fs2 == 1 and fe2 == 0xfe and fm2 == 0x7fffff and rm_val == 0  #nosat': 1 #  rs1_val==fnorm(0x7f373a1e) and rs2_val==fmaxnorm(0xff7fffff) | Intermediate result significand: 01000001010110101100000  Pattern: XXXXXXXXXXXXXXXXX100000
    'fs1 == 0 and fe1 == 0xfd and fm1 == 0x67ede5 and fs2 == 1 and fe2 == 0xaa and fm2 == 0x7a8f9b and rm_val == 0  #nosat': 1 #  rs1_val==fnorm(0x7ee7ede5) and rs2_val==fnorm(0xd57a8f9b) | Intermediate result significand: 11011001111011011000000  Pattern: XXXXXXXXXXXXXXXX1000000
    'fs1 == 0 and fe1 == 0xfe and fm1 == 0x268b6a and fs2 == 1 and fe2 == 0xef and fm2 == 0x3935cd and rm_val == 0  #nosat': 1 #  rs1_val==fnorm(0x7f268b6a) and rs2_val==fnorm(0xf7b935cd) | Intermediate result significand: 11001100011001101000000  Pattern: XXXXXXXXXXXXXXXX1000000
    'fs1 == 0 and fe1 == 0xfc and fm1 == 0x5fa740 and fs2 == 0 and fe2 == 0x9f and fm2 == 0x3d6968 and rm_val == 0  #nosat': 1 #  rs1_val==fnorm(0x7e5fa740) and rs2_val==fnorm(0x4fbd6968) | Intermediate result significand: 00101110010001111000000  Pattern: XXXXXXXXXXXXXXXX1000000
    'fs1 == 0 and fe1 == 0xfd and fm1 == 0x02ab65 and fs2 == 1 and fe2 == 0xef and fm2 == 0x5dffc1 and rm_val == 0  #nosat': 1 #  rs1_val==fnorm(0x7e82ab65) and rs2_val==fnorm(0xf7ddffc1) | Intermediate result significand: 00101101010111011000000  Pattern: XXXXXXXXXXXXXXXX1000000
    'fs1 == 0 and fe1 == 0xfd and fm1 == 0x0d5a7c and fs2 == 1 and fe2 == 0xfe and fm2 == 0x7fffff and rm_val == 0  #nosat': 1 #  rs1_val==fnorm(0x7e8d5a7c) and rs2_val==fmaxnorm(0xff7fffff) | Intermediate result significand: 11001101111110001000000  Pattern: XXXXXXXXXXXXXXXX1000000
    'fs1 == 0 and fe1 == 0xfe and fm1 == 0x217f53 and fs2 == 0 and fe2 == 0xe3 and fm2 == 0x5d82bd and rm_val == 0  #nosat': 1 #  rs1_val==fnorm(0x7f217f53) and rs2_val==fnorm(0x71dd82bd) | Intermediate result significand: 01110101010010010000000  Pattern: XXXXXXXXXXXXXXX10000000
    'fs1 == 0 and fe1 == 0xfd and fm1 == 0x667aed and fs2 == 0 and fe2 == 0xe0 and fm2 == 0x0103f8 and rm_val == 0  #nosat': 1 #  rs1_val==fnorm(0x7ee67aed) and rs2_val==fnorm(0x700103f8) | Intermediate result significand: 11001001010101010000000  Pattern: XXXXXXXXXXXXXXX10000000
    'fs1 == 0 and fe1 == 0xfe and fm1 == 0x11c013 and fs2 == 1 and fe2 == 0xf2 and fm2 == 0x3d7983 and rm_val == 0  #nosat': 1 #  rs1_val==fnorm(0x7f11c013) and rs2_val==fnorm(0xf93d7983) | Intermediate result significand: 10001001110110010000000  Pattern: XXXXXXXXXXXXXXX10000000
    'fs1 == 0 and fe1 == 0xfc and fm1 == 0x238f3f and fs2 == 0 and fe2 == 0xfe and fm2 == 0x7fffff and rm_val == 0  #nosat': 1 #  rs1_val==fnorm(0x7e238f3f) and rs2_val==fmaxnorm(0x7f7fffff) | Intermediate result significand: 01101010000101110000000  Pattern: XXXXXXXXXXXXXXX10000000
    'fs1 == 0 and fe1 == 0xfe and fm1 == 0x2ee8de and fs2 == 0 and fe2 == 0xac and fm2 == 0x6b9400 and rm_val == 0  #nosat': 1 #  rs1_val==fnorm(0x7f2ee8de) and rs2_val==fnorm(0x566b9400) | Intermediate result significand: 01111100001001010000000  Pattern: XXXXXXXXXXXXXXX10000000
    'fs1 == 0 and fe1 == 0xfc and fm1 == 0x025339 and fs2 == 0 and fe2 == 0xf9 and fm2 == 0x064930 and rm_val == 0  #nosat': 1 #  rs1_val==fnorm(0x7e025339) and rs2_val==fnorm(0x7c864930) | Intermediate result significand: 11110000111001100000000  Pattern: XXXXXXXXXXXXXX100000000
    'fs1 == 0 and fe1 == 0xfb and fm1 == 0x02119e and fs2 == 0 and fe2 == 0xec and fm2 == 0x25b1fa and rm_val == 0  #nosat': 1 #  rs1_val==fnorm(0x7d82119e) and rs2_val==fnorm(0x7625b1fa) | Intermediate result significand: 10010001111010100000000  Pattern: XXXXXXXXXXXXXX100000000
    'fs1 == 0 and fe1 == 0xfe and fm1 == 0x0b4a10 and fs2 == 0 and fe2 == 0x9e and fm2 == 0x3c1678 and rm_val == 0  #nosat': 1 #  rs1_val==fnorm(0x7f0b4a10) and rs2_val==fnorm(0x4f3c1678) | Intermediate result significand: 01111011001010100000000  Pattern: XXXXXXXXXXXXXX100000000
    'fs1 == 0 and fe1 == 0xfc and fm1 == 0x34342f and fs2 == 0 and fe2 == 0x87 and fm2 == 0x7cb837 and rm_val == 0  #nosat': 1 #  rs1_val==fnorm(0x7e34342f) and rs2_val==fnorm(0x43fcb837) | Intermediate result significand: 01101101000101100000000  Pattern: XXXXXXXXXXXXXX100000000
    'fs1 == 0 and fe1 == 0xfe and fm1 == 0x3d37b2 and fs2 == 0 and fe2 == 0xed and fm2 == 0x54eb08 and rm_val == 0  #nosat': 1 #  rs1_val==fnorm(0x7f3d37b2) and rs2_val==fnorm(0x76d4eb08) | Intermediate result significand: 11000111000000100000000  Pattern: XXXXXXXXXXXXXX100000000
    'fs1 == 0 and fe1 == 0xfd and fm1 == 0x3a0c29 and fs2 == 1 and fe2 == 0xfe and fm2 == 0x7fffff and rm_val == 0  #nosat': 1 #  rs1_val==fnorm(0x7eba0c29) and rs2_val==fmaxnorm(0xff7fffff) | Intermediate result significand: 11001111001001000000000  Pattern: XXXXXXXXXXXXX1000000000
    'fs1 == 0 and fe1 == 0xfe and fm1 == 0x03ecd6 and fs2 == 1 and fe2 == 0xbf and fm2 == 0x081dd1 and rm_val == 0  #nosat': 1 #  rs1_val==fnorm(0x7f03ecd6) and rs2_val==fnorm(0xdf881dd1) | Intermediate result significand: 11110000001111000000000  Pattern: XXXXXXXXXXXXX1000000000
    'fs1 == 0 and fe1 == 0xfe and fm1 == 0x296b63 and fs2 == 1 and fe2 == 0x88 and fm2 == 0x3a1fe4 and rm_val == 0  #nosat': 1 #  rs1_val==fnorm(0x7f296b63) and rs2_val==fnorm(0xc43a1fe4) | Intermediate result significand: 11010010000011000000000  Pattern: XXXXXXXXXXXXX1000000000
    'fs1 == 0 and fe1 == 0xfd and fm1 == 0x0409cf and fs2 == 1 and fe2 == 0xb3 and fm2 == 0x3ed825 and rm_val == 0  #nosat': 1 #  rs1_val==fnorm(0x7e8409cf) and rs2_val==fnorm(0xd9bed825) | Intermediate result significand: 01100010001111000000000  Pattern: XXXXXXXXXXXXX1000000000
    'fs1 == 0 and fe1 == 0xfe and fm1 == 0x32fae0 and fs2 == 0 and fe2 == 0xc2 and fm2 == 0x36e76b and rm_val == 0  #nosat': 1 #  rs1_val==fnorm(0x7f32fae0) and rs2_val==fnorm(0x6136e76b) | Intermediate result significand: 11110101000001000000000  Pattern: XXXXXXXXXXXXX1000000000
    'fs1 == 0 and fe1 == 0xfe and fm1 == 0x20d6ae and fs2 == 1 and fe2 == 0xf0 and fm2 == 0x41dcec and rm_val == 0  #nosat': 1 #  rs1_val==fnorm(0x7f20d6ae) and rs2_val==fnorm(0xf841dcec) | Intermediate result significand: 10101000110010000000000  Pattern: XXXXXXXXXXXX10000000000
    'fs1 == 0 and fe1 == 0xfe and fm1 == 0x017ed0 and fs2 == 0 and fe2 == 0x94 and fm2 == 0x317fe2 and rm_val == 0  #nosat': 1 #  rs1_val==fnorm(0x7f017ed0) and rs2_val==fnorm(0x4a317fe2) | Intermediate result significand: 01110101100010000000000  Pattern: XXXXXXXXXXXX10000000000
    'fs1 == 0 and fe1 == 0xfc and fm1 == 0x239b5c and fs2 == 0 and fe2 == 0xe7 and fm2 == 0x311bbd and rm_val == 0  #nosat': 1 #  rs1_val==fnorm(0x7e239b5c) and rs2_val==fnorm(0x73b11bbd) | Intermediate result significand: 11011000111110000000000  Pattern: XXXXXXXXXXXX10000000000
    'fs1 == 0 and fe1 == 0xfd and fm1 == 0x023675 and fs2 == 1 and fe2 == 0xfe and fm2 == 0x7fffff and rm_val == 0  #nosat': 1 #  rs1_val==fnorm(0x7e823675) and rs2_val==fmaxnorm(0xff7fffff) | Intermediate result significand: 10000011100010000000000  Pattern: XXXXXXXXXXXX10000000000
    'fs1 == 0 and fe1 == 0xfe and fm1 == 0x164749 and fs2 == 0 and fe2 == 0xfe and fm2 == 0x7fffff and rm_val == 0  #nosat': 1 #  rs1_val==fnorm(0x7f164749) and rs2_val==fmaxnorm(0x7f7fffff) | Intermediate result significand: 10001100010110000000000  Pattern: XXXXXXXXXXXX10000000000
    'fs1 == 0 and fe1 == 0xfe and fm1 == 0x3d8377 and fs2 == 1 and fe2 == 0x91 and fm2 == 0x76277d and rm_val == 0  #nosat': 1 #  rs1_val==fnorm(0x7f3d8377) and rs2_val==fnorm(0xc8f6277d) | Intermediate result significand: 10001010001100000000000  Pattern: XXXXXXXXXXX100000000000
    'fs1 == 0 and fe1 == 0xfc and fm1 == 0x7bb471 and fs2 == 0 and fe2 == 0xb6 and fm2 == 0x789bff and rm_val == 0  #nosat': 1 #  rs1_val==fnorm(0x7e7bb471) and rs2_val==fnorm(0x5b789bff) | Intermediate result significand: 00000011001100000000000  Pattern: XXXXXXXXXXX100000000000
    'fs1 == 0 and fe1 == 0xfc and fm1 == 0x1a414e and fs2 == 1 and fe2 == 0xfe and fm2 == 0x7fffff and rm_val == 0  #nosat': 1 #  rs1_val==fnorm(0x7e1a414e) and rs2_val==fmaxnorm(0xff7fffff) | Intermediate result significand: 10000000100100000000000  Pattern: XXXXXXXXXXX100000000000
    'fs1 == 0 and fe1 == 0xf8 and fm1 == 0x5e539a and fs2 == 0 and fe2 == 0xfe and fm2 == 0x7fffff and rm_val == 0  #nosat': 1 #  rs1_val==fnorm(0x7c5e539a) and rs2_val==fmaxnorm(0x7f7fffff) | Intermediate result significand: 10100101101100000000000  Pattern: XXXXXXXXXXX100000000000
    'fs1 == 0 and fe1 == 0xfe and fm1 == 0x2cbcfc and fs2 == 0 and fe2 == 0xe8 and fm2 == 0x58de83 and rm_val == 0  #nosat': 1 #  rs1_val==fnorm(0x7f2cbcfc) and rs2_val==fnorm(0x7458de83) | Intermediate result significand: 10010111110100000000000  Pattern: XXXXXXXXXXX100000000000
    'fs1 == 0 and fe1 == 0xfe and fm1 == 0x2759f0 and fs2 == 1 and fe2 == 0x81 and fm2 == 0x351a1b and rm_val == 0  #nosat': 1 #  rs1_val==fnorm(0x7f2759f0) and rs2_val==fnorm(0xc0b51a1b) | Intermediate result significand: 11011001001000000000000  Pattern: XXXXXXXXXX1000000000000
    'fs1 == 0 and fe1 == 0xfc and fm1 == 0x79dd8e and fs2 == 1 and fe2 == 0xfe and fm2 == 0x7fffff and rm_val == 0  #nosat': 1 #  rs1_val==fnorm(0x7e79dd8e) and rs2_val==fmaxnorm(0xff7fffff) | Intermediate result significand: 00001011001000000000000  Pattern: XXXXXXXXXX1000000000000
    'fs1 == 0 and fe1 == 0xfd and fm1 == 0x3fec54 and fs2 == 0 and fe2 == 0xfe and fm2 == 0x7fffff and rm_val == 0  #nosat': 1 #  rs1_val==fnorm(0x7ebfec54) and rs2_val==fmaxnorm(0x7f7fffff) | Intermediate result significand: 10111011101000000000000  Pattern: XXXXXXXXXX1000000000000
    'fs1 == 0 and fe1 == 0xfc and fm1 == 0x636240 and fs2 == 0 and fe2 == 0xfe and fm2 == 0x7fffff and rm_val == 0  #nosat': 1 #  rs1_val==fnorm(0x7e636240) and rs2_val==fmaxnorm(0x7f7fffff) | Intermediate result significand: 01100100101000000000000  Pattern: XXXXXXXXXX1000000000000
    'fs1 == 0 and fe1 == 0xfd and fm1 == 0x7fba49 and fs2 == 1 and fe2 == 0xf7 and fm2 == 0x5bc718 and rm_val == 0  #nosat': 1 #  rs1_val==fnorm(0x7effba49) and rs2_val==fnorm(0xfbdbc718) | Intermediate result significand: 00101001111000000000000  Pattern: XXXXXXXXXX1000000000000
    'fs1 == 0 and fe1 == 0xfb and fm1 == 0x206546 and fs2 == 1 and fe2 == 0xfe and fm2 == 0x7fffff and rm_val == 0  #nosat': 1 #  rs1_val==fnorm(0x7da06546) and rs2_val==fmaxnorm(0xff7fffff) | Intermediate result significand: 10000010010000000000000  Pattern: XXXXXXXXX10000000000000
    'fs1 == 0 and fe1 == 0xfc and fm1 == 0x151546 and fs2 == 1 and fe2 == 0xfe and fm2 == 0x7fffff and rm_val == 0  #nosat': 1 #  rs1_val==fnorm(0x7e151546) and rs2_val==fmaxnorm(0xff7fffff) | Intermediate result significand: 00010110010000000000000  Pattern: XXXXXXXXX10000000000000
    'fs1 == 0 and fe1 == 0xfd and fm1 == 0x2640ba and fs2 == 0 and fe2 == 0xbf and fm2 == 0x4688b4 and rm_val == 0  #nosat': 1 #  rs1_val==fnorm(0x7ea640ba) and rs2_val==fnorm(0x5fc688b4) | Intermediate result significand: 10101100110000000000000  Pattern: XXXXXXXXX10000000000000
    'fs1 == 0 and fe1 == 0xfe and fm1 == 0x016ff7 and fs2 == 1 and fe2 == 0xc9 and fm2 == 0x0990a3 and rm_val == 0  #nosat': 1 #  rs1_val==fnorm(0x7f016ff7) and rs2_val==fnorm(0xe48990a3) | Intermediate result significand: 11100001110000000000000  Pattern: XXXXXXXXX10000000000000
    'fs1 == 0 and fe1 == 0xfc and fm1 == 0x1e0667 and fs2 == 1 and fe2 == 0xfe and fm2 == 0x7fffff and rm_val == 0  #nosat': 1 #  rs1_val==fnorm(0x7e1e0667) and rs2_val==fmaxnorm(0xff7fffff) | Intermediate result significand: 00101100010000000000000  Pattern: XXXXXXXXX10000000000000
    'fs1 == 0 and fe1 == 0xfd and fm1 == 0x0538b1 and fs2 == 1 and fe2 == 0xfe and fm2 == 0x7fffff and rm_val == 0  #nosat': 1 #  rs1_val==fnorm(0x7e8538b1) and rs2_val==fmaxnorm(0xff7fffff) | Intermediate result significand: 01100111100000000000000  Pattern: XXXXXXXX100000000000000
    'fs1 == 0 and fe1 == 0xfd and fm1 == 0x1123d8 and fs2 == 1 and fe2 == 0xbd and fm2 == 0x695156 and rm_val == 0  #nosat': 1 #  rs1_val==fnorm(0x7e9123d8) and rs2_val==fnorm(0xdee95156) | Intermediate result significand: 00111110100000000000000  Pattern: XXXXXXXX100000000000000
    'fs1 == 0 and fe1 == 0xfd and fm1 == 0x436852 and fs2 == 0 and fe2 == 0xfe and fm2 == 0x7fffff and rm_val == 0  #nosat': 1 #  rs1_val==fnorm(0x7ec36852) and rs2_val==fmaxnorm(0x7f7fffff) | Intermediate result significand: 11011010100000000000000  Pattern: XXXXXXXX100000000000000
    'fs1 == 0 and fe1 == 0xfe and fm1 == 0x072c24 and fs2 == 1 and fe2 == 0xfe and fm2 == 0x7fffff and rm_val == 0  #nosat': 1 #  rs1_val==fnorm(0x7f072c24) and rs2_val==fmaxnorm(0xff7fffff) | Intermediate result significand: 10000001100000000000000  Pattern: XXXXXXXX100000000000000
    'fs1 == 0 and fe1 == 0xfe and fm1 == 0x3af6ff and fs2 == 1 and fe2 == 0xa4 and fm2 == 0x799c89 and rm_val == 0  #nosat': 1 #  rs1_val==fnorm(0x7f3af6ff) and rs2_val==fnorm(0xd2799c89) | Intermediate result significand: 01111111100000000000000  Pattern: XXXXXXXX100000000000000
    'fs1 == 0 and fe1 == 0xfe and fm1 == 0x269d2c and fs2 == 1 and fe2 == 0x83 and fm2 == 0x519910 and rm_val == 0  #nosat': 1 #  rs1_val==fnorm(0x7f269d2c) and rs2_val==fnorm(0xc1d19910) | Intermediate result significand: 10010111000000000000000  Pattern: XXXXXXX1000000000000000
    'fs1 == 0 and fe1 == 0xfc and fm1 == 0x03b9a1 and fs2 == 0 and fe2 == 0xfe and fm2 == 0x7fffff and rm_val == 0  #nosat': 1 #  rs1_val==fnorm(0x7e03b9a1) and rs2_val==fmaxnorm(0x7f7fffff) | Intermediate result significand: 00110001000000000000000  Pattern: XXXXXXX1000000000000000
    'fs1 == 0 and fe1 == 0xfd and fm1 == 0x5afcdb and fs2 == 1 and fe2 == 0x92 and fm2 == 0x6f10c4 and rm_val == 0  #nosat': 1 #  rs1_val==fnorm(0x7edafcdb) and rs2_val==fnorm(0xc96f10c4) | Intermediate result significand: 11010101000000000000000  Pattern: XXXXXXX1000000000000000
    'fs1 == 0 and fe1 == 0xfe and fm1 == 0x38be1b and fs2 == 1 and fe2 == 0xfe and fm2 == 0x7fffff and rm_val == 0  #nosat': 1 #  rs1_val==fnorm(0x7f38be1b) and rs2_val==fmaxnorm(0xff7fffff) | Intermediate result significand: 11110111000000000000000  Pattern: XXXXXXX1000000000000000
    'fs1 == 0 and fe1 == 0xfe and fm1 == 0x1d53d7 and fs2 == 1 and fe2 == 0xfc and fm2 == 0x377d30 and rm_val == 0  #nosat': 1 #  rs1_val==fnorm(0x7f1d53d7) and rs2_val==fnorm(0xfe377d30) | Intermediate result significand: 10110111000000000000000  Pattern: XXXXXXX1000000000000000
    'fs1 == 0 and fe1 == 0xf9 and fm1 == 0x68f58b and fs2 == 1 and fe2 == 0xbf and fm2 == 0x756c07 and rm_val == 0  #nosat': 1 #  rs1_val==fnorm(0x7ce8f58b) and rs2_val==fnorm(0xdff56c07) | Intermediate result significand: 11100110000000000000000  Pattern: XXXXXX10000000000000000
    'fs1 == 0 and fe1 == 0xfe and fm1 == 0x28b6bd and fs2 == 0 and fe2 == 0xbf and fm2 == 0x17043e and rm_val == 0  #nosat': 1 #  rs1_val==fnorm(0x7f28b6bd) and rs2_val==fnorm(0x5f97043e) | Intermediate result significand: 00011110000000000000000  Pattern: XXXXXX10000000000000000
    'fs1 == 0 and fe1 == 0xf7 and fm1 == 0x506932 and fs2 == 0 and fe2 == 0x99 and fm2 == 0x716acc and rm_val == 0  #nosat': 1 #  rs1_val==fnorm(0x7bd06932) and rs2_val==fnorm(0x4cf16acc) | Intermediate result significand: 10111010000000000000000  Pattern: XXXXXX10000000000000000
    'fs1 == 0 and fe1 == 0xfc and fm1 == 0x41cf9e and fs2 == 1 and fe2 == 0xda and fm2 == 0x244a46 and rm_val == 0  #nosat': 1 #  rs1_val==fnorm(0x7e41cf9e) and rs2_val==fnorm(0xed244a46) | Intermediate result significand: 00101110000000000000000  Pattern: XXXXXX10000000000000000
    'fs1 == 0 and fe1 == 0xfd and fm1 == 0x1fcf65 and fs2 == 0 and fe2 == 0xd7 and fm2 == 0x25a218 and rm_val == 0  #nosat': 1 #  rs1_val==fnorm(0x7e9fcf65) and rs2_val==fnorm(0x6ba5a218) | Intermediate result significand: 11101110000000000000000  Pattern: XXXXXX10000000000000000
    'fs1 == 0 and fe1 == 0xfe and fm1 == 0x0ed153 and fs2 == 1 and fe2 == 0x92 and fm2 == 0x1c3eb7 and rm_val == 0  #nosat': 1 #  rs1_val==fnorm(0x7f0ed153) and rs2_val==fnorm(0xc91c3eb7) | Intermediate result significand: 11010100000000000000000  Pattern: XXXXX100000000000000000
    'fs1 == 0 and fe1 == 0xfe and fm1 == 0x3457e7 and fs2 == 0 and fe2 == 0xfe and fm2 == 0x7fffff and rm_val == 0  #nosat': 1 #  rs1_val==fnorm(0x7f3457e7) and rs2_val==fmaxnorm(0x7f7fffff) | Intermediate result significand: 11101100000000000000000  Pattern: XXXXX100000000000000000
    'fs1 == 0 and fe1 == 0xfc and fm1 == 0x6e5bf8 and fs2 == 0 and fe2 == 0x88 and fm2 == 0x24083c and rm_val == 0  #nosat': 1 #  rs1_val==fnorm(0x7e6e5bf8) and rs2_val==fnorm(0x4424083c) | Intermediate result significand: 01110100000000000000000  Pattern: XXXXX100000000000000000
    'fs1 == 0 and fe1 == 0xfe and fm1 == 0x24d5b2 and fs2 == 1 and fe2 == 0xfe and fm2 == 0x7fffff and rm_val == 0  #nosat': 1 #  rs1_val==fnorm(0x7f24d5b2) and rs2_val==fmaxnorm(0xff7fffff) | Intermediate result significand: 10101100000000000000000  Pattern: XXXXX100000000000000000
    'fs1 == 0 and fe1 == 0xfc and fm1 == 0x6b4e0e and fs2 == 0 and fe2 == 0xfe and fm2 == 0x7fffff and rm_val == 0  #nosat': 1 #  rs1_val==fnorm(0x7e6b4e0e) and rs2_val==fmaxnorm(0x7f7fffff) | Intermediate result significand: 00111100000000000000000  Pattern: XXXXX100000000000000000
    'fs1 == 0 and fe1 == 0xfe and fm1 == 0x281a41 and fs2 == 1 and fe2 == 0xfe and fm2 == 0x2ac557 and rm_val == 0  #nosat': 1 #  rs1_val==fnorm(0x7f281a41) and rs2_val==fnorm(0xff2ac557) | Intermediate result significand: 11111000000000000000000  Pattern: XXXX1000000000000000000
    'fs1 == 0 and fe1 == 0xfe and fm1 == 0x39d661 and fs2 == 0 and fe2 == 0xba and fm2 == 0x187b63 and rm_val == 0  #nosat': 1 #  rs1_val==fnorm(0x7f39d661) and rs2_val==fnorm(0x5d187b63) | Intermediate result significand: 00111000000000000000000  Pattern: XXXX1000000000000000000
    'fs1 == 0 and fe1 == 0xfc and fm1 == 0x655450 and fs2 == 1 and fe2 == 0xfe and fm2 == 0x7fffff and rm_val == 0  #nosat': 1 #  rs1_val==fnorm(0x7e655450) and rs2_val==fmaxnorm(0xff7fffff) | Intermediate result significand: 10111000000000000000000  Pattern: XXXX1000000000000000000
    'fs1 == 0 and fe1 == 0xfa and fm1 == 0x34967e and fs2 == 0 and fe2 == 0x81 and fm2 == 0x142cb6 and rm_val == 0  #nosat': 1 #  rs1_val==fnorm(0x7d34967e) and rs2_val==fnorm(0x40942cb6) | Intermediate result significand: 00111000000000000000000  Pattern: XXXX1000000000000000000
    'fs1 == 0 and fe1 == 0xfd and fm1 == 0x7248b2 and fs2 == 1 and fe2 == 0xfe and fm2 == 0x7fffff and rm_val == 0  #nosat': 1 #  rs1_val==fnorm(0x7ef248b2) and rs2_val==fmaxnorm(0xff7fffff) | Intermediate result significand: 11101000000000000000000  Pattern: XXXX1000000000000000000
    'fs1 == 0 and fe1 == 0xfc and fm1 == 0x76b77e and fs2 == 1 and fe2 == 0xfe and fm2 == 0x7fffff and rm_val == 0  #nosat': 1 #  rs1_val==fnorm(0x7e76b77e) and rs2_val==fmaxnorm(0xff7fffff) | Intermediate result significand: 10010000000000000000000  Pattern: XXX10000000000000000000
    'fs1 == 0 and fe1 == 0xfd and fm1 == 0x5d1ff5 and fs2 == 1 and fe2 == 0xfe and fm2 == 0x7fffff and rm_val == 0  #nosat': 1 #  rs1_val==fnorm(0x7edd1ff5) and rs2_val==fmaxnorm(0xff7fffff) | Intermediate result significand: 00010000000000000000000  Pattern: XXX10000000000000000000
    'fs1 == 0 and fe1 == 0xfd and fm1 == 0x17a40d and fs2 == 0 and fe2 == 0xfe and fm2 == 0x7fffff and rm_val == 0  #nosat': 1 #  rs1_val==fnorm(0x7e97a40d) and rs2_val==fmaxnorm(0x7f7fffff) | Intermediate result significand: 11110000000000000000000  Pattern: XXX10000000000000000000
    'fs1 == 0 and fe1 == 0xfd and fm1 == 0x7906c5 and fs2 == 0 and fe2 == 0x8b and fm2 == 0x1f607e and rm_val == 0  #nosat': 1 #  rs1_val==fnorm(0x7ef906c5) and rs2_val==fnorm(0x459f607e) | Intermediate result significand: 10010000000000000000000  Pattern: XXX10000000000000000000
    'fs1 == 0 and fe1 == 0xfc and fm1 == 0x2b6a13 and fs2 == 0 and fe2 == 0xad and fm2 == 0x4b2862 and rm_val == 0  #nosat': 1 #  rs1_val==fnorm(0x7e2b6a13) and rs2_val==fnorm(0x56cb2862) | Intermediate result significand: 10110000000000000000000  Pattern: XXX10000000000000000000
    'fs1 == 0 and fe1 == 0xfd and fm1 == 0x465fcc and fs2 == 0 and fe2 == 0xfe and fm2 == 0x7fffff and rm_val == 0  #nosat': 1 #  rs1_val==fnorm(0x7ec65fcc) and rs2_val==fmaxnorm(0x7f7fffff) | Intermediate result significand: 10100000000000000000000  Pattern: XX100000000000000000000
    'fs1 == 0 and fe1 == 0xfe and fm1 == 0x192dff and fs2 == 0 and fe2 == 0xb8 and fm2 == 0x236443 and rm_val == 0  #nosat': 1 #  rs1_val==fnorm(0x7f192dff) and rs2_val==fnorm(0x5c236443) | Intermediate result significand: 11100000000000000000000  Pattern: XX100000000000000000000
    'fs1 == 0 and fe1 == 0xfe and fm1 == 0x3b506b and fs2 == 1 and fe2 == 0xfe and fm2 == 0x7fffff and rm_val == 0  #nosat': 1 #  rs1_val==fnorm(0x7f3b506b) and rs2_val==fmaxnorm(0xff7fffff) | Intermediate result significand: 01100000000000000000000  Pattern: XX100000000000000000000
    'fs1 == 0 and fe1 == 0xfc and fm1 == 0x296bac and fs2 == 1 and fe2 == 0x97 and fm2 == 0x169899 and rm_val == 0  #nosat': 1 #  rs1_val==fnorm(0x7e296bac) and rs2_val==fnorm(0xcb969899) | Intermediate result significand: 00100000000000000000000  Pattern: XX100000000000000000000
    'fs1 == 0 and fe1 == 0xfd and fm1 == 0x512a66 and fs2 == 0 and fe2 == 0xfe and fm2 == 0x7fffff and rm_val == 0  #nosat': 1 #  rs1_val==fnorm(0x7ed12a66) and rs2_val==fmaxnorm(0x7f7fffff) | Intermediate result significand: 00100000000000000000000  Pattern: XX100000000000000000000
    'fs1 == 0 and fe1 == 0xfe and fm1 == 0x0235b2 and fs2 == 1 and fe2 == 0xfe and fm2 == 0x7fffff and rm_val == 0  #nosat': 1 #  rs1_val==fnorm(0x7f0235b2) and rs2_val==fmaxnorm(0xff7fffff) | Intermediate result significand: 11000000000000000000000  Pattern: X1000000000000000000000
    'fs1 == 0 and fe1 == 0xfe and fm1 == 0x0748c6 and fs2 == 0 and fe2 == 0xfe and fm2 == 0x7fffff and rm_val == 0  #nosat': 1 #  rs1_val==fnorm(0x7f0748c6) and rs2_val==fmaxnorm(0x7f7fffff) | Intermediate result significand: 11000000000000000000000  Pattern: X1000000000000000000000
    'fs1 == 0 and fe1 == 0xfb and fm1 == 0x761c0c and fs2 == 0 and fe2 == 0xfe and fm2 == 0x7fffff and rm_val == 0  #nosat': 1 #  rs1_val==fnorm(0x7df61c0c) and rs2_val==fmaxnorm(0x7f7fffff) | Intermediate result significand: 01000000000000000000000  Pattern: X1000000000000000000000
    'fs1 == 0 and fe1 == 0xfe and fm1 == 0x0a0433 and fs2 == 0 and fe2 == 0xb9 and fm2 == 0x1dbba8 and rm_val == 0  #nosat': 1 #  rs1_val==fnorm(0x7f0a0433) and rs2_val==fnorm(0x5c9dbba8) | Intermediate result significand: 11000000000000000000000  Pattern: X1000000000000000000000
    coverage: 102/102
  total_coverage: 204/204
