---
fnmadd_b14:
  config:
  - check ISA:=regex(.*I.*Zfinx.*)
  mnemonics:
    fnmadd.s: 88
    coverage: 1/1
  op_comb:
    rd == rs2 == rs3 != rs1: 1
    rs1 != rs2 and rs1 != rd and rs1 != rs3 and rs2 != rs3 and rs2 != rd and rs3 != rd: 77
    rs1 == rd != rs2 and rs1 == rd != rs3 and rs3 != rs2: 1
    rs1 == rd == rs3 != rs2: 1
    rs1 == rs2 != rs3 and rs1 == rs2 != rd and rd != rs3: 1
    rs1 == rs2 == rd != rs3: 1
    rs1 == rs2 == rs3 != rd: 1
    rs1 == rs2 == rs3 == rd: 1
    rs1 == rs3 != rs2 and rs1 == rs3 != rd and rd != rs2: 1
    rs2 == rd != rs1 and rs2 == rd != rs3 and rs3 != rs1: 1
    rs2 == rs3 != rs1 and rs2 == rs3 != rd and rd != rs1: 1
    rs3 == rd != rs1 and rs3 == rd != rs2 and rs2 != rs1: 1
    coverage: 12/12
  rd:
    x0: 1
    x1: 1
    x10: 1
    x11: 1
    x12: 1
    x13: 1
    x14: 1
    x15: 1
    x16: 1
    x17: 1
    x18: 1
    x19: 1
    x2: 1
    x20: 1
    x21: 1
    x22: 1
    x23: 1
    x24: 1
    x25: 1
    x26: 1
    x27: 1
    x28: 1
    x29: 1
    x3: 1
    x30: 1
    x31: 57
    x4: 1
    x5: 1
    x6: 1
    x7: 1
    x8: 1
    x9: 1
    coverage: 32/32
  rs1:
    x0: 1
    x1: 1
    x10: 1
    x11: 1
    x12: 1
    x13: 1
    x14: 1
    x15: 1
    x16: 1
    x17: 1
    x18: 1
    x19: 1
    x2: 1
    x20: 1
    x21: 1
    x22: 1
    x23: 1
    x24: 1
    x25: 1
    x26: 1
    x27: 1
    x28: 1
    x29: 1
    x3: 1
    x30: 55
    x31: 3
    x4: 1
    x5: 1
    x6: 1
    x7: 1
    x8: 1
    x9: 1
    coverage: 32/32
  rs2:
    x0: 1
    x1: 1
    x10: 1
    x11: 1
    x12: 1
    x13: 1
    x14: 1
    x15: 1
    x16: 1
    x17: 1
    x18: 1
    x19: 1
    x2: 1
    x20: 1
    x21: 1
    x22: 1
    x23: 1
    x24: 1
    x25: 1
    x26: 1
    x27: 1
    x28: 1
    x29: 53
    x3: 1
    x30: 5
    x31: 1
    x4: 1
    x5: 1
    x6: 1
    x7: 1
    x8: 1
    x9: 1
    coverage: 32/32
  rs3:
    x0: 1
    x1: 1
    x10: 1
    x11: 1
    x12: 1
    x13: 1
    x14: 1
    x15: 1
    x16: 1
    x17: 1
    x18: 1
    x19: 1
    x2: 1
    x20: 1
    x21: 1
    x22: 1
    x23: 1
    x24: 1
    x25: 1
    x26: 1
    x27: 1
    x28: 51
    x29: 7
    x3: 1
    x30: 1
    x31: 1
    x4: 1
    x5: 1
    x6: 1
    x7: 1
    x8: 1
    x9: 1
    coverage: 32/32
  val_comb:
    ? 'fs1 == 0 and fe1 == 0xfe and fm1 == 0x378efe and fs2 == 0 and fe2 == 0xfe and
      fm2 == 0x35fb9d and fs3 == 0 and fe3 == 0x0a and fm3 == 0x38bca8 and  fcsr ==
      0x0 and rm_val == 7   #nosat'
    : 2
    ? 'fs1 == 0 and fe1 == 0xfe and fm1 == 0x378efe and fs2 == 0 and fe2 == 0xfe and
      fm2 == 0x35fb9d and fs3 == 0 and fe3 == 0x66 and fm3 == 0x38bca8 and  fcsr ==
      0x0 and rm_val == 7   #nosat'
    : 1
    ? 'fs1 == 0 and fe1 == 0xfe and fm1 == 0x378efe and fs2 == 0 and fe2 == 0xfe and
      fm2 == 0x35fb9d and fs3 == 0 and fe3 == 0x67 and fm3 == 0x38bca8 and  fcsr ==
      0x0 and rm_val == 7   #nosat'
    : 1
    ? 'fs1 == 0 and fe1 == 0xfe and fm1 == 0x378efe and fs2 == 0 and fe2 == 0xfe and
      fm2 == 0x35fb9d and fs3 == 0 and fe3 == 0x68 and fm3 == 0x38bca8 and  fcsr ==
      0x0 and rm_val == 7   #nosat'
    : 1
    ? 'fs1 == 0 and fe1 == 0xfe and fm1 == 0x378efe and fs2 == 0 and fe2 == 0xfe and
      fm2 == 0x35fb9d and fs3 == 0 and fe3 == 0x69 and fm3 == 0x38bca8 and  fcsr ==
      0x0 and rm_val == 7   #nosat'
    : 2
    ? 'fs1 == 0 and fe1 == 0xfe and fm1 == 0x378efe and fs2 == 0 and fe2 == 0xfe and
      fm2 == 0x35fb9d and fs3 == 0 and fe3 == 0x6a and fm3 == 0x38bca8 and  fcsr ==
      0x0 and rm_val == 7   #nosat'
    : 1
    ? 'fs1 == 0 and fe1 == 0xfe and fm1 == 0x378efe and fs2 == 0 and fe2 == 0xfe and
      fm2 == 0x35fb9d and fs3 == 0 and fe3 == 0x6b and fm3 == 0x38bca8 and  fcsr ==
      0x0 and rm_val == 7   #nosat'
    : 1
    ? 'fs1 == 0 and fe1 == 0xfe and fm1 == 0x378efe and fs2 == 0 and fe2 == 0xfe and
      fm2 == 0x35fb9d and fs3 == 0 and fe3 == 0x6c and fm3 == 0x38bca8 and  fcsr ==
      0x0 and rm_val == 7   #nosat'
    : 1
    ? 'fs1 == 0 and fe1 == 0xfe and fm1 == 0x378efe and fs2 == 0 and fe2 == 0xfe and
      fm2 == 0x35fb9d and fs3 == 0 and fe3 == 0x6d and fm3 == 0x38bca8 and  fcsr ==
      0x0 and rm_val == 7   #nosat'
    : 1
    ? 'fs1 == 0 and fe1 == 0xfe and fm1 == 0x378efe and fs2 == 0 and fe2 == 0xfe and
      fm2 == 0x35fb9d and fs3 == 0 and fe3 == 0x6e and fm3 == 0x38bca8 and  fcsr ==
      0x0 and rm_val == 7   #nosat'
    : 1
    ? 'fs1 == 0 and fe1 == 0xfe and fm1 == 0x378efe and fs2 == 0 and fe2 == 0xfe and
      fm2 == 0x35fb9d and fs3 == 0 and fe3 == 0x6f and fm3 == 0x38bca8 and  fcsr ==
      0x0 and rm_val == 7   #nosat'
    : 2
    ? 'fs1 == 0 and fe1 == 0xfe and fm1 == 0x378efe and fs2 == 0 and fe2 == 0xfe and
      fm2 == 0x35fb9d and fs3 == 0 and fe3 == 0x70 and fm3 == 0x38bca8 and  fcsr ==
      0x0 and rm_val == 7   #nosat'
    : 1
    ? 'fs1 == 0 and fe1 == 0xfe and fm1 == 0x378efe and fs2 == 0 and fe2 == 0xfe and
      fm2 == 0x35fb9d and fs3 == 0 and fe3 == 0x71 and fm3 == 0x38bca8 and  fcsr ==
      0x0 and rm_val == 7   #nosat'
    : 1
    ? 'fs1 == 0 and fe1 == 0xfe and fm1 == 0x378efe and fs2 == 0 and fe2 == 0xfe and
      fm2 == 0x35fb9d and fs3 == 0 and fe3 == 0x72 and fm3 == 0x38bca8 and  fcsr ==
      0x0 and rm_val == 7   #nosat'
    : 1
    ? 'fs1 == 0 and fe1 == 0xfe and fm1 == 0x378efe and fs2 == 0 and fe2 == 0xfe and
      fm2 == 0x35fb9d and fs3 == 0 and fe3 == 0x73 and fm3 == 0x38bca8 and  fcsr ==
      0x0 and rm_val == 7   #nosat'
    : 1
    ? 'fs1 == 0 and fe1 == 0xfe and fm1 == 0x378efe and fs2 == 0 and fe2 == 0xfe and
      fm2 == 0x35fb9d and fs3 == 0 and fe3 == 0x74 and fm3 == 0x38bca8 and  fcsr ==
      0x0 and rm_val == 7   #nosat'
    : 1
    ? 'fs1 == 0 and fe1 == 0xfe and fm1 == 0x378efe and fs2 == 0 and fe2 == 0xfe and
      fm2 == 0x35fb9d and fs3 == 0 and fe3 == 0x75 and fm3 == 0x38bca8 and  fcsr ==
      0x0 and rm_val == 7   #nosat'
    : 1
    ? 'fs1 == 0 and fe1 == 0xfe and fm1 == 0x378efe and fs2 == 0 and fe2 == 0xfe and
      fm2 == 0x35fb9d and fs3 == 0 and fe3 == 0x76 and fm3 == 0x38bca8 and  fcsr ==
      0x0 and rm_val == 7   #nosat'
    : 1
    ? 'fs1 == 0 and fe1 == 0xfe and fm1 == 0x378efe and fs2 == 0 and fe2 == 0xfe and
      fm2 == 0x35fb9d and fs3 == 0 and fe3 == 0x77 and fm3 == 0x38bca8 and  fcsr ==
      0x0 and rm_val == 7   #nosat'
    : 1
    ? 'fs1 == 0 and fe1 == 0xfe and fm1 == 0x378efe and fs2 == 0 and fe2 == 0xfe and
      fm2 == 0x35fb9d and fs3 == 0 and fe3 == 0x78 and fm3 == 0x38bca8 and  fcsr ==
      0x0 and rm_val == 7   #nosat'
    : 1
    ? 'fs1 == 0 and fe1 == 0xfe and fm1 == 0x378efe and fs2 == 0 and fe2 == 0xfe and
      fm2 == 0x35fb9d and fs3 == 0 and fe3 == 0x79 and fm3 == 0x38bca8 and  fcsr ==
      0x0 and rm_val == 7   #nosat'
    : 1
    ? 'fs1 == 0 and fe1 == 0xfe and fm1 == 0x378efe and fs2 == 0 and fe2 == 0xfe and
      fm2 == 0x35fb9d and fs3 == 0 and fe3 == 0x7a and fm3 == 0x38bca8 and  fcsr ==
      0x0 and rm_val == 7   #nosat'
    : 1
    ? 'fs1 == 0 and fe1 == 0xfe and fm1 == 0x378efe and fs2 == 0 and fe2 == 0xfe and
      fm2 == 0x35fb9d and fs3 == 0 and fe3 == 0x7b and fm3 == 0x38bca8 and  fcsr ==
      0x0 and rm_val == 7   #nosat'
    : 1
    ? 'fs1 == 0 and fe1 == 0xfe and fm1 == 0x378efe and fs2 == 0 and fe2 == 0xfe and
      fm2 == 0x35fb9d and fs3 == 0 and fe3 == 0x7c and fm3 == 0x38bca8 and  fcsr ==
      0x0 and rm_val == 7   #nosat'
    : 1
    ? 'fs1 == 0 and fe1 == 0xfe and fm1 == 0x378efe and fs2 == 0 and fe2 == 0xfe and
      fm2 == 0x35fb9d and fs3 == 0 and fe3 == 0x7d and fm3 == 0x38bca8 and  fcsr ==
      0x0 and rm_val == 7   #nosat'
    : 1
    ? 'fs1 == 0 and fe1 == 0xfe and fm1 == 0x378efe and fs2 == 0 and fe2 == 0xfe and
      fm2 == 0x35fb9d and fs3 == 0 and fe3 == 0x7e and fm3 == 0x38bca8 and  fcsr ==
      0x0 and rm_val == 7   #nosat'
    : 1
    ? 'fs1 == 0 and fe1 == 0xfe and fm1 == 0x378efe and fs2 == 0 and fe2 == 0xfe and
      fm2 == 0x35fb9d and fs3 == 0 and fe3 == 0x7f and fm3 == 0x38bca8 and  fcsr ==
      0x0 and rm_val == 7   #nosat'
    : 1
    ? 'fs1 == 0 and fe1 == 0xfe and fm1 == 0x378efe and fs2 == 0 and fe2 == 0xfe and
      fm2 == 0x35fb9d and fs3 == 0 and fe3 == 0x80 and fm3 == 0x38bca8 and  fcsr ==
      0x0 and rm_val == 7   #nosat'
    : 1
    ? 'fs1 == 0 and fe1 == 0xfe and fm1 == 0x378efe and fs2 == 0 and fe2 == 0xfe and
      fm2 == 0x35fb9d and fs3 == 0 and fe3 == 0x81 and fm3 == 0x38bca8 and  fcsr ==
      0x0 and rm_val == 7   #nosat'
    : 1
    ? 'fs1 == 0 and fe1 == 0xfe and fm1 == 0x378efe and fs2 == 0 and fe2 == 0xfe and
      fm2 == 0x35fb9d and fs3 == 0 and fe3 == 0x82 and fm3 == 0x38bca8 and  fcsr ==
      0x0 and rm_val == 7   #nosat'
    : 1
    ? 'fs1 == 0 and fe1 == 0xfe and fm1 == 0x378efe and fs2 == 0 and fe2 == 0xfe and
      fm2 == 0x35fb9d and fs3 == 0 and fe3 == 0x83 and fm3 == 0x38bca8 and  fcsr ==
      0x0 and rm_val == 7   #nosat'
    : 1
    ? 'fs1 == 0 and fe1 == 0xfe and fm1 == 0x378efe and fs2 == 0 and fe2 == 0xfe and
      fm2 == 0x35fb9d and fs3 == 0 and fe3 == 0x84 and fm3 == 0x38bca8 and  fcsr ==
      0x0 and rm_val == 7   #nosat'
    : 1
    ? 'fs1 == 0 and fe1 == 0xfe and fm1 == 0x378efe and fs2 == 0 and fe2 == 0xfe and
      fm2 == 0x35fb9d and fs3 == 0 and fe3 == 0x85 and fm3 == 0x38bca8 and  fcsr ==
      0x0 and rm_val == 7   #nosat'
    : 1
    ? 'fs1 == 0 and fe1 == 0xfe and fm1 == 0x378efe and fs2 == 0 and fe2 == 0xfe and
      fm2 == 0x35fb9d and fs3 == 0 and fe3 == 0x86 and fm3 == 0x38bca8 and  fcsr ==
      0x0 and rm_val == 7   #nosat'
    : 1
    ? 'fs1 == 0 and fe1 == 0xfe and fm1 == 0x378efe and fs2 == 0 and fe2 == 0xfe and
      fm2 == 0x35fb9d and fs3 == 0 and fe3 == 0x87 and fm3 == 0x38bca8 and  fcsr ==
      0x0 and rm_val == 7   #nosat'
    : 1
    ? 'fs1 == 0 and fe1 == 0xfe and fm1 == 0x378efe and fs2 == 0 and fe2 == 0xfe and
      fm2 == 0x35fb9d and fs3 == 0 and fe3 == 0x88 and fm3 == 0x38bca8 and  fcsr ==
      0x0 and rm_val == 7   #nosat'
    : 1
    ? 'fs1 == 0 and fe1 == 0xfe and fm1 == 0x378efe and fs2 == 0 and fe2 == 0xfe and
      fm2 == 0x35fb9d and fs3 == 0 and fe3 == 0x89 and fm3 == 0x38bca8 and  fcsr ==
      0x0 and rm_val == 7   #nosat'
    : 1
    ? 'fs1 == 0 and fe1 == 0xfe and fm1 == 0x378efe and fs2 == 0 and fe2 == 0xfe and
      fm2 == 0x35fb9d and fs3 == 0 and fe3 == 0x8a and fm3 == 0x38bca8 and  fcsr ==
      0x0 and rm_val == 7   #nosat'
    : 2
    ? 'fs1 == 0 and fe1 == 0xfe and fm1 == 0x378efe and fs2 == 0 and fe2 == 0xfe and
      fm2 == 0x35fb9d and fs3 == 0 and fe3 == 0x8b and fm3 == 0x38bca8 and  fcsr ==
      0x0 and rm_val == 7   #nosat'
    : 1
    ? 'fs1 == 0 and fe1 == 0xfe and fm1 == 0x378efe and fs2 == 0 and fe2 == 0xfe and
      fm2 == 0x35fb9d and fs3 == 0 and fe3 == 0x8c and fm3 == 0x38bca8 and  fcsr ==
      0x0 and rm_val == 7   #nosat'
    : 1
    ? 'fs1 == 0 and fe1 == 0xfe and fm1 == 0x378efe and fs2 == 0 and fe2 == 0xfe and
      fm2 == 0x35fb9d and fs3 == 0 and fe3 == 0x8d and fm3 == 0x38bca8 and  fcsr ==
      0x0 and rm_val == 7   #nosat'
    : 1
    ? 'fs1 == 0 and fe1 == 0xfe and fm1 == 0x378efe and fs2 == 0 and fe2 == 0xfe and
      fm2 == 0x35fb9d and fs3 == 0 and fe3 == 0x8e and fm3 == 0x38bca8 and  fcsr ==
      0x0 and rm_val == 7   #nosat'
    : 1
    ? 'fs1 == 0 and fe1 == 0xfe and fm1 == 0x378efe and fs2 == 0 and fe2 == 0xfe and
      fm2 == 0x35fb9d and fs3 == 0 and fe3 == 0x8f and fm3 == 0x38bca8 and  fcsr ==
      0x0 and rm_val == 7   #nosat'
    : 1
    ? 'fs1 == 0 and fe1 == 0xfe and fm1 == 0x378efe and fs2 == 0 and fe2 == 0xfe and
      fm2 == 0x35fb9d and fs3 == 0 and fe3 == 0x90 and fm3 == 0x38bca8 and  fcsr ==
      0x0 and rm_val == 7   #nosat'
    : 1
    ? 'fs1 == 0 and fe1 == 0xfe and fm1 == 0x378efe and fs2 == 0 and fe2 == 0xfe and
      fm2 == 0x35fb9d and fs3 == 0 and fe3 == 0x91 and fm3 == 0x38bca8 and  fcsr ==
      0x0 and rm_val == 7   #nosat'
    : 1
    ? 'fs1 == 0 and fe1 == 0xfe and fm1 == 0x378efe and fs2 == 0 and fe2 == 0xfe and
      fm2 == 0x35fb9d and fs3 == 0 and fe3 == 0x92 and fm3 == 0x38bca8 and  fcsr ==
      0x0 and rm_val == 7   #nosat'
    : 1
    ? 'fs1 == 0 and fe1 == 0xfe and fm1 == 0x378efe and fs2 == 0 and fe2 == 0xfe and
      fm2 == 0x35fb9d and fs3 == 0 and fe3 == 0x93 and fm3 == 0x38bca8 and  fcsr ==
      0x0 and rm_val == 7   #nosat'
    : 1
    ? 'fs1 == 0 and fe1 == 0xfe and fm1 == 0x378efe and fs2 == 0 and fe2 == 0xfe and
      fm2 == 0x35fb9d and fs3 == 0 and fe3 == 0x94 and fm3 == 0x38bca8 and  fcsr ==
      0x0 and rm_val == 7   #nosat'
    : 1
    ? 'fs1 == 0 and fe1 == 0xfe and fm1 == 0x378efe and fs2 == 0 and fe2 == 0xfe and
      fm2 == 0x35fb9d and fs3 == 0 and fe3 == 0x95 and fm3 == 0x38bca8 and  fcsr ==
      0x0 and rm_val == 7   #nosat'
    : 1
    ? 'fs1 == 0 and fe1 == 0xfe and fm1 == 0x378efe and fs2 == 0 and fe2 == 0xfe and
      fm2 == 0x35fb9d and fs3 == 0 and fe3 == 0x96 and fm3 == 0x38bca8 and  fcsr ==
      0x0 and rm_val == 7   #nosat'
    : 1
    ? 'fs1 == 0 and fe1 == 0xfe and fm1 == 0x378efe and fs2 == 0 and fe2 == 0xfe and
      fm2 == 0x35fb9d and fs3 == 0 and fe3 == 0x97 and fm3 == 0x38bca8 and  fcsr ==
      0x0 and rm_val == 7   #nosat'
    : 1
    ? 'fs1 == 0 and fe1 == 0xfe and fm1 == 0x378efe and fs2 == 0 and fe2 == 0xfe and
      fm2 == 0x35fb9d and fs3 == 0 and fe3 == 0x98 and fm3 == 0x38bca8 and  fcsr ==
      0x0 and rm_val == 7   #nosat'
    : 1
    ? 'fs1 == 0 and fe1 == 0xfe and fm1 == 0x378efe and fs2 == 0 and fe2 == 0xfe and
      fm2 == 0x35fb9d and fs3 == 0 and fe3 == 0x99 and fm3 == 0x38bca8 and  fcsr ==
      0x0 and rm_val == 7   #nosat'
    : 1
    ? 'fs1 == 0 and fe1 == 0xfe and fm1 == 0x378efe and fs2 == 0 and fe2 == 0xfe and
      fm2 == 0x35fb9d and fs3 == 0 and fe3 == 0x9a and fm3 == 0x38bca8 and  fcsr ==
      0x0 and rm_val == 7   #nosat'
    : 1
    ? 'fs1 == 0 and fe1 == 0xfe and fm1 == 0x378efe and fs2 == 0 and fe2 == 0xfe and
      fm2 == 0x35fb9d and fs3 == 0 and fe3 == 0x9b and fm3 == 0x38bca8 and  fcsr ==
      0x0 and rm_val == 7   #nosat'
    : 1
    ? 'fs1 == 0 and fe1 == 0xfe and fm1 == 0x378efe and fs2 == 0 and fe2 == 0xfe and
      fm2 == 0x35fb9d and fs3 == 0 and fe3 == 0x9c and fm3 == 0x38bca8 and  fcsr ==
      0x0 and rm_val == 7   #nosat'
    : 1
    ? 'fs1 == 0 and fe1 == 0xfe and fm1 == 0x378efe and fs2 == 0 and fe2 == 0xfe and
      fm2 == 0x35fb9d and fs3 == 0 and fe3 == 0x9d and fm3 == 0x38bca8 and  fcsr ==
      0x0 and rm_val == 7   #nosat'
    : 1
    ? 'fs1 == 0 and fe1 == 0xfe and fm1 == 0x378efe and fs2 == 0 and fe2 == 0xfe and
      fm2 == 0x35fb9d and fs3 == 0 and fe3 == 0x9e and fm3 == 0x38bca8 and  fcsr ==
      0x0 and rm_val == 7   #nosat'
    : 1
    ? 'fs1 == 0 and fe1 == 0xfe and fm1 == 0x378efe and fs2 == 0 and fe2 == 0xfe and
      fm2 == 0x35fb9d and fs3 == 0 and fe3 == 0x9f and fm3 == 0x38bca8 and  fcsr ==
      0x0 and rm_val == 7   #nosat'
    : 1
    ? 'fs1 == 0 and fe1 == 0xfe and fm1 == 0x378efe and fs2 == 0 and fe2 == 0xfe and
      fm2 == 0x35fb9d and fs3 == 0 and fe3 == 0xa0 and fm3 == 0x38bca8 and  fcsr ==
      0x0 and rm_val == 7   #nosat'
    : 1
    ? 'fs1 == 0 and fe1 == 0xfe and fm1 == 0x378efe and fs2 == 0 and fe2 == 0xfe and
      fm2 == 0x35fb9d and fs3 == 0 and fe3 == 0xa1 and fm3 == 0x38bca8 and  fcsr ==
      0x0 and rm_val == 7   #nosat'
    : 1
    ? 'fs1 == 0 and fe1 == 0xfe and fm1 == 0x378efe and fs2 == 0 and fe2 == 0xfe and
      fm2 == 0x35fb9d and fs3 == 0 and fe3 == 0xa2 and fm3 == 0x38bca8 and  fcsr ==
      0x0 and rm_val == 7   #nosat'
    : 1
    ? 'fs1 == 0 and fe1 == 0xfe and fm1 == 0x378efe and fs2 == 0 and fe2 == 0xfe and
      fm2 == 0x35fb9d and fs3 == 0 and fe3 == 0xa3 and fm3 == 0x38bca8 and  fcsr ==
      0x0 and rm_val == 7   #nosat'
    : 1
    ? 'fs1 == 0 and fe1 == 0xfe and fm1 == 0x378efe and fs2 == 0 and fe2 == 0xfe and
      fm2 == 0x35fb9d and fs3 == 0 and fe3 == 0xa4 and fm3 == 0x38bca8 and  fcsr ==
      0x0 and rm_val == 7   #nosat'
    : 1
    ? 'fs1 == 0 and fe1 == 0xfe and fm1 == 0x378efe and fs2 == 0 and fe2 == 0xfe and
      fm2 == 0x35fb9d and fs3 == 0 and fe3 == 0xa5 and fm3 == 0x38bca8 and  fcsr ==
      0x0 and rm_val == 7   #nosat'
    : 1
    ? 'fs1 == 0 and fe1 == 0xfe and fm1 == 0x378efe and fs2 == 0 and fe2 == 0xfe and
      fm2 == 0x35fb9d and fs3 == 0 and fe3 == 0xa6 and fm3 == 0x38bca8 and  fcsr ==
      0x0 and rm_val == 7   #nosat'
    : 1
    ? 'fs1 == 0 and fe1 == 0xfe and fm1 == 0x378efe and fs2 == 0 and fe2 == 0xfe and
      fm2 == 0x35fb9d and fs3 == 0 and fe3 == 0xa7 and fm3 == 0x38bca8 and  fcsr ==
      0x0 and rm_val == 7   #nosat'
    : 1
    ? 'fs1 == 0 and fe1 == 0xfe and fm1 == 0x378efe and fs2 == 0 and fe2 == 0xfe and
      fm2 == 0x35fb9d and fs3 == 0 and fe3 == 0xa8 and fm3 == 0x38bca8 and  fcsr ==
      0x0 and rm_val == 7   #nosat'
    : 1
    ? 'fs1 == 0 and fe1 == 0xfe and fm1 == 0x378efe and fs2 == 0 and fe2 == 0xfe and
      fm2 == 0x35fb9d and fs3 == 0 and fe3 == 0xa9 and fm3 == 0x38bca8 and  fcsr ==
      0x0 and rm_val == 7   #nosat'
    : 1
    ? 'fs1 == 0 and fe1 == 0xfe and fm1 == 0x378efe and fs2 == 0 and fe2 == 0xfe and
      fm2 == 0x35fb9d and fs3 == 0 and fe3 == 0xaa and fm3 == 0x38bca8 and  fcsr ==
      0x0 and rm_val == 7   #nosat'
    : 1
    ? 'fs1 == 0 and fe1 == 0xfe and fm1 == 0x378efe and fs2 == 0 and fe2 == 0xfe and
      fm2 == 0x35fb9d and fs3 == 0 and fe3 == 0xab and fm3 == 0x38bca8 and  fcsr ==
      0x0 and rm_val == 7   #nosat'
    : 1
    ? 'fs1 == 0 and fe1 == 0xfe and fm1 == 0x378efe and fs2 == 0 and fe2 == 0xfe and
      fm2 == 0x35fb9d and fs3 == 0 and fe3 == 0xac and fm3 == 0x38bca8 and  fcsr ==
      0x0 and rm_val == 7   #nosat'
    : 1
    ? 'fs1 == 0 and fe1 == 0xfe and fm1 == 0x378efe and fs2 == 0 and fe2 == 0xfe and
      fm2 == 0x35fb9d and fs3 == 0 and fe3 == 0xdb and fm3 == 0x38bca8 and  fcsr ==
      0x0 and rm_val == 7   #nosat'
    : 1
    coverage: 73/73
  total_coverage: 214/214
