---
fcvt.s.d_b29:
  config:
  - check ISA:=regex(.*I.*Zfinx.*Zdinx.*)
  mnemonics:
    fcvt.s.d: 80
    coverage: 1/1
  op_comb:
    rs1 != rd: 79
    rs1 == rd: 1
    coverage: 2/2
  rd:
    x10: 1
    x12: 1
    x14: 1
    x16: 1
    x18: 1
    x2: 1
    x20: 1
    x22: 1
    x24: 1
    x26: 1
    x28: 1
    x30: 66
    x4: 1
    x6: 1
    x8: 1
    coverage: 15/15
  rs1:
    x10: 1
    x12: 1
    x14: 1
    x16: 1
    x18: 1
    x2: 1
    x20: 1
    x22: 1
    x24: 1
    x26: 1
    x28: 66
    x30: 1
    x4: 1
    x6: 1
    x8: 1
    coverage: 15/15
  val_comb:
    'fs1 == 0 and fe1 == 0x3fc and fm1 == 0x08574923b8698 and  fcsr == 0x0 and rm_val == 7   #nosat': 1
    'fs1 == 0 and fe1 == 0x3fc and fm1 == 0x08574923b8698 and  fcsr == 0x20 and rm_val == 7   #nosat': 1
    'fs1 == 0 and fe1 == 0x3fc and fm1 == 0x08574923b8698 and  fcsr == 0x40 and rm_val == 7   #nosat': 1
    'fs1 == 0 and fe1 == 0x3fc and fm1 == 0x08574923b8698 and  fcsr == 0x60 and rm_val == 7   #nosat': 1
    'fs1 == 0 and fe1 == 0x3fc and fm1 == 0x08574923b8698 and  fcsr == 0x80 and rm_val == 7   #nosat': 1
    'fs1 == 0 and fe1 == 0x3fc and fm1 == 0x08574923b8699 and  fcsr == 0x0 and rm_val == 7   #nosat': 1
    'fs1 == 0 and fe1 == 0x3fc and fm1 == 0x08574923b8699 and  fcsr == 0x20 and rm_val == 7   #nosat': 1
    'fs1 == 0 and fe1 == 0x3fc and fm1 == 0x08574923b8699 and  fcsr == 0x40 and rm_val == 7   #nosat': 1
    'fs1 == 0 and fe1 == 0x3fc and fm1 == 0x08574923b8699 and  fcsr == 0x60 and rm_val == 7   #nosat': 1
    'fs1 == 0 and fe1 == 0x3fc and fm1 == 0x08574923b8699 and  fcsr == 0x80 and rm_val == 7   #nosat': 1
    'fs1 == 0 and fe1 == 0x3fc and fm1 == 0x08574923b869a and  fcsr == 0x0 and rm_val == 7   #nosat': 1
    'fs1 == 0 and fe1 == 0x3fc and fm1 == 0x08574923b869a and  fcsr == 0x20 and rm_val == 7   #nosat': 1
    'fs1 == 0 and fe1 == 0x3fc and fm1 == 0x08574923b869a and  fcsr == 0x40 and rm_val == 7   #nosat': 1
    'fs1 == 0 and fe1 == 0x3fc and fm1 == 0x08574923b869a and  fcsr == 0x60 and rm_val == 7   #nosat': 1
    'fs1 == 0 and fe1 == 0x3fc and fm1 == 0x08574923b869a and  fcsr == 0x80 and rm_val == 7   #nosat': 1
    'fs1 == 0 and fe1 == 0x3fc and fm1 == 0x08574923b869b and  fcsr == 0x0 and rm_val == 7   #nosat': 1
    'fs1 == 0 and fe1 == 0x3fc and fm1 == 0x08574923b869b and  fcsr == 0x20 and rm_val == 7   #nosat': 1
    'fs1 == 0 and fe1 == 0x3fc and fm1 == 0x08574923b869b and  fcsr == 0x40 and rm_val == 7   #nosat': 1
    'fs1 == 0 and fe1 == 0x3fc and fm1 == 0x08574923b869b and  fcsr == 0x60 and rm_val == 7   #nosat': 1
    'fs1 == 0 and fe1 == 0x3fc and fm1 == 0x08574923b869b and  fcsr == 0x80 and rm_val == 7   #nosat': 1
    'fs1 == 0 and fe1 == 0x3fc and fm1 == 0x08574923b869c and  fcsr == 0x0 and rm_val == 7   #nosat': 1
    'fs1 == 0 and fe1 == 0x3fc and fm1 == 0x08574923b869c and  fcsr == 0x20 and rm_val == 7   #nosat': 1
    'fs1 == 0 and fe1 == 0x3fc and fm1 == 0x08574923b869c and  fcsr == 0x40 and rm_val == 7   #nosat': 1
    'fs1 == 0 and fe1 == 0x3fc and fm1 == 0x08574923b869c and  fcsr == 0x60 and rm_val == 7   #nosat': 1
    'fs1 == 0 and fe1 == 0x3fc and fm1 == 0x08574923b869c and  fcsr == 0x80 and rm_val == 7   #nosat': 1
    'fs1 == 0 and fe1 == 0x3fc and fm1 == 0x08574923b869d and  fcsr == 0x0 and rm_val == 7   #nosat': 1
    'fs1 == 0 and fe1 == 0x3fc and fm1 == 0x08574923b869d and  fcsr == 0x20 and rm_val == 7   #nosat': 1
    'fs1 == 0 and fe1 == 0x3fc and fm1 == 0x08574923b869d and  fcsr == 0x40 and rm_val == 7   #nosat': 1
    'fs1 == 0 and fe1 == 0x3fc and fm1 == 0x08574923b869d and  fcsr == 0x60 and rm_val == 7   #nosat': 1
    'fs1 == 0 and fe1 == 0x3fc and fm1 == 0x08574923b869d and  fcsr == 0x80 and rm_val == 7   #nosat': 1
    'fs1 == 0 and fe1 == 0x3fc and fm1 == 0x08574923b869e and  fcsr == 0x0 and rm_val == 7   #nosat': 1
    'fs1 == 0 and fe1 == 0x3fc and fm1 == 0x08574923b869e and  fcsr == 0x20 and rm_val == 7   #nosat': 1
    'fs1 == 0 and fe1 == 0x3fc and fm1 == 0x08574923b869e and  fcsr == 0x40 and rm_val == 7   #nosat': 1
    'fs1 == 0 and fe1 == 0x3fc and fm1 == 0x08574923b869e and  fcsr == 0x60 and rm_val == 7   #nosat': 1
    'fs1 == 0 and fe1 == 0x3fc and fm1 == 0x08574923b869e and  fcsr == 0x80 and rm_val == 7   #nosat': 1
    'fs1 == 0 and fe1 == 0x3fc and fm1 == 0x08574923b869f and  fcsr == 0x0 and rm_val == 7   #nosat': 1
    'fs1 == 0 and fe1 == 0x3fc and fm1 == 0x08574923b869f and  fcsr == 0x20 and rm_val == 7   #nosat': 1
    'fs1 == 0 and fe1 == 0x3fc and fm1 == 0x08574923b869f and  fcsr == 0x40 and rm_val == 7   #nosat': 1
    'fs1 == 0 and fe1 == 0x3fc and fm1 == 0x08574923b869f and  fcsr == 0x60 and rm_val == 7   #nosat': 1
    'fs1 == 0 and fe1 == 0x3fc and fm1 == 0x08574923b869f and  fcsr == 0x80 and rm_val == 7   #nosat': 1
    'fs1 == 1 and fe1 == 0x3fc and fm1 == 0x08574923b8698 and  fcsr == 0x0 and rm_val == 7   #nosat': 1
    'fs1 == 1 and fe1 == 0x3fc and fm1 == 0x08574923b8698 and  fcsr == 0x20 and rm_val == 7   #nosat': 1
    'fs1 == 1 and fe1 == 0x3fc and fm1 == 0x08574923b8698 and  fcsr == 0x40 and rm_val == 7   #nosat': 1
    'fs1 == 1 and fe1 == 0x3fc and fm1 == 0x08574923b8698 and  fcsr == 0x60 and rm_val == 7   #nosat': 1
    'fs1 == 1 and fe1 == 0x3fc and fm1 == 0x08574923b8698 and  fcsr == 0x80 and rm_val == 7   #nosat': 1
    'fs1 == 1 and fe1 == 0x3fc and fm1 == 0x08574923b8699 and  fcsr == 0x0 and rm_val == 7   #nosat': 1
    'fs1 == 1 and fe1 == 0x3fc and fm1 == 0x08574923b8699 and  fcsr == 0x20 and rm_val == 7   #nosat': 1
    'fs1 == 1 and fe1 == 0x3fc and fm1 == 0x08574923b8699 and  fcsr == 0x40 and rm_val == 7   #nosat': 1
    'fs1 == 1 and fe1 == 0x3fc and fm1 == 0x08574923b8699 and  fcsr == 0x60 and rm_val == 7   #nosat': 1
    'fs1 == 1 and fe1 == 0x3fc and fm1 == 0x08574923b8699 and  fcsr == 0x80 and rm_val == 7   #nosat': 1
    'fs1 == 1 and fe1 == 0x3fc and fm1 == 0x08574923b869a and  fcsr == 0x0 and rm_val == 7   #nosat': 1
    'fs1 == 1 and fe1 == 0x3fc and fm1 == 0x08574923b869a and  fcsr == 0x20 and rm_val == 7   #nosat': 1
    'fs1 == 1 and fe1 == 0x3fc and fm1 == 0x08574923b869a and  fcsr == 0x40 and rm_val == 7   #nosat': 1
    'fs1 == 1 and fe1 == 0x3fc and fm1 == 0x08574923b869a and  fcsr == 0x60 and rm_val == 7   #nosat': 1
    'fs1 == 1 and fe1 == 0x3fc and fm1 == 0x08574923b869a and  fcsr == 0x80 and rm_val == 7   #nosat': 1
    'fs1 == 1 and fe1 == 0x3fc and fm1 == 0x08574923b869b and  fcsr == 0x0 and rm_val == 7   #nosat': 1
    'fs1 == 1 and fe1 == 0x3fc and fm1 == 0x08574923b869b and  fcsr == 0x20 and rm_val == 7   #nosat': 1
    'fs1 == 1 and fe1 == 0x3fc and fm1 == 0x08574923b869b and  fcsr == 0x40 and rm_val == 7   #nosat': 1
    'fs1 == 1 and fe1 == 0x3fc and fm1 == 0x08574923b869b and  fcsr == 0x60 and rm_val == 7   #nosat': 1
    'fs1 == 1 and fe1 == 0x3fc and fm1 == 0x08574923b869b and  fcsr == 0x80 and rm_val == 7   #nosat': 1
    'fs1 == 1 and fe1 == 0x3fc and fm1 == 0x08574923b869c and  fcsr == 0x0 and rm_val == 7   #nosat': 1
    'fs1 == 1 and fe1 == 0x3fc and fm1 == 0x08574923b869c and  fcsr == 0x20 and rm_val == 7   #nosat': 1
    'fs1 == 1 and fe1 == 0x3fc and fm1 == 0x08574923b869c and  fcsr == 0x40 and rm_val == 7   #nosat': 1
    'fs1 == 1 and fe1 == 0x3fc and fm1 == 0x08574923b869c and  fcsr == 0x60 and rm_val == 7   #nosat': 1
    'fs1 == 1 and fe1 == 0x3fc and fm1 == 0x08574923b869c and  fcsr == 0x80 and rm_val == 7   #nosat': 1
    'fs1 == 1 and fe1 == 0x3fc and fm1 == 0x08574923b869d and  fcsr == 0x0 and rm_val == 7   #nosat': 1
    'fs1 == 1 and fe1 == 0x3fc and fm1 == 0x08574923b869d and  fcsr == 0x20 and rm_val == 7   #nosat': 1
    'fs1 == 1 and fe1 == 0x3fc and fm1 == 0x08574923b869d and  fcsr == 0x40 and rm_val == 7   #nosat': 1
    'fs1 == 1 and fe1 == 0x3fc and fm1 == 0x08574923b869d and  fcsr == 0x60 and rm_val == 7   #nosat': 1
    'fs1 == 1 and fe1 == 0x3fc and fm1 == 0x08574923b869d and  fcsr == 0x80 and rm_val == 7   #nosat': 1
    'fs1 == 1 and fe1 == 0x3fc and fm1 == 0x08574923b869e and  fcsr == 0x0 and rm_val == 7   #nosat': 1
    'fs1 == 1 and fe1 == 0x3fc and fm1 == 0x08574923b869e and  fcsr == 0x20 and rm_val == 7   #nosat': 1
    'fs1 == 1 and fe1 == 0x3fc and fm1 == 0x08574923b869e and  fcsr == 0x40 and rm_val == 7   #nosat': 1
    'fs1 == 1 and fe1 == 0x3fc and fm1 == 0x08574923b869e and  fcsr == 0x60 and rm_val == 7   #nosat': 1
    'fs1 == 1 and fe1 == 0x3fc and fm1 == 0x08574923b869e and  fcsr == 0x80 and rm_val == 7   #nosat': 1
    'fs1 == 1 and fe1 == 0x3fc and fm1 == 0x08574923b869f and  fcsr == 0x0 and rm_val == 7   #nosat': 1
    'fs1 == 1 and fe1 == 0x3fc and fm1 == 0x08574923b869f and  fcsr == 0x20 and rm_val == 7   #nosat': 1
    'fs1 == 1 and fe1 == 0x3fc and fm1 == 0x08574923b869f and  fcsr == 0x40 and rm_val == 7   #nosat': 1
    'fs1 == 1 and fe1 == 0x3fc and fm1 == 0x08574923b869f and  fcsr == 0x60 and rm_val == 7   #nosat': 1
    'fs1 == 1 and fe1 == 0x3fc and fm1 == 0x08574923b869f and  fcsr == 0x80 and rm_val == 7   #nosat': 1
    coverage: 80/80
  total_coverage: 113/113
