---
fmadd_b17:
  config:
  - check ISA:=regex(.*I.*F.*)
  op_comb:
    rd == rs2 == rs3 != rs1: 1
    rs1 != rs2 and rs1 != rd and rs1 != rs3 and rs2 != rs3 and rs2 != rd and rs3 != rd: 197
    rs1 == rd != rs2 and rs1 == rd != rs3 and rs3 != rs2: 1
    rs1 == rd == rs3 != rs2: 1
    rs1 == rs2 != rs3 and rs1 == rs2 != rd and rd != rs3: 1
    rs1 == rs2 == rd != rs3: 1
    rs1 == rs2 == rs3 != rd: 1
    rs1 == rs2 == rs3 == rd: 1
    rs1 == rs3 != rs2 and rs1 == rs3 != rd and rd != rs2: 1
    rs2 == rd != rs1 and rs2 == rd != rs3 and rs3 != rs1: 1
    rs2 == rs3 != rs1 and rs2 == rs3 != rd and rd != rs1: 1
    rs3 == rd != rs1 and rs3 == rd != rs2 and rs2 != rs1: 1
    coverage: 12/12
  opcode:
    fmadd.d: 208
    coverage: 1/1
  rd:
    f0: 1
    f1: 1
    f10: 1
    f11: 1
    f12: 1
    f13: 1
    f14: 1
    f15: 1
    f16: 1
    f17: 1
    f18: 1
    f19: 1
    f2: 1
    f20: 1
    f21: 1
    f22: 1
    f23: 1
    f24: 1
    f25: 1
    f26: 1
    f27: 1
    f28: 1
    f29: 1
    f3: 1
    f30: 1
    f31: 177
    f4: 1
    f5: 1
    f6: 1
    f7: 1
    f8: 1
    f9: 1
    coverage: 32/32
  rs1:
    f0: 1
    f1: 1
    f10: 1
    f11: 1
    f12: 1
    f13: 1
    f14: 1
    f15: 1
    f16: 1
    f17: 1
    f18: 1
    f19: 1
    f2: 1
    f20: 1
    f21: 1
    f22: 1
    f23: 1
    f24: 1
    f25: 1
    f26: 1
    f27: 1
    f28: 1
    f29: 1
    f3: 1
    f30: 177
    f31: 1
    f4: 1
    f5: 1
    f6: 1
    f7: 1
    f8: 1
    f9: 1
    coverage: 32/32
  rs2:
    f0: 1
    f1: 1
    f10: 1
    f11: 1
    f12: 1
    f13: 1
    f14: 1
    f15: 1
    f16: 1
    f17: 1
    f18: 1
    f19: 1
    f2: 1
    f20: 1
    f21: 1
    f22: 1
    f23: 1
    f24: 1
    f25: 1
    f26: 1
    f27: 1
    f28: 1
    f29: 177
    f3: 1
    f30: 1
    f31: 1
    f4: 1
    f5: 1
    f6: 1
    f7: 1
    f8: 1
    f9: 1
    coverage: 32/32
  rs3:
    f0: 1
    f1: 1
    f10: 1
    f11: 1
    f12: 1
    f13: 1
    f14: 1
    f15: 1
    f16: 1
    f17: 1
    f18: 1
    f19: 1
    f2: 1
    f20: 1
    f21: 1
    f22: 1
    f23: 1
    f24: 1
    f25: 1
    f26: 1
    f27: 1
    f28: 177
    f29: 1
    f3: 1
    f30: 1
    f31: 1
    f4: 1
    f5: 1
    f6: 1
    f7: 1
    f8: 1
    f9: 1
    coverage: 32/32
  val_comb:
    ? 'fs1 == 0 and fe1 == 0x5fa and fm1 == 0xb0580f98a7dbd and fs2 == 0 and fe2 ==
      0x5fa and fm2 == 0x84129978f9c19 and fs3 == 1 and fe3 == 0x7f6 and fm3 == 0x47b27082b3c58
      and rm_val == 0  #nosat'
    : 1  #  rs1_val==dnorm(0x5fab0580f98a7dbd) and rs2_val==dnorm(0x5fa84129978f9c19) and rs3_val==dnorm(0xff647b27082b3c58) | Multiply-Add: Cancellation ---> Subnormal result 
    ? 'fs1 == 0 and fe1 == 0x5fa and fm1 == 0x862435d9f084c and fs2 == 0 and fe2 ==
      0x5f9 and fm2 == 0x1ecf7d50e7867 and fs3 == 1 and fe3 == 0x7f4 and fm3 == 0xb518aa6c00619
      and rm_val == 0  #nosat'
    : 1 #  rs1_val==dnorm(0x5fa862435d9f084c) and rs2_val==dnorm(0x5f91ecf7d50e7867) and rs3_val==dnorm(0xff4b518aa6c00619) | Multiply-Add: Cancellation ---> Subnormal result 
    ? 'fs1 == 0 and fe1 == 0x5fa and fm1 == 0x5b3a3e9fd9fb7 and fs2 == 0 and fe2 ==
      0x5fa and fm2 == 0x852a7ebd7fae8 and fs3 == 1 and fe3 == 0x7f6 and fm3 == 0x07ec924f6f3b3
      and rm_val == 0  #nosat'
    : 1 #  rs1_val==dnorm(0x5fa5b3a3e9fd9fb7) and rs2_val==dnorm(0x5fa852a7ebd7fae8) and rs3_val==dnorm(0xff607ec924f6f3b3) | Multiply-Add: Cancellation ---> Subnormal result 
    ? 'fs1 == 0 and fe1 == 0x5f8 and fm1 == 0x3ff0da6c98f6f and fs2 == 0 and fe2 ==
      0x5fa and fm2 == 0x699f5f701628b and fs3 == 1 and fe3 == 0x7f3 and fm3 == 0xc3f1d1e14346a
      and rm_val == 0  #nosat'
    : 1 #  rs1_val==dnorm(0x5f83ff0da6c98f6f) and rs2_val==dnorm(0x5fa699f5f701628b) and rs3_val==dnorm(0xff3c3f1d1e14346a) | Multiply-Add: Cancellation ---> Subnormal result 
    ? 'fs1 == 0 and fe1 == 0x5fa and fm1 == 0x898a6dfea4b33 and fs2 == 0 and fe2 ==
      0x5fa and fm2 == 0x4201da1346303 and fs3 == 1 and fe3 == 0x7f5 and fm3 == 0xef02f7223bfef
      and rm_val == 0  #nosat'
    : 1 #  rs1_val==dnorm(0x5fa898a6dfea4b33) and rs2_val==dnorm(0x5fa4201da1346303) and rs3_val==dnorm(0xff5ef02f7223bfef) | Multiply-Add: Cancellation ---> Subnormal result 
    ? 'fs1 == 0 and fe1 == 0x5fa and fm1 == 0x3ccae6dd9195e and fs2 == 0 and fe2 ==
      0x5f3 and fm2 == 0xfda686ffdecff and fs3 == 1 and fe3 == 0x7ef and fm3 == 0x3b56bfd38a685
      and rm_val == 0  #nosat'
    : 1 #  rs1_val==dnorm(0x5fa3ccae6dd9195e) and rs2_val==dnorm(0x5f3fda686ffdecff) and rs3_val==dnorm(0xfef3b56bfd38a685) | Multiply-Add: Cancellation ---> Subnormal result 
    ? 'fs1 == 0 and fe1 == 0x5f8 and fm1 == 0xa10df54b7350b and fs2 == 0 and fe2 ==
      0x5f1 and fm2 == 0xe32c6a43223ff and fs3 == 1 and fe3 == 0x7eb and fm3 == 0x8992d8a854c6c
      and rm_val == 0  #nosat'
    : 1 #  rs1_val==dnorm(0x5f8a10df54b7350b) and rs2_val==dnorm(0x5f1e32c6a43223ff) and rs3_val==dnorm(0xfeb8992d8a854c6c) | Multiply-Add: Cancellation ---> Subnormal result 
    ? 'fs1 == 0 and fe1 == 0x5f9 and fm1 == 0xd988a750d58bd and fs2 == 0 and fe2 ==
      0x5fa and fm2 == 0x464ca5c58934b and fs3 == 1 and fe3 == 0x7f5 and fm3 == 0x2dc8e62289dd7
      and rm_val == 0  #nosat'
    : 1 #  rs1_val==dnorm(0x5f9d988a750d58bd) and rs2_val==dnorm(0x5fa464ca5c58934b) and rs3_val==dnorm(0xff52dc8e62289dd7) | Multiply-Add: Cancellation ---> Subnormal result 
    ? 'fs1 == 0 and fe1 == 0x5f9 and fm1 == 0xd0546b2b91d49 and fs2 == 0 and fe2 ==
      0x5fa and fm2 == 0xdfcc2e217e8b4 and fs3 == 1 and fe3 == 0x7f5 and fm3 == 0xb32025bbec1f6
      and rm_val == 0  #nosat'
    : 1 #  rs1_val==dnorm(0x5f9d0546b2b91d49) and rs2_val==dnorm(0x5fadfcc2e217e8b4) and rs3_val==dnorm(0xff5b32025bbec1f6) | Multiply-Add: Cancellation ---> Subnormal result 
    ? 'fs1 == 0 and fe1 == 0x5fa and fm1 == 0x8908351afd340 and fs2 == 0 and fe2 ==
      0x5f9 and fm2 == 0xba13e3965dc9d and fs3 == 1 and fe3 == 0x7f5 and fm3 == 0x535b5a5ad6084
      and rm_val == 0  #nosat'
    : 1 #  rs1_val==dnorm(0x5fa8908351afd340) and rs2_val==dnorm(0x5f9ba13e3965dc9d) and rs3_val==dnorm(0xff5535b5a5ad6084) | Multiply-Add: Cancellation ---> Subnormal result 
    ? 'fs1 == 0 and fe1 == 0x5fa and fm1 == 0x97605fecf75de and fs2 == 0 and fe2 ==
      0x5f9 and fm2 == 0xc8df50f6d17e1 and fs3 == 1 and fe3 == 0x7f5 and fm3 == 0x6b83845444ffa
      and rm_val == 0  #nosat'
    : 1 #  rs1_val==dnorm(0x5fa97605fecf75de) and rs2_val==dnorm(0x5f9c8df50f6d17e1) and rs3_val==dnorm(0xff56b83845444ffa) | Multiply-Add: Cancellation ---> Subnormal result 
    ? 'fs1 == 0 and fe1 == 0x5f9 and fm1 == 0x1b9e168e5b379 and fs2 == 0 and fe2 ==
      0x5fa and fm2 == 0x1dc9fa26c1435 and fs3 == 1 and fe3 == 0x7f4 and fm3 == 0x3c9ec35f82eda
      and rm_val == 0  #nosat'
    : 1 #  rs1_val==dnorm(0x5f91b9e168e5b379) and rs2_val==dnorm(0x5fa1dc9fa26c1435) and rs3_val==dnorm(0xff43c9ec35f82eda) | Multiply-Add: Cancellation ---> Subnormal result 
    ? 'fs1 == 0 and fe1 == 0x5f9 and fm1 == 0xe230580ba7bd1 and fs2 == 0 and fe2 ==
      0x5fa and fm2 == 0xe689920bde8c0 and fs3 == 1 and fe3 == 0x7f5 and fm3 == 0xca35730d9612e
      and rm_val == 0  #nosat'
    : 1 #  rs1_val==dnorm(0x5f9e230580ba7bd1) and rs2_val==dnorm(0x5fae689920bde8c0) and rs3_val==dnorm(0xff5ca35730d9612e) | Multiply-Add: Cancellation ---> Subnormal result 
    ? 'fs1 == 0 and fe1 == 0x5f9 and fm1 == 0x485dfab87c6eb and fs2 == 0 and fe2 ==
      0x5f8 and fm2 == 0xa1c5a75f20f3f and fs3 == 1 and fe3 == 0x7f3 and fm3 == 0x0bef4e33e32d9
      and rm_val == 0  #nosat'
    : 1 #  rs1_val==dnorm(0x5f9485dfab87c6eb) and rs2_val==dnorm(0x5f8a1c5a75f20f3f) and rs3_val==dnorm(0xff30bef4e33e32d9) | Multiply-Add: Cancellation ---> Subnormal result 
    ? 'fs1 == 0 and fe1 == 0x5f9 and fm1 == 0xa26ee9811427d and fs2 == 0 and fe2 ==
      0x5f9 and fm2 == 0xab3d27fb21645 and fs3 == 1 and fe3 == 0x7f4 and fm3 == 0x5d297aa0a7a31
      and rm_val == 0  #nosat'
    : 1 #  rs1_val==dnorm(0x5f9a26ee9811427d) and rs2_val==dnorm(0x5f9ab3d27fb21645) and rs3_val==dnorm(0xff45d297aa0a7a31) | Multiply-Add: Cancellation ---> Subnormal result 
    ? 'fs1 == 0 and fe1 == 0x5f9 and fm1 == 0x7a1e41518aac9 and fs2 == 0 and fe2 ==
      0x5fa and fm2 == 0xe5da67e1de883 and fs3 == 1 and fe3 == 0x7f5 and fm3 == 0x66cef479725bd
      and rm_val == 0  #nosat'
    : 1 #  rs1_val==dnorm(0x5f97a1e41518aac9) and rs2_val==dnorm(0x5fae5da67e1de883) and rs3_val==dnorm(0xff566cef479725bd) | Multiply-Add: Cancellation ---> Subnormal result 
    ? 'fs1 == 0 and fe1 == 0x5fa and fm1 == 0x46206996b12da and fs2 == 0 and fe2 ==
      0x5f7 and fm2 == 0x5a57127f0185f and fs3 == 1 and fe3 == 0x7f2 and fm3 == 0xb936bb49a11fa
      and rm_val == 0  #nosat'
    : 1 #  rs1_val==dnorm(0x5fa46206996b12da) and rs2_val==dnorm(0x5f75a57127f0185f) and rs3_val==dnorm(0xff2b936bb49a11fa) | Multiply-Add: Cancellation ---> Subnormal result 
    ? 'fs1 == 0 and fe1 == 0x5fa and fm1 == 0x7b5477fb4a141 and fs2 == 0 and fe2 ==
      0x5f8 and fm2 == 0x2365849750ca3 and fs3 == 1 and fe3 == 0x7f3 and fm3 == 0xafc7712dbfbf6
      and rm_val == 0  #nosat'
    : 1 #  rs1_val==dnorm(0x5fa7b5477fb4a141) and rs2_val==dnorm(0x5f82365849750ca3) and rs3_val==dnorm(0xff3afc7712dbfbf6) | Multiply-Add: Cancellation ---> Subnormal result 
    ? 'fs1 == 0 and fe1 == 0x5f7 and fm1 == 0x2bdf74439828f and fs2 == 0 and fe2 ==
      0x5f9 and fm2 == 0xae513826524d3 and fs3 == 1 and fe3 == 0x7f1 and fm3 == 0xf81078c317f9f
      and rm_val == 0  #nosat'
    : 1 #  rs1_val==dnorm(0x5f72bdf74439828f) and rs2_val==dnorm(0x5f9ae513826524d3) and rs3_val==dnorm(0xff1f81078c317f9f) | Multiply-Add: Cancellation ---> Subnormal result 
    ? 'fs1 == 0 and fe1 == 0x5f8 and fm1 == 0x0ed09999e8c7f and fs2 == 0 and fe2 ==
      0x5f5 and fm2 == 0x50af5b268139f and fs3 == 1 and fe3 == 0x7ee and fm3 == 0x642b4a9fe4017
      and rm_val == 0  #nosat'
    : 1 #  rs1_val==dnorm(0x5f80ed09999e8c7f) and rs2_val==dnorm(0x5f550af5b268139f) and rs3_val==dnorm(0xfee642b4a9fe4017) | Multiply-Add: Cancellation ---> Subnormal result 
    ? 'fs1 == 0 and fe1 == 0x5f9 and fm1 == 0x2a0b81afacd4f and fs2 == 0 and fe2 ==
      0x5f9 and fm2 == 0xaddc37d4e3971 and fs3 == 1 and fe3 == 0x7f3 and fm3 == 0xf475ab372af59
      and rm_val == 0  #nosat'
    : 1 #  rs1_val==dnorm(0x5f92a0b81afacd4f) and rs2_val==dnorm(0x5f9addc37d4e3971) and rs3_val==dnorm(0xff3f475ab372af59) | Multiply-Add: Cancellation ---> Subnormal result 
    ? 'fs1 == 0 and fe1 == 0x5f9 and fm1 == 0x43790a4111099 and fs2 == 0 and fe2 ==
      0x5f8 and fm2 == 0xf155693c9590b and fs3 == 1 and fe3 == 0x7f3 and fm3 == 0x3a34f488f61ed
      and rm_val == 0  #nosat'
    : 1 #  rs1_val==dnorm(0x5f943790a4111099) and rs2_val==dnorm(0x5f8f155693c9590b) and rs3_val==dnorm(0xff33a34f488f61ed) | Multiply-Add: Cancellation ---> Subnormal result 
    ? 'fs1 == 0 and fe1 == 0x5fa and fm1 == 0xcb9c1949673fd and fs2 == 0 and fe2 ==
      0x5fa and fm2 == 0xe42ff54803ddc and fs3 == 1 and fe3 == 0x7f6 and fm3 == 0xb2a49cea8d5cf
      and rm_val == 0  #nosat'
    : 1 #  rs1_val==dnorm(0x5facb9c1949673fd) and rs2_val==dnorm(0x5fae42ff54803ddc) and rs3_val==dnorm(0xff6b2a49cea8d5cf) | Multiply-Add: Cancellation ---> Subnormal result 
    ? 'fs1 == 0 and fe1 == 0x5f7 and fm1 == 0xa42b6311033e7 and fs2 == 0 and fe2 ==
      0x5fa and fm2 == 0x29651713b2616 and fs3 == 1 and fe3 == 0x7f2 and fm3 == 0xe81c40ed0c5e9
      and rm_val == 0  #nosat'
    : 1 #  rs1_val==dnorm(0x5f7a42b6311033e7) and rs2_val==dnorm(0x5fa29651713b2616) and rs3_val==dnorm(0xff2e81c40ed0c5e9) | Multiply-Add: Cancellation ---> Subnormal result 
    ? 'fs1 == 0 and fe1 == 0x5fa and fm1 == 0x4596be54ed4ed and fs2 == 0 and fe2 ==
      0x5f8 and fm2 == 0x78ecdf97d01e3 and fs3 == 1 and fe3 == 0x7f3 and fm3 == 0xdf62aae3973da
      and rm_val == 0  #nosat'
    : 1 #  rs1_val==dnorm(0x5fa4596be54ed4ed) and rs2_val==dnorm(0x5f878ecdf97d01e3) and rs3_val==dnorm(0xff3df62aae3973da) | Multiply-Add: Cancellation ---> Subnormal result 
    ? 'fs1 == 0 and fe1 == 0x5f9 and fm1 == 0x2ba7b825eeafb and fs2 == 0 and fe2 ==
      0x5fa and fm2 == 0xdfcf16f837dfc and fs3 == 1 and fe3 == 0x7f5 and fm3 == 0x18d09c87eafdb
      and rm_val == 0  #nosat'
    : 1 #  rs1_val==dnorm(0x5f92ba7b825eeafb) and rs2_val==dnorm(0x5fadfcf16f837dfc) and rs3_val==dnorm(0xff518d09c87eafdb) | Multiply-Add: Cancellation ---> Subnormal result 
    ? 'fs1 == 0 and fe1 == 0x5fa and fm1 == 0xeedb9ccd51d70 and fs2 == 0 and fe2 ==
      0x5f9 and fm2 == 0x72ef022ae1b5f and fs3 == 1 and fe3 == 0x7f5 and fm3 == 0x6683b5ec5fc42
      and rm_val == 0  #nosat'
    : 1 #  rs1_val==dnorm(0x5faeedb9ccd51d70) and rs2_val==dnorm(0x5f972ef022ae1b5f) and rs3_val==dnorm(0xff56683b5ec5fc42) | Multiply-Add: Cancellation ---> Subnormal result 
    ? 'fs1 == 0 and fe1 == 0x5f9 and fm1 == 0x60b765da8eb85 and fs2 == 0 and fe2 ==
      0x5fa and fm2 == 0xeb18879086a84 and fs3 == 1 and fe3 == 0x7f5 and fm3 == 0x5250c629c9d02
      and rm_val == 0  #nosat'
    : 1 #  rs1_val==dnorm(0x5f960b765da8eb85) and rs2_val==dnorm(0x5faeb18879086a84) and rs3_val==dnorm(0xff55250c629c9d02) | Multiply-Add: Cancellation ---> Subnormal result 
    ? 'fs1 == 0 and fe1 == 0x5fa and fm1 == 0xb7e5dd8914aef and fs2 == 0 and fe2 ==
      0x5f8 and fm2 == 0x7ef581743c7e7 and fs3 == 1 and fe3 == 0x7f4 and fm3 == 0x49076f0110e5b
      and rm_val == 0  #nosat'
    : 1 #  rs1_val==dnorm(0x5fab7e5dd8914aef) and rs2_val==dnorm(0x5f87ef581743c7e7) and rs3_val==dnorm(0xff449076f0110e5b) | Multiply-Add: Cancellation ---> Subnormal result 
    ? 'fs1 == 0 and fe1 == 0x5f9 and fm1 == 0x79fd40d8406ff and fs2 == 0 and fe2 ==
      0x5f5 and fm2 == 0x93dda7765991f and fs3 == 1 and fe3 == 0x7f0 and fm3 == 0x2a2879fc2e34b
      and rm_val == 0  #nosat'
    : 1 #  rs1_val==dnorm(0x5f979fd40d8406ff) and rs2_val==dnorm(0x5f593dda7765991f) and rs3_val==dnorm(0xff02a2879fc2e34b) | Multiply-Add: Cancellation ---> Subnormal result 
    ? 'fs1 == 0 and fe1 == 0x5fa and fm1 == 0xe063e979a868f and fs2 == 0 and fe2 ==
      0x5f7 and fm2 == 0xf8941b7ef6d0f and fs3 == 1 and fe3 == 0x7f3 and fm3 == 0xd96d5081a3ec6
      and rm_val == 0  #nosat'
    : 1 #  rs1_val==dnorm(0x5fae063e979a868f) and rs2_val==dnorm(0x5f7f8941b7ef6d0f) and rs3_val==dnorm(0xff3d96d5081a3ec6) | Multiply-Add: Cancellation ---> Subnormal result 
    ? 'fs1 == 0 and fe1 == 0x5f8 and fm1 == 0xa9f06400d3d17 and fs2 == 0 and fe2 ==
      0x5f8 and fm2 == 0xa3695ba8b56f7 and fs3 == 1 and fe3 == 0x7f2 and fm3 == 0x5ce9dfe3c31a8
      and rm_val == 0  #nosat'
    : 1 #  rs1_val==dnorm(0x5f8a9f06400d3d17) and rs2_val==dnorm(0x5f8a3695ba8b56f7) and rs3_val==dnorm(0xff25ce9dfe3c31a8) | Multiply-Add: Cancellation ---> Subnormal result 
    ? 'fs1 == 0 and fe1 == 0x5fa and fm1 == 0xa354d897694eb and fs2 == 0 and fe2 ==
      0x5f7 and fm2 == 0x20d71331741df and fs3 == 1 and fe3 == 0x7f2 and fm3 == 0xd91fbf5c8b262
      and rm_val == 0  #nosat'
    : 1 #  rs1_val==dnorm(0x5faa354d897694eb) and rs2_val==dnorm(0x5f720d71331741df) and rs3_val==dnorm(0xff2d91fbf5c8b262) | Multiply-Add: Cancellation ---> Subnormal result 
    ? 'fs1 == 0 and fe1 == 0x5f9 and fm1 == 0x643a0f16c5ad9 and fs2 == 0 and fe2 ==
      0x5f4 and fm2 == 0x46821d48c93bf and fs3 == 1 and fe3 == 0x7ee and fm3 == 0xc656fd72855a3
      and rm_val == 0  #nosat'
    : 1 #  rs1_val==dnorm(0x5f9643a0f16c5ad9) and rs2_val==dnorm(0x5f446821d48c93bf) and rs3_val==dnorm(0xfeec656fd72855a3) | Multiply-Add: Cancellation ---> Subnormal result 
    ? 'fs1 == 0 and fe1 == 0x5f7 and fm1 == 0x2011ca3e25417 and fs2 == 0 and fe2 ==
      0x5f9 and fm2 == 0x6fe019d88c167 and fs3 == 1 and fe3 == 0x7f1 and fm3 == 0x9df5ad95772f2
      and rm_val == 0  #nosat'
    : 1 #  rs1_val==dnorm(0x5f72011ca3e25417) and rs2_val==dnorm(0x5f96fe019d88c167) and rs3_val==dnorm(0xff19df5ad95772f2) | Multiply-Add: Cancellation ---> Subnormal result 
    ? 'fs1 == 0 and fe1 == 0x5fa and fm1 == 0xecab0c14c497e and fs2 == 0 and fe2 ==
      0x5fa and fm2 == 0x71f120502a5e1 and fs3 == 1 and fe3 == 0x7f6 and fm3 == 0x63f94bcffbb5c
      and rm_val == 0  #nosat'
    : 1 #  rs1_val==dnorm(0x5faecab0c14c497e) and rs2_val==dnorm(0x5fa71f120502a5e1) and rs3_val==dnorm(0xff663f94bcffbb5c) | Multiply-Add: Cancellation ---> Subnormal result 
    ? 'fs1 == 0 and fe1 == 0x5fa and fm1 == 0x5f72319ab0728 and fs2 == 0 and fe2 ==
      0x5f5 and fm2 == 0xedb823f91667f and fs3 == 1 and fe3 == 0x7f1 and fm3 == 0x52e5da7e8f4c2
      and rm_val == 0  #nosat'
    : 1 #  rs1_val==dnorm(0x5fa5f72319ab0728) and rs2_val==dnorm(0x5f5edb823f91667f) and rs3_val==dnorm(0xff152e5da7e8f4c2) | Multiply-Add: Cancellation ---> Subnormal result 
    ? 'fs1 == 0 and fe1 == 0x5fa and fm1 == 0x77f3763d1768f and fs2 == 0 and fe2 ==
      0x5f5 and fm2 == 0xf700ae54ab8df and fs3 == 1 and fe3 == 0x7f1 and fm3 == 0x71582eaaed97d
      and rm_val == 0  #nosat'
    : 1 #  rs1_val==dnorm(0x5fa77f3763d1768f) and rs2_val==dnorm(0x5f5f700ae54ab8df) and rs3_val==dnorm(0xff171582eaaed97d) | Multiply-Add: Cancellation ---> Subnormal result 
    ? 'fs1 == 0 and fe1 == 0x5f9 and fm1 == 0xa99dd8880ddad and fs2 == 0 and fe2 ==
      0x5f7 and fm2 == 0x965e42d4900a7 and fs3 == 1 and fe3 == 0x7f2 and fm3 == 0x51ce863caff95
      and rm_val == 0  #nosat'
    : 1 #  rs1_val==dnorm(0x5f9a99dd8880ddad) and rs2_val==dnorm(0x5f7965e42d4900a7) and rs3_val==dnorm(0xff251ce863caff95) | Multiply-Add: Cancellation ---> Subnormal result 
    ? 'fs1 == 0 and fe1 == 0x5fa and fm1 == 0x21cc73db02f94 and fs2 == 0 and fe2 ==
      0x5fa and fm2 == 0xd883cdc560c7e and fs3 == 1 and fe3 == 0x7f6 and fm3 == 0x0b7315159f9c4
      and rm_val == 0  #nosat'
    : 1 #  rs1_val==dnorm(0x5fa21cc73db02f94) and rs2_val==dnorm(0x5fad883cdc560c7e) and rs3_val==dnorm(0xff60b7315159f9c4) | Multiply-Add: Cancellation ---> Subnormal result 
    ? 'fs1 == 0 and fe1 == 0x5f9 and fm1 == 0x38a399f905ab9 and fs2 == 0 and fe2 ==
      0x5f7 and fm2 == 0xd0ab984a97eef and fs3 == 1 and fe3 == 0x7f2 and fm3 == 0x1bbd0b2bb7f03
      and rm_val == 0  #nosat'
    : 1 #  rs1_val==dnorm(0x5f938a399f905ab9) and rs2_val==dnorm(0x5f7d0ab984a97eef) and rs3_val==dnorm(0xff21bbd0b2bb7f03) | Multiply-Add: Cancellation ---> Subnormal result 
    ? 'fs1 == 0 and fe1 == 0x5fa and fm1 == 0x8f0cf46027883 and fs2 == 0 and fe2 ==
      0x5fa and fm2 == 0x65a21c61847d5 and fs3 == 1 and fe3 == 0x7f6 and fm3 == 0x16bce19d14918
      and rm_val == 0  #nosat'
    : 1 #  rs1_val==dnorm(0x5fa8f0cf46027883) and rs2_val==dnorm(0x5fa65a21c61847d5) and rs3_val==dnorm(0xff616bce19d14918) | Multiply-Add: Cancellation ---> Subnormal result 
    ? 'fs1 == 0 and fe1 == 0x5f7 and fm1 == 0x7ee0eb8d7cc7f and fs2 == 0 and fe2 ==
      0x5fa and fm2 == 0xa387a3789eb22 and fs3 == 1 and fe3 == 0x7f3 and fm3 == 0x39ba7f5133cd6
      and rm_val == 0  #nosat'
    : 1 #  rs1_val==dnorm(0x5f77ee0eb8d7cc7f) and rs2_val==dnorm(0x5faa387a3789eb22) and rs3_val==dnorm(0xff339ba7f5133cd6) | Multiply-Add: Cancellation ---> Subnormal result 
    ? 'fs1 == 0 and fe1 == 0x5fa and fm1 == 0x5540f3246eb3d and fs2 == 0 and fe2 ==
      0x5fa and fm2 == 0x24c28db80e5f8 and fs3 == 1 and fe3 == 0x7f5 and fm3 == 0x86416d77efa3b
      and rm_val == 0  #nosat'
    : 1 #  rs1_val==dnorm(0x5fa5540f3246eb3d) and rs2_val==dnorm(0x5fa24c28db80e5f8) and rs3_val==dnorm(0xff586416d77efa3b) | Multiply-Add: Cancellation ---> Subnormal result 
    ? 'fs1 == 0 and fe1 == 0x5f9 and fm1 == 0xf1d543a0b07fb and fs2 == 0 and fe2 ==
      0x5fa and fm2 == 0xcd593b01b4bb4 and fs3 == 1 and fe3 == 0x7f5 and fm3 == 0xc09548562c4a5
      and rm_val == 0  #nosat'
    : 1 #  rs1_val==dnorm(0x5f9f1d543a0b07fb) and rs2_val==dnorm(0x5facd593b01b4bb4) and rs3_val==dnorm(0xff5c09548562c4a5) | Multiply-Add: Cancellation ---> Subnormal result 
    ? 'fs1 == 0 and fe1 == 0x5f7 and fm1 == 0x349747e9ba0b7 and fs2 == 0 and fe2 ==
      0x5f6 and fm2 == 0x6db2c39b92e2f and fs3 == 1 and fe3 == 0x7ee and fm3 == 0xb8d32e8303351
      and rm_val == 0  #nosat'
    : 1 #  rs1_val==dnorm(0x5f7349747e9ba0b7) and rs2_val==dnorm(0x5f66db2c39b92e2f) and rs3_val==dnorm(0xfeeb8d32e8303351) | Multiply-Add: Cancellation ---> Subnormal result 
    ? 'fs1 == 0 and fe1 == 0x5fa and fm1 == 0x8363338c30c8b and fs2 == 0 and fe2 ==
      0x5f9 and fm2 == 0xd266ca2da38e1 and fs3 == 1 and fe3 == 0x7f5 and fm3 == 0x60e30fa688a25
      and rm_val == 0  #nosat'
    : 1 #  rs1_val==dnorm(0x5fa8363338c30c8b) and rs2_val==dnorm(0x5f9d266ca2da38e1) and rs3_val==dnorm(0xff560e30fa688a25) | Multiply-Add: Cancellation ---> Subnormal result 
    ? 'fs1 == 0 and fe1 == 0x5f8 and fm1 == 0x83554309c673f and fs2 == 0 and fe2 ==
      0x5fa and fm2 == 0x9071429916f5c and fs3 == 1 and fe3 == 0x7f4 and fm3 == 0x2ef04b12bcb04
      and rm_val == 0  #nosat'
    : 1 #  rs1_val==dnorm(0x5f883554309c673f) and rs2_val==dnorm(0x5fa9071429916f5c) and rs3_val==dnorm(0xff42ef04b12bcb04) | Multiply-Add: Cancellation ---> Subnormal result 
    ? 'fs1 == 0 and fe1 == 0x5fa and fm1 == 0x9ed93307c783a and fs2 == 0 and fe2 ==
      0x5fa and fm2 == 0x09bb537711521 and fs3 == 1 and fe3 == 0x7f5 and fm3 == 0xae9e65bcb2c9a
      and rm_val == 0  #nosat'
    : 1 #  rs1_val==dnorm(0x5fa9ed93307c783a) and rs2_val==dnorm(0x5fa09bb537711521) and rs3_val==dnorm(0xff5ae9e65bcb2c9a) | Multiply-Add: Cancellation ---> Subnormal result 
    ? 'fs1 == 0 and fe1 == 0x5fa and fm1 == 0xd572442fbaed2 and fs2 == 0 and fe2 ==
      0x5fa and fm2 == 0xbebcdefd48729 and fs3 == 1 and fe3 == 0x7f6 and fm3 == 0x999bb5cf644fb
      and rm_val == 0  #nosat'
    : 1 #  rs1_val==dnorm(0x5fad572442fbaed2) and rs2_val==dnorm(0x5fabebcdefd48729) and rs3_val==dnorm(0xff6999bb5cf644fb) | Multiply-Add: Cancellation ---> Subnormal result 
    ? 'fs1 == 0 and fe1 == 0x5f8 and fm1 == 0x0451c9f55e3a7 and fs2 == 0 and fe2 ==
      0x5fa and fm2 == 0xd2d54358cf2fc and fs3 == 1 and fe3 == 0x7f3 and fm3 == 0xdab5be2965552
      and rm_val == 0  #nosat'
    : 1 #  rs1_val==dnorm(0x5f80451c9f55e3a7) and rs2_val==dnorm(0x5fad2d54358cf2fc) and rs3_val==dnorm(0xff3dab5be2965552) | Multiply-Add: Cancellation ---> Subnormal result 
    ? 'fs1 == 0 and fe1 == 0x5fa and fm1 == 0x5d7485adabe61 and fs2 == 0 and fe2 ==
      0x5fa and fm2 == 0x3e7bb112f7fe8 and fs3 == 1 and fe3 == 0x7f5 and fm3 == 0xb2bf96c16b1eb
      and rm_val == 0  #nosat'
    : 1 #  rs1_val==dnorm(0x5fa5d7485adabe61) and rs2_val==dnorm(0x5fa3e7bb112f7fe8) and rs3_val==dnorm(0xff5b2bf96c16b1eb) | Multiply-Add: Cancellation ---> Subnormal result 
    ? 'fs1 == 0 and fe1 == 0x5fa and fm1 == 0x43be7b7bc5458 and fs2 == 0 and fe2 ==
      0x5f9 and fm2 == 0x59f961d342ac1 and fs3 == 1 and fe3 == 0x7f4 and fm3 == 0xb58714663f57f
      and rm_val == 0  #nosat'
    : 1 #  rs1_val==dnorm(0x5fa43be7b7bc5458) and rs2_val==dnorm(0x5f959f961d342ac1) and rs3_val==dnorm(0xff4b58714663f57f) | Multiply-Add: Cancellation ---> Subnormal result 
    ? 'fs1 == 0 and fe1 == 0x5fa and fm1 == 0xc336b043d9acb and fs2 == 0 and fe2 ==
      0x5fa and fm2 == 0x38619d6cda314 and fs3 == 1 and fe3 == 0x7f6 and fm3 == 0x134b5a01f05fa
      and rm_val == 0  #nosat'
    : 1 #  rs1_val==dnorm(0x5fac336b043d9acb) and rs2_val==dnorm(0x5fa38619d6cda314) and rs3_val==dnorm(0xff6134b5a01f05fa) | Multiply-Add: Cancellation ---> Subnormal result 
    ? 'fs1 == 0 and fe1 == 0x5f9 and fm1 == 0x889db2e44701b and fs2 == 0 and fe2 ==
      0x5fa and fm2 == 0x8d86e8b1c1eba and fs3 == 1 and fe3 == 0x7f5 and fm3 == 0x30d5baeb97155
      and rm_val == 0  #nosat'
    : 1 #  rs1_val==dnorm(0x5f9889db2e44701b) and rs2_val==dnorm(0x5fa8d86e8b1c1eba) and rs3_val==dnorm(0xff530d5baeb97155) | Multiply-Add: Cancellation ---> Subnormal result 
    ? 'fs1 == 0 and fe1 == 0x5f7 and fm1 == 0xaf47876670d7f and fs2 == 0 and fe2 ==
      0x5fa and fm2 == 0x19295f298916c and fs3 == 1 and fe3 == 0x7f2 and fm3 == 0xd9ab3665a5ec6
      and rm_val == 0  #nosat'
    : 1 #  rs1_val==dnorm(0x5f7af47876670d7f) and rs2_val==dnorm(0x5fa19295f298916c) and rs3_val==dnorm(0xff2d9ab3665a5ec6) | Multiply-Add: Cancellation ---> Subnormal result 
    ? 'fs1 == 0 and fe1 == 0x5f6 and fm1 == 0x09f50264a8d1f and fs2 == 0 and fe2 ==
      0x5fa and fm2 == 0x3c1be8887e304 and fs3 == 1 and fe3 == 0x7f1 and fm3 == 0x48676d5f586e3
      and rm_val == 0  #nosat'
    : 1 #  rs1_val==dnorm(0x5f609f50264a8d1f) and rs2_val==dnorm(0x5fa3c1be8887e304) and rs3_val==dnorm(0xff148676d5f586e3) | Multiply-Add: Cancellation ---> Subnormal result 
    ? 'fs1 == 0 and fe1 == 0x5f6 and fm1 == 0x814b2c67ea80f and fs2 == 0 and fe2 ==
      0x5f9 and fm2 == 0xe230c7e39a5d7 and fs3 == 1 and fe3 == 0x7f1 and fm3 == 0x6adc7a45fc41e
      and rm_val == 0  #nosat'
    : 1 #  rs1_val==dnorm(0x5f6814b2c67ea80f) and rs2_val==dnorm(0x5f9e230c7e39a5d7) and rs3_val==dnorm(0xff16adc7a45fc41e) | Multiply-Add: Cancellation ---> Subnormal result 
    ? 'fs1 == 0 and fe1 == 0x5f9 and fm1 == 0xa501ef8480c55 and fs2 == 0 and fe2 ==
      0x5fa and fm2 == 0x393a07ddd783a and fs3 == 1 and fe3 == 0x7f5 and fm3 == 0x018f669c940df
      and rm_val == 0  #nosat'
    : 1 #  rs1_val==dnorm(0x5f9a501ef8480c55) and rs2_val==dnorm(0x5fa393a07ddd783a) and rs3_val==dnorm(0xff5018f669c940df) | Multiply-Add: Cancellation ---> Subnormal result 
    ? 'fs1 == 0 and fe1 == 0x5fa and fm1 == 0x58dabbecb7711 and fs2 == 0 and fe2 ==
      0x5f8 and fm2 == 0x360373cf6f10f and fs3 == 1 and fe3 == 0x7f3 and fm3 == 0xa19d86228ad00
      and rm_val == 0  #nosat'
    : 1 #  rs1_val==dnorm(0x5fa58dabbecb7711) and rs2_val==dnorm(0x5f8360373cf6f10f) and rs3_val==dnorm(0xff3a19d86228ad00) | Multiply-Add: Cancellation ---> Subnormal result 
    ? 'fs1 == 0 and fe1 == 0x5f9 and fm1 == 0xf7a288f1ea41f and fs2 == 0 and fe2 ==
      0x5fa and fm2 == 0xba05c226869f4 and fs3 == 1 and fe3 == 0x7f5 and fm3 == 0xb2ccfa49a8f7c
      and rm_val == 0  #nosat'
    : 1 #  rs1_val==dnorm(0x5f9f7a288f1ea41f) and rs2_val==dnorm(0x5faba05c226869f4) and rs3_val==dnorm(0xff5b2ccfa49a8f7c) | Multiply-Add: Cancellation ---> Subnormal result 
    ? 'fs1 == 0 and fe1 == 0x5f6 and fm1 == 0xc6e0a7c4777ef and fs2 == 0 and fe2 ==
      0x5f6 and fm2 == 0x265eb5ece1e0f and fs3 == 1 and fe3 == 0x7ee and fm3 == 0x058725357d39b
      and rm_val == 0  #nosat'
    : 1 #  rs1_val==dnorm(0x5f6c6e0a7c4777ef) and rs2_val==dnorm(0x5f6265eb5ece1e0f) and rs3_val==dnorm(0xfee058725357d39b) | Multiply-Add: Cancellation ---> Subnormal result 
    ? 'fs1 == 0 and fe1 == 0x5f8 and fm1 == 0x04c0c63d2bf03 and fs2 == 0 and fe2 ==
      0x5f9 and fm2 == 0x25fa7c5d5ea39 and fs3 == 1 and fe3 == 0x7f2 and fm3 == 0x2b6fc5d21579d
      and rm_val == 0  #nosat'
    : 1 #  rs1_val==dnorm(0x5f804c0c63d2bf03) and rs2_val==dnorm(0x5f925fa7c5d5ea39) and rs3_val==dnorm(0xff22b6fc5d21579d) | Multiply-Add: Cancellation ---> Subnormal result 
    ? 'fs1 == 0 and fe1 == 0x5fa and fm1 == 0x9ebd3d588e341 and fs2 == 0 and fe2 ==
      0x5f6 and fm2 == 0xfe0614a7b9fbf and fs3 == 1 and fe3 == 0x7f2 and fm3 == 0x9d236d0e2f75f
      and rm_val == 0  #nosat'
    : 1 #  rs1_val==dnorm(0x5fa9ebd3d588e341) and rs2_val==dnorm(0x5f6fe0614a7b9fbf) and rs3_val==dnorm(0xff29d236d0e2f75f) | Multiply-Add: Cancellation ---> Subnormal result 
    ? 'fs1 == 0 and fe1 == 0x5fa and fm1 == 0xe2c9f3b4cd220 and fs2 == 0 and fe2 ==
      0x5f9 and fm2 == 0x36127b62e0a11 and fs3 == 1 and fe3 == 0x7f5 and fm3 == 0x2461b400ca12a
      and rm_val == 0  #nosat'
    : 1 #  rs1_val==dnorm(0x5fae2c9f3b4cd220) and rs2_val==dnorm(0x5f936127b62e0a11) and rs3_val==dnorm(0xff52461b400ca12a) | Multiply-Add: Cancellation ---> Subnormal result 
    ? 'fs1 == 0 and fe1 == 0x5f9 and fm1 == 0x0491012a9572d and fs2 == 0 and fe2 ==
      0x5f7 and fm2 == 0x0cc870fcad57f and fs3 == 1 and fe3 == 0x7f1 and fm3 == 0x1193d1821d684
      and rm_val == 0  #nosat'
    : 1 #  rs1_val==dnorm(0x5f90491012a9572d) and rs2_val==dnorm(0x5f70cc870fcad57f) and rs3_val==dnorm(0xff11193d1821d684) | Multiply-Add: Cancellation ---> Subnormal result 
    ? 'fs1 == 0 and fe1 == 0x5ee and fm1 == 0xf8c6f685f5fff and fs2 == 0 and fe2 ==
      0x5f8 and fm2 == 0x74ac1f4d6cd77 and fs3 == 1 and fe3 == 0x7e8 and fm3 == 0x6f6a40d086e42
      and rm_val == 0  #nosat'
    : 1 #  rs1_val==dnorm(0x5eef8c6f685f5fff) and rs2_val==dnorm(0x5f874ac1f4d6cd77) and rs3_val==dnorm(0xfe86f6a40d086e42) | Multiply-Add: Cancellation ---> Subnormal result 
    ? 'fs1 == 0 and fe1 == 0x5fa and fm1 == 0xb3dfc53758807 and fs2 == 0 and fe2 ==
      0x5fa and fm2 == 0x989b40414f92c and fs3 == 1 and fe3 == 0x7f6 and fm3 == 0x5bda7c19e1151
      and rm_val == 0  #nosat'
    : 1 #  rs1_val==dnorm(0x5fab3dfc53758807) and rs2_val==dnorm(0x5fa989b40414f92c) and rs3_val==dnorm(0xff65bda7c19e1151) | Multiply-Add: Cancellation ---> Subnormal result 
    ? 'fs1 == 0 and fe1 == 0x5fa and fm1 == 0x950338fe39141 and fs2 == 0 and fe2 ==
      0x5f9 and fm2 == 0x8de500cdc0435 and fs3 == 1 and fe3 == 0x7f5 and fm3 == 0x3ac02644ded76
      and rm_val == 0  #nosat'
    : 1 #  rs1_val==dnorm(0x5fa950338fe39141) and rs2_val==dnorm(0x5f98de500cdc0435) and rs3_val==dnorm(0xff53ac02644ded76) | Multiply-Add: Cancellation ---> Subnormal result 
    ? 'fs1 == 0 and fe1 == 0x5fa and fm1 == 0x327d919abde6a and fs2 == 0 and fe2 ==
      0x5fa and fm2 == 0xa6c1b4fe3e3c0 and fs3 == 1 and fe3 == 0x7f5 and fm3 == 0xfa22e760882ce
      and rm_val == 0  #nosat'
    : 1 #  rs1_val==dnorm(0x5fa327d919abde6a) and rs2_val==dnorm(0x5faa6c1b4fe3e3c0) and rs3_val==dnorm(0xff5fa22e760882ce) | Multiply-Add: Cancellation ---> Subnormal result 
    ? 'fs1 == 0 and fe1 == 0x5fa and fm1 == 0xcfc27db04baa5 and fs2 == 0 and fe2 ==
      0x5f8 and fm2 == 0xa61a4a4a276db and fs3 == 1 and fe3 == 0x7f4 and fm3 == 0x7e551dc2f74e8
      and rm_val == 0  #nosat'
    : 1 #  rs1_val==dnorm(0x5facfc27db04baa5) and rs2_val==dnorm(0x5f8a61a4a4a276db) and rs3_val==dnorm(0xff47e551dc2f74e8) | Multiply-Add: Cancellation ---> Subnormal result 
    ? 'fs1 == 0 and fe1 == 0x5fa and fm1 == 0x840470e668bb1 and fs2 == 0 and fe2 ==
      0x5fa and fm2 == 0xfb271584e30d0 and fs3 == 1 and fe3 == 0x7f6 and fm3 == 0x80580471a61a9
      and rm_val == 0  #nosat'
    : 1 #  rs1_val==dnorm(0x5fa840470e668bb1) and rs2_val==dnorm(0x5fafb271584e30d0) and rs3_val==dnorm(0xff680580471a61a9) | Multiply-Add: Cancellation ---> Subnormal result 
    ? 'fs1 == 0 and fe1 == 0x5fa and fm1 == 0x25d29d05cd288 and fs2 == 0 and fe2 ==
      0x5fa and fm2 == 0x5b6db472d3462 and fs3 == 1 and fe3 == 0x7f5 and fm3 == 0x8ec2649f993d5
      and rm_val == 0  #nosat'
    : 1 #  rs1_val==dnorm(0x5fa25d29d05cd288) and rs2_val==dnorm(0x5fa5b6db472d3462) and rs3_val==dnorm(0xff58ec2649f993d5) | Multiply-Add: Cancellation ---> Subnormal result 
    ? 'fs1 == 0 and fe1 == 0x5fa and fm1 == 0x028f51d8767f7 and fs2 == 0 and fe2 ==
      0x5fa and fm2 == 0xcd5bbb21e85e5 and fs3 == 1 and fe3 == 0x7f5 and fm3 == 0xd1f8bc55d5497
      and rm_val == 0  #nosat'
    : 1 #  rs1_val==dnorm(0x5fa028f51d8767f7) and rs2_val==dnorm(0x5facd5bbb21e85e5) and rs3_val==dnorm(0xff5d1f8bc55d5497) | Multiply-Add: Cancellation ---> Subnormal result 
    ? 'fs1 == 0 and fe1 == 0x5f8 and fm1 == 0x30c845de62d3f and fs2 == 0 and fe2 ==
      0x5fa and fm2 == 0x4fea329d7caef and fs3 == 1 and fe3 == 0x7f3 and fm3 == 0x8fece6c07d834
      and rm_val == 0  #nosat'
    : 1 #  rs1_val==dnorm(0x5f830c845de62d3f) and rs2_val==dnorm(0x5fa4fea329d7caef) and rs3_val==dnorm(0xff38fece6c07d834) | Multiply-Add: Cancellation ---> Subnormal result 
    ? 'fs1 == 0 and fe1 == 0x5fa and fm1 == 0xb01ad41cb5aef and fs2 == 0 and fe2 ==
      0x5f9 and fm2 == 0x5287546e52d99 and fs3 == 1 and fe3 == 0x7f5 and fm3 == 0x1db3ec5b63fe9
      and rm_val == 0  #nosat'
    : 1 #  rs1_val==dnorm(0x5fab01ad41cb5aef) and rs2_val==dnorm(0x5f95287546e52d99) and rs3_val==dnorm(0xff51db3ec5b63fe9) | Multiply-Add: Cancellation ---> Subnormal result 
    ? 'fs1 == 0 and fe1 == 0x5f8 and fm1 == 0xccfc542168107 and fs2 == 0 and fe2 ==
      0x5f6 and fm2 == 0x4cdb8933a8b6f and fs3 == 1 and fe3 == 0x7f0 and fm3 == 0x2bb14803ad518
      and rm_val == 0  #nosat'
    : 1 #  rs1_val==dnorm(0x5f8ccfc542168107) and rs2_val==dnorm(0x5f64cdb8933a8b6f) and rs3_val==dnorm(0xff02bb14803ad518) | Multiply-Add: Cancellation ---> Subnormal result 
    ? 'fs1 == 0 and fe1 == 0x5f7 and fm1 == 0x5ab2c30876547 and fs2 == 0 and fe2 ==
      0x5fa and fm2 == 0xbcdfd8ba97c91 and fs3 == 1 and fe3 == 0x7f3 and fm3 == 0x2d3e98bf0ccd1
      and rm_val == 0  #nosat'
    : 1 #  rs1_val==dnorm(0x5f75ab2c30876547) and rs2_val==dnorm(0x5fabcdfd8ba97c91) and rs3_val==dnorm(0xff32d3e98bf0ccd1) | Multiply-Add: Cancellation ---> Subnormal result 
    ? 'fs1 == 0 and fe1 == 0x5fa and fm1 == 0x6faef3ad3537e and fs2 == 0 and fe2 ==
      0x5fa and fm2 == 0x9d365cde1b8c2 and fs3 == 1 and fe3 == 0x7f6 and fm3 == 0x28bda9b3db1f5
      and rm_val == 0  #nosat'
    : 1 #  rs1_val==dnorm(0x5fa6faef3ad3537e) and rs2_val==dnorm(0x5fa9d365cde1b8c2) and rs3_val==dnorm(0xff628bda9b3db1f5) | Multiply-Add: Cancellation ---> Subnormal result 
    ? 'fs1 == 0 and fe1 == 0x5fa and fm1 == 0x917e47c9fa5a6 and fs2 == 0 and fe2 ==
      0x5fa and fm2 == 0xaf465058419e9 and fs3 == 1 and fe3 == 0x7f6 and fm3 == 0x5230f0b3473d1
      and rm_val == 0  #nosat'
    : 1 #  rs1_val==dnorm(0x5fa917e47c9fa5a6) and rs2_val==dnorm(0x5faaf465058419e9) and rs3_val==dnorm(0xff65230f0b3473d1) | Multiply-Add: Cancellation ---> Subnormal result 
    ? 'fs1 == 0 and fe1 == 0x5f6 and fm1 == 0x228e5619b5bff and fs2 == 0 and fe2 ==
      0x5f8 and fm2 == 0x2fdaf9dfde227 and fs3 == 1 and fe3 == 0x7ef and fm3 == 0x58df00b847dd8
      and rm_val == 0  #nosat'
    : 1 #  rs1_val==dnorm(0x5f6228e5619b5bff) and rs2_val==dnorm(0x5f82fdaf9dfde227) and rs3_val==dnorm(0xfef58df00b847dd8) | Multiply-Add: Cancellation ---> Subnormal result 
    ? 'fs1 == 0 and fe1 == 0x5fa and fm1 == 0xecd582efcf7c1 and fs2 == 0 and fe2 ==
      0x5fa and fm2 == 0xcc4ac8145e5cc and fs3 == 1 and fe3 == 0x7f6 and fm3 == 0xbb0fcf166363b
      and rm_val == 0  #nosat'
    : 1 #  rs1_val==dnorm(0x5faecd582efcf7c1) and rs2_val==dnorm(0x5facc4ac8145e5cc) and rs3_val==dnorm(0xff6bb0fcf166363b) | Multiply-Add: Cancellation ---> Subnormal result 
    ? 'fs1 == 0 and fe1 == 0x5fa and fm1 == 0x3833da7b9aa37 and fs2 == 0 and fe2 ==
      0x5f8 and fm2 == 0xc00c1c027c00f and fs3 == 1 and fe3 == 0x7f4 and fm3 == 0x1134c1779ff86
      and rm_val == 0  #nosat'
    : 1 #  rs1_val==dnorm(0x5fa3833da7b9aa37) and rs2_val==dnorm(0x5f8c00c1c027c00f) and rs3_val==dnorm(0xff41134c1779ff86) | Multiply-Add: Cancellation ---> Subnormal result 
    ? 'fs1 == 0 and fe1 == 0x5f9 and fm1 == 0xfe9d365149cd7 and fs2 == 0 and fe2 ==
      0x5fa and fm2 == 0x57132c37fb117 and fs3 == 1 and fe3 == 0x7f5 and fm3 == 0x562570d24fe72
      and rm_val == 0  #nosat'
    : 1 #  rs1_val==dnorm(0x5f9fe9d365149cd7) and rs2_val==dnorm(0x5fa57132c37fb117) and rs3_val==dnorm(0xff5562570d24fe72) | Multiply-Add: Cancellation ---> Subnormal result 
    ? 'fs1 == 0 and fe1 == 0x5fa and fm1 == 0xd5872438d16b0 and fs2 == 0 and fe2 ==
      0x5f9 and fm2 == 0x4a33096ab139b and fs3 == 1 and fe3 == 0x7f5 and fm3 == 0x2ecee7f172467
      and rm_val == 0  #nosat'
    : 1 #  rs1_val==dnorm(0x5fad5872438d16b0) and rs2_val==dnorm(0x5f94a33096ab139b) and rs3_val==dnorm(0xff52ecee7f172467) | Multiply-Add: Cancellation ---> Subnormal result 
    ? 'fs1 == 0 and fe1 == 0x5fa and fm1 == 0x5c1fb79b16587 and fs2 == 0 and fe2 ==
      0x5fa and fm2 == 0xc15c34215bcf5 and fs3 == 1 and fe3 == 0x7f6 and fm3 == 0x318881a866144
      and rm_val == 0  #nosat'
    : 1 #  rs1_val==dnorm(0x5fa5c1fb79b16587) and rs2_val==dnorm(0x5fac15c34215bcf5) and rs3_val==dnorm(0xff6318881a866144) | Multiply-Add: Cancellation ---> Subnormal result 
    ? 'fs1 == 0 and fe1 == 0x5fa and fm1 == 0xf74a5c9f39c6c and fs2 == 0 and fe2 ==
      0x5f8 and fm2 == 0x2fed65905c04f and fs3 == 1 and fe3 == 0x7f4 and fm3 == 0x2ac1dd922d091
      and rm_val == 0  #nosat'
    : 1 #  rs1_val==dnorm(0x5faf74a5c9f39c6c) and rs2_val==dnorm(0x5f82fed65905c04f) and rs3_val==dnorm(0xff42ac1dd922d091) | Multiply-Add: Cancellation ---> Subnormal result 
    ? 'fs1 == 0 and fe1 == 0x5fa and fm1 == 0x17c09874ed591 and fs2 == 0 and fe2 ==
      0x5f8 and fm2 == 0x35eecb1ad0a6b and fs3 == 1 and fe3 == 0x7f3 and fm3 == 0x52b06b05e5a80
      and rm_val == 0  #nosat'
    : 1 #  rs1_val==dnorm(0x5fa17c09874ed591) and rs2_val==dnorm(0x5f835eecb1ad0a6b) and rs3_val==dnorm(0xff352b06b05e5a80) | Multiply-Add: Cancellation ---> Subnormal result 
    ? 'fs1 == 0 and fe1 == 0x5f8 and fm1 == 0x2bbbe71ac902b and fs2 == 0 and fe2 ==
      0x5f8 and fm2 == 0x957151755a3ab and fs3 == 1 and fe3 == 0x7f1 and fm3 == 0xdab4f1ee3d78e
      and rm_val == 0  #nosat'
    : 1 #  rs1_val==dnorm(0x5f82bbbe71ac902b) and rs2_val==dnorm(0x5f8957151755a3ab) and rs3_val==dnorm(0xff1dab4f1ee3d78e) | Multiply-Add: Cancellation ---> Subnormal result 
    ? 'fs1 == 0 and fe1 == 0x5f6 and fm1 == 0x58e517fcf82df and fs2 == 0 and fe2 ==
      0x5fa and fm2 == 0xe55b30b309254 and fs3 == 1 and fe3 == 0x7f2 and fm3 == 0x46f270bef90e6
      and rm_val == 0  #nosat'
    : 1 #  rs1_val==dnorm(0x5f658e517fcf82df) and rs2_val==dnorm(0x5fae55b30b309254) and rs3_val==dnorm(0xff246f270bef90e6) | Multiply-Add: Cancellation ---> Subnormal result 
    ? 'fs1 == 0 and fe1 == 0x5f7 and fm1 == 0xe70e78fe823f7 and fs2 == 0 and fe2 ==
      0x5f9 and fm2 == 0x97812620d4535 and fs3 == 1 and fe3 == 0x7f2 and fm3 == 0x83a6dc991a86f
      and rm_val == 0  #nosat'
    : 1 #  rs1_val==dnorm(0x5f7e70e78fe823f7) and rs2_val==dnorm(0x5f997812620d4535) and rs3_val==dnorm(0xff283a6dc991a86f) | Multiply-Add: Cancellation ---> Subnormal result 
    ? 'fs1 == 0 and fe1 == 0x5fa and fm1 == 0xce576b61a6f6e and fs2 == 0 and fe2 ==
      0x5f9 and fm2 == 0xce7352604fe6b and fs3 == 1 and fe3 == 0x7f5 and fm3 == 0xa19904eab4d55
      and rm_val == 0  #nosat'
    : 1 #  rs1_val==dnorm(0x5face576b61a6f6e) and rs2_val==dnorm(0x5f9ce7352604fe6b) and rs3_val==dnorm(0xff5a19904eab4d55) | Multiply-Add: Cancellation ---> Subnormal result 
    ? 'fs1 == 0 and fe1 == 0x5f7 and fm1 == 0x058fe9a4daa6f and fs2 == 0 and fe2 ==
      0x5fa and fm2 == 0xba2704f6953c8 and fs3 == 1 and fe3 == 0x7f2 and fm3 == 0xc3c257656a0d3
      and rm_val == 0  #nosat'
    : 1 #  rs1_val==dnorm(0x5f7058fe9a4daa6f) and rs2_val==dnorm(0x5faba2704f6953c8) and rs3_val==dnorm(0xff2c3c257656a0d3) | Multiply-Add: Cancellation ---> Subnormal result 
    ? 'fs1 == 0 and fe1 == 0x5fa and fm1 == 0x8de0124aa943c and fs2 == 0 and fe2 ==
      0x5f9 and fm2 == 0xb992011891a75 and fs3 == 1 and fe3 == 0x7f5 and fm3 == 0x5724f5808dcf2
      and rm_val == 0  #nosat'
    : 1 #  rs1_val==dnorm(0x5fa8de0124aa943c) and rs2_val==dnorm(0x5f9b992011891a75) and rs3_val==dnorm(0xff55724f5808dcf2) | Multiply-Add: Cancellation ---> Subnormal result 
    ? 'fs1 == 0 and fe1 == 0x5f9 and fm1 == 0x792be19c2d7a1 and fs2 == 0 and fe2 ==
      0x5fa and fm2 == 0xfa174e3ff15ce and fs3 == 1 and fe3 == 0x7f5 and fm3 == 0x74d18914c5885
      and rm_val == 0  #nosat'
    : 1 #  rs1_val==dnorm(0x5f9792be19c2d7a1) and rs2_val==dnorm(0x5fafa174e3ff15ce) and rs3_val==dnorm(0xff574d18914c5885) | Multiply-Add: Cancellation ---> Subnormal result 
    ? 'fs1 == 0 and fe1 == 0x5fa and fm1 == 0x2b76882db8d56 and fs2 == 0 and fe2 ==
      0x5fa and fm2 == 0x5bcd8bcde77b5 and fs3 == 1 and fe3 == 0x7f5 and fm3 == 0x96da1c0b3eca5
      and rm_val == 0  #nosat'
    : 1 #  rs1_val==dnorm(0x5fa2b76882db8d56) and rs2_val==dnorm(0x5fa5bcd8bcde77b5) and rs3_val==dnorm(0xff596da1c0b3eca5) | Multiply-Add: Cancellation ---> Subnormal result 
    ? 'fs1 == 0 and fe1 == 0x5fa and fm1 == 0x09badb528c6c8 and fs2 == 0 and fe2 ==
      0x5f9 and fm2 == 0xcb4f3175c7901 and fs3 == 1 and fe3 == 0x7f4 and fm3 == 0xdcc43b3db5c6b
      and rm_val == 0  #nosat'
    : 1 #  rs1_val==dnorm(0x5fa09badb528c6c8) and rs2_val==dnorm(0x5f9cb4f3175c7901) and rs3_val==dnorm(0xff4dcc43b3db5c6b) | Multiply-Add: Cancellation ---> Subnormal result 
    ? 'fs1 == 0 and fe1 == 0x5f6 and fm1 == 0xf4fdc18a0c20f and fs2 == 0 and fe2 ==
      0x5f4 and fm2 == 0x01430191b8abf and fs3 == 1 and fe3 == 0x7eb and fm3 == 0xf775e0c768314
      and rm_val == 0  #nosat'
    : 1 #  rs1_val==dnorm(0x5f6f4fdc18a0c20f) and rs2_val==dnorm(0x5f401430191b8abf) and rs3_val==dnorm(0xfebf775e0c768314) | Multiply-Add: Cancellation ---> Subnormal result 
    ? 'fs1 == 0 and fe1 == 0x5f7 and fm1 == 0x0da8a99d945d7 and fs2 == 0 and fe2 ==
      0x5f7 and fm2 == 0x5ace7a656588f and fs3 == 1 and fe3 == 0x7ef and fm3 == 0x6d4f73e4a6a78
      and rm_val == 0  #nosat'
    : 1 #  rs1_val==dnorm(0x5f70da8a99d945d7) and rs2_val==dnorm(0x5f75ace7a656588f) and rs3_val==dnorm(0xfef6d4f73e4a6a78) | Multiply-Add: Cancellation ---> Subnormal result 
    ? 'fs1 == 0 and fe1 == 0x5f9 and fm1 == 0x8095c6672ee3f and fs2 == 0 and fe2 ==
      0x5fa and fm2 == 0xf2f998bf74bb4 and fs3 == 1 and fe3 == 0x7f5 and fm3 == 0x76cd298da03ec
      and rm_val == 0  #nosat'
    : 1 #  rs1_val==dnorm(0x5f98095c6672ee3f) and rs2_val==dnorm(0x5faf2f998bf74bb4) and rs3_val==dnorm(0xff576cd298da03ec) | Multiply-Add: Cancellation ---> Subnormal result 
    ? 'fs1 == 0 and fe1 == 0x5fa and fm1 == 0xc9eec489f6667 and fs2 == 0 and fe2 ==
      0x5fa and fm2 == 0xd6e174caa8db2 and fs3 == 1 and fe3 == 0x7f6 and fm3 == 0xa527d44d5e91f
      and rm_val == 0  #nosat'
    : 1 #  rs1_val==dnorm(0x5fac9eec489f6667) and rs2_val==dnorm(0x5fad6e174caa8db2) and rs3_val==dnorm(0xff6a527d44d5e91f) | Multiply-Add: Cancellation ---> Subnormal result 
    ? 'fs1 == 0 and fe1 == 0x5f9 and fm1 == 0xb4c5ad04d76dd and fs2 == 0 and fe2 ==
      0x5f9 and fm2 == 0x3526172ae3f6b and fs3 == 1 and fe3 == 0x7f4 and fm3 == 0x07b9cb5abb54c
      and rm_val == 0  #nosat'
    : 1 #  rs1_val==dnorm(0x5f9b4c5ad04d76dd) and rs2_val==dnorm(0x5f93526172ae3f6b) and rs3_val==dnorm(0xff407b9cb5abb54c) | Multiply-Add: Cancellation ---> Subnormal result 
    ? 'fs1 == 0 and fe1 == 0x5f9 and fm1 == 0x5fe6340fe9dff and fs2 == 0 and fe2 ==
      0x5f9 and fm2 == 0xea95a80ed95a1 and fs3 == 1 and fe3 == 0x7f4 and fm3 == 0x512e2bd31f388
      and rm_val == 0  #nosat'
    : 1 #  rs1_val==dnorm(0x5f95fe6340fe9dff) and rs2_val==dnorm(0x5f9ea95a80ed95a1) and rs3_val==dnorm(0xff4512e2bd31f388) | Multiply-Add: Cancellation ---> Subnormal result 
    ? 'fs1 == 0 and fe1 == 0x5f9 and fm1 == 0xe56179ab25747 and fs2 == 0 and fe2 ==
      0x5fa and fm2 == 0xae83ac33105f8 and fs3 == 1 and fe3 == 0x7f5 and fm3 == 0x9821b0de85599
      and rm_val == 0  #nosat'
    : 1 #  rs1_val==dnorm(0x5f9e56179ab25747) and rs2_val==dnorm(0x5faae83ac33105f8) and rs3_val==dnorm(0xff59821b0de85599) | Multiply-Add: Cancellation ---> Subnormal result 
    ? 'fs1 == 0 and fe1 == 0x5f9 and fm1 == 0xa8acc80de84a1 and fs2 == 0 and fe2 ==
      0x5f7 and fm2 == 0x9724cf1f251b7 and fs3 == 1 and fe3 == 0x7f2 and fm3 == 0x51b3e0f8cf403
      and rm_val == 0  #nosat'
    : 1 #  rs1_val==dnorm(0x5f9a8acc80de84a1) and rs2_val==dnorm(0x5f79724cf1f251b7) and rs3_val==dnorm(0xff251b3e0f8cf403) | Multiply-Add: Cancellation ---> Subnormal result 
    ? 'fs1 == 0 and fe1 == 0x5f7 and fm1 == 0x22411e9af7a5f and fs2 == 0 and fe2 ==
      0x5f9 and fm2 == 0x9cd85f6af39ef and fs3 == 1 and fe3 == 0x7f1 and fm3 == 0xd4162062a6da3
      and rm_val == 0  #nosat'
    : 1 #  rs1_val==dnorm(0x5f722411e9af7a5f) and rs2_val==dnorm(0x5f99cd85f6af39ef) and rs3_val==dnorm(0xff1d4162062a6da3) | Multiply-Add: Cancellation ---> Subnormal result 
    ? 'fs1 == 0 and fe1 == 0x5f6 and fm1 == 0x8b50ed3b44d4f and fs2 == 0 and fe2 ==
      0x5f8 and fm2 == 0x6fcb3adb66bfb and fs3 == 1 and fe3 == 0x7f0 and fm3 == 0x1bf96c139c28c
      and rm_val == 0  #nosat'
    : 1 #  rs1_val==dnorm(0x5f68b50ed3b44d4f) and rs2_val==dnorm(0x5f86fcb3adb66bfb) and rs3_val==dnorm(0xff01bf96c139c28c) | Multiply-Add: Cancellation ---> Subnormal result 
    ? 'fs1 == 0 and fe1 == 0x5f9 and fm1 == 0x2c72e28eb4ecd and fs2 == 0 and fe2 ==
      0x5f9 and fm2 == 0xe989c8dd81bc5 and fs3 == 1 and fe3 == 0x7f4 and fm3 == 0x1f4493fdc7339
      and rm_val == 0  #nosat'
    : 1 #  rs1_val==dnorm(0x5f92c72e28eb4ecd) and rs2_val==dnorm(0x5f9e989c8dd81bc5) and rs3_val==dnorm(0xff41f4493fdc7339) | Multiply-Add: Cancellation ---> Subnormal result 
    ? 'fs1 == 0 and fe1 == 0x5f9 and fm1 == 0x287ac6ae322ff and fs2 == 0 and fe2 ==
      0x5f9 and fm2 == 0x9444597ea17b3 and fs3 == 1 and fe3 == 0x7f3 and fm3 == 0xd430e9cd03fd3
      and rm_val == 0  #nosat'
    : 1 #  rs1_val==dnorm(0x5f9287ac6ae322ff) and rs2_val==dnorm(0x5f99444597ea17b3) and rs3_val==dnorm(0xff3d430e9cd03fd3) | Multiply-Add: Cancellation ---> Subnormal result 
    ? 'fs1 == 0 and fe1 == 0x5f6 and fm1 == 0x5188d91417d2f and fs2 == 0 and fe2 ==
      0x5f8 and fm2 == 0x4f961e264020f and fs3 == 1 and fe3 == 0x7ef and fm3 == 0xba780200f5413
      and rm_val == 0  #nosat'
    : 1 #  rs1_val==dnorm(0x5f65188d91417d2f) and rs2_val==dnorm(0x5f84f961e264020f) and rs3_val==dnorm(0xfefba780200f5413) | Multiply-Add: Cancellation ---> Subnormal result 
    ? 'fs1 == 0 and fe1 == 0x5fa and fm1 == 0x6fdf2805ff4db and fs2 == 0 and fe2 ==
      0x5f9 and fm2 == 0x5a5fc5e3c3eed and fs3 == 1 and fe3 == 0x7f4 and fm3 == 0xf1bd3c45fb840
      and rm_val == 0  #nosat'
    : 1 #  rs1_val==dnorm(0x5fa6fdf2805ff4db) and rs2_val==dnorm(0x5f95a5fc5e3c3eed) and rs3_val==dnorm(0xff4f1bd3c45fb840) | Multiply-Add: Cancellation ---> Subnormal result 
    ? 'fs1 == 0 and fe1 == 0x5f8 and fm1 == 0x354ba34578ba7 and fs2 == 0 and fe2 ==
      0x5f9 and fm2 == 0x5569022b338ff and fs3 == 1 and fe3 == 0x7f2 and fm3 == 0x9c7c9f204a95d
      and rm_val == 0  #nosat'
    : 1 #  rs1_val==dnorm(0x5f8354ba34578ba7) and rs2_val==dnorm(0x5f95569022b338ff) and rs3_val==dnorm(0xff29c7c9f204a95d) | Multiply-Add: Cancellation ---> Subnormal result 
    ? 'fs1 == 0 and fe1 == 0x5f8 and fm1 == 0xa9aa2b6025f07 and fs2 == 0 and fe2 ==
      0x5fa and fm2 == 0x2c9bb6d2a0534 and fs3 == 1 and fe3 == 0x7f3 and fm3 == 0xf3d654da22af7
      and rm_val == 0  #nosat'
    : 1 #  rs1_val==dnorm(0x5f8a9aa2b6025f07) and rs2_val==dnorm(0x5fa2c9bb6d2a0534) and rs3_val==dnorm(0xff3f3d654da22af7) | Multiply-Add: Cancellation ---> Subnormal result 
    ? 'fs1 == 0 and fe1 == 0x5fa and fm1 == 0x47c0965bde424 and fs2 == 0 and fe2 ==
      0x5f9 and fm2 == 0x7d6356ef8a62f and fs3 == 1 and fe3 == 0x7f4 and fm3 == 0xe848ce8e3fcb4
      and rm_val == 0  #nosat'
    : 1 #  rs1_val==dnorm(0x5fa47c0965bde424) and rs2_val==dnorm(0x5f97d6356ef8a62f) and rs3_val==dnorm(0xff4e848ce8e3fcb4) | Multiply-Add: Cancellation ---> Subnormal result 
    ? 'fs1 == 0 and fe1 == 0x5fa and fm1 == 0x4f8b971fa5a72 and fs2 == 0 and fe2 ==
      0x5fa and fm2 == 0x6cba246939a56 and fs3 == 1 and fe3 == 0x7f5 and fm3 == 0xde0e760659984
      and rm_val == 0  #nosat'
    : 1 #  rs1_val==dnorm(0x5fa4f8b971fa5a72) and rs2_val==dnorm(0x5fa6cba246939a56) and rs3_val==dnorm(0xff5de0e760659984) | Multiply-Add: Cancellation ---> Subnormal result 
    ? 'fs1 == 0 and fe1 == 0x5f6 and fm1 == 0x5819e362ac2bf and fs2 == 0 and fe2 ==
      0x5fa and fm2 == 0x7f8e997d84592 and fs3 == 1 and fe3 == 0x7f2 and fm3 == 0x01c733ee77e03
      and rm_val == 0  #nosat'
    : 1 #  rs1_val==dnorm(0x5f65819e362ac2bf) and rs2_val==dnorm(0x5fa7f8e997d84592) and rs3_val==dnorm(0xff201c733ee77e03) | Multiply-Add: Cancellation ---> Subnormal result 
    ? 'fs1 == 0 and fe1 == 0x5fa and fm1 == 0xe49bfb977b300 and fs2 == 0 and fe2 ==
      0x5fa and fm2 == 0xe07b0ce451645 and fs3 == 1 and fe3 == 0x7f6 and fm3 == 0xc6c6b38ab6c65
      and rm_val == 0  #nosat'
    : 1 #  rs1_val==dnorm(0x5fae49bfb977b300) and rs2_val==dnorm(0x5fae07b0ce451645) and rs3_val==dnorm(0xff6c6c6b38ab6c65) | Multiply-Add: Cancellation ---> Subnormal result 
    ? 'fs1 == 0 and fe1 == 0x5f6 and fm1 == 0x4d1d10d2ac62f and fs2 == 0 and fe2 ==
      0x5fa and fm2 == 0x5cab9bd09e6c4 and fs3 == 1 and fe3 == 0x7f1 and fm3 == 0xc5b2d008ae01b
      and rm_val == 0  #nosat'
    : 1 #  rs1_val==dnorm(0x5f64d1d10d2ac62f) and rs2_val==dnorm(0x5fa5cab9bd09e6c4) and rs3_val==dnorm(0xff1c5b2d008ae01b) | Multiply-Add: Cancellation ---> Subnormal result 
    ? 'fs1 == 0 and fe1 == 0x5fa and fm1 == 0xbe64efc9e258d and fs2 == 0 and fe2 ==
      0x5f9 and fm2 == 0x1d17766cf56c7 and fs3 == 1 and fe3 == 0x7f4 and fm3 == 0xf11f4885d1302
      and rm_val == 0  #nosat'
    : 1 #  rs1_val==dnorm(0x5fabe64efc9e258d) and rs2_val==dnorm(0x5f91d17766cf56c7) and rs3_val==dnorm(0xff4f11f4885d1302) | Multiply-Add: Cancellation ---> Subnormal result 
    ? 'fs1 == 0 and fe1 == 0x5fa and fm1 == 0x0aaee2f44e344 and fs2 == 0 and fe2 ==
      0x5fa and fm2 == 0x4d3375e946b52 and fs3 == 1 and fe3 == 0x7f5 and fm3 == 0x5b1b18e3f0f44
      and rm_val == 0  #nosat'
    : 1 #  rs1_val==dnorm(0x5fa0aaee2f44e344) and rs2_val==dnorm(0x5fa4d3375e946b52) and rs3_val==dnorm(0xff55b1b18e3f0f44) | Multiply-Add: Cancellation ---> Subnormal result 
    ? 'fs1 == 0 and fe1 == 0x5fa and fm1 == 0x95adca0768ede and fs2 == 0 and fe2 ==
      0x5fa and fm2 == 0xb9042a506a4fd and fs3 == 1 and fe3 == 0x7f6 and fm3 == 0x5d6f7d65eee62
      and rm_val == 0  #nosat'
    : 1 #  rs1_val==dnorm(0x5fa95adca0768ede) and rs2_val==dnorm(0x5fab9042a506a4fd) and rs3_val==dnorm(0xff65d6f7d65eee62) | Multiply-Add: Cancellation ---> Subnormal result 
    ? 'fs1 == 0 and fe1 == 0x5f7 and fm1 == 0x4d30da0b2f54f and fs2 == 0 and fe2 ==
      0x5f9 and fm2 == 0x194e95f4fa0e5 and fs3 == 1 and fe3 == 0x7f1 and fm3 == 0x6e20e764fd495
      and rm_val == 0  #nosat'
    : 1 #  rs1_val==dnorm(0x5f74d30da0b2f54f) and rs2_val==dnorm(0x5f9194e95f4fa0e5) and rs3_val==dnorm(0xff16e20e764fd495) | Multiply-Add: Cancellation ---> Subnormal result 
    ? 'fs1 == 0 and fe1 == 0x5f7 and fm1 == 0x9a5710f3828f7 and fs2 == 0 and fe2 ==
      0x5fa and fm2 == 0xb537603b0ea8b and fs3 == 1 and fe3 == 0x7f3 and fm3 == 0x5e67b171d10da
      and rm_val == 0  #nosat'
    : 1 #  rs1_val==dnorm(0x5f79a5710f3828f7) and rs2_val==dnorm(0x5fab537603b0ea8b) and rs3_val==dnorm(0xff35e67b171d10da) | Multiply-Add: Cancellation ---> Subnormal result 
    ? 'fs1 == 0 and fe1 == 0x5fa and fm1 == 0xbf4f8dd35ac8c and fs2 == 0 and fe2 ==
      0x5f9 and fm2 == 0x1eb3cbd822141 and fs3 == 1 and fe3 == 0x7f4 and fm3 == 0xf4f509400656a
      and rm_val == 0  #nosat'
    : 1 #  rs1_val==dnorm(0x5fabf4f8dd35ac8c) and rs2_val==dnorm(0x5f91eb3cbd822141) and rs3_val==dnorm(0xff4f4f509400656a) | Multiply-Add: Cancellation ---> Subnormal result 
    ? 'fs1 == 0 and fe1 == 0x5f7 and fm1 == 0x9086506183f67 and fs2 == 0 and fe2 ==
      0x5f7 and fm2 == 0xe707c5377ae9f and fs3 == 1 and fe3 == 0x7f0 and fm3 == 0x7cfdd591eedc6
      and rm_val == 0  #nosat'
    : 1 #  rs1_val==dnorm(0x5f79086506183f67) and rs2_val==dnorm(0x5f7e707c5377ae9f) and rs3_val==dnorm(0xff07cfdd591eedc6) | Multiply-Add: Cancellation ---> Subnormal result 
    ? 'fs1 == 0 and fe1 == 0x5f2 and fm1 == 0x3502bebc53fff and fs2 == 0 and fe2 ==
      0x5fa and fm2 == 0xa53d0d2b3faec and fs3 == 1 and fe3 == 0x7ed and fm3 == 0xfc77353881082
      and rm_val == 0  #nosat'
    : 1 #  rs1_val==dnorm(0x5f23502bebc53fff) and rs2_val==dnorm(0x5faa53d0d2b3faec) and rs3_val==dnorm(0xfedfc77353881082) | Multiply-Add: Cancellation ---> Subnormal result 
    ? 'fs1 == 0 and fe1 == 0x5f9 and fm1 == 0x43c3f0806f2cd and fs2 == 0 and fe2 ==
      0x5f8 and fm2 == 0xb54c6b03a8983 and fs3 == 1 and fe3 == 0x7f3 and fm3 == 0x14870f8714f98
      and rm_val == 0  #nosat'
    : 1 #  rs1_val==dnorm(0x5f943c3f0806f2cd) and rs2_val==dnorm(0x5f8b54c6b03a8983) and rs3_val==dnorm(0xff314870f8714f98) | Multiply-Add: Cancellation ---> Subnormal result 
    ? 'fs1 == 0 and fe1 == 0x5fa and fm1 == 0xf940aa40f1530 and fs2 == 0 and fe2 ==
      0x5f9 and fm2 == 0x9b75de798ac5f and fs3 == 1 and fe3 == 0x7f5 and fm3 == 0x9609b97d041b7
      and rm_val == 0  #nosat'
    : 1 #  rs1_val==dnorm(0x5faf940aa40f1530) and rs2_val==dnorm(0x5f99b75de798ac5f) and rs3_val==dnorm(0xff59609b97d041b7) | Multiply-Add: Cancellation ---> Subnormal result 
    ? 'fs1 == 0 and fe1 == 0x5fa and fm1 == 0x442435bea0eb5 and fs2 == 0 and fe2 ==
      0x5f7 and fm2 == 0x55e18bacc608f and fs3 == 1 and fe3 == 0x7f2 and fm3 == 0xb0e1d0449526d
      and rm_val == 0  #nosat'
    : 1 #  rs1_val==dnorm(0x5fa442435bea0eb5) and rs2_val==dnorm(0x5f755e18bacc608f) and rs3_val==dnorm(0xff2b0e1d0449526d) | Multiply-Add: Cancellation ---> Subnormal result 
    ? 'fs1 == 0 and fe1 == 0x5fa and fm1 == 0x9ff4d99a919c7 and fs2 == 0 and fe2 ==
      0x5f8 and fm2 == 0x8106d28c6e8ff and fs3 == 1 and fe3 == 0x7f4 and fm3 == 0x38cd288ccb544
      and rm_val == 0  #nosat'
    : 1 #  rs1_val==dnorm(0x5fa9ff4d99a919c7) and rs2_val==dnorm(0x5f88106d28c6e8ff) and rs3_val==dnorm(0xff438cd288ccb544) | Multiply-Add: Cancellation ---> Subnormal result 
    ? 'fs1 == 0 and fe1 == 0x5f9 and fm1 == 0xde18ff8661b6b and fs2 == 0 and fe2 ==
      0x5fa and fm2 == 0x9e3b4234a7716 and fs3 == 1 and fe3 == 0x7f5 and fm3 == 0x82cd8c517ed44
      and rm_val == 0  #nosat'
    : 1 #  rs1_val==dnorm(0x5f9de18ff8661b6b) and rs2_val==dnorm(0x5fa9e3b4234a7716) and rs3_val==dnorm(0xff582cd8c517ed44) | Multiply-Add: Cancellation ---> Subnormal result 
    ? 'fs1 == 0 and fe1 == 0x5fa and fm1 == 0xc48b48c27d811 and fs2 == 0 and fe2 ==
      0x5f9 and fm2 == 0xfa73e129b8879 and fs3 == 1 and fe3 == 0x7f5 and fm3 == 0xbfa4133523727
      and rm_val == 0  #nosat'
    : 1 #  rs1_val==dnorm(0x5fac48b48c27d811) and rs2_val==dnorm(0x5f9fa73e129b8879) and rs3_val==dnorm(0xff5bfa4133523727) | Multiply-Add: Cancellation ---> Subnormal result 
    ? 'fs1 == 0 and fe1 == 0x5f9 and fm1 == 0xf2f5c0f43aa65 and fs2 == 0 and fe2 ==
      0x5fa and fm2 == 0x1f707766a790b and fs3 == 1 and fe3 == 0x7f5 and fm3 == 0x181e5bc744e77
      and rm_val == 0  #nosat'
    : 1 #  rs1_val==dnorm(0x5f9f2f5c0f43aa65) and rs2_val==dnorm(0x5fa1f707766a790b) and rs3_val==dnorm(0xff5181e5bc744e77) | Multiply-Add: Cancellation ---> Subnormal result 
    ? 'fs1 == 0 and fe1 == 0x5f9 and fm1 == 0x0972c859cb481 and fs2 == 0 and fe2 ==
      0x5f8 and fm2 == 0x42f12d7244f4f and fs3 == 1 and fe3 == 0x7f2 and fm3 == 0x4edc742f380e8
      and rm_val == 0  #nosat'
    : 1 #  rs1_val==dnorm(0x5f90972c859cb481) and rs2_val==dnorm(0x5f842f12d7244f4f) and rs3_val==dnorm(0xff24edc742f380e8) | Multiply-Add: Cancellation ---> Subnormal result 
    ? 'fs1 == 0 and fe1 == 0x5fa and fm1 == 0x530b56ed605ac and fs2 == 0 and fe2 ==
      0x5f6 and fm2 == 0x7f381ca9a6b2f and fs3 == 1 and fe3 == 0x7f1 and fm3 == 0xfb88477e13d99
      and rm_val == 0  #nosat'
    : 1 #  rs1_val==dnorm(0x5fa530b56ed605ac) and rs2_val==dnorm(0x5f67f381ca9a6b2f) and rs3_val==dnorm(0xff1fb88477e13d99) | Multiply-Add: Cancellation ---> Subnormal result 
    ? 'fs1 == 0 and fe1 == 0x5f9 and fm1 == 0x9bebe66f937a7 and fs2 == 0 and fe2 ==
      0x5fa and fm2 == 0x6756366451777 and fs3 == 1 and fe3 == 0x7f5 and fm3 == 0x211944758791d
      and rm_val == 0  #nosat'
    : 1 #  rs1_val==dnorm(0x5f99bebe66f937a7) and rs2_val==dnorm(0x5fa6756366451777) and rs3_val==dnorm(0xff5211944758791d) | Multiply-Add: Cancellation ---> Subnormal result 
    ? 'fs1 == 0 and fe1 == 0x5fa and fm1 == 0xc0377eab1f21f and fs2 == 0 and fe2 ==
      0x5fa and fm2 == 0x22e4be37f86cb and fs3 == 1 and fe3 == 0x7f5 and fm3 == 0xfd4f5bf5d88f7
      and rm_val == 0  #nosat'
    : 1 #  rs1_val==dnorm(0x5fac0377eab1f21f) and rs2_val==dnorm(0x5fa22e4be37f86cb) and rs3_val==dnorm(0xff5fd4f5bf5d88f7) | Multiply-Add: Cancellation ---> Subnormal result 
    ? 'fs1 == 0 and fe1 == 0x5f8 and fm1 == 0xea52ea391cf03 and fs2 == 0 and fe2 ==
      0x5fa and fm2 == 0x465936dcae3fb and fs3 == 1 and fe3 == 0x7f4 and fm3 == 0x38883b16298e5
      and rm_val == 0  #nosat'
    : 1 #  rs1_val==dnorm(0x5f8ea52ea391cf03) and rs2_val==dnorm(0x5fa465936dcae3fb) and rs3_val==dnorm(0xff438883b16298e5) | Multiply-Add: Cancellation ---> Subnormal result 
    ? 'fs1 == 0 and fe1 == 0x5f1 and fm1 == 0x8f90cc1b18bff and fs2 == 0 and fe2 ==
      0x5f8 and fm2 == 0x89d995b2d6507 and fs3 == 1 and fe3 == 0x7eb and fm3 == 0x335c725c81f87
      and rm_val == 0  #nosat'
    : 1 #  rs1_val==dnorm(0x5f18f90cc1b18bff) and rs2_val==dnorm(0x5f889d995b2d6507) and rs3_val==dnorm(0xfeb335c725c81f87) | Multiply-Add: Cancellation ---> Subnormal result 
    ? 'fs1 == 0 and fe1 == 0x5f9 and fm1 == 0x8d5463dfce629 and fs2 == 0 and fe2 ==
      0x5f9 and fm2 == 0xa85d306a197c5 and fs3 == 1 and fe3 == 0x7f4 and fm3 == 0x4952341bbaad6
      and rm_val == 0  #nosat'
    : 1 #  rs1_val==dnorm(0x5f98d5463dfce629) and rs2_val==dnorm(0x5f9a85d306a197c5) and rs3_val==dnorm(0xff44952341bbaad6) | Multiply-Add: Cancellation ---> Subnormal result 
    ? 'fs1 == 0 and fe1 == 0x5fa and fm1 == 0x447a9936a43d3 and fs2 == 0 and fe2 ==
      0x5fa and fm2 == 0x3dfdc8c878541 and fs3 == 1 and fe3 == 0x7f5 and fm3 == 0x930d7b5ff45e8
      and rm_val == 0  #nosat'
    : 1 #  rs1_val==dnorm(0x5fa447a9936a43d3) and rs2_val==dnorm(0x5fa3dfdc8c878541) and rs3_val==dnorm(0xff5930d7b5ff45e8) | Multiply-Add: Cancellation ---> Subnormal result 
    ? 'fs1 == 0 and fe1 == 0x5f9 and fm1 == 0x26c977d632159 and fs2 == 0 and fe2 ==
      0x5f9 and fm2 == 0x6fd2704b8e37f and fs3 == 1 and fe3 == 0x7f3 and fm3 == 0xa78d255f84ba0
      and rm_val == 0  #nosat'
    : 1 #  rs1_val==dnorm(0x5f926c977d632159) and rs2_val==dnorm(0x5f96fd2704b8e37f) and rs3_val==dnorm(0xff3a78d255f84ba0) | Multiply-Add: Cancellation ---> Subnormal result 
    ? 'fs1 == 0 and fe1 == 0x5f8 and fm1 == 0xebc97dc31d5a7 and fs2 == 0 and fe2 ==
      0x5fa and fm2 == 0xe800919ed6413 and fs3 == 1 and fe3 == 0x7f4 and fm3 == 0xd4bc97bd1911a
      and rm_val == 0  #nosat'
    : 1 #  rs1_val==dnorm(0x5f8ebc97dc31d5a7) and rs2_val==dnorm(0x5fae800919ed6413) and rs3_val==dnorm(0xff4d4bc97bd1911a) | Multiply-Add: Cancellation ---> Subnormal result 
    ? 'fs1 == 0 and fe1 == 0x5f9 and fm1 == 0x57fa825e98147 and fs2 == 0 and fe2 ==
      0x5f6 and fm2 == 0x76587e2d6216f and fs3 == 1 and fe3 == 0x7f0 and fm3 == 0xf6fee21d49b25
      and rm_val == 0  #nosat'
    : 1 #  rs1_val==dnorm(0x5f957fa825e98147) and rs2_val==dnorm(0x5f676587e2d6216f) and rs3_val==dnorm(0xff0f6fee21d49b25) | Multiply-Add: Cancellation ---> Subnormal result 
    ? 'fs1 == 0 and fe1 == 0x5fa and fm1 == 0x1f06fdec36709 and fs2 == 0 and fe2 ==
      0x5f4 and fm2 == 0x97836753c7c7f and fs3 == 1 and fe3 == 0x7ef and fm3 == 0xc8e7722039d9d
      and rm_val == 0  #nosat'
    : 1 #  rs1_val==dnorm(0x5fa1f06fdec36709) and rs2_val==dnorm(0x5f497836753c7c7f) and rs3_val==dnorm(0xfefc8e7722039d9d) | Multiply-Add: Cancellation ---> Subnormal result 
    ? 'fs1 == 0 and fe1 == 0x5f9 and fm1 == 0x6db92bb1bf075 and fs2 == 0 and fe2 ==
      0x5fa and fm2 == 0xace1ecea16623 and fs3 == 1 and fe3 == 0x7f5 and fm3 == 0x325a2ba0d90e9
      and rm_val == 0  #nosat'
    : 1 #  rs1_val==dnorm(0x5f96db92bb1bf075) and rs2_val==dnorm(0x5faace1ecea16623) and rs3_val==dnorm(0xff5325a2ba0d90e9) | Multiply-Add: Cancellation ---> Subnormal result 
    ? 'fs1 == 0 and fe1 == 0x5fa and fm1 == 0x2362beb7fcccc and fs2 == 0 and fe2 ==
      0x5fa and fm2 == 0x04673c7ab8808 and fs3 == 1 and fe3 == 0x7f5 and fm3 == 0x2865cb446c89f
      and rm_val == 0  #nosat'
    : 1 #  rs1_val==dnorm(0x5fa2362beb7fcccc) and rs2_val==dnorm(0x5fa04673c7ab8808) and rs3_val==dnorm(0xff52865cb446c89f) | Multiply-Add: Cancellation ---> Subnormal result 
    ? 'fs1 == 0 and fe1 == 0x5f8 and fm1 == 0x6607c20361523 and fs2 == 0 and fe2 ==
      0x5f9 and fm2 == 0xe2f1c5d734347 and fs3 == 1 and fe3 == 0x7f3 and fm3 == 0x51b65ea47a1f7
      and rm_val == 0  #nosat'
    : 1 #  rs1_val==dnorm(0x5f86607c20361523) and rs2_val==dnorm(0x5f9e2f1c5d734347) and rs3_val==dnorm(0xff351b65ea47a1f7) | Multiply-Add: Cancellation ---> Subnormal result 
    ? 'fs1 == 0 and fe1 == 0x5f9 and fm1 == 0x00b42e8f00d47 and fs2 == 0 and fe2 ==
      0x5fa and fm2 == 0x318ea43af884c and fs3 == 1 and fe3 == 0x7f4 and fm3 == 0x3265b418c3296
      and rm_val == 0  #nosat'
    : 1 #  rs1_val==dnorm(0x5f900b42e8f00d47) and rs2_val==dnorm(0x5fa318ea43af884c) and rs3_val==dnorm(0xff43265b418c3296) | Multiply-Add: Cancellation ---> Subnormal result 
    ? 'fs1 == 0 and fe1 == 0x5fa and fm1 == 0x5a371eca20170 and fs2 == 0 and fe2 ==
      0x5fa and fm2 == 0xb0db7e0a5d748 and fs3 == 1 and fe3 == 0x7f6 and fm3 == 0x24b2edc8c9614
      and rm_val == 0  #nosat'
    : 1 #  rs1_val==dnorm(0x5fa5a371eca20170) and rs2_val==dnorm(0x5fab0db7e0a5d748) and rs3_val==dnorm(0xff624b2edc8c9614) | Multiply-Add: Cancellation ---> Subnormal result 
    ? 'fs1 == 0 and fe1 == 0x5fa and fm1 == 0x5864580d04bef and fs2 == 0 and fe2 ==
      0x5fa and fm2 == 0xeedf7f711c3c2 and fs3 == 1 and fe3 == 0x7f6 and fm3 == 0x4cdf2661e23a6
      and rm_val == 0  #nosat'
    : 1 #  rs1_val==dnorm(0x5fa5864580d04bef) and rs2_val==dnorm(0x5faeedf7f711c3c2) and rs3_val==dnorm(0xff64cdf2661e23a6) | Multiply-Add: Cancellation ---> Subnormal result 
    ? 'fs1 == 0 and fe1 == 0x5fa and fm1 == 0xad3923b9bf5a2 and fs2 == 0 and fe2 ==
      0x5fa and fm2 == 0xd64347e477166 and fs3 == 1 and fe3 == 0x7f6 and fm3 == 0x8a3bdb0aa3320
      and rm_val == 0  #nosat'
    : 1 #  rs1_val==dnorm(0x5faad3923b9bf5a2) and rs2_val==dnorm(0x5fad64347e477166) and rs3_val==dnorm(0xff68a3bdb0aa3320) | Multiply-Add: Cancellation ---> Subnormal result 
    ? 'fs1 == 0 and fe1 == 0x5f8 and fm1 == 0x9847d9429817b and fs2 == 0 and fe2 ==
      0x5f9 and fm2 == 0x6f291ef3c3557 and fs3 == 1 and fe3 == 0x7f3 and fm3 == 0x24c84aaab9723
      and rm_val == 0  #nosat'
    : 1 #  rs1_val==dnorm(0x5f89847d9429817b) and rs2_val==dnorm(0x5f96f291ef3c3557) and rs3_val==dnorm(0xff324c84aaab9723) | Multiply-Add: Cancellation ---> Subnormal result 
    ? 'fs1 == 0 and fe1 == 0x5f6 and fm1 == 0x42972262ccf0f and fs2 == 0 and fe2 ==
      0x5f7 and fm2 == 0x9d5f97660dadf and fs3 == 1 and fe3 == 0x7ef and fm3 == 0x047323ab7303d
      and rm_val == 0  #nosat'
    : 1 #  rs1_val==dnorm(0x5f642972262ccf0f) and rs2_val==dnorm(0x5f79d5f97660dadf) and rs3_val==dnorm(0xfef047323ab7303d) | Multiply-Add: Cancellation ---> Subnormal result 
    ? 'fs1 == 0 and fe1 == 0x5f9 and fm1 == 0x66b37637d118d and fs2 == 0 and fe2 ==
      0x5f8 and fm2 == 0x714a830fa079f and fs3 == 1 and fe3 == 0x7f3 and fm3 == 0x02b88a752db26
      and rm_val == 0  #nosat'
    : 1 #  rs1_val==dnorm(0x5f966b37637d118d) and rs2_val==dnorm(0x5f8714a830fa079f) and rs3_val==dnorm(0xff302b88a752db26) | Multiply-Add: Cancellation ---> Subnormal result 
    ? 'fs1 == 0 and fe1 == 0x5f9 and fm1 == 0x0a287088f5e69 and fs2 == 0 and fe2 ==
      0x5f8 and fm2 == 0xc44223126cbc7 and fs3 == 1 and fe3 == 0x7f2 and fm3 == 0xd634299584c22
      and rm_val == 0  #nosat'
    : 1 #  rs1_val==dnorm(0x5f90a287088f5e69) and rs2_val==dnorm(0x5f8c44223126cbc7) and rs3_val==dnorm(0xff2d634299584c22) | Multiply-Add: Cancellation ---> Subnormal result 
    ? 'fs1 == 0 and fe1 == 0x5f5 and fm1 == 0x75450c5a9817f and fs2 == 0 and fe2 ==
      0x5f9 and fm2 == 0xb3d56c4f6fd1d and fs3 == 1 and fe3 == 0x7f0 and fm3 == 0x3dbdc22f16309
      and rm_val == 0  #nosat'
    : 1 #  rs1_val==dnorm(0x5f575450c5a9817f) and rs2_val==dnorm(0x5f9b3d56c4f6fd1d) and rs3_val==dnorm(0xff03dbdc22f16309) | Multiply-Add: Cancellation ---> Subnormal result 
    ? 'fs1 == 0 and fe1 == 0x5f8 and fm1 == 0xaf42bcba26d83 and fs2 == 0 and fe2 ==
      0x5fa and fm2 == 0x99fb7503e8d08 and fs3 == 1 and fe3 == 0x7f4 and fm3 == 0x59549d8a44684
      and rm_val == 0  #nosat'
    : 1 #  rs1_val==dnorm(0x5f8af42bcba26d83) and rs2_val==dnorm(0x5fa99fb7503e8d08) and rs3_val==dnorm(0xff459549d8a44684) | Multiply-Add: Cancellation ---> Subnormal result 
    ? 'fs1 == 0 and fe1 == 0x5fa and fm1 == 0xec0c4abe1fd0e and fs2 == 0 and fe2 ==
      0x5f8 and fm2 == 0x7ad291b7d6463 and fs3 == 1 and fe3 == 0x7f4 and fm3 == 0x6c0f70432cf47
      and rm_val == 0  #nosat'
    : 1 #  rs1_val==dnorm(0x5faec0c4abe1fd0e) and rs2_val==dnorm(0x5f87ad291b7d6463) and rs3_val==dnorm(0xff46c0f70432cf47) | Multiply-Add: Cancellation ---> Subnormal result 
    ? 'fs1 == 0 and fe1 == 0x5fa and fm1 == 0xf60647476d4cb and fs2 == 0 and fe2 ==
      0x5f6 and fm2 == 0x2a1fa26c0948f and fs3 == 1 and fe3 == 0x7f2 and fm3 == 0x2450ac1fce6c0
      and rm_val == 0  #nosat'
    : 1 #  rs1_val==dnorm(0x5faf60647476d4cb) and rs2_val==dnorm(0x5f62a1fa26c0948f) and rs3_val==dnorm(0xff22450ac1fce6c0) | Multiply-Add: Cancellation ---> Subnormal result 
    ? 'fs1 == 0 and fe1 == 0x5fa and fm1 == 0x26e34e07a9172 and fs2 == 0 and fe2 ==
      0x5f9 and fm2 == 0x9099330bb750b and fs3 == 1 and fe3 == 0x7f4 and fm3 == 0xcd73a29262418
      and rm_val == 0  #nosat'
    : 1 #  rs1_val==dnorm(0x5fa26e34e07a9172) and rs2_val==dnorm(0x5f99099330bb750b) and rs3_val==dnorm(0xff4cd73a29262418) | Multiply-Add: Cancellation ---> Subnormal result 
    ? 'fs1 == 0 and fe1 == 0x5f5 and fm1 == 0xb56678fedc57f and fs2 == 0 and fe2 ==
      0x5fa and fm2 == 0x451eb54c10b8b and fs3 == 1 and fe3 == 0x7f1 and fm3 == 0x15bfc7b09311c
      and rm_val == 0  #nosat'
    : 1 #  rs1_val==dnorm(0x5f5b56678fedc57f) and rs2_val==dnorm(0x5fa451eb54c10b8b) and rs3_val==dnorm(0xff115bfc7b09311c) | Multiply-Add: Cancellation ---> Subnormal result 
    ? 'fs1 == 0 and fe1 == 0x5fa and fm1 == 0xd1ed9e7beff05 and fs2 == 0 and fe2 ==
      0x5fa and fm2 == 0x1182656689f60 and fs3 == 1 and fe3 == 0x7f5 and fm3 == 0xf1cbb93a051b1
      and rm_val == 0  #nosat'
    : 1 #  rs1_val==dnorm(0x5fad1ed9e7beff05) and rs2_val==dnorm(0x5fa1182656689f60) and rs3_val==dnorm(0xff5f1cbb93a051b1) | Multiply-Add: Cancellation ---> Subnormal result 
    ? 'fs1 == 0 and fe1 == 0x5fa and fm1 == 0x6535160e0062c and fs2 == 0 and fe2 ==
      0x5f6 and fm2 == 0x728eb744bb2ef and fs3 == 1 and fe3 == 0x7f2 and fm3 == 0x0286ee85a9301
      and rm_val == 0  #nosat'
    : 1 #  rs1_val==dnorm(0x5fa6535160e0062c) and rs2_val==dnorm(0x5f6728eb744bb2ef) and rs3_val==dnorm(0xff20286ee85a9301) | Multiply-Add: Cancellation ---> Subnormal result 
    ? 'fs1 == 0 and fe1 == 0x5fa and fm1 == 0xa1bf5c83faf60 and fs2 == 0 and fe2 ==
      0x5f7 and fm2 == 0x9c16a190f4e87 and fs3 == 1 and fe3 == 0x7f3 and fm3 == 0x503a737e1fda2
      and rm_val == 0  #nosat'
    : 1 #  rs1_val==dnorm(0x5faa1bf5c83faf60) and rs2_val==dnorm(0x5f79c16a190f4e87) and rs3_val==dnorm(0xff3503a737e1fda2) | Multiply-Add: Cancellation ---> Subnormal result 
    ? 'fs1 == 0 and fe1 == 0x5f8 and fm1 == 0xc380d05f3f55f and fs2 == 0 and fe2 ==
      0x5fa and fm2 == 0x96d3944ae92c5 and fs3 == 1 and fe3 == 0x7f4 and fm3 == 0x66c1b996b1f29
      and rm_val == 0  #nosat'
    : 1 #  rs1_val==dnorm(0x5f8c380d05f3f55f) and rs2_val==dnorm(0x5fa96d3944ae92c5) and rs3_val==dnorm(0xff466c1b996b1f29) | Multiply-Add: Cancellation ---> Subnormal result 
    ? 'fs1 == 0 and fe1 == 0x5f8 and fm1 == 0xf1bca90426463 and fs2 == 0 and fe2 ==
      0x5fa and fm2 == 0x7685c15158af8 and fs3 == 1 and fe3 == 0x7f4 and fm3 == 0x6c16d6e6a1cf1
      and rm_val == 0  #nosat'
    : 1 #  rs1_val==dnorm(0x5f8f1bca90426463) and rs2_val==dnorm(0x5fa7685c15158af8) and rs3_val==dnorm(0xff46c16d6e6a1cf1) | Multiply-Add: Cancellation ---> Subnormal result 
    ? 'fs1 == 0 and fe1 == 0x5f9 and fm1 == 0xf21e6dcb25437 and fs2 == 0 and fe2 ==
      0x5fa and fm2 == 0x42a2ac1575123 and fs3 == 1 and fe3 == 0x7f5 and fm3 == 0x39e3661898bda
      and rm_val == 0  #nosat'
    : 1 #  rs1_val==dnorm(0x5f9f21e6dcb25437) and rs2_val==dnorm(0x5fa42a2ac1575123) and rs3_val==dnorm(0xff539e3661898bda) | Multiply-Add: Cancellation ---> Subnormal result 
    ? 'fs1 == 0 and fe1 == 0x5fa and fm1 == 0x962eb496df1c1 and fs2 == 0 and fe2 ==
      0x5f7 and fm2 == 0x516656a60de77 and fs3 == 1 and fe3 == 0x7f3 and fm3 == 0x0baaede8dc6a2
      and rm_val == 0  #nosat'
    : 1 #  rs1_val==dnorm(0x5fa962eb496df1c1) and rs2_val==dnorm(0x5f7516656a60de77) and rs3_val==dnorm(0xff30baaede8dc6a2) | Multiply-Add: Cancellation ---> Subnormal result 
    ? 'fs1 == 0 and fe1 == 0x5fa and fm1 == 0x520baea9095e5 and fs2 == 0 and fe2 ==
      0x5fa and fm2 == 0xfe1581ecd07ea and fs3 == 1 and fe3 == 0x7f6 and fm3 == 0x50c7d63d56d04
      and rm_val == 0  #nosat'
    : 1 #  rs1_val==dnorm(0x5fa520baea9095e5) and rs2_val==dnorm(0x5fafe1581ecd07ea) and rs3_val==dnorm(0xff650c7d63d56d04) | Multiply-Add: Cancellation ---> Subnormal result 
    ? 'fs1 == 0 and fe1 == 0x5fa and fm1 == 0xe64794dad7d48 and fs2 == 0 and fe2 ==
      0x5fa and fm2 == 0x28cdc8d19d0dc and fs3 == 1 and fe3 == 0x7f6 and fm3 == 0x19e4d472a9ee0
      and rm_val == 0  #nosat'
    : 1 #  rs1_val==dnorm(0x5fae64794dad7d48) and rs2_val==dnorm(0x5fa28cdc8d19d0dc) and rs3_val==dnorm(0xff619e4d472a9ee0) | Multiply-Add: Cancellation ---> Subnormal result 
    ? 'fs1 == 0 and fe1 == 0x5fa and fm1 == 0xb2efd30dc5db9 and fs2 == 0 and fe2 ==
      0x5fa and fm2 == 0xca428c2b7c81f and fs3 == 1 and fe3 == 0x7f6 and fm3 == 0x85490fc80b626
      and rm_val == 0  #nosat'
    : 1 #  rs1_val==dnorm(0x5fab2efd30dc5db9) and rs2_val==dnorm(0x5faca428c2b7c81f) and rs3_val==dnorm(0xff685490fc80b626) | Multiply-Add: Cancellation ---> Subnormal result 
    ? 'fs1 == 0 and fe1 == 0x5fa and fm1 == 0x691ae7e1929e8 and fs2 == 0 and fe2 ==
      0x5f9 and fm2 == 0x1a3fd4c2ca047 and fs3 == 1 and fe3 == 0x7f4 and fm3 == 0x8e21ad2a9765b
      and rm_val == 0  #nosat'
    : 1 #  rs1_val==dnorm(0x5fa691ae7e1929e8) and rs2_val==dnorm(0x5f91a3fd4c2ca047) and rs3_val==dnorm(0xff48e21ad2a9765b) | Multiply-Add: Cancellation ---> Subnormal result 
    ? 'fs1 == 0 and fe1 == 0x5fa and fm1 == 0xd89e42f5143f8 and fs2 == 0 and fe2 ==
      0x5fa and fm2 == 0x14c9836bbe6ff and fs3 == 1 and fe3 == 0x7f5 and fm3 == 0xfefea712b23ee
      and rm_val == 0  #nosat'
    : 1 #  rs1_val==dnorm(0x5fad89e42f5143f8) and rs2_val==dnorm(0x5fa14c9836bbe6ff) and rs3_val==dnorm(0xff5fefea712b23ee) | Multiply-Add: Cancellation ---> Subnormal result 
    ? 'fs1 == 0 and fe1 == 0x5fa and fm1 == 0xd8c56582791a6 and fs2 == 0 and fe2 ==
      0x5fa and fm2 == 0xaf56f24522c9c and fs3 == 1 and fe3 == 0x7f6 and fm3 == 0x8e4a73d085905
      and rm_val == 0  #nosat'
    : 1 #  rs1_val==dnorm(0x5fad8c56582791a6) and rs2_val==dnorm(0x5faaf56f24522c9c) and rs3_val==dnorm(0xff68e4a73d085905) | Multiply-Add: Cancellation ---> Subnormal result 
    ? 'fs1 == 0 and fe1 == 0x5f7 and fm1 == 0x6febab5b81b47 and fs2 == 0 and fe2 ==
      0x5fa and fm2 == 0x83e4a9485598d and fs3 == 1 and fe3 == 0x7f3 and fm3 == 0x16bcf29d3dffe
      and rm_val == 0  #nosat'
    : 1 #  rs1_val==dnorm(0x5f76febab5b81b47) and rs2_val==dnorm(0x5fa83e4a9485598d) and rs3_val==dnorm(0xff316bcf29d3dffe) | Multiply-Add: Cancellation ---> Subnormal result 
    ? 'fs1 == 0 and fe1 == 0x5fa and fm1 == 0x39bd67fecd9d5 and fs2 == 0 and fe2 ==
      0x5fa and fm2 == 0x5035a8d0a4c2b and fs3 == 1 and fe3 == 0x7f5 and fm3 == 0x9c0a5b98f5aeb
      and rm_val == 0  #nosat'
    : 1 #  rs1_val==dnorm(0x5fa39bd67fecd9d5) and rs2_val==dnorm(0x5fa5035a8d0a4c2b) and rs3_val==dnorm(0xff59c0a5b98f5aeb) | Multiply-Add: Cancellation ---> Subnormal result 
    ? 'fs1 == 0 and fe1 == 0x5f9 and fm1 == 0x294c231789029 and fs2 == 0 and fe2 ==
      0x5f8 and fm2 == 0x83df99d24bacb and fs3 == 1 and fe3 == 0x7f2 and fm3 == 0xc271c501deeef
      and rm_val == 0  #nosat'
    : 1 #  rs1_val==dnorm(0x5f9294c231789029) and rs2_val==dnorm(0x5f883df99d24bacb) and rs3_val==dnorm(0xff2c271c501deeef) | Multiply-Add: Cancellation ---> Subnormal result 
    ? 'fs1 == 0 and fe1 == 0x5fa and fm1 == 0x314c82f3115df and fs2 == 0 and fe2 ==
      0x5f9 and fm2 == 0x8a2386a894fd9 and fs3 == 1 and fe3 == 0x7f4 and fm3 == 0xd60a1f971865c
      and rm_val == 0  #nosat'
    : 1 #  rs1_val==dnorm(0x5fa314c82f3115df) and rs2_val==dnorm(0x5f98a2386a894fd9) and rs3_val==dnorm(0xff4d60a1f971865c) | Multiply-Add: Cancellation ---> Subnormal result 
    ? 'fs1 == 0 and fe1 == 0x5fa and fm1 == 0x34d4bf2305d15 and fs2 == 0 and fe2 ==
      0x5fa and fm2 == 0x2cdc24d268f9f and fs3 == 1 and fe3 == 0x7f5 and fm3 == 0x6af2e33d0cf3f
      and rm_val == 0  #nosat'
    : 1 #  rs1_val==dnorm(0x5fa34d4bf2305d15) and rs2_val==dnorm(0x5fa2cdc24d268f9f) and rs3_val==dnorm(0xff56af2e33d0cf3f) | Multiply-Add: Cancellation ---> Subnormal result 
    ? 'fs1 == 0 and fe1 == 0x5fa and fm1 == 0xa101ccfb0623a and fs2 == 0 and fe2 ==
      0x5fa and fm2 == 0x14a00d8d01424 and fs3 == 1 and fe3 == 0x7f5 and fm3 == 0xc29aa83186f5d
      and rm_val == 0  #nosat'
    : 1 #  rs1_val==dnorm(0x5faa101ccfb0623a) and rs2_val==dnorm(0x5fa14a00d8d01424) and rs3_val==dnorm(0xff5c29aa83186f5d) | Multiply-Add: Cancellation ---> Subnormal result 
    ? 'fs1 == 0 and fe1 == 0x5fa and fm1 == 0x1a3fb352a13ab and fs2 == 0 and fe2 ==
      0x5fa and fm2 == 0x69c26ac7fce60 and fs3 == 1 and fe3 == 0x7f5 and fm3 == 0x8eda2de04892d
      and rm_val == 0  #nosat'
    : 1 #  rs1_val==dnorm(0x5fa1a3fb352a13ab) and rs2_val==dnorm(0x5fa69c26ac7fce60) and rs3_val==dnorm(0xff58eda2de04892d) | Multiply-Add: Cancellation ---> Subnormal result 
    ? 'fs1 == 0 and fe1 == 0x5fa and fm1 == 0x0410cbbfdec45 and fs2 == 0 and fe2 ==
      0x5fa and fm2 == 0xdd9c651f50797 and fs3 == 1 and fe3 == 0x7f5 and fm3 == 0xe5322c9b1b2b8
      and rm_val == 0  #nosat'
    : 1 #  rs1_val==dnorm(0x5fa0410cbbfdec45) and rs2_val==dnorm(0x5fadd9c651f50797) and rs3_val==dnorm(0xff5e5322c9b1b2b8) | Multiply-Add: Cancellation ---> Subnormal result 
    ? 'fs1 == 0 and fe1 == 0x5f9 and fm1 == 0xcab8890bacf6d and fs2 == 0 and fe2 ==
      0x5f7 and fm2 == 0x49818dfc8788f and fs3 == 1 and fe3 == 0x7f2 and fm3 == 0x2737a6c49a153
      and rm_val == 0  #nosat'
    : 1 #  rs1_val==dnorm(0x5f9cab8890bacf6d) and rs2_val==dnorm(0x5f749818dfc8788f) and rs3_val==dnorm(0xff22737a6c49a153) | Multiply-Add: Cancellation ---> Subnormal result 
    ? 'fs1 == 0 and fe1 == 0x5f8 and fm1 == 0xe8af77cda8053 and fs2 == 0 and fe2 ==
      0x5fa and fm2 == 0xef616f891ea0b and fs3 == 1 and fe3 == 0x7f4 and fm3 == 0xd8d2a406710fa
      and rm_val == 0  #nosat'
    : 1 #  rs1_val==dnorm(0x5f8e8af77cda8053) and rs2_val==dnorm(0x5faef616f891ea0b) and rs3_val==dnorm(0xff4d8d2a406710fa) | Multiply-Add: Cancellation ---> Subnormal result 
    ? 'fs1 == 0 and fe1 == 0x5fa and fm1 == 0xbdae67c407ef2 and fs2 == 0 and fe2 ==
      0x5f8 and fm2 == 0x874e2eeac1c13 and fs3 == 1 and fe3 == 0x7f4 and fm3 == 0x549ebea7079cc
      and rm_val == 0  #nosat'
    : 1 #  rs1_val==dnorm(0x5fabdae67c407ef2) and rs2_val==dnorm(0x5f8874e2eeac1c13) and rs3_val==dnorm(0xff4549ebea7079cc) | Multiply-Add: Cancellation ---> Subnormal result 
    ? 'fs1 == 0 and fe1 == 0x5fa and fm1 == 0xbc366e555215f and fs2 == 0 and fe2 ==
      0x5f8 and fm2 == 0xf3878bbaf3893 and fs3 == 1 and fe3 == 0x7f4 and fm3 == 0xb164a61d3904a
      and rm_val == 0  #nosat'
    : 1 #  rs1_val==dnorm(0x5fabc366e555215f) and rs2_val==dnorm(0x5f8f3878bbaf3893) and rs3_val==dnorm(0xff4b164a61d3904a) | Multiply-Add: Cancellation ---> Subnormal result 
    ? 'fs1 == 0 and fe1 == 0x5fa and fm1 == 0x56182d28045ae and fs2 == 0 and fe2 ==
      0x5f1 and fm2 == 0x2b954e52a4bff and fs3 == 1 and fe3 == 0x7ec and fm3 == 0x9055c179d3095
      and rm_val == 0  #nosat'
    : 1 #  rs1_val==dnorm(0x5fa56182d28045ae) and rs2_val==dnorm(0x5f12b954e52a4bff) and rs3_val==dnorm(0xfec9055c179d3095) | Multiply-Add: Cancellation ---> Subnormal result 
    ? 'fs1 == 0 and fe1 == 0x5fa and fm1 == 0x707d21f5c40de and fs2 == 0 and fe2 ==
      0x5f9 and fm2 == 0x986532dae9957 and fs3 == 1 and fe3 == 0x7f5 and fm3 == 0x25ec8c58d0eb3
      and rm_val == 0  #nosat'
    : 1 #  rs1_val==dnorm(0x5fa707d21f5c40de) and rs2_val==dnorm(0x5f9986532dae9957) and rs3_val==dnorm(0xff525ec8c58d0eb3) | Multiply-Add: Cancellation ---> Subnormal result 
    ? 'fs1 == 0 and fe1 == 0x5fa and fm1 == 0x9c2c9b7ac820e and fs2 == 0 and fe2 ==
      0x5fa and fm2 == 0x18ef1d7a9fa74 and fs3 == 1 and fe3 == 0x7f5 and fm3 == 0xc451c729ee70d
      and rm_val == 0  #nosat'
    : 1 #  rs1_val==dnorm(0x5fa9c2c9b7ac820e) and rs2_val==dnorm(0x5fa18ef1d7a9fa74) and rs3_val==dnorm(0xff5c451c729ee70d) | Multiply-Add: Cancellation ---> Subnormal result 
    ? 'fs1 == 0 and fe1 == 0x5f9 and fm1 == 0xe8754038aa2cf and fs2 == 0 and fe2 ==
      0x5fa and fm2 == 0xbb09e7215ddb9 and fs3 == 1 and fe3 == 0x7f5 and fm3 == 0xa6aae5a163cfd
      and rm_val == 0  #nosat'
    : 1 #  rs1_val==dnorm(0x5f9e8754038aa2cf) and rs2_val==dnorm(0x5fabb09e7215ddb9) and rs3_val==dnorm(0xff5a6aae5a163cfd) | Multiply-Add: Cancellation ---> Subnormal result 
    ? 'fs1 == 0 and fe1 == 0x5fa and fm1 == 0x38c62d68fcb25 and fs2 == 0 and fe2 ==
      0x5fa and fm2 == 0xd3762f4d1629c and fs3 == 1 and fe3 == 0x7f6 and fm3 == 0x1d90f4fd0231e
      and rm_val == 0  #nosat'
    : 1 #  rs1_val==dnorm(0x5fa38c62d68fcb25) and rs2_val==dnorm(0x5fad3762f4d1629c) and rs3_val==dnorm(0xff61d90f4fd0231e) | Multiply-Add: Cancellation ---> Subnormal result 
    ? 'fs1 == 0 and fe1 == 0x5f9 and fm1 == 0xe3796147a7f97 and fs2 == 0 and fe2 ==
      0x5f7 and fm2 == 0x9c78deb52422f and fs3 == 1 and fe3 == 0x7f2 and fm3 == 0x857dcf0723ac9
      and rm_val == 0  #nosat'
    : 1 #  rs1_val==dnorm(0x5f9e3796147a7f97) and rs2_val==dnorm(0x5f79c78deb52422f) and rs3_val==dnorm(0xff2857dcf0723ac9) | Multiply-Add: Cancellation ---> Subnormal result 
    ? 'fs1 == 0 and fe1 == 0x5fa and fm1 == 0x75ac81c4b8321 and fs2 == 0 and fe2 ==
      0x5fa and fm2 == 0xcc3488366e29b and fs3 == 1 and fe3 == 0x7f6 and fm3 == 0x4fdf538577882
      and rm_val == 0  #nosat'
    : 1 #  rs1_val==dnorm(0x5fa75ac81c4b8321) and rs2_val==dnorm(0x5facc3488366e29b) and rs3_val==dnorm(0xff64fdf538577882) | Multiply-Add: Cancellation ---> Subnormal result 
    ? 'fs1 == 0 and fe1 == 0x5fa and fm1 == 0x9ed4cb2685903 and fs2 == 0 and fe2 ==
      0x5fa and fm2 == 0xcde8b20967d0b and fs3 == 1 and fe3 == 0x7f6 and fm3 == 0x763f2195d631b
      and rm_val == 0  #nosat'
    : 1 #  rs1_val==dnorm(0x5fa9ed4cb2685903) and rs2_val==dnorm(0x5facde8b20967d0b) and rs3_val==dnorm(0xff6763f2195d631b) | Multiply-Add: Cancellation ---> Subnormal result 
    ? 'fs1 == 0 and fe1 == 0x5f9 and fm1 == 0x0084bbfe5e825 and fs2 == 0 and fe2 ==
      0x5fa and fm2 == 0xd1ca42e21585b and fs3 == 1 and fe3 == 0x7f4 and fm3 == 0xd2bbc53a2397b
      and rm_val == 0  #nosat'
    : 1 #  rs1_val==dnorm(0x5f90084bbfe5e825) and rs2_val==dnorm(0x5fad1ca42e21585b) and rs3_val==dnorm(0xff4d2bbc53a2397b) | Multiply-Add: Cancellation ---> Subnormal result 
    ? 'fs1 == 0 and fe1 == 0x5f9 and fm1 == 0x209a1991e3307 and fs2 == 0 and fe2 ==
      0x5fa and fm2 == 0x82f8c4c611b4f and fs3 == 1 and fe3 == 0x7f4 and fm3 == 0xb440cdac049cd
      and rm_val == 0  #nosat'
    : 1 #  rs1_val==dnorm(0x5f9209a1991e3307) and rs2_val==dnorm(0x5fa82f8c4c611b4f) and rs3_val==dnorm(0xff4b440cdac049cd) | Multiply-Add: Cancellation ---> Subnormal result 
    ? 'fs1 == 0 and fe1 == 0x5fa and fm1 == 0x2ab10cf910f7c and fs2 == 0 and fe2 ==
      0x5fa and fm2 == 0xd0f42c0dfaf72 and fs3 == 1 and fe3 == 0x7f6 and fm3 == 0x0f3ee5d545177
      and rm_val == 0  #nosat'
    : 1 #  rs1_val==dnorm(0x5fa2ab10cf910f7c) and rs2_val==dnorm(0x5fad0f42c0dfaf72) and rs3_val==dnorm(0xff60f3ee5d545177) | Multiply-Add: Cancellation ---> Subnormal result 
    ? 'fs1 == 0 and fe1 == 0x5fa and fm1 == 0x914e0c751c4f4 and fs2 == 0 and fe2 ==
      0x5f9 and fm2 == 0x36979c7be0deb and fs3 == 1 and fe3 == 0x7f4 and fm3 == 0xe6e22d6ce9f46
      and rm_val == 0  #nosat'
    : 1 #  rs1_val==dnorm(0x5fa914e0c751c4f4) and rs2_val==dnorm(0x5f936979c7be0deb) and rs3_val==dnorm(0xff4e6e22d6ce9f46) | Multiply-Add: Cancellation ---> Subnormal result 
    ? 'fs1 == 0 and fe1 == 0x5f9 and fm1 == 0x092178fb945a5 and fs2 == 0 and fe2 ==
      0x5fa and fm2 == 0x05c5ccdf19706 and fs3 == 1 and fe3 == 0x7f4 and fm3 == 0x0f1bfb4852c2c
      and rm_val == 0  #nosat'
    : 1 #  rs1_val==dnorm(0x5f9092178fb945a5) and rs2_val==dnorm(0x5fa05c5ccdf19706) and rs3_val==dnorm(0xff40f1bfb4852c2c) | Multiply-Add: Cancellation ---> Subnormal result 
    coverage: 200/200
  total_coverage: 341/341
