---
fnmadd_b7:
  config:
  - check ISA:=regex(.*I.*F.*Zfh.*)
  mnemonics:
    fnmadd.h: 64
    coverage: 1/1
  op_comb:
    rd == rs2 == rs3 != rs1: 1
    rs1 != rs2 and rs1 != rd and rs1 != rs3 and rs2 != rs3 and rs2 != rd and rs3 != rd: 53
    rs1 == rd != rs2 and rs1 == rd != rs3 and rs3 != rs2: 1
    rs1 == rd == rs3 != rs2: 1
    rs1 == rs2 != rs3 and rs1 == rs2 != rd and rd != rs3: 1
    rs1 == rs2 == rd != rs3: 1
    rs1 == rs2 == rs3 != rd: 1
    rs1 == rs2 == rs3 == rd: 1
    rs1 == rs3 != rs2 and rs1 == rs3 != rd and rd != rs2: 1
    rs2 == rd != rs1 and rs2 == rd != rs3 and rs3 != rs1: 1
    rs2 == rs3 != rs1 and rs2 == rs3 != rd and rd != rs1: 1
    rs3 == rd != rs1 and rs3 == rd != rs2 and rs2 != rs1: 1
    coverage: 12/12
  rd:
    f0: 1
    f1: 1
    f10: 1
    f11: 1
    f12: 1
    f13: 1
    f14: 1
    f15: 1
    f16: 1
    f17: 1
    f18: 1
    f19: 1
    f2: 1
    f20: 1
    f21: 1
    f22: 1
    f23: 1
    f24: 1
    f25: 1
    f26: 1
    f27: 1
    f28: 1
    f29: 1
    f3: 1
    f30: 1
    f31: 33
    f4: 1
    f5: 1
    f6: 1
    f7: 1
    f8: 1
    f9: 1
    coverage: 32/32
  rs1:
    f0: 1
    f1: 1
    f10: 1
    f11: 1
    f12: 1
    f13: 1
    f14: 1
    f15: 1
    f16: 1
    f17: 1
    f18: 1
    f19: 1
    f2: 1
    f20: 1
    f21: 1
    f22: 1
    f23: 1
    f24: 1
    f25: 1
    f26: 1
    f27: 1
    f28: 1
    f29: 1
    f3: 1
    f30: 31
    f31: 3
    f4: 1
    f5: 1
    f6: 1
    f7: 1
    f8: 1
    f9: 1
    coverage: 32/32
  rs2:
    f0: 1
    f1: 1
    f10: 1
    f11: 1
    f12: 1
    f13: 1
    f14: 1
    f15: 1
    f16: 1
    f17: 1
    f18: 1
    f19: 1
    f2: 1
    f20: 1
    f21: 1
    f22: 1
    f23: 1
    f24: 1
    f25: 1
    f26: 1
    f27: 1
    f28: 1
    f29: 29
    f3: 1
    f30: 5
    f31: 1
    f4: 1
    f5: 1
    f6: 1
    f7: 1
    f8: 1
    f9: 1
    coverage: 32/32
  rs3:
    f0: 1
    f1: 1
    f10: 1
    f11: 1
    f12: 1
    f13: 1
    f14: 1
    f15: 1
    f16: 1
    f17: 1
    f18: 1
    f19: 1
    f2: 1
    f20: 1
    f21: 1
    f22: 1
    f23: 1
    f24: 1
    f25: 1
    f26: 1
    f27: 1
    f28: 27
    f29: 7
    f3: 1
    f30: 1
    f31: 1
    f4: 1
    f5: 1
    f6: 1
    f7: 1
    f8: 1
    f9: 1
    coverage: 32/32
  val_comb:
    ? 'fs1 == 0 and fe1 == 0x1e and fm1 == 0x257 and fs2 == 0 and fe2 == 0x0f and
      fm2 == 0x024 and fs3 == 0 and fe3 == 0x1e and fm3 == 0x292 and fcsr == 0x62
      and rm_val == 7  and rs1_nan_prefix == 0xffff and rs2_nan_prefix == 0xffff and
      rs3_nan_prefix == 0xffff  #nosat'
    : 1
    ? 'fs1 == 0 and fe1 == 0x1d and fm1 == 0x3c1 and fs2 == 0 and fe2 == 0x0e and
      fm2 == 0x050 and fs3 == 0 and fe3 == 0x1d and fm3 == 0x02f and fcsr == 0x62
      and rm_val == 7  and rs1_nan_prefix == 0xffff and rs2_nan_prefix == 0xffff and
      rs3_nan_prefix == 0xffff  #nosat'
    : 1
    ? 'fs1 == 0 and fe1 == 0x13 and fm1 == 0x3a5 and fs2 == 0 and fe2 == 0x19 and
      fm2 == 0x18b and fs3 == 0 and fe3 == 0x1e and fm3 == 0x14c and fcsr == 0x62
      and rm_val == 7  and rs1_nan_prefix == 0xffff and rs2_nan_prefix == 0xffff and
      rs3_nan_prefix == 0xffff  #nosat'
    : 1
    ? 'fs1 == 0 and fe1 == 0x1d and fm1 == 0x385 and fs2 == 0 and fe2 == 0x0f and
      fm2 == 0x276 and fs3 == 0 and fe3 == 0x1e and fm3 == 0x213 and fcsr == 0x62
      and rm_val == 7  and rs1_nan_prefix == 0xffff and rs2_nan_prefix == 0xffff and
      rs3_nan_prefix == 0xffff  #nosat'
    : 1
    ? 'fs1 == 0 and fe1 == 0x1d and fm1 == 0x1f7 and fs2 == 0 and fe2 == 0x10 and
      fm2 == 0x020 and fs3 == 0 and fe3 == 0x1e and fm3 == 0x228 and fcsr == 0x62
      and rm_val == 7  and rs1_nan_prefix == 0xffff and rs2_nan_prefix == 0xffff and
      rs3_nan_prefix == 0xffff  #nosat'
    : 1
    ? 'fs1 == 0 and fe1 == 0x1d and fm1 == 0x05c and fs2 == 0 and fe2 == 0x10 and
      fm2 == 0x1e1 and fs3 == 0 and fe3 == 0x1e and fm3 == 0x269 and fcsr == 0x62
      and rm_val == 7  and rs1_nan_prefix == 0xffff and rs2_nan_prefix == 0xffff and
      rs3_nan_prefix == 0xffff  #nosat'
    : 1
    ? 'fs1 == 0 and fe1 == 0x1e and fm1 == 0x1d5 and fs2 == 0 and fe2 == 0x0e and
      fm2 == 0x089 and fs3 == 0 and fe3 == 0x1d and fm3 == 0x29e and fcsr == 0x62
      and rm_val == 7  and rs1_nan_prefix == 0xffff and rs2_nan_prefix == 0xffff and
      rs3_nan_prefix == 0xffff  #nosat'
    : 1
    ? 'fs1 == 0 and fe1 == 0x1e and fm1 == 0x04d and fs2 == 0 and fe2 == 0x0f and
      fm2 == 0x111 and fs3 == 0 and fe3 == 0x1e and fm3 == 0x174 and fcsr == 0x62
      and rm_val == 7  and rs1_nan_prefix == 0xffff and rs2_nan_prefix == 0xffff and
      rs3_nan_prefix == 0xffff  #nosat'
    : 1
    ? 'fs1 == 0 and fe1 == 0x1c and fm1 == 0x22c and fs2 == 0 and fe2 == 0x10 and
      fm2 == 0x1bc and fs3 == 0 and fe3 == 0x1e and fm3 == 0x06d and fcsr == 0x62
      and rm_val == 7  and rs1_nan_prefix == 0xffff and rs2_nan_prefix == 0xffff and
      rs3_nan_prefix == 0xffff  #nosat'
    : 1
    ? 'fs1 == 0 and fe1 == 0x1e and fm1 == 0x270 and fs2 == 0 and fe2 == 0x0d and
      fm2 == 0x146 and fs3 == 0 and fe3 == 0x1d and fm3 == 0x03f and fcsr == 0x62
      and rm_val == 7  and rs1_nan_prefix == 0xffff and rs2_nan_prefix == 0xffff and
      rs3_nan_prefix == 0xffff  #nosat'
    : 1
    ? 'fs1 == 0 and fe1 == 0x1e and fm1 == 0x26c and fs2 == 0 and fe2 == 0x0e and
      fm2 == 0x2d4 and fs3 == 0 and fe3 == 0x1e and fm3 == 0x17b and fcsr == 0x62
      and rm_val == 7  and rs1_nan_prefix == 0xffff and rs2_nan_prefix == 0xffff and
      rs3_nan_prefix == 0xffff  #nosat'
    : 1
    ? 'fs1 == 0 and fe1 == 0x1e and fm1 == 0x2c0 and fs2 == 0 and fe2 == 0x0d and
      fm2 == 0x25c and fs3 == 0 and fe3 == 0x1d and fm3 == 0x15d and fcsr == 0x62
      and rm_val == 7  and rs1_nan_prefix == 0xffff and rs2_nan_prefix == 0xffff and
      rs3_nan_prefix == 0xffff  #nosat'
    : 1
    ? 'fs1 == 0 and fe1 == 0x1b and fm1 == 0x1f5 and fs2 == 0 and fe2 == 0x12 and
      fm2 == 0x04b and fs3 == 0 and fe3 == 0x1e and fm3 == 0x266 and fcsr == 0x62
      and rm_val == 7  and rs1_nan_prefix == 0xffff and rs2_nan_prefix == 0xffff and
      rs3_nan_prefix == 0xffff  #nosat'
    : 1
    ? 'fs1 == 0 and fe1 == 0x1e and fm1 == 0x26f and fs2 == 0 and fe2 == 0x0e and
      fm2 == 0x06c and fs3 == 0 and fe3 == 0x1d and fm3 == 0x31e and fcsr == 0x62
      and rm_val == 7  and rs1_nan_prefix == 0xffff and rs2_nan_prefix == 0xffff and
      rs3_nan_prefix == 0xffff  #nosat'
    : 1
    ? 'fs1 == 0 and fe1 == 0x1b and fm1 == 0x1ff and fs2 == 0 and fe2 == 0x10 and
      fm2 == 0x034 and fs3 == 0 and fe3 == 0x1c and fm3 == 0x24e and fcsr == 0x62
      and rm_val == 7  and rs1_nan_prefix == 0xffff and rs2_nan_prefix == 0xffff and
      rs3_nan_prefix == 0xffff  #nosat'
    : 1
    ? 'fs1 == 0 and fe1 == 0x1e and fm1 == 0x113 and fs2 == 0 and fe2 == 0x0d and
      fm2 == 0x356 and fs3 == 0 and fe3 == 0x1d and fm3 == 0x0a8 and fcsr == 0x62
      and rm_val == 7  and rs1_nan_prefix == 0xffff and rs2_nan_prefix == 0xffff and
      rs3_nan_prefix == 0xffff  #nosat'
    : 1
    ? 'fs1 == 0 and fe1 == 0x1e and fm1 == 0x39b and fs2 == 0 and fe2 == 0x0e and
      fm2 == 0x0f3 and fs3 == 0 and fe3 == 0x1e and fm3 == 0x0b4 and fcsr == 0x62
      and rm_val == 7  and rs1_nan_prefix == 0xffff and rs2_nan_prefix == 0xffff and
      rs3_nan_prefix == 0xffff  #nosat'
    : 1
    ? 'fs1 == 0 and fe1 == 0x1c and fm1 == 0x26c and fs2 == 0 and fe2 == 0x10 and
      fm2 == 0x286 and fs3 == 0 and fe3 == 0x1e and fm3 == 0x13d and fcsr == 0x62
      and rm_val == 7  and rs1_nan_prefix == 0xffff and rs2_nan_prefix == 0xffff and
      rs3_nan_prefix == 0xffff  #nosat'
    : 1
    ? 'fs1 == 0 and fe1 == 0x1d and fm1 == 0x1c3 and fs2 == 0 and fe2 == 0x10 and
      fm2 == 0x12d and fs3 == 0 and fe3 == 0x1e and fm3 == 0x375 and fcsr == 0x62
      and rm_val == 7  and rs1_nan_prefix == 0xffff and rs2_nan_prefix == 0xffff and
      rs3_nan_prefix == 0xffff  #nosat'
    : 1
    ? 'fs1 == 0 and fe1 == 0x1e and fm1 == 0x345 and fs2 == 0 and fe2 == 0x0e and
      fm2 == 0x086 and fs3 == 0 and fe3 == 0x1e and fm3 == 0x01d and fcsr == 0x62
      and rm_val == 7  and rs1_nan_prefix == 0xffff and rs2_nan_prefix == 0xffff and
      rs3_nan_prefix == 0xffff  #nosat'
    : 1
    ? 'fs1 == 0 and fe1 == 0x1e and fm1 == 0x127 and fs2 == 0 and fe2 == 0x0f and
      fm2 == 0x054 and fs3 == 0 and fe3 == 0x1e and fm3 == 0x194 and fcsr == 0x62
      and rm_val == 7  and rs1_nan_prefix == 0xffff and rs2_nan_prefix == 0xffff and
      rs3_nan_prefix == 0xffff  #nosat'
    : 1
    ? 'fs1 == 0 and fe1 == 0x1e and fm1 == 0x270 and fs2 == 0 and fe2 == 0x0f and
      fm2 == 0x0d9 and fs3 == 0 and fe3 == 0x1e and fm3 == 0x3ce and fcsr == 0x62
      and rm_val == 7  and rs1_nan_prefix == 0xffff and rs2_nan_prefix == 0xffff and
      rs3_nan_prefix == 0xffff  #nosat'
    : 1
    ? 'fs1 == 0 and fe1 == 0x19 and fm1 == 0x346 and fs2 == 0 and fe2 == 0x12 and
      fm2 == 0x25a and fs3 == 0 and fe3 == 0x1d and fm3 == 0x1c7 and fcsr == 0x62
      and rm_val == 7  and rs1_nan_prefix == 0xffff and rs2_nan_prefix == 0xffff and
      rs3_nan_prefix == 0xffff  #nosat'
    : 1
    ? 'fs1 == 0 and fe1 == 0x1e and fm1 == 0x0cf and fs2 == 0 and fe2 == 0x0e and
      fm2 == 0x00b and fs3 == 0 and fe3 == 0x1d and fm3 == 0x0dd and fcsr == 0x62
      and rm_val == 7  and rs1_nan_prefix == 0xffff and rs2_nan_prefix == 0xffff and
      rs3_nan_prefix == 0xffff  #nosat'
    : 1
    ? 'fs1 == 0 and fe1 == 0x1e and fm1 == 0x0b6 and fs2 == 0 and fe2 == 0x0c and
      fm2 == 0x0df and fs3 == 0 and fe3 == 0x1b and fm3 == 0x1bc and fcsr == 0x62
      and rm_val == 7  and rs1_nan_prefix == 0xffff and rs2_nan_prefix == 0xffff and
      rs3_nan_prefix == 0xffff  #nosat'
    : 1
    ? 'fs1 == 0 and fe1 == 0x1e and fm1 == 0x309 and fs2 == 0 and fe2 == 0x0e and
      fm2 == 0x0c6 and fs3 == 0 and fe3 == 0x1e and fm3 == 0x033 and fcsr == 0x62
      and rm_val == 7  and rs1_nan_prefix == 0xffff and rs2_nan_prefix == 0xffff and
      rs3_nan_prefix == 0xffff  #nosat'
    : 1
    ? 'fs1 == 0 and fe1 == 0x1b and fm1 == 0x379 and fs2 == 0 and fe2 == 0x11 and
      fm2 == 0x1ac and fs3 == 0 and fe3 == 0x1e and fm3 == 0x14c and fcsr == 0x62
      and rm_val == 7  and rs1_nan_prefix == 0xffff and rs2_nan_prefix == 0xffff and
      rs3_nan_prefix == 0xffff  #nosat'
    : 1
    ? 'fs1 == 0 and fe1 == 0x1d and fm1 == 0x0fe and fs2 == 0 and fe2 == 0x0e and
      fm2 == 0x106 and fs3 == 0 and fe3 == 0x1c and fm3 == 0x246 and fcsr == 0x62
      and rm_val == 7  and rs1_nan_prefix == 0xffff and rs2_nan_prefix == 0xffff and
      rs3_nan_prefix == 0xffff  #nosat'
    : 1
    ? 'fs1 == 0 and fe1 == 0x1d and fm1 == 0x3bc and fs2 == 0 and fe2 == 0x0d and
      fm2 == 0x091 and fs3 == 0 and fe3 == 0x1c and fm3 == 0x06a and fcsr == 0x62
      and rm_val == 7  and rs1_nan_prefix == 0xffff and rs2_nan_prefix == 0xffff and
      rs3_nan_prefix == 0xffff  #nosat'
    : 1
    ? 'fs1 == 0 and fe1 == 0x1c and fm1 == 0x2b6 and fs2 == 0 and fe2 == 0x11 and
      fm2 == 0x01f and fs3 == 0 and fe3 == 0x1e and fm3 == 0x2eb and fcsr == 0x62
      and rm_val == 7  and rs1_nan_prefix == 0xffff and rs2_nan_prefix == 0xffff and
      rs3_nan_prefix == 0xffff  #nosat'
    : 1
    ? 'fs1 == 0 and fe1 == 0x1e and fm1 == 0x195 and fs2 == 0 and fe2 == 0x09 and
      fm2 == 0x098 and fs3 == 0 and fe3 == 0x18 and fm3 == 0x26a and fcsr == 0x62
      and rm_val == 7  and rs1_nan_prefix == 0xffff and rs2_nan_prefix == 0xffff and
      rs3_nan_prefix == 0xffff  #nosat'
    : 1
    ? 'fs1 == 0 and fe1 == 0x1e and fm1 == 0x238 and fs2 == 0 and fe2 == 0x09 and
      fm2 == 0x19e and fs3 == 0 and fe3 == 0x19 and fm3 == 0x05e and fcsr == 0x62
      and rm_val == 7  and rs1_nan_prefix == 0xffff and rs2_nan_prefix == 0xffff and
      rs3_nan_prefix == 0xffff  #nosat'
    : 1
    ? 'fs1 == 0 and fe1 == 0x1d and fm1 == 0x152 and fs2 == 0 and fe2 == 0x10 and
      fm2 == 0x16e and fs3 == 0 and fe3 == 0x1e and fm3 == 0x33b and fcsr == 0x62
      and rm_val == 7  and rs1_nan_prefix == 0xffff and rs2_nan_prefix == 0xffff and
      rs3_nan_prefix == 0xffff  #nosat'
    : 1
    ? 'fs1 == 0 and fe1 == 0x1e and fm1 == 0x0f5 and fs2 == 0 and fe2 == 0x0d and
      fm2 == 0x3e5 and fs3 == 0 and fe3 == 0x1d and fm3 == 0x0e5 and fcsr == 0x62
      and rm_val == 7  and rs1_nan_prefix == 0xffff and rs2_nan_prefix == 0xffff and
      rs3_nan_prefix == 0xffff  #nosat'
    : 1
    ? 'fs1 == 0 and fe1 == 0x1d and fm1 == 0x209 and fs2 == 0 and fe2 == 0x0f and
      fm2 == 0x01f and fs3 == 0 and fe3 == 0x1d and fm3 == 0x239 and fcsr == 0x62
      and rm_val == 7  and rs1_nan_prefix == 0xffff and rs2_nan_prefix == 0xffff and
      rs3_nan_prefix == 0xffff  #nosat'
    : 1
    ? 'fs1 == 0 and fe1 == 0x1c and fm1 == 0x00e and fs2 == 0 and fe2 == 0x11 and
      fm2 == 0x3e1 and fs3 == 0 and fe3 == 0x1e and fm3 == 0x3fe and fcsr == 0x62
      and rm_val == 7  and rs1_nan_prefix == 0xffff and rs2_nan_prefix == 0xffff and
      rs3_nan_prefix == 0xffff  #nosat'
    : 1
    ? 'fs1 == 0 and fe1 == 0x1a and fm1 == 0x2e3 and fs2 == 0 and fe2 == 0x11 and
      fm2 == 0x3da and fs3 == 0 and fe3 == 0x1d and fm3 == 0x2c3 and fcsr == 0x62
      and rm_val == 7  and rs1_nan_prefix == 0xffff and rs2_nan_prefix == 0xffff and
      rs3_nan_prefix == 0xffff  #nosat'
    : 1
    ? 'fs1 == 0 and fe1 == 0x1e and fm1 == 0x1f7 and fs2 == 0 and fe2 == 0x0e and
      fm2 == 0x043 and fs3 == 0 and fe3 == 0x1d and fm3 == 0x25c and fcsr == 0x62
      and rm_val == 7  and rs1_nan_prefix == 0xffff and rs2_nan_prefix == 0xffff and
      rs3_nan_prefix == 0xffff  #nosat'
    : 1
    ? 'fs1 == 0 and fe1 == 0x1e and fm1 == 0x3d8 and fs2 == 0 and fe2 == 0x0d and
      fm2 == 0x000 and fs3 == 0 and fe3 == 0x1c and fm3 == 0x3d8 and fcsr == 0x62
      and rm_val == 7  and rs1_nan_prefix == 0xffff and rs2_nan_prefix == 0xffff and
      rs3_nan_prefix == 0xffff  #nosat'
    : 1
    ? 'fs1 == 0 and fe1 == 0x1e and fm1 == 0x3d4 and fs2 == 0 and fe2 == 0x0e and
      fm2 == 0x34a and fs3 == 0 and fe3 == 0x1e and fm3 == 0x322 and fcsr == 0x62
      and rm_val == 7  and rs1_nan_prefix == 0xffff and rs2_nan_prefix == 0xffff and
      rs3_nan_prefix == 0xffff  #nosat'
    : 1
    ? 'fs1 == 0 and fe1 == 0x1e and fm1 == 0x15b and fs2 == 0 and fe2 == 0x0f and
      fm2 == 0x14f and fs3 == 0 and fe3 == 0x1e and fm3 == 0x31c and fcsr == 0x62
      and rm_val == 7  and rs1_nan_prefix == 0xffff and rs2_nan_prefix == 0xffff and
      rs3_nan_prefix == 0xffff  #nosat'
    : 1
    ? 'fs1 == 0 and fe1 == 0x1d and fm1 == 0x326 and fs2 == 0 and fe2 == 0x0f and
      fm2 == 0x36f and fs3 == 0 and fe3 == 0x1e and fm3 == 0x2a5 and fcsr == 0x62
      and rm_val == 7  and rs1_nan_prefix == 0xffff and rs2_nan_prefix == 0xffff and
      rs3_nan_prefix == 0xffff  #nosat'
    : 1
    ? 'fs1 == 0 and fe1 == 0x1e and fm1 == 0x25d and fs2 == 0 and fe2 == 0x0e and
      fm2 == 0x12e and fs3 == 0 and fe3 == 0x1e and fm3 == 0x021 and fcsr == 0x62
      and rm_val == 7  and rs1_nan_prefix == 0xffff and rs2_nan_prefix == 0xffff and
      rs3_nan_prefix == 0xffff  #nosat'
    : 1
    ? 'fs1 == 0 and fe1 == 0x1d and fm1 == 0x388 and fs2 == 0 and fe2 == 0x0f and
      fm2 == 0x1fc and fs3 == 0 and fe3 == 0x1e and fm3 == 0x1a4 and fcsr == 0x62
      and rm_val == 7  and rs1_nan_prefix == 0xffff and rs2_nan_prefix == 0xffff and
      rs3_nan_prefix == 0xffff  #nosat'
    : 1
    ? 'fs1 == 0 and fe1 == 0x1d and fm1 == 0x28a and fs2 == 0 and fe2 == 0x0c and
      fm2 == 0x2a5 and fs3 == 0 and fe3 == 0x1b and fm3 == 0x17f and fcsr == 0x62
      and rm_val == 7  and rs1_nan_prefix == 0xffff and rs2_nan_prefix == 0xffff and
      rs3_nan_prefix == 0xffff  #nosat'
    : 1
    ? 'fs1 == 0 and fe1 == 0x1e and fm1 == 0x1f8 and fs2 == 0 and fe2 == 0x0d and
      fm2 == 0x1ad and fs3 == 0 and fe3 == 0x1d and fm3 == 0x040 and fcsr == 0x62
      and rm_val == 7  and rs1_nan_prefix == 0xffff and rs2_nan_prefix == 0xffff and
      rs3_nan_prefix == 0xffff  #nosat'
    : 1
    ? 'fs1 == 0 and fe1 == 0x1d and fm1 == 0x3cc and fs2 == 0 and fe2 == 0x0f and
      fm2 == 0x26c and fs3 == 0 and fe3 == 0x1e and fm3 == 0x244 and fcsr == 0x62
      and rm_val == 7  and rs1_nan_prefix == 0xffff and rs2_nan_prefix == 0xffff and
      rs3_nan_prefix == 0xffff  #nosat'
    : 1
    ? 'fs1 == 0 and fe1 == 0x1c and fm1 == 0x181 and fs2 == 0 and fe2 == 0x0b and
      fm2 == 0x3c6 and fs3 == 0 and fe3 == 0x19 and fm3 == 0x199 and fcsr == 0x62
      and rm_val == 7  and rs1_nan_prefix == 0xffff and rs2_nan_prefix == 0xffff and
      rs3_nan_prefix == 0xffff  #nosat'
    : 1
    ? 'fs1 == 0 and fe1 == 0x1b and fm1 == 0x3e6 and fs2 == 0 and fe2 == 0x11 and
      fm2 == 0x0c3 and fs3 == 0 and fe3 == 0x1e and fm3 == 0x0b6 and fcsr == 0x62
      and rm_val == 7  and rs1_nan_prefix == 0xffff and rs2_nan_prefix == 0xffff and
      rs3_nan_prefix == 0xffff  #nosat'
    : 1
    ? 'fs1 == 0 and fe1 == 0x1d and fm1 == 0x1c6 and fs2 == 0 and fe2 == 0x0e and
      fm2 == 0x1ad and fs3 == 0 and fe3 == 0x1d and fm3 == 0x019 and fcsr == 0x62
      and rm_val == 7  and rs1_nan_prefix == 0xffff and rs2_nan_prefix == 0xffff and
      rs3_nan_prefix == 0xffff  #nosat'
    : 1
    ? 'fs1 == 0 and fe1 == 0x1d and fm1 == 0x338 and fs2 == 0 and fe2 == 0x10 and
      fm2 == 0x01b and fs3 == 0 and fe3 == 0x1e and fm3 == 0x36a and fcsr == 0x62
      and rm_val == 7  and rs1_nan_prefix == 0xffff and rs2_nan_prefix == 0xffff and
      rs3_nan_prefix == 0xffff  #nosat'
    : 1
    ? 'fs1 == 0 and fe1 == 0x1d and fm1 == 0x013 and fs2 == 0 and fe2 == 0x0f and
      fm2 == 0x272 and fs3 == 0 and fe3 == 0x1d and fm3 == 0x290 and fcsr == 0x62
      and rm_val == 7  and rs1_nan_prefix == 0xffff and rs2_nan_prefix == 0xffff and
      rs3_nan_prefix == 0xffff  #nosat'
    : 1
    ? 'fs1 == 0 and fe1 == 0x1e and fm1 == 0x307 and fs2 == 0 and fe2 == 0x0e and
      fm2 == 0x191 and fs3 == 0 and fe3 == 0x1e and fm3 == 0x0e5 and fcsr == 0x62
      and rm_val == 7  and rs1_nan_prefix == 0xffff and rs2_nan_prefix == 0xffff and
      rs3_nan_prefix == 0xffff  #nosat'
    : 1
    ? 'fs1 == 0 and fe1 == 0x1d and fm1 == 0x048 and fs2 == 0 and fe2 == 0x0f and
      fm2 == 0x316 and fs3 == 0 and fe3 == 0x1d and fm3 == 0x397 and fcsr == 0x62
      and rm_val == 7  and rs1_nan_prefix == 0xffff and rs2_nan_prefix == 0xffff and
      rs3_nan_prefix == 0xffff  #nosat'
    : 1
    ? 'fs1 == 0 and fe1 == 0x1d and fm1 == 0x3a7 and fs2 == 0 and fe2 == 0x0d and
      fm2 == 0x0c1 and fs3 == 0 and fe3 == 0x1c and fm3 == 0x08c and fcsr == 0x62
      and rm_val == 7  and rs1_nan_prefix == 0xffff and rs2_nan_prefix == 0xffff and
      rs3_nan_prefix == 0xffff  #nosat'
    : 1
    ? 'fs1 == 0 and fe1 == 0x1d and fm1 == 0x209 and fs2 == 0 and fe2 == 0x0e and
      fm2 == 0x27a and fs3 == 0 and fe3 == 0x1d and fm3 == 0x0e3 and fcsr == 0x62
      and rm_val == 7  and rs1_nan_prefix == 0xffff and rs2_nan_prefix == 0xffff and
      rs3_nan_prefix == 0xffff  #nosat'
    : 1
    coverage: 56/56
  total_coverage: 197/197
