---
fmul_b2:
  config:
  - check ISA:=regex(.*I.*F.*)
  op_comb:
    rs1 != rs2  and rs1 != rd and rs2 != rd: 274
    rs1 == rd != rs2: 1
    rs1 == rs2 != rd: 1
    rs1 == rs2 == rd: 1
    rs2 == rd != rs1: 1
    coverage: 5/5
  opcode:
    fmul.d: 278
    coverage: 1/1
  rd:
    f0: 1
    f1: 1
    f10: 1
    f11: 1
    f12: 1
    f13: 1
    f14: 1
    f15: 1
    f16: 1
    f17: 1
    f18: 1
    f19: 1
    f2: 1
    f20: 1
    f21: 1
    f22: 1
    f23: 1
    f24: 1
    f25: 1
    f26: 1
    f27: 1
    f28: 1
    f29: 1
    f3: 1
    f30: 1
    f31: 247
    f4: 1
    f5: 1
    f6: 1
    f7: 1
    f8: 1
    f9: 1
    coverage: 32/32
  rs1:
    f0: 1
    f1: 1
    f10: 1
    f11: 1
    f12: 1
    f13: 1
    f14: 1
    f15: 1
    f16: 1
    f17: 1
    f18: 1
    f19: 1
    f2: 1
    f20: 1
    f21: 1
    f22: 1
    f23: 1
    f24: 1
    f25: 1
    f26: 1
    f27: 1
    f28: 1
    f29: 1
    f3: 1
    f30: 247
    f31: 1
    f4: 1
    f5: 1
    f6: 1
    f7: 1
    f8: 1
    f9: 1
    coverage: 32/32
  rs2:
    f0: 1
    f1: 1
    f10: 1
    f11: 1
    f12: 1
    f13: 1
    f14: 1
    f15: 1
    f16: 1
    f17: 1
    f18: 1
    f19: 1
    f2: 1
    f20: 1
    f21: 1
    f22: 1
    f23: 1
    f24: 1
    f25: 1
    f26: 1
    f27: 1
    f28: 1
    f29: 247
    f3: 1
    f30: 1
    f31: 1
    f4: 1
    f5: 1
    f6: 1
    f7: 1
    f8: 1
    f9: 1
    coverage: 32/32
  val_comb:
    ? 'fs1 == 0 and fe1 == 0x000 and fm1 == 0x0000000000008 and fs2 == 0 and fe2 ==
      0x3fc and fm2 == 0x0000000000000 and rm_val == 0  #nosat'
    : 1  #  rs1_val==dsubnorm(0x0000000000000008) and rs2_val==dnorm(0x3fc0000000000000) | Result = dzero(0x0000000000000000)^0x000001
    ? 'fs1 == 0 and fe1 == 0x7fe and fm1 == 0x000000000002d and fs2 == 1 and fe2 ==
      0x3ff and fm2 == 0xfffffffbfffa5 and rm_val == 0  #nosat'
    : 1 #  rs1_val==dnorm(0x7fe000000000002d) and rs2_val==dnorm(0xbfffffffffbfffa5) | Result = dmaxnorm(0xffefffffffffffff)^0x400000
    ? 'fs1 == 0 and fe1 == 0x7fe and fm1 == 0x000000000004f and fs2 == 1 and fe2 ==
      0x3ff and fm2 == 0xfffffffdfff61 and rm_val == 0  #nosat'
    : 1 #  rs1_val==dnorm(0x7fe000000000004f) and rs2_val==dnorm(0xbfffffffffdfff61) | Result = dmaxnorm(0xffefffffffffffff)^0x200000
    ? 'fs1 == 0 and fe1 == 0x7fe and fm1 == 0x0000000000004 and fs2 == 1 and fe2 ==
      0x3ff and fm2 == 0xfffffffeffff7 and rm_val == 0  #nosat'
    : 1 #  rs1_val==dnorm(0x7fe0000000000004) and rs2_val==dnorm(0xbfffffffffeffff7) | Result = dmaxnorm(0xffefffffffffffff)^0x100000
    ? 'fs1 == 0 and fe1 == 0x7fe and fm1 == 0x0000000000041 and fs2 == 1 and fe2 ==
      0x3ff and fm2 == 0xffffffff7ff7d and rm_val == 0  #nosat'
    : 1 #  rs1_val==dnorm(0x7fe0000000000041) and rs2_val==dnorm(0xbffffffffff7ff7d) | Result = dmaxnorm(0xffefffffffffffff)^0x080000
    ? 'fs1 == 0 and fe1 == 0x7fe and fm1 == 0x000000000003b and fs2 == 1 and fe2 ==
      0x3ff and fm2 == 0xffffffffbff89 and rm_val == 0  #nosat'
    : 1 #  rs1_val==dnorm(0x7fe000000000003b) and rs2_val==dnorm(0xbffffffffffbff89) | Result = dmaxnorm(0xffefffffffffffff)^0x040000
    ? 'fs1 == 0 and fe1 == 0x7fe and fm1 == 0x0000000000057 and fs2 == 1 and fe2 ==
      0x3ff and fm2 == 0xffffffffdff51 and rm_val == 0  #nosat'
    : 1 #  rs1_val==dnorm(0x7fe0000000000057) and rs2_val==dnorm(0xbffffffffffdff51) | Result = dmaxnorm(0xffefffffffffffff)^0x020000
    ? 'fs1 == 0 and fe1 == 0x7fe and fm1 == 0x000000000004c and fs2 == 1 and fe2 ==
      0x3ff and fm2 == 0xffffffffeff67 and rm_val == 0  #nosat'
    : 1 #  rs1_val==dnorm(0x7fe000000000004c) and rs2_val==dnorm(0xbffffffffffeff67) | Result = dmaxnorm(0xffefffffffffffff)^0x010000
    ? 'fs1 == 0 and fe1 == 0x7fe and fm1 == 0x0000000000009 and fs2 == 1 and fe2 ==
      0x3ff and fm2 == 0xfffffffff7fed and rm_val == 0  #nosat'
    : 1 #  rs1_val==dnorm(0x7fe0000000000009) and rs2_val==dnorm(0xbfffffffffff7fed) | Result = dmaxnorm(0xffefffffffffffff)^0x008000
    ? 'fs1 == 0 and fe1 == 0x7fe and fm1 == 0x0000000000056 and fs2 == 1 and fe2 ==
      0x3ff and fm2 == 0xfffffffffbf53 and rm_val == 0  #nosat'
    : 1 #  rs1_val==dnorm(0x7fe0000000000056) and rs2_val==dnorm(0xbfffffffffffbf53) | Result = dmaxnorm(0xffefffffffffffff)^0x004000
    ? 'fs1 == 0 and fe1 == 0x7fe and fm1 == 0x000000000003f and fs2 == 1 and fe2 ==
      0x3ff and fm2 == 0xfffffffffdf81 and rm_val == 0  #nosat'
    : 1 #  rs1_val==dnorm(0x7fe000000000003f) and rs2_val==dnorm(0xbfffffffffffdf81) | Result = dmaxnorm(0xffefffffffffffff)^0x002000
    ? 'fs1 == 0 and fe1 == 0x7fe and fm1 == 0x000000000002d and fs2 == 1 and fe2 ==
      0x3ff and fm2 == 0xfffffffffefa5 and rm_val == 0  #nosat'
    : 1 #  rs1_val==dnorm(0x7fe000000000002d) and rs2_val==dnorm(0xbfffffffffffefa5) | Result = dmaxnorm(0xffefffffffffffff)^0x001000
    ? 'fs1 == 0 and fe1 == 0x7fe and fm1 == 0x0000000000062 and fs2 == 1 and fe2 ==
      0x3ff and fm2 == 0xffffffffff73b and rm_val == 0  #nosat'
    : 1 #  rs1_val==dnorm(0x7fe0000000000062) and rs2_val==dnorm(0xbffffffffffff73b) | Result = dmaxnorm(0xffefffffffffffff)^0x000800
    ? 'fs1 == 0 and fe1 == 0x7fe and fm1 == 0x000000000005c and fs2 == 1 and fe2 ==
      0x3ff and fm2 == 0xffffffffffb47 and rm_val == 0  #nosat'
    : 1 #  rs1_val==dnorm(0x7fe000000000005c) and rs2_val==dnorm(0xbffffffffffffb47) | Result = dmaxnorm(0xffefffffffffffff)^0x000400
    ? 'fs1 == 0 and fe1 == 0x7fe and fm1 == 0x0000000000017 and fs2 == 1 and fe2 ==
      0x3ff and fm2 == 0xffffffffffdd1 and rm_val == 0  #nosat'
    : 1 #  rs1_val==dnorm(0x7fe0000000000017) and rs2_val==dnorm(0xbffffffffffffdd1) | Result = dmaxnorm(0xffefffffffffffff)^0x000200
    ? 'fs1 == 0 and fe1 == 0x7fe and fm1 == 0x0000000000042 and fs2 == 1 and fe2 ==
      0x3ff and fm2 == 0xffffffffffe7b and rm_val == 0  #nosat'
    : 1 #  rs1_val==dnorm(0x7fe0000000000042) and rs2_val==dnorm(0xbffffffffffffe7b) | Result = dmaxnorm(0xffefffffffffffff)^0x000100
    ? 'fs1 == 0 and fe1 == 0x7fe and fm1 == 0x000000000003e and fs2 == 1 and fe2 ==
      0x3ff and fm2 == 0xfffffffffff03 and rm_val == 0  #nosat'
    : 1 #  rs1_val==dnorm(0x7fe000000000003e) and rs2_val==dnorm(0xbfffffffffffff03) | Result = dmaxnorm(0xffefffffffffffff)^0x000080
    ? 'fs1 == 0 and fe1 == 0x7fe and fm1 == 0x0000000000057 and fs2 == 1 and fe2 ==
      0x3ff and fm2 == 0xfffffffffff11 and rm_val == 0  #nosat'
    : 1 #  rs1_val==dnorm(0x7fe0000000000057) and rs2_val==dnorm(0xbfffffffffffff11) | Result = dmaxnorm(0xffefffffffffffff)^0x000040
    ? 'fs1 == 0 and fe1 == 0x7fe and fm1 == 0x0000000000002 and fs2 == 1 and fe2 ==
      0x3ff and fm2 == 0xfffffffffffdb and rm_val == 0  #nosat'
    : 1 #  rs1_val==dnorm(0x7fe0000000000002) and rs2_val==dnorm(0xbfffffffffffffdb) | Result = dmaxnorm(0xffefffffffffffff)^0x000020
    ? 'fs1 == 0 and fe1 == 0x7fe and fm1 == 0x000000000004f and fs2 == 1 and fe2 ==
      0x3ff and fm2 == 0xfffffffffff51 and rm_val == 0  #nosat'
    : 1 #  rs1_val==dnorm(0x7fe000000000004f) and rs2_val==dnorm(0xbfffffffffffff51) | Result = dmaxnorm(0xffefffffffffffff)^0x000010
    ? 'fs1 == 0 and fe1 == 0x7fe and fm1 == 0x0000000000019 and fs2 == 1 and fe2 ==
      0x3ff and fm2 == 0xfffffffffffc5 and rm_val == 0  #nosat'
    : 1 #  rs1_val==dnorm(0x7fe0000000000019) and rs2_val==dnorm(0xbfffffffffffffc5) | Result = dmaxnorm(0xffefffffffffffff)^0x000008
    ? 'fs1 == 0 and fe1 == 0x7fe and fm1 == 0x000000000004c and fs2 == 1 and fe2 ==
      0x3ff and fm2 == 0xfffffffffff63 and rm_val == 0  #nosat'
    : 1 #  rs1_val==dnorm(0x7fe000000000004c) and rs2_val==dnorm(0xbfffffffffffff63) | Result = dmaxnorm(0xffefffffffffffff)^0x000004
    ? 'fs1 == 0 and fe1 == 0x7fe and fm1 == 0x0000000000024 and fs2 == 1 and fe2 ==
      0x3ff and fm2 == 0xfffffffffffb5 and rm_val == 0  #nosat'
    : 1 #  rs1_val==dnorm(0x7fe0000000000024) and rs2_val==dnorm(0xbfffffffffffffb5) | Result = dmaxnorm(0xffefffffffffffff)^0x000002
    ? 'fs1 == 0 and fe1 == 0x7fe and fm1 == 0x0000000000063 and fs2 == 1 and fe2 ==
      0x3ff and fm2 == 0xfffffffffff38 and rm_val == 0  #nosat'
    : 1 #  rs1_val==dnorm(0x7fe0000000000063) and rs2_val==dnorm(0xbfffffffffffff38) | Result = dmaxnorm(0xffefffffffffffff)^0x000001
    ? 'fs1 == 0 and fe1 == 0x7fe and fm1 == 0x0000000000032 and fs2 == 0 and fe2 ==
      0x3ff and fm2 == 0xfffffffbfff9b and rm_val == 0  #nosat'
    : 1 #  rs1_val==dnorm(0x7fe0000000000032) and rs2_val==dnorm(0x3fffffffffbfff9b) | Result = dmaxnorm(0x7fefffffffffffff)^0x400000
    ? 'fs1 == 0 and fe1 == 0x7fe and fm1 == 0x000000000001c and fs2 == 0 and fe2 ==
      0x3ff and fm2 == 0xfffffffdfffc7 and rm_val == 0  #nosat'
    : 1 #  rs1_val==dnorm(0x7fe000000000001c) and rs2_val==dnorm(0x3fffffffffdfffc7) | Result = dmaxnorm(0x7fefffffffffffff)^0x200000
    ? 'fs1 == 0 and fe1 == 0x7fe and fm1 == 0x000000000004e and fs2 == 0 and fe2 ==
      0x3ff and fm2 == 0xfffffffefff63 and rm_val == 0  #nosat'
    : 1 #  rs1_val==dnorm(0x7fe000000000004e) and rs2_val==dnorm(0x3fffffffffefff63) | Result = dmaxnorm(0x7fefffffffffffff)^0x100000
    ? 'fs1 == 0 and fe1 == 0x7fe and fm1 == 0x000000000005e and fs2 == 0 and fe2 ==
      0x3ff and fm2 == 0xffffffff7ff43 and rm_val == 0  #nosat'
    : 1 #  rs1_val==dnorm(0x7fe000000000005e) and rs2_val==dnorm(0x3ffffffffff7ff43) | Result = dmaxnorm(0x7fefffffffffffff)^0x080000
    ? 'fs1 == 0 and fe1 == 0x7fe and fm1 == 0x0000000000034 and fs2 == 0 and fe2 ==
      0x3ff and fm2 == 0xffffffffbff97 and rm_val == 0  #nosat'
    : 1 #  rs1_val==dnorm(0x7fe0000000000034) and rs2_val==dnorm(0x3ffffffffffbff97) | Result = dmaxnorm(0x7fefffffffffffff)^0x040000
    ? 'fs1 == 0 and fe1 == 0x7fe and fm1 == 0x000000000000d and fs2 == 0 and fe2 ==
      0x3ff and fm2 == 0xffffffffdffe5 and rm_val == 0  #nosat'
    : 1 #  rs1_val==dnorm(0x7fe000000000000d) and rs2_val==dnorm(0x3ffffffffffdffe5) | Result = dmaxnorm(0x7fefffffffffffff)^0x020000
    ? 'fs1 == 0 and fe1 == 0x7fe and fm1 == 0x0000000000054 and fs2 == 0 and fe2 ==
      0x3ff and fm2 == 0xffffffffeff57 and rm_val == 0  #nosat'
    : 1 #  rs1_val==dnorm(0x7fe0000000000054) and rs2_val==dnorm(0x3ffffffffffeff57) | Result = dmaxnorm(0x7fefffffffffffff)^0x010000
    ? 'fs1 == 0 and fe1 == 0x7fe and fm1 == 0x000000000005c and fs2 == 0 and fe2 ==
      0x3ff and fm2 == 0xfffffffff7f47 and rm_val == 0  #nosat'
    : 1 #  rs1_val==dnorm(0x7fe000000000005c) and rs2_val==dnorm(0x3fffffffffff7f47) | Result = dmaxnorm(0x7fefffffffffffff)^0x008000
    ? 'fs1 == 0 and fe1 == 0x7fe and fm1 == 0x000000000003c and fs2 == 0 and fe2 ==
      0x3ff and fm2 == 0xfffffffffbf87 and rm_val == 0  #nosat'
    : 1 #  rs1_val==dnorm(0x7fe000000000003c) and rs2_val==dnorm(0x3fffffffffffbf87) | Result = dmaxnorm(0x7fefffffffffffff)^0x004000
    ? 'fs1 == 0 and fe1 == 0x7fe and fm1 == 0x0000000000002 and fs2 == 0 and fe2 ==
      0x3ff and fm2 == 0xfffffffffdffb and rm_val == 0  #nosat'
    : 1 #  rs1_val==dnorm(0x7fe0000000000002) and rs2_val==dnorm(0x3fffffffffffdffb) | Result = dmaxnorm(0x7fefffffffffffff)^0x002000
    ? 'fs1 == 0 and fe1 == 0x7fe and fm1 == 0x0000000000031 and fs2 == 0 and fe2 ==
      0x3ff and fm2 == 0xfffffffffef9d and rm_val == 0  #nosat'
    : 1 #  rs1_val==dnorm(0x7fe0000000000031) and rs2_val==dnorm(0x3fffffffffffef9d) | Result = dmaxnorm(0x7fefffffffffffff)^0x001000
    ? 'fs1 == 0 and fe1 == 0x7fe and fm1 == 0x0000000000034 and fs2 == 0 and fe2 ==
      0x3ff and fm2 == 0xffffffffff797 and rm_val == 0  #nosat'
    : 1 #  rs1_val==dnorm(0x7fe0000000000034) and rs2_val==dnorm(0x3ffffffffffff797) | Result = dmaxnorm(0x7fefffffffffffff)^0x000800
    ? 'fs1 == 0 and fe1 == 0x7fe and fm1 == 0x0000000000050 and fs2 == 0 and fe2 ==
      0x3ff and fm2 == 0xffffffffffb5f and rm_val == 0  #nosat'
    : 1 #  rs1_val==dnorm(0x7fe0000000000050) and rs2_val==dnorm(0x3ffffffffffffb5f) | Result = dmaxnorm(0x7fefffffffffffff)^0x000400
    ? 'fs1 == 0 and fe1 == 0x7fe and fm1 == 0x000000000001d and fs2 == 0 and fe2 ==
      0x3ff and fm2 == 0xffffffffffdc5 and rm_val == 0  #nosat'
    : 1 #  rs1_val==dnorm(0x7fe000000000001d) and rs2_val==dnorm(0x3ffffffffffffdc5) | Result = dmaxnorm(0x7fefffffffffffff)^0x000200
    ? 'fs1 == 0 and fe1 == 0x7fe and fm1 == 0x0000000000062 and fs2 == 0 and fe2 ==
      0x3ff and fm2 == 0xffffffffffe3b and rm_val == 0  #nosat'
    : 1 #  rs1_val==dnorm(0x7fe0000000000062) and rs2_val==dnorm(0x3ffffffffffffe3b) | Result = dmaxnorm(0x7fefffffffffffff)^0x000100
    ? 'fs1 == 0 and fe1 == 0x7fe and fm1 == 0x0000000000055 and fs2 == 0 and fe2 ==
      0x3ff and fm2 == 0xffffffffffed5 and rm_val == 0  #nosat'
    : 1 #  rs1_val==dnorm(0x7fe0000000000055) and rs2_val==dnorm(0x3ffffffffffffed5) | Result = dmaxnorm(0x7fefffffffffffff)^0x000080
    ? 'fs1 == 0 and fe1 == 0x7fe and fm1 == 0x000000000005c and fs2 == 0 and fe2 ==
      0x3ff and fm2 == 0xfffffffffff07 and rm_val == 0  #nosat'
    : 1 #  rs1_val==dnorm(0x7fe000000000005c) and rs2_val==dnorm(0x3fffffffffffff07) | Result = dmaxnorm(0x7fefffffffffffff)^0x000040
    ? 'fs1 == 0 and fe1 == 0x7fe and fm1 == 0x0000000000047 and fs2 == 0 and fe2 ==
      0x3ff and fm2 == 0xfffffffffff51 and rm_val == 0  #nosat'
    : 1 #  rs1_val==dnorm(0x7fe0000000000047) and rs2_val==dnorm(0x3fffffffffffff51) | Result = dmaxnorm(0x7fefffffffffffff)^0x000020
    ? 'fs1 == 0 and fe1 == 0x7fe and fm1 == 0x000000000003d and fs2 == 0 and fe2 ==
      0x3ff and fm2 == 0xfffffffffff75 and rm_val == 0  #nosat'
    : 1 #  rs1_val==dnorm(0x7fe000000000003d) and rs2_val==dnorm(0x3fffffffffffff75) | Result = dmaxnorm(0x7fefffffffffffff)^0x000010
    ? 'fs1 == 0 and fe1 == 0x7fe and fm1 == 0x000000000005b and fs2 == 0 and fe2 ==
      0x3ff and fm2 == 0xfffffffffff41 and rm_val == 0  #nosat'
    : 1 #  rs1_val==dnorm(0x7fe000000000005b) and rs2_val==dnorm(0x3fffffffffffff41) | Result = dmaxnorm(0x7fefffffffffffff)^0x000008
    ? 'fs1 == 0 and fe1 == 0x7fe and fm1 == 0x000000000005e and fs2 == 0 and fe2 ==
      0x3ff and fm2 == 0xfffffffffff3f and rm_val == 0  #nosat'
    : 1 #  rs1_val==dnorm(0x7fe000000000005e) and rs2_val==dnorm(0x3fffffffffffff3f) | Result = dmaxnorm(0x7fefffffffffffff)^0x000004
    ? 'fs1 == 0 and fe1 == 0x7fe and fm1 == 0x0000000000021 and fs2 == 0 and fe2 ==
      0x3ff and fm2 == 0xfffffffffffbb and rm_val == 0  #nosat'
    : 1 #  rs1_val==dnorm(0x7fe0000000000021) and rs2_val==dnorm(0x3fffffffffffffbb) | Result = dmaxnorm(0x7fefffffffffffff)^0x000002
    ? 'fs1 == 0 and fe1 == 0x7fe and fm1 == 0x0000000000024 and fs2 == 0 and fe2 ==
      0x3ff and fm2 == 0xfffffffffffb6 and rm_val == 0  #nosat'
    : 1 #  rs1_val==dnorm(0x7fe0000000000024) and rs2_val==dnorm(0x3fffffffffffffb6) | Result = dmaxnorm(0x7fefffffffffffff)^0x000001
    ? 'fs1 == 0 and fe1 == 0x001 and fm1 == 0x0000000000007 and fs2 == 1 and fe2 ==
      0x3ff and fm2 == 0x00000003ffff9 and rm_val == 0  #nosat'
    : 1 #  rs1_val==dnorm(0x0010000000000007) and rs2_val==dnorm(0xbff00000003ffff9) | Result = dminnorm(0x8010000000000000)^0x400000
    ? 'fs1 == 0 and fe1 == 0x001 and fm1 == 0x0000000000033 and fs2 == 1 and fe2 ==
      0x3ff and fm2 == 0x00000001fffcd and rm_val == 0  #nosat'
    : 1 #  rs1_val==dnorm(0x0010000000000033) and rs2_val==dnorm(0xbff00000001fffcd) | Result = dminnorm(0x8010000000000000)^0x200000
    ? 'fs1 == 0 and fe1 == 0x001 and fm1 == 0x000000000005f and fs2 == 1 and fe2 ==
      0x3ff and fm2 == 0x00000000fffa1 and rm_val == 0  #nosat'
    : 1 #  rs1_val==dnorm(0x001000000000005f) and rs2_val==dnorm(0xbff00000000fffa1) | Result = dminnorm(0x8010000000000000)^0x100000
    ? 'fs1 == 0 and fe1 == 0x001 and fm1 == 0x000000000004d and fs2 == 1 and fe2 ==
      0x3ff and fm2 == 0x000000007ffb3 and rm_val == 0  #nosat'
    : 1 #  rs1_val==dnorm(0x001000000000004d) and rs2_val==dnorm(0xbff000000007ffb3) | Result = dminnorm(0x8010000000000000)^0x080000
    ? 'fs1 == 0 and fe1 == 0x001 and fm1 == 0x000000000005d and fs2 == 1 and fe2 ==
      0x3ff and fm2 == 0x000000003ffa3 and rm_val == 0  #nosat'
    : 1 #  rs1_val==dnorm(0x001000000000005d) and rs2_val==dnorm(0xbff000000003ffa3) | Result = dminnorm(0x8010000000000000)^0x040000
    ? 'fs1 == 0 and fe1 == 0x001 and fm1 == 0x000000000003c and fs2 == 1 and fe2 ==
      0x3ff and fm2 == 0x000000001ffc4 and rm_val == 0  #nosat'
    : 1 #  rs1_val==dnorm(0x001000000000003c) and rs2_val==dnorm(0xbff000000001ffc4) | Result = dminnorm(0x8010000000000000)^0x020000
    ? 'fs1 == 0 and fe1 == 0x001 and fm1 == 0x000000000005e and fs2 == 1 and fe2 ==
      0x3ff and fm2 == 0x000000000ffa2 and rm_val == 0  #nosat'
    : 1 #  rs1_val==dnorm(0x001000000000005e) and rs2_val==dnorm(0xbff000000000ffa2) | Result = dminnorm(0x8010000000000000)^0x010000
    ? 'fs1 == 0 and fe1 == 0x001 and fm1 == 0x0000000000062 and fs2 == 1 and fe2 ==
      0x3ff and fm2 == 0x0000000007f9e and rm_val == 0  #nosat'
    : 1 #  rs1_val==dnorm(0x0010000000000062) and rs2_val==dnorm(0xbff0000000007f9e) | Result = dminnorm(0x8010000000000000)^0x008000
    ? 'fs1 == 0 and fe1 == 0x001 and fm1 == 0x0000000000034 and fs2 == 1 and fe2 ==
      0x3ff and fm2 == 0x0000000003fcc and rm_val == 0  #nosat'
    : 1 #  rs1_val==dnorm(0x0010000000000034) and rs2_val==dnorm(0xbff0000000003fcc) | Result = dminnorm(0x8010000000000000)^0x004000
    ? 'fs1 == 0 and fe1 == 0x001 and fm1 == 0x000000000005b and fs2 == 1 and fe2 ==
      0x3ff and fm2 == 0x0000000001fa5 and rm_val == 0  #nosat'
    : 1 #  rs1_val==dnorm(0x001000000000005b) and rs2_val==dnorm(0xbff0000000001fa5) | Result = dminnorm(0x8010000000000000)^0x002000
    ? 'fs1 == 0 and fe1 == 0x001 and fm1 == 0x0000000000015 and fs2 == 1 and fe2 ==
      0x3ff and fm2 == 0x0000000000feb and rm_val == 0  #nosat'
    : 1 #  rs1_val==dnorm(0x0010000000000015) and rs2_val==dnorm(0xbff0000000000feb) | Result = dminnorm(0x8010000000000000)^0x001000
    ? 'fs1 == 0 and fe1 == 0x001 and fm1 == 0x0000000000021 and fs2 == 1 and fe2 ==
      0x3ff and fm2 == 0x00000000007df and rm_val == 0  #nosat'
    : 1 #  rs1_val==dnorm(0x0010000000000021) and rs2_val==dnorm(0xbff00000000007df) | Result = dminnorm(0x8010000000000000)^0x000800
    ? 'fs1 == 0 and fe1 == 0x001 and fm1 == 0x000000000005c and fs2 == 1 and fe2 ==
      0x3ff and fm2 == 0x00000000003a4 and rm_val == 0  #nosat'
    : 1 #  rs1_val==dnorm(0x001000000000005c) and rs2_val==dnorm(0xbff00000000003a4) | Result = dminnorm(0x8010000000000000)^0x000400
    ? 'fs1 == 0 and fe1 == 0x001 and fm1 == 0x0000000000043 and fs2 == 1 and fe2 ==
      0x3ff and fm2 == 0x00000000001bd and rm_val == 0  #nosat'
    : 1 #  rs1_val==dnorm(0x0010000000000043) and rs2_val==dnorm(0xbff00000000001bd) | Result = dminnorm(0x8010000000000000)^0x000200
    ? 'fs1 == 0 and fe1 == 0x001 and fm1 == 0x000000000000d and fs2 == 1 and fe2 ==
      0x3ff and fm2 == 0x00000000000f3 and rm_val == 0  #nosat'
    : 1 #  rs1_val==dnorm(0x001000000000000d) and rs2_val==dnorm(0xbff00000000000f3) | Result = dminnorm(0x8010000000000000)^0x000100
    ? 'fs1 == 0 and fe1 == 0x001 and fm1 == 0x0000000000061 and fs2 == 1 and fe2 ==
      0x3ff and fm2 == 0x000000000001f and rm_val == 0  #nosat'
    : 1 #  rs1_val==dnorm(0x0010000000000061) and rs2_val==dnorm(0xbff000000000001f) | Result = dminnorm(0x8010000000000000)^0x000080
    ? 'fs1 == 0 and fe1 == 0x001 and fm1 == 0x0000000000014 and fs2 == 1 and fe2 ==
      0x3ff and fm2 == 0x000000000002c and rm_val == 0  #nosat'
    : 1 #  rs1_val==dnorm(0x0010000000000014) and rs2_val==dnorm(0xbff000000000002c) | Result = dminnorm(0x8010000000000000)^0x000040
    ? 'fs1 == 0 and fe1 == 0x001 and fm1 == 0x0000000000025 and fs2 == 1 and fe2 ==
      0x3fe and fm2 == 0xffffffffffff6 and rm_val == 0  #nosat'
    : 1 #  rs1_val==dnorm(0x0010000000000025) and rs2_val==dnorm(0xbfeffffffffffff6) | Result = dminnorm(0x8010000000000000)^0x000020
    ? 'fs1 == 0 and fe1 == 0x001 and fm1 == 0x0000000000017 and fs2 == 1 and fe2 ==
      0x3fe and fm2 == 0xffffffffffff2 and rm_val == 0  #nosat'
    : 1 #  rs1_val==dnorm(0x0010000000000017) and rs2_val==dnorm(0xbfeffffffffffff2) | Result = dminnorm(0x8010000000000000)^0x000010
    ? 'fs1 == 0 and fe1 == 0x001 and fm1 == 0x000000000002b and fs2 == 1 and fe2 ==
      0x3fe and fm2 == 0xfffffffffffba and rm_val == 0  #nosat'
    : 1 #  rs1_val==dnorm(0x001000000000002b) and rs2_val==dnorm(0xbfefffffffffffba) | Result = dminnorm(0x8010000000000000)^0x000008
    ? 'fs1 == 0 and fe1 == 0x001 and fm1 == 0x0000000000056 and fs2 == 1 and fe2 ==
      0x3fe and fm2 == 0xfffffffffff5c and rm_val == 0  #nosat'
    : 1 #  rs1_val==dnorm(0x0010000000000056) and rs2_val==dnorm(0xbfefffffffffff5c) | Result = dminnorm(0x8010000000000000)^0x000004
    ? 'fs1 == 0 and fe1 == 0x001 and fm1 == 0x000000000001e and fs2 == 1 and fe2 ==
      0x3fe and fm2 == 0xfffffffffffc8 and rm_val == 0  #nosat'
    : 1 #  rs1_val==dnorm(0x001000000000001e) and rs2_val==dnorm(0xbfefffffffffffc8) | Result = dminnorm(0x8010000000000000)^0x000002
    ? 'fs1 == 0 and fe1 == 0x001 and fm1 == 0x0000000000026 and fs2 == 1 and fe2 ==
      0x3fe and fm2 == 0xfffffffffffb6 and rm_val == 0  #nosat'
    : 1 #  rs1_val==dnorm(0x0010000000000026) and rs2_val==dnorm(0xbfefffffffffffb6) | Result = dminnorm(0x8010000000000000)^0x000001
    ? 'fs1 == 0 and fe1 == 0x001 and fm1 == 0x0000000000005 and fs2 == 0 and fe2 ==
      0x3ff and fm2 == 0x00000003ffffb and rm_val == 0  #nosat'
    : 1 #  rs1_val==dnorm(0x0010000000000005) and rs2_val==dnorm(0x3ff00000003ffffb) | Result = dminnorm(0x0010000000000000)^0x400000
    ? 'fs1 == 0 and fe1 == 0x001 and fm1 == 0x0000000000058 and fs2 == 0 and fe2 ==
      0x3ff and fm2 == 0x00000001fffa8 and rm_val == 0  #nosat'
    : 1 #  rs1_val==dnorm(0x0010000000000058) and rs2_val==dnorm(0x3ff00000001fffa8) | Result = dminnorm(0x0010000000000000)^0x200000
    ? 'fs1 == 0 and fe1 == 0x001 and fm1 == 0x0000000000009 and fs2 == 0 and fe2 ==
      0x3ff and fm2 == 0x00000000ffff7 and rm_val == 0  #nosat'
    : 1 #  rs1_val==dnorm(0x0010000000000009) and rs2_val==dnorm(0x3ff00000000ffff7) | Result = dminnorm(0x0010000000000000)^0x100000
    ? 'fs1 == 0 and fe1 == 0x001 and fm1 == 0x0000000000013 and fs2 == 0 and fe2 ==
      0x3ff and fm2 == 0x000000007ffed and rm_val == 0  #nosat'
    : 1 #  rs1_val==dnorm(0x0010000000000013) and rs2_val==dnorm(0x3ff000000007ffed) | Result = dminnorm(0x0010000000000000)^0x080000
    ? 'fs1 == 0 and fe1 == 0x001 and fm1 == 0x0000000000017 and fs2 == 0 and fe2 ==
      0x3ff and fm2 == 0x000000003ffe9 and rm_val == 0  #nosat'
    : 1 #  rs1_val==dnorm(0x0010000000000017) and rs2_val==dnorm(0x3ff000000003ffe9) | Result = dminnorm(0x0010000000000000)^0x040000
    ? 'fs1 == 0 and fe1 == 0x001 and fm1 == 0x000000000000a and fs2 == 0 and fe2 ==
      0x3ff and fm2 == 0x000000001fff6 and rm_val == 0  #nosat'
    : 1 #  rs1_val==dnorm(0x001000000000000a) and rs2_val==dnorm(0x3ff000000001fff6) | Result = dminnorm(0x0010000000000000)^0x020000
    ? 'fs1 == 0 and fe1 == 0x001 and fm1 == 0x000000000004a and fs2 == 0 and fe2 ==
      0x3ff and fm2 == 0x000000000ffb6 and rm_val == 0  #nosat'
    : 1 #  rs1_val==dnorm(0x001000000000004a) and rs2_val==dnorm(0x3ff000000000ffb6) | Result = dminnorm(0x0010000000000000)^0x010000
    ? 'fs1 == 0 and fe1 == 0x001 and fm1 == 0x000000000004b and fs2 == 0 and fe2 ==
      0x3ff and fm2 == 0x0000000007fb5 and rm_val == 0  #nosat'
    : 1 #  rs1_val==dnorm(0x001000000000004b) and rs2_val==dnorm(0x3ff0000000007fb5) | Result = dminnorm(0x0010000000000000)^0x008000
    ? 'fs1 == 0 and fe1 == 0x001 and fm1 == 0x000000000005a and fs2 == 0 and fe2 ==
      0x3ff and fm2 == 0x0000000003fa6 and rm_val == 0  #nosat'
    : 1 #  rs1_val==dnorm(0x001000000000005a) and rs2_val==dnorm(0x3ff0000000003fa6) | Result = dminnorm(0x0010000000000000)^0x004000
    ? 'fs1 == 0 and fe1 == 0x001 and fm1 == 0x000000000005a and fs2 == 0 and fe2 ==
      0x3ff and fm2 == 0x0000000001fa6 and rm_val == 0  #nosat'
    : 1 #  rs1_val==dnorm(0x001000000000005a) and rs2_val==dnorm(0x3ff0000000001fa6) | Result = dminnorm(0x0010000000000000)^0x002000
    ? 'fs1 == 0 and fe1 == 0x001 and fm1 == 0x0000000000047 and fs2 == 0 and fe2 ==
      0x3ff and fm2 == 0x0000000000fb9 and rm_val == 0  #nosat'
    : 1 #  rs1_val==dnorm(0x0010000000000047) and rs2_val==dnorm(0x3ff0000000000fb9) | Result = dminnorm(0x0010000000000000)^0x001000
    ? 'fs1 == 0 and fe1 == 0x001 and fm1 == 0x000000000004d and fs2 == 0 and fe2 ==
      0x3ff and fm2 == 0x00000000007b3 and rm_val == 0  #nosat'
    : 1 #  rs1_val==dnorm(0x001000000000004d) and rs2_val==dnorm(0x3ff00000000007b3) | Result = dminnorm(0x0010000000000000)^0x000800
    ? 'fs1 == 0 and fe1 == 0x001 and fm1 == 0x0000000000015 and fs2 == 0 and fe2 ==
      0x3ff and fm2 == 0x00000000003eb and rm_val == 0  #nosat'
    : 1 #  rs1_val==dnorm(0x0010000000000015) and rs2_val==dnorm(0x3ff00000000003eb) | Result = dminnorm(0x0010000000000000)^0x000400
    ? 'fs1 == 0 and fe1 == 0x001 and fm1 == 0x0000000000033 and fs2 == 0 and fe2 ==
      0x3ff and fm2 == 0x00000000001cd and rm_val == 0  #nosat'
    : 1 #  rs1_val==dnorm(0x0010000000000033) and rs2_val==dnorm(0x3ff00000000001cd) | Result = dminnorm(0x0010000000000000)^0x000200
    ? 'fs1 == 0 and fe1 == 0x001 and fm1 == 0x0000000000058 and fs2 == 0 and fe2 ==
      0x3ff and fm2 == 0x00000000000a8 and rm_val == 0  #nosat'
    : 1 #  rs1_val==dnorm(0x0010000000000058) and rs2_val==dnorm(0x3ff00000000000a8) | Result = dminnorm(0x0010000000000000)^0x000100
    ? 'fs1 == 0 and fe1 == 0x001 and fm1 == 0x0000000000036 and fs2 == 0 and fe2 ==
      0x3ff and fm2 == 0x000000000004a and rm_val == 0  #nosat'
    : 1 #  rs1_val==dnorm(0x0010000000000036) and rs2_val==dnorm(0x3ff000000000004a) | Result = dminnorm(0x0010000000000000)^0x000080
    ? 'fs1 == 0 and fe1 == 0x001 and fm1 == 0x000000000005d and fs2 == 0 and fe2 ==
      0x3fe and fm2 == 0xfffffffffffc6 and rm_val == 0  #nosat'
    : 1 #  rs1_val==dnorm(0x001000000000005d) and rs2_val==dnorm(0x3fefffffffffffc6) | Result = dminnorm(0x0010000000000000)^0x000040
    ? 'fs1 == 0 and fe1 == 0x001 and fm1 == 0x0000000000044 and fs2 == 0 and fe2 ==
      0x3fe and fm2 == 0xfffffffffffb8 and rm_val == 0  #nosat'
    : 1 #  rs1_val==dnorm(0x0010000000000044) and rs2_val==dnorm(0x3fefffffffffffb8) | Result = dminnorm(0x0010000000000000)^0x000020
    ? 'fs1 == 0 and fe1 == 0x001 and fm1 == 0x0000000000023 and fs2 == 0 and fe2 ==
      0x3fe and fm2 == 0xfffffffffffda and rm_val == 0  #nosat'
    : 1 #  rs1_val==dnorm(0x0010000000000023) and rs2_val==dnorm(0x3fefffffffffffda) | Result = dminnorm(0x0010000000000000)^0x000010
    ? 'fs1 == 0 and fe1 == 0x001 and fm1 == 0x0000000000013 and fs2 == 0 and fe2 ==
      0x3fe and fm2 == 0xfffffffffffea and rm_val == 0  #nosat'
    : 1 #  rs1_val==dnorm(0x0010000000000013) and rs2_val==dnorm(0x3fefffffffffffea) | Result = dminnorm(0x0010000000000000)^0x000008
    ? 'fs1 == 0 and fe1 == 0x001 and fm1 == 0x000000000002e and fs2 == 0 and fe2 ==
      0x3fe and fm2 == 0xfffffffffffac and rm_val == 0  #nosat'
    : 1 #  rs1_val==dnorm(0x001000000000002e) and rs2_val==dnorm(0x3fefffffffffffac) | Result = dminnorm(0x0010000000000000)^0x000004
    ? 'fs1 == 0 and fe1 == 0x001 and fm1 == 0x0000000000040 and fs2 == 0 and fe2 ==
      0x3fe and fm2 == 0xfffffffffff84 and rm_val == 0  #nosat'
    : 1 #  rs1_val==dnorm(0x0010000000000040) and rs2_val==dnorm(0x3fefffffffffff84) | Result = dminnorm(0x0010000000000000)^0x000002
    ? 'fs1 == 0 and fe1 == 0x001 and fm1 == 0x000000000005d and fs2 == 0 and fe2 ==
      0x3fe and fm2 == 0xfffffffffff48 and rm_val == 0  #nosat'
    : 1 #  rs1_val==dnorm(0x001000000000005d) and rs2_val==dnorm(0x3fefffffffffff48) | Result = dminnorm(0x0010000000000000)^0x000001
    ? 'fs1 == 0 and fe1 == 0x000 and fm1 == 0x000000000003d and fs2 == 1 and fe2 ==
      0x42d and fm2 == 0x0c9714f79b474 and rm_val == 0  #nosat'
    : 1 #  rs1_val==dsubnorm(0x000000000000003d) and rs2_val==dnorm(0xc2d0c9714f79b474) | Result = dmaxsubnorm(0x800fffffffffffff)^0x400000
    ? 'fs1 == 0 and fe1 == 0x000 and fm1 == 0x0000000000050 and fs2 == 1 and fe2 ==
      0x42c and fm2 == 0x9999999666665 and rm_val == 0  #nosat'
    : 1 #  rs1_val==dsubnorm(0x0000000000000050) and rs2_val==dnorm(0xc2c9999999666665) | Result = dmaxsubnorm(0x800fffffffffffff)^0x200000
    ? 'fs1 == 0 and fe1 == 0x000 and fm1 == 0x000000000000e and fs2 == 1 and fe2 ==
      0x42f and fm2 == 0x249249236db6d and rm_val == 0  #nosat'
    : 1 #  rs1_val==dsubnorm(0x000000000000000e) and rs2_val==dnorm(0xc2f249249236db6d) | Result = dmaxsubnorm(0x800fffffffffffff)^0x100000
    ? 'fs1 == 0 and fe1 == 0x000 and fm1 == 0x000000000001c and fs2 == 1 and fe2 ==
      0x42e and fm2 == 0x24924923fffff and rm_val == 0  #nosat'
    : 1 #  rs1_val==dsubnorm(0x000000000000001c) and rs2_val==dnorm(0xc2e24924923fffff) | Result = dmaxsubnorm(0x800fffffffffffff)^0x080000
    ? 'fs1 == 0 and fe1 == 0x000 and fm1 == 0x0000000000053 and fs2 == 1 and fe2 ==
      0x42c and fm2 == 0x8acb90f65c87a and rm_val == 0  #nosat'
    : 1 #  rs1_val==dsubnorm(0x0000000000000053) and rs2_val==dnorm(0xc2c8acb90f65c87a) | Result = dmaxsubnorm(0x800fffffffffffff)^0x040000
    ? 'fs1 == 0 and fe1 == 0x000 and fm1 == 0x000000000004f and fs2 == 1 and fe2 ==
      0x42c and fm2 == 0x9ec8e950cf646 and rm_val == 0  #nosat'
    : 1 #  rs1_val==dsubnorm(0x000000000000004f) and rs2_val==dnorm(0xc2c9ec8e950cf646) | Result = dmaxsubnorm(0x800fffffffffffff)^0x020000
    ? 'fs1 == 0 and fe1 == 0x000 and fm1 == 0x0000000000010 and fs2 == 1 and fe2 ==
      0x42e and fm2 == 0xffffffffdfffe and rm_val == 0  #nosat'
    : 1 #  rs1_val==dsubnorm(0x0000000000000010) and rs2_val==dnorm(0xc2effffffffdfffe) | Result = dmaxsubnorm(0x800fffffffffffff)^0x010000
    ? 'fs1 == 0 and fe1 == 0x000 and fm1 == 0x0000000000021 and fs2 == 1 and fe2 ==
      0x42d and fm2 == 0xf07c1f07b26c8 and rm_val == 0  #nosat'
    : 1 #  rs1_val==dsubnorm(0x0000000000000021) and rs2_val==dnorm(0xc2df07c1f07b26c8) | Result = dmaxsubnorm(0x800fffffffffffff)^0x008000
    ? 'fs1 == 0 and fe1 == 0x000 and fm1 == 0x0000000000033 and fs2 == 1 and fe2 ==
      0x42d and fm2 == 0x414141413c3c3 and rm_val == 0  #nosat'
    : 1 #  rs1_val==dsubnorm(0x0000000000000033) and rs2_val==dnorm(0xc2d414141413c3c3) | Result = dmaxsubnorm(0x800fffffffffffff)^0x004000
    ? 'fs1 == 0 and fe1 == 0x000 and fm1 == 0x0000000000061 and fs2 == 1 and fe2 ==
      0x42c and fm2 == 0x51d07eae2cdda and rm_val == 0  #nosat'
    : 1 #  rs1_val==dsubnorm(0x0000000000000061) and rs2_val==dnorm(0xc2c51d07eae2cdda) | Result = dmaxsubnorm(0x800fffffffffffff)^0x002000
    ? 'fs1 == 0 and fe1 == 0x000 and fm1 == 0x000000000003c and fs2 == 1 and fe2 ==
      0x42d and fm2 == 0x111111110ffff and rm_val == 0  #nosat'
    : 1 #  rs1_val==dsubnorm(0x000000000000003c) and rs2_val==dnorm(0xc2d111111110ffff) | Result = dmaxsubnorm(0x800fffffffffffff)^0x001000
    ? 'fs1 == 0 and fe1 == 0x000 and fm1 == 0x0000000000033 and fs2 == 1 and fe2 ==
      0x42d and fm2 == 0x4141414140a09 and rm_val == 0  #nosat'
    : 1 #  rs1_val==dsubnorm(0x0000000000000033) and rs2_val==dnorm(0xc2d4141414140a09) | Result = dmaxsubnorm(0x800fffffffffffff)^0x000800
    ? 'fs1 == 0 and fe1 == 0x000 and fm1 == 0x000000000004a and fs2 == 1 and fe2 ==
      0x42c and fm2 == 0xbacf914c1b3e3 and rm_val == 0  #nosat'
    : 1 #  rs1_val==dsubnorm(0x000000000000004a) and rs2_val==dnorm(0xc2cbacf914c1b3e3) | Result = dmaxsubnorm(0x800fffffffffffff)^0x000400
    ? 'fs1 == 0 and fe1 == 0x000 and fm1 == 0x0000000000019 and fs2 == 1 and fe2 ==
      0x42e and fm2 == 0x47ae147ae11ea and rm_val == 0  #nosat'
    : 1 #  rs1_val==dsubnorm(0x0000000000000019) and rs2_val==dnorm(0xc2e47ae147ae11ea) | Result = dmaxsubnorm(0x800fffffffffffff)^0x000200
    ? 'fs1 == 0 and fe1 == 0x000 and fm1 == 0x0000000000061 and fs2 == 1 and fe2 ==
      0x42c and fm2 == 0x51d07eae2f6c2 and rm_val == 0  #nosat'
    : 1 #  rs1_val==dsubnorm(0x0000000000000061) and rs2_val==dnorm(0xc2c51d07eae2f6c2) | Result = dmaxsubnorm(0x800fffffffffffff)^0x000100
    ? 'fs1 == 0 and fe1 == 0x000 and fm1 == 0x000000000000a and fs2 == 1 and fe2 ==
      0x42f and fm2 == 0x99999999998cb and rm_val == 0  #nosat'
    : 1 #  rs1_val==dsubnorm(0x000000000000000a) and rs2_val==dnorm(0xc2f99999999998cb) | Result = dmaxsubnorm(0x800fffffffffffff)^0x000080
    ? 'fs1 == 0 and fe1 == 0x000 and fm1 == 0x0000000000028 and fs2 == 1 and fe2 ==
      0x42d and fm2 == 0x9999999999932 and rm_val == 0  #nosat'
    : 1 #  rs1_val==dsubnorm(0x0000000000000028) and rs2_val==dnorm(0xc2d9999999999932) | Result = dmaxsubnorm(0x800fffffffffffff)^0x000040
    ? 'fs1 == 0 and fe1 == 0x000 and fm1 == 0x0000000000004 and fs2 == 1 and fe2 ==
      0x430 and fm2 == 0xfffffffffffbe and rm_val == 0  #nosat'
    : 1 #  rs1_val==dsubnorm(0x0000000000000004) and rs2_val==dnorm(0xc30fffffffffffbe) | Result = dmaxsubnorm(0x800fffffffffffff)^0x000020
    ? 'fs1 == 0 and fe1 == 0x000 and fm1 == 0x0000000000001 and fs2 == 1 and fe2 ==
      0x432 and fm2 == 0xfffffffffffde and rm_val == 0  #nosat'
    : 1 #  rs1_val==dminsubnorm(0x0000000000000001) and rs2_val==dnorm(0xc32fffffffffffde) | Result = dmaxsubnorm(0x800fffffffffffff)^0x000010
    ? 'fs1 == 0 and fe1 == 0x000 and fm1 == 0x000000000004f and fs2 == 1 and fe2 ==
      0x42c and fm2 == 0x9ec8e951033cb and rm_val == 0  #nosat'
    : 1 #  rs1_val==dsubnorm(0x000000000000004f) and rs2_val==dnorm(0xc2c9ec8e951033cb) | Result = dmaxsubnorm(0x800fffffffffffff)^0x000008
    ? 'fs1 == 0 and fe1 == 0x000 and fm1 == 0x000000000001b and fs2 == 1 and fe2 ==
      0x42e and fm2 == 0x2f684bda12f62 and rm_val == 0  #nosat'
    : 1 #  rs1_val==dsubnorm(0x000000000000001b) and rs2_val==dnorm(0xc2e2f684bda12f62) | Result = dmaxsubnorm(0x800fffffffffffff)^0x000004
    ? 'fs1 == 0 and fe1 == 0x000 and fm1 == 0x000000000003f and fs2 == 1 and fe2 ==
      0x42d and fm2 == 0x041041041040d and rm_val == 0  #nosat'
    : 1 #  rs1_val==dsubnorm(0x000000000000003f) and rs2_val==dnorm(0xc2d041041041040d) | Result = dmaxsubnorm(0x800fffffffffffff)^0x000002
    ? 'fs1 == 0 and fe1 == 0x000 and fm1 == 0x0000000000035 and fs2 == 1 and fe2 ==
      0x42d and fm2 == 0x3521cfb2b78bf and rm_val == 0  #nosat'
    : 1 #  rs1_val==dsubnorm(0x0000000000000035) and rs2_val==dnorm(0xc2d3521cfb2b78bf) | Result = dmaxsubnorm(0x800fffffffffffff)^0x000001
    ? 'fs1 == 0 and fe1 == 0x000 and fm1 == 0x000000000003a and fs2 == 0 and fe2 ==
      0x42d and fm2 == 0x1a7b960d3dcaf and rm_val == 0  #nosat'
    : 1 #  rs1_val==dsubnorm(0x000000000000003a) and rs2_val==dnorm(0x42d1a7b960d3dcaf) | Result = dmaxsubnorm(0x000fffffffffffff)^0x400000
    ? 'fs1 == 0 and fe1 == 0x000 and fm1 == 0x0000000000057 and fs2 == 0 and fe2 ==
      0x42c and fm2 == 0x78a4c8149902e and rm_val == 0  #nosat'
    : 1 #  rs1_val==dsubnorm(0x0000000000000057) and rs2_val==dnorm(0x42c78a4c8149902e) | Result = dmaxsubnorm(0x000fffffffffffff)^0x200000
    ? 'fs1 == 0 and fe1 == 0x000 and fm1 == 0x0000000000028 and fs2 == 0 and fe2 ==
      0x42d and fm2 == 0x99999997ffffe and rm_val == 0  #nosat'
    : 1 #  rs1_val==dsubnorm(0x0000000000000028) and rs2_val==dnorm(0x42d99999997ffffe) | Result = dmaxsubnorm(0x000fffffffffffff)^0x100000
    ? 'fs1 == 0 and fe1 == 0x000 and fm1 == 0x000000000000d and fs2 == 0 and fe2 ==
      0x42f and fm2 == 0x3b13b13a76275 and rm_val == 0  #nosat'
    : 1 #  rs1_val==dsubnorm(0x000000000000000d) and rs2_val==dnorm(0x42f3b13b13a76275) | Result = dmaxsubnorm(0x000fffffffffffff)^0x080000
    ? 'fs1 == 0 and fe1 == 0x000 and fm1 == 0x0000000000058 and fs2 == 0 and fe2 ==
      0x42c and fm2 == 0x745d1745745d0 and rm_val == 0  #nosat'
    : 1 #  rs1_val==dsubnorm(0x0000000000000058) and rs2_val==dnorm(0x42c745d1745745d0) | Result = dmaxsubnorm(0x000fffffffffffff)^0x040000
    ? 'fs1 == 0 and fe1 == 0x000 and fm1 == 0x0000000000028 and fs2 == 0 and fe2 ==
      0x42d and fm2 == 0x9999999966665 and rm_val == 0  #nosat'
    : 1 #  rs1_val==dsubnorm(0x0000000000000028) and rs2_val==dnorm(0x42d9999999966665) | Result = dmaxsubnorm(0x000fffffffffffff)^0x020000
    ? 'fs1 == 0 and fe1 == 0x000 and fm1 == 0x0000000000059 and fs2 == 0 and fe2 ==
      0x42c and fm2 == 0x702e05c0a1141 and rm_val == 0  #nosat'
    : 1 #  rs1_val==dsubnorm(0x0000000000000059) and rs2_val==dnorm(0x42c702e05c0a1141) | Result = dmaxsubnorm(0x000fffffffffffff)^0x010000
    ? 'fs1 == 0 and fe1 == 0x000 and fm1 == 0x000000000002f and fs2 == 0 and fe2 ==
      0x42d and fm2 == 0x5c9882b92620a and rm_val == 0  #nosat'
    : 1 #  rs1_val==dsubnorm(0x000000000000002f) and rs2_val==dnorm(0x42d5c9882b92620a) | Result = dmaxsubnorm(0x000fffffffffffff)^0x008000
    ? 'fs1 == 0 and fe1 == 0x000 and fm1 == 0x0000000000010 and fs2 == 0 and fe2 ==
      0x42e and fm2 == 0xfffffffff7ffe and rm_val == 0  #nosat'
    : 1 #  rs1_val==dsubnorm(0x0000000000000010) and rs2_val==dnorm(0x42efffffffff7ffe) | Result = dmaxsubnorm(0x000fffffffffffff)^0x004000
    ? 'fs1 == 0 and fe1 == 0x000 and fm1 == 0x0000000000003 and fs2 == 0 and fe2 ==
      0x431 and fm2 == 0x5555555552aa9 and rm_val == 0  #nosat'
    : 1 #  rs1_val==dsubnorm(0x0000000000000003) and rs2_val==dnorm(0x4315555555552aa9) | Result = dmaxsubnorm(0x000fffffffffffff)^0x002000
    ? 'fs1 == 0 and fe1 == 0x000 and fm1 == 0x000000000003e and fs2 == 0 and fe2 ==
      0x42d and fm2 == 0x084210841ffff and rm_val == 0  #nosat'
    : 1 #  rs1_val==dsubnorm(0x000000000000003e) and rs2_val==dnorm(0x42d084210841ffff) | Result = dmaxsubnorm(0x000fffffffffffff)^0x001000
    ? 'fs1 == 0 and fe1 == 0x000 and fm1 == 0x000000000000d and fs2 == 0 and fe2 ==
      0x42f and fm2 == 0x3b13b13b1313a and rm_val == 0  #nosat'
    : 1 #  rs1_val==dsubnorm(0x000000000000000d) and rs2_val==dnorm(0x42f3b13b13b1313a) | Result = dmaxsubnorm(0x000fffffffffffff)^0x000800
    ? 'fs1 == 0 and fe1 == 0x000 and fm1 == 0x000000000004b and fs2 == 0 and fe2 ==
      0x42c and fm2 == 0xb4e81b4e81479 and rm_val == 0  #nosat'
    : 1 #  rs1_val==dsubnorm(0x000000000000004b) and rs2_val==dnorm(0x42cb4e81b4e81479) | Result = dmaxsubnorm(0x000fffffffffffff)^0x000400
    ? 'fs1 == 0 and fe1 == 0x000 and fm1 == 0x0000000000036 and fs2 == 0 and fe2 ==
      0x42d and fm2 == 0x2f684bda12d08 and rm_val == 0  #nosat'
    : 1 #  rs1_val==dsubnorm(0x0000000000000036) and rs2_val==dnorm(0x42d2f684bda12d08) | Result = dmaxsubnorm(0x000fffffffffffff)^0x000200
    ? 'fs1 == 0 and fe1 == 0x000 and fm1 == 0x000000000004c and fs2 == 0 and fe2 ==
      0x42c and fm2 == 0xaf286bca1ad78 and rm_val == 0  #nosat'
    : 1 #  rs1_val==dsubnorm(0x000000000000004c) and rs2_val==dnorm(0x42caf286bca1ad78) | Result = dmaxsubnorm(0x000fffffffffffff)^0x000100
    ? 'fs1 == 0 and fe1 == 0x000 and fm1 == 0x0000000000003 and fs2 == 0 and fe2 ==
      0x431 and fm2 == 0x55555555554a9 and rm_val == 0  #nosat'
    : 1 #  rs1_val==dsubnorm(0x0000000000000003) and rs2_val==dnorm(0x43155555555554a9) | Result = dmaxsubnorm(0x000fffffffffffff)^0x000080
    ? 'fs1 == 0 and fe1 == 0x000 and fm1 == 0x0000000000037 and fs2 == 0 and fe2 ==
      0x42d and fm2 == 0x29e4129e41253 and rm_val == 0  #nosat'
    : 1 #  rs1_val==dsubnorm(0x0000000000000037) and rs2_val==dnorm(0x42d29e4129e41253) | Result = dmaxsubnorm(0x000fffffffffffff)^0x000040
    ? 'fs1 == 0 and fe1 == 0x000 and fm1 == 0x000000000005e and fs2 == 0 and fe2 ==
      0x42c and fm2 == 0x5c9882b93102a and rm_val == 0  #nosat'
    : 1 #  rs1_val==dsubnorm(0x000000000000005e) and rs2_val==dnorm(0x42c5c9882b93102a) | Result = dmaxsubnorm(0x000fffffffffffff)^0x000020
    ? 'fs1 == 0 and fe1 == 0x000 and fm1 == 0x0000000000062 and fs2 == 0 and fe2 ==
      0x42c and fm2 == 0x4e5e0a72f0523 and rm_val == 0  #nosat'
    : 1 #  rs1_val==dsubnorm(0x0000000000000062) and rs2_val==dnorm(0x42c4e5e0a72f0523) | Result = dmaxsubnorm(0x000fffffffffffff)^0x000010
    ? 'fs1 == 0 and fe1 == 0x000 and fm1 == 0x000000000001c and fs2 == 0 and fe2 ==
      0x42e and fm2 == 0x2492492492488 and rm_val == 0  #nosat'
    : 1 #  rs1_val==dsubnorm(0x000000000000001c) and rs2_val==dnorm(0x42e2492492492488) | Result = dmaxsubnorm(0x000fffffffffffff)^0x000008
    ? 'fs1 == 0 and fe1 == 0x000 and fm1 == 0x0000000000053 and fs2 == 0 and fe2 ==
      0x42c and fm2 == 0x8acb90f6bf3a2 and rm_val == 0  #nosat'
    : 1 #  rs1_val==dsubnorm(0x0000000000000053) and rs2_val==dnorm(0x42c8acb90f6bf3a2) | Result = dmaxsubnorm(0x000fffffffffffff)^0x000004
    ? 'fs1 == 0 and fe1 == 0x000 and fm1 == 0x0000000000028 and fs2 == 0 and fe2 ==
      0x42d and fm2 == 0x9999999999995 and rm_val == 0  #nosat'
    : 1 #  rs1_val==dsubnorm(0x0000000000000028) and rs2_val==dnorm(0x42d9999999999995) | Result = dmaxsubnorm(0x000fffffffffffff)^0x000002
    ? 'fs1 == 0 and fe1 == 0x000 and fm1 == 0x000000000003c and fs2 == 0 and fe2 ==
      0x42d and fm2 == 0x111111111110f and rm_val == 0  #nosat'
    : 1 #  rs1_val==dsubnorm(0x000000000000003c) and rs2_val==dnorm(0x42d111111111110f) | Result = dmaxsubnorm(0x000fffffffffffff)^0x000001
    ? 'fs1 == 0 and fe1 == 0x000 and fm1 == 0x0000000000043 and fs2 == 1 and fe2 ==
      0x40e and fm2 == 0xe913226357e17 and rm_val == 0  #nosat'
    : 1 #  rs1_val==dsubnorm(0x0000000000000043) and rs2_val==dnorm(0xc0ee913226357e17) | Result = dminsubnorm(0x8000000000000001)^0x400000
    ? 'fs1 == 0 and fe1 == 0x000 and fm1 == 0x000000000001c and fs2 == 1 and fe2 ==
      0x40f and fm2 == 0x2492524924925 and rm_val == 0  #nosat'
    : 1 #  rs1_val==dsubnorm(0x000000000000001c) and rs2_val==dnorm(0xc0f2492524924925) | Result = dminsubnorm(0x8000000000000001)^0x200000
    ? 'fs1 == 0 and fe1 == 0x000 and fm1 == 0x000000000001e and fs2 == 1 and fe2 ==
      0x40e and fm2 == 0x1111222222222 and rm_val == 0  #nosat'
    : 1 #  rs1_val==dsubnorm(0x000000000000001e) and rs2_val==dnorm(0xc0e1111222222222) | Result = dminsubnorm(0x8000000000000001)^0x100000
    ? 'fs1 == 0 and fe1 == 0x000 and fm1 == 0x0000000000018 and fs2 == 1 and fe2 ==
      0x40d and fm2 == 0x5555800000000 and rm_val == 0  #nosat'
    : 1 #  rs1_val==dsubnorm(0x0000000000000018) and rs2_val==dnorm(0xc0d5555800000000) | Result = dminsubnorm(0x8000000000000001)^0x080000
    ? 'fs1 == 0 and fe1 == 0x000 and fm1 == 0x000000000000d and fs2 == 1 and fe2 ==
      0x40d and fm2 == 0x3b14000000000 and rm_val == 0  #nosat'
    : 1 #  rs1_val==dsubnorm(0x000000000000000d) and rs2_val==dnorm(0xc0d3b14000000000) | Result = dminsubnorm(0x8000000000000001)^0x040000
    ? 'fs1 == 0 and fe1 == 0x000 and fm1 == 0x000000000001f and fs2 == 1 and fe2 ==
      0x40b and fm2 == 0x084294a5294a5 and rm_val == 0  #nosat'
    : 1 #  rs1_val==dsubnorm(0x000000000000001f) and rs2_val==dnorm(0xc0b084294a5294a5) | Result = dminsubnorm(0x8000000000000001)^0x020000
    ? 'fs1 == 0 and fe1 == 0x000 and fm1 == 0x000000000005d and fs2 == 1 and fe2 ==
      0x408 and fm2 == 0x6059765d9765e and rm_val == 0  #nosat'
    : 1 #  rs1_val==dsubnorm(0x000000000000005d) and rs2_val==dnorm(0xc086059765d9765e) | Result = dminsubnorm(0x8000000000000001)^0x010000
    ? 'fs1 == 0 and fe1 == 0x000 and fm1 == 0x000000000000f and fs2 == 1 and fe2 ==
      0x40a and fm2 == 0x1113333333333 and rm_val == 0  #nosat'
    : 1 #  rs1_val==dsubnorm(0x000000000000000f) and rs2_val==dnorm(0xc0a1113333333333) | Result = dminsubnorm(0x8000000000000001)^0x008000
    ? 'fs1 == 0 and fe1 == 0x000 and fm1 == 0x0000000000035 and fs2 == 1 and fe2 ==
      0x407 and fm2 == 0x3526a439f656f and rm_val == 0  #nosat'
    : 1 #  rs1_val==dsubnorm(0x0000000000000035) and rs2_val==dnorm(0xc073526a439f656f) | Result = dminsubnorm(0x8000000000000001)^0x004000
    ? 'fs1 == 0 and fe1 == 0x000 and fm1 == 0x0000000000005 and fs2 == 1 and fe2 ==
      0x409 and fm2 == 0x99a6666666666 and rm_val == 0  #nosat'
    : 1 #  rs1_val==dsubnorm(0x0000000000000005) and rs2_val==dnorm(0xc0999a6666666666) | Result = dminsubnorm(0x8000000000000001)^0x002000
    ? 'fs1 == 0 and fe1 == 0x000 and fm1 == 0x0000000000001 and fs2 == 1 and fe2 ==
      0x40b and fm2 == 0x0010000000000 and rm_val == 0  #nosat'
    : 1 #  rs1_val==dminsubnorm(0x0000000000000001) and rs2_val==dnorm(0xc0b0010000000000) | Result = dminsubnorm(0x8000000000000001)^0x001000
    ? 'fs1 == 0 and fe1 == 0x000 and fm1 == 0x0000000000044 and fs2 == 1 and fe2 ==
      0x403 and fm2 == 0xe21e1e1e1e1e2 and rm_val == 0  #nosat'
    : 1 #  rs1_val==dsubnorm(0x0000000000000044) and rs2_val==dnorm(0xc03e21e1e1e1e1e2) | Result = dminsubnorm(0x8000000000000001)^0x000800
    ? 'fs1 == 0 and fe1 == 0x000 and fm1 == 0x0000000000037 and fs2 == 1 and fe2 ==
      0x403 and fm2 == 0x2a2e8ba2e8ba3 and rm_val == 0  #nosat'
    : 1 #  rs1_val==dsubnorm(0x0000000000000037) and rs2_val==dnorm(0xc032a2e8ba2e8ba3) | Result = dminsubnorm(0x8000000000000001)^0x000400
    ? 'fs1 == 0 and fe1 == 0x000 and fm1 == 0x0000000000021 and fs2 == 1 and fe2 ==
      0x402 and fm2 == 0xf1745d1745d17 and rm_val == 0  #nosat'
    : 1 #  rs1_val==dsubnorm(0x0000000000000021) and rs2_val==dnorm(0xc02f1745d1745d17) | Result = dminsubnorm(0x8000000000000001)^0x000200
    ? 'fs1 == 0 and fe1 == 0x000 and fm1 == 0x000000000005b and fs2 == 1 and fe2 ==
      0x400 and fm2 == 0x697e97e97e97f and rm_val == 0  #nosat'
    : 1 #  rs1_val==dsubnorm(0x000000000000005b) and rs2_val==dnorm(0xc00697e97e97e97f) | Result = dminsubnorm(0x8000000000000001)^0x000100
    ? 'fs1 == 0 and fe1 == 0x000 and fm1 == 0x0000000000050 and fs2 == 1 and fe2 ==
      0x3ff and fm2 == 0x9cccccccccccd and rm_val == 0  #nosat'
    : 1 #  rs1_val==dsubnorm(0x0000000000000050) and rs2_val==dnorm(0xbff9cccccccccccd) | Result = dminsubnorm(0x8000000000000001)^0x000080
    ? 'fs1 == 0 and fe1 == 0x000 and fm1 == 0x000000000004c and fs2 == 1 and fe2 ==
      0x3fe and fm2 == 0xb5e50d79435e5 and rm_val == 0  #nosat'
    : 1 #  rs1_val==dsubnorm(0x000000000000004c) and rs2_val==dnorm(0xbfeb5e50d79435e5) | Result = dminsubnorm(0x8000000000000001)^0x000040
    ? 'fs1 == 0 and fe1 == 0x000 and fm1 == 0x0000000000021 and fs2 == 1 and fe2 ==
      0x3ff and fm2 == 0x0000000000000 and rm_val == 0  #nosat'
    : 1 #  rs1_val==dsubnorm(0x0000000000000021) and rs2_val==dnorm(0xbff0000000000000) | Result = dminsubnorm(0x8000000000000001)^0x000020
    ? 'fs1 == 0 and fe1 == 0x000 and fm1 == 0x0000000000039 and fs2 == 1 and fe2 ==
      0x3fd and fm2 == 0x31674c59d3167 and rm_val == 0  #nosat'
    : 1 #  rs1_val==dsubnorm(0x0000000000000039) and rs2_val==dnorm(0xbfd31674c59d3167) | Result = dminsubnorm(0x8000000000000001)^0x000010
    ? 'fs1 == 0 and fe1 == 0x000 and fm1 == 0x000000000001e and fs2 == 1 and fe2 ==
      0x3fd and fm2 == 0x3333333333333 and rm_val == 0  #nosat'
    : 1 #  rs1_val==dsubnorm(0x000000000000001e) and rs2_val==dnorm(0xbfd3333333333333) | Result = dminsubnorm(0x8000000000000001)^0x000008
    ? 'fs1 == 0 and fe1 == 0x000 and fm1 == 0x0000000000005 and fs2 == 1 and fe2 ==
      0x3ff and fm2 == 0x0000000000000 and rm_val == 0  #nosat'
    : 1 #  rs1_val==dsubnorm(0x0000000000000005) and rs2_val==dnorm(0xbff0000000000000) | Result = dminsubnorm(0x8000000000000001)^0x000004
    ? 'fs1 == 0 and fe1 == 0x000 and fm1 == 0x0000000000042 and fs2 == 1 and fe2 ==
      0x3fa and fm2 == 0x745d1745d1746 and rm_val == 0  #nosat'
    : 1 #  rs1_val==dsubnorm(0x0000000000000042) and rs2_val==dnorm(0xbfa745d1745d1746) | Result = dminsubnorm(0x8000000000000001)^0x000002
    ? 'fs1 == 0 and fe1 == 0x000 and fm1 == 0x0000000000052 and fs2 == 0 and fe2 ==
      0x000 and fm2 == 0x0000000008000 and rm_val == 0  #nosat'
    : 1 #  rs1_val==dsubnorm(0x0000000000000052) and rs2_val==dsubnorm(0x0000000000008000) | Result = dminsubnorm(0x8000000000000001)^0x000001
    ? 'fs1 == 0 and fe1 == 0x000 and fm1 == 0x000000000000d and fs2 == 0 and fe2 ==
      0x411 and fm2 == 0x3b13b62762762 and rm_val == 0  #nosat'
    : 1 #  rs1_val==dsubnorm(0x000000000000000d) and rs2_val==dnorm(0x4113b13b62762762) | Result = dminsubnorm(0x0000000000000001)^0x400000
    ? 'fs1 == 0 and fe1 == 0x000 and fm1 == 0x0000000000015 and fs2 == 0 and fe2 ==
      0x40f and fm2 == 0x86186db6db6db and rm_val == 0  #nosat'
    : 1 #  rs1_val==dsubnorm(0x0000000000000015) and rs2_val==dnorm(0x40f86186db6db6db) | Result = dminsubnorm(0x0000000000000001)^0x200000
    ? 'fs1 == 0 and fe1 == 0x000 and fm1 == 0x0000000000005 and fs2 == 0 and fe2 ==
      0x410 and fm2 == 0x9999b33333333 and rm_val == 0  #nosat'
    : 1 #  rs1_val==dsubnorm(0x0000000000000005) and rs2_val==dnorm(0x4109999b33333333) | Result = dminsubnorm(0x0000000000000001)^0x100000
    ? 'fs1 == 0 and fe1 == 0x000 and fm1 == 0x0000000000008 and fs2 == 0 and fe2 ==
      0x40f and fm2 == 0x0000200000000 and rm_val == 0  #nosat'
    : 1 #  rs1_val==dsubnorm(0x0000000000000008) and rs2_val==dnorm(0x40f0000200000000) | Result = dminsubnorm(0x0000000000000001)^0x080000
    ? 'fs1 == 0 and fe1 == 0x000 and fm1 == 0x0000000000012 and fs2 == 0 and fe2 ==
      0x40c and fm2 == 0xc71ce38e38e39 and rm_val == 0  #nosat'
    : 1 #  rs1_val==dsubnorm(0x0000000000000012) and rs2_val==dnorm(0x40cc71ce38e38e39) | Result = dminsubnorm(0x0000000000000001)^0x040000
    ? 'fs1 == 0 and fe1 == 0x000 and fm1 == 0x000000000005a and fs2 == 0 and fe2 ==
      0x409 and fm2 == 0x6c17777777777 and rm_val == 0  #nosat'
    : 1 #  rs1_val==dsubnorm(0x000000000000005a) and rs2_val==dnorm(0x4096c17777777777) | Result = dminsubnorm(0x0000000000000001)^0x020000
    ? 'fs1 == 0 and fe1 == 0x000 and fm1 == 0x0000000000054 and fs2 == 0 and fe2 ==
      0x408 and fm2 == 0x8619e79e79e7a and rm_val == 0  #nosat'
    : 1 #  rs1_val==dsubnorm(0x0000000000000054) and rs2_val==dnorm(0x4088619e79e79e7a) | Result = dminsubnorm(0x0000000000000001)^0x010000
    ? 'fs1 == 0 and fe1 == 0x000 and fm1 == 0x000000000004e and fs2 == 0 and fe2 ==
      0x407 and fm2 == 0xa41d89d89d89e and rm_val == 0  #nosat'
    : 1 #  rs1_val==dsubnorm(0x000000000000004e) and rs2_val==dnorm(0x407a41d89d89d89e) | Result = dminsubnorm(0x0000000000000001)^0x008000
    ? 'fs1 == 0 and fe1 == 0x000 and fm1 == 0x0000000000022 and fs2 == 0 and fe2 ==
      0x407 and fm2 == 0xe1e9696969697 and rm_val == 0  #nosat'
    : 1 #  rs1_val==dsubnorm(0x0000000000000022) and rs2_val==dnorm(0x407e1e9696969697) | Result = dminsubnorm(0x0000000000000001)^0x004000
    ? 'fs1 == 0 and fe1 == 0x000 and fm1 == 0x0000000000013 and fs2 == 0 and fe2 ==
      0x407 and fm2 == 0xaf35e50d79436 and rm_val == 0  #nosat'
    : 1 #  rs1_val==dsubnorm(0x0000000000000013) and rs2_val==dnorm(0x407af35e50d79436) | Result = dminsubnorm(0x0000000000000001)^0x002000
    ? 'fs1 == 0 and fe1 == 0x000 and fm1 == 0x0000000000042 and fs2 == 0 and fe2 ==
      0x404 and fm2 == 0xf09b26c9b26ca and rm_val == 0  #nosat'
    : 1 #  rs1_val==dsubnorm(0x0000000000000042) and rs2_val==dnorm(0x404f09b26c9b26ca) | Result = dminsubnorm(0x0000000000000001)^0x001000
    ? 'fs1 == 0 and fe1 == 0x000 and fm1 == 0x0000000000033 and fs2 == 0 and fe2 ==
      0x404 and fm2 == 0x4169696969697 and rm_val == 0  #nosat'
    : 1 #  rs1_val==dsubnorm(0x0000000000000033) and rs2_val==dnorm(0x4044169696969697) | Result = dminsubnorm(0x0000000000000001)^0x000800
    ? 'fs1 == 0 and fe1 == 0x000 and fm1 == 0x0000000000043 and fs2 == 0 and fe2 ==
      0x402 and fm2 == 0xe98d5f85bb395 and rm_val == 0  #nosat'
    : 1 #  rs1_val==dsubnorm(0x0000000000000043) and rs2_val==dnorm(0x402e98d5f85bb395) | Result = dminsubnorm(0x0000000000000001)^0x000400
    ? 'fs1 == 0 and fe1 == 0x000 and fm1 == 0x000000000003a and fs2 == 0 and fe2 ==
      0x402 and fm2 == 0x1b08d3dcb08d4 and rm_val == 0  #nosat'
    : 1 #  rs1_val==dsubnorm(0x000000000000003a) and rs2_val==dnorm(0x4021b08d3dcb08d4) | Result = dminsubnorm(0x0000000000000001)^0x000200
    ? 'fs1 == 0 and fe1 == 0x000 and fm1 == 0x000000000000e and fs2 == 0 and fe2 ==
      0x403 and fm2 == 0x25b6db6db6db7 and rm_val == 0  #nosat'
    : 1 #  rs1_val==dsubnorm(0x000000000000000e) and rs2_val==dnorm(0x40325b6db6db6db7) | Result = dminsubnorm(0x0000000000000001)^0x000100
    ? 'fs1 == 0 and fe1 == 0x000 and fm1 == 0x0000000000058 and fs2 == 0 and fe2 ==
      0x3ff and fm2 == 0x7745d1745d174 and rm_val == 0  #nosat'
    : 1 #  rs1_val==dsubnorm(0x0000000000000058) and rs2_val==dnorm(0x3ff7745d1745d174) | Result = dminsubnorm(0x0000000000000001)^0x000080
    ? 'fs1 == 0 and fe1 == 0x000 and fm1 == 0x000000000000c and fs2 == 0 and fe2 ==
      0x401 and fm2 == 0x5aaaaaaaaaaab and rm_val == 0  #nosat'
    : 1 #  rs1_val==dsubnorm(0x000000000000000c) and rs2_val==dnorm(0x4015aaaaaaaaaaab) | Result = dminsubnorm(0x0000000000000001)^0x000040
    ? 'fs1 == 0 and fe1 == 0x000 and fm1 == 0x000000000003d and fs2 == 0 and fe2 ==
      0x3fe and fm2 == 0x14fbcda3ac10d and rm_val == 0  #nosat'
    : 1 #  rs1_val==dsubnorm(0x000000000000003d) and rs2_val==dnorm(0x3fe14fbcda3ac10d) | Result = dminsubnorm(0x0000000000000001)^0x000020
    ? 'fs1 == 0 and fe1 == 0x000 and fm1 == 0x000000000005b and fs2 == 0 and fe2 ==
      0x3fc and fm2 == 0x7e97e97e97e98 and rm_val == 0  #nosat'
    : 1 #  rs1_val==dsubnorm(0x000000000000005b) and rs2_val==dnorm(0x3fc7e97e97e97e98) | Result = dminsubnorm(0x0000000000000001)^0x000010
    ? 'fs1 == 0 and fe1 == 0x000 and fm1 == 0x0000000000034 and fs2 == 0 and fe2 ==
      0x3fc and fm2 == 0x6276276276276 and rm_val == 0  #nosat'
    : 1 #  rs1_val==dsubnorm(0x0000000000000034) and rs2_val==dnorm(0x3fc6276276276276) | Result = dminsubnorm(0x0000000000000001)^0x000008
    ? 'fs1 == 0 and fe1 == 0x000 and fm1 == 0x0000000000022 and fs2 == 0 and fe2 ==
      0x3fc and fm2 == 0x2d2d2d2d2d2d3 and rm_val == 0  #nosat'
    : 1 #  rs1_val==dsubnorm(0x0000000000000022) and rs2_val==dnorm(0x3fc2d2d2d2d2d2d3) | Result = dminsubnorm(0x0000000000000001)^0x000004
    ? 'fs1 == 0 and fe1 == 0x000 and fm1 == 0x000000000005f and fs2 == 0 and fe2 ==
      0x3fa and fm2 == 0x02b1da46102b2 and rm_val == 0  #nosat'
    : 1 #  rs1_val==dsubnorm(0x000000000000005f) and rs2_val==dnorm(0x3fa02b1da46102b2) | Result = dminsubnorm(0x0000000000000001)^0x000002
    ? 'fs1 == 0 and fe1 == 0x000 and fm1 == 0x0000000000063 and fs2 == 0 and fe2 ==
      0x000 and fm2 == 0x0000000000000 and rm_val == 0  #nosat'
    : 1 #  rs1_val==dsubnorm(0x0000000000000063) and rs2_val==dzero(0x0000000000000000) | Result = dminsubnorm(0x0000000000000001)^0x000001
    ? 'fs1 == 0 and fe1 == 0x3f8 and fm1 == 0x000000000003a and fs2 == 1 and fe2 ==
      0x3ff and fm2 == 0x00000003fffc6 and rm_val == 0  #nosat'
    : 1 #  rs1_val==dnorm(0x3f8000000000003a) and rs2_val==dnorm(0xbff00000003fffc6) | Result = done(0xbf80000000000000)^0x400000
    ? 'fs1 == 0 and fe1 == 0x3f8 and fm1 == 0x0000000000004 and fs2 == 1 and fe2 ==
      0x3ff and fm2 == 0x00000001ffffc and rm_val == 0  #nosat'
    : 1 #  rs1_val==dnorm(0x3f80000000000004) and rs2_val==dnorm(0xbff00000001ffffc) | Result = done(0xbf80000000000000)^0x200000
    ? 'fs1 == 0 and fe1 == 0x3f8 and fm1 == 0x000000000002c and fs2 == 1 and fe2 ==
      0x3ff and fm2 == 0x00000000fffd4 and rm_val == 0  #nosat'
    : 1 #  rs1_val==dnorm(0x3f8000000000002c) and rs2_val==dnorm(0xbff00000000fffd4) | Result = done(0xbf80000000000000)^0x100000
    ? 'fs1 == 0 and fe1 == 0x3f8 and fm1 == 0x000000000000f and fs2 == 1 and fe2 ==
      0x3ff and fm2 == 0x000000007fff1 and rm_val == 0  #nosat'
    : 1 #  rs1_val==dnorm(0x3f8000000000000f) and rs2_val==dnorm(0xbff000000007fff1) | Result = done(0xbf80000000000000)^0x080000
    ? 'fs1 == 0 and fe1 == 0x3f8 and fm1 == 0x0000000000060 and fs2 == 1 and fe2 ==
      0x3ff and fm2 == 0x000000003ffa0 and rm_val == 0  #nosat'
    : 1 #  rs1_val==dnorm(0x3f80000000000060) and rs2_val==dnorm(0xbff000000003ffa0) | Result = done(0xbf80000000000000)^0x040000
    ? 'fs1 == 0 and fe1 == 0x3f8 and fm1 == 0x000000000004f and fs2 == 1 and fe2 ==
      0x3ff and fm2 == 0x000000001ffb1 and rm_val == 0  #nosat'
    : 1 #  rs1_val==dnorm(0x3f8000000000004f) and rs2_val==dnorm(0xbff000000001ffb1) | Result = done(0xbf80000000000000)^0x020000
    ? 'fs1 == 0 and fe1 == 0x3f8 and fm1 == 0x0000000000001 and fs2 == 1 and fe2 ==
      0x3ff and fm2 == 0x000000000ffff and rm_val == 0  #nosat'
    : 1 #  rs1_val==dnorm(0x3f80000000000001) and rs2_val==dnorm(0xbff000000000ffff) | Result = done(0xbf80000000000000)^0x010000
    ? 'fs1 == 0 and fe1 == 0x3f8 and fm1 == 0x0000000000014 and fs2 == 1 and fe2 ==
      0x3ff and fm2 == 0x0000000007fec and rm_val == 0  #nosat'
    : 1 #  rs1_val==dnorm(0x3f80000000000014) and rs2_val==dnorm(0xbff0000000007fec) | Result = done(0xbf80000000000000)^0x008000
    ? 'fs1 == 0 and fe1 == 0x3f8 and fm1 == 0x0000000000006 and fs2 == 1 and fe2 ==
      0x3ff and fm2 == 0x0000000003ffa and rm_val == 0  #nosat'
    : 1 #  rs1_val==dnorm(0x3f80000000000006) and rs2_val==dnorm(0xbff0000000003ffa) | Result = done(0xbf80000000000000)^0x004000
    ? 'fs1 == 0 and fe1 == 0x3f8 and fm1 == 0x0000000000032 and fs2 == 1 and fe2 ==
      0x3ff and fm2 == 0x0000000001fce and rm_val == 0  #nosat'
    : 1 #  rs1_val==dnorm(0x3f80000000000032) and rs2_val==dnorm(0xbff0000000001fce) | Result = done(0xbf80000000000000)^0x002000
    ? 'fs1 == 0 and fe1 == 0x3f8 and fm1 == 0x0000000000059 and fs2 == 1 and fe2 ==
      0x3ff and fm2 == 0x0000000000fa7 and rm_val == 0  #nosat'
    : 1 #  rs1_val==dnorm(0x3f80000000000059) and rs2_val==dnorm(0xbff0000000000fa7) | Result = done(0xbf80000000000000)^0x001000
    ? 'fs1 == 0 and fe1 == 0x3f8 and fm1 == 0x0000000000018 and fs2 == 1 and fe2 ==
      0x3ff and fm2 == 0x00000000007e8 and rm_val == 0  #nosat'
    : 1 #  rs1_val==dnorm(0x3f80000000000018) and rs2_val==dnorm(0xbff00000000007e8) | Result = done(0xbf80000000000000)^0x000800
    ? 'fs1 == 0 and fe1 == 0x3f8 and fm1 == 0x0000000000015 and fs2 == 1 and fe2 ==
      0x3ff and fm2 == 0x00000000003eb and rm_val == 0  #nosat'
    : 1 #  rs1_val==dnorm(0x3f80000000000015) and rs2_val==dnorm(0xbff00000000003eb) | Result = done(0xbf80000000000000)^0x000400
    ? 'fs1 == 0 and fe1 == 0x3f8 and fm1 == 0x0000000000021 and fs2 == 1 and fe2 ==
      0x3ff and fm2 == 0x00000000001df and rm_val == 0  #nosat'
    : 1 #  rs1_val==dnorm(0x3f80000000000021) and rs2_val==dnorm(0xbff00000000001df) | Result = done(0xbf80000000000000)^0x000200
    ? 'fs1 == 0 and fe1 == 0x3f8 and fm1 == 0x0000000000003 and fs2 == 1 and fe2 ==
      0x3ff and fm2 == 0x00000000000fd and rm_val == 0  #nosat'
    : 1 #  rs1_val==dnorm(0x3f80000000000003) and rs2_val==dnorm(0xbff00000000000fd) | Result = done(0xbf80000000000000)^0x000100
    ? 'fs1 == 0 and fe1 == 0x3f8 and fm1 == 0x0000000000006 and fs2 == 1 and fe2 ==
      0x3ff and fm2 == 0x000000000007a and rm_val == 0  #nosat'
    : 1 #  rs1_val==dnorm(0x3f80000000000006) and rs2_val==dnorm(0xbff000000000007a) | Result = done(0xbf80000000000000)^0x000080
    ? 'fs1 == 0 and fe1 == 0x3f8 and fm1 == 0x0000000000009 and fs2 == 1 and fe2 ==
      0x3ff and fm2 == 0x0000000000037 and rm_val == 0  #nosat'
    : 1 #  rs1_val==dnorm(0x3f80000000000009) and rs2_val==dnorm(0xbff0000000000037) | Result = done(0xbf80000000000000)^0x000040
    ? 'fs1 == 0 and fe1 == 0x3f8 and fm1 == 0x000000000000b and fs2 == 1 and fe2 ==
      0x3ff and fm2 == 0x0000000000015 and rm_val == 0  #nosat'
    : 1 #  rs1_val==dnorm(0x3f8000000000000b) and rs2_val==dnorm(0xbff0000000000015) | Result = done(0xbf80000000000000)^0x000020
    ? 'fs1 == 0 and fe1 == 0x3f8 and fm1 == 0x0000000000057 and fs2 == 1 and fe2 ==
      0x3fe and fm2 == 0xfffffffffff72 and rm_val == 0  #nosat'
    : 1 #  rs1_val==dnorm(0x3f80000000000057) and rs2_val==dnorm(0xbfefffffffffff72) | Result = done(0xbf80000000000000)^0x000010
    ? 'fs1 == 0 and fe1 == 0x3f8 and fm1 == 0x0000000000017 and fs2 == 1 and fe2 ==
      0x3fe and fm2 == 0xfffffffffffe2 and rm_val == 0  #nosat'
    : 1 #  rs1_val==dnorm(0x3f80000000000017) and rs2_val==dnorm(0xbfefffffffffffe2) | Result = done(0xbf80000000000000)^0x000008
    ? 'fs1 == 0 and fe1 == 0x3f8 and fm1 == 0x000000000002f and fs2 == 1 and fe2 ==
      0x3fe and fm2 == 0xfffffffffffaa and rm_val == 0  #nosat'
    : 1 #  rs1_val==dnorm(0x3f8000000000002f) and rs2_val==dnorm(0xbfefffffffffffaa) | Result = done(0xbf80000000000000)^0x000004
    ? 'fs1 == 0 and fe1 == 0x3f8 and fm1 == 0x0000000000005 and fs2 == 1 and fe2 ==
      0x3fe and fm2 == 0xffffffffffffa and rm_val == 0  #nosat'
    : 1 #  rs1_val==dnorm(0x3f80000000000005) and rs2_val==dnorm(0xbfeffffffffffffa) | Result = done(0xbf80000000000000)^0x000002
    ? 'fs1 == 0 and fe1 == 0x3f8 and fm1 == 0x000000000005c and fs2 == 1 and fe2 ==
      0x3fe and fm2 == 0xfffffffffff4a and rm_val == 0  #nosat'
    : 1 #  rs1_val==dnorm(0x3f8000000000005c) and rs2_val==dnorm(0xbfefffffffffff4a) | Result = done(0xbf80000000000000)^0x000001
    ? 'fs1 == 0 and fe1 == 0x3ff and fm1 == 0x0000000000008 and fs2 == 0 and fe2 ==
      0x3ff and fm2 == 0x00000003ffff8 and rm_val == 0  #nosat'
    : 1 #  rs1_val==dnorm(0x3ff0000000000008) and rs2_val==dnorm(0x3ff00000003ffff8) | Result = done(0x3ff0000000000000)^0x400000
    ? 'fs1 == 0 and fe1 == 0x3ff and fm1 == 0x0000000000020 and fs2 == 0 and fe2 ==
      0x3ff and fm2 == 0x00000001fffe0 and rm_val == 0  #nosat'
    : 1 #  rs1_val==dnorm(0x3ff0000000000020) and rs2_val==dnorm(0x3ff00000001fffe0) | Result = done(0x3ff0000000000000)^0x200000
    ? 'fs1 == 0 and fe1 == 0x3ff and fm1 == 0x0000000000012 and fs2 == 0 and fe2 ==
      0x3ff and fm2 == 0x00000000fffee and rm_val == 0  #nosat'
    : 1 #  rs1_val==dnorm(0x3ff0000000000012) and rs2_val==dnorm(0x3ff00000000fffee) | Result = done(0x3ff0000000000000)^0x100000
    ? 'fs1 == 0 and fe1 == 0x3ff and fm1 == 0x0000000000061 and fs2 == 0 and fe2 ==
      0x3ff and fm2 == 0x000000007ff9f and rm_val == 0  #nosat'
    : 1 #  rs1_val==dnorm(0x3ff0000000000061) and rs2_val==dnorm(0x3ff000000007ff9f) | Result = done(0x3ff0000000000000)^0x080000
    ? 'fs1 == 0 and fe1 == 0x3ff and fm1 == 0x0000000000058 and fs2 == 0 and fe2 ==
      0x3ff and fm2 == 0x000000003ffa8 and rm_val == 0  #nosat'
    : 1 #  rs1_val==dnorm(0x3ff0000000000058) and rs2_val==dnorm(0x3ff000000003ffa8) | Result = done(0x3ff0000000000000)^0x040000
    ? 'fs1 == 0 and fe1 == 0x3ff and fm1 == 0x000000000004c and fs2 == 0 and fe2 ==
      0x3ff and fm2 == 0x000000001ffb4 and rm_val == 0  #nosat'
    : 1 #  rs1_val==dnorm(0x3ff000000000004c) and rs2_val==dnorm(0x3ff000000001ffb4) | Result = done(0x3ff0000000000000)^0x020000
    ? 'fs1 == 0 and fe1 == 0x3ff and fm1 == 0x0000000000007 and fs2 == 0 and fe2 ==
      0x3ff and fm2 == 0x000000000fff9 and rm_val == 0  #nosat'
    : 1 #  rs1_val==dnorm(0x3ff0000000000007) and rs2_val==dnorm(0x3ff000000000fff9) | Result = done(0x3ff0000000000000)^0x010000
    ? 'fs1 == 0 and fe1 == 0x3ff and fm1 == 0x000000000004a and fs2 == 0 and fe2 ==
      0x3ff and fm2 == 0x0000000007fb6 and rm_val == 0  #nosat'
    : 1 #  rs1_val==dnorm(0x3ff000000000004a) and rs2_val==dnorm(0x3ff0000000007fb6) | Result = done(0x3ff0000000000000)^0x008000
    ? 'fs1 == 0 and fe1 == 0x3ff and fm1 == 0x000000000000e and fs2 == 0 and fe2 ==
      0x3ff and fm2 == 0x0000000003ff2 and rm_val == 0  #nosat'
    : 1 #  rs1_val==dnorm(0x3ff000000000000e) and rs2_val==dnorm(0x3ff0000000003ff2) | Result = done(0x3ff0000000000000)^0x004000
    ? 'fs1 == 0 and fe1 == 0x3ff and fm1 == 0x0000000000019 and fs2 == 0 and fe2 ==
      0x3ff and fm2 == 0x0000000001fe7 and rm_val == 0  #nosat'
    : 1 #  rs1_val==dnorm(0x3ff0000000000019) and rs2_val==dnorm(0x3ff0000000001fe7) | Result = done(0x3ff0000000000000)^0x002000
    ? 'fs1 == 0 and fe1 == 0x3ff and fm1 == 0x000000000005d and fs2 == 0 and fe2 ==
      0x3ff and fm2 == 0x0000000000fa3 and rm_val == 0  #nosat'
    : 1 #  rs1_val==dnorm(0x3ff000000000005d) and rs2_val==dnorm(0x3ff0000000000fa3) | Result = done(0x3ff0000000000000)^0x001000
    ? 'fs1 == 0 and fe1 == 0x3ff and fm1 == 0x000000000000a and fs2 == 0 and fe2 ==
      0x3ff and fm2 == 0x00000000007f6 and rm_val == 0  #nosat'
    : 1 #  rs1_val==dnorm(0x3ff000000000000a) and rs2_val==dnorm(0x3ff00000000007f6) | Result = done(0x3ff0000000000000)^0x000800
    ? 'fs1 == 0 and fe1 == 0x3ff and fm1 == 0x0000000000058 and fs2 == 0 and fe2 ==
      0x3ff and fm2 == 0x00000000003a8 and rm_val == 0  #nosat'
    : 1 #  rs1_val==dnorm(0x3ff0000000000058) and rs2_val==dnorm(0x3ff00000000003a8) | Result = done(0x3ff0000000000000)^0x000400
    ? 'fs1 == 0 and fe1 == 0x3ff and fm1 == 0x0000000000042 and fs2 == 0 and fe2 ==
      0x3ff and fm2 == 0x00000000001be and rm_val == 0  #nosat'
    : 1 #  rs1_val==dnorm(0x3ff0000000000042) and rs2_val==dnorm(0x3ff00000000001be) | Result = done(0x3ff0000000000000)^0x000200
    ? 'fs1 == 0 and fe1 == 0x3ff and fm1 == 0x000000000001b and fs2 == 0 and fe2 ==
      0x3ff and fm2 == 0x00000000000e5 and rm_val == 0  #nosat'
    : 1 #  rs1_val==dnorm(0x3ff000000000001b) and rs2_val==dnorm(0x3ff00000000000e5) | Result = done(0x3ff0000000000000)^0x000100
    ? 'fs1 == 0 and fe1 == 0x3ff and fm1 == 0x0000000000028 and fs2 == 0 and fe2 ==
      0x3ff and fm2 == 0x0000000000058 and rm_val == 0  #nosat'
    : 1 #  rs1_val==dnorm(0x3ff0000000000028) and rs2_val==dnorm(0x3ff0000000000058) | Result = done(0x3ff0000000000000)^0x000080
    ? 'fs1 == 0 and fe1 == 0x3ff and fm1 == 0x000000000004c and fs2 == 0 and fe2 ==
      0x3fe and fm2 == 0xfffffffffffe8 and rm_val == 0  #nosat'
    : 1 #  rs1_val==dnorm(0x3ff000000000004c) and rs2_val==dnorm(0x3fefffffffffffe8) | Result = done(0x3ff0000000000000)^0x000040
    ? 'fs1 == 0 and fe1 == 0x3ff and fm1 == 0x0000000000054 and fs2 == 0 and fe2 ==
      0x3fe and fm2 == 0xfffffffffff98 and rm_val == 0  #nosat'
    : 1 #  rs1_val==dnorm(0x3ff0000000000054) and rs2_val==dnorm(0x3fefffffffffff98) | Result = done(0x3ff0000000000000)^0x000020
    ? 'fs1 == 0 and fe1 == 0x3ff and fm1 == 0x0000000000043 and fs2 == 0 and fe2 ==
      0x3fe and fm2 == 0xfffffffffff9a and rm_val == 0  #nosat'
    : 1 #  rs1_val==dnorm(0x3ff0000000000043) and rs2_val==dnorm(0x3fefffffffffff9a) | Result = done(0x3ff0000000000000)^0x000010
    ? 'fs1 == 0 and fe1 == 0x3ff and fm1 == 0x0000000000041 and fs2 == 0 and fe2 ==
      0x3fe and fm2 == 0xfffffffffff8e and rm_val == 0  #nosat'
    : 1 #  rs1_val==dnorm(0x3ff0000000000041) and rs2_val==dnorm(0x3fefffffffffff8e) | Result = done(0x3ff0000000000000)^0x000008
    ? 'fs1 == 0 and fe1 == 0x3ff and fm1 == 0x0000000000027 and fs2 == 0 and fe2 ==
      0x3fe and fm2 == 0xfffffffffffba and rm_val == 0  #nosat'
    : 1 #  rs1_val==dnorm(0x3ff0000000000027) and rs2_val==dnorm(0x3fefffffffffffba) | Result = done(0x3ff0000000000000)^0x000004
    ? 'fs1 == 0 and fe1 == 0x3ff and fm1 == 0x000000000003e and fs2 == 0 and fe2 ==
      0x3fe and fm2 == 0xfffffffffff88 and rm_val == 0  #nosat'
    : 1 #  rs1_val==dnorm(0x3ff000000000003e) and rs2_val==dnorm(0x3fefffffffffff88) | Result = done(0x3ff0000000000000)^0x000002
    ? 'fs1 == 0 and fe1 == 0x3ff and fm1 == 0x0000000000023 and fs2 == 0 and fe2 ==
      0x3fe and fm2 == 0xfffffffffffbc and rm_val == 0  #nosat'
    : 1 #  rs1_val==dnorm(0x3ff0000000000023) and rs2_val==dnorm(0x3fefffffffffffbc) | Result = done(0x3ff0000000000000)^0x000001
    ? 'fs1 == 0 and fe1 == 0x000 and fm1 == 0x0000000000016 and fs2 == 1 and fe2 ==
      0x410 and fm2 == 0x745d1745d1746 and rm_val == 0  #nosat'
    : 1 #  rs1_val==dsubnorm(0x0000000000000016) and rs2_val==dnorm(0xc10745d1745d1746) | Result = dzero(0x8000000000000000)^0x400000
    ? 'fs1 == 0 and fe1 == 0x000 and fm1 == 0x000000000002a and fs2 == 1 and fe2 ==
      0x40e and fm2 == 0x8618618618618 and rm_val == 0  #nosat'
    : 1 #  rs1_val==dsubnorm(0x000000000000002a) and rs2_val==dnorm(0xc0e8618618618618) | Result = dzero(0x8000000000000000)^0x200000
    ? 'fs1 == 0 and fe1 == 0x000 and fm1 == 0x0000000000055 and fs2 == 1 and fe2 ==
      0x40c and fm2 == 0x8181818181818 and rm_val == 0  #nosat'
    : 1 #  rs1_val==dsubnorm(0x0000000000000055) and rs2_val==dnorm(0xc0c8181818181818) | Result = dzero(0x8000000000000000)^0x100000
    ? 'fs1 == 0 and fe1 == 0x000 and fm1 == 0x000000000003b and fs2 == 1 and fe2 ==
      0x40c and fm2 == 0x15b1e5f75270d and rm_val == 0  #nosat'
    : 1 #  rs1_val==dsubnorm(0x000000000000003b) and rs2_val==dnorm(0xc0c15b1e5f75270d) | Result = dzero(0x8000000000000000)^0x080000
    ? 'fs1 == 0 and fe1 == 0x000 and fm1 == 0x0000000000048 and fs2 == 1 and fe2 ==
      0x40a and fm2 == 0xc71c71c71c71c and rm_val == 0  #nosat'
    : 1 #  rs1_val==dsubnorm(0x0000000000000048) and rs2_val==dnorm(0xc0ac71c71c71c71c) | Result = dzero(0x8000000000000000)^0x040000
    ? 'fs1 == 0 and fe1 == 0x000 and fm1 == 0x0000000000049 and fs2 == 1 and fe2 ==
      0x409 and fm2 == 0xc0e070381c0e0 and rm_val == 0  #nosat'
    : 1 #  rs1_val==dsubnorm(0x0000000000000049) and rs2_val==dnorm(0xc09c0e070381c0e0) | Result = dzero(0x8000000000000000)^0x020000
    ? 'fs1 == 0 and fe1 == 0x000 and fm1 == 0x000000000003c and fs2 == 1 and fe2 ==
      0x409 and fm2 == 0x1111111111111 and rm_val == 0  #nosat'
    : 1 #  rs1_val==dsubnorm(0x000000000000003c) and rs2_val==dnorm(0xc091111111111111) | Result = dzero(0x8000000000000000)^0x010000
    ? 'fs1 == 0 and fe1 == 0x000 and fm1 == 0x0000000000055 and fs2 == 1 and fe2 ==
      0x407 and fm2 == 0x8181818181818 and rm_val == 0  #nosat'
    : 1 #  rs1_val==dsubnorm(0x0000000000000055) and rs2_val==dnorm(0xc078181818181818) | Result = dzero(0x8000000000000000)^0x008000
    ? 'fs1 == 0 and fe1 == 0x000 and fm1 == 0x0000000000042 and fs2 == 1 and fe2 ==
      0x406 and fm2 == 0xf07c1f07c1f08 and rm_val == 0  #nosat'
    : 1 #  rs1_val==dsubnorm(0x0000000000000042) and rs2_val==dnorm(0xc06f07c1f07c1f08) | Result = dzero(0x8000000000000000)^0x004000
    ? 'fs1 == 0 and fe1 == 0x000 and fm1 == 0x0000000000040 and fs2 == 1 and fe2 ==
      0x406 and fm2 == 0x0000000000000 and rm_val == 0  #nosat'
    : 1 #  rs1_val==dsubnorm(0x0000000000000040) and rs2_val==dnorm(0xc060000000000000) | Result = dzero(0x8000000000000000)^0x002000
    ? 'fs1 == 0 and fe1 == 0x000 and fm1 == 0x000000000003f and fs2 == 1 and fe2 ==
      0x405 and fm2 == 0x0410410410410 and rm_val == 0  #nosat'
    : 1 #  rs1_val==dsubnorm(0x000000000000003f) and rs2_val==dnorm(0xc050410410410410) | Result = dzero(0x8000000000000000)^0x001000
    ? 'fs1 == 0 and fe1 == 0x000 and fm1 == 0x0000000000044 and fs2 == 1 and fe2 ==
      0x403 and fm2 == 0xe1e1e1e1e1e1e and rm_val == 0  #nosat'
    : 1 #  rs1_val==dsubnorm(0x0000000000000044) and rs2_val==dnorm(0xc03e1e1e1e1e1e1e) | Result = dzero(0x8000000000000000)^0x000800
    ? 'fs1 == 0 and fe1 == 0x000 and fm1 == 0x000000000003c and fs2 == 1 and fe2 ==
      0x403 and fm2 == 0x1111111111111 and rm_val == 0  #nosat'
    : 1 #  rs1_val==dsubnorm(0x000000000000003c) and rs2_val==dnorm(0xc031111111111111) | Result = dzero(0x8000000000000000)^0x000400
    ? 'fs1 == 0 and fe1 == 0x000 and fm1 == 0x000000000005c and fs2 == 1 and fe2 ==
      0x401 and fm2 == 0x642c8590b2164 and rm_val == 0  #nosat'
    : 1 #  rs1_val==dsubnorm(0x000000000000005c) and rs2_val==dnorm(0xc01642c8590b2164) | Result = dzero(0x8000000000000000)^0x000200
    ? 'fs1 == 0 and fe1 == 0x000 and fm1 == 0x0000000000061 and fs2 == 1 and fe2 ==
      0x400 and fm2 == 0x51d07eae2f815 and rm_val == 0  #nosat'
    : 1 #  rs1_val==dsubnorm(0x0000000000000061) and rs2_val==dnorm(0xc0051d07eae2f815) | Result = dzero(0x8000000000000000)^0x000100
    ? 'fs1 == 0 and fe1 == 0x000 and fm1 == 0x000000000003a and fs2 == 1 and fe2 ==
      0x400 and fm2 == 0x1a7b9611a7b96 and rm_val == 0  #nosat'
    : 1 #  rs1_val==dsubnorm(0x000000000000003a) and rs2_val==dnorm(0xc001a7b9611a7b96) | Result = dzero(0x8000000000000000)^0x000080
    ? 'fs1 == 0 and fe1 == 0x000 and fm1 == 0x000000000002e and fs2 == 1 and fe2 ==
      0x3ff and fm2 == 0x642c8590b2164 and rm_val == 0  #nosat'
    : 1 #  rs1_val==dsubnorm(0x000000000000002e) and rs2_val==dnorm(0xbff642c8590b2164) | Result = dzero(0x8000000000000000)^0x000040
    ? 'fs1 == 0 and fe1 == 0x000 and fm1 == 0x000000000002f and fs2 == 1 and fe2 ==
      0x3fe and fm2 == 0x5c9882b931057 and rm_val == 0  #nosat'
    : 1 #  rs1_val==dsubnorm(0x000000000000002f) and rs2_val==dnorm(0xbfe5c9882b931057) | Result = dzero(0x8000000000000000)^0x000020
    ? 'fs1 == 0 and fe1 == 0x000 and fm1 == 0x0000000000044 and fs2 == 1 and fe2 ==
      0x3fc and fm2 == 0xe1e1e1e1e1e1e and rm_val == 0  #nosat'
    : 1 #  rs1_val==dsubnorm(0x0000000000000044) and rs2_val==dnorm(0xbfce1e1e1e1e1e1e) | Result = dzero(0x8000000000000000)^0x000010
    ? 'fs1 == 0 and fe1 == 0x000 and fm1 == 0x0000000000036 and fs2 == 1 and fe2 ==
      0x3fc and fm2 == 0x2f684bda12f68 and rm_val == 0  #nosat'
    : 1 #  rs1_val==dsubnorm(0x0000000000000036) and rs2_val==dnorm(0xbfc2f684bda12f68) | Result = dzero(0x8000000000000000)^0x000008
    ? 'fs1 == 0 and fe1 == 0x000 and fm1 == 0x0000000000018 and fs2 == 1 and fe2 ==
      0x3fc and fm2 == 0x5555555555555 and rm_val == 0  #nosat'
    : 1 #  rs1_val==dsubnorm(0x0000000000000018) and rs2_val==dnorm(0xbfc5555555555555) | Result = dzero(0x8000000000000000)^0x000004
    ? 'fs1 == 0 and fe1 == 0x000 and fm1 == 0x0000000000057 and fs2 == 1 and fe2 ==
      0x3f9 and fm2 == 0x78a4c8178a4c8 and rm_val == 0  #nosat'
    : 1 #  rs1_val==dsubnorm(0x0000000000000057) and rs2_val==dnorm(0xbf978a4c8178a4c8) | Result = dzero(0x8000000000000000)^0x000002
    ? 'fs1 == 0 and fe1 == 0x000 and fm1 == 0x000000000002f and fs2 == 1 and fe2 ==
      0x3f9 and fm2 == 0x5c9882b931057 and rm_val == 0  #nosat'
    : 1 #  rs1_val==dsubnorm(0x000000000000002f) and rs2_val==dnorm(0xbf95c9882b931057) | Result = dzero(0x8000000000000000)^0x000001
    ? 'fs1 == 0 and fe1 == 0x000 and fm1 == 0x0000000000042 and fs2 == 0 and fe2 ==
      0x40e and fm2 == 0xf07c1f07c1f08 and rm_val == 0  #nosat'
    : 1 #  rs1_val==dsubnorm(0x0000000000000042) and rs2_val==dnorm(0x40ef07c1f07c1f08) | Result = dzero(0x0000000000000000)^0x400000
    ? 'fs1 == 0 and fe1 == 0x000 and fm1 == 0x0000000000017 and fs2 == 0 and fe2 ==
      0x40f and fm2 == 0x642c8590b2164 and rm_val == 0  #nosat'
    : 1 #  rs1_val==dsubnorm(0x0000000000000017) and rs2_val==dnorm(0x40f642c8590b2164) | Result = dzero(0x0000000000000000)^0x200000
    ? 'fs1 == 0 and fe1 == 0x000 and fm1 == 0x0000000000017 and fs2 == 0 and fe2 ==
      0x40e and fm2 == 0x642c8590b2164 and rm_val == 0  #nosat'
    : 1 #  rs1_val==dsubnorm(0x0000000000000017) and rs2_val==dnorm(0x40e642c8590b2164) | Result = dzero(0x0000000000000000)^0x100000
    ? 'fs1 == 0 and fe1 == 0x000 and fm1 == 0x000000000001e and fs2 == 0 and fe2 ==
      0x40d and fm2 == 0x1111111111111 and rm_val == 0  #nosat'
    : 1 #  rs1_val==dsubnorm(0x000000000000001e) and rs2_val==dnorm(0x40d1111111111111) | Result = dzero(0x0000000000000000)^0x080000
    ? 'fs1 == 0 and fe1 == 0x000 and fm1 == 0x0000000000017 and fs2 == 0 and fe2 ==
      0x40c and fm2 == 0x642c8590b2164 and rm_val == 0  #nosat'
    : 1 #  rs1_val==dsubnorm(0x0000000000000017) and rs2_val==dnorm(0x40c642c8590b2164) | Result = dzero(0x0000000000000000)^0x040000
    ? 'fs1 == 0 and fe1 == 0x000 and fm1 == 0x0000000000016 and fs2 == 0 and fe2 ==
      0x40b and fm2 == 0x745d1745d1746 and rm_val == 0  #nosat'
    : 1 #  rs1_val==dsubnorm(0x0000000000000016) and rs2_val==dnorm(0x40b745d1745d1746) | Result = dzero(0x0000000000000000)^0x020000
    ? 'fs1 == 0 and fe1 == 0x000 and fm1 == 0x0000000000037 and fs2 == 0 and fe2 ==
      0x409 and fm2 == 0x29e4129e4129e and rm_val == 0  #nosat'
    : 1 #  rs1_val==dsubnorm(0x0000000000000037) and rs2_val==dnorm(0x40929e4129e4129e) | Result = dzero(0x0000000000000000)^0x010000
    ? 'fs1 == 0 and fe1 == 0x000 and fm1 == 0x0000000000029 and fs2 == 0 and fe2 ==
      0x408 and fm2 == 0x8f9c18f9c18fa and rm_val == 0  #nosat'
    : 1 #  rs1_val==dsubnorm(0x0000000000000029) and rs2_val==dnorm(0x4088f9c18f9c18fa) | Result = dzero(0x0000000000000000)^0x008000
    ? 'fs1 == 0 and fe1 == 0x000 and fm1 == 0x000000000002f and fs2 == 0 and fe2 ==
      0x407 and fm2 == 0x5c9882b931057 and rm_val == 0  #nosat'
    : 1 #  rs1_val==dsubnorm(0x000000000000002f) and rs2_val==dnorm(0x4075c9882b931057) | Result = dzero(0x0000000000000000)^0x004000
    ? 'fs1 == 0 and fe1 == 0x000 and fm1 == 0x0000000000005 and fs2 == 0 and fe2 ==
      0x409 and fm2 == 0x999999999999a and rm_val == 0  #nosat'
    : 1 #  rs1_val==dsubnorm(0x0000000000000005) and rs2_val==dnorm(0x409999999999999a) | Result = dzero(0x0000000000000000)^0x002000
    ? 'fs1 == 0 and fe1 == 0x000 and fm1 == 0x0000000000041 and fs2 == 0 and fe2 ==
      0x404 and fm2 == 0xf81f81f81f820 and rm_val == 0  #nosat'
    : 1 #  rs1_val==dsubnorm(0x0000000000000041) and rs2_val==dnorm(0x404f81f81f81f820) | Result = dzero(0x0000000000000000)^0x001000
    ? 'fs1 == 0 and fe1 == 0x000 and fm1 == 0x0000000000046 and fs2 == 0 and fe2 ==
      0x403 and fm2 == 0xd41d41d41d41d and rm_val == 0  #nosat'
    : 1 #  rs1_val==dsubnorm(0x0000000000000046) and rs2_val==dnorm(0x403d41d41d41d41d) | Result = dzero(0x0000000000000000)^0x000800
    ? 'fs1 == 0 and fe1 == 0x000 and fm1 == 0x0000000000042 and fs2 == 0 and fe2 ==
      0x402 and fm2 == 0xf07c1f07c1f08 and rm_val == 0  #nosat'
    : 1 #  rs1_val==dsubnorm(0x0000000000000042) and rs2_val==dnorm(0x402f07c1f07c1f08) | Result = dzero(0x0000000000000000)^0x000400
    ? 'fs1 == 0 and fe1 == 0x000 and fm1 == 0x0000000000033 and fs2 == 0 and fe2 ==
      0x402 and fm2 == 0x4141414141414 and rm_val == 0  #nosat'
    : 1 #  rs1_val==dsubnorm(0x0000000000000033) and rs2_val==dnorm(0x4024141414141414) | Result = dzero(0x0000000000000000)^0x000200
    ? 'fs1 == 0 and fe1 == 0x000 and fm1 == 0x0000000000038 and fs2 == 0 and fe2 ==
      0x401 and fm2 == 0x2492492492492 and rm_val == 0  #nosat'
    : 1 #  rs1_val==dsubnorm(0x0000000000000038) and rs2_val==dnorm(0x4012492492492492) | Result = dzero(0x0000000000000000)^0x000100
    ? 'fs1 == 0 and fe1 == 0x000 and fm1 == 0x0000000000058 and fs2 == 0 and fe2 ==
      0x3ff and fm2 == 0x745d1745d1746 and rm_val == 0  #nosat'
    : 1 #  rs1_val==dsubnorm(0x0000000000000058) and rs2_val==dnorm(0x3ff745d1745d1746) | Result = dzero(0x0000000000000000)^0x000080
    ? 'fs1 == 0 and fe1 == 0x000 and fm1 == 0x0000000000005 and fs2 == 0 and fe2 ==
      0x402 and fm2 == 0x999999999999a and rm_val == 0  #nosat'
    : 1 #  rs1_val==dsubnorm(0x0000000000000005) and rs2_val==dnorm(0x402999999999999a) | Result = dzero(0x0000000000000000)^0x000040
    ? 'fs1 == 0 and fe1 == 0x000 and fm1 == 0x000000000001c and fs2 == 0 and fe2 ==
      0x3ff and fm2 == 0x2492492492492 and rm_val == 0  #nosat'
    : 1 #  rs1_val==dsubnorm(0x000000000000001c) and rs2_val==dnorm(0x3ff2492492492492) | Result = dzero(0x0000000000000000)^0x000020
    ? 'fs1 == 0 and fe1 == 0x000 and fm1 == 0x0000000000021 and fs2 == 0 and fe2 ==
      0x3fd and fm2 == 0xf07c1f07c1f08 and rm_val == 0  #nosat'
    : 1 #  rs1_val==dsubnorm(0x0000000000000021) and rs2_val==dnorm(0x3fdf07c1f07c1f08) | Result = dzero(0x0000000000000000)^0x000010
    ? 'fs1 == 0 and fe1 == 0x000 and fm1 == 0x0000000000056 and fs2 == 0 and fe2 ==
      0x3fb and fm2 == 0x7d05f417d05f4 and rm_val == 0  #nosat'
    : 1 #  rs1_val==dsubnorm(0x0000000000000056) and rs2_val==dnorm(0x3fb7d05f417d05f4) | Result = dzero(0x0000000000000000)^0x000008
    ? 'fs1 == 0 and fe1 == 0x000 and fm1 == 0x0000000000016 and fs2 == 0 and fe2 ==
      0x3fc and fm2 == 0x745d1745d1746 and rm_val == 0  #nosat'
    : 1 #  rs1_val==dsubnorm(0x0000000000000016) and rs2_val==dnorm(0x3fc745d1745d1746) | Result = dzero(0x0000000000000000)^0x000004
    ? 'fs1 == 0 and fe1 == 0x000 and fm1 == 0x000000000000b and fs2 == 0 and fe2 ==
      0x3fc and fm2 == 0x745d1745d1746 and rm_val == 0  #nosat'
    : 1 #  rs1_val==dsubnorm(0x000000000000000b) and rs2_val==dnorm(0x3fc745d1745d1746) | Result = dzero(0x0000000000000000)^0x000002
    coverage: 276/276
  total_coverage: 378/378
