---
fnmadd_b17:
  config:
  - check ISA:=regex(.*I.*F.*)
  op_comb:
    rd == rs2 == rs3 != rs1: 1
    rs1 != rs2 and rs1 != rd and rs1 != rs3 and rs2 != rs3 and rs2 != rd and rs3 != rd: 197
    rs1 == rd != rs2 and rs1 == rd != rs3 and rs3 != rs2: 1
    rs1 == rd == rs3 != rs2: 1
    rs1 == rs2 != rs3 and rs1 == rs2 != rd and rd != rs3: 1
    rs1 == rs2 == rd != rs3: 1
    rs1 == rs2 == rs3 != rd: 1
    rs1 == rs2 == rs3 == rd: 1
    rs1 == rs3 != rs2 and rs1 == rs3 != rd and rd != rs2: 1
    rs2 == rd != rs1 and rs2 == rd != rs3 and rs3 != rs1: 1
    rs2 == rs3 != rs1 and rs2 == rs3 != rd and rd != rs1: 1
    rs3 == rd != rs1 and rs3 == rd != rs2 and rs2 != rs1: 1
    coverage: 12/12
  opcode:
    fnmadd.d: 208
    coverage: 1/1
  rd:
    f0: 1
    f1: 1
    f10: 1
    f11: 1
    f12: 1
    f13: 1
    f14: 1
    f15: 1
    f16: 1
    f17: 1
    f18: 1
    f19: 1
    f2: 1
    f20: 1
    f21: 1
    f22: 1
    f23: 1
    f24: 1
    f25: 1
    f26: 1
    f27: 1
    f28: 1
    f29: 1
    f3: 1
    f30: 1
    f31: 177
    f4: 1
    f5: 1
    f6: 1
    f7: 1
    f8: 1
    f9: 1
    coverage: 32/32
  rs1:
    f0: 1
    f1: 1
    f10: 1
    f11: 1
    f12: 1
    f13: 1
    f14: 1
    f15: 1
    f16: 1
    f17: 1
    f18: 1
    f19: 1
    f2: 1
    f20: 1
    f21: 1
    f22: 1
    f23: 1
    f24: 1
    f25: 1
    f26: 1
    f27: 1
    f28: 1
    f29: 1
    f3: 1
    f30: 177
    f31: 1
    f4: 1
    f5: 1
    f6: 1
    f7: 1
    f8: 1
    f9: 1
    coverage: 32/32
  rs2:
    f0: 1
    f1: 1
    f10: 1
    f11: 1
    f12: 1
    f13: 1
    f14: 1
    f15: 1
    f16: 1
    f17: 1
    f18: 1
    f19: 1
    f2: 1
    f20: 1
    f21: 1
    f22: 1
    f23: 1
    f24: 1
    f25: 1
    f26: 1
    f27: 1
    f28: 1
    f29: 177
    f3: 1
    f30: 1
    f31: 1
    f4: 1
    f5: 1
    f6: 1
    f7: 1
    f8: 1
    f9: 1
    coverage: 32/32
  rs3:
    f0: 1
    f1: 1
    f10: 1
    f11: 1
    f12: 1
    f13: 1
    f14: 1
    f15: 1
    f16: 1
    f17: 1
    f18: 1
    f19: 1
    f2: 1
    f20: 1
    f21: 1
    f22: 1
    f23: 1
    f24: 1
    f25: 1
    f26: 1
    f27: 1
    f28: 177
    f29: 1
    f3: 1
    f30: 1
    f31: 1
    f4: 1
    f5: 1
    f6: 1
    f7: 1
    f8: 1
    f9: 1
    coverage: 32/32
  val_comb:
    ? 'fs1 == 0 and fe1 == 0x5fa and fm1 == 0xe97d52f73d2ed and fs2 == 0 and fe2 ==
      0x5fa and fm2 == 0xe549a4f656ebe and fs3 == 1 and fe3 == 0x7f6 and fm3 == 0xcff39f2b2e98b
      and rm_val == 0  #nosat'
    : 1  #  rs1_val==dnorm(0x5fae97d52f73d2ed) and rs2_val==dnorm(0x5fae549a4f656ebe) and rs3_val==dnorm(0xff6cff39f2b2e98b) | Multiply-Add: Cancellation ---> Subnormal result 
    ? 'fs1 == 0 and fe1 == 0x5f6 and fm1 == 0x38aee2c19215f and fs2 == 0 and fe2 ==
      0x5f8 and fm2 == 0x912bfdff44ba7 and fs3 == 1 and fe3 == 0x7ef and fm3 == 0xe9ffaccdec974
      and rm_val == 0  #nosat'
    : 1 #  rs1_val==dnorm(0x5f638aee2c19215f) and rs2_val==dnorm(0x5f8912bfdff44ba7) and rs3_val==dnorm(0xfefe9ffaccdec974) | Multiply-Add: Cancellation ---> Subnormal result 
    ? 'fs1 == 0 and fe1 == 0x5fa and fm1 == 0xa56aface5eb97 and fs2 == 0 and fe2 ==
      0x5fa and fm2 == 0xabc379493ef0f and fs3 == 1 and fe3 == 0x7f6 and fm3 == 0x60159c3db36d8
      and rm_val == 0  #nosat'
    : 1 #  rs1_val==dnorm(0x5faa56aface5eb97) and rs2_val==dnorm(0x5faabc379493ef0f) and rs3_val==dnorm(0xff660159c3db36d8) | Multiply-Add: Cancellation ---> Subnormal result 
    ? 'fs1 == 0 and fe1 == 0x5f9 and fm1 == 0xe68dd9c514393 and fs2 == 0 and fe2 ==
      0x5f6 and fm2 == 0x878222f2318df and fs3 == 1 and fe3 == 0x7f1 and fm3 == 0x740cff07df955
      and rm_val == 0  #nosat'
    : 1 #  rs1_val==dnorm(0x5f9e68dd9c514393) and rs2_val==dnorm(0x5f6878222f2318df) and rs3_val==dnorm(0xff1740cff07df955) | Multiply-Add: Cancellation ---> Subnormal result 
    ? 'fs1 == 0 and fe1 == 0x5fa and fm1 == 0x4038aec1813f9 and fs2 == 0 and fe2 ==
      0x5fa and fm2 == 0x7c017850ccf9e and fs3 == 1 and fe3 == 0x7f5 and fm3 == 0xdb55fa1f8ea2e
      and rm_val == 0  #nosat'
    : 1 #  rs1_val==dnorm(0x5fa4038aec1813f9) and rs2_val==dnorm(0x5fa7c017850ccf9e) and rs3_val==dnorm(0xff5db55fa1f8ea2e) | Multiply-Add: Cancellation ---> Subnormal result 
    ? 'fs1 == 0 and fe1 == 0x5f8 and fm1 == 0x8e041c6437953 and fs2 == 0 and fe2 ==
      0x5fa and fm2 == 0x28d94e0280abc and fs3 == 1 and fe3 == 0x7f3 and fm3 == 0xcd869b9915f37
      and rm_val == 0  #nosat'
    : 1 #  rs1_val==dnorm(0x5f88e041c6437953) and rs2_val==dnorm(0x5fa28d94e0280abc) and rs3_val==dnorm(0xff3cd869b9915f37) | Multiply-Add: Cancellation ---> Subnormal result 
    ? 'fs1 == 0 and fe1 == 0x5f5 and fm1 == 0xf59904d0ce0bf and fs2 == 0 and fe2 ==
      0x5fa and fm2 == 0x1a7baab01ceb9 and fs3 == 1 and fe3 == 0x7f1 and fm3 == 0x14be6f22012e3
      and rm_val == 0  #nosat'
    : 1 #  rs1_val==dnorm(0x5f5f59904d0ce0bf) and rs2_val==dnorm(0x5fa1a7baab01ceb9) and rs3_val==dnorm(0xff114be6f22012e3) | Multiply-Add: Cancellation ---> Subnormal result 
    ? 'fs1 == 0 and fe1 == 0x5fa and fm1 == 0x67fb4908ceaaf and fs2 == 0 and fe2 ==
      0x5fa and fm2 == 0x65eaa9e302952 and fs3 == 1 and fe3 == 0x7f5 and fm3 == 0xf74b676e24eb8
      and rm_val == 0  #nosat'
    : 1 #  rs1_val==dnorm(0x5fa67fb4908ceaaf) and rs2_val==dnorm(0x5fa65eaa9e302952) and rs3_val==dnorm(0xff5f74b676e24eb8) | Multiply-Add: Cancellation ---> Subnormal result 
    ? 'fs1 == 0 and fe1 == 0x5fa and fm1 == 0x87dc8b1f4a7b7 and fs2 == 0 and fe2 ==
      0x5fa and fm2 == 0xf9492e51e93d3 and fs3 == 1 and fe3 == 0x7f6 and fm3 == 0x82b9099db4536
      and rm_val == 0  #nosat'
    : 1 #  rs1_val==dnorm(0x5fa87dc8b1f4a7b7) and rs2_val==dnorm(0x5faf9492e51e93d3) and rs3_val==dnorm(0xff682b9099db4536) | Multiply-Add: Cancellation ---> Subnormal result 
    ? 'fs1 == 0 and fe1 == 0x5fa and fm1 == 0x1ffb1e4665b2c and fs2 == 0 and fe2 ==
      0x5f9 and fm2 == 0xe4206922dd131 and fs3 == 1 and fe3 == 0x7f5 and fm3 == 0x104d9d730c446
      and rm_val == 0  #nosat'
    : 1 #  rs1_val==dnorm(0x5fa1ffb1e4665b2c) and rs2_val==dnorm(0x5f9e4206922dd131) and rs3_val==dnorm(0xff5104d9d730c446) | Multiply-Add: Cancellation ---> Subnormal result 
    ? 'fs1 == 0 and fe1 == 0x5f9 and fm1 == 0x97b629a826ff3 and fs2 == 0 and fe2 ==
      0x5fa and fm2 == 0x98715cd327a81 and fs3 == 1 and fe3 == 0x7f5 and fm3 == 0x453f6ed111529
      and rm_val == 0  #nosat'
    : 1 #  rs1_val==dnorm(0x5f997b629a826ff3) and rs2_val==dnorm(0x5fa98715cd327a81) and rs3_val==dnorm(0xff5453f6ed111529) | Multiply-Add: Cancellation ---> Subnormal result 
    ? 'fs1 == 0 and fe1 == 0x5f9 and fm1 == 0x308800ab9a08f and fs2 == 0 and fe2 ==
      0x5f9 and fm2 == 0xb9343c1265853 and fs3 == 1 and fe3 == 0x7f4 and fm3 == 0x066c361ec0d88
      and rm_val == 0  #nosat'
    : 1 #  rs1_val==dnorm(0x5f9308800ab9a08f) and rs2_val==dnorm(0x5f9b9343c1265853) and rs3_val==dnorm(0xff4066c361ec0d88) | Multiply-Add: Cancellation ---> Subnormal result 
    ? 'fs1 == 0 and fe1 == 0x5fa and fm1 == 0x41176abd4258d and fs2 == 0 and fe2 ==
      0x5f8 and fm2 == 0xaeb9622c6891f and fs3 == 1 and fe3 == 0x7f4 and fm3 == 0x0e1eed2c5920c
      and rm_val == 0  #nosat'
    : 1 #  rs1_val==dnorm(0x5fa41176abd4258d) and rs2_val==dnorm(0x5f8aeb9622c6891f) and rs3_val==dnorm(0xff40e1eed2c5920c) | Multiply-Add: Cancellation ---> Subnormal result 
    ? 'fs1 == 0 and fe1 == 0x5f8 and fm1 == 0x4dd13d82cf047 and fs2 == 0 and fe2 ==
      0x5f7 and fm2 == 0xafe78faaa8367 and fs3 == 1 and fe3 == 0x7f1 and fm3 == 0x19989cda129c4
      and rm_val == 0  #nosat'
    : 1 #  rs1_val==dnorm(0x5f84dd13d82cf047) and rs2_val==dnorm(0x5f7afe78faaa8367) and rs3_val==dnorm(0xff119989cda129c4) | Multiply-Add: Cancellation ---> Subnormal result 
    ? 'fs1 == 0 and fe1 == 0x5fa and fm1 == 0x6f674621915da and fs2 == 0 and fe2 ==
      0x5fa and fm2 == 0x03a0ff71fb0c2 and fs3 == 1 and fe3 == 0x7f5 and fm3 == 0x749c8b1b3ec9a
      and rm_val == 0  #nosat'
    : 1 #  rs1_val==dnorm(0x5fa6f674621915da) and rs2_val==dnorm(0x5fa03a0ff71fb0c2) and rs3_val==dnorm(0xff5749c8b1b3ec9a) | Multiply-Add: Cancellation ---> Subnormal result 
    ? 'fs1 == 0 and fe1 == 0x5fa and fm1 == 0x3ed0f2697260f and fs2 == 0 and fe2 ==
      0x5fa and fm2 == 0xb79b2b1934a01 and fs3 == 1 and fe3 == 0x7f6 and fm3 == 0x11bcc6f10ad2d
      and rm_val == 0  #nosat'
    : 1 #  rs1_val==dnorm(0x5fa3ed0f2697260f) and rs2_val==dnorm(0x5fab79b2b1934a01) and rs3_val==dnorm(0xff611bcc6f10ad2d) | Multiply-Add: Cancellation ---> Subnormal result 
    ? 'fs1 == 0 and fe1 == 0x5f6 and fm1 == 0xb3756a76d237f and fs2 == 0 and fe2 ==
      0x5f8 and fm2 == 0xb8c3b0a05a317 and fs3 == 1 and fe3 == 0x7f0 and fm3 == 0x76df56eee6e8f
      and rm_val == 0  #nosat'
    : 1 #  rs1_val==dnorm(0x5f6b3756a76d237f) and rs2_val==dnorm(0x5f8b8c3b0a05a317) and rs3_val==dnorm(0xff076df56eee6e8f) | Multiply-Add: Cancellation ---> Subnormal result 
    ? 'fs1 == 0 and fe1 == 0x5f7 and fm1 == 0xdd44967e4f77f and fs2 == 0 and fe2 ==
      0x5f7 and fm2 == 0xbb5518eec7ff7 and fs3 == 1 and fe3 == 0x7f0 and fm3 == 0x9d422b571218a
      and rm_val == 0  #nosat'
    : 1 #  rs1_val==dnorm(0x5f7dd44967e4f77f) and rs2_val==dnorm(0x5f7bb5518eec7ff7) and rs3_val==dnorm(0xff09d422b571218a) | Multiply-Add: Cancellation ---> Subnormal result 
    ? 'fs1 == 0 and fe1 == 0x5f8 and fm1 == 0x1ea6995f1c073 and fs2 == 0 and fe2 ==
      0x5f9 and fm2 == 0xf7e9d38031687 and fs3 == 1 and fe3 == 0x7f3 and fm3 == 0x1a1f94e72955c
      and rm_val == 0  #nosat'
    : 1 #  rs1_val==dnorm(0x5f81ea6995f1c073) and rs2_val==dnorm(0x5f9f7e9d38031687) and rs3_val==dnorm(0xff31a1f94e72955c) | Multiply-Add: Cancellation ---> Subnormal result 
    ? 'fs1 == 0 and fe1 == 0x5fa and fm1 == 0x0bb792159b051 and fs2 == 0 and fe2 ==
      0x5fa and fm2 == 0x5d1ae1e1d28a7 and fs3 == 1 and fe3 == 0x7f5 and fm3 == 0x6d155f04ca716
      and rm_val == 0  #nosat'
    : 1 #  rs1_val==dnorm(0x5fa0bb792159b051) and rs2_val==dnorm(0x5fa5d1ae1e1d28a7) and rs3_val==dnorm(0xff56d155f04ca716) | Multiply-Add: Cancellation ---> Subnormal result 
    ? 'fs1 == 0 and fe1 == 0x5f8 and fm1 == 0x98cb938bd0d9b and fs2 == 0 and fe2 ==
      0x5fa and fm2 == 0xd64f454066002 and fs3 == 1 and fe3 == 0x7f4 and fm3 == 0x77822b2577100
      and rm_val == 0  #nosat'
    : 1 #  rs1_val==dnorm(0x5f898cb938bd0d9b) and rs2_val==dnorm(0x5fad64f454066002) and rs3_val==dnorm(0xff477822b2577100) | Multiply-Add: Cancellation ---> Subnormal result 
    ? 'fs1 == 0 and fe1 == 0x5f8 and fm1 == 0x1bebe7b21cd5f and fs2 == 0 and fe2 ==
      0x5fa and fm2 == 0x011af8e2b2a8d and fs3 == 1 and fe3 == 0x7f3 and fm3 == 0x1d25bd974be61
      and rm_val == 0  #nosat'
    : 1 #  rs1_val==dnorm(0x5f81bebe7b21cd5f) and rs2_val==dnorm(0x5fa011af8e2b2a8d) and rs3_val==dnorm(0xff31d25bd974be61) | Multiply-Add: Cancellation ---> Subnormal result 
    ? 'fs1 == 0 and fe1 == 0x5f8 and fm1 == 0xeea576108affb and fs2 == 0 and fe2 ==
      0x5f9 and fm2 == 0xed04e711db0e1 and fs3 == 1 and fe3 == 0x7f3 and fm3 == 0xdc4f0eb6c0dc8
      and rm_val == 0  #nosat'
    : 1 #  rs1_val==dnorm(0x5f8eea576108affb) and rs2_val==dnorm(0x5f9ed04e711db0e1) and rs3_val==dnorm(0xff3dc4f0eb6c0dc8) | Multiply-Add: Cancellation ---> Subnormal result 
    ? 'fs1 == 0 and fe1 == 0x5fa and fm1 == 0x4c791addc9912 and fs2 == 0 and fe2 ==
      0x5f6 and fm2 == 0x97b02f6ed223f and fs3 == 1 and fe3 == 0x7f2 and fm3 == 0x08bcad499e695
      and rm_val == 0  #nosat'
    : 1 #  rs1_val==dnorm(0x5fa4c791addc9912) and rs2_val==dnorm(0x5f697b02f6ed223f) and rs3_val==dnorm(0xff208bcad499e695) | Multiply-Add: Cancellation ---> Subnormal result 
    ? 'fs1 == 0 and fe1 == 0x5fa and fm1 == 0x56eb5abeef1c8 and fs2 == 0 and fe2 ==
      0x5f7 and fm2 == 0x78842cac09a97 and fs3 == 1 and fe3 == 0x7f2 and fm3 == 0xf85aba7a20503
      and rm_val == 0  #nosat'
    : 1 #  rs1_val==dnorm(0x5fa56eb5abeef1c8) and rs2_val==dnorm(0x5f778842cac09a97) and rs3_val==dnorm(0xff2f85aba7a20503) | Multiply-Add: Cancellation ---> Subnormal result 
    ? 'fs1 == 0 and fe1 == 0x5f9 and fm1 == 0x670e7d1c3c471 and fs2 == 0 and fe2 ==
      0x5f8 and fm2 == 0x62964c066279b and fs3 == 1 and fe3 == 0x7f2 and fm3 == 0xf154d61f9b7f2
      and rm_val == 0  #nosat'
    : 1 #  rs1_val==dnorm(0x5f9670e7d1c3c471) and rs2_val==dnorm(0x5f862964c066279b) and rs3_val==dnorm(0xff2f154d61f9b7f2) | Multiply-Add: Cancellation ---> Subnormal result 
    ? 'fs1 == 0 and fe1 == 0x5fa and fm1 == 0x9889fc2d44e5e and fs2 == 0 and fe2 ==
      0x5f4 and fm2 == 0x21d9040c119bf and fs3 == 1 and fe3 == 0x7ef and fm3 == 0xce8e191b47a97
      and rm_val == 0  #nosat'
    : 1 #  rs1_val==dnorm(0x5fa9889fc2d44e5e) and rs2_val==dnorm(0x5f421d9040c119bf) and rs3_val==dnorm(0xfefce8e191b47a97) | Multiply-Add: Cancellation ---> Subnormal result 
    ? 'fs1 == 0 and fe1 == 0x5fa and fm1 == 0xd486b68b34be3 and fs2 == 0 and fe2 ==
      0x5f7 and fm2 == 0x3cc532c905347 and fs3 == 1 and fe3 == 0x7f3 and fm3 == 0x21df98f84296c
      and rm_val == 0  #nosat'
    : 1 #  rs1_val==dnorm(0x5fad486b68b34be3) and rs2_val==dnorm(0x5f73cc532c905347) and rs3_val==dnorm(0xff321df98f84296c) | Multiply-Add: Cancellation ---> Subnormal result 
    ? 'fs1 == 0 and fe1 == 0x5f8 and fm1 == 0x06933c1e52e8b and fs2 == 0 and fe2 ==
      0x5fa and fm2 == 0xdff0d9faf6b37 and fs3 == 1 and fe3 == 0x7f3 and fm3 == 0xec44871950571
      and rm_val == 0  #nosat'
    : 1 #  rs1_val==dnorm(0x5f806933c1e52e8b) and rs2_val==dnorm(0x5fadff0d9faf6b37) and rs3_val==dnorm(0xff3ec44871950571) | Multiply-Add: Cancellation ---> Subnormal result 
    ? 'fs1 == 0 and fe1 == 0x5f6 and fm1 == 0x7a1eff83f19af and fs2 == 0 and fe2 ==
      0x5f7 and fm2 == 0xbb68e4e714e57 and fs3 == 1 and fe3 == 0x7ef and fm3 == 0x4777496d068c5
      and rm_val == 0  #nosat'
    : 1 #  rs1_val==dnorm(0x5f67a1eff83f19af) and rs2_val==dnorm(0x5f7bb68e4e714e57) and rs3_val==dnorm(0xfef4777496d068c5) | Multiply-Add: Cancellation ---> Subnormal result 
    ? 'fs1 == 0 and fe1 == 0x5f9 and fm1 == 0xd17c6c95aefed and fs2 == 0 and fe2 ==
      0x5f9 and fm2 == 0xa5ac383168515 and fs3 == 1 and fe3 == 0x7f4 and fm3 == 0x7f5d622c15cd4
      and rm_val == 0  #nosat'
    : 1 #  rs1_val==dnorm(0x5f9d17c6c95aefed) and rs2_val==dnorm(0x5f9a5ac383168515) and rs3_val==dnorm(0xff47f5d622c15cd4) | Multiply-Add: Cancellation ---> Subnormal result 
    ? 'fs1 == 0 and fe1 == 0x5fa and fm1 == 0xf849379fb9b6b and fs2 == 0 and fe2 ==
      0x5fa and fm2 == 0xfa550bd9aed1a and fs3 == 1 and fe3 == 0x7f6 and fm3 == 0xf2b41fcc90774
      and rm_val == 0  #nosat'
    : 1 #  rs1_val==dnorm(0x5faf849379fb9b6b) and rs2_val==dnorm(0x5fafa550bd9aed1a) and rs3_val==dnorm(0xff6f2b41fcc90774) | Multiply-Add: Cancellation ---> Subnormal result 
    ? 'fs1 == 0 and fe1 == 0x5fa and fm1 == 0x31f03f05cb87a and fs2 == 0 and fe2 ==
      0x5fa and fm2 == 0x2d0e69e0aad85 and fs3 == 1 and fe3 == 0x7f5 and fm3 == 0x67c8b3c54adc3
      and rm_val == 0  #nosat'
    : 1 #  rs1_val==dnorm(0x5fa31f03f05cb87a) and rs2_val==dnorm(0x5fa2d0e69e0aad85) and rs3_val==dnorm(0xff567c8b3c54adc3) | Multiply-Add: Cancellation ---> Subnormal result 
    ? 'fs1 == 0 and fe1 == 0x5fa and fm1 == 0x3d2d3af7c48ae and fs2 == 0 and fe2 ==
      0x5f9 and fm2 == 0x447163c5b6799 and fs3 == 1 and fe3 == 0x7f4 and fm3 == 0x91f9bb360fce8
      and rm_val == 0  #nosat'
    : 1 #  rs1_val==dnorm(0x5fa3d2d3af7c48ae) and rs2_val==dnorm(0x5f9447163c5b6799) and rs3_val==dnorm(0xff491f9bb360fce8) | Multiply-Add: Cancellation ---> Subnormal result 
    ? 'fs1 == 0 and fe1 == 0x5fa and fm1 == 0xfea4d203770af and fs2 == 0 and fe2 ==
      0x5f9 and fm2 == 0x91b7d2621f217 and fs3 == 1 and fe3 == 0x7f5 and fm3 == 0x90a76c383db51
      and rm_val == 0  #nosat'
    : 1 #  rs1_val==dnorm(0x5fafea4d203770af) and rs2_val==dnorm(0x5f991b7d2621f217) and rs3_val==dnorm(0xff590a76c383db51) | Multiply-Add: Cancellation ---> Subnormal result 
    ? 'fs1 == 0 and fe1 == 0x5fa and fm1 == 0x894eb52d7a53a and fs2 == 0 and fe2 ==
      0x5fa and fm2 == 0x3883363d45ce5 and fs3 == 1 and fe3 == 0x7f5 and fm3 == 0xe021836ae0937
      and rm_val == 0  #nosat'
    : 1 #  rs1_val==dnorm(0x5fa894eb52d7a53a) and rs2_val==dnorm(0x5fa3883363d45ce5) and rs3_val==dnorm(0xff5e021836ae0937) | Multiply-Add: Cancellation ---> Subnormal result 
    ? 'fs1 == 0 and fe1 == 0x5fa and fm1 == 0x0bc55b64ea25c and fs2 == 0 and fe2 ==
      0x5fa and fm2 == 0xb0d4dc0773572 and fs3 == 1 and fe3 == 0x7f5 and fm3 == 0xc4bbafcf6046a
      and rm_val == 0  #nosat'
    : 1 #  rs1_val==dnorm(0x5fa0bc55b64ea25c) and rs2_val==dnorm(0x5fab0d4dc0773572) and rs3_val==dnorm(0xff5c4bbafcf6046a) | Multiply-Add: Cancellation ---> Subnormal result 
    ? 'fs1 == 0 and fe1 == 0x5f9 and fm1 == 0xb8178fb8c7f25 and fs2 == 0 and fe2 ==
      0x5fa and fm2 == 0x8ebf551167019 and fs3 == 1 and fe3 == 0x7f5 and fm3 == 0x56bec6a19f8a8
      and rm_val == 0  #nosat'
    : 1 #  rs1_val==dnorm(0x5f9b8178fb8c7f25) and rs2_val==dnorm(0x5fa8ebf551167019) and rs3_val==dnorm(0xff556bec6a19f8a8) | Multiply-Add: Cancellation ---> Subnormal result 
    ? 'fs1 == 0 and fe1 == 0x5f6 and fm1 == 0xf959d372fdf5f and fs2 == 0 and fe2 ==
      0x5f8 and fm2 == 0x26ffb22d6ee1f and fs3 == 1 and fe3 == 0x7f0 and fm3 == 0x232af484e9f31
      and rm_val == 0  #nosat'
    : 1 #  rs1_val==dnorm(0x5f6f959d372fdf5f) and rs2_val==dnorm(0x5f826ffb22d6ee1f) and rs3_val==dnorm(0xff0232af484e9f31) | Multiply-Add: Cancellation ---> Subnormal result 
    ? 'fs1 == 0 and fe1 == 0x5f9 and fm1 == 0x588877f85511b and fs2 == 0 and fe2 ==
      0x5f9 and fm2 == 0x7dbc6852f0d29 and fs3 == 1 and fe3 == 0x7f4 and fm3 == 0x00e05595e0c43
      and rm_val == 0  #nosat'
    : 1 #  rs1_val==dnorm(0x5f9588877f85511b) and rs2_val==dnorm(0x5f97dbc6852f0d29) and rs3_val==dnorm(0xff400e05595e0c43) | Multiply-Add: Cancellation ---> Subnormal result 
    ? 'fs1 == 0 and fe1 == 0x5f8 and fm1 == 0xf8cb3cb5140d7 and fs2 == 0 and fe2 ==
      0x5f8 and fm2 == 0xebb37bba609a7 and fs3 == 1 and fe3 == 0x7f2 and fm3 == 0xe4c7dbc1f4325
      and rm_val == 0  #nosat'
    : 1 #  rs1_val==dnorm(0x5f8f8cb3cb5140d7) and rs2_val==dnorm(0x5f8ebb37bba609a7) and rs3_val==dnorm(0xff2e4c7dbc1f4325) | Multiply-Add: Cancellation ---> Subnormal result 
    ? 'fs1 == 0 and fe1 == 0x5f9 and fm1 == 0xae7cb22e21faf and fs2 == 0 and fe2 ==
      0x5f9 and fm2 == 0x002e328b68fcd and fs3 == 1 and fe3 == 0x7f3 and fm3 == 0xaeca6194ef529
      and rm_val == 0  #nosat'
    : 1 #  rs1_val==dnorm(0x5f9ae7cb22e21faf) and rs2_val==dnorm(0x5f9002e328b68fcd) and rs3_val==dnorm(0xff3aeca6194ef529) | Multiply-Add: Cancellation ---> Subnormal result 
    ? 'fs1 == 0 and fe1 == 0x5f8 and fm1 == 0x2339bac8ac55f and fs2 == 0 and fe2 ==
      0x5f8 and fm2 == 0xa27ff454d2247 and fs3 == 1 and fe3 == 0x7f1 and fm3 == 0xdc15d292d6f93
      and rm_val == 0  #nosat'
    : 1 #  rs1_val==dnorm(0x5f82339bac8ac55f) and rs2_val==dnorm(0x5f8a27ff454d2247) and rs3_val==dnorm(0xff1dc15d292d6f93) | Multiply-Add: Cancellation ---> Subnormal result 
    ? 'fs1 == 0 and fe1 == 0x5f9 and fm1 == 0x43f16419df5f9 and fs2 == 0 and fe2 ==
      0x5fa and fm2 == 0xda33f11fe6a09 and fs3 == 1 and fe3 == 0x7f5 and fm3 == 0x2c0756c6bb060
      and rm_val == 0  #nosat'
    : 1 #  rs1_val==dnorm(0x5f943f16419df5f9) and rs2_val==dnorm(0x5fada33f11fe6a09) and rs3_val==dnorm(0xff52c0756c6bb060) | Multiply-Add: Cancellation ---> Subnormal result 
    ? 'fs1 == 0 and fe1 == 0x5f9 and fm1 == 0x237c293c04d53 and fs2 == 0 and fe2 ==
      0x5fa and fm2 == 0x468e8279a5120 and fs3 == 1 and fe3 == 0x7f4 and fm3 == 0x73d25ff0dc05a
      and rm_val == 0  #nosat'
    : 1 #  rs1_val==dnorm(0x5f9237c293c04d53) and rs2_val==dnorm(0x5fa468e8279a5120) and rs3_val==dnorm(0xff473d25ff0dc05a) | Multiply-Add: Cancellation ---> Subnormal result 
    ? 'fs1 == 0 and fe1 == 0x5f8 and fm1 == 0xe4e789d337d77 and fs2 == 0 and fe2 ==
      0x5fa and fm2 == 0xaac467660ea9f and fs3 == 1 and fe3 == 0x7f4 and fm3 == 0x942ea83cbc8f6
      and rm_val == 0  #nosat'
    : 1 #  rs1_val==dnorm(0x5f8e4e789d337d77) and rs2_val==dnorm(0x5faaac467660ea9f) and rs3_val==dnorm(0xff4942ea83cbc8f6) | Multiply-Add: Cancellation ---> Subnormal result 
    ? 'fs1 == 0 and fe1 == 0x5fa and fm1 == 0x85eb50a9b65e8 and fs2 == 0 and fe2 ==
      0x5f9 and fm2 == 0xbee6f48112ca9 and fs3 == 1 and fe3 == 0x7f5 and fm3 == 0x5457de2d82a38
      and rm_val == 0  #nosat'
    : 1 #  rs1_val==dnorm(0x5fa85eb50a9b65e8) and rs2_val==dnorm(0x5f9bee6f48112ca9) and rs3_val==dnorm(0xff55457de2d82a38) | Multiply-Add: Cancellation ---> Subnormal result 
    ? 'fs1 == 0 and fe1 == 0x5f9 and fm1 == 0x6fcb8489dc591 and fs2 == 0 and fe2 ==
      0x5fa and fm2 == 0xd5d579f837c3e and fs3 == 1 and fe3 == 0x7f5 and fm3 == 0x518146b0d327a
      and rm_val == 0  #nosat'
    : 1 #  rs1_val==dnorm(0x5f96fcb8489dc591) and rs2_val==dnorm(0x5fad5d579f837c3e) and rs3_val==dnorm(0xff5518146b0d327a) | Multiply-Add: Cancellation ---> Subnormal result 
    ? 'fs1 == 0 and fe1 == 0x5f8 and fm1 == 0x0435cbf7ce303 and fs2 == 0 and fe2 ==
      0x5f5 and fm2 == 0xcb3c58d58b2bf and fs3 == 1 and fe3 == 0x7ee and fm3 == 0xd2c9cb9ca91a8
      and rm_val == 0  #nosat'
    : 1 #  rs1_val==dnorm(0x5f80435cbf7ce303) and rs2_val==dnorm(0x5f5cb3c58d58b2bf) and rs3_val==dnorm(0xfeed2c9cb9ca91a8) | Multiply-Add: Cancellation ---> Subnormal result 
    ? 'fs1 == 0 and fe1 == 0x5fa and fm1 == 0xc9815c3b1adfc and fs2 == 0 and fe2 ==
      0x5f8 and fm2 == 0x7dd98b509becf and fs3 == 1 and fe3 == 0x7f4 and fm3 == 0x553526f238a14
      and rm_val == 0  #nosat'
    : 1 #  rs1_val==dnorm(0x5fac9815c3b1adfc) and rs2_val==dnorm(0x5f87dd98b509becf) and rs3_val==dnorm(0xff4553526f238a14) | Multiply-Add: Cancellation ---> Subnormal result 
    ? 'fs1 == 0 and fe1 == 0x5fa and fm1 == 0xea594439af755 and fs2 == 0 and fe2 ==
      0x5f9 and fm2 == 0x6a7fe63869fed and fs3 == 1 and fe3 == 0x7f5 and fm3 == 0x5b2b9add5649b
      and rm_val == 0  #nosat'
    : 1 #  rs1_val==dnorm(0x5faea594439af755) and rs2_val==dnorm(0x5f96a7fe63869fed) and rs3_val==dnorm(0xff55b2b9add5649b) | Multiply-Add: Cancellation ---> Subnormal result 
    ? 'fs1 == 0 and fe1 == 0x5f9 and fm1 == 0x7840b0a77fbbb and fs2 == 0 and fe2 ==
      0x5f9 and fm2 == 0x94a97c3df3b51 and fs3 == 1 and fe3 == 0x7f4 and fm3 == 0x295f980baba92
      and rm_val == 0  #nosat'
    : 1 #  rs1_val==dnorm(0x5f97840b0a77fbbb) and rs2_val==dnorm(0x5f994a97c3df3b51) and rs3_val==dnorm(0xff4295f980baba92) | Multiply-Add: Cancellation ---> Subnormal result 
    ? 'fs1 == 0 and fe1 == 0x5f9 and fm1 == 0x2a9ac14416973 and fs2 == 0 and fe2 ==
      0x5fa and fm2 == 0x3eb682e8c47fa and fs3 == 1 and fe3 == 0x7f4 and fm3 == 0x73c11eca120ef
      and rm_val == 0  #nosat'
    : 1 #  rs1_val==dnorm(0x5f92a9ac14416973) and rs2_val==dnorm(0x5fa3eb682e8c47fa) and rs3_val==dnorm(0xff473c11eca120ef) | Multiply-Add: Cancellation ---> Subnormal result 
    ? 'fs1 == 0 and fe1 == 0x5fa and fm1 == 0xdf0325e8750cf and fs2 == 0 and fe2 ==
      0x5fa and fm2 == 0x81cf3ffe0cb08 and fs3 == 1 and fe3 == 0x7f6 and fm3 == 0x68f3c3a5b118b
      and rm_val == 0  #nosat'
    : 1 #  rs1_val==dnorm(0x5fadf0325e8750cf) and rs2_val==dnorm(0x5fa81cf3ffe0cb08) and rs3_val==dnorm(0xff668f3c3a5b118b) | Multiply-Add: Cancellation ---> Subnormal result 
    ? 'fs1 == 0 and fe1 == 0x5fa and fm1 == 0x7c30cfd9902ca and fs2 == 0 and fe2 ==
      0x5fa and fm2 == 0x8083feedaf3d3 and fs3 == 1 and fe3 == 0x7f6 and fm3 == 0x1d869fad10212
      and rm_val == 0  #nosat'
    : 1 #  rs1_val==dnorm(0x5fa7c30cfd9902ca) and rs2_val==dnorm(0x5fa8083feedaf3d3) and rs3_val==dnorm(0xff61d869fad10212) | Multiply-Add: Cancellation ---> Subnormal result 
    ? 'fs1 == 0 and fe1 == 0x5fa and fm1 == 0x01559da52cc50 and fs2 == 0 and fe2 ==
      0x5fa and fm2 == 0x61457deedafab and fs3 == 1 and fe3 == 0x7f5 and fm3 == 0x631ce90b27f1d
      and rm_val == 0  #nosat'
    : 1 #  rs1_val==dnorm(0x5fa01559da52cc50) and rs2_val==dnorm(0x5fa61457deedafab) and rs3_val==dnorm(0xff5631ce90b27f1d) | Multiply-Add: Cancellation ---> Subnormal result 
    ? 'fs1 == 0 and fe1 == 0x5f9 and fm1 == 0x5e77a2a3ef6e5 and fs2 == 0 and fe2 ==
      0x5fa and fm2 == 0xc1d568ee159cf and fs3 == 1 and fe3 == 0x7f5 and fm3 == 0x33e9feb9321c9
      and rm_val == 0  #nosat'
    : 1 #  rs1_val==dnorm(0x5f95e77a2a3ef6e5) and rs2_val==dnorm(0x5fac1d568ee159cf) and rs3_val==dnorm(0xff533e9feb9321c9) | Multiply-Add: Cancellation ---> Subnormal result 
    ? 'fs1 == 0 and fe1 == 0x5fa and fm1 == 0x440c579831418 and fs2 == 0 and fe2 ==
      0x5f9 and fm2 == 0x99ddc9e77cb45 and fs3 == 1 and fe3 == 0x7f5 and fm3 == 0x03683b163d6bf
      and rm_val == 0  #nosat'
    : 1 #  rs1_val==dnorm(0x5fa440c579831418) and rs2_val==dnorm(0x5f999ddc9e77cb45) and rs3_val==dnorm(0xff503683b163d6bf) | Multiply-Add: Cancellation ---> Subnormal result 
    ? 'fs1 == 0 and fe1 == 0x5fa and fm1 == 0x97170988aa151 and fs2 == 0 and fe2 ==
      0x5f8 and fm2 == 0xdd895344c54d7 and fs3 == 1 and fe3 == 0x7f4 and fm3 == 0x7bb02640c9810
      and rm_val == 0  #nosat'
    : 1 #  rs1_val==dnorm(0x5fa97170988aa151) and rs2_val==dnorm(0x5f8dd895344c54d7) and rs3_val==dnorm(0xff47bb02640c9810) | Multiply-Add: Cancellation ---> Subnormal result 
    ? 'fs1 == 0 and fe1 == 0x5fa and fm1 == 0x5b608176286de and fs2 == 0 and fe2 ==
      0x5f9 and fm2 == 0x7ec25e17b909b and fs3 == 1 and fe3 == 0x7f5 and fm3 == 0x03b0dfff0614c
      and rm_val == 0  #nosat'
    : 1 #  rs1_val==dnorm(0x5fa5b608176286de) and rs2_val==dnorm(0x5f97ec25e17b909b) and rs3_val==dnorm(0xff503b0dfff0614c) | Multiply-Add: Cancellation ---> Subnormal result 
    ? 'fs1 == 0 and fe1 == 0x5f7 and fm1 == 0x97c657c682e1f and fs2 == 0 and fe2 ==
      0x5f8 and fm2 == 0xe719a478092fb and fs3 == 1 and fe3 == 0x7f1 and fm3 == 0x83f194a9bc9a7
      and rm_val == 0  #nosat'
    : 1 #  rs1_val==dnorm(0x5f797c657c682e1f) and rs2_val==dnorm(0x5f8e719a478092fb) and rs3_val==dnorm(0xff183f194a9bc9a7) | Multiply-Add: Cancellation ---> Subnormal result 
    ? 'fs1 == 0 and fe1 == 0x5fa and fm1 == 0x477c4d4dd15f5 and fs2 == 0 and fe2 ==
      0x5fa and fm2 == 0xdbfa105179648 and fs3 == 1 and fe3 == 0x7f6 and fm3 == 0x3071c3d96ff70
      and rm_val == 0  #nosat'
    : 1 #  rs1_val==dnorm(0x5fa477c4d4dd15f5) and rs2_val==dnorm(0x5fadbfa105179648) and rs3_val==dnorm(0xff63071c3d96ff70) | Multiply-Add: Cancellation ---> Subnormal result 
    ? 'fs1 == 0 and fe1 == 0x5fa and fm1 == 0xca057fc89126a and fs2 == 0 and fe2 ==
      0x5fa and fm2 == 0xd7eea06dfbab7 and fs3 == 1 and fe3 == 0x7f6 and fm3 == 0xa62d871f82fff
      and rm_val == 0  #nosat'
    : 1 #  rs1_val==dnorm(0x5faca057fc89126a) and rs2_val==dnorm(0x5fad7eea06dfbab7) and rs3_val==dnorm(0xff6a62d871f82fff) | Multiply-Add: Cancellation ---> Subnormal result 
    ? 'fs1 == 0 and fe1 == 0x5f8 and fm1 == 0x54fc797f61a47 and fs2 == 0 and fe2 ==
      0x5f9 and fm2 == 0xc49dffef48af1 and fs3 == 1 and fe3 == 0x7f3 and fm3 == 0x2d701d20d0886
      and rm_val == 0  #nosat'
    : 1 #  rs1_val==dnorm(0x5f854fc797f61a47) and rs2_val==dnorm(0x5f9c49dffef48af1) and rs3_val==dnorm(0xff32d701d20d0886) | Multiply-Add: Cancellation ---> Subnormal result 
    ? 'fs1 == 0 and fe1 == 0x5f9 and fm1 == 0x46086cad941b7 and fs2 == 0 and fe2 ==
      0x5f7 and fm2 == 0x3cf8a4ab5f917 and fs3 == 1 and fe3 == 0x7f1 and fm3 == 0x93af100731ef8
      and rm_val == 0  #nosat'
    : 1 #  rs1_val==dnorm(0x5f946086cad941b7) and rs2_val==dnorm(0x5f73cf8a4ab5f917) and rs3_val==dnorm(0xff193af100731ef8) | Multiply-Add: Cancellation ---> Subnormal result 
    ? 'fs1 == 0 and fe1 == 0x5fa and fm1 == 0xa321af726492d and fs2 == 0 and fe2 ==
      0x5f9 and fm2 == 0x8450b36da4f99 and fs3 == 1 and fe3 == 0x7f5 and fm3 == 0x3de1971a22a66
      and rm_val == 0  #nosat'
    : 1 #  rs1_val==dnorm(0x5faa321af726492d) and rs2_val==dnorm(0x5f98450b36da4f99) and rs3_val==dnorm(0xff53de1971a22a66) | Multiply-Add: Cancellation ---> Subnormal result 
    ? 'fs1 == 0 and fe1 == 0x5f9 and fm1 == 0x1c256e07d7b03 and fs2 == 0 and fe2 ==
      0x5fa and fm2 == 0xea5ed10729949 and fs3 == 1 and fe3 == 0x7f5 and fm3 == 0x1024712df5dce
      and rm_val == 0  #nosat'
    : 1 #  rs1_val==dnorm(0x5f91c256e07d7b03) and rs2_val==dnorm(0x5faea5ed10729949) and rs3_val==dnorm(0xff51024712df5dce) | Multiply-Add: Cancellation ---> Subnormal result 
    ? 'fs1 == 0 and fe1 == 0x5f8 and fm1 == 0xdd01ebf317c47 and fs2 == 0 and fe2 ==
      0x5f9 and fm2 == 0xd484e5c7d8c61 and fs3 == 1 and fe3 == 0x7f3 and fm3 == 0xb47f923e94a27
      and rm_val == 0  #nosat'
    : 1 #  rs1_val==dnorm(0x5f8dd01ebf317c47) and rs2_val==dnorm(0x5f9d484e5c7d8c61) and rs3_val==dnorm(0xff3b47f923e94a27) | Multiply-Add: Cancellation ---> Subnormal result 
    ? 'fs1 == 0 and fe1 == 0x5fa and fm1 == 0x9881bee04c84c and fs2 == 0 and fe2 ==
      0x5fa and fm2 == 0x41f756c5b46c8 and fs3 == 1 and fe3 == 0x7f6 and fm3 == 0x00e2affebe1df
      and rm_val == 0  #nosat'
    : 1 #  rs1_val==dnorm(0x5fa9881bee04c84c) and rs2_val==dnorm(0x5fa41f756c5b46c8) and rs3_val==dnorm(0xff600e2affebe1df) | Multiply-Add: Cancellation ---> Subnormal result 
    ? 'fs1 == 0 and fe1 == 0x5f9 and fm1 == 0x908348cc50075 and fs2 == 0 and fe2 ==
      0x5fa and fm2 == 0x0f993cf648277 and fs3 == 1 and fe3 == 0x7f4 and fm3 == 0xa8eab7e6deee1
      and rm_val == 0  #nosat'
    : 1 #  rs1_val==dnorm(0x5f9908348cc50075) and rs2_val==dnorm(0x5fa0f993cf648277) and rs3_val==dnorm(0xff4a8eab7e6deee1) | Multiply-Add: Cancellation ---> Subnormal result 
    ? 'fs1 == 0 and fe1 == 0x5fa and fm1 == 0xae70dafae96a3 and fs2 == 0 and fe2 ==
      0x5f7 and fm2 == 0x7cb7e10454cbf and fs3 == 1 and fe3 == 0x7f3 and fm3 == 0x40125908ba523
      and rm_val == 0  #nosat'
    : 1 #  rs1_val==dnorm(0x5faae70dafae96a3) and rs2_val==dnorm(0x5f77cb7e10454cbf) and rs3_val==dnorm(0xff340125908ba523) | Multiply-Add: Cancellation ---> Subnormal result 
    ? 'fs1 == 0 and fe1 == 0x5fa and fm1 == 0x97787813faa38 and fs2 == 0 and fe2 ==
      0x5fa and fm2 == 0x4e8baea923265 and fs3 == 1 and fe3 == 0x7f6 and fm3 == 0x0a3ec08a2df8e
      and rm_val == 0  #nosat'
    : 1 #  rs1_val==dnorm(0x5fa97787813faa38) and rs2_val==dnorm(0x5fa4e8baea923265) and rs3_val==dnorm(0xff60a3ec08a2df8e) | Multiply-Add: Cancellation ---> Subnormal result 
    ? 'fs1 == 0 and fe1 == 0x5fa and fm1 == 0xa613e194097b8 and fs2 == 0 and fe2 ==
      0x5f9 and fm2 == 0x377828aab6e99 and fs3 == 1 and fe3 == 0x7f5 and fm3 == 0x00c421b49377d
      and rm_val == 0  #nosat'
    : 1 #  rs1_val==dnorm(0x5faa613e194097b8) and rs2_val==dnorm(0x5f9377828aab6e99) and rs3_val==dnorm(0xff500c421b49377d) | Multiply-Add: Cancellation ---> Subnormal result 
    ? 'fs1 == 0 and fe1 == 0x5fa and fm1 == 0x13bf56ad82c8a and fs2 == 0 and fe2 ==
      0x5fa and fm2 == 0xd453f7d35f923 and fs3 == 1 and fe3 == 0x7f5 and fm3 == 0xf8743c6f979f8
      and rm_val == 0  #nosat'
    : 1 #  rs1_val==dnorm(0x5fa13bf56ad82c8a) and rs2_val==dnorm(0x5fad453f7d35f923) and rs3_val==dnorm(0xff5f8743c6f979f8) | Multiply-Add: Cancellation ---> Subnormal result 
    ? 'fs1 == 0 and fe1 == 0x5f9 and fm1 == 0x3bd530bfc7921 and fs2 == 0 and fe2 ==
      0x5fa and fm2 == 0x4c524788895e4 and fs3 == 1 and fe3 == 0x7f4 and fm3 == 0x99fdfdc2e77fd
      and rm_val == 0  #nosat'
    : 1 #  rs1_val==dnorm(0x5f93bd530bfc7921) and rs2_val==dnorm(0x5fa4c524788895e4) and rs3_val==dnorm(0xff499fdfdc2e77fd) | Multiply-Add: Cancellation ---> Subnormal result 
    ? 'fs1 == 0 and fe1 == 0x5f9 and fm1 == 0x87814b483b2ff and fs2 == 0 and fe2 ==
      0x5f9 and fm2 == 0xc56d7d1a2a465 and fs3 == 1 and fe3 == 0x7f4 and fm3 == 0x5ab79dcb0203d
      and rm_val == 0  #nosat'
    : 1 #  rs1_val==dnorm(0x5f987814b483b2ff) and rs2_val==dnorm(0x5f9c56d7d1a2a465) and rs3_val==dnorm(0xff45ab79dcb0203d) | Multiply-Add: Cancellation ---> Subnormal result 
    ? 'fs1 == 0 and fe1 == 0x5fa and fm1 == 0xef0f52001dd13 and fs2 == 0 and fe2 ==
      0x5f9 and fm2 == 0x774135045aad3 and fs3 == 1 and fe3 == 0x7f5 and fm3 == 0x6ad6c5444aa35
      and rm_val == 0  #nosat'
    : 1 #  rs1_val==dnorm(0x5faef0f52001dd13) and rs2_val==dnorm(0x5f9774135045aad3) and rs3_val==dnorm(0xff56ad6c5444aa35) | Multiply-Add: Cancellation ---> Subnormal result 
    ? 'fs1 == 0 and fe1 == 0x5f9 and fm1 == 0x2de4ff93f2d49 and fs2 == 0 and fe2 ==
      0x5f4 and fm2 == 0x54cb8485c10ff and fs3 == 1 and fe3 == 0x7ee and fm3 == 0x91e4244ef8416
      and rm_val == 0  #nosat'
    : 1 #  rs1_val==dnorm(0x5f92de4ff93f2d49) and rs2_val==dnorm(0x5f454cb8485c10ff) and rs3_val==dnorm(0xfee91e4244ef8416) | Multiply-Add: Cancellation ---> Subnormal result 
    ? 'fs1 == 0 and fe1 == 0x5f8 and fm1 == 0x4cf1937fde173 and fs2 == 0 and fe2 ==
      0x5f9 and fm2 == 0x86d2c67f038bd and fs3 == 1 and fe3 == 0x7f2 and fm3 == 0xfc4a2707d3c54
      and rm_val == 0  #nosat'
    : 1 #  rs1_val==dnorm(0x5f84cf1937fde173) and rs2_val==dnorm(0x5f986d2c67f038bd) and rs3_val==dnorm(0xff2fc4a2707d3c54) | Multiply-Add: Cancellation ---> Subnormal result 
    ? 'fs1 == 0 and fe1 == 0x5fa and fm1 == 0x932903b557086 and fs2 == 0 and fe2 ==
      0x5fa and fm2 == 0xba615dee0d545 and fs3 == 1 and fe3 == 0x7f6 and fm3 == 0x5c57136f25b95
      and rm_val == 0  #nosat'
    : 1 #  rs1_val==dnorm(0x5fa932903b557086) and rs2_val==dnorm(0x5faba615dee0d545) and rs3_val==dnorm(0xff65c57136f25b95) | Multiply-Add: Cancellation ---> Subnormal result 
    ? 'fs1 == 0 and fe1 == 0x5fa and fm1 == 0x9199ba7fdacbd and fs2 == 0 and fe2 ==
      0x5f9 and fm2 == 0x9e32e020ad6fd and fs3 == 1 and fe3 == 0x7f5 and fm3 == 0x44e3359d7ba4f
      and rm_val == 0  #nosat'
    : 1 #  rs1_val==dnorm(0x5fa9199ba7fdacbd) and rs2_val==dnorm(0x5f99e32e020ad6fd) and rs3_val==dnorm(0xff544e3359d7ba4f) | Multiply-Add: Cancellation ---> Subnormal result 
    ? 'fs1 == 0 and fe1 == 0x5fa and fm1 == 0x820702d63fac0 and fs2 == 0 and fe2 ==
      0x5f8 and fm2 == 0x63bca2c276bab and fs3 == 1 and fe3 == 0x7f4 and fm3 == 0x0c3615c16de36
      and rm_val == 0  #nosat'
    : 1 #  rs1_val==dnorm(0x5fa820702d63fac0) and rs2_val==dnorm(0x5f863bca2c276bab) and rs3_val==dnorm(0xff40c3615c16de36) | Multiply-Add: Cancellation ---> Subnormal result 
    ? 'fs1 == 0 and fe1 == 0x5fa and fm1 == 0x017c339d75e4d and fs2 == 0 and fe2 ==
      0x5f5 and fm2 == 0xc30407e58dcff and fs3 == 1 and fe3 == 0x7f0 and fm3 == 0xc5a1dcd07d4e0
      and rm_val == 0  #nosat'
    : 1 #  rs1_val==dnorm(0x5fa017c339d75e4d) and rs2_val==dnorm(0x5f5c30407e58dcff) and rs3_val==dnorm(0xff0c5a1dcd07d4e0) | Multiply-Add: Cancellation ---> Subnormal result 
    ? 'fs1 == 0 and fe1 == 0x5fa and fm1 == 0x597fb1bb06230 and fs2 == 0 and fe2 ==
      0x5f9 and fm2 == 0x56ed923aca873 and fs3 == 1 and fe3 == 0x7f4 and fm3 == 0xced138018ff79
      and rm_val == 0  #nosat'
    : 1 #  rs1_val==dnorm(0x5fa597fb1bb06230) and rs2_val==dnorm(0x5f956ed923aca873) and rs3_val==dnorm(0xff4ced138018ff79) | Multiply-Add: Cancellation ---> Subnormal result 
    ? 'fs1 == 0 and fe1 == 0x5fa and fm1 == 0x511a1344303ed and fs2 == 0 and fe2 ==
      0x5fa and fm2 == 0x82640d65dc24c and fs3 == 1 and fe3 == 0x7f5 and fm3 == 0xfccd10e0cb887
      and rm_val == 0  #nosat'
    : 1 #  rs1_val==dnorm(0x5fa511a1344303ed) and rs2_val==dnorm(0x5fa82640d65dc24c) and rs3_val==dnorm(0xff5fccd10e0cb887) | Multiply-Add: Cancellation ---> Subnormal result 
    ? 'fs1 == 0 and fe1 == 0x5f2 and fm1 == 0x8e1a79f69deff and fs2 == 0 and fe2 ==
      0x5f9 and fm2 == 0xf112c2c43eca3 and fs3 == 1 and fe3 == 0x7ed and fm3 == 0x827f49c2cd268
      and rm_val == 0  #nosat'
    : 1 #  rs1_val==dnorm(0x5f28e1a79f69deff) and rs2_val==dnorm(0x5f9f112c2c43eca3) and rs3_val==dnorm(0xfed827f49c2cd268) | Multiply-Add: Cancellation ---> Subnormal result 
    ? 'fs1 == 0 and fe1 == 0x5f8 and fm1 == 0xa3d5b9f8ee473 and fs2 == 0 and fe2 ==
      0x5fa and fm2 == 0xeefde430a673b and fs3 == 1 and fe3 == 0x7f4 and fm3 == 0x95e366a8a4bfe
      and rm_val == 0  #nosat'
    : 1 #  rs1_val==dnorm(0x5f8a3d5b9f8ee473) and rs2_val==dnorm(0x5faeefde430a673b) and rs3_val==dnorm(0xff495e366a8a4bfe) | Multiply-Add: Cancellation ---> Subnormal result 
    ? 'fs1 == 0 and fe1 == 0x5f9 and fm1 == 0x03c79a41b870f and fs2 == 0 and fe2 ==
      0x5fa and fm2 == 0x21d7278b1bb7f and fs3 == 1 and fe3 == 0x7f4 and fm3 == 0x261ea9e7506ae
      and rm_val == 0  #nosat'
    : 1 #  rs1_val==dnorm(0x5f903c79a41b870f) and rs2_val==dnorm(0x5fa21d7278b1bb7f) and rs3_val==dnorm(0xff4261ea9e7506ae) | Multiply-Add: Cancellation ---> Subnormal result 
    ? 'fs1 == 0 and fe1 == 0x5f8 and fm1 == 0x1a5d3a022c06b and fs2 == 0 and fe2 ==
      0x5fa and fm2 == 0x39827e2b6fc0e and fs3 == 1 and fe3 == 0x7f3 and fm3 == 0x59cbea6de8678
      and rm_val == 0  #nosat'
    : 1 #  rs1_val==dnorm(0x5f81a5d3a022c06b) and rs2_val==dnorm(0x5fa39827e2b6fc0e) and rs3_val==dnorm(0xff359cbea6de8678) | Multiply-Add: Cancellation ---> Subnormal result 
    ? 'fs1 == 0 and fe1 == 0x5fa and fm1 == 0x2c2600e5225e4 and fs2 == 0 and fe2 ==
      0x5f8 and fm2 == 0x882e3a7d63c53 and fs3 == 1 and fe3 == 0x7f3 and fm3 == 0xcbd064c6a588c
      and rm_val == 0  #nosat'
    : 1 #  rs1_val==dnorm(0x5fa2c2600e5225e4) and rs2_val==dnorm(0x5f8882e3a7d63c53) and rs3_val==dnorm(0xff3cbd064c6a588c) | Multiply-Add: Cancellation ---> Subnormal result 
    ? 'fs1 == 0 and fe1 == 0x5fa and fm1 == 0x88b452334d482 and fs2 == 0 and fe2 ==
      0x5f8 and fm2 == 0x98a767463fb7b and fs3 == 1 and fe3 == 0x7f4 and fm3 == 0x39701787d960d
      and rm_val == 0  #nosat'
    : 1 #  rs1_val==dnorm(0x5fa88b452334d482) and rs2_val==dnorm(0x5f898a767463fb7b) and rs3_val==dnorm(0xff439701787d960d) | Multiply-Add: Cancellation ---> Subnormal result 
    ? 'fs1 == 0 and fe1 == 0x5fa and fm1 == 0xc4f4bdbe3ee53 and fs2 == 0 and fe2 ==
      0x5f7 and fm2 == 0x9b7932c7ac007 and fs3 == 1 and fe3 == 0x7f3 and fm3 == 0x6c05af139ac4c
      and rm_val == 0  #nosat'
    : 1 #  rs1_val==dnorm(0x5fac4f4bdbe3ee53) and rs2_val==dnorm(0x5f79b7932c7ac007) and rs3_val==dnorm(0xff36c05af139ac4c) | Multiply-Add: Cancellation ---> Subnormal result 
    ? 'fs1 == 0 and fe1 == 0x5fa and fm1 == 0x757c41e46ee0f and fs2 == 0 and fe2 ==
      0x5fa and fm2 == 0x367fd258b0b63 and fs3 == 1 and fe3 == 0x7f5 and fm3 == 0xc4fef350a12aa
      and rm_val == 0  #nosat'
    : 1 #  rs1_val==dnorm(0x5fa757c41e46ee0f) and rs2_val==dnorm(0x5fa367fd258b0b63) and rs3_val==dnorm(0xff5c4fef350a12aa) | Multiply-Add: Cancellation ---> Subnormal result 
    ? 'fs1 == 0 and fe1 == 0x5fa and fm1 == 0xa1d3ea060b239 and fs2 == 0 and fe2 ==
      0x5f5 and fm2 == 0x18c773392efff and fs3 == 1 and fe3 == 0x7f0 and fm3 == 0xca454fc10de73
      and rm_val == 0  #nosat'
    : 1 #  rs1_val==dnorm(0x5faa1d3ea060b239) and rs2_val==dnorm(0x5f518c773392efff) and rs3_val==dnorm(0xff0ca454fc10de73) | Multiply-Add: Cancellation ---> Subnormal result 
    ? 'fs1 == 0 and fe1 == 0x5fa and fm1 == 0x6c53c0ba0796d and fs2 == 0 and fe2 ==
      0x5fa and fm2 == 0xc43588ddd7fbc and fs3 == 1 and fe3 == 0x7f6 and fm3 == 0x41c80833c8fd5
      and rm_val == 0  #nosat'
    : 1 #  rs1_val==dnorm(0x5fa6c53c0ba0796d) and rs2_val==dnorm(0x5fac43588ddd7fbc) and rs3_val==dnorm(0xff641c80833c8fd5) | Multiply-Add: Cancellation ---> Subnormal result 
    ? 'fs1 == 0 and fe1 == 0x5fa and fm1 == 0x45088c7a8eddc and fs2 == 0 and fe2 ==
      0x5f4 and fm2 == 0x7c4c7501c707f and fs3 == 1 and fe3 == 0x7ef and fm3 == 0xe2d9c39eca63e
      and rm_val == 0  #nosat'
    : 1 #  rs1_val==dnorm(0x5fa45088c7a8eddc) and rs2_val==dnorm(0x5f47c4c7501c707f) and rs3_val==dnorm(0xfefe2d9c39eca63e) | Multiply-Add: Cancellation ---> Subnormal result 
    ? 'fs1 == 0 and fe1 == 0x5f9 and fm1 == 0x9c63a6687c333 and fs2 == 0 and fe2 ==
      0x5fa and fm2 == 0x557d56987bca8 and fs3 == 1 and fe3 == 0x7f5 and fm3 == 0x130d526845787
      and rm_val == 0  #nosat'
    : 1 #  rs1_val==dnorm(0x5f99c63a6687c333) and rs2_val==dnorm(0x5fa557d56987bca8) and rs3_val==dnorm(0xff5130d526845787) | Multiply-Add: Cancellation ---> Subnormal result 
    ? 'fs1 == 0 and fe1 == 0x5fa and fm1 == 0xb442f12e7354a and fs2 == 0 and fe2 ==
      0x5f8 and fm2 == 0xcccc36886926f and fs3 == 1 and fe3 == 0x7f4 and fm3 == 0x88a225d31ef0e
      and rm_val == 0  #nosat'
    : 1 #  rs1_val==dnorm(0x5fab442f12e7354a) and rs2_val==dnorm(0x5f8cccc36886926f) and rs3_val==dnorm(0xff488a225d31ef0e) | Multiply-Add: Cancellation ---> Subnormal result 
    ? 'fs1 == 0 and fe1 == 0x5fa and fm1 == 0x7dc0f47a5db15 and fs2 == 0 and fe2 ==
      0x5fa and fm2 == 0x5124f30535e0b and fs3 == 1 and fe3 == 0x7f5 and fm3 == 0xf6c21b5d63b88
      and rm_val == 0  #nosat'
    : 1 #  rs1_val==dnorm(0x5fa7dc0f47a5db15) and rs2_val==dnorm(0x5fa5124f30535e0b) and rs3_val==dnorm(0xff5f6c21b5d63b88) | Multiply-Add: Cancellation ---> Subnormal result 
    ? 'fs1 == 0 and fe1 == 0x5f9 and fm1 == 0xe3d6d32e17fa5 and fs2 == 0 and fe2 ==
      0x5fa and fm2 == 0xec884da30b843 and fs3 == 1 and fe3 == 0x7f5 and fm3 == 0xd1713d5c45d1a
      and rm_val == 0  #nosat'
    : 1 #  rs1_val==dnorm(0x5f9e3d6d32e17fa5) and rs2_val==dnorm(0x5faec884da30b843) and rs3_val==dnorm(0xff5d1713d5c45d1a) | Multiply-Add: Cancellation ---> Subnormal result 
    ? 'fs1 == 0 and fe1 == 0x5fa and fm1 == 0x6bc16c6eccc22 and fs2 == 0 and fe2 ==
      0x5fa and fm2 == 0xdf93331a60977 and fs3 == 1 and fe3 == 0x7f6 and fm3 == 0x54b80948cc1ed
      and rm_val == 0  #nosat'
    : 1 #  rs1_val==dnorm(0x5fa6bc16c6eccc22) and rs2_val==dnorm(0x5fadf93331a60977) and rs3_val==dnorm(0xff654b80948cc1ed) | Multiply-Add: Cancellation ---> Subnormal result 
    ? 'fs1 == 0 and fe1 == 0x5fa and fm1 == 0x053533036dba9 and fs2 == 0 and fe2 ==
      0x5f9 and fm2 == 0xee098e2310cc3 and fs3 == 1 and fe3 == 0x7f4 and fm3 == 0xf8166856b2927
      and rm_val == 0  #nosat'
    : 1 #  rs1_val==dnorm(0x5fa053533036dba9) and rs2_val==dnorm(0x5f9ee098e2310cc3) and rs3_val==dnorm(0xff4f8166856b2927) | Multiply-Add: Cancellation ---> Subnormal result 
    ? 'fs1 == 0 and fe1 == 0x5fa and fm1 == 0x30b95bd887309 and fs2 == 0 and fe2 ==
      0x5fa and fm2 == 0xc37d95ef26f70 and fs3 == 1 and fe3 == 0x7f6 and fm3 == 0x0cb604e46e63f
      and rm_val == 0  #nosat'
    : 1 #  rs1_val==dnorm(0x5fa30b95bd887309) and rs2_val==dnorm(0x5fac37d95ef26f70) and rs3_val==dnorm(0xff60cb604e46e63f) | Multiply-Add: Cancellation ---> Subnormal result 
    ? 'fs1 == 0 and fe1 == 0x5f8 and fm1 == 0x287a907776fa3 and fs2 == 0 and fe2 ==
      0x5f9 and fm2 == 0xc3c58b5c03e1d and fs3 == 1 and fe3 == 0x7f3 and fm3 == 0x059a5a1c5fc28
      and rm_val == 0  #nosat'
    : 1 #  rs1_val==dnorm(0x5f8287a907776fa3) and rs2_val==dnorm(0x5f9c3c58b5c03e1d) and rs3_val==dnorm(0xff3059a5a1c5fc28) | Multiply-Add: Cancellation ---> Subnormal result 
    ? 'fs1 == 0 and fe1 == 0x5fa and fm1 == 0xfd8213d6f2891 and fs2 == 0 and fe2 ==
      0x5fa and fm2 == 0x90cd3970eae8a and fs3 == 1 and fe3 == 0x7f6 and fm3 == 0x8ed9d93e3878e
      and rm_val == 0  #nosat'
    : 1 #  rs1_val==dnorm(0x5fafd8213d6f2891) and rs2_val==dnorm(0x5fa90cd3970eae8a) and rs3_val==dnorm(0xff68ed9d93e3878e) | Multiply-Add: Cancellation ---> Subnormal result 
    ? 'fs1 == 0 and fe1 == 0x5f9 and fm1 == 0xd800e87943f0d and fs2 == 0 and fe2 ==
      0x5fa and fm2 == 0x680debcf012e2 and fs3 == 1 and fe3 == 0x7f5 and fm3 == 0x4bed78de6b01b
      and rm_val == 0  #nosat'
    : 1 #  rs1_val==dnorm(0x5f9d800e87943f0d) and rs2_val==dnorm(0x5fa680debcf012e2) and rs3_val==dnorm(0xff54bed78de6b01b) | Multiply-Add: Cancellation ---> Subnormal result 
    ? 'fs1 == 0 and fe1 == 0x5fa and fm1 == 0x6e444c20e8184 and fs2 == 0 and fe2 ==
      0x5f9 and fm2 == 0x076f4d15b455d and fs3 == 1 and fe3 == 0x7f4 and fm3 == 0x78e7681c69388
      and rm_val == 0  #nosat'
    : 1 #  rs1_val==dnorm(0x5fa6e444c20e8184) and rs2_val==dnorm(0x5f9076f4d15b455d) and rs3_val==dnorm(0xff478e7681c69388) | Multiply-Add: Cancellation ---> Subnormal result 
    ? 'fs1 == 0 and fe1 == 0x5fa and fm1 == 0x82f53e1b1e100 and fs2 == 0 and fe2 ==
      0x5f7 and fm2 == 0x89d942a85e30f and fs3 == 1 and fe3 == 0x7f3 and fm3 == 0x29a9717d7fbb7
      and rm_val == 0  #nosat'
    : 1 #  rs1_val==dnorm(0x5fa82f53e1b1e100) and rs2_val==dnorm(0x5f789d942a85e30f) and rs3_val==dnorm(0xff329a9717d7fbb7) | Multiply-Add: Cancellation ---> Subnormal result 
    ? 'fs1 == 0 and fe1 == 0x5f7 and fm1 == 0xcb0a304fe19bf and fs2 == 0 and fe2 ==
      0x5fa and fm2 == 0x14eff5bf25de3 and fs3 == 1 and fe3 == 0x7f2 and fm3 == 0xf0954340ba8d2
      and rm_val == 0  #nosat'
    : 1 #  rs1_val==dnorm(0x5f7cb0a304fe19bf) and rs2_val==dnorm(0x5fa14eff5bf25de3) and rs3_val==dnorm(0xff2f0954340ba8d2) | Multiply-Add: Cancellation ---> Subnormal result 
    ? 'fs1 == 0 and fe1 == 0x5fa and fm1 == 0x5cb9025515212 and fs2 == 0 and fe2 ==
      0x5f9 and fm2 == 0xc160cd96157af and fs3 == 1 and fe3 == 0x7f5 and fm3 == 0x32122d42593f9
      and rm_val == 0  #nosat'
    : 1 #  rs1_val==dnorm(0x5fa5cb9025515212) and rs2_val==dnorm(0x5f9c160cd96157af) and rs3_val==dnorm(0xff532122d42593f9) | Multiply-Add: Cancellation ---> Subnormal result 
    ? 'fs1 == 0 and fe1 == 0x5f9 and fm1 == 0x2f7ee631fefc5 and fs2 == 0 and fe2 ==
      0x5f8 and fm2 == 0xda8557b559e8b and fs3 == 1 and fe3 == 0x7f3 and fm3 == 0x19478590a4d1b
      and rm_val == 0  #nosat'
    : 1 #  rs1_val==dnorm(0x5f92f7ee631fefc5) and rs2_val==dnorm(0x5f8da8557b559e8b) and rs3_val==dnorm(0xff319478590a4d1b) | Multiply-Add: Cancellation ---> Subnormal result 
    ? 'fs1 == 0 and fe1 == 0x5fa and fm1 == 0xfa2ea1f3d3ef9 and fs2 == 0 and fe2 ==
      0x5fa and fm2 == 0x4bd16a0267938 and fs3 == 1 and fe3 == 0x7f6 and fm3 == 0x480c2e8a45a7b
      and rm_val == 0  #nosat'
    : 1 #  rs1_val==dnorm(0x5fafa2ea1f3d3ef9) and rs2_val==dnorm(0x5fa4bd16a0267938) and rs3_val==dnorm(0xff6480c2e8a45a7b) | Multiply-Add: Cancellation ---> Subnormal result 
    ? 'fs1 == 0 and fe1 == 0x5f7 and fm1 == 0x11c62f98de3bf and fs2 == 0 and fe2 ==
      0x5f7 and fm2 == 0x60de25d29e92f and fs3 == 1 and fe3 == 0x7ef and fm3 == 0x795e13c25b2cc
      and rm_val == 0  #nosat'
    : 1 #  rs1_val==dnorm(0x5f711c62f98de3bf) and rs2_val==dnorm(0x5f760de25d29e92f) and rs3_val==dnorm(0xfef795e13c25b2cc) | Multiply-Add: Cancellation ---> Subnormal result 
    ? 'fs1 == 0 and fe1 == 0x5fa and fm1 == 0xfed8d422e59b9 and fs2 == 0 and fe2 ==
      0x5f8 and fm2 == 0x2c08bdce69f77 and fs3 == 1 and fe3 == 0x7f4 and fm3 == 0x2b5bc510c05b5
      and rm_val == 0  #nosat'
    : 1 #  rs1_val==dnorm(0x5fafed8d422e59b9) and rs2_val==dnorm(0x5f82c08bdce69f77) and rs3_val==dnorm(0xff42b5bc510c05b5) | Multiply-Add: Cancellation ---> Subnormal result 
    ? 'fs1 == 0 and fe1 == 0x5fa and fm1 == 0xa2bda964d91ae and fs2 == 0 and fe2 ==
      0x5f7 and fm2 == 0x89000c246f107 and fs3 == 1 and fe3 == 0x7f3 and fm3 == 0x416a9e7426c8f
      and rm_val == 0  #nosat'
    : 1 #  rs1_val==dnorm(0x5faa2bda964d91ae) and rs2_val==dnorm(0x5f789000c246f107) and rs3_val==dnorm(0xff3416a9e7426c8f) | Multiply-Add: Cancellation ---> Subnormal result 
    ? 'fs1 == 0 and fe1 == 0x5fa and fm1 == 0x5bb8442cbfc28 and fs2 == 0 and fe2 ==
      0x5fa and fm2 == 0xd65025c565597 and fs3 == 1 and fe3 == 0x7f6 and fm3 == 0x3f6895069b2d9
      and rm_val == 0  #nosat'
    : 1 #  rs1_val==dnorm(0x5fa5bb8442cbfc28) and rs2_val==dnorm(0x5fad65025c565597) and rs3_val==dnorm(0xff63f6895069b2d9) | Multiply-Add: Cancellation ---> Subnormal result 
    ? 'fs1 == 0 and fe1 == 0x5f9 and fm1 == 0xf4853a4c5bef9 and fs2 == 0 and fe2 ==
      0x5f9 and fm2 == 0x09a18dc6373ff and fs3 == 1 and fe3 == 0x7f4 and fm3 == 0x03ace329d0aed
      and rm_val == 0  #nosat'
    : 1 #  rs1_val==dnorm(0x5f9f4853a4c5bef9) and rs2_val==dnorm(0x5f909a18dc6373ff) and rs3_val==dnorm(0xff403ace329d0aed) | Multiply-Add: Cancellation ---> Subnormal result 
    ? 'fs1 == 0 and fe1 == 0x5fa and fm1 == 0xac08ec2b88c86 and fs2 == 0 and fe2 ==
      0x5f9 and fm2 == 0x2fe2d0b2849b1 and fs3 == 1 and fe3 == 0x7f4 and fm3 == 0xfc19cc59c1236
      and rm_val == 0  #nosat'
    : 1 #  rs1_val==dnorm(0x5faac08ec2b88c86) and rs2_val==dnorm(0x5f92fe2d0b2849b1) and rs3_val==dnorm(0xff4fc19cc59c1236) | Multiply-Add: Cancellation ---> Subnormal result 
    ? 'fs1 == 0 and fe1 == 0x5fa and fm1 == 0xe8ce066e96229 and fs2 == 0 and fe2 ==
      0x5fa and fm2 == 0x9bd3c29ad0568 and fs3 == 1 and fe3 == 0x7f6 and fm3 == 0x892b8cdb4965c
      and rm_val == 0  #nosat'
    : 1 #  rs1_val==dnorm(0x5fae8ce066e96229) and rs2_val==dnorm(0x5fa9bd3c29ad0568) and rs3_val==dnorm(0xff6892b8cdb4965c) | Multiply-Add: Cancellation ---> Subnormal result 
    ? 'fs1 == 0 and fe1 == 0x5f9 and fm1 == 0x1365a93dfa50f and fs2 == 0 and fe2 ==
      0x5fa and fm2 == 0x0d77af376928b and fs3 == 1 and fe3 == 0x7f4 and fm3 == 0x21e29395e67fa
      and rm_val == 0  #nosat'
    : 1 #  rs1_val==dnorm(0x5f91365a93dfa50f) and rs2_val==dnorm(0x5fa0d77af376928b) and rs3_val==dnorm(0xff421e29395e67fa) | Multiply-Add: Cancellation ---> Subnormal result 
    ? 'fs1 == 0 and fe1 == 0x5f9 and fm1 == 0x6e2aa97ad4287 and fs2 == 0 and fe2 ==
      0x5f9 and fm2 == 0xd4012b921b92d and fs3 == 1 and fe3 == 0x7f4 and fm3 == 0x4eb3d528adc8c
      and rm_val == 0  #nosat'
    : 1 #  rs1_val==dnorm(0x5f96e2aa97ad4287) and rs2_val==dnorm(0x5f9d4012b921b92d) and rs3_val==dnorm(0xff44eb3d528adc8c) | Multiply-Add: Cancellation ---> Subnormal result 
    ? 'fs1 == 0 and fe1 == 0x5fa and fm1 == 0x8deeb902c377e and fs2 == 0 and fe2 ==
      0x5fa and fm2 == 0x7270fced2be29 and fs3 == 1 and fe3 == 0x7f6 and fm3 == 0x1fe9547f4c080
      and rm_val == 0  #nosat'
    : 1 #  rs1_val==dnorm(0x5fa8deeb902c377e) and rs2_val==dnorm(0x5fa7270fced2be29) and rs3_val==dnorm(0xff61fe9547f4c080) | Multiply-Add: Cancellation ---> Subnormal result 
    ? 'fs1 == 0 and fe1 == 0x5fa and fm1 == 0x62a35ac6bee41 and fs2 == 0 and fe2 ==
      0x5f5 and fm2 == 0x942c54f20963f and fs3 == 1 and fe3 == 0x7f1 and fm3 == 0x17f39a81124ff
      and rm_val == 0  #nosat'
    : 1 #  rs1_val==dnorm(0x5fa62a35ac6bee41) and rs2_val==dnorm(0x5f5942c54f20963f) and rs3_val==dnorm(0xff117f39a81124ff) | Multiply-Add: Cancellation ---> Subnormal result 
    ? 'fs1 == 0 and fe1 == 0x5fa and fm1 == 0xb33c7d55682c1 and fs2 == 0 and fe2 ==
      0x5fa and fm2 == 0x48300cd907da9 and fs3 == 1 and fe3 == 0x7f6 and fm3 == 0x16fb98e25f7e4
      and rm_val == 0  #nosat'
    : 1 #  rs1_val==dnorm(0x5fab33c7d55682c1) and rs2_val==dnorm(0x5fa48300cd907da9) and rs3_val==dnorm(0xff616fb98e25f7e4) | Multiply-Add: Cancellation ---> Subnormal result 
    ? 'fs1 == 0 and fe1 == 0x5f7 and fm1 == 0xf29a9c82218e7 and fs2 == 0 and fe2 ==
      0x5f7 and fm2 == 0xf2c5343ef46b7 and fs3 == 1 and fe3 == 0x7f0 and fm3 == 0xe5b86d98cd59f
      and rm_val == 0  #nosat'
    : 1 #  rs1_val==dnorm(0x5f7f29a9c82218e7) and rs2_val==dnorm(0x5f7f2c5343ef46b7) and rs3_val==dnorm(0xff0e5b86d98cd59f) | Multiply-Add: Cancellation ---> Subnormal result 
    ? 'fs1 == 0 and fe1 == 0x5f9 and fm1 == 0xda577e11e08d7 and fs2 == 0 and fe2 ==
      0x5fa and fm2 == 0x81d54dd6137b5 and fs3 == 1 and fe3 == 0x7f5 and fm3 == 0x657467cee0de2
      and rm_val == 0  #nosat'
    : 1 #  rs1_val==dnorm(0x5f9da577e11e08d7) and rs2_val==dnorm(0x5fa81d54dd6137b5) and rs3_val==dnorm(0xff5657467cee0de2) | Multiply-Add: Cancellation ---> Subnormal result 
    ? 'fs1 == 0 and fe1 == 0x5f8 and fm1 == 0x89f3951da2feb and fs2 == 0 and fe2 ==
      0x5fa and fm2 == 0x24a28f97e5b1f and fs3 == 1 and fe3 == 0x7f3 and fm3 == 0xc253ff32fb1ce
      and rm_val == 0  #nosat'
    : 1 #  rs1_val==dnorm(0x5f889f3951da2feb) and rs2_val==dnorm(0x5fa24a28f97e5b1f) and rs3_val==dnorm(0xff3c253ff32fb1ce) | Multiply-Add: Cancellation ---> Subnormal result 
    ? 'fs1 == 0 and fe1 == 0x5fa and fm1 == 0xdedbc42e4ee38 and fs2 == 0 and fe2 ==
      0x5f7 and fm2 == 0x398aa070366df and fs3 == 1 and fe3 == 0x7f3 and fm3 == 0x253f00b7cffec
      and rm_val == 0  #nosat'
    : 1 #  rs1_val==dnorm(0x5fadedbc42e4ee38) and rs2_val==dnorm(0x5f7398aa070366df) and rs3_val==dnorm(0xff3253f00b7cffec) | Multiply-Add: Cancellation ---> Subnormal result 
    ? 'fs1 == 0 and fe1 == 0x5f7 and fm1 == 0x2e3db402ba61f and fs2 == 0 and fe2 ==
      0x5f9 and fm2 == 0x232f190317157 and fs3 == 1 and fe3 == 0x7f1 and fm3 == 0x57c7be7ad2ebc
      and rm_val == 0  #nosat'
    : 1 #  rs1_val==dnorm(0x5f72e3db402ba61f) and rs2_val==dnorm(0x5f9232f190317157) and rs3_val==dnorm(0xff157c7be7ad2ebc) | Multiply-Add: Cancellation ---> Subnormal result 
    ? 'fs1 == 0 and fe1 == 0x5f9 and fm1 == 0xf1860e3b4eb81 and fs2 == 0 and fe2 ==
      0x5f8 and fm2 == 0xaa7d58e3b9047 and fs3 == 1 and fe3 == 0x7f3 and fm3 == 0x9e6e57722524a
      and rm_val == 0  #nosat'
    : 1 #  rs1_val==dnorm(0x5f9f1860e3b4eb81) and rs2_val==dnorm(0x5f8aa7d58e3b9047) and rs3_val==dnorm(0xff39e6e57722524a) | Multiply-Add: Cancellation ---> Subnormal result 
    ? 'fs1 == 0 and fe1 == 0x5f5 and fm1 == 0x0197267f1985f and fs2 == 0 and fe2 ==
      0x5f9 and fm2 == 0xce41f387adc6f and fs3 == 1 and fe3 == 0x7ef and fm3 == 0xd12123e525707
      and rm_val == 0  #nosat'
    : 1 #  rs1_val==dnorm(0x5f50197267f1985f) and rs2_val==dnorm(0x5f9ce41f387adc6f) and rs3_val==dnorm(0xfefd12123e525707) | Multiply-Add: Cancellation ---> Subnormal result 
    ? 'fs1 == 0 and fe1 == 0x5f9 and fm1 == 0x3943b61964e33 and fs2 == 0 and fe2 ==
      0x5fa and fm2 == 0xae64a7b19f21e and fs3 == 1 and fe3 == 0x7f5 and fm3 == 0x075573c327db8
      and rm_val == 0  #nosat'
    : 1 #  rs1_val==dnorm(0x5f93943b61964e33) and rs2_val==dnorm(0x5faae64a7b19f21e) and rs3_val==dnorm(0xff5075573c327db8) | Multiply-Add: Cancellation ---> Subnormal result 
    ? 'fs1 == 0 and fe1 == 0x5f5 and fm1 == 0x3832e6fea9a3f and fs2 == 0 and fe2 ==
      0x5fa and fm2 == 0x5ee10a5a625fc and fs3 == 1 and fe3 == 0x7f0 and fm3 == 0xabe8092d68a4a
      and rm_val == 0  #nosat'
    : 1 #  rs1_val==dnorm(0x5f53832e6fea9a3f) and rs2_val==dnorm(0x5fa5ee10a5a625fc) and rs3_val==dnorm(0xff0abe8092d68a4a) | Multiply-Add: Cancellation ---> Subnormal result 
    ? 'fs1 == 0 and fe1 == 0x5f9 and fm1 == 0x2887dc585eda5 and fs2 == 0 and fe2 ==
      0x5fa and fm2 == 0xf79012fbad378 and fs3 == 1 and fe3 == 0x7f5 and fm3 == 0x23a4ea2d53b5d
      and rm_val == 0  #nosat'
    : 1 #  rs1_val==dnorm(0x5f92887dc585eda5) and rs2_val==dnorm(0x5faf79012fbad378) and rs3_val==dnorm(0xff523a4ea2d53b5d) | Multiply-Add: Cancellation ---> Subnormal result 
    ? 'fs1 == 0 and fe1 == 0x5fa and fm1 == 0x09d5da3d7b9db and fs2 == 0 and fe2 ==
      0x5fa and fm2 == 0xd7c8570796fe8 and fs3 == 1 and fe3 == 0x7f5 and fm3 == 0xe9e87df92d472
      and rm_val == 0  #nosat'
    : 1 #  rs1_val==dnorm(0x5fa09d5da3d7b9db) and rs2_val==dnorm(0x5fad7c8570796fe8) and rs3_val==dnorm(0xff5e9e87df92d472) | Multiply-Add: Cancellation ---> Subnormal result 
    ? 'fs1 == 0 and fe1 == 0x5f7 and fm1 == 0x802693539b05f and fs2 == 0 and fe2 ==
      0x5fa and fm2 == 0x9af59f9eb5168 and fs3 == 1 and fe3 == 0x7f3 and fm3 == 0x34572e32812be
      and rm_val == 0  #nosat'
    : 1 #  rs1_val==dnorm(0x5f7802693539b05f) and rs2_val==dnorm(0x5fa9af59f9eb5168) and rs3_val==dnorm(0xff334572e32812be) | Multiply-Add: Cancellation ---> Subnormal result 
    ? 'fs1 == 0 and fe1 == 0x5f9 and fm1 == 0xac0c7cf6e58fb and fs2 == 0 and fe2 ==
      0x5fa and fm2 == 0x0cd5422534b0d and fs3 == 1 and fe3 == 0x7f4 and fm3 == 0xc181a7cfdfdf5
      and rm_val == 0  #nosat'
    : 1 #  rs1_val==dnorm(0x5f9ac0c7cf6e58fb) and rs2_val==dnorm(0x5fa0cd5422534b0d) and rs3_val==dnorm(0xff4c181a7cfdfdf5) | Multiply-Add: Cancellation ---> Subnormal result 
    ? 'fs1 == 0 and fe1 == 0x5fa and fm1 == 0x05e381015d598 and fs2 == 0 and fe2 ==
      0x5fa and fm2 == 0x2982d565d88fc and fs3 == 1 and fe3 == 0x7f5 and fm3 == 0x305ac88092a15
      and rm_val == 0  #nosat'
    : 1 #  rs1_val==dnorm(0x5fa05e381015d598) and rs2_val==dnorm(0x5fa2982d565d88fc) and rs3_val==dnorm(0xff5305ac88092a15) | Multiply-Add: Cancellation ---> Subnormal result 
    ? 'fs1 == 0 and fe1 == 0x5fa and fm1 == 0xed1da04d72f12 and fs2 == 0 and fe2 ==
      0x5fa and fm2 == 0x7536733396cf8 and fs3 == 1 and fe3 == 0x7f6 and fm3 == 0x6772865c2b9c3
      and rm_val == 0  #nosat'
    : 1 #  rs1_val==dnorm(0x5faed1da04d72f12) and rs2_val==dnorm(0x5fa7536733396cf8) and rs3_val==dnorm(0xff66772865c2b9c3) | Multiply-Add: Cancellation ---> Subnormal result 
    ? 'fs1 == 0 and fe1 == 0x5fa and fm1 == 0x48949a9851f6d and fs2 == 0 and fe2 ==
      0x5f8 and fm2 == 0xb318d9af479ef and fs3 == 1 and fe3 == 0x7f4 and fm3 == 0x173a3403210e1
      and rm_val == 0  #nosat'
    : 1 #  rs1_val==dnorm(0x5fa48949a9851f6d) and rs2_val==dnorm(0x5f8b318d9af479ef) and rs3_val==dnorm(0xff4173a3403210e1) | Multiply-Add: Cancellation ---> Subnormal result 
    ? 'fs1 == 0 and fe1 == 0x5fa and fm1 == 0x0a9df4ead8eb3 and fs2 == 0 and fe2 ==
      0x5f9 and fm2 == 0xdb8c7d3a18027 and fs3 == 1 and fe3 == 0x7f4 and fm3 == 0xef45663d524c8
      and rm_val == 0  #nosat'
    : 1 #  rs1_val==dnorm(0x5fa0a9df4ead8eb3) and rs2_val==dnorm(0x5f9db8c7d3a18027) and rs3_val==dnorm(0xff4ef45663d524c8) | Multiply-Add: Cancellation ---> Subnormal result 
    ? 'fs1 == 0 and fe1 == 0x5f8 and fm1 == 0x743ea0c02659b and fs2 == 0 and fe2 ==
      0x5f8 and fm2 == 0xda2a011aeffab and fs3 == 1 and fe3 == 0x7f2 and fm3 == 0x58bc84c2c83c3
      and rm_val == 0  #nosat'
    : 1 #  rs1_val==dnorm(0x5f8743ea0c02659b) and rs2_val==dnorm(0x5f8da2a011aeffab) and rs3_val==dnorm(0xff258bc84c2c83c3) | Multiply-Add: Cancellation ---> Subnormal result 
    ? 'fs1 == 0 and fe1 == 0x5fa and fm1 == 0x7291f0459edd6 and fs2 == 0 and fe2 ==
      0x5f8 and fm2 == 0xed4ae61a16dab and fs3 == 1 and fe3 == 0x7f4 and fm3 == 0x6507bb7d346b2
      and rm_val == 0  #nosat'
    : 1 #  rs1_val==dnorm(0x5fa7291f0459edd6) and rs2_val==dnorm(0x5f8ed4ae61a16dab) and rs3_val==dnorm(0xff46507bb7d346b2) | Multiply-Add: Cancellation ---> Subnormal result 
    ? 'fs1 == 0 and fe1 == 0x5f6 and fm1 == 0x22cfa989fca0f and fs2 == 0 and fe2 ==
      0x5f9 and fm2 == 0xa2892d94829ad and fs3 == 1 and fe3 == 0x7f0 and fm3 == 0xdb72e7bc3e8f9
      and rm_val == 0  #nosat'
    : 1 #  rs1_val==dnorm(0x5f622cfa989fca0f) and rs2_val==dnorm(0x5f9a2892d94829ad) and rs3_val==dnorm(0xff0db72e7bc3e8f9) | Multiply-Add: Cancellation ---> Subnormal result 
    ? 'fs1 == 0 and fe1 == 0x5f9 and fm1 == 0xb12b5923ada87 and fs2 == 0 and fe2 ==
      0x5fa and fm2 == 0x0d68c4b00b1ad and fs3 == 1 and fe3 == 0x7f4 and fm3 == 0xc7dbd315c4cf6
      and rm_val == 0  #nosat'
    : 1 #  rs1_val==dnorm(0x5f9b12b5923ada87) and rs2_val==dnorm(0x5fa0d68c4b00b1ad) and rs3_val==dnorm(0xff4c7dbd315c4cf6) | Multiply-Add: Cancellation ---> Subnormal result 
    ? 'fs1 == 0 and fe1 == 0x5fa and fm1 == 0x99b4caa7ee21f and fs2 == 0 and fe2 ==
      0x5fa and fm2 == 0x6b435c9707703 and fs3 == 1 and fe3 == 0x7f6 and fm3 == 0x22af94edeb7e7
      and rm_val == 0  #nosat'
    : 1 #  rs1_val==dnorm(0x5fa99b4caa7ee21f) and rs2_val==dnorm(0x5fa6b435c9707703) and rs3_val==dnorm(0xff622af94edeb7e7) | Multiply-Add: Cancellation ---> Subnormal result 
    ? 'fs1 == 0 and fe1 == 0x5f9 and fm1 == 0x00ccac0a4b811 and fs2 == 0 and fe2 ==
      0x5fa and fm2 == 0x2eb6a94e9ae19 and fs3 == 1 and fe3 == 0x7f4 and fm3 == 0x2fa8ae4c6bb09
      and rm_val == 0  #nosat'
    : 1 #  rs1_val==dnorm(0x5f900ccac0a4b811) and rs2_val==dnorm(0x5fa2eb6a94e9ae19) and rs3_val==dnorm(0xff42fa8ae4c6bb09) | Multiply-Add: Cancellation ---> Subnormal result 
    ? 'fs1 == 0 and fe1 == 0x5fa and fm1 == 0xfd32694fcaecb and fs2 == 0 and fe2 ==
      0x5f8 and fm2 == 0xdc1b3eb6c004b and fs3 == 1 and fe3 == 0x7f4 and fm3 == 0xd97ff66f9700f
      and rm_val == 0  #nosat'
    : 1 #  rs1_val==dnorm(0x5fafd32694fcaecb) and rs2_val==dnorm(0x5f8dc1b3eb6c004b) and rs3_val==dnorm(0xff4d97ff66f9700f) | Multiply-Add: Cancellation ---> Subnormal result 
    ? 'fs1 == 0 and fe1 == 0x5fa and fm1 == 0x043a8c3aa6439 and fs2 == 0 and fe2 ==
      0x5fa and fm2 == 0xf788de2d51675 and fs3 == 1 and fe3 == 0x7f5 and fm3 == 0xffda2a7a927c2
      and rm_val == 0  #nosat'
    : 1 #  rs1_val==dnorm(0x5fa043a8c3aa6439) and rs2_val==dnorm(0x5faf788de2d51675) and rs3_val==dnorm(0xff5ffda2a7a927c2) | Multiply-Add: Cancellation ---> Subnormal result 
    ? 'fs1 == 0 and fe1 == 0x5f8 and fm1 == 0x4a10e22bb3b33 and fs2 == 0 and fe2 ==
      0x5f7 and fm2 == 0x88b104e822b8f and fs3 == 1 and fe3 == 0x7f0 and fm3 == 0xfa4e1652dafbf
      and rm_val == 0  #nosat'
    : 1 #  rs1_val==dnorm(0x5f84a10e22bb3b33) and rs2_val==dnorm(0x5f788b104e822b8f) and rs3_val==dnorm(0xff0fa4e1652dafbf) | Multiply-Add: Cancellation ---> Subnormal result 
    ? 'fs1 == 0 and fe1 == 0x5f8 and fm1 == 0x1fe2d6aba9e77 and fs2 == 0 and fe2 ==
      0x5f6 and fm2 == 0xd126610309c1f and fs3 == 1 and fe3 == 0x7f0 and fm3 == 0x058b18590588a
      and rm_val == 0  #nosat'
    : 1 #  rs1_val==dnorm(0x5f81fe2d6aba9e77) and rs2_val==dnorm(0x5f6d126610309c1f) and rs3_val==dnorm(0xff0058b18590588a) | Multiply-Add: Cancellation ---> Subnormal result 
    ? 'fs1 == 0 and fe1 == 0x5f9 and fm1 == 0xadd465d39fd03 and fs2 == 0 and fe2 ==
      0x5f5 and fm2 == 0x2774cd9885b7f and fs3 == 1 and fe3 == 0x7ef and fm3 == 0xf013dec82d387
      and rm_val == 0  #nosat'
    : 1 #  rs1_val==dnorm(0x5f9add465d39fd03) and rs2_val==dnorm(0x5f52774cd9885b7f) and rs3_val==dnorm(0xfeff013dec82d387) | Multiply-Add: Cancellation ---> Subnormal result 
    ? 'fs1 == 0 and fe1 == 0x5fa and fm1 == 0xeb61e2d5d3c7a and fs2 == 0 and fe2 ==
      0x5f9 and fm2 == 0x095092a183e33 and fs3 == 1 and fe3 == 0x7f4 and fm3 == 0xfd42fbda1420a
      and rm_val == 0  #nosat'
    : 1 #  rs1_val==dnorm(0x5faeb61e2d5d3c7a) and rs2_val==dnorm(0x5f9095092a183e33) and rs3_val==dnorm(0xff4fd42fbda1420a) | Multiply-Add: Cancellation ---> Subnormal result 
    ? 'fs1 == 0 and fe1 == 0x5f9 and fm1 == 0x9262273e53737 and fs2 == 0 and fe2 ==
      0x5fa and fm2 == 0x07943814fd4f4 and fs3 == 1 and fe3 == 0x7f4 and fm3 == 0x9e4bcf362e2c2
      and rm_val == 0  #nosat'
    : 1 #  rs1_val==dnorm(0x5f99262273e53737) and rs2_val==dnorm(0x5fa07943814fd4f4) and rs3_val==dnorm(0xff49e4bcf362e2c2) | Multiply-Add: Cancellation ---> Subnormal result 
    ? 'fs1 == 0 and fe1 == 0x5fa and fm1 == 0xbfe0f0fcad936 and fs2 == 0 and fe2 ==
      0x5f8 and fm2 == 0x0531d684ae65b and fs3 == 1 and fe3 == 0x7f3 and fm3 == 0xc8f7870de7e0c
      and rm_val == 0  #nosat'
    : 1 #  rs1_val==dnorm(0x5fabfe0f0fcad936) and rs2_val==dnorm(0x5f80531d684ae65b) and rs3_val==dnorm(0xff3c8f7870de7e0c) | Multiply-Add: Cancellation ---> Subnormal result 
    ? 'fs1 == 0 and fe1 == 0x5f9 and fm1 == 0x43e5b36b50bcd and fs2 == 0 and fe2 ==
      0x5f7 and fm2 == 0xa1fe3e0c64717 and fs3 == 1 and fe3 == 0x7f2 and fm3 == 0x086d6ad59125b
      and rm_val == 0  #nosat'
    : 1 #  rs1_val==dnorm(0x5f943e5b36b50bcd) and rs2_val==dnorm(0x5f7a1fe3e0c64717) and rs3_val==dnorm(0xff2086d6ad59125b) | Multiply-Add: Cancellation ---> Subnormal result 
    ? 'fs1 == 0 and fe1 == 0x5f9 and fm1 == 0xe4204ffab96f7 and fs2 == 0 and fe2 ==
      0x5f8 and fm2 == 0xcde16617ec93f and fs3 == 1 and fe3 == 0x7f3 and fm3 == 0xb4bc38bf74baa
      and rm_val == 0  #nosat'
    : 1 #  rs1_val==dnorm(0x5f9e4204ffab96f7) and rs2_val==dnorm(0x5f8cde16617ec93f) and rs3_val==dnorm(0xff3b4bc38bf74baa) | Multiply-Add: Cancellation ---> Subnormal result 
    ? 'fs1 == 0 and fe1 == 0x5fa and fm1 == 0x82e62659b7f9b and fs2 == 0 and fe2 ==
      0x5fa and fm2 == 0xb9927e27c836d and fs3 == 1 and fe3 == 0x7f6 and fm3 == 0x4dadeefde9cf6
      and rm_val == 0  #nosat'
    : 1 #  rs1_val==dnorm(0x5fa82e62659b7f9b) and rs2_val==dnorm(0x5fab9927e27c836d) and rs3_val==dnorm(0xff64dadeefde9cf6) | Multiply-Add: Cancellation ---> Subnormal result 
    ? 'fs1 == 0 and fe1 == 0x5fa and fm1 == 0x882d3626badfd and fs2 == 0 and fe2 ==
      0x5fa and fm2 == 0x7ada4a02edef8 and fs3 == 1 and fe3 == 0x7f6 and fm3 == 0x223094eb6db60
      and rm_val == 0  #nosat'
    : 1 #  rs1_val==dnorm(0x5fa882d3626badfd) and rs2_val==dnorm(0x5fa7ada4a02edef8) and rs3_val==dnorm(0xff6223094eb6db60) | Multiply-Add: Cancellation ---> Subnormal result 
    ? 'fs1 == 0 and fe1 == 0x5f9 and fm1 == 0x594e913e8fb89 and fs2 == 0 and fe2 ==
      0x5f5 and fm2 == 0xf8ce1a7792dff and fs3 == 1 and fe3 == 0x7f0 and fm3 == 0x5474576fa7d6e
      and rm_val == 0  #nosat'
    : 1 #  rs1_val==dnorm(0x5f9594e913e8fb89) and rs2_val==dnorm(0x5f5f8ce1a7792dff) and rs3_val==dnorm(0xff05474576fa7d6e) | Multiply-Add: Cancellation ---> Subnormal result 
    ? 'fs1 == 0 and fe1 == 0x5fa and fm1 == 0x3b00ab682d289 and fs2 == 0 and fe2 ==
      0x5fa and fm2 == 0x7c23aaefd9f67 and fs3 == 1 and fe3 == 0x7f5 and fm3 == 0xd3c0e1dba5ec6
      and rm_val == 0  #nosat'
    : 1 #  rs1_val==dnorm(0x5fa3b00ab682d289) and rs2_val==dnorm(0x5fa7c23aaefd9f67) and rs3_val==dnorm(0xff5d3c0e1dba5ec6) | Multiply-Add: Cancellation ---> Subnormal result 
    ? 'fs1 == 0 and fe1 == 0x5f8 and fm1 == 0x361bbef8877ab and fs2 == 0 and fe2 ==
      0x5f6 and fm2 == 0x291d98044bfbf and fs3 == 1 and fe3 == 0x7ef and fm3 == 0x67ea09d8a5329
      and rm_val == 0  #nosat'
    : 1 #  rs1_val==dnorm(0x5f8361bbef8877ab) and rs2_val==dnorm(0x5f6291d98044bfbf) and rs3_val==dnorm(0xfef67ea09d8a5329) | Multiply-Add: Cancellation ---> Subnormal result 
    ? 'fs1 == 0 and fe1 == 0x5f9 and fm1 == 0x8ad1c84b735e1 and fs2 == 0 and fe2 ==
      0x5f6 and fm2 == 0x61932b2d37baf and fs3 == 1 and fe3 == 0x7f1 and fm3 == 0x10a71f1e83702
      and rm_val == 0  #nosat'
    : 1 #  rs1_val==dnorm(0x5f98ad1c84b735e1) and rs2_val==dnorm(0x5f661932b2d37baf) and rs3_val==dnorm(0xff110a71f1e83702) | Multiply-Add: Cancellation ---> Subnormal result 
    ? 'fs1 == 0 and fe1 == 0x5f8 and fm1 == 0x41c73bbc1b00b and fs2 == 0 and fe2 ==
      0x5f8 and fm2 == 0x784c0d85e9517 and fs3 == 1 and fe3 == 0x7f1 and fm3 == 0xd8fc37e173505
      and rm_val == 0  #nosat'
    : 1 #  rs1_val==dnorm(0x5f841c73bbc1b00b) and rs2_val==dnorm(0x5f8784c0d85e9517) and rs3_val==dnorm(0xff1d8fc37e173505) | Multiply-Add: Cancellation ---> Subnormal result 
    ? 'fs1 == 0 and fe1 == 0x5f5 and fm1 == 0x5a7002fc1a6bf and fs2 == 0 and fe2 ==
      0x5f9 and fm2 == 0x05d39d105b541 and fs3 == 1 and fe3 == 0x7ef and fm3 == 0x625291ea51263
      and rm_val == 0  #nosat'
    : 1 #  rs1_val==dnorm(0x5f55a7002fc1a6bf) and rs2_val==dnorm(0x5f905d39d105b541) and rs3_val==dnorm(0xfef625291ea51263) | Multiply-Add: Cancellation ---> Subnormal result 
    ? 'fs1 == 0 and fe1 == 0x5fa and fm1 == 0xe8bc5f44515f5 and fs2 == 0 and fe2 ==
      0x5f5 and fm2 == 0x9f3f7053b60bf and fs3 == 1 and fe3 == 0x7f1 and fm3 == 0x8c613d9eb6038
      and rm_val == 0  #nosat'
    : 1 #  rs1_val==dnorm(0x5fae8bc5f44515f5) and rs2_val==dnorm(0x5f59f3f7053b60bf) and rs3_val==dnorm(0xff18c613d9eb6038) | Multiply-Add: Cancellation ---> Subnormal result 
    ? 'fs1 == 0 and fe1 == 0x5f8 and fm1 == 0x6003243fdf57b and fs2 == 0 and fe2 ==
      0x5fa and fm2 == 0x5874b6418015b and fs3 == 1 and fe3 == 0x7f3 and fm3 == 0xd9a4b4be8dc01
      and rm_val == 0  #nosat'
    : 1 #  rs1_val==dnorm(0x5f86003243fdf57b) and rs2_val==dnorm(0x5fa5874b6418015b) and rs3_val==dnorm(0xff3d9a4b4be8dc01) | Multiply-Add: Cancellation ---> Subnormal result 
    ? 'fs1 == 0 and fe1 == 0x5fa and fm1 == 0x6f1586709a287 and fs2 == 0 and fe2 ==
      0x5f6 and fm2 == 0x051aac3a28d5f and fs3 == 1 and fe3 == 0x7f1 and fm3 == 0x76673136505d2
      and rm_val == 0  #nosat'
    : 1 #  rs1_val==dnorm(0x5fa6f1586709a287) and rs2_val==dnorm(0x5f6051aac3a28d5f) and rs3_val==dnorm(0xff176673136505d2) | Multiply-Add: Cancellation ---> Subnormal result 
    ? 'fs1 == 0 and fe1 == 0x5f8 and fm1 == 0xaf0f94f18e857 and fs2 == 0 and fe2 ==
      0x5fa and fm2 == 0xc2db9cc3dd583 and fs3 == 1 and fe3 == 0x7f4 and fm3 == 0x7b95970e29c11
      and rm_val == 0  #nosat'
    : 1 #  rs1_val==dnorm(0x5f8af0f94f18e857) and rs2_val==dnorm(0x5fac2db9cc3dd583) and rs3_val==dnorm(0xff47b95970e29c11) | Multiply-Add: Cancellation ---> Subnormal result 
    ? 'fs1 == 0 and fe1 == 0x5fa and fm1 == 0x0b731e88bc69f and fs2 == 0 and fe2 ==
      0x5fa and fm2 == 0xb5380491038ac and fs3 == 1 and fe3 == 0x7f5 and fm3 == 0xc8c6091363ebd
      and rm_val == 0  #nosat'
    : 1 #  rs1_val==dnorm(0x5fa0b731e88bc69f) and rs2_val==dnorm(0x5fab5380491038ac) and rs3_val==dnorm(0xff5c8c6091363ebd) | Multiply-Add: Cancellation ---> Subnormal result 
    ? 'fs1 == 0 and fe1 == 0x5f8 and fm1 == 0xd01c53aeb6daf and fs2 == 0 and fe2 ==
      0x5fa and fm2 == 0xc04060fa9d235 and fs3 == 1 and fe3 == 0x7f4 and fm3 == 0x965324abd1ccc
      and rm_val == 0  #nosat'
    : 1 #  rs1_val==dnorm(0x5f8d01c53aeb6daf) and rs2_val==dnorm(0x5fac04060fa9d235) and rs3_val==dnorm(0xff4965324abd1ccc) | Multiply-Add: Cancellation ---> Subnormal result 
    ? 'fs1 == 0 and fe1 == 0x5f6 and fm1 == 0xe15a564c336ef and fs2 == 0 and fe2 ==
      0x5fa and fm2 == 0x4e4a35c32157e and fs3 == 1 and fe3 == 0x7f2 and fm3 == 0x3a47b2e57bc08
      and rm_val == 0  #nosat'
    : 1 #  rs1_val==dnorm(0x5f6e15a564c336ef) and rs2_val==dnorm(0x5fa4e4a35c32157e) and rs3_val==dnorm(0xff23a47b2e57bc08) | Multiply-Add: Cancellation ---> Subnormal result 
    ? 'fs1 == 0 and fe1 == 0x5fa and fm1 == 0xd0b7f9b429ef3 and fs2 == 0 and fe2 ==
      0x5f8 and fm2 == 0x87fe27ff3fe2f and fs3 == 1 and fe3 == 0x7f4 and fm3 == 0x63cb2ec3a789b
      and rm_val == 0  #nosat'
    : 1 #  rs1_val==dnorm(0x5fad0b7f9b429ef3) and rs2_val==dnorm(0x5f887fe27ff3fe2f) and rs3_val==dnorm(0xff463cb2ec3a789b) | Multiply-Add: Cancellation ---> Subnormal result 
    ? 'fs1 == 0 and fe1 == 0x5f7 and fm1 == 0x34bccd918d207 and fs2 == 0 and fe2 ==
      0x5fa and fm2 == 0xa40b77d5da767 and fs3 == 1 and fe3 == 0x7f2 and fm3 == 0xfa9395e54ce7a
      and rm_val == 0  #nosat'
    : 1 #  rs1_val==dnorm(0x5f734bccd918d207) and rs2_val==dnorm(0x5faa40b77d5da767) and rs3_val==dnorm(0xff2fa9395e54ce7a) | Multiply-Add: Cancellation ---> Subnormal result 
    ? 'fs1 == 0 and fe1 == 0x5fa and fm1 == 0x0616a9d776586 and fs2 == 0 and fe2 ==
      0x5fa and fm2 == 0xde497aebca743 and fs3 == 1 and fe3 == 0x7f5 and fm3 == 0xe9a98b6ef06d3
      and rm_val == 0  #nosat'
    : 1 #  rs1_val==dnorm(0x5fa0616a9d776586) and rs2_val==dnorm(0x5fade497aebca743) and rs3_val==dnorm(0xff5e9a98b6ef06d3) | Multiply-Add: Cancellation ---> Subnormal result 
    ? 'fs1 == 0 and fe1 == 0x5fa and fm1 == 0x2d0716da06e3c and fs2 == 0 and fe2 ==
      0x5f9 and fm2 == 0x3f541e5d8f1c1 and fs3 == 1 and fe3 == 0x7f4 and fm3 == 0x777ebf8206a8e
      and rm_val == 0  #nosat'
    : 1 #  rs1_val==dnorm(0x5fa2d0716da06e3c) and rs2_val==dnorm(0x5f93f541e5d8f1c1) and rs3_val==dnorm(0xff4777ebf8206a8e) | Multiply-Add: Cancellation ---> Subnormal result 
    ? 'fs1 == 0 and fe1 == 0x5fa and fm1 == 0x022ce6a3fae64 and fs2 == 0 and fe2 ==
      0x5fa and fm2 == 0x09163be078882 and fs3 == 1 and fe3 == 0x7f5 and fm3 == 0x0b56e6fe4acfd
      and rm_val == 0  #nosat'
    : 1 #  rs1_val==dnorm(0x5fa022ce6a3fae64) and rs2_val==dnorm(0x5fa09163be078882) and rs3_val==dnorm(0xff50b56e6fe4acfd) | Multiply-Add: Cancellation ---> Subnormal result 
    ? 'fs1 == 0 and fe1 == 0x5f9 and fm1 == 0x3cfe1da6d26d5 and fs2 == 0 and fe2 ==
      0x5fa and fm2 == 0xea2b5073270ea and fs3 == 1 and fe3 == 0x7f5 and fm3 == 0x2f7a038724c97
      and rm_val == 0  #nosat'
    : 1 #  rs1_val==dnorm(0x5f93cfe1da6d26d5) and rs2_val==dnorm(0x5faea2b5073270ea) and rs3_val==dnorm(0xff52f7a038724c97) | Multiply-Add: Cancellation ---> Subnormal result 
    ? 'fs1 == 0 and fe1 == 0x5fa and fm1 == 0xd0dd93a77236c and fs2 == 0 and fe2 ==
      0x5f9 and fm2 == 0x1292a3e2f1241 and fs3 == 1 and fe3 == 0x7f4 and fm3 == 0xf29770009c3fd
      and rm_val == 0  #nosat'
    : 1 #  rs1_val==dnorm(0x5fad0dd93a77236c) and rs2_val==dnorm(0x5f91292a3e2f1241) and rs3_val==dnorm(0xff4f29770009c3fd) | Multiply-Add: Cancellation ---> Subnormal result 
    ? 'fs1 == 0 and fe1 == 0x5f9 and fm1 == 0x4c7591e8478db and fs2 == 0 and fe2 ==
      0x5fa and fm2 == 0x662e40f571128 and fs3 == 1 and fe3 == 0x7f4 and fm3 == 0xd1287b872fa3a
      and rm_val == 0  #nosat'
    : 1 #  rs1_val==dnorm(0x5f94c7591e8478db) and rs2_val==dnorm(0x5fa662e40f571128) and rs3_val==dnorm(0xff4d1287b872fa3a) | Multiply-Add: Cancellation ---> Subnormal result 
    ? 'fs1 == 0 and fe1 == 0x5fa and fm1 == 0x72925e5d38221 and fs2 == 0 and fe2 ==
      0x5f9 and fm2 == 0xf2498354565a7 and fs3 == 1 and fe3 == 0x7f5 and fm3 == 0x68a592b49d8c0
      and rm_val == 0  #nosat'
    : 1 #  rs1_val==dnorm(0x5fa72925e5d38221) and rs2_val==dnorm(0x5f9f2498354565a7) and rs3_val==dnorm(0xff568a592b49d8c0) | Multiply-Add: Cancellation ---> Subnormal result 
    ? 'fs1 == 0 and fe1 == 0x5f9 and fm1 == 0xd81392ace6303 and fs2 == 0 and fe2 ==
      0x5fa and fm2 == 0x22aa3d2e74e72 and fs3 == 1 and fe3 == 0x7f5 and fm3 == 0x0c000cfccc4f1
      and rm_val == 0  #nosat'
    : 1 #  rs1_val==dnorm(0x5f9d81392ace6303) and rs2_val==dnorm(0x5fa22aa3d2e74e72) and rs3_val==dnorm(0xff50c000cfccc4f1) | Multiply-Add: Cancellation ---> Subnormal result 
    ? 'fs1 == 0 and fe1 == 0x5f9 and fm1 == 0x6a6b1b54b21cf and fs2 == 0 and fe2 ==
      0x5fa and fm2 == 0xc405091d199ee and fs3 == 1 and fe3 == 0x7f5 and fm3 == 0x3ff61ea004c00
      and rm_val == 0  #nosat'
    : 1 #  rs1_val==dnorm(0x5f96a6b1b54b21cf) and rs2_val==dnorm(0x5fac405091d199ee) and rs3_val==dnorm(0xff53ff61ea004c00) | Multiply-Add: Cancellation ---> Subnormal result 
    ? 'fs1 == 0 and fe1 == 0x5fa and fm1 == 0xd98396dfe04dc and fs2 == 0 and fe2 ==
      0x5fa and fm2 == 0x006e3d60fc2f8 and fs3 == 1 and fe3 == 0x7f5 and fm3 == 0xda4f7ef273417
      and rm_val == 0  #nosat'
    : 1 #  rs1_val==dnorm(0x5fad98396dfe04dc) and rs2_val==dnorm(0x5fa006e3d60fc2f8) and rs3_val==dnorm(0xff5da4f7ef273417) | Multiply-Add: Cancellation ---> Subnormal result 
    ? 'fs1 == 0 and fe1 == 0x5f9 and fm1 == 0xd87aff53d41f5 and fs2 == 0 and fe2 ==
      0x5fa and fm2 == 0x0f8ac8cffe63e and fs3 == 1 and fe3 == 0x7f4 and fm3 == 0xf52a5937592dd
      and rm_val == 0  #nosat'
    : 1 #  rs1_val==dnorm(0x5f9d87aff53d41f5) and rs2_val==dnorm(0x5fa0f8ac8cffe63e) and rs3_val==dnorm(0xff4f52a5937592dd) | Multiply-Add: Cancellation ---> Subnormal result 
    ? 'fs1 == 0 and fe1 == 0x5f8 and fm1 == 0x4a1b2df4767ef and fs2 == 0 and fe2 ==
      0x5fa and fm2 == 0x820cd259975cf and fs3 == 1 and fe3 == 0x7f3 and fm3 == 0xf1cd83ce94745
      and rm_val == 0  #nosat'
    : 1 #  rs1_val==dnorm(0x5f84a1b2df4767ef) and rs2_val==dnorm(0x5fa820cd259975cf) and rs3_val==dnorm(0xff3f1cd83ce94745) | Multiply-Add: Cancellation ---> Subnormal result 
    ? 'fs1 == 0 and fe1 == 0x5f9 and fm1 == 0x6a47222e524ad and fs2 == 0 and fe2 ==
      0x5fa and fm2 == 0xf6428fb6f94fe and fs3 == 1 and fe3 == 0x7f5 and fm3 == 0x6362d75f28653
      and rm_val == 0  #nosat'
    : 1 #  rs1_val==dnorm(0x5f96a47222e524ad) and rs2_val==dnorm(0x5faf6428fb6f94fe) and rs3_val==dnorm(0xff56362d75f28653) | Multiply-Add: Cancellation ---> Subnormal result 
    ? 'fs1 == 0 and fe1 == 0x5fa and fm1 == 0xd02d0afa24812 and fs2 == 0 and fe2 ==
      0x5fa and fm2 == 0x8698ed174ff65 and fs3 == 1 and fe3 == 0x7f6 and fm3 == 0x621cf3adc82a4
      and rm_val == 0  #nosat'
    : 1 #  rs1_val==dnorm(0x5fad02d0afa24812) and rs2_val==dnorm(0x5fa8698ed174ff65) and rs3_val==dnorm(0xff6621cf3adc82a4) | Multiply-Add: Cancellation ---> Subnormal result 
    ? 'fs1 == 0 and fe1 == 0x5fa and fm1 == 0xc982355c85538 and fs2 == 0 and fe2 ==
      0x5fa and fm2 == 0x97f0ea9a89f82 and fs3 == 1 and fe3 == 0x7f6 and fm3 == 0x6c864816a930c
      and rm_val == 0  #nosat'
    : 1 #  rs1_val==dnorm(0x5fac982355c85538) and rs2_val==dnorm(0x5fa97f0ea9a89f82) and rs3_val==dnorm(0xff66c864816a930c) | Multiply-Add: Cancellation ---> Subnormal result 
    ? 'fs1 == 0 and fe1 == 0x5fa and fm1 == 0xff5373e0e112c and fs2 == 0 and fe2 ==
      0x5fa and fm2 == 0x59556723d53e2 and fs3 == 1 and fe3 == 0x7f6 and fm3 == 0x58e105f0d778f
      and rm_val == 0  #nosat'
    : 1 #  rs1_val==dnorm(0x5faff5373e0e112c) and rs2_val==dnorm(0x5fa59556723d53e2) and rs3_val==dnorm(0xff658e105f0d778f) | Multiply-Add: Cancellation ---> Subnormal result 
    ? 'fs1 == 0 and fe1 == 0x5f9 and fm1 == 0x4cf244963827f and fs2 == 0 and fe2 ==
      0x5f8 and fm2 == 0x17f4cd829a48b and fs3 == 1 and fe3 == 0x7f2 and fm3 == 0x6c1a6af0f2fc7
      and rm_val == 0  #nosat'
    : 1 #  rs1_val==dnorm(0x5f94cf244963827f) and rs2_val==dnorm(0x5f817f4cd829a48b) and rs3_val==dnorm(0xff26c1a6af0f2fc7) | Multiply-Add: Cancellation ---> Subnormal result 
    ? 'fs1 == 0 and fe1 == 0x5fa and fm1 == 0x1efb36cb5b1e4 and fs2 == 0 and fe2 ==
      0x5f8 and fm2 == 0xe394ab3b08c6b and fs3 == 1 and fe3 == 0x7f4 and fm3 == 0x0f0d50c8aae86
      and rm_val == 0  #nosat'
    : 1 #  rs1_val==dnorm(0x5fa1efb36cb5b1e4) and rs2_val==dnorm(0x5f8e394ab3b08c6b) and rs3_val==dnorm(0xff40f0d50c8aae86) | Multiply-Add: Cancellation ---> Subnormal result 
    ? 'fs1 == 0 and fe1 == 0x5f9 and fm1 == 0x8522a1b638e23 and fs2 == 0 and fe2 ==
      0x5fa and fm2 == 0xc898a0b894837 and fs3 == 1 and fe3 == 0x7f5 and fm3 == 0x5b06d875689d5
      and rm_val == 0  #nosat'
    : 1 #  rs1_val==dnorm(0x5f98522a1b638e23) and rs2_val==dnorm(0x5fac898a0b894837) and rs3_val==dnorm(0xff55b06d875689d5) | Multiply-Add: Cancellation ---> Subnormal result 
    ? 'fs1 == 0 and fe1 == 0x5f5 and fm1 == 0xc1a812e98063f and fs2 == 0 and fe2 ==
      0x5f9 and fm2 == 0xdc0d22f746bf5 and fs3 == 1 and fe3 == 0x7f0 and fm3 == 0xa215cb0ee4435
      and rm_val == 0  #nosat'
    : 1 #  rs1_val==dnorm(0x5f5c1a812e98063f) and rs2_val==dnorm(0x5f9dc0d22f746bf5) and rs3_val==dnorm(0xff0a215cb0ee4435) | Multiply-Add: Cancellation ---> Subnormal result 
    ? 'fs1 == 0 and fe1 == 0x5f9 and fm1 == 0xc787db4043bd9 and fs2 == 0 and fe2 ==
      0x5f9 and fm2 == 0x12adb3735ac6d and fs3 == 1 and fe3 == 0x7f3 and fm3 == 0xe8c47ecb34cba
      and rm_val == 0  #nosat'
    : 1 #  rs1_val==dnorm(0x5f9c787db4043bd9) and rs2_val==dnorm(0x5f912adb3735ac6d) and rs3_val==dnorm(0xff3e8c47ecb34cba) | Multiply-Add: Cancellation ---> Subnormal result 
    ? 'fs1 == 0 and fe1 == 0x5fa and fm1 == 0xfd58fd60948f9 and fs2 == 0 and fe2 ==
      0x5fa and fm2 == 0xe61729d7cfd5e and fs3 == 1 and fe3 == 0x7f6 and fm3 == 0xe39283a260c5d
      and rm_val == 0  #nosat'
    : 1 #  rs1_val==dnorm(0x5fafd58fd60948f9) and rs2_val==dnorm(0x5fae61729d7cfd5e) and rs3_val==dnorm(0xff6e39283a260c5d) | Multiply-Add: Cancellation ---> Subnormal result 
    ? 'fs1 == 0 and fe1 == 0x5f9 and fm1 == 0xb9017651b96db and fs2 == 0 and fe2 ==
      0x5f9 and fm2 == 0x92fa0166dea3d and fs3 == 1 and fe3 == 0x7f4 and fm3 == 0x5b197cd20c492
      and rm_val == 0  #nosat'
    : 1 #  rs1_val==dnorm(0x5f9b9017651b96db) and rs2_val==dnorm(0x5f992fa0166dea3d) and rs3_val==dnorm(0xff45b197cd20c492) | Multiply-Add: Cancellation ---> Subnormal result 
    ? 'fs1 == 0 and fe1 == 0x5fa and fm1 == 0x36aeb78249790 and fs2 == 0 and fe2 ==
      0x5fa and fm2 == 0x299392ab99898 and fs3 == 1 and fe3 == 0x7f5 and fm3 == 0x6923cb396cbfc
      and rm_val == 0  #nosat'
    : 1 #  rs1_val==dnorm(0x5fa36aeb78249790) and rs2_val==dnorm(0x5fa299392ab99898) and rs3_val==dnorm(0xff56923cb396cbfc) | Multiply-Add: Cancellation ---> Subnormal result 
    ? 'fs1 == 0 and fe1 == 0x5fa and fm1 == 0x56e6e736a538e and fs2 == 0 and fe2 ==
      0x5f9 and fm2 == 0x3b881fa033e19 and fs3 == 1 and fe3 == 0x7f4 and fm3 == 0xa6a473879e230
      and rm_val == 0  #nosat'
    : 1 #  rs1_val==dnorm(0x5fa56e6e736a538e) and rs2_val==dnorm(0x5f93b881fa033e19) and rs3_val==dnorm(0xff4a6a473879e230) | Multiply-Add: Cancellation ---> Subnormal result 
    ? 'fs1 == 0 and fe1 == 0x5f7 and fm1 == 0x5ba2bcb8dc85f and fs2 == 0 and fe2 ==
      0x5fa and fm2 == 0xabc6824ad2440 and fs3 == 1 and fe3 == 0x7f3 and fm3 == 0x227300ca469b2
      and rm_val == 0  #nosat'
    : 1 #  rs1_val==dnorm(0x5f75ba2bcb8dc85f) and rs2_val==dnorm(0x5faabc6824ad2440) and rs3_val==dnorm(0xff3227300ca469b2) | Multiply-Add: Cancellation ---> Subnormal result 
    coverage: 200/200
  total_coverage: 341/341
