---
fsqrt.d_b3:
  config:
  - check ISA:=regex(.*I.*Zfinx.*Zdinx.*)
  mnemonics:
    fsqrt.d: 15
    coverage: 1/1
  op_comb:
    rs1 != rd: 14
    rs1 == rd: 1
    coverage: 2/2
  rd:
    x10: 1
    x12: 1
    x14: 1
    x16: 1
    x18: 1
    x2: 1
    x20: 1
    x22: 1
    x24: 1
    x26: 1
    x28: 1
    x30: 1
    x4: 1
    x6: 1
    x8: 1
    coverage: 15/15
  rs1:
    x10: 1
    x12: 1
    x14: 1
    x16: 1
    x18: 1
    x2: 1
    x20: 1
    x22: 1
    x24: 1
    x26: 1
    x28: 1
    x30: 1
    x4: 1
    x6: 1
    x8: 1
    coverage: 15/15
  val_comb:
    'fs1 == 0 and fe1 == 0x000 and fm1 == 0x0000000000000 and  fcsr == 0x0 and rm_val == 7   #nosat': 11
    'fs1 == 0 and fe1 == 0x000 and fm1 == 0x0000000000000 and  fcsr == 0x20 and rm_val == 7   #nosat': 1
    'fs1 == 0 and fe1 == 0x000 and fm1 == 0x0000000000000 and  fcsr == 0x40 and rm_val == 7   #nosat': 1
    'fs1 == 0 and fe1 == 0x000 and fm1 == 0x0000000000000 and  fcsr == 0x60 and rm_val == 7   #nosat': 1
    'fs1 == 0 and fe1 == 0x000 and fm1 == 0x0000000000000 and  fcsr == 0x80 and rm_val == 7   #nosat': 1
    coverage: 5/5
  total_coverage: 38/38
