---
fmadd_b4:
  config:
  - check ISA:=regex(.*I.*F.*Zfh.*)
  mnemonics:
    fmadd.h: 148
    coverage: 1/1
  op_comb:
    rd == rs2 == rs3 != rs1: 1
    rs1 != rs2 and rs1 != rd and rs1 != rs3 and rs2 != rs3 and rs2 != rd and rs3 != rd: 137
    rs1 == rd != rs2 and rs1 == rd != rs3 and rs3 != rs2: 1
    rs1 == rd == rs3 != rs2: 1
    rs1 == rs2 != rs3 and rs1 == rs2 != rd and rd != rs3: 1
    rs1 == rs2 == rd != rs3: 1
    rs1 == rs2 == rs3 != rd: 1
    rs1 == rs2 == rs3 == rd: 1
    rs1 == rs3 != rs2 and rs1 == rs3 != rd and rd != rs2: 1
    rs2 == rd != rs1 and rs2 == rd != rs3 and rs3 != rs1: 1
    rs2 == rs3 != rs1 and rs2 == rs3 != rd and rd != rs1: 1
    rs3 == rd != rs1 and rs3 == rd != rs2 and rs2 != rs1: 1
    coverage: 12/12
  rd:
    f0: 1
    f1: 1
    f10: 1
    f11: 1
    f12: 1
    f13: 1
    f14: 1
    f15: 1
    f16: 1
    f17: 1
    f18: 1
    f19: 1
    f2: 1
    f20: 1
    f21: 1
    f22: 1
    f23: 1
    f24: 1
    f25: 1
    f26: 1
    f27: 1
    f28: 1
    f29: 1
    f3: 1
    f30: 1
    f31: 117
    f4: 1
    f5: 1
    f6: 1
    f7: 1
    f8: 1
    f9: 1
    coverage: 32/32
  rs1:
    f0: 1
    f1: 1
    f10: 1
    f11: 1
    f12: 1
    f13: 1
    f14: 1
    f15: 1
    f16: 1
    f17: 1
    f18: 1
    f19: 1
    f2: 1
    f20: 1
    f21: 1
    f22: 1
    f23: 1
    f24: 1
    f25: 1
    f26: 1
    f27: 1
    f28: 1
    f29: 1
    f3: 1
    f30: 114
    f31: 4
    f4: 1
    f5: 1
    f6: 1
    f7: 1
    f8: 1
    f9: 1
    coverage: 32/32
  rs2:
    f0: 1
    f1: 1
    f10: 1
    f11: 1
    f12: 1
    f13: 1
    f14: 1
    f15: 1
    f16: 1
    f17: 1
    f18: 1
    f19: 1
    f2: 1
    f20: 1
    f21: 1
    f22: 1
    f23: 1
    f24: 1
    f25: 1
    f26: 1
    f27: 1
    f28: 1
    f29: 111
    f3: 1
    f30: 7
    f31: 1
    f4: 1
    f5: 1
    f6: 1
    f7: 1
    f8: 1
    f9: 1
    coverage: 32/32
  rs3:
    f0: 1
    f1: 1
    f10: 1
    f11: 1
    f12: 1
    f13: 1
    f14: 1
    f15: 1
    f16: 1
    f17: 1
    f18: 1
    f19: 1
    f2: 1
    f20: 1
    f21: 1
    f22: 1
    f23: 1
    f24: 1
    f25: 1
    f26: 1
    f27: 1
    f28: 108
    f29: 10
    f3: 1
    f30: 1
    f31: 1
    f4: 1
    f5: 1
    f6: 1
    f7: 1
    f8: 1
    f9: 1
    coverage: 32/32
  val_comb:
    ? 'fs1 == 0 and fe1 == 0x1e and fm1 == 0x0fb and fs2 == 0 and fe2 == 0x0d and
      fm2 == 0x2a1 and fs3 == 0 and fe3 == 0x1e and fm3 == 0x1ee and fcsr == 0x2 and
      rm_val == 7  and rs1_nan_prefix == 0xffff and rs2_nan_prefix == 0xffff and rs3_nan_prefix
      == 0xffff  #nosat'
    : 1
    ? 'fs1 == 0 and fe1 == 0x1e and fm1 == 0x0fb and fs2 == 0 and fe2 == 0x0d and
      fm2 == 0x2a1 and fs3 == 0 and fe3 == 0x1e and fm3 == 0x1ee and fcsr == 0x22
      and rm_val == 7  and rs1_nan_prefix == 0xffff and rs2_nan_prefix == 0xffff and
      rs3_nan_prefix == 0xffff  #nosat'
    : 1
    ? 'fs1 == 0 and fe1 == 0x1e and fm1 == 0x0fb and fs2 == 0 and fe2 == 0x0d and
      fm2 == 0x2a1 and fs3 == 0 and fe3 == 0x1e and fm3 == 0x1ee and fcsr == 0x42
      and rm_val == 7  and rs1_nan_prefix == 0xffff and rs2_nan_prefix == 0xffff and
      rs3_nan_prefix == 0xffff  #nosat'
    : 1
    ? 'fs1 == 0 and fe1 == 0x1e and fm1 == 0x0fb and fs2 == 0 and fe2 == 0x0d and
      fm2 == 0x2a1 and fs3 == 0 and fe3 == 0x1e and fm3 == 0x1ee and fcsr == 0x62
      and rm_val == 7  and rs1_nan_prefix == 0xffff and rs2_nan_prefix == 0xffff and
      rs3_nan_prefix == 0xffff  #nosat'
    : 1
    ? 'fs1 == 0 and fe1 == 0x1e and fm1 == 0x0fb and fs2 == 0 and fe2 == 0x0d and
      fm2 == 0x2a1 and fs3 == 0 and fe3 == 0x1e and fm3 == 0x1ee and fcsr == 0x82
      and rm_val == 7  and rs1_nan_prefix == 0xffff and rs2_nan_prefix == 0xffff and
      rs3_nan_prefix == 0xffff  #nosat'
    : 1
    ? 'fs1 == 0 and fe1 == 0x1e and fm1 == 0x25b and fs2 == 1 and fe2 == 0x10 and
      fm2 == 0x0e2 and fs3 == 0 and fe3 == 0x1e and fm3 == 0x389 and fcsr == 0x2 and
      rm_val == 7  and rs1_nan_prefix == 0xffff and rs2_nan_prefix == 0xffff and rs3_nan_prefix
      == 0xffff  #nosat'
    : 1
    ? 'fs1 == 0 and fe1 == 0x1e and fm1 == 0x25b and fs2 == 1 and fe2 == 0x10 and
      fm2 == 0x0e2 and fs3 == 0 and fe3 == 0x1e and fm3 == 0x389 and fcsr == 0x22
      and rm_val == 7  and rs1_nan_prefix == 0xffff and rs2_nan_prefix == 0xffff and
      rs3_nan_prefix == 0xffff  #nosat'
    : 1
    ? 'fs1 == 0 and fe1 == 0x1e and fm1 == 0x25b and fs2 == 1 and fe2 == 0x10 and
      fm2 == 0x0e2 and fs3 == 0 and fe3 == 0x1e and fm3 == 0x389 and fcsr == 0x42
      and rm_val == 7  and rs1_nan_prefix == 0xffff and rs2_nan_prefix == 0xffff and
      rs3_nan_prefix == 0xffff  #nosat'
    : 1
    ? 'fs1 == 0 and fe1 == 0x1e and fm1 == 0x25b and fs2 == 1 and fe2 == 0x10 and
      fm2 == 0x0e2 and fs3 == 0 and fe3 == 0x1e and fm3 == 0x389 and fcsr == 0x62
      and rm_val == 7  and rs1_nan_prefix == 0xffff and rs2_nan_prefix == 0xffff and
      rs3_nan_prefix == 0xffff  #nosat'
    : 1
    ? 'fs1 == 0 and fe1 == 0x1e and fm1 == 0x25b and fs2 == 1 and fe2 == 0x10 and
      fm2 == 0x0e2 and fs3 == 0 and fe3 == 0x1e and fm3 == 0x389 and fcsr == 0x82
      and rm_val == 7  and rs1_nan_prefix == 0xffff and rs2_nan_prefix == 0xffff and
      rs3_nan_prefix == 0xffff  #nosat'
    : 1
    ? 'fs1 == 0 and fe1 == 0x1e and fm1 == 0x1ea and fs2 == 0 and fe2 == 0x0b and
      fm2 == 0x2b7 and fs3 == 0 and fe3 == 0x1e and fm3 == 0x360 and fcsr == 0x2 and
      rm_val == 7  and rs1_nan_prefix == 0xffff and rs2_nan_prefix == 0xffff and rs3_nan_prefix
      == 0xffff  #nosat'
    : 1
    ? 'fs1 == 0 and fe1 == 0x1e and fm1 == 0x1ea and fs2 == 0 and fe2 == 0x0b and
      fm2 == 0x2b7 and fs3 == 0 and fe3 == 0x1e and fm3 == 0x360 and fcsr == 0x22
      and rm_val == 7  and rs1_nan_prefix == 0xffff and rs2_nan_prefix == 0xffff and
      rs3_nan_prefix == 0xffff  #nosat'
    : 1
    ? 'fs1 == 0 and fe1 == 0x1e and fm1 == 0x1ea and fs2 == 0 and fe2 == 0x0b and
      fm2 == 0x2b7 and fs3 == 0 and fe3 == 0x1e and fm3 == 0x360 and fcsr == 0x42
      and rm_val == 7  and rs1_nan_prefix == 0xffff and rs2_nan_prefix == 0xffff and
      rs3_nan_prefix == 0xffff  #nosat'
    : 1
    ? 'fs1 == 0 and fe1 == 0x1e and fm1 == 0x1ea and fs2 == 0 and fe2 == 0x0b and
      fm2 == 0x2b7 and fs3 == 0 and fe3 == 0x1e and fm3 == 0x360 and fcsr == 0x62
      and rm_val == 7  and rs1_nan_prefix == 0xffff and rs2_nan_prefix == 0xffff and
      rs3_nan_prefix == 0xffff  #nosat'
    : 1
    ? 'fs1 == 0 and fe1 == 0x1e and fm1 == 0x1ea and fs2 == 0 and fe2 == 0x0b and
      fm2 == 0x2b7 and fs3 == 0 and fe3 == 0x1e and fm3 == 0x360 and fcsr == 0x82
      and rm_val == 7  and rs1_nan_prefix == 0xffff and rs2_nan_prefix == 0xffff and
      rs3_nan_prefix == 0xffff  #nosat'
    : 1
    ? 'fs1 == 0 and fe1 == 0x19 and fm1 == 0x36c and fs2 == 1 and fe2 == 0x14 and
      fm2 == 0x250 and fs3 == 0 and fe3 == 0x1d and fm3 == 0x372 and fcsr == 0x2 and
      rm_val == 7  and rs1_nan_prefix == 0xffff and rs2_nan_prefix == 0xffff and rs3_nan_prefix
      == 0xffff  #nosat'
    : 1
    ? 'fs1 == 0 and fe1 == 0x19 and fm1 == 0x36c and fs2 == 1 and fe2 == 0x14 and
      fm2 == 0x250 and fs3 == 0 and fe3 == 0x1d and fm3 == 0x372 and fcsr == 0x22
      and rm_val == 7  and rs1_nan_prefix == 0xffff and rs2_nan_prefix == 0xffff and
      rs3_nan_prefix == 0xffff  #nosat'
    : 1
    ? 'fs1 == 0 and fe1 == 0x19 and fm1 == 0x36c and fs2 == 1 and fe2 == 0x14 and
      fm2 == 0x250 and fs3 == 0 and fe3 == 0x1d and fm3 == 0x372 and fcsr == 0x42
      and rm_val == 7  and rs1_nan_prefix == 0xffff and rs2_nan_prefix == 0xffff and
      rs3_nan_prefix == 0xffff  #nosat'
    : 1
    ? 'fs1 == 0 and fe1 == 0x19 and fm1 == 0x36c and fs2 == 1 and fe2 == 0x14 and
      fm2 == 0x250 and fs3 == 0 and fe3 == 0x1d and fm3 == 0x372 and fcsr == 0x62
      and rm_val == 7  and rs1_nan_prefix == 0xffff and rs2_nan_prefix == 0xffff and
      rs3_nan_prefix == 0xffff  #nosat'
    : 1
    ? 'fs1 == 0 and fe1 == 0x19 and fm1 == 0x36c and fs2 == 1 and fe2 == 0x14 and
      fm2 == 0x250 and fs3 == 0 and fe3 == 0x1d and fm3 == 0x372 and fcsr == 0x82
      and rm_val == 7  and rs1_nan_prefix == 0xffff and rs2_nan_prefix == 0xffff and
      rs3_nan_prefix == 0xffff  #nosat'
    : 1
    ? 'fs1 == 0 and fe1 == 0x1e and fm1 == 0x38b and fs2 == 0 and fe2 == 0x0d and
      fm2 == 0x1f4 and fs3 == 0 and fe3 == 0x1e and fm3 == 0x130 and fcsr == 0x2 and
      rm_val == 7  and rs1_nan_prefix == 0xffff and rs2_nan_prefix == 0xffff and rs3_nan_prefix
      == 0xffff  #nosat'
    : 1
    ? 'fs1 == 0 and fe1 == 0x1e and fm1 == 0x38b and fs2 == 0 and fe2 == 0x0d and
      fm2 == 0x1f4 and fs3 == 0 and fe3 == 0x1e and fm3 == 0x130 and fcsr == 0x22
      and rm_val == 7  and rs1_nan_prefix == 0xffff and rs2_nan_prefix == 0xffff and
      rs3_nan_prefix == 0xffff  #nosat'
    : 1
    ? 'fs1 == 0 and fe1 == 0x1e and fm1 == 0x38b and fs2 == 0 and fe2 == 0x0d and
      fm2 == 0x1f4 and fs3 == 0 and fe3 == 0x1e and fm3 == 0x130 and fcsr == 0x42
      and rm_val == 7  and rs1_nan_prefix == 0xffff and rs2_nan_prefix == 0xffff and
      rs3_nan_prefix == 0xffff  #nosat'
    : 1
    ? 'fs1 == 0 and fe1 == 0x1e and fm1 == 0x38b and fs2 == 0 and fe2 == 0x0d and
      fm2 == 0x1f4 and fs3 == 0 and fe3 == 0x1e and fm3 == 0x130 and fcsr == 0x62
      and rm_val == 7  and rs1_nan_prefix == 0xffff and rs2_nan_prefix == 0xffff and
      rs3_nan_prefix == 0xffff  #nosat'
    : 1
    ? 'fs1 == 0 and fe1 == 0x1e and fm1 == 0x38b and fs2 == 0 and fe2 == 0x0d and
      fm2 == 0x1f4 and fs3 == 0 and fe3 == 0x1e and fm3 == 0x130 and fcsr == 0x82
      and rm_val == 7  and rs1_nan_prefix == 0xffff and rs2_nan_prefix == 0xffff and
      rs3_nan_prefix == 0xffff  #nosat'
    : 1
    ? 'fs1 == 0 and fe1 == 0x1e and fm1 == 0x334 and fs2 == 1 and fe2 == 0x0f and
      fm2 == 0x0f1 and fs3 == 0 and fe3 == 0x1b and fm3 == 0x33e and fcsr == 0x2 and
      rm_val == 7  and rs1_nan_prefix == 0xffff and rs2_nan_prefix == 0xffff and rs3_nan_prefix
      == 0xffff  #nosat'
    : 1
    ? 'fs1 == 0 and fe1 == 0x1e and fm1 == 0x334 and fs2 == 1 and fe2 == 0x0f and
      fm2 == 0x0f1 and fs3 == 0 and fe3 == 0x1b and fm3 == 0x33e and fcsr == 0x22
      and rm_val == 7  and rs1_nan_prefix == 0xffff and rs2_nan_prefix == 0xffff and
      rs3_nan_prefix == 0xffff  #nosat'
    : 1
    ? 'fs1 == 0 and fe1 == 0x1e and fm1 == 0x334 and fs2 == 1 and fe2 == 0x0f and
      fm2 == 0x0f1 and fs3 == 0 and fe3 == 0x1b and fm3 == 0x33e and fcsr == 0x42
      and rm_val == 7  and rs1_nan_prefix == 0xffff and rs2_nan_prefix == 0xffff and
      rs3_nan_prefix == 0xffff  #nosat'
    : 1
    ? 'fs1 == 0 and fe1 == 0x1e and fm1 == 0x334 and fs2 == 1 and fe2 == 0x0f and
      fm2 == 0x0f1 and fs3 == 0 and fe3 == 0x1b and fm3 == 0x33e and fcsr == 0x62
      and rm_val == 7  and rs1_nan_prefix == 0xffff and rs2_nan_prefix == 0xffff and
      rs3_nan_prefix == 0xffff  #nosat'
    : 1
    ? 'fs1 == 0 and fe1 == 0x1e and fm1 == 0x334 and fs2 == 1 and fe2 == 0x0f and
      fm2 == 0x0f1 and fs3 == 0 and fe3 == 0x1b and fm3 == 0x33e and fcsr == 0x82
      and rm_val == 7  and rs1_nan_prefix == 0xffff and rs2_nan_prefix == 0xffff and
      rs3_nan_prefix == 0xffff  #nosat'
    : 1
    ? 'fs1 == 0 and fe1 == 0x1d and fm1 == 0x380 and fs2 == 0 and fe2 == 0x0f and
      fm2 == 0x26c and fs3 == 0 and fe3 == 0x1c and fm3 == 0x3e3 and fcsr == 0x2 and
      rm_val == 7  and rs1_nan_prefix == 0xffff and rs2_nan_prefix == 0xffff and rs3_nan_prefix
      == 0xffff  #nosat'
    : 1
    ? 'fs1 == 0 and fe1 == 0x1d and fm1 == 0x380 and fs2 == 0 and fe2 == 0x0f and
      fm2 == 0x26c and fs3 == 0 and fe3 == 0x1c and fm3 == 0x3e3 and fcsr == 0x22
      and rm_val == 7  and rs1_nan_prefix == 0xffff and rs2_nan_prefix == 0xffff and
      rs3_nan_prefix == 0xffff  #nosat'
    : 1
    ? 'fs1 == 0 and fe1 == 0x1d and fm1 == 0x380 and fs2 == 0 and fe2 == 0x0f and
      fm2 == 0x26c and fs3 == 0 and fe3 == 0x1c and fm3 == 0x3e3 and fcsr == 0x42
      and rm_val == 7  and rs1_nan_prefix == 0xffff and rs2_nan_prefix == 0xffff and
      rs3_nan_prefix == 0xffff  #nosat'
    : 1
    ? 'fs1 == 0 and fe1 == 0x1d and fm1 == 0x380 and fs2 == 0 and fe2 == 0x0f and
      fm2 == 0x26c and fs3 == 0 and fe3 == 0x1c and fm3 == 0x3e3 and fcsr == 0x62
      and rm_val == 7  and rs1_nan_prefix == 0xffff and rs2_nan_prefix == 0xffff and
      rs3_nan_prefix == 0xffff  #nosat'
    : 1
    ? 'fs1 == 0 and fe1 == 0x1d and fm1 == 0x380 and fs2 == 0 and fe2 == 0x0f and
      fm2 == 0x26c and fs3 == 0 and fe3 == 0x1c and fm3 == 0x3e3 and fcsr == 0x82
      and rm_val == 7  and rs1_nan_prefix == 0xffff and rs2_nan_prefix == 0xffff and
      rs3_nan_prefix == 0xffff  #nosat'
    : 1
    ? 'fs1 == 0 and fe1 == 0x1e and fm1 == 0x059 and fs2 == 1 and fe2 == 0x10 and
      fm2 == 0x1c9 and fs3 == 0 and fe3 == 0x1e and fm3 == 0x096 and fcsr == 0x2 and
      rm_val == 7  and rs1_nan_prefix == 0xffff and rs2_nan_prefix == 0xffff and rs3_nan_prefix
      == 0xffff  #nosat'
    : 1
    ? 'fs1 == 0 and fe1 == 0x1e and fm1 == 0x059 and fs2 == 1 and fe2 == 0x10 and
      fm2 == 0x1c9 and fs3 == 0 and fe3 == 0x1e and fm3 == 0x096 and fcsr == 0x22
      and rm_val == 7  and rs1_nan_prefix == 0xffff and rs2_nan_prefix == 0xffff and
      rs3_nan_prefix == 0xffff  #nosat'
    : 1
    ? 'fs1 == 0 and fe1 == 0x1e and fm1 == 0x059 and fs2 == 1 and fe2 == 0x10 and
      fm2 == 0x1c9 and fs3 == 0 and fe3 == 0x1e and fm3 == 0x096 and fcsr == 0x42
      and rm_val == 7  and rs1_nan_prefix == 0xffff and rs2_nan_prefix == 0xffff and
      rs3_nan_prefix == 0xffff  #nosat'
    : 1
    ? 'fs1 == 0 and fe1 == 0x1e and fm1 == 0x059 and fs2 == 1 and fe2 == 0x10 and
      fm2 == 0x1c9 and fs3 == 0 and fe3 == 0x1e and fm3 == 0x096 and fcsr == 0x62
      and rm_val == 7  and rs1_nan_prefix == 0xffff and rs2_nan_prefix == 0xffff and
      rs3_nan_prefix == 0xffff  #nosat'
    : 1
    ? 'fs1 == 0 and fe1 == 0x1e and fm1 == 0x059 and fs2 == 1 and fe2 == 0x10 and
      fm2 == 0x1c9 and fs3 == 0 and fe3 == 0x1e and fm3 == 0x096 and fcsr == 0x82
      and rm_val == 7  and rs1_nan_prefix == 0xffff and rs2_nan_prefix == 0xffff and
      rs3_nan_prefix == 0xffff  #nosat'
    : 1
    ? 'fs1 == 0 and fe1 == 0x18 and fm1 == 0x2b8 and fs2 == 0 and fe2 == 0x14 and
      fm2 == 0x375 and fs3 == 0 and fe3 == 0x1c and fm3 == 0x2ee and fcsr == 0x2 and
      rm_val == 7  and rs1_nan_prefix == 0xffff and rs2_nan_prefix == 0xffff and rs3_nan_prefix
      == 0xffff  #nosat'
    : 1
    ? 'fs1 == 0 and fe1 == 0x18 and fm1 == 0x2b8 and fs2 == 0 and fe2 == 0x14 and
      fm2 == 0x375 and fs3 == 0 and fe3 == 0x1c and fm3 == 0x2ee and fcsr == 0x22
      and rm_val == 7  and rs1_nan_prefix == 0xffff and rs2_nan_prefix == 0xffff and
      rs3_nan_prefix == 0xffff  #nosat'
    : 1
    ? 'fs1 == 0 and fe1 == 0x18 and fm1 == 0x2b8 and fs2 == 0 and fe2 == 0x14 and
      fm2 == 0x375 and fs3 == 0 and fe3 == 0x1c and fm3 == 0x2ee and fcsr == 0x42
      and rm_val == 7  and rs1_nan_prefix == 0xffff and rs2_nan_prefix == 0xffff and
      rs3_nan_prefix == 0xffff  #nosat'
    : 1
    ? 'fs1 == 0 and fe1 == 0x18 and fm1 == 0x2b8 and fs2 == 0 and fe2 == 0x14 and
      fm2 == 0x375 and fs3 == 0 and fe3 == 0x1c and fm3 == 0x2ee and fcsr == 0x62
      and rm_val == 7  and rs1_nan_prefix == 0xffff and rs2_nan_prefix == 0xffff and
      rs3_nan_prefix == 0xffff  #nosat'
    : 1
    ? 'fs1 == 0 and fe1 == 0x18 and fm1 == 0x2b8 and fs2 == 0 and fe2 == 0x14 and
      fm2 == 0x375 and fs3 == 0 and fe3 == 0x1c and fm3 == 0x2ee and fcsr == 0x82
      and rm_val == 7  and rs1_nan_prefix == 0xffff and rs2_nan_prefix == 0xffff and
      rs3_nan_prefix == 0xffff  #nosat'
    : 1
    ? 'fs1 == 0 and fe1 == 0x1d and fm1 == 0x078 and fs2 == 1 and fe2 == 0x11 and
      fm2 == 0x2db and fs3 == 0 and fe3 == 0x1e and fm3 == 0x353 and fcsr == 0x2 and
      rm_val == 7  and rs1_nan_prefix == 0xffff and rs2_nan_prefix == 0xffff and rs3_nan_prefix
      == 0xffff  #nosat'
    : 1
    ? 'fs1 == 0 and fe1 == 0x1d and fm1 == 0x078 and fs2 == 1 and fe2 == 0x11 and
      fm2 == 0x2db and fs3 == 0 and fe3 == 0x1e and fm3 == 0x353 and fcsr == 0x22
      and rm_val == 7  and rs1_nan_prefix == 0xffff and rs2_nan_prefix == 0xffff and
      rs3_nan_prefix == 0xffff  #nosat'
    : 1
    ? 'fs1 == 0 and fe1 == 0x1d and fm1 == 0x078 and fs2 == 1 and fe2 == 0x11 and
      fm2 == 0x2db and fs3 == 0 and fe3 == 0x1e and fm3 == 0x353 and fcsr == 0x42
      and rm_val == 7  and rs1_nan_prefix == 0xffff and rs2_nan_prefix == 0xffff and
      rs3_nan_prefix == 0xffff  #nosat'
    : 1
    ? 'fs1 == 0 and fe1 == 0x1d and fm1 == 0x078 and fs2 == 1 and fe2 == 0x11 and
      fm2 == 0x2db and fs3 == 0 and fe3 == 0x1e and fm3 == 0x353 and fcsr == 0x62
      and rm_val == 7  and rs1_nan_prefix == 0xffff and rs2_nan_prefix == 0xffff and
      rs3_nan_prefix == 0xffff  #nosat'
    : 1
    ? 'fs1 == 0 and fe1 == 0x1d and fm1 == 0x078 and fs2 == 1 and fe2 == 0x11 and
      fm2 == 0x2db and fs3 == 0 and fe3 == 0x1e and fm3 == 0x353 and fcsr == 0x82
      and rm_val == 7  and rs1_nan_prefix == 0xffff and rs2_nan_prefix == 0xffff and
      rs3_nan_prefix == 0xffff  #nosat'
    : 1
    ? 'fs1 == 0 and fe1 == 0x1e and fm1 == 0x21f and fs2 == 0 and fe2 == 0x0f and
      fm2 == 0x063 and fs3 == 0 and fe3 == 0x1c and fm3 == 0x11a and fcsr == 0x2 and
      rm_val == 7  and rs1_nan_prefix == 0xffff and rs2_nan_prefix == 0xffff and rs3_nan_prefix
      == 0xffff  #nosat'
    : 1
    ? 'fs1 == 0 and fe1 == 0x1e and fm1 == 0x21f and fs2 == 0 and fe2 == 0x0f and
      fm2 == 0x063 and fs3 == 0 and fe3 == 0x1c and fm3 == 0x11a and fcsr == 0x22
      and rm_val == 7  and rs1_nan_prefix == 0xffff and rs2_nan_prefix == 0xffff and
      rs3_nan_prefix == 0xffff  #nosat'
    : 1
    ? 'fs1 == 0 and fe1 == 0x1e and fm1 == 0x21f and fs2 == 0 and fe2 == 0x0f and
      fm2 == 0x063 and fs3 == 0 and fe3 == 0x1c and fm3 == 0x11a and fcsr == 0x42
      and rm_val == 7  and rs1_nan_prefix == 0xffff and rs2_nan_prefix == 0xffff and
      rs3_nan_prefix == 0xffff  #nosat'
    : 1
    ? 'fs1 == 0 and fe1 == 0x1e and fm1 == 0x21f and fs2 == 0 and fe2 == 0x0f and
      fm2 == 0x063 and fs3 == 0 and fe3 == 0x1c and fm3 == 0x11a and fcsr == 0x62
      and rm_val == 7  and rs1_nan_prefix == 0xffff and rs2_nan_prefix == 0xffff and
      rs3_nan_prefix == 0xffff  #nosat'
    : 1
    ? 'fs1 == 0 and fe1 == 0x1e and fm1 == 0x21f and fs2 == 0 and fe2 == 0x0f and
      fm2 == 0x063 and fs3 == 0 and fe3 == 0x1c and fm3 == 0x11a and fcsr == 0x82
      and rm_val == 7  and rs1_nan_prefix == 0xffff and rs2_nan_prefix == 0xffff and
      rs3_nan_prefix == 0xffff  #nosat'
    : 1
    ? 'fs1 == 0 and fe1 == 0x1e and fm1 == 0x25f and fs2 == 1 and fe2 == 0x0f and
      fm2 == 0x1b6 and fs3 == 0 and fe3 == 0x1c and fm3 == 0x070 and fcsr == 0x2 and
      rm_val == 7  and rs1_nan_prefix == 0xffff and rs2_nan_prefix == 0xffff and rs3_nan_prefix
      == 0xffff  #nosat'
    : 1
    ? 'fs1 == 0 and fe1 == 0x1e and fm1 == 0x25f and fs2 == 1 and fe2 == 0x0f and
      fm2 == 0x1b6 and fs3 == 0 and fe3 == 0x1c and fm3 == 0x070 and fcsr == 0x22
      and rm_val == 7  and rs1_nan_prefix == 0xffff and rs2_nan_prefix == 0xffff and
      rs3_nan_prefix == 0xffff  #nosat'
    : 1
    ? 'fs1 == 0 and fe1 == 0x1e and fm1 == 0x25f and fs2 == 1 and fe2 == 0x0f and
      fm2 == 0x1b6 and fs3 == 0 and fe3 == 0x1c and fm3 == 0x070 and fcsr == 0x42
      and rm_val == 7  and rs1_nan_prefix == 0xffff and rs2_nan_prefix == 0xffff and
      rs3_nan_prefix == 0xffff  #nosat'
    : 1
    ? 'fs1 == 0 and fe1 == 0x1e and fm1 == 0x25f and fs2 == 1 and fe2 == 0x0f and
      fm2 == 0x1b6 and fs3 == 0 and fe3 == 0x1c and fm3 == 0x070 and fcsr == 0x62
      and rm_val == 7  and rs1_nan_prefix == 0xffff and rs2_nan_prefix == 0xffff and
      rs3_nan_prefix == 0xffff  #nosat'
    : 1
    ? 'fs1 == 0 and fe1 == 0x1e and fm1 == 0x25f and fs2 == 1 and fe2 == 0x0f and
      fm2 == 0x1b6 and fs3 == 0 and fe3 == 0x1c and fm3 == 0x070 and fcsr == 0x82
      and rm_val == 7  and rs1_nan_prefix == 0xffff and rs2_nan_prefix == 0xffff and
      rs3_nan_prefix == 0xffff  #nosat'
    : 1
    ? 'fs1 == 0 and fe1 == 0x1e and fm1 == 0x0ef and fs2 == 0 and fe2 == 0x0f and
      fm2 == 0x1a8 and fs3 == 0 and fe3 == 0x1c and fm3 == 0x00d and fcsr == 0x2 and
      rm_val == 7  and rs1_nan_prefix == 0xffff and rs2_nan_prefix == 0xffff and rs3_nan_prefix
      == 0xffff  #nosat'
    : 1
    ? 'fs1 == 0 and fe1 == 0x1e and fm1 == 0x0ef and fs2 == 0 and fe2 == 0x0f and
      fm2 == 0x1a8 and fs3 == 0 and fe3 == 0x1c and fm3 == 0x00d and fcsr == 0x22
      and rm_val == 7  and rs1_nan_prefix == 0xffff and rs2_nan_prefix == 0xffff and
      rs3_nan_prefix == 0xffff  #nosat'
    : 1
    ? 'fs1 == 0 and fe1 == 0x1e and fm1 == 0x0ef and fs2 == 0 and fe2 == 0x0f and
      fm2 == 0x1a8 and fs3 == 0 and fe3 == 0x1c and fm3 == 0x00d and fcsr == 0x42
      and rm_val == 7  and rs1_nan_prefix == 0xffff and rs2_nan_prefix == 0xffff and
      rs3_nan_prefix == 0xffff  #nosat'
    : 1
    ? 'fs1 == 0 and fe1 == 0x1e and fm1 == 0x0ef and fs2 == 0 and fe2 == 0x0f and
      fm2 == 0x1a8 and fs3 == 0 and fe3 == 0x1c and fm3 == 0x00d and fcsr == 0x62
      and rm_val == 7  and rs1_nan_prefix == 0xffff and rs2_nan_prefix == 0xffff and
      rs3_nan_prefix == 0xffff  #nosat'
    : 1
    ? 'fs1 == 0 and fe1 == 0x1e and fm1 == 0x0ef and fs2 == 0 and fe2 == 0x0f and
      fm2 == 0x1a8 and fs3 == 0 and fe3 == 0x1c and fm3 == 0x00d and fcsr == 0x82
      and rm_val == 7  and rs1_nan_prefix == 0xffff and rs2_nan_prefix == 0xffff and
      rs3_nan_prefix == 0xffff  #nosat'
    : 1
    ? 'fs1 == 0 and fe1 == 0x15 and fm1 == 0x354 and fs2 == 1 and fe2 == 0x19 and
      fm2 == 0x015 and fs3 == 0 and fe3 == 0x1e and fm3 == 0x2f7 and fcsr == 0x2 and
      rm_val == 7  and rs1_nan_prefix == 0xffff and rs2_nan_prefix == 0xffff and rs3_nan_prefix
      == 0xffff  #nosat'
    : 1
    ? 'fs1 == 0 and fe1 == 0x15 and fm1 == 0x354 and fs2 == 1 and fe2 == 0x19 and
      fm2 == 0x015 and fs3 == 0 and fe3 == 0x1e and fm3 == 0x2f7 and fcsr == 0x22
      and rm_val == 7  and rs1_nan_prefix == 0xffff and rs2_nan_prefix == 0xffff and
      rs3_nan_prefix == 0xffff  #nosat'
    : 1
    ? 'fs1 == 0 and fe1 == 0x15 and fm1 == 0x354 and fs2 == 1 and fe2 == 0x19 and
      fm2 == 0x015 and fs3 == 0 and fe3 == 0x1e and fm3 == 0x2f7 and fcsr == 0x42
      and rm_val == 7  and rs1_nan_prefix == 0xffff and rs2_nan_prefix == 0xffff and
      rs3_nan_prefix == 0xffff  #nosat'
    : 1
    ? 'fs1 == 0 and fe1 == 0x15 and fm1 == 0x354 and fs2 == 1 and fe2 == 0x19 and
      fm2 == 0x015 and fs3 == 0 and fe3 == 0x1e and fm3 == 0x2f7 and fcsr == 0x62
      and rm_val == 7  and rs1_nan_prefix == 0xffff and rs2_nan_prefix == 0xffff and
      rs3_nan_prefix == 0xffff  #nosat'
    : 1
    ? 'fs1 == 0 and fe1 == 0x15 and fm1 == 0x354 and fs2 == 1 and fe2 == 0x19 and
      fm2 == 0x015 and fs3 == 0 and fe3 == 0x1e and fm3 == 0x2f7 and fcsr == 0x82
      and rm_val == 7  and rs1_nan_prefix == 0xffff and rs2_nan_prefix == 0xffff and
      rs3_nan_prefix == 0xffff  #nosat'
    : 1
    ? 'fs1 == 0 and fe1 == 0x1c and fm1 == 0x2b3 and fs2 == 1 and fe2 == 0x0d and
      fm2 == 0x2e9 and fs3 == 0 and fe3 == 0x1c and fm3 == 0x2e4 and fcsr == 0x2 and
      rm_val == 7  and rs1_nan_prefix == 0xffff and rs2_nan_prefix == 0xffff and rs3_nan_prefix
      == 0xffff  #nosat'
    : 1
    ? 'fs1 == 0 and fe1 == 0x1c and fm1 == 0x2b3 and fs2 == 1 and fe2 == 0x0d and
      fm2 == 0x2e9 and fs3 == 0 and fe3 == 0x1c and fm3 == 0x2e4 and fcsr == 0x22
      and rm_val == 7  and rs1_nan_prefix == 0xffff and rs2_nan_prefix == 0xffff and
      rs3_nan_prefix == 0xffff  #nosat'
    : 1
    ? 'fs1 == 0 and fe1 == 0x1c and fm1 == 0x2b3 and fs2 == 1 and fe2 == 0x0d and
      fm2 == 0x2e9 and fs3 == 0 and fe3 == 0x1c and fm3 == 0x2e4 and fcsr == 0x42
      and rm_val == 7  and rs1_nan_prefix == 0xffff and rs2_nan_prefix == 0xffff and
      rs3_nan_prefix == 0xffff  #nosat'
    : 1
    ? 'fs1 == 0 and fe1 == 0x1c and fm1 == 0x2b3 and fs2 == 1 and fe2 == 0x0d and
      fm2 == 0x2e9 and fs3 == 0 and fe3 == 0x1c and fm3 == 0x2e4 and fcsr == 0x62
      and rm_val == 7  and rs1_nan_prefix == 0xffff and rs2_nan_prefix == 0xffff and
      rs3_nan_prefix == 0xffff  #nosat'
    : 1
    ? 'fs1 == 0 and fe1 == 0x1c and fm1 == 0x2b3 and fs2 == 1 and fe2 == 0x0d and
      fm2 == 0x2e9 and fs3 == 0 and fe3 == 0x1c and fm3 == 0x2e4 and fcsr == 0x82
      and rm_val == 7  and rs1_nan_prefix == 0xffff and rs2_nan_prefix == 0xffff and
      rs3_nan_prefix == 0xffff  #nosat'
    : 1
    ? 'fs1 == 0 and fe1 == 0x1e and fm1 == 0x3db and fs2 == 1 and fe2 == 0x0f and
      fm2 == 0x00f and fs3 == 0 and fe3 == 0x1e and fm3 == 0x2f9 and fcsr == 0x2 and
      rm_val == 7  and rs1_nan_prefix == 0xffff and rs2_nan_prefix == 0xffff and rs3_nan_prefix
      == 0xffff  #nosat'
    : 1
    ? 'fs1 == 0 and fe1 == 0x1e and fm1 == 0x3db and fs2 == 1 and fe2 == 0x0f and
      fm2 == 0x00f and fs3 == 0 and fe3 == 0x1e and fm3 == 0x2f9 and fcsr == 0x22
      and rm_val == 7  and rs1_nan_prefix == 0xffff and rs2_nan_prefix == 0xffff and
      rs3_nan_prefix == 0xffff  #nosat'
    : 1
    ? 'fs1 == 0 and fe1 == 0x1e and fm1 == 0x3db and fs2 == 1 and fe2 == 0x0f and
      fm2 == 0x00f and fs3 == 0 and fe3 == 0x1e and fm3 == 0x2f9 and fcsr == 0x42
      and rm_val == 7  and rs1_nan_prefix == 0xffff and rs2_nan_prefix == 0xffff and
      rs3_nan_prefix == 0xffff  #nosat'
    : 1
    ? 'fs1 == 0 and fe1 == 0x1e and fm1 == 0x3db and fs2 == 1 and fe2 == 0x0f and
      fm2 == 0x00f and fs3 == 0 and fe3 == 0x1e and fm3 == 0x2f9 and fcsr == 0x62
      and rm_val == 7  and rs1_nan_prefix == 0xffff and rs2_nan_prefix == 0xffff and
      rs3_nan_prefix == 0xffff  #nosat'
    : 1
    ? 'fs1 == 0 and fe1 == 0x1e and fm1 == 0x3db and fs2 == 1 and fe2 == 0x0f and
      fm2 == 0x00f and fs3 == 0 and fe3 == 0x1e and fm3 == 0x2f9 and fcsr == 0x82
      and rm_val == 7  and rs1_nan_prefix == 0xffff and rs2_nan_prefix == 0xffff and
      rs3_nan_prefix == 0xffff  #nosat'
    : 1
    ? 'fs1 == 0 and fe1 == 0x1d and fm1 == 0x0a0 and fs2 == 1 and fe2 == 0x10 and
      fm2 == 0x0eb and fs3 == 0 and fe3 == 0x1e and fm3 == 0x3b0 and fcsr == 0x2 and
      rm_val == 7  and rs1_nan_prefix == 0xffff and rs2_nan_prefix == 0xffff and rs3_nan_prefix
      == 0xffff  #nosat'
    : 1
    ? 'fs1 == 0 and fe1 == 0x1d and fm1 == 0x0a0 and fs2 == 1 and fe2 == 0x10 and
      fm2 == 0x0eb and fs3 == 0 and fe3 == 0x1e and fm3 == 0x3b0 and fcsr == 0x22
      and rm_val == 7  and rs1_nan_prefix == 0xffff and rs2_nan_prefix == 0xffff and
      rs3_nan_prefix == 0xffff  #nosat'
    : 1
    ? 'fs1 == 0 and fe1 == 0x1d and fm1 == 0x0a0 and fs2 == 1 and fe2 == 0x10 and
      fm2 == 0x0eb and fs3 == 0 and fe3 == 0x1e and fm3 == 0x3b0 and fcsr == 0x42
      and rm_val == 7  and rs1_nan_prefix == 0xffff and rs2_nan_prefix == 0xffff and
      rs3_nan_prefix == 0xffff  #nosat'
    : 1
    ? 'fs1 == 0 and fe1 == 0x1d and fm1 == 0x0a0 and fs2 == 1 and fe2 == 0x10 and
      fm2 == 0x0eb and fs3 == 0 and fe3 == 0x1e and fm3 == 0x3b0 and fcsr == 0x62
      and rm_val == 7  and rs1_nan_prefix == 0xffff and rs2_nan_prefix == 0xffff and
      rs3_nan_prefix == 0xffff  #nosat'
    : 1
    ? 'fs1 == 0 and fe1 == 0x1d and fm1 == 0x0a0 and fs2 == 1 and fe2 == 0x10 and
      fm2 == 0x0eb and fs3 == 0 and fe3 == 0x1e and fm3 == 0x3b0 and fcsr == 0x82
      and rm_val == 7  and rs1_nan_prefix == 0xffff and rs2_nan_prefix == 0xffff and
      rs3_nan_prefix == 0xffff  #nosat'
    : 1
    ? 'fs1 == 0 and fe1 == 0x1e and fm1 == 0x04f and fs2 == 1 and fe2 == 0x0f and
      fm2 == 0x2e1 and fs3 == 0 and fe3 == 0x1e and fm3 == 0x16b and fcsr == 0x2 and
      rm_val == 7  and rs1_nan_prefix == 0xffff and rs2_nan_prefix == 0xffff and rs3_nan_prefix
      == 0xffff  #nosat'
    : 1
    ? 'fs1 == 0 and fe1 == 0x1e and fm1 == 0x04f and fs2 == 1 and fe2 == 0x0f and
      fm2 == 0x2e1 and fs3 == 0 and fe3 == 0x1e and fm3 == 0x16b and fcsr == 0x22
      and rm_val == 7  and rs1_nan_prefix == 0xffff and rs2_nan_prefix == 0xffff and
      rs3_nan_prefix == 0xffff  #nosat'
    : 1
    ? 'fs1 == 0 and fe1 == 0x1e and fm1 == 0x04f and fs2 == 1 and fe2 == 0x0f and
      fm2 == 0x2e1 and fs3 == 0 and fe3 == 0x1e and fm3 == 0x16b and fcsr == 0x42
      and rm_val == 7  and rs1_nan_prefix == 0xffff and rs2_nan_prefix == 0xffff and
      rs3_nan_prefix == 0xffff  #nosat'
    : 1
    ? 'fs1 == 0 and fe1 == 0x1e and fm1 == 0x04f and fs2 == 1 and fe2 == 0x0f and
      fm2 == 0x2e1 and fs3 == 0 and fe3 == 0x1e and fm3 == 0x16b and fcsr == 0x62
      and rm_val == 7  and rs1_nan_prefix == 0xffff and rs2_nan_prefix == 0xffff and
      rs3_nan_prefix == 0xffff  #nosat'
    : 1
    ? 'fs1 == 0 and fe1 == 0x1e and fm1 == 0x04f and fs2 == 1 and fe2 == 0x0f and
      fm2 == 0x2e1 and fs3 == 0 and fe3 == 0x1e and fm3 == 0x16b and fcsr == 0x82
      and rm_val == 7  and rs1_nan_prefix == 0xffff and rs2_nan_prefix == 0xffff and
      rs3_nan_prefix == 0xffff  #nosat'
    : 1
    ? 'fs1 == 0 and fe1 == 0x1c and fm1 == 0x28c and fs2 == 1 and fe2 == 0x10 and
      fm2 == 0x04e and fs3 == 0 and fe3 == 0x1e and fm3 == 0x386 and fcsr == 0x2 and
      rm_val == 7  and rs1_nan_prefix == 0xffff and rs2_nan_prefix == 0xffff and rs3_nan_prefix
      == 0xffff  #nosat'
    : 1
    ? 'fs1 == 0 and fe1 == 0x1c and fm1 == 0x28c and fs2 == 1 and fe2 == 0x10 and
      fm2 == 0x04e and fs3 == 0 and fe3 == 0x1e and fm3 == 0x386 and fcsr == 0x22
      and rm_val == 7  and rs1_nan_prefix == 0xffff and rs2_nan_prefix == 0xffff and
      rs3_nan_prefix == 0xffff  #nosat'
    : 1
    ? 'fs1 == 0 and fe1 == 0x1c and fm1 == 0x28c and fs2 == 1 and fe2 == 0x10 and
      fm2 == 0x04e and fs3 == 0 and fe3 == 0x1e and fm3 == 0x386 and fcsr == 0x42
      and rm_val == 7  and rs1_nan_prefix == 0xffff and rs2_nan_prefix == 0xffff and
      rs3_nan_prefix == 0xffff  #nosat'
    : 1
    ? 'fs1 == 0 and fe1 == 0x1c and fm1 == 0x28c and fs2 == 1 and fe2 == 0x10 and
      fm2 == 0x04e and fs3 == 0 and fe3 == 0x1e and fm3 == 0x386 and fcsr == 0x62
      and rm_val == 7  and rs1_nan_prefix == 0xffff and rs2_nan_prefix == 0xffff and
      rs3_nan_prefix == 0xffff  #nosat'
    : 1
    ? 'fs1 == 0 and fe1 == 0x1c and fm1 == 0x28c and fs2 == 1 and fe2 == 0x10 and
      fm2 == 0x04e and fs3 == 0 and fe3 == 0x1e and fm3 == 0x386 and fcsr == 0x82
      and rm_val == 7  and rs1_nan_prefix == 0xffff and rs2_nan_prefix == 0xffff and
      rs3_nan_prefix == 0xffff  #nosat'
    : 1
    ? 'fs1 == 0 and fe1 == 0x1e and fm1 == 0x185 and fs2 == 1 and fe2 == 0x10 and
      fm2 == 0x03f and fs3 == 0 and fe3 == 0x1e and fm3 == 0x3ba and fcsr == 0x2 and
      rm_val == 7  and rs1_nan_prefix == 0xffff and rs2_nan_prefix == 0xffff and rs3_nan_prefix
      == 0xffff  #nosat'
    : 1
    ? 'fs1 == 0 and fe1 == 0x1e and fm1 == 0x185 and fs2 == 1 and fe2 == 0x10 and
      fm2 == 0x03f and fs3 == 0 and fe3 == 0x1e and fm3 == 0x3ba and fcsr == 0x22
      and rm_val == 7  and rs1_nan_prefix == 0xffff and rs2_nan_prefix == 0xffff and
      rs3_nan_prefix == 0xffff  #nosat'
    : 1
    ? 'fs1 == 0 and fe1 == 0x1e and fm1 == 0x185 and fs2 == 1 and fe2 == 0x10 and
      fm2 == 0x03f and fs3 == 0 and fe3 == 0x1e and fm3 == 0x3ba and fcsr == 0x42
      and rm_val == 7  and rs1_nan_prefix == 0xffff and rs2_nan_prefix == 0xffff and
      rs3_nan_prefix == 0xffff  #nosat'
    : 1
    ? 'fs1 == 0 and fe1 == 0x1e and fm1 == 0x185 and fs2 == 1 and fe2 == 0x10 and
      fm2 == 0x03f and fs3 == 0 and fe3 == 0x1e and fm3 == 0x3ba and fcsr == 0x62
      and rm_val == 7  and rs1_nan_prefix == 0xffff and rs2_nan_prefix == 0xffff and
      rs3_nan_prefix == 0xffff  #nosat'
    : 1
    ? 'fs1 == 0 and fe1 == 0x1e and fm1 == 0x185 and fs2 == 1 and fe2 == 0x10 and
      fm2 == 0x03f and fs3 == 0 and fe3 == 0x1e and fm3 == 0x3ba and fcsr == 0x82
      and rm_val == 7  and rs1_nan_prefix == 0xffff and rs2_nan_prefix == 0xffff and
      rs3_nan_prefix == 0xffff  #nosat'
    : 1
    ? 'fs1 == 0 and fe1 == 0x1e and fm1 == 0x325 and fs2 == 0 and fe2 == 0x0e and
      fm2 == 0x246 and fs3 == 0 and fe3 == 0x1d and fm3 == 0x0c7 and fcsr == 0x2 and
      rm_val == 7  and rs1_nan_prefix == 0xffff and rs2_nan_prefix == 0xffff and rs3_nan_prefix
      == 0xffff  #nosat'
    : 1
    ? 'fs1 == 0 and fe1 == 0x1e and fm1 == 0x325 and fs2 == 0 and fe2 == 0x0e and
      fm2 == 0x246 and fs3 == 0 and fe3 == 0x1d and fm3 == 0x0c7 and fcsr == 0x22
      and rm_val == 7  and rs1_nan_prefix == 0xffff and rs2_nan_prefix == 0xffff and
      rs3_nan_prefix == 0xffff  #nosat'
    : 1
    ? 'fs1 == 0 and fe1 == 0x1e and fm1 == 0x325 and fs2 == 0 and fe2 == 0x0e and
      fm2 == 0x246 and fs3 == 0 and fe3 == 0x1d and fm3 == 0x0c7 and fcsr == 0x42
      and rm_val == 7  and rs1_nan_prefix == 0xffff and rs2_nan_prefix == 0xffff and
      rs3_nan_prefix == 0xffff  #nosat'
    : 1
    ? 'fs1 == 0 and fe1 == 0x1e and fm1 == 0x325 and fs2 == 0 and fe2 == 0x0e and
      fm2 == 0x246 and fs3 == 0 and fe3 == 0x1d and fm3 == 0x0c7 and fcsr == 0x62
      and rm_val == 7  and rs1_nan_prefix == 0xffff and rs2_nan_prefix == 0xffff and
      rs3_nan_prefix == 0xffff  #nosat'
    : 1
    ? 'fs1 == 0 and fe1 == 0x1e and fm1 == 0x325 and fs2 == 0 and fe2 == 0x0e and
      fm2 == 0x246 and fs3 == 0 and fe3 == 0x1d and fm3 == 0x0c7 and fcsr == 0x82
      and rm_val == 7  and rs1_nan_prefix == 0xffff and rs2_nan_prefix == 0xffff and
      rs3_nan_prefix == 0xffff  #nosat'
    : 1
    ? 'fs1 == 0 and fe1 == 0x1d and fm1 == 0x1c6 and fs2 == 1 and fe2 == 0x10 and
      fm2 == 0x274 and fs3 == 0 and fe3 == 0x1c and fm3 == 0x14e and fcsr == 0x2 and
      rm_val == 7  and rs1_nan_prefix == 0xffff and rs2_nan_prefix == 0xffff and rs3_nan_prefix
      == 0xffff  #nosat'
    : 1
    ? 'fs1 == 0 and fe1 == 0x1d and fm1 == 0x1c6 and fs2 == 1 and fe2 == 0x10 and
      fm2 == 0x274 and fs3 == 0 and fe3 == 0x1c and fm3 == 0x14e and fcsr == 0x22
      and rm_val == 7  and rs1_nan_prefix == 0xffff and rs2_nan_prefix == 0xffff and
      rs3_nan_prefix == 0xffff  #nosat'
    : 1
    ? 'fs1 == 0 and fe1 == 0x1d and fm1 == 0x1c6 and fs2 == 1 and fe2 == 0x10 and
      fm2 == 0x274 and fs3 == 0 and fe3 == 0x1c and fm3 == 0x14e and fcsr == 0x42
      and rm_val == 7  and rs1_nan_prefix == 0xffff and rs2_nan_prefix == 0xffff and
      rs3_nan_prefix == 0xffff  #nosat'
    : 1
    ? 'fs1 == 0 and fe1 == 0x1d and fm1 == 0x1c6 and fs2 == 1 and fe2 == 0x10 and
      fm2 == 0x274 and fs3 == 0 and fe3 == 0x1c and fm3 == 0x14e and fcsr == 0x62
      and rm_val == 7  and rs1_nan_prefix == 0xffff and rs2_nan_prefix == 0xffff and
      rs3_nan_prefix == 0xffff  #nosat'
    : 1
    ? 'fs1 == 0 and fe1 == 0x1d and fm1 == 0x1c6 and fs2 == 1 and fe2 == 0x10 and
      fm2 == 0x274 and fs3 == 0 and fe3 == 0x1c and fm3 == 0x14e and fcsr == 0x82
      and rm_val == 7  and rs1_nan_prefix == 0xffff and rs2_nan_prefix == 0xffff and
      rs3_nan_prefix == 0xffff  #nosat'
    : 1
    ? 'fs1 == 0 and fe1 == 0x1c and fm1 == 0x0a9 and fs2 == 0 and fe2 == 0x12 and
      fm2 == 0x2a3 and fs3 == 0 and fe3 == 0x1b and fm3 == 0x02a and fcsr == 0x2 and
      rm_val == 7  and rs1_nan_prefix == 0xffff and rs2_nan_prefix == 0xffff and rs3_nan_prefix
      == 0xffff  #nosat'
    : 1
    ? 'fs1 == 0 and fe1 == 0x1c and fm1 == 0x0a9 and fs2 == 0 and fe2 == 0x12 and
      fm2 == 0x2a3 and fs3 == 0 and fe3 == 0x1b and fm3 == 0x02a and fcsr == 0x22
      and rm_val == 7  and rs1_nan_prefix == 0xffff and rs2_nan_prefix == 0xffff and
      rs3_nan_prefix == 0xffff  #nosat'
    : 1
    ? 'fs1 == 0 and fe1 == 0x1c and fm1 == 0x0a9 and fs2 == 0 and fe2 == 0x12 and
      fm2 == 0x2a3 and fs3 == 0 and fe3 == 0x1b and fm3 == 0x02a and fcsr == 0x42
      and rm_val == 7  and rs1_nan_prefix == 0xffff and rs2_nan_prefix == 0xffff and
      rs3_nan_prefix == 0xffff  #nosat'
    : 1
    ? 'fs1 == 0 and fe1 == 0x1c and fm1 == 0x0a9 and fs2 == 0 and fe2 == 0x12 and
      fm2 == 0x2a3 and fs3 == 0 and fe3 == 0x1b and fm3 == 0x02a and fcsr == 0x62
      and rm_val == 7  and rs1_nan_prefix == 0xffff and rs2_nan_prefix == 0xffff and
      rs3_nan_prefix == 0xffff  #nosat'
    : 1
    ? 'fs1 == 0 and fe1 == 0x1c and fm1 == 0x0a9 and fs2 == 0 and fe2 == 0x12 and
      fm2 == 0x2a3 and fs3 == 0 and fe3 == 0x1b and fm3 == 0x02a and fcsr == 0x82
      and rm_val == 7  and rs1_nan_prefix == 0xffff and rs2_nan_prefix == 0xffff and
      rs3_nan_prefix == 0xffff  #nosat'
    : 1
    ? 'fs1 == 0 and fe1 == 0x1d and fm1 == 0x0d1 and fs2 == 1 and fe2 == 0x12 and
      fm2 == 0x051 and fs3 == 0 and fe3 == 0x1e and fm3 == 0x0d2 and fcsr == 0x2 and
      rm_val == 7  and rs1_nan_prefix == 0xffff and rs2_nan_prefix == 0xffff and rs3_nan_prefix
      == 0xffff  #nosat'
    : 1
    ? 'fs1 == 0 and fe1 == 0x1d and fm1 == 0x0d1 and fs2 == 1 and fe2 == 0x12 and
      fm2 == 0x051 and fs3 == 0 and fe3 == 0x1e and fm3 == 0x0d2 and fcsr == 0x22
      and rm_val == 7  and rs1_nan_prefix == 0xffff and rs2_nan_prefix == 0xffff and
      rs3_nan_prefix == 0xffff  #nosat'
    : 1
    ? 'fs1 == 0 and fe1 == 0x1d and fm1 == 0x0d1 and fs2 == 1 and fe2 == 0x12 and
      fm2 == 0x051 and fs3 == 0 and fe3 == 0x1e and fm3 == 0x0d2 and fcsr == 0x42
      and rm_val == 7  and rs1_nan_prefix == 0xffff and rs2_nan_prefix == 0xffff and
      rs3_nan_prefix == 0xffff  #nosat'
    : 1
    ? 'fs1 == 0 and fe1 == 0x1d and fm1 == 0x0d1 and fs2 == 1 and fe2 == 0x12 and
      fm2 == 0x051 and fs3 == 0 and fe3 == 0x1e and fm3 == 0x0d2 and fcsr == 0x62
      and rm_val == 7  and rs1_nan_prefix == 0xffff and rs2_nan_prefix == 0xffff and
      rs3_nan_prefix == 0xffff  #nosat'
    : 1
    ? 'fs1 == 0 and fe1 == 0x1d and fm1 == 0x0d1 and fs2 == 1 and fe2 == 0x12 and
      fm2 == 0x051 and fs3 == 0 and fe3 == 0x1e and fm3 == 0x0d2 and fcsr == 0x82
      and rm_val == 7  and rs1_nan_prefix == 0xffff and rs2_nan_prefix == 0xffff and
      rs3_nan_prefix == 0xffff  #nosat'
    : 1
    ? 'fs1 == 0 and fe1 == 0x16 and fm1 == 0x2f4 and fs2 == 0 and fe2 == 0x18 and
      fm2 == 0x3a3 and fs3 == 0 and fe3 == 0x1e and fm3 == 0x16b and fcsr == 0x2 and
      rm_val == 7  and rs1_nan_prefix == 0xffff and rs2_nan_prefix == 0xffff and rs3_nan_prefix
      == 0xffff  #nosat'
    : 1
    ? 'fs1 == 0 and fe1 == 0x16 and fm1 == 0x2f4 and fs2 == 0 and fe2 == 0x18 and
      fm2 == 0x3a3 and fs3 == 0 and fe3 == 0x1e and fm3 == 0x16b and fcsr == 0x22
      and rm_val == 7  and rs1_nan_prefix == 0xffff and rs2_nan_prefix == 0xffff and
      rs3_nan_prefix == 0xffff  #nosat'
    : 1
    ? 'fs1 == 0 and fe1 == 0x16 and fm1 == 0x2f4 and fs2 == 0 and fe2 == 0x18 and
      fm2 == 0x3a3 and fs3 == 0 and fe3 == 0x1e and fm3 == 0x16b and fcsr == 0x42
      and rm_val == 7  and rs1_nan_prefix == 0xffff and rs2_nan_prefix == 0xffff and
      rs3_nan_prefix == 0xffff  #nosat'
    : 1
    ? 'fs1 == 0 and fe1 == 0x16 and fm1 == 0x2f4 and fs2 == 0 and fe2 == 0x18 and
      fm2 == 0x3a3 and fs3 == 0 and fe3 == 0x1e and fm3 == 0x16b and fcsr == 0x62
      and rm_val == 7  and rs1_nan_prefix == 0xffff and rs2_nan_prefix == 0xffff and
      rs3_nan_prefix == 0xffff  #nosat'
    : 1
    ? 'fs1 == 0 and fe1 == 0x16 and fm1 == 0x2f4 and fs2 == 0 and fe2 == 0x18 and
      fm2 == 0x3a3 and fs3 == 0 and fe3 == 0x1e and fm3 == 0x16b and fcsr == 0x82
      and rm_val == 7  and rs1_nan_prefix == 0xffff and rs2_nan_prefix == 0xffff and
      rs3_nan_prefix == 0xffff  #nosat'
    : 1
    ? 'fs1 == 0 and fe1 == 0x1d and fm1 == 0x167 and fs2 == 1 and fe2 == 0x12 and
      fm2 == 0x260 and fs3 == 0 and fe3 == 0x1d and fm3 == 0x0f5 and fcsr == 0x2 and
      rm_val == 7  and rs1_nan_prefix == 0xffff and rs2_nan_prefix == 0xffff and rs3_nan_prefix
      == 0xffff  #nosat'
    : 1
    ? 'fs1 == 0 and fe1 == 0x1d and fm1 == 0x167 and fs2 == 1 and fe2 == 0x12 and
      fm2 == 0x260 and fs3 == 0 and fe3 == 0x1d and fm3 == 0x0f5 and fcsr == 0x22
      and rm_val == 7  and rs1_nan_prefix == 0xffff and rs2_nan_prefix == 0xffff and
      rs3_nan_prefix == 0xffff  #nosat'
    : 1
    ? 'fs1 == 0 and fe1 == 0x1d and fm1 == 0x167 and fs2 == 1 and fe2 == 0x12 and
      fm2 == 0x260 and fs3 == 0 and fe3 == 0x1d and fm3 == 0x0f5 and fcsr == 0x42
      and rm_val == 7  and rs1_nan_prefix == 0xffff and rs2_nan_prefix == 0xffff and
      rs3_nan_prefix == 0xffff  #nosat'
    : 1
    ? 'fs1 == 0 and fe1 == 0x1d and fm1 == 0x167 and fs2 == 1 and fe2 == 0x12 and
      fm2 == 0x260 and fs3 == 0 and fe3 == 0x1d and fm3 == 0x0f5 and fcsr == 0x62
      and rm_val == 7  and rs1_nan_prefix == 0xffff and rs2_nan_prefix == 0xffff and
      rs3_nan_prefix == 0xffff  #nosat'
    : 1
    ? 'fs1 == 0 and fe1 == 0x1d and fm1 == 0x167 and fs2 == 1 and fe2 == 0x12 and
      fm2 == 0x260 and fs3 == 0 and fe3 == 0x1d and fm3 == 0x0f5 and fcsr == 0x82
      and rm_val == 7  and rs1_nan_prefix == 0xffff and rs2_nan_prefix == 0xffff and
      rs3_nan_prefix == 0xffff  #nosat'
    : 1
    ? 'fs1 == 0 and fe1 == 0x1e and fm1 == 0x28b and fs2 == 0 and fe2 == 0x12 and
      fm2 == 0x097 and fs3 == 0 and fe3 == 0x1d and fm3 == 0x3b0 and fcsr == 0x2 and
      rm_val == 7  and rs1_nan_prefix == 0xffff and rs2_nan_prefix == 0xffff and rs3_nan_prefix
      == 0xffff  #nosat'
    : 1
    ? 'fs1 == 0 and fe1 == 0x1e and fm1 == 0x28b and fs2 == 0 and fe2 == 0x12 and
      fm2 == 0x097 and fs3 == 0 and fe3 == 0x1d and fm3 == 0x3b0 and fcsr == 0x22
      and rm_val == 7  and rs1_nan_prefix == 0xffff and rs2_nan_prefix == 0xffff and
      rs3_nan_prefix == 0xffff  #nosat'
    : 1
    ? 'fs1 == 0 and fe1 == 0x1e and fm1 == 0x28b and fs2 == 0 and fe2 == 0x12 and
      fm2 == 0x097 and fs3 == 0 and fe3 == 0x1d and fm3 == 0x3b0 and fcsr == 0x42
      and rm_val == 7  and rs1_nan_prefix == 0xffff and rs2_nan_prefix == 0xffff and
      rs3_nan_prefix == 0xffff  #nosat'
    : 1
    ? 'fs1 == 0 and fe1 == 0x1e and fm1 == 0x28b and fs2 == 0 and fe2 == 0x12 and
      fm2 == 0x097 and fs3 == 0 and fe3 == 0x1d and fm3 == 0x3b0 and fcsr == 0x62
      and rm_val == 7  and rs1_nan_prefix == 0xffff and rs2_nan_prefix == 0xffff and
      rs3_nan_prefix == 0xffff  #nosat'
    : 1
    ? 'fs1 == 0 and fe1 == 0x1e and fm1 == 0x28b and fs2 == 0 and fe2 == 0x12 and
      fm2 == 0x097 and fs3 == 0 and fe3 == 0x1d and fm3 == 0x3b0 and fcsr == 0x82
      and rm_val == 7  and rs1_nan_prefix == 0xffff and rs2_nan_prefix == 0xffff and
      rs3_nan_prefix == 0xffff  #nosat'
    : 1
    ? 'fs1 == 0 and fe1 == 0x1d and fm1 == 0x10c and fs2 == 1 and fe2 == 0x13 and
      fm2 == 0x2b6 and fs3 == 0 and fe3 == 0x1d and fm3 == 0x3b2 and fcsr == 0x2 and
      rm_val == 7  and rs1_nan_prefix == 0xffff and rs2_nan_prefix == 0xffff and rs3_nan_prefix
      == 0xffff  #nosat'
    : 1
    ? 'fs1 == 0 and fe1 == 0x1d and fm1 == 0x10c and fs2 == 1 and fe2 == 0x13 and
      fm2 == 0x2b6 and fs3 == 0 and fe3 == 0x1d and fm3 == 0x3b2 and fcsr == 0x22
      and rm_val == 7  and rs1_nan_prefix == 0xffff and rs2_nan_prefix == 0xffff and
      rs3_nan_prefix == 0xffff  #nosat'
    : 1
    ? 'fs1 == 0 and fe1 == 0x1d and fm1 == 0x10c and fs2 == 1 and fe2 == 0x13 and
      fm2 == 0x2b6 and fs3 == 0 and fe3 == 0x1d and fm3 == 0x3b2 and fcsr == 0x42
      and rm_val == 7  and rs1_nan_prefix == 0xffff and rs2_nan_prefix == 0xffff and
      rs3_nan_prefix == 0xffff  #nosat'
    : 1
    ? 'fs1 == 0 and fe1 == 0x1d and fm1 == 0x10c and fs2 == 1 and fe2 == 0x13 and
      fm2 == 0x2b6 and fs3 == 0 and fe3 == 0x1d and fm3 == 0x3b2 and fcsr == 0x62
      and rm_val == 7  and rs1_nan_prefix == 0xffff and rs2_nan_prefix == 0xffff and
      rs3_nan_prefix == 0xffff  #nosat'
    : 1
    ? 'fs1 == 0 and fe1 == 0x1d and fm1 == 0x10c and fs2 == 1 and fe2 == 0x13 and
      fm2 == 0x2b6 and fs3 == 0 and fe3 == 0x1d and fm3 == 0x3b2 and fcsr == 0x82
      and rm_val == 7  and rs1_nan_prefix == 0xffff and rs2_nan_prefix == 0xffff and
      rs3_nan_prefix == 0xffff  #nosat'
    : 1
    coverage: 140/140
  total_coverage: 281/281
