---
fdiv_b20:
  config:
  - check ISA:=regex(.*I.*Zfinx.*)
  mnemonics:
    fdiv.s: 107
    coverage: 1/1
  op_comb:
    rs1 != rs2  and rs1 != rd and rs2 != rd: 103
    rs1 == rd != rs2: 1
    rs1 == rs2 != rd: 1
    rs1 == rs2 == rd: 1
    rs2 == rd != rs1: 1
    coverage: 5/5
  rd:
    x0: 1
    x1: 1
    x10: 1
    x11: 1
    x12: 1
    x13: 1
    x14: 1
    x15: 1
    x16: 1
    x17: 1
    x18: 1
    x19: 1
    x2: 1
    x20: 1
    x21: 1
    x22: 1
    x23: 1
    x24: 1
    x25: 1
    x26: 1
    x27: 1
    x28: 1
    x29: 1
    x3: 1
    x30: 1
    x31: 76
    x4: 1
    x5: 1
    x6: 1
    x7: 1
    x8: 1
    x9: 1
    coverage: 32/32
  rs1:
    x0: 1
    x1: 1
    x10: 1
    x11: 1
    x12: 1
    x13: 1
    x14: 1
    x15: 1
    x16: 1
    x17: 1
    x18: 1
    x19: 1
    x2: 1
    x20: 1
    x21: 1
    x22: 1
    x23: 1
    x24: 1
    x25: 1
    x26: 1
    x27: 1
    x28: 1
    x29: 1
    x3: 1
    x30: 74
    x31: 3
    x4: 1
    x5: 1
    x6: 1
    x7: 1
    x8: 1
    x9: 1
    coverage: 32/32
  rs2:
    x0: 1
    x1: 1
    x10: 1
    x11: 1
    x12: 1
    x13: 1
    x14: 1
    x15: 1
    x16: 1
    x17: 1
    x18: 1
    x19: 1
    x2: 1
    x20: 1
    x21: 1
    x22: 1
    x23: 1
    x24: 1
    x25: 1
    x26: 1
    x27: 1
    x28: 1
    x29: 72
    x3: 1
    x30: 5
    x31: 1
    x4: 1
    x5: 1
    x6: 1
    x7: 1
    x8: 1
    x9: 1
    coverage: 32/32
  val_comb:
    ? 'fs1 == 0 and fe1 == 0xfb and fm1 == 0x60f718 and fs2 == 1 and fe2 == 0xe9 and
      fm2 == 0x33f8e0 and  fcsr == 0x0 and rm_val == 7  and rs1_sgn_prefix == 0x00000000
      and rs2_sgn_prefix == 0xffffffff  #nosat'
    : 1
    ? 'fs1 == 0 and fe1 == 0xfe and fm1 == 0x0a0433 and fs2 == 0 and fe2 == 0xb9 and
      fm2 == 0x1dbba8 and  fcsr == 0x0 and rm_val == 7  and rs1_sgn_prefix == 0x00000000
      and rs2_sgn_prefix == 0x00000000  #nosat'
    : 1
    ? 'fs1 == 0 and fe1 == 0xfb and fm1 == 0x761c0c and fs2 == 0 and fe2 == 0xfe and
      fm2 == 0x7fffff and  fcsr == 0x0 and rm_val == 7  and rs1_sgn_prefix == 0x00000000
      and rs2_sgn_prefix == 0x00000000  #nosat'
    : 1
    ? 'fs1 == 0 and fe1 == 0xfe and fm1 == 0x0748c6 and fs2 == 0 and fe2 == 0xfe and
      fm2 == 0x7fffff and  fcsr == 0x0 and rm_val == 7  and rs1_sgn_prefix == 0x00000000
      and rs2_sgn_prefix == 0x00000000  #nosat'
    : 1
    ? 'fs1 == 0 and fe1 == 0xfe and fm1 == 0x0235b2 and fs2 == 1 and fe2 == 0xfe and
      fm2 == 0x7fffff and  fcsr == 0x0 and rm_val == 7  and rs1_sgn_prefix == 0x00000000
      and rs2_sgn_prefix == 0xffffffff  #nosat'
    : 1
    ? 'fs1 == 0 and fe1 == 0xfd and fm1 == 0x512a66 and fs2 == 0 and fe2 == 0xfe and
      fm2 == 0x7fffff and  fcsr == 0x0 and rm_val == 7  and rs1_sgn_prefix == 0x00000000
      and rs2_sgn_prefix == 0x00000000  #nosat'
    : 1
    ? 'fs1 == 0 and fe1 == 0xfc and fm1 == 0x296bac and fs2 == 1 and fe2 == 0x97 and
      fm2 == 0x169899 and  fcsr == 0x0 and rm_val == 7  and rs1_sgn_prefix == 0x00000000
      and rs2_sgn_prefix == 0xffffffff  #nosat'
    : 1
    ? 'fs1 == 0 and fe1 == 0xfe and fm1 == 0x3b506b and fs2 == 1 and fe2 == 0xfe and
      fm2 == 0x7fffff and  fcsr == 0x0 and rm_val == 7  and rs1_sgn_prefix == 0x00000000
      and rs2_sgn_prefix == 0xffffffff  #nosat'
    : 1
    ? 'fs1 == 0 and fe1 == 0xfe and fm1 == 0x192dff and fs2 == 0 and fe2 == 0xb8 and
      fm2 == 0x236443 and  fcsr == 0x0 and rm_val == 7  and rs1_sgn_prefix == 0x00000000
      and rs2_sgn_prefix == 0x00000000  #nosat'
    : 1
    ? 'fs1 == 0 and fe1 == 0xfd and fm1 == 0x465fcc and fs2 == 0 and fe2 == 0xfe and
      fm2 == 0x7fffff and  fcsr == 0x0 and rm_val == 7  and rs1_sgn_prefix == 0x00000000
      and rs2_sgn_prefix == 0x00000000  #nosat'
    : 1
    ? 'fs1 == 0 and fe1 == 0xfc and fm1 == 0x2b6a13 and fs2 == 0 and fe2 == 0xad and
      fm2 == 0x4b2862 and  fcsr == 0x0 and rm_val == 7  and rs1_sgn_prefix == 0x00000000
      and rs2_sgn_prefix == 0x00000000  #nosat'
    : 1
    ? 'fs1 == 0 and fe1 == 0xfd and fm1 == 0x7906c5 and fs2 == 0 and fe2 == 0x8b and
      fm2 == 0x1f607e and  fcsr == 0x0 and rm_val == 7  and rs1_sgn_prefix == 0x00000000
      and rs2_sgn_prefix == 0x00000000  #nosat'
    : 1
    ? 'fs1 == 0 and fe1 == 0xfd and fm1 == 0x17a40d and fs2 == 0 and fe2 == 0xfe and
      fm2 == 0x7fffff and  fcsr == 0x0 and rm_val == 7  and rs1_sgn_prefix == 0x00000000
      and rs2_sgn_prefix == 0x00000000  #nosat'
    : 1
    ? 'fs1 == 0 and fe1 == 0xfd and fm1 == 0x5d1ff5 and fs2 == 1 and fe2 == 0xfe and
      fm2 == 0x7fffff and  fcsr == 0x0 and rm_val == 7  and rs1_sgn_prefix == 0x00000000
      and rs2_sgn_prefix == 0xffffffff  #nosat'
    : 1
    ? 'fs1 == 0 and fe1 == 0xfc and fm1 == 0x76b77e and fs2 == 1 and fe2 == 0xfe and
      fm2 == 0x7fffff and  fcsr == 0x0 and rm_val == 7  and rs1_sgn_prefix == 0x00000000
      and rs2_sgn_prefix == 0xffffffff  #nosat'
    : 1
    ? 'fs1 == 0 and fe1 == 0xfd and fm1 == 0x7248b2 and fs2 == 1 and fe2 == 0xfe and
      fm2 == 0x7fffff and  fcsr == 0x0 and rm_val == 7  and rs1_sgn_prefix == 0x00000000
      and rs2_sgn_prefix == 0xffffffff  #nosat'
    : 1
    ? 'fs1 == 0 and fe1 == 0xfa and fm1 == 0x34967e and fs2 == 0 and fe2 == 0x81 and
      fm2 == 0x142cb6 and  fcsr == 0x0 and rm_val == 7  and rs1_sgn_prefix == 0x00000000
      and rs2_sgn_prefix == 0x00000000  #nosat'
    : 1
    ? 'fs1 == 0 and fe1 == 0xfc and fm1 == 0x655450 and fs2 == 1 and fe2 == 0xfe and
      fm2 == 0x7fffff and  fcsr == 0x0 and rm_val == 7  and rs1_sgn_prefix == 0x00000000
      and rs2_sgn_prefix == 0xffffffff  #nosat'
    : 1
    ? 'fs1 == 0 and fe1 == 0xfe and fm1 == 0x39d661 and fs2 == 0 and fe2 == 0xba and
      fm2 == 0x187b63 and  fcsr == 0x0 and rm_val == 7  and rs1_sgn_prefix == 0x00000000
      and rs2_sgn_prefix == 0x00000000  #nosat'
    : 1
    ? 'fs1 == 0 and fe1 == 0xfe and fm1 == 0x281a41 and fs2 == 1 and fe2 == 0xfe and
      fm2 == 0x2ac557 and  fcsr == 0x0 and rm_val == 7  and rs1_sgn_prefix == 0x00000000
      and rs2_sgn_prefix == 0xffffffff  #nosat'
    : 1
    ? 'fs1 == 0 and fe1 == 0xfc and fm1 == 0x6b4e0e and fs2 == 0 and fe2 == 0xfe and
      fm2 == 0x7fffff and  fcsr == 0x0 and rm_val == 7  and rs1_sgn_prefix == 0x00000000
      and rs2_sgn_prefix == 0x00000000  #nosat'
    : 1
    ? 'fs1 == 0 and fe1 == 0xfe and fm1 == 0x24d5b2 and fs2 == 1 and fe2 == 0xfe and
      fm2 == 0x7fffff and  fcsr == 0x0 and rm_val == 7  and rs1_sgn_prefix == 0x00000000
      and rs2_sgn_prefix == 0xffffffff  #nosat'
    : 1
    ? 'fs1 == 0 and fe1 == 0xfc and fm1 == 0x6e5bf8 and fs2 == 0 and fe2 == 0x88 and
      fm2 == 0x24083c and  fcsr == 0x0 and rm_val == 7  and rs1_sgn_prefix == 0x00000000
      and rs2_sgn_prefix == 0x00000000  #nosat'
    : 1
    ? 'fs1 == 0 and fe1 == 0xfe and fm1 == 0x3457e7 and fs2 == 0 and fe2 == 0xfe and
      fm2 == 0x7fffff and  fcsr == 0x0 and rm_val == 7  and rs1_sgn_prefix == 0x00000000
      and rs2_sgn_prefix == 0x00000000  #nosat'
    : 1
    ? 'fs1 == 0 and fe1 == 0xfe and fm1 == 0x0ed153 and fs2 == 1 and fe2 == 0x92 and
      fm2 == 0x1c3eb7 and  fcsr == 0x0 and rm_val == 7  and rs1_sgn_prefix == 0x00000000
      and rs2_sgn_prefix == 0xffffffff  #nosat'
    : 1
    ? 'fs1 == 0 and fe1 == 0xfd and fm1 == 0x1fcf65 and fs2 == 0 and fe2 == 0xd7 and
      fm2 == 0x25a218 and  fcsr == 0x0 and rm_val == 7  and rs1_sgn_prefix == 0x00000000
      and rs2_sgn_prefix == 0x00000000  #nosat'
    : 1
    ? 'fs1 == 0 and fe1 == 0xfc and fm1 == 0x41cf9e and fs2 == 1 and fe2 == 0xda and
      fm2 == 0x244a46 and  fcsr == 0x0 and rm_val == 7  and rs1_sgn_prefix == 0x00000000
      and rs2_sgn_prefix == 0xffffffff  #nosat'
    : 1
    ? 'fs1 == 0 and fe1 == 0xf7 and fm1 == 0x506932 and fs2 == 0 and fe2 == 0x99 and
      fm2 == 0x716acc and  fcsr == 0x0 and rm_val == 7  and rs1_sgn_prefix == 0x00000000
      and rs2_sgn_prefix == 0x00000000  #nosat'
    : 1
    ? 'fs1 == 0 and fe1 == 0xfe and fm1 == 0x28b6bd and fs2 == 0 and fe2 == 0xbf and
      fm2 == 0x17043e and  fcsr == 0x0 and rm_val == 7  and rs1_sgn_prefix == 0x00000000
      and rs2_sgn_prefix == 0x00000000  #nosat'
    : 1
    ? 'fs1 == 0 and fe1 == 0xf9 and fm1 == 0x68f58b and fs2 == 1 and fe2 == 0xbf and
      fm2 == 0x756c07 and  fcsr == 0x0 and rm_val == 7  and rs1_sgn_prefix == 0x00000000
      and rs2_sgn_prefix == 0xffffffff  #nosat'
    : 1
    ? 'fs1 == 0 and fe1 == 0xfe and fm1 == 0x1d53d7 and fs2 == 1 and fe2 == 0xfc and
      fm2 == 0x377d30 and  fcsr == 0x0 and rm_val == 7  and rs1_sgn_prefix == 0x00000000
      and rs2_sgn_prefix == 0xffffffff  #nosat'
    : 1
    ? 'fs1 == 0 and fe1 == 0xfe and fm1 == 0x38be1b and fs2 == 1 and fe2 == 0xfe and
      fm2 == 0x7fffff and  fcsr == 0x0 and rm_val == 7  and rs1_sgn_prefix == 0x00000000
      and rs2_sgn_prefix == 0xffffffff  #nosat'
    : 1
    ? 'fs1 == 0 and fe1 == 0xfd and fm1 == 0x5afcdb and fs2 == 1 and fe2 == 0x92 and
      fm2 == 0x6f10c4 and  fcsr == 0x0 and rm_val == 7  and rs1_sgn_prefix == 0x00000000
      and rs2_sgn_prefix == 0xffffffff  #nosat'
    : 1
    ? 'fs1 == 0 and fe1 == 0xfc and fm1 == 0x03b9a1 and fs2 == 0 and fe2 == 0xfe and
      fm2 == 0x7fffff and  fcsr == 0x0 and rm_val == 7  and rs1_sgn_prefix == 0x00000000
      and rs2_sgn_prefix == 0x00000000  #nosat'
    : 1
    ? 'fs1 == 0 and fe1 == 0xfe and fm1 == 0x269d2c and fs2 == 1 and fe2 == 0x83 and
      fm2 == 0x519910 and  fcsr == 0x0 and rm_val == 7  and rs1_sgn_prefix == 0x00000000
      and rs2_sgn_prefix == 0xffffffff  #nosat'
    : 1
    ? 'fs1 == 0 and fe1 == 0xfe and fm1 == 0x3af6ff and fs2 == 1 and fe2 == 0xa4 and
      fm2 == 0x799c89 and  fcsr == 0x0 and rm_val == 7  and rs1_sgn_prefix == 0x00000000
      and rs2_sgn_prefix == 0xffffffff  #nosat'
    : 2
    ? 'fs1 == 0 and fe1 == 0xfe and fm1 == 0x072c24 and fs2 == 1 and fe2 == 0xfe and
      fm2 == 0x7fffff and  fcsr == 0x0 and rm_val == 7  and rs1_sgn_prefix == 0x00000000
      and rs2_sgn_prefix == 0xffffffff  #nosat'
    : 1
    ? 'fs1 == 0 and fe1 == 0xfd and fm1 == 0x436852 and fs2 == 0 and fe2 == 0xfe and
      fm2 == 0x7fffff and  fcsr == 0x0 and rm_val == 7  and rs1_sgn_prefix == 0x00000000
      and rs2_sgn_prefix == 0x00000000  #nosat'
    : 1
    ? 'fs1 == 0 and fe1 == 0xfd and fm1 == 0x1123d8 and fs2 == 1 and fe2 == 0xbd and
      fm2 == 0x695156 and  fcsr == 0x0 and rm_val == 7  and rs1_sgn_prefix == 0x00000000
      and rs2_sgn_prefix == 0xffffffff  #nosat'
    : 1
    ? 'fs1 == 0 and fe1 == 0xfd and fm1 == 0x0538b1 and fs2 == 1 and fe2 == 0xfe and
      fm2 == 0x7fffff and  fcsr == 0x0 and rm_val == 7  and rs1_sgn_prefix == 0x00000000
      and rs2_sgn_prefix == 0xffffffff  #nosat'
    : 1
    ? 'fs1 == 0 and fe1 == 0xfc and fm1 == 0x1e0667 and fs2 == 1 and fe2 == 0xfe and
      fm2 == 0x7fffff and  fcsr == 0x0 and rm_val == 7  and rs1_sgn_prefix == 0x00000000
      and rs2_sgn_prefix == 0xffffffff  #nosat'
    : 1
    ? 'fs1 == 0 and fe1 == 0xfe and fm1 == 0x016ff7 and fs2 == 1 and fe2 == 0xc9 and
      fm2 == 0x0990a3 and  fcsr == 0x0 and rm_val == 7  and rs1_sgn_prefix == 0x00000000
      and rs2_sgn_prefix == 0xffffffff  #nosat'
    : 1
    ? 'fs1 == 0 and fe1 == 0xfd and fm1 == 0x2640ba and fs2 == 0 and fe2 == 0xbf and
      fm2 == 0x4688b4 and  fcsr == 0x0 and rm_val == 7  and rs1_sgn_prefix == 0x00000000
      and rs2_sgn_prefix == 0x00000000  #nosat'
    : 1
    ? 'fs1 == 0 and fe1 == 0xfc and fm1 == 0x151546 and fs2 == 1 and fe2 == 0xfe and
      fm2 == 0x7fffff and  fcsr == 0x0 and rm_val == 7  and rs1_sgn_prefix == 0x00000000
      and rs2_sgn_prefix == 0xffffffff  #nosat'
    : 1
    ? 'fs1 == 0 and fe1 == 0xfb and fm1 == 0x206546 and fs2 == 1 and fe2 == 0xfe and
      fm2 == 0x7fffff and  fcsr == 0x0 and rm_val == 7  and rs1_sgn_prefix == 0x00000000
      and rs2_sgn_prefix == 0xffffffff  #nosat'
    : 1
    ? 'fs1 == 0 and fe1 == 0xfd and fm1 == 0x7fba49 and fs2 == 1 and fe2 == 0xf7 and
      fm2 == 0x5bc718 and  fcsr == 0x0 and rm_val == 7  and rs1_sgn_prefix == 0x00000000
      and rs2_sgn_prefix == 0xffffffff  #nosat'
    : 1
    ? 'fs1 == 0 and fe1 == 0xfc and fm1 == 0x636240 and fs2 == 0 and fe2 == 0xfe and
      fm2 == 0x7fffff and  fcsr == 0x0 and rm_val == 7  and rs1_sgn_prefix == 0x00000000
      and rs2_sgn_prefix == 0x00000000  #nosat'
    : 1
    ? 'fs1 == 0 and fe1 == 0xfd and fm1 == 0x3fec54 and fs2 == 0 and fe2 == 0xfe and
      fm2 == 0x7fffff and  fcsr == 0x0 and rm_val == 7  and rs1_sgn_prefix == 0x00000000
      and rs2_sgn_prefix == 0x00000000  #nosat'
    : 1
    ? 'fs1 == 0 and fe1 == 0xfc and fm1 == 0x79dd8e and fs2 == 1 and fe2 == 0xfe and
      fm2 == 0x7fffff and  fcsr == 0x0 and rm_val == 7  and rs1_sgn_prefix == 0x00000000
      and rs2_sgn_prefix == 0xffffffff  #nosat'
    : 1
    ? 'fs1 == 0 and fe1 == 0xfe and fm1 == 0x2759f0 and fs2 == 1 and fe2 == 0x81 and
      fm2 == 0x351a1b and  fcsr == 0x0 and rm_val == 7  and rs1_sgn_prefix == 0x00000000
      and rs2_sgn_prefix == 0xffffffff  #nosat'
    : 1
    ? 'fs1 == 0 and fe1 == 0xfe and fm1 == 0x2cbcfc and fs2 == 0 and fe2 == 0xe8 and
      fm2 == 0x58de83 and  fcsr == 0x0 and rm_val == 7  and rs1_sgn_prefix == 0x00000000
      and rs2_sgn_prefix == 0x00000000  #nosat'
    : 1
    ? 'fs1 == 0 and fe1 == 0xf8 and fm1 == 0x5e539a and fs2 == 0 and fe2 == 0xfe and
      fm2 == 0x7fffff and  fcsr == 0x0 and rm_val == 7  and rs1_sgn_prefix == 0x00000000
      and rs2_sgn_prefix == 0x00000000  #nosat'
    : 1
    ? 'fs1 == 0 and fe1 == 0xfc and fm1 == 0x1a414e and fs2 == 1 and fe2 == 0xfe and
      fm2 == 0x7fffff and  fcsr == 0x0 and rm_val == 7  and rs1_sgn_prefix == 0x00000000
      and rs2_sgn_prefix == 0xffffffff  #nosat'
    : 1
    ? 'fs1 == 0 and fe1 == 0xfc and fm1 == 0x7bb471 and fs2 == 0 and fe2 == 0xb6 and
      fm2 == 0x789bff and  fcsr == 0x0 and rm_val == 7  and rs1_sgn_prefix == 0x00000000
      and rs2_sgn_prefix == 0x00000000  #nosat'
    : 1
    ? 'fs1 == 0 and fe1 == 0xfe and fm1 == 0x3d8377 and fs2 == 1 and fe2 == 0x91 and
      fm2 == 0x76277d and  fcsr == 0x0 and rm_val == 7  and rs1_sgn_prefix == 0x00000000
      and rs2_sgn_prefix == 0xffffffff  #nosat'
    : 1
    ? 'fs1 == 0 and fe1 == 0xfe and fm1 == 0x164749 and fs2 == 0 and fe2 == 0xfe and
      fm2 == 0x7fffff and  fcsr == 0x0 and rm_val == 7  and rs1_sgn_prefix == 0x00000000
      and rs2_sgn_prefix == 0x00000000  #nosat'
    : 1
    ? 'fs1 == 0 and fe1 == 0xfd and fm1 == 0x023675 and fs2 == 1 and fe2 == 0xfe and
      fm2 == 0x7fffff and  fcsr == 0x0 and rm_val == 7  and rs1_sgn_prefix == 0x00000000
      and rs2_sgn_prefix == 0xffffffff  #nosat'
    : 1
    ? 'fs1 == 0 and fe1 == 0xfc and fm1 == 0x239b5c and fs2 == 0 and fe2 == 0xe7 and
      fm2 == 0x311bbd and  fcsr == 0x0 and rm_val == 7  and rs1_sgn_prefix == 0x00000000
      and rs2_sgn_prefix == 0x00000000  #nosat'
    : 1
    ? 'fs1 == 0 and fe1 == 0xfe and fm1 == 0x017ed0 and fs2 == 0 and fe2 == 0x94 and
      fm2 == 0x317fe2 and  fcsr == 0x0 and rm_val == 7  and rs1_sgn_prefix == 0x00000000
      and rs2_sgn_prefix == 0x00000000  #nosat'
    : 1
    ? 'fs1 == 0 and fe1 == 0xfe and fm1 == 0x20d6ae and fs2 == 1 and fe2 == 0xf0 and
      fm2 == 0x41dcec and  fcsr == 0x0 and rm_val == 7  and rs1_sgn_prefix == 0x00000000
      and rs2_sgn_prefix == 0xffffffff  #nosat'
    : 1
    ? 'fs1 == 0 and fe1 == 0xfe and fm1 == 0x32fae0 and fs2 == 0 and fe2 == 0xc2 and
      fm2 == 0x36e76b and  fcsr == 0x0 and rm_val == 7  and rs1_sgn_prefix == 0x00000000
      and rs2_sgn_prefix == 0x00000000  #nosat'
    : 1
    ? 'fs1 == 0 and fe1 == 0xfd and fm1 == 0x0409cf and fs2 == 1 and fe2 == 0xb3 and
      fm2 == 0x3ed825 and  fcsr == 0x0 and rm_val == 7  and rs1_sgn_prefix == 0x00000000
      and rs2_sgn_prefix == 0xffffffff  #nosat'
    : 1
    ? 'fs1 == 0 and fe1 == 0xfe and fm1 == 0x296b63 and fs2 == 1 and fe2 == 0x88 and
      fm2 == 0x3a1fe4 and  fcsr == 0x0 and rm_val == 7  and rs1_sgn_prefix == 0x00000000
      and rs2_sgn_prefix == 0xffffffff  #nosat'
    : 1
    ? 'fs1 == 0 and fe1 == 0xfe and fm1 == 0x03ecd6 and fs2 == 1 and fe2 == 0xbf and
      fm2 == 0x081dd1 and  fcsr == 0x0 and rm_val == 7  and rs1_sgn_prefix == 0x00000000
      and rs2_sgn_prefix == 0xffffffff  #nosat'
    : 1
    ? 'fs1 == 0 and fe1 == 0xfd and fm1 == 0x3a0c29 and fs2 == 1 and fe2 == 0xfe and
      fm2 == 0x7fffff and  fcsr == 0x0 and rm_val == 7  and rs1_sgn_prefix == 0x00000000
      and rs2_sgn_prefix == 0xffffffff  #nosat'
    : 1
    ? 'fs1 == 0 and fe1 == 0xfe and fm1 == 0x3d37b2 and fs2 == 0 and fe2 == 0xed and
      fm2 == 0x54eb08 and  fcsr == 0x0 and rm_val == 7  and rs1_sgn_prefix == 0x00000000
      and rs2_sgn_prefix == 0x00000000  #nosat'
    : 1
    ? 'fs1 == 0 and fe1 == 0xfc and fm1 == 0x34342f and fs2 == 0 and fe2 == 0x87 and
      fm2 == 0x7cb837 and  fcsr == 0x0 and rm_val == 7  and rs1_sgn_prefix == 0x00000000
      and rs2_sgn_prefix == 0x00000000  #nosat'
    : 1
    ? 'fs1 == 0 and fe1 == 0xfe and fm1 == 0x0b4a10 and fs2 == 0 and fe2 == 0x9e and
      fm2 == 0x3c1678 and  fcsr == 0x0 and rm_val == 7  and rs1_sgn_prefix == 0x00000000
      and rs2_sgn_prefix == 0x00000000  #nosat'
    : 1
    ? 'fs1 == 0 and fe1 == 0xfb and fm1 == 0x02119e and fs2 == 0 and fe2 == 0xec and
      fm2 == 0x25b1fa and  fcsr == 0x0 and rm_val == 7  and rs1_sgn_prefix == 0x00000000
      and rs2_sgn_prefix == 0x00000000  #nosat'
    : 1
    ? 'fs1 == 0 and fe1 == 0xfc and fm1 == 0x025339 and fs2 == 0 and fe2 == 0xf9 and
      fm2 == 0x064930 and  fcsr == 0x0 and rm_val == 7  and rs1_sgn_prefix == 0x00000000
      and rs2_sgn_prefix == 0x00000000  #nosat'
    : 1
    ? 'fs1 == 0 and fe1 == 0xfe and fm1 == 0x2ee8de and fs2 == 0 and fe2 == 0xac and
      fm2 == 0x6b9400 and  fcsr == 0x0 and rm_val == 7  and rs1_sgn_prefix == 0x00000000
      and rs2_sgn_prefix == 0x00000000  #nosat'
    : 1
    ? 'fs1 == 0 and fe1 == 0xfc and fm1 == 0x238f3f and fs2 == 0 and fe2 == 0xfe and
      fm2 == 0x7fffff and  fcsr == 0x0 and rm_val == 7  and rs1_sgn_prefix == 0x00000000
      and rs2_sgn_prefix == 0x00000000  #nosat'
    : 1
    ? 'fs1 == 0 and fe1 == 0xfe and fm1 == 0x11c013 and fs2 == 1 and fe2 == 0xf2 and
      fm2 == 0x3d7983 and  fcsr == 0x0 and rm_val == 7  and rs1_sgn_prefix == 0x00000000
      and rs2_sgn_prefix == 0xffffffff  #nosat'
    : 1
    ? 'fs1 == 0 and fe1 == 0xfd and fm1 == 0x667aed and fs2 == 0 and fe2 == 0xe0 and
      fm2 == 0x0103f8 and  fcsr == 0x0 and rm_val == 7  and rs1_sgn_prefix == 0x00000000
      and rs2_sgn_prefix == 0x00000000  #nosat'
    : 1
    ? 'fs1 == 0 and fe1 == 0xfe and fm1 == 0x217f53 and fs2 == 0 and fe2 == 0xe3 and
      fm2 == 0x5d82bd and  fcsr == 0x0 and rm_val == 7  and rs1_sgn_prefix == 0x00000000
      and rs2_sgn_prefix == 0x00000000  #nosat'
    : 1
    ? 'fs1 == 0 and fe1 == 0xfd and fm1 == 0x0d5a7c and fs2 == 1 and fe2 == 0xfe and
      fm2 == 0x7fffff and  fcsr == 0x0 and rm_val == 7  and rs1_sgn_prefix == 0x00000000
      and rs2_sgn_prefix == 0xffffffff  #nosat'
    : 1
    ? 'fs1 == 0 and fe1 == 0xfd and fm1 == 0x02ab65 and fs2 == 1 and fe2 == 0xef and
      fm2 == 0x5dffc1 and  fcsr == 0x0 and rm_val == 7  and rs1_sgn_prefix == 0x00000000
      and rs2_sgn_prefix == 0xffffffff  #nosat'
    : 1
    ? 'fs1 == 0 and fe1 == 0xfc and fm1 == 0x5fa740 and fs2 == 0 and fe2 == 0x9f and
      fm2 == 0x3d6968 and  fcsr == 0x0 and rm_val == 7  and rs1_sgn_prefix == 0x00000000
      and rs2_sgn_prefix == 0x00000000  #nosat'
    : 1
    ? 'fs1 == 0 and fe1 == 0xfe and fm1 == 0x268b6a and fs2 == 1 and fe2 == 0xef and
      fm2 == 0x3935cd and  fcsr == 0x0 and rm_val == 7  and rs1_sgn_prefix == 0x00000000
      and rs2_sgn_prefix == 0xffffffff  #nosat'
    : 1
    ? 'fs1 == 0 and fe1 == 0xfd and fm1 == 0x67ede5 and fs2 == 1 and fe2 == 0xaa and
      fm2 == 0x7a8f9b and  fcsr == 0x0 and rm_val == 7  and rs1_sgn_prefix == 0x00000000
      and rs2_sgn_prefix == 0xffffffff  #nosat'
    : 1
    ? 'fs1 == 0 and fe1 == 0xfe and fm1 == 0x373a1e and fs2 == 1 and fe2 == 0xfe and
      fm2 == 0x7fffff and  fcsr == 0x0 and rm_val == 7  and rs1_sgn_prefix == 0x00000000
      and rs2_sgn_prefix == 0xffffffff  #nosat'
    : 1
    ? 'fs1 == 0 and fe1 == 0xfe and fm1 == 0x2a5ada and fs2 == 0 and fe2 == 0xd0 and
      fm2 == 0x2f4d13 and  fcsr == 0x0 and rm_val == 7  and rs1_sgn_prefix == 0x00000000
      and rs2_sgn_prefix == 0x00000000  #nosat'
    : 1
    ? 'fs1 == 0 and fe1 == 0xfb and fm1 == 0x4fe433 and fs2 == 0 and fe2 == 0x9c and
      fm2 == 0x3feae5 and  fcsr == 0x0 and rm_val == 7  and rs1_sgn_prefix == 0x00000000
      and rs2_sgn_prefix == 0x00000000  #nosat'
    : 1
    ? 'fs1 == 0 and fe1 == 0xfd and fm1 == 0x53a642 and fs2 == 1 and fe2 == 0xfe and
      fm2 == 0x7fffff and  fcsr == 0x0 and rm_val == 7  and rs1_sgn_prefix == 0x00000000
      and rs2_sgn_prefix == 0xffffffff  #nosat'
    : 1
    ? 'fs1 == 0 and fe1 == 0xfb and fm1 == 0x202a98 and fs2 == 0 and fe2 == 0xfe and
      fm2 == 0x7fffff and  fcsr == 0x0 and rm_val == 7  and rs1_sgn_prefix == 0x00000000
      and rs2_sgn_prefix == 0x00000000  #nosat'
    : 1
    ? 'fs1 == 0 and fe1 == 0xf9 and fm1 == 0x70766e and fs2 == 1 and fe2 == 0xfe and
      fm2 == 0x7fffff and  fcsr == 0x0 and rm_val == 7  and rs1_sgn_prefix == 0x00000000
      and rs2_sgn_prefix == 0xffffffff  #nosat'
    : 1
    ? 'fs1 == 0 and fe1 == 0xfa and fm1 == 0x60d9a4 and fs2 == 0 and fe2 == 0xfe and
      fm2 == 0x7fffff and  fcsr == 0x0 and rm_val == 7  and rs1_sgn_prefix == 0x00000000
      and rs2_sgn_prefix == 0x00000000  #nosat'
    : 1
    ? 'fs1 == 0 and fe1 == 0xfe and fm1 == 0x264de7 and fs2 == 0 and fe2 == 0xfe and
      fm2 == 0x7fffff and  fcsr == 0x0 and rm_val == 7  and rs1_sgn_prefix == 0x00000000
      and rs2_sgn_prefix == 0x00000000  #nosat'
    : 1
    ? 'fs1 == 0 and fe1 == 0xfe and fm1 == 0x17517f and fs2 == 1 and fe2 == 0xfe and
      fm2 == 0x7fffff and  fcsr == 0x0 and rm_val == 7  and rs1_sgn_prefix == 0x00000000
      and rs2_sgn_prefix == 0xffffffff  #nosat'
    : 1
    ? 'fs1 == 0 and fe1 == 0xfe and fm1 == 0x1f12b9 and fs2 == 1 and fe2 == 0xfe and
      fm2 == 0x7fffff and  fcsr == 0x0 and rm_val == 7  and rs1_sgn_prefix == 0x00000000
      and rs2_sgn_prefix == 0xffffffff  #nosat'
    : 1
    ? 'fs1 == 0 and fe1 == 0xfd and fm1 == 0x02e795 and fs2 == 1 and fe2 == 0xd6 and
      fm2 == 0x4dad56 and  fcsr == 0x0 and rm_val == 7  and rs1_sgn_prefix == 0x00000000
      and rs2_sgn_prefix == 0xffffffff  #nosat'
    : 1
    ? 'fs1 == 0 and fe1 == 0xfd and fm1 == 0x6c3b3e and fs2 == 1 and fe2 == 0xfe and
      fm2 == 0x7fffff and  fcsr == 0x0 and rm_val == 7  and rs1_sgn_prefix == 0x00000000
      and rs2_sgn_prefix == 0xffffffff  #nosat'
    : 1
    ? 'fs1 == 0 and fe1 == 0xfe and fm1 == 0x16201f and fs2 == 0 and fe2 == 0xfd and
      fm2 == 0x631e55 and  fcsr == 0x0 and rm_val == 7  and rs1_sgn_prefix == 0x00000000
      and rs2_sgn_prefix == 0x00000000  #nosat'
    : 1
    ? 'fs1 == 0 and fe1 == 0xfd and fm1 == 0x112ace and fs2 == 0 and fe2 == 0xfe and
      fm2 == 0x7fffff and  fcsr == 0x0 and rm_val == 7  and rs1_sgn_prefix == 0x00000000
      and rs2_sgn_prefix == 0x00000000  #nosat'
    : 1
    ? 'fs1 == 0 and fe1 == 0xfd and fm1 == 0x5b2e1a and fs2 == 0 and fe2 == 0xfe and
      fm2 == 0x7fffff and  fcsr == 0x0 and rm_val == 7  and rs1_sgn_prefix == 0x00000000
      and rs2_sgn_prefix == 0x00000000  #nosat'
    : 1
    ? 'fs1 == 0 and fe1 == 0xfc and fm1 == 0x2bcff9 and fs2 == 0 and fe2 == 0xfe and
      fm2 == 0x7fffff and  fcsr == 0x0 and rm_val == 7  and rs1_sgn_prefix == 0x00000000
      and rs2_sgn_prefix == 0x00000000  #nosat'
    : 1
    ? 'fs1 == 0 and fe1 == 0xfa and fm1 == 0x7b1d83 and fs2 == 1 and fe2 == 0xfe and
      fm2 == 0x7fffff and  fcsr == 0x0 and rm_val == 7  and rs1_sgn_prefix == 0x00000000
      and rs2_sgn_prefix == 0xffffffff  #nosat'
    : 1
    ? 'fs1 == 0 and fe1 == 0xfc and fm1 == 0x4cd7ff and fs2 == 1 and fe2 == 0xf8 and
      fm2 == 0x6ccaee and  fcsr == 0x0 and rm_val == 7  and rs1_sgn_prefix == 0x00000000
      and rs2_sgn_prefix == 0xffffffff  #nosat'
    : 1
    ? 'fs1 == 0 and fe1 == 0xfe and fm1 == 0x2b0708 and fs2 == 1 and fe2 == 0x86 and
      fm2 == 0x0d7389 and  fcsr == 0x0 and rm_val == 7  and rs1_sgn_prefix == 0x00000000
      and rs2_sgn_prefix == 0xffffffff  #nosat'
    : 1
    ? 'fs1 == 0 and fe1 == 0xfd and fm1 == 0x58bf61 and fs2 == 1 and fe2 == 0xab and
      fm2 == 0x17657f and  fcsr == 0x0 and rm_val == 7  and rs1_sgn_prefix == 0x00000000
      and rs2_sgn_prefix == 0xffffffff  #nosat'
    : 1
    ? 'fs1 == 0 and fe1 == 0xfe and fm1 == 0x319ce6 and fs2 == 0 and fe2 == 0xfe and
      fm2 == 0x7fffff and  fcsr == 0x0 and rm_val == 7  and rs1_sgn_prefix == 0x00000000
      and rs2_sgn_prefix == 0x00000000  #nosat'
    : 1
    ? 'fs1 == 0 and fe1 == 0xfd and fm1 == 0x2fc88c and fs2 == 0 and fe2 == 0xfe and
      fm2 == 0x7fffff and  fcsr == 0x0 and rm_val == 7  and rs1_sgn_prefix == 0x00000000
      and rs2_sgn_prefix == 0x00000000  #nosat'
    : 1
    coverage: 102/102
  total_coverage: 204/204
