---
fdiv_b7:
  config:
  - check ISA:=regex(.*I.*F.*)
  op_comb:
    rs1 != rs2  and rs1 != rd and rs2 != rd: 158
    rs1 == rd != rs2: 1
    rs1 == rs2 != rd: 1
    rs1 == rs2 == rd: 1
    rs2 == rd != rs1: 1
    coverage: 5/5
  opcode:
    fdiv.s: 162
    coverage: 1/1
  rd:
    f0: 1
    f1: 1
    f10: 1
    f11: 1
    f12: 1
    f13: 1
    f14: 1
    f15: 1
    f16: 1
    f17: 1
    f18: 1
    f19: 1
    f2: 1
    f20: 1
    f21: 1
    f22: 1
    f23: 1
    f24: 1
    f25: 1
    f26: 1
    f27: 1
    f28: 1
    f29: 1
    f3: 1
    f30: 1
    f31: 131
    f4: 1
    f5: 1
    f6: 1
    f7: 1
    f8: 1
    f9: 1
    coverage: 32/32
  rs1:
    f0: 1
    f1: 1
    f10: 1
    f11: 1
    f12: 1
    f13: 1
    f14: 1
    f15: 1
    f16: 1
    f17: 1
    f18: 1
    f19: 1
    f2: 1
    f20: 1
    f21: 1
    f22: 1
    f23: 1
    f24: 1
    f25: 1
    f26: 1
    f27: 1
    f28: 1
    f29: 1
    f3: 1
    f30: 131
    f31: 1
    f4: 1
    f5: 1
    f6: 1
    f7: 1
    f8: 1
    f9: 1
    coverage: 32/32
  rs2:
    f0: 1
    f1: 1
    f10: 1
    f11: 1
    f12: 1
    f13: 1
    f14: 1
    f15: 1
    f16: 1
    f17: 1
    f18: 1
    f19: 1
    f2: 1
    f20: 1
    f21: 1
    f22: 1
    f23: 1
    f24: 1
    f25: 1
    f26: 1
    f27: 1
    f28: 1
    f29: 131
    f3: 1
    f30: 1
    f31: 1
    f4: 1
    f5: 1
    f6: 1
    f7: 1
    f8: 1
    f9: 1
    coverage: 32/32
  val_comb:
    'fs1 == 0 and fe1 == 0xfc and fm1 == 0x36c1bf and fs2 == 0 and fe2 == 0xfe and fm2 == 0x7fffff and rm_val == 3  #nosat': 1  #  rs1_val==fnorm(0x7e36c1bf) and rs2_val==fmaxnorm(0x7f7fffff) | Mask on extra bits ---> 000000000000000000001
    'fs1 == 0 and fe1 == 0xfe and fm1 == 0x195c05 and fs2 == 0 and fe2 == 0xfe and fm2 == 0x7fffff and rm_val == 3  #nosat': 1 #  rs1_val==fnorm(0x7f195c05) and rs2_val==fmaxnorm(0x7f7fffff) | Mask on extra bits ---> 010000000000000000000
    'fs1 == 0 and fe1 == 0xfe and fm1 == 0x36dceb and fs2 == 0 and fe2 == 0xfe and fm2 == 0x7fffff and rm_val == 3  #nosat': 1 #  rs1_val==fnorm(0x7f36dceb) and rs2_val==fmaxnorm(0x7f7fffff) | Mask on extra bits ---> 001000000000000000000
    'fs1 == 0 and fe1 == 0xfe and fm1 == 0x015194 and fs2 == 0 and fe2 == 0xfe and fm2 == 0x7fffff and rm_val == 3  #nosat': 1 #  rs1_val==fnorm(0x7f015194) and rs2_val==fmaxnorm(0x7f7fffff) | Mask on extra bits ---> 000100000000000000000
    'fs1 == 0 and fe1 == 0xfb and fm1 == 0x3a4a99 and fs2 == 0 and fe2 == 0xfe and fm2 == 0x7fffff and rm_val == 3  #nosat': 1 #  rs1_val==fnorm(0x7dba4a99) and rs2_val==fmaxnorm(0x7f7fffff) | Mask on extra bits ---> 000010000000000000000
    'fs1 == 0 and fe1 == 0xf9 and fm1 == 0x104e6f and fs2 == 0 and fe2 == 0xfe and fm2 == 0x7fffff and rm_val == 3  #nosat': 1 #  rs1_val==fnorm(0x7c904e6f) and rs2_val==fmaxnorm(0x7f7fffff) | Mask on extra bits ---> 000001000000000000000
    'fs1 == 0 and fe1 == 0xfe and fm1 == 0x290cc1 and fs2 == 0 and fe2 == 0xfe and fm2 == 0x7fffff and rm_val == 3  #nosat': 1 #  rs1_val==fnorm(0x7f290cc1) and rs2_val==fmaxnorm(0x7f7fffff) | Mask on extra bits ---> 000000100000000000000
    'fs1 == 0 and fe1 == 0xfb and fm1 == 0x0d00c9 and fs2 == 0 and fe2 == 0xfe and fm2 == 0x7fffff and rm_val == 3  #nosat': 1 #  rs1_val==fnorm(0x7d8d00c9) and rs2_val==fmaxnorm(0x7f7fffff) | Mask on extra bits ---> 000000010000000000000
    'fs1 == 0 and fe1 == 0xfe and fm1 == 0x14aa96 and fs2 == 0 and fe2 == 0xfe and fm2 == 0x7fffff and rm_val == 3  #nosat': 1 #  rs1_val==fnorm(0x7f14aa96) and rs2_val==fmaxnorm(0x7f7fffff) | Mask on extra bits ---> 000000001000000000000
    'fs1 == 0 and fe1 == 0xf6 and fm1 == 0x70e85a and fs2 == 0 and fe2 == 0xfe and fm2 == 0x7fffff and rm_val == 3  #nosat': 1 #  rs1_val==fnorm(0x7b70e85a) and rs2_val==fmaxnorm(0x7f7fffff) | Mask on extra bits ---> 000000000100000000000
    'fs1 == 0 and fe1 == 0xfb and fm1 == 0x1e69a3 and fs2 == 0 and fe2 == 0xfe and fm2 == 0x7fffff and rm_val == 3  #nosat': 1 #  rs1_val==fnorm(0x7d9e69a3) and rs2_val==fmaxnorm(0x7f7fffff) | Mask on extra bits ---> 000000000010000000000
    'fs1 == 0 and fe1 == 0xfe and fm1 == 0x0ce08c and fs2 == 0 and fe2 == 0xfe and fm2 == 0x7fffff and rm_val == 3  #nosat': 1 #  rs1_val==fnorm(0x7f0ce08c) and rs2_val==fmaxnorm(0x7f7fffff) | Mask on extra bits ---> 000000000001000000000
    'fs1 == 0 and fe1 == 0xfe and fm1 == 0x182774 and fs2 == 0 and fe2 == 0xfe and fm2 == 0x7fffff and rm_val == 3  #nosat': 1 #  rs1_val==fnorm(0x7f182774) and rs2_val==fmaxnorm(0x7f7fffff) | Mask on extra bits ---> 000000000000100000000
    'fs1 == 0 and fe1 == 0xfd and fm1 == 0x7e51b6 and fs2 == 0 and fe2 == 0xfe and fm2 == 0x7fffff and rm_val == 3  #nosat': 1 #  rs1_val==fnorm(0x7efe51b6) and rs2_val==fmaxnorm(0x7f7fffff) | Mask on extra bits ---> 000000000000010000000
    'fs1 == 0 and fe1 == 0xfb and fm1 == 0x3d26fe and fs2 == 0 and fe2 == 0xfe and fm2 == 0x7fffff and rm_val == 3  #nosat': 1 #  rs1_val==fnorm(0x7dbd26fe) and rs2_val==fmaxnorm(0x7f7fffff) | Mask on extra bits ---> 000000000000001000000
    'fs1 == 0 and fe1 == 0xfc and fm1 == 0x495aa1 and fs2 == 0 and fe2 == 0xfe and fm2 == 0x7fffff and rm_val == 3  #nosat': 1 #  rs1_val==fnorm(0x7e495aa1) and rs2_val==fmaxnorm(0x7f7fffff) | Mask on extra bits ---> 000000000000000100000
    'fs1 == 0 and fe1 == 0xfe and fm1 == 0x2c6353 and fs2 == 0 and fe2 == 0xfe and fm2 == 0x7fffff and rm_val == 3  #nosat': 1 #  rs1_val==fnorm(0x7f2c6353) and rs2_val==fmaxnorm(0x7f7fffff) | Mask on extra bits ---> 000000000000000010000
    'fs1 == 0 and fe1 == 0xfe and fm1 == 0x33ce10 and fs2 == 0 and fe2 == 0xfe and fm2 == 0x7fffff and rm_val == 3  #nosat': 1 #  rs1_val==fnorm(0x7f33ce10) and rs2_val==fmaxnorm(0x7f7fffff) | Mask on extra bits ---> 000000000000000001000
    'fs1 == 0 and fe1 == 0xfd and fm1 == 0x238740 and fs2 == 0 and fe2 == 0xfe and fm2 == 0x7fffff and rm_val == 3  #nosat': 1 #  rs1_val==fnorm(0x7ea38740) and rs2_val==fmaxnorm(0x7f7fffff) | Mask on extra bits ---> 000000000000000000100
    'fs1 == 0 and fe1 == 0xfa and fm1 == 0x5be595 and fs2 == 0 and fe2 == 0xfe and fm2 == 0x7fffff and rm_val == 3  #nosat': 1 #  rs1_val==fnorm(0x7d5be595) and rs2_val==fmaxnorm(0x7f7fffff) | Mask on extra bits ---> 000000000000000000010
    'fs1 == 0 and fe1 == 0xfd and fm1 == 0x4dc2f4 and fs2 == 0 and fe2 == 0xfe and fm2 == 0x7fffff and rm_val == 3  #nosat': 1 #  rs1_val==fnorm(0x7ecdc2f4) and rs2_val==fmaxnorm(0x7f7fffff) | Mask on extra bits ---> 000000000000000000001
    'fs1 == 0 and fe1 == 0xfd and fm1 == 0x30f667 and fs2 == 0 and fe2 == 0xd2 and fm2 == 0x30f667 and rm_val == 3  #nosat': 1 #  rs1_val==fnorm(0x7eb0f667) and rs2_val==fnorm(0x6930f667) | Mask on extra bits ---> 010000000000000000000
    'fs1 == 0 and fe1 == 0xfd and fm1 == 0x217a32 and fs2 == 0 and fe2 == 0xd2 and fm2 == 0x217a32 and rm_val == 3  #nosat': 1 #  rs1_val==fnorm(0x7ea17a32) and rs2_val==fnorm(0x69217a32) | Mask on extra bits ---> 001000000000000000000
    'fs1 == 0 and fe1 == 0xfd and fm1 == 0x3e85af and fs2 == 0 and fe2 == 0xd2 and fm2 == 0x3e85af and rm_val == 3  #nosat': 1 #  rs1_val==fnorm(0x7ebe85af) and rs2_val==fnorm(0x693e85af) | Mask on extra bits ---> 000100000000000000000
    'fs1 == 0 and fe1 == 0xfd and fm1 == 0x25bb60 and fs2 == 0 and fe2 == 0xd2 and fm2 == 0x25bb5f and rm_val == 3  #nosat': 1 #  rs1_val==fnorm(0x7ea5bb60) and rs2_val==fnorm(0x6925bb5f) | Mask on extra bits ---> 000010000000000000000
    'fs1 == 0 and fe1 == 0xfe and fm1 == 0x19d2a8 and fs2 == 0 and fe2 == 0xd3 and fm2 == 0x19d2a8 and rm_val == 3  #nosat': 1 #  rs1_val==fnorm(0x7f19d2a8) and rs2_val==fnorm(0x6999d2a8) | Mask on extra bits ---> 000001000000000000000
    'fs1 == 0 and fe1 == 0xfe and fm1 == 0x16436d and fs2 == 0 and fe2 == 0xd3 and fm2 == 0x16436d and rm_val == 3  #nosat': 1 #  rs1_val==fnorm(0x7f16436d) and rs2_val==fnorm(0x6996436d) | Mask on extra bits ---> 000000100000000000000
    'fs1 == 0 and fe1 == 0xfd and fm1 == 0x0f5661 and fs2 == 0 and fe2 == 0xd2 and fm2 == 0x0f5661 and rm_val == 3  #nosat': 1 #  rs1_val==fnorm(0x7e8f5661) and rs2_val==fnorm(0x690f5661) | Mask on extra bits ---> 000000010000000000000
    'fs1 == 0 and fe1 == 0xfa and fm1 == 0x7574e1 and fs2 == 0 and fe2 == 0xcf and fm2 == 0x7574e1 and rm_val == 3  #nosat': 1 #  rs1_val==fnorm(0x7d7574e1) and rs2_val==fnorm(0x67f574e1) | Mask on extra bits ---> 000000001000000000000
    'fs1 == 0 and fe1 == 0xfe and fm1 == 0x097aef and fs2 == 0 and fe2 == 0xd3 and fm2 == 0x097aef and rm_val == 3  #nosat': 1 #  rs1_val==fnorm(0x7f097aef) and rs2_val==fnorm(0x69897aef) | Mask on extra bits ---> 000000000100000000000
    'fs1 == 0 and fe1 == 0xfb and fm1 == 0x3e1674 and fs2 == 0 and fe2 == 0xd0 and fm2 == 0x3e1673 and rm_val == 3  #nosat': 1 #  rs1_val==fnorm(0x7dbe1674) and rs2_val==fnorm(0x683e1673) | Mask on extra bits ---> 000000000010000000000
    'fs1 == 0 and fe1 == 0xfc and fm1 == 0x12c03f and fs2 == 0 and fe2 == 0xd1 and fm2 == 0x12c03f and rm_val == 3  #nosat': 1 #  rs1_val==fnorm(0x7e12c03f) and rs2_val==fnorm(0x6892c03f) | Mask on extra bits ---> 000000000001000000000
    'fs1 == 0 and fe1 == 0xfd and fm1 == 0x614269 and fs2 == 0 and fe2 == 0xd2 and fm2 == 0x614269 and rm_val == 3  #nosat': 1 #  rs1_val==fnorm(0x7ee14269) and rs2_val==fnorm(0x69614269) | Mask on extra bits ---> 000000000000100000000
    'fs1 == 0 and fe1 == 0xfd and fm1 == 0x06e52a and fs2 == 0 and fe2 == 0xd2 and fm2 == 0x06e52a and rm_val == 3  #nosat': 1 #  rs1_val==fnorm(0x7e86e52a) and rs2_val==fnorm(0x6906e52a) | Mask on extra bits ---> 000000000000010000000
    'fs1 == 0 and fe1 == 0xfc and fm1 == 0x729bb9 and fs2 == 0 and fe2 == 0xd1 and fm2 == 0x729bb9 and rm_val == 3  #nosat': 1 #  rs1_val==fnorm(0x7e729bb9) and rs2_val==fnorm(0x68f29bb9) | Mask on extra bits ---> 000000000000001000000
    'fs1 == 0 and fe1 == 0xfb and fm1 == 0x044ae8 and fs2 == 0 and fe2 == 0xd0 and fm2 == 0x044ae8 and rm_val == 3  #nosat': 1 #  rs1_val==fnorm(0x7d844ae8) and rs2_val==fnorm(0x68044ae8) | Mask on extra bits ---> 000000000000000100000
    'fs1 == 0 and fe1 == 0xfe and fm1 == 0x3b2415 and fs2 == 0 and fe2 == 0xd3 and fm2 == 0x3b2415 and rm_val == 3  #nosat': 1 #  rs1_val==fnorm(0x7f3b2415) and rs2_val==fnorm(0x69bb2415) | Mask on extra bits ---> 000000000000000010000
    'fs1 == 0 and fe1 == 0xfb and fm1 == 0x3f6d07 and fs2 == 0 and fe2 == 0xd0 and fm2 == 0x3f6d06 and rm_val == 3  #nosat': 1 #  rs1_val==fnorm(0x7dbf6d07) and rs2_val==fnorm(0x683f6d06) | Mask on extra bits ---> 000000000000000001000
    'fs1 == 0 and fe1 == 0xfa and fm1 == 0x2872e3 and fs2 == 0 and fe2 == 0xcf and fm2 == 0x2872e3 and rm_val == 3  #nosat': 1 #  rs1_val==fnorm(0x7d2872e3) and rs2_val==fnorm(0x67a872e3) | Mask on extra bits ---> 000000000000000000100
    'fs1 == 0 and fe1 == 0xfe and fm1 == 0x151669 and fs2 == 0 and fe2 == 0xd3 and fm2 == 0x151669 and rm_val == 3  #nosat': 1 #  rs1_val==fnorm(0x7f151669) and rs2_val==fnorm(0x69951669) | Mask on extra bits ---> 000000000000000000010
    'fs1 == 0 and fe1 == 0xfd and fm1 == 0x226d04 and fs2 == 0 and fe2 == 0xd2 and fm2 == 0x226d04 and rm_val == 3  #nosat': 1 #  rs1_val==fnorm(0x7ea26d04) and rs2_val==fnorm(0x69226d04) | Mask on extra bits ---> 000000000000000000001
    'fs1 == 0 and fe1 == 0xfc and fm1 == 0x4e462d and fs2 == 0 and fe2 == 0xfe and fm2 == 0x7fffff and rm_val == 3  #nosat': 1 #  rs1_val==fnorm(0x7e4e462d) and rs2_val==fmaxnorm(0x7f7fffff) | Mask on extra bits ---> 010000000000000000000
    'fs1 == 0 and fe1 == 0xfa and fm1 == 0x196401 and fs2 == 0 and fe2 == 0xfe and fm2 == 0x7fffff and rm_val == 3  #nosat': 1 #  rs1_val==fnorm(0x7d196401) and rs2_val==fmaxnorm(0x7f7fffff) | Mask on extra bits ---> 001000000000000000000
    'fs1 == 0 and fe1 == 0xfd and fm1 == 0x716299 and fs2 == 0 and fe2 == 0xfe and fm2 == 0x7fffff and rm_val == 3  #nosat': 1 #  rs1_val==fnorm(0x7ef16299) and rs2_val==fmaxnorm(0x7f7fffff) | Mask on extra bits ---> 000100000000000000000
    'fs1 == 0 and fe1 == 0xfe and fm1 == 0x1e1c9c and fs2 == 0 and fe2 == 0xfe and fm2 == 0x7fffff and rm_val == 3  #nosat': 1 #  rs1_val==fnorm(0x7f1e1c9c) and rs2_val==fmaxnorm(0x7f7fffff) | Mask on extra bits ---> 000010000000000000000
    'fs1 == 0 and fe1 == 0xfe and fm1 == 0x30faaa and fs2 == 0 and fe2 == 0xfe and fm2 == 0x7fffff and rm_val == 3  #nosat': 1 #  rs1_val==fnorm(0x7f30faaa) and rs2_val==fmaxnorm(0x7f7fffff) | Mask on extra bits ---> 000001000000000000000
    'fs1 == 0 and fe1 == 0xfc and fm1 == 0x038f64 and fs2 == 0 and fe2 == 0xfe and fm2 == 0x7fffff and rm_val == 3  #nosat': 1 #  rs1_val==fnorm(0x7e038f64) and rs2_val==fmaxnorm(0x7f7fffff) | Mask on extra bits ---> 000000100000000000000
    'fs1 == 0 and fe1 == 0xfd and fm1 == 0x4d4cf5 and fs2 == 0 and fe2 == 0xfe and fm2 == 0x7fffff and rm_val == 3  #nosat': 1 #  rs1_val==fnorm(0x7ecd4cf5) and rs2_val==fmaxnorm(0x7f7fffff) | Mask on extra bits ---> 000000010000000000000
    'fs1 == 0 and fe1 == 0xfd and fm1 == 0x071b70 and fs2 == 0 and fe2 == 0xfe and fm2 == 0x7fffff and rm_val == 3  #nosat': 1 #  rs1_val==fnorm(0x7e871b70) and rs2_val==fmaxnorm(0x7f7fffff) | Mask on extra bits ---> 000000001000000000000
    'fs1 == 0 and fe1 == 0xfd and fm1 == 0x373e6b and fs2 == 0 and fe2 == 0xfe and fm2 == 0x7fffff and rm_val == 3  #nosat': 1 #  rs1_val==fnorm(0x7eb73e6b) and rs2_val==fmaxnorm(0x7f7fffff) | Mask on extra bits ---> 000000000100000000000
    'fs1 == 0 and fe1 == 0xfc and fm1 == 0x41e692 and fs2 == 0 and fe2 == 0xfe and fm2 == 0x7fffff and rm_val == 3  #nosat': 1 #  rs1_val==fnorm(0x7e41e692) and rs2_val==fmaxnorm(0x7f7fffff) | Mask on extra bits ---> 000000000010000000000
    'fs1 == 0 and fe1 == 0xfd and fm1 == 0x6b1228 and fs2 == 0 and fe2 == 0xfe and fm2 == 0x7fffff and rm_val == 3  #nosat': 1 #  rs1_val==fnorm(0x7eeb1228) and rs2_val==fmaxnorm(0x7f7fffff) | Mask on extra bits ---> 000000000001000000000
    'fs1 == 0 and fe1 == 0xfd and fm1 == 0x1ee152 and fs2 == 0 and fe2 == 0xfe and fm2 == 0x7fffff and rm_val == 3  #nosat': 1 #  rs1_val==fnorm(0x7e9ee152) and rs2_val==fmaxnorm(0x7f7fffff) | Mask on extra bits ---> 000000000000100000000
    'fs1 == 0 and fe1 == 0xfd and fm1 == 0x7e8d56 and fs2 == 0 and fe2 == 0xfe and fm2 == 0x7fffff and rm_val == 3  #nosat': 1 #  rs1_val==fnorm(0x7efe8d56) and rs2_val==fmaxnorm(0x7f7fffff) | Mask on extra bits ---> 000000000000010000000
    'fs1 == 0 and fe1 == 0xfc and fm1 == 0x03f57f and fs2 == 0 and fe2 == 0xfe and fm2 == 0x7fffff and rm_val == 3  #nosat': 1 #  rs1_val==fnorm(0x7e03f57f) and rs2_val==fmaxnorm(0x7f7fffff) | Mask on extra bits ---> 000000000000001000000
    'fs1 == 0 and fe1 == 0xf8 and fm1 == 0x218502 and fs2 == 0 and fe2 == 0xfe and fm2 == 0x7fffff and rm_val == 3  #nosat': 1 #  rs1_val==fnorm(0x7c218502) and rs2_val==fmaxnorm(0x7f7fffff) | Mask on extra bits ---> 000000000000000100000
    'fs1 == 0 and fe1 == 0xfe and fm1 == 0x2cbcd0 and fs2 == 0 and fe2 == 0xfe and fm2 == 0x7fffff and rm_val == 3  #nosat': 1 #  rs1_val==fnorm(0x7f2cbcd0) and rs2_val==fmaxnorm(0x7f7fffff) | Mask on extra bits ---> 000000000000000010000
    'fs1 == 0 and fe1 == 0xfe and fm1 == 0x31614f and fs2 == 0 and fe2 == 0xfe and fm2 == 0x7fffff and rm_val == 3  #nosat': 1 #  rs1_val==fnorm(0x7f31614f) and rs2_val==fmaxnorm(0x7f7fffff) | Mask on extra bits ---> 000000000000000001000
    'fs1 == 0 and fe1 == 0xfe and fm1 == 0x2d7e33 and fs2 == 0 and fe2 == 0xfe and fm2 == 0x7fffff and rm_val == 3  #nosat': 1 #  rs1_val==fnorm(0x7f2d7e33) and rs2_val==fmaxnorm(0x7f7fffff) | Mask on extra bits ---> 000000000000000000100
    'fs1 == 0 and fe1 == 0xfe and fm1 == 0x1b8e8c and fs2 == 0 and fe2 == 0xfe and fm2 == 0x7fffff and rm_val == 3  #nosat': 1 #  rs1_val==fnorm(0x7f1b8e8c) and rs2_val==fmaxnorm(0x7f7fffff) | Mask on extra bits ---> 000000000000000000010
    'fs1 == 0 and fe1 == 0xfd and fm1 == 0x620d5f and fs2 == 0 and fe2 == 0xfe and fm2 == 0x7fffff and rm_val == 3  #nosat': 1 #  rs1_val==fnorm(0x7ee20d5f) and rs2_val==fmaxnorm(0x7f7fffff) | Mask on extra bits ---> 000000000000000000001
    'fs1 == 0 and fe1 == 0xfc and fm1 == 0x2eb1b3 and fs2 == 0 and fe2 == 0xfe and fm2 == 0x7fffff and rm_val == 3  #nosat': 1 #  rs1_val==fnorm(0x7e2eb1b3) and rs2_val==fmaxnorm(0x7f7fffff) | Mask on extra bits ---> 010000000000000000000
    'fs1 == 0 and fe1 == 0xfc and fm1 == 0x5dfbef and fs2 == 0 and fe2 == 0xfe and fm2 == 0x7fffff and rm_val == 3  #nosat': 1 #  rs1_val==fnorm(0x7e5dfbef) and rs2_val==fmaxnorm(0x7f7fffff) | Mask on extra bits ---> 001000000000000000000
    'fs1 == 0 and fe1 == 0xfd and fm1 == 0x7e964a and fs2 == 0 and fe2 == 0xfe and fm2 == 0x7fffff and rm_val == 3  #nosat': 1 #  rs1_val==fnorm(0x7efe964a) and rs2_val==fmaxnorm(0x7f7fffff) | Mask on extra bits ---> 000100000000000000000
    'fs1 == 0 and fe1 == 0xfe and fm1 == 0x0f23f2 and fs2 == 0 and fe2 == 0xfe and fm2 == 0x7fffff and rm_val == 3  #nosat': 1 #  rs1_val==fnorm(0x7f0f23f2) and rs2_val==fmaxnorm(0x7f7fffff) | Mask on extra bits ---> 000010000000000000000
    'fs1 == 0 and fe1 == 0xfe and fm1 == 0x320e71 and fs2 == 0 and fe2 == 0xfe and fm2 == 0x7fffff and rm_val == 3  #nosat': 1 #  rs1_val==fnorm(0x7f320e71) and rs2_val==fmaxnorm(0x7f7fffff) | Mask on extra bits ---> 000001000000000000000
    'fs1 == 0 and fe1 == 0xfd and fm1 == 0x26ca91 and fs2 == 0 and fe2 == 0xfe and fm2 == 0x7fffff and rm_val == 3  #nosat': 1 #  rs1_val==fnorm(0x7ea6ca91) and rs2_val==fmaxnorm(0x7f7fffff) | Mask on extra bits ---> 000000100000000000000
    'fs1 == 0 and fe1 == 0xfe and fm1 == 0x28f4b0 and fs2 == 0 and fe2 == 0xfe and fm2 == 0x7fffff and rm_val == 3  #nosat': 1 #  rs1_val==fnorm(0x7f28f4b0) and rs2_val==fmaxnorm(0x7f7fffff) | Mask on extra bits ---> 000000010000000000000
    'fs1 == 0 and fe1 == 0xf6 and fm1 == 0x6522f2 and fs2 == 0 and fe2 == 0xfe and fm2 == 0x7fffff and rm_val == 3  #nosat': 1 #  rs1_val==fnorm(0x7b6522f2) and rs2_val==fmaxnorm(0x7f7fffff) | Mask on extra bits ---> 000000001000000000000
    'fs1 == 0 and fe1 == 0xfe and fm1 == 0x30c1f0 and fs2 == 0 and fe2 == 0xfe and fm2 == 0x7fffff and rm_val == 3  #nosat': 1 #  rs1_val==fnorm(0x7f30c1f0) and rs2_val==fmaxnorm(0x7f7fffff) | Mask on extra bits ---> 000000000100000000000
    'fs1 == 0 and fe1 == 0xfd and fm1 == 0x21312f and fs2 == 0 and fe2 == 0xfe and fm2 == 0x7fffff and rm_val == 3  #nosat': 1 #  rs1_val==fnorm(0x7ea1312f) and rs2_val==fmaxnorm(0x7f7fffff) | Mask on extra bits ---> 000000000010000000000
    'fs1 == 0 and fe1 == 0xfd and fm1 == 0x050002 and fs2 == 0 and fe2 == 0xfe and fm2 == 0x7fffff and rm_val == 3  #nosat': 1 #  rs1_val==fnorm(0x7e850002) and rs2_val==fmaxnorm(0x7f7fffff) | Mask on extra bits ---> 000000000001000000000
    'fs1 == 0 and fe1 == 0xfe and fm1 == 0x186be6 and fs2 == 0 and fe2 == 0xfe and fm2 == 0x7fffff and rm_val == 3  #nosat': 1 #  rs1_val==fnorm(0x7f186be6) and rs2_val==fmaxnorm(0x7f7fffff) | Mask on extra bits ---> 000000000000100000000
    'fs1 == 0 and fe1 == 0xfb and fm1 == 0x4733d7 and fs2 == 0 and fe2 == 0xfe and fm2 == 0x7fffff and rm_val == 3  #nosat': 1 #  rs1_val==fnorm(0x7dc733d7) and rs2_val==fmaxnorm(0x7f7fffff) | Mask on extra bits ---> 000000000000010000000
    'fs1 == 0 and fe1 == 0xfe and fm1 == 0x1acd2f and fs2 == 0 and fe2 == 0xfe and fm2 == 0x7fffff and rm_val == 3  #nosat': 1 #  rs1_val==fnorm(0x7f1acd2f) and rs2_val==fmaxnorm(0x7f7fffff) | Mask on extra bits ---> 000000000000001000000
    'fs1 == 0 and fe1 == 0xfe and fm1 == 0x1afcca and fs2 == 0 and fe2 == 0xfe and fm2 == 0x7fffff and rm_val == 3  #nosat': 1 #  rs1_val==fnorm(0x7f1afcca) and rs2_val==fmaxnorm(0x7f7fffff) | Mask on extra bits ---> 000000000000000100000
    'fs1 == 0 and fe1 == 0xfc and fm1 == 0x0cfe89 and fs2 == 0 and fe2 == 0xfe and fm2 == 0x7fffff and rm_val == 3  #nosat': 1 #  rs1_val==fnorm(0x7e0cfe89) and rs2_val==fmaxnorm(0x7f7fffff) | Mask on extra bits ---> 000000000000000010000
    'fs1 == 0 and fe1 == 0xfe and fm1 == 0x1ae6b6 and fs2 == 0 and fe2 == 0xfe and fm2 == 0x7fffff and rm_val == 3  #nosat': 1 #  rs1_val==fnorm(0x7f1ae6b6) and rs2_val==fmaxnorm(0x7f7fffff) | Mask on extra bits ---> 000000000000000001000
    'fs1 == 0 and fe1 == 0xfd and fm1 == 0x4b6083 and fs2 == 0 and fe2 == 0xfe and fm2 == 0x7fffff and rm_val == 3  #nosat': 1 #  rs1_val==fnorm(0x7ecb6083) and rs2_val==fmaxnorm(0x7f7fffff) | Mask on extra bits ---> 000000000000000000100
    'fs1 == 0 and fe1 == 0xfc and fm1 == 0x2cd245 and fs2 == 0 and fe2 == 0xfe and fm2 == 0x7fffff and rm_val == 3  #nosat': 1 #  rs1_val==fnorm(0x7e2cd245) and rs2_val==fmaxnorm(0x7f7fffff) | Mask on extra bits ---> 000000000000000000010
    'fs1 == 0 and fe1 == 0xfe and fm1 == 0x29e684 and fs2 == 0 and fe2 == 0xfe and fm2 == 0x7fffff and rm_val == 3  #nosat': 1 #  rs1_val==fnorm(0x7f29e684) and rs2_val==fmaxnorm(0x7f7fffff) | Mask on extra bits ---> 000000000000000000001
    'fs1 == 0 and fe1 == 0xfd and fm1 == 0x014bf6 and fs2 == 0 and fe2 == 0xfe and fm2 == 0x7fffff and rm_val == 3  #nosat': 1 #  rs1_val==fnorm(0x7e814bf6) and rs2_val==fmaxnorm(0x7f7fffff) | Mask on extra bits ---> 010000000000000000000
    'fs1 == 0 and fe1 == 0xfe and fm1 == 0x244343 and fs2 == 0 and fe2 == 0xfe and fm2 == 0x7fffff and rm_val == 3  #nosat': 1 #  rs1_val==fnorm(0x7f244343) and rs2_val==fmaxnorm(0x7f7fffff) | Mask on extra bits ---> 001000000000000000000
    'fs1 == 0 and fe1 == 0xfe and fm1 == 0x200a1a and fs2 == 0 and fe2 == 0xfe and fm2 == 0x7fffff and rm_val == 3  #nosat': 1 #  rs1_val==fnorm(0x7f200a1a) and rs2_val==fmaxnorm(0x7f7fffff) | Mask on extra bits ---> 000100000000000000000
    'fs1 == 0 and fe1 == 0xfc and fm1 == 0x774515 and fs2 == 0 and fe2 == 0xfe and fm2 == 0x7fffff and rm_val == 3  #nosat': 1 #  rs1_val==fnorm(0x7e774515) and rs2_val==fmaxnorm(0x7f7fffff) | Mask on extra bits ---> 000010000000000000000
    'fs1 == 0 and fe1 == 0xfe and fm1 == 0x06075b and fs2 == 0 and fe2 == 0xfe and fm2 == 0x7fffff and rm_val == 3  #nosat': 1 #  rs1_val==fnorm(0x7f06075b) and rs2_val==fmaxnorm(0x7f7fffff) | Mask on extra bits ---> 000001000000000000000
    'fs1 == 0 and fe1 == 0xfc and fm1 == 0x0feb39 and fs2 == 0 and fe2 == 0xfe and fm2 == 0x7fffff and rm_val == 3  #nosat': 1 #  rs1_val==fnorm(0x7e0feb39) and rs2_val==fmaxnorm(0x7f7fffff) | Mask on extra bits ---> 000000100000000000000
    'fs1 == 0 and fe1 == 0xfe and fm1 == 0x1a54c0 and fs2 == 0 and fe2 == 0xfe and fm2 == 0x7fffff and rm_val == 3  #nosat': 1 #  rs1_val==fnorm(0x7f1a54c0) and rs2_val==fmaxnorm(0x7f7fffff) | Mask on extra bits ---> 000000010000000000000
    'fs1 == 0 and fe1 == 0xfc and fm1 == 0x6e17c2 and fs2 == 0 and fe2 == 0xfe and fm2 == 0x7fffff and rm_val == 3  #nosat': 1 #  rs1_val==fnorm(0x7e6e17c2) and rs2_val==fmaxnorm(0x7f7fffff) | Mask on extra bits ---> 000000001000000000000
    'fs1 == 0 and fe1 == 0xfd and fm1 == 0x5a9856 and fs2 == 0 and fe2 == 0xfe and fm2 == 0x7fffff and rm_val == 3  #nosat': 1 #  rs1_val==fnorm(0x7eda9856) and rs2_val==fmaxnorm(0x7f7fffff) | Mask on extra bits ---> 000000000100000000000
    'fs1 == 0 and fe1 == 0xfe and fm1 == 0x1446c8 and fs2 == 0 and fe2 == 0xfe and fm2 == 0x7fffff and rm_val == 3  #nosat': 1 #  rs1_val==fnorm(0x7f1446c8) and rs2_val==fmaxnorm(0x7f7fffff) | Mask on extra bits ---> 000000000010000000000
    'fs1 == 0 and fe1 == 0xfc and fm1 == 0x66b5d2 and fs2 == 0 and fe2 == 0xfe and fm2 == 0x7fffff and rm_val == 3  #nosat': 1 #  rs1_val==fnorm(0x7e66b5d2) and rs2_val==fmaxnorm(0x7f7fffff) | Mask on extra bits ---> 000000000001000000000
    'fs1 == 0 and fe1 == 0xfd and fm1 == 0x0dc14f and fs2 == 0 and fe2 == 0xfe and fm2 == 0x7fffff and rm_val == 3  #nosat': 1 #  rs1_val==fnorm(0x7e8dc14f) and rs2_val==fmaxnorm(0x7f7fffff) | Mask on extra bits ---> 000000000000100000000
    'fs1 == 0 and fe1 == 0xfd and fm1 == 0x0bc23d and fs2 == 0 and fe2 == 0xfe and fm2 == 0x7fffff and rm_val == 3  #nosat': 1 #  rs1_val==fnorm(0x7e8bc23d) and rs2_val==fmaxnorm(0x7f7fffff) | Mask on extra bits ---> 000000000000010000000
    'fs1 == 0 and fe1 == 0xfd and fm1 == 0x639603 and fs2 == 0 and fe2 == 0xfe and fm2 == 0x7fffff and rm_val == 3  #nosat': 1 #  rs1_val==fnorm(0x7ee39603) and rs2_val==fmaxnorm(0x7f7fffff) | Mask on extra bits ---> 000000000000001000000
    'fs1 == 0 and fe1 == 0xfc and fm1 == 0x40dca5 and fs2 == 0 and fe2 == 0xfe and fm2 == 0x7fffff and rm_val == 3  #nosat': 1 #  rs1_val==fnorm(0x7e40dca5) and rs2_val==fmaxnorm(0x7f7fffff) | Mask on extra bits ---> 000000000000000100000
    'fs1 == 0 and fe1 == 0xfe and fm1 == 0x01cbbf and fs2 == 0 and fe2 == 0xfe and fm2 == 0x7fffff and rm_val == 3  #nosat': 1 #  rs1_val==fnorm(0x7f01cbbf) and rs2_val==fmaxnorm(0x7f7fffff) | Mask on extra bits ---> 000000000000000010000
    'fs1 == 0 and fe1 == 0xf9 and fm1 == 0x084a01 and fs2 == 0 and fe2 == 0xfe and fm2 == 0x7fffff and rm_val == 3  #nosat': 1 #  rs1_val==fnorm(0x7c884a01) and rs2_val==fmaxnorm(0x7f7fffff) | Mask on extra bits ---> 000000000000000001000
    'fs1 == 0 and fe1 == 0xfe and fm1 == 0x07bc04 and fs2 == 0 and fe2 == 0xfe and fm2 == 0x7fffff and rm_val == 3  #nosat': 1 #  rs1_val==fnorm(0x7f07bc04) and rs2_val==fmaxnorm(0x7f7fffff) | Mask on extra bits ---> 000000000000000000100
    'fs1 == 0 and fe1 == 0xfe and fm1 == 0x026c09 and fs2 == 0 and fe2 == 0xfe and fm2 == 0x7fffff and rm_val == 3  #nosat': 1 #  rs1_val==fnorm(0x7f026c09) and rs2_val==fmaxnorm(0x7f7fffff) | Mask on extra bits ---> 000000000000000000010
    'fs1 == 0 and fe1 == 0xfd and fm1 == 0x70e623 and fs2 == 0 and fe2 == 0xfe and fm2 == 0x7fffff and rm_val == 3  #nosat': 1 #  rs1_val==fnorm(0x7ef0e623) and rs2_val==fmaxnorm(0x7f7fffff) | Mask on extra bits ---> 000000000000000000001
    'fs1 == 0 and fe1 == 0xfd and fm1 == 0x72c1df and fs2 == 0 and fe2 == 0xfe and fm2 == 0x7fffff and rm_val == 3  #nosat': 1 #  rs1_val==fnorm(0x7ef2c1df) and rs2_val==fmaxnorm(0x7f7fffff) | Mask on extra bits ---> 010000000000000000000
    'fs1 == 0 and fe1 == 0xf8 and fm1 == 0x7668ef and fs2 == 0 and fe2 == 0xfe and fm2 == 0x7fffff and rm_val == 3  #nosat': 1 #  rs1_val==fnorm(0x7c7668ef) and rs2_val==fmaxnorm(0x7f7fffff) | Mask on extra bits ---> 001000000000000000000
    'fs1 == 0 and fe1 == 0xfd and fm1 == 0x1f70d6 and fs2 == 0 and fe2 == 0xfe and fm2 == 0x7fffff and rm_val == 3  #nosat': 1 #  rs1_val==fnorm(0x7e9f70d6) and rs2_val==fmaxnorm(0x7f7fffff) | Mask on extra bits ---> 000100000000000000000
    'fs1 == 0 and fe1 == 0xfd and fm1 == 0x5298e8 and fs2 == 0 and fe2 == 0xfe and fm2 == 0x7fffff and rm_val == 3  #nosat': 1 #  rs1_val==fnorm(0x7ed298e8) and rs2_val==fmaxnorm(0x7f7fffff) | Mask on extra bits ---> 000010000000000000000
    'fs1 == 0 and fe1 == 0xfe and fm1 == 0x3bbcb1 and fs2 == 0 and fe2 == 0xfe and fm2 == 0x7fffff and rm_val == 3  #nosat': 1 #  rs1_val==fnorm(0x7f3bbcb1) and rs2_val==fmaxnorm(0x7f7fffff) | Mask on extra bits ---> 000001000000000000000
    'fs1 == 0 and fe1 == 0xfc and fm1 == 0x36810f and fs2 == 0 and fe2 == 0xfe and fm2 == 0x7fffff and rm_val == 3  #nosat': 1 #  rs1_val==fnorm(0x7e36810f) and rs2_val==fmaxnorm(0x7f7fffff) | Mask on extra bits ---> 000000100000000000000
    'fs1 == 0 and fe1 == 0xfd and fm1 == 0x2593da and fs2 == 0 and fe2 == 0xfe and fm2 == 0x7fffff and rm_val == 3  #nosat': 1 #  rs1_val==fnorm(0x7ea593da) and rs2_val==fmaxnorm(0x7f7fffff) | Mask on extra bits ---> 000000010000000000000
    'fs1 == 0 and fe1 == 0xfe and fm1 == 0x34996a and fs2 == 0 and fe2 == 0xfe and fm2 == 0x7fffff and rm_val == 3  #nosat': 1 #  rs1_val==fnorm(0x7f34996a) and rs2_val==fmaxnorm(0x7f7fffff) | Mask on extra bits ---> 000000001000000000000
    'fs1 == 0 and fe1 == 0xfd and fm1 == 0x56c198 and fs2 == 0 and fe2 == 0xfe and fm2 == 0x7fffff and rm_val == 3  #nosat': 1 #  rs1_val==fnorm(0x7ed6c198) and rs2_val==fmaxnorm(0x7f7fffff) | Mask on extra bits ---> 000000000100000000000
    'fs1 == 0 and fe1 == 0xfd and fm1 == 0x7740d5 and fs2 == 0 and fe2 == 0xfe and fm2 == 0x7fffff and rm_val == 3  #nosat': 1 #  rs1_val==fnorm(0x7ef740d5) and rs2_val==fmaxnorm(0x7f7fffff) | Mask on extra bits ---> 000000000010000000000
    'fs1 == 0 and fe1 == 0xfd and fm1 == 0x30cc1b and fs2 == 0 and fe2 == 0xfe and fm2 == 0x7fffff and rm_val == 3  #nosat': 1 #  rs1_val==fnorm(0x7eb0cc1b) and rs2_val==fmaxnorm(0x7f7fffff) | Mask on extra bits ---> 000000000001000000000
    'fs1 == 0 and fe1 == 0xfe and fm1 == 0x2c289c and fs2 == 0 and fe2 == 0xfe and fm2 == 0x7fffff and rm_val == 3  #nosat': 1 #  rs1_val==fnorm(0x7f2c289c) and rs2_val==fmaxnorm(0x7f7fffff) | Mask on extra bits ---> 000000000000100000000
    'fs1 == 0 and fe1 == 0xfc and fm1 == 0x710596 and fs2 == 0 and fe2 == 0xfe and fm2 == 0x7fffff and rm_val == 3  #nosat': 1 #  rs1_val==fnorm(0x7e710596) and rs2_val==fmaxnorm(0x7f7fffff) | Mask on extra bits ---> 000000000000010000000
    'fs1 == 0 and fe1 == 0xfa and fm1 == 0x025ce3 and fs2 == 0 and fe2 == 0xfe and fm2 == 0x7fffff and rm_val == 3  #nosat': 1 #  rs1_val==fnorm(0x7d025ce3) and rs2_val==fmaxnorm(0x7f7fffff) | Mask on extra bits ---> 000000000000001000000
    'fs1 == 0 and fe1 == 0xfd and fm1 == 0x6a6b5b and fs2 == 0 and fe2 == 0xfe and fm2 == 0x7fffff and rm_val == 3  #nosat': 1 #  rs1_val==fnorm(0x7eea6b5b) and rs2_val==fmaxnorm(0x7f7fffff) | Mask on extra bits ---> 000000000000000100000
    'fs1 == 0 and fe1 == 0xfc and fm1 == 0x179770 and fs2 == 0 and fe2 == 0xfe and fm2 == 0x7fffff and rm_val == 3  #nosat': 1 #  rs1_val==fnorm(0x7e179770) and rs2_val==fmaxnorm(0x7f7fffff) | Mask on extra bits ---> 000000000000000010000
    'fs1 == 0 and fe1 == 0xfd and fm1 == 0x664f14 and fs2 == 0 and fe2 == 0xfe and fm2 == 0x7fffff and rm_val == 3  #nosat': 1 #  rs1_val==fnorm(0x7ee64f14) and rs2_val==fmaxnorm(0x7f7fffff) | Mask on extra bits ---> 000000000000000001000
    'fs1 == 0 and fe1 == 0xfc and fm1 == 0x6dd39b and fs2 == 0 and fe2 == 0xfe and fm2 == 0x7fffff and rm_val == 3  #nosat': 1 #  rs1_val==fnorm(0x7e6dd39b) and rs2_val==fmaxnorm(0x7f7fffff) | Mask on extra bits ---> 000000000000000000100
    'fs1 == 0 and fe1 == 0xfd and fm1 == 0x4214d7 and fs2 == 0 and fe2 == 0xfe and fm2 == 0x7fffff and rm_val == 3  #nosat': 1 #  rs1_val==fnorm(0x7ec214d7) and rs2_val==fmaxnorm(0x7f7fffff) | Mask on extra bits ---> 000000000000000000010
    'fs1 == 0 and fe1 == 0xfe and fm1 == 0x292241 and fs2 == 0 and fe2 == 0xfe and fm2 == 0x7fffff and rm_val == 3  #nosat': 1 #  rs1_val==fnorm(0x7f292241) and rs2_val==fmaxnorm(0x7f7fffff) | Mask on extra bits ---> 000000000000000000001
    'fs1 == 0 and fe1 == 0xfe and fm1 == 0x09f0c8 and fs2 == 0 and fe2 == 0xfe and fm2 == 0x7fffff and rm_val == 3  #nosat': 1 #  rs1_val==fnorm(0x7f09f0c8) and rs2_val==fmaxnorm(0x7f7fffff) | Mask on extra bits ---> 010000000000000000000
    'fs1 == 0 and fe1 == 0xfd and fm1 == 0x6bfb00 and fs2 == 0 and fe2 == 0xfe and fm2 == 0x7fffff and rm_val == 3  #nosat': 1 #  rs1_val==fnorm(0x7eebfb00) and rs2_val==fmaxnorm(0x7f7fffff) | Mask on extra bits ---> 001000000000000000000
    'fs1 == 0 and fe1 == 0xfe and fm1 == 0x27923e and fs2 == 0 and fe2 == 0xfe and fm2 == 0x7fffff and rm_val == 3  #nosat': 1 #  rs1_val==fnorm(0x7f27923e) and rs2_val==fmaxnorm(0x7f7fffff) | Mask on extra bits ---> 000100000000000000000
    'fs1 == 0 and fe1 == 0xfc and fm1 == 0x61b55e and fs2 == 0 and fe2 == 0xfe and fm2 == 0x7fffff and rm_val == 3  #nosat': 1 #  rs1_val==fnorm(0x7e61b55e) and rs2_val==fmaxnorm(0x7f7fffff) | Mask on extra bits ---> 000010000000000000000
    'fs1 == 0 and fe1 == 0xfd and fm1 == 0x1d9e09 and fs2 == 0 and fe2 == 0xfe and fm2 == 0x7fffff and rm_val == 3  #nosat': 1 #  rs1_val==fnorm(0x7e9d9e09) and rs2_val==fmaxnorm(0x7f7fffff) | Mask on extra bits ---> 000001000000000000000
    'fs1 == 0 and fe1 == 0xfb and fm1 == 0x07f6ba and fs2 == 0 and fe2 == 0xfe and fm2 == 0x7fffff and rm_val == 3  #nosat': 1 #  rs1_val==fnorm(0x7d87f6ba) and rs2_val==fmaxnorm(0x7f7fffff) | Mask on extra bits ---> 000000100000000000000
    'fs1 == 0 and fe1 == 0xfe and fm1 == 0x23f4fa and fs2 == 0 and fe2 == 0xfe and fm2 == 0x7fffff and rm_val == 3  #nosat': 1 #  rs1_val==fnorm(0x7f23f4fa) and rs2_val==fmaxnorm(0x7f7fffff) | Mask on extra bits ---> 000000010000000000000
    'fs1 == 0 and fe1 == 0xfc and fm1 == 0x5ad8ea and fs2 == 0 and fe2 == 0xfe and fm2 == 0x7fffff and rm_val == 3  #nosat': 1 #  rs1_val==fnorm(0x7e5ad8ea) and rs2_val==fmaxnorm(0x7f7fffff) | Mask on extra bits ---> 000000001000000000000
    'fs1 == 0 and fe1 == 0xfe and fm1 == 0x1fab30 and fs2 == 0 and fe2 == 0xfe and fm2 == 0x7fffff and rm_val == 3  #nosat': 1 #  rs1_val==fnorm(0x7f1fab30) and rs2_val==fmaxnorm(0x7f7fffff) | Mask on extra bits ---> 000000000100000000000
    'fs1 == 0 and fe1 == 0xfe and fm1 == 0x090d88 and fs2 == 0 and fe2 == 0xfe and fm2 == 0x7fffff and rm_val == 3  #nosat': 1 #  rs1_val==fnorm(0x7f090d88) and rs2_val==fmaxnorm(0x7f7fffff) | Mask on extra bits ---> 000000000010000000000
    'fs1 == 0 and fe1 == 0xfe and fm1 == 0x2db39d and fs2 == 0 and fe2 == 0xfe and fm2 == 0x7fffff and rm_val == 3  #nosat': 1 #  rs1_val==fnorm(0x7f2db39d) and rs2_val==fmaxnorm(0x7f7fffff) | Mask on extra bits ---> 000000000001000000000
    'fs1 == 0 and fe1 == 0xfe and fm1 == 0x253e0d and fs2 == 0 and fe2 == 0xfe and fm2 == 0x7fffff and rm_val == 3  #nosat': 1 #  rs1_val==fnorm(0x7f253e0d) and rs2_val==fmaxnorm(0x7f7fffff) | Mask on extra bits ---> 000000000000100000000
    'fs1 == 0 and fe1 == 0xfe and fm1 == 0x00e26f and fs2 == 0 and fe2 == 0xfe and fm2 == 0x7fffff and rm_val == 3  #nosat': 1 #  rs1_val==fnorm(0x7f00e26f) and rs2_val==fmaxnorm(0x7f7fffff) | Mask on extra bits ---> 000000000000010000000
    'fs1 == 0 and fe1 == 0xfe and fm1 == 0x246dcc and fs2 == 0 and fe2 == 0xfe and fm2 == 0x7fffff and rm_val == 3  #nosat': 1 #  rs1_val==fnorm(0x7f246dcc) and rs2_val==fmaxnorm(0x7f7fffff) | Mask on extra bits ---> 000000000000001000000
    'fs1 == 0 and fe1 == 0xfe and fm1 == 0x02f0c8 and fs2 == 0 and fe2 == 0xfe and fm2 == 0x7fffff and rm_val == 3  #nosat': 1 #  rs1_val==fnorm(0x7f02f0c8) and rs2_val==fmaxnorm(0x7f7fffff) | Mask on extra bits ---> 000000000000000100000
    'fs1 == 0 and fe1 == 0xfd and fm1 == 0x605a49 and fs2 == 0 and fe2 == 0xfe and fm2 == 0x7fffff and rm_val == 3  #nosat': 1 #  rs1_val==fnorm(0x7ee05a49) and rs2_val==fmaxnorm(0x7f7fffff) | Mask on extra bits ---> 000000000000000010000
    'fs1 == 0 and fe1 == 0xfd and fm1 == 0x06bfe7 and fs2 == 0 and fe2 == 0xfe and fm2 == 0x7fffff and rm_val == 3  #nosat': 1 #  rs1_val==fnorm(0x7e86bfe7) and rs2_val==fmaxnorm(0x7f7fffff) | Mask on extra bits ---> 000000000000000001000
    'fs1 == 0 and fe1 == 0xfd and fm1 == 0x42c803 and fs2 == 0 and fe2 == 0xfe and fm2 == 0x7fffff and rm_val == 3  #nosat': 1 #  rs1_val==fnorm(0x7ec2c803) and rs2_val==fmaxnorm(0x7f7fffff) | Mask on extra bits ---> 000000000000000000100
    'fs1 == 0 and fe1 == 0xfd and fm1 == 0x70a207 and fs2 == 0 and fe2 == 0xfe and fm2 == 0x7fffff and rm_val == 3  #nosat': 1 #  rs1_val==fnorm(0x7ef0a207) and rs2_val==fmaxnorm(0x7f7fffff) | Mask on extra bits ---> 000000000000000000010
    'fs1 == 0 and fe1 == 0xfe and fm1 == 0x395f47 and fs2 == 0 and fe2 == 0xfe and fm2 == 0x7fffff and rm_val == 3  #nosat': 1 #  rs1_val==fnorm(0x7f395f47) and rs2_val==fmaxnorm(0x7f7fffff) | Mask on extra bits ---> 000000000000000000001
    'fs1 == 0 and fe1 == 0xfb and fm1 == 0x50d921 and fs2 == 0 and fe2 == 0xfe and fm2 == 0x7fffff and rm_val == 3  #nosat': 1 #  rs1_val==fnorm(0x7dd0d921) and rs2_val==fmaxnorm(0x7f7fffff) | Mask on extra bits ---> 010000000000000000000
    'fs1 == 0 and fe1 == 0xfe and fm1 == 0x28be0d and fs2 == 0 and fe2 == 0xfe and fm2 == 0x7fffff and rm_val == 3  #nosat': 1 #  rs1_val==fnorm(0x7f28be0d) and rs2_val==fmaxnorm(0x7f7fffff) | Mask on extra bits ---> 001000000000000000000
    'fs1 == 0 and fe1 == 0xfd and fm1 == 0x2abc06 and fs2 == 0 and fe2 == 0xfe and fm2 == 0x7fffff and rm_val == 3  #nosat': 1 #  rs1_val==fnorm(0x7eaabc06) and rs2_val==fmaxnorm(0x7f7fffff) | Mask on extra bits ---> 000100000000000000000
    'fs1 == 0 and fe1 == 0xfd and fm1 == 0x17aa7b and fs2 == 0 and fe2 == 0xfe and fm2 == 0x7fffff and rm_val == 3  #nosat': 1 #  rs1_val==fnorm(0x7e97aa7b) and rs2_val==fmaxnorm(0x7f7fffff) | Mask on extra bits ---> 000010000000000000000
    'fs1 == 0 and fe1 == 0xfe and fm1 == 0x091ce4 and fs2 == 0 and fe2 == 0xfe and fm2 == 0x7fffff and rm_val == 3  #nosat': 1 #  rs1_val==fnorm(0x7f091ce4) and rs2_val==fmaxnorm(0x7f7fffff) | Mask on extra bits ---> 000001000000000000000
    'fs1 == 0 and fe1 == 0xfe and fm1 == 0x0a03a1 and fs2 == 0 and fe2 == 0xfe and fm2 == 0x7fffff and rm_val == 3  #nosat': 1 #  rs1_val==fnorm(0x7f0a03a1) and rs2_val==fmaxnorm(0x7f7fffff) | Mask on extra bits ---> 000000100000000000000
    'fs1 == 0 and fe1 == 0xfe and fm1 == 0x262e64 and fs2 == 0 and fe2 == 0xfe and fm2 == 0x7fffff and rm_val == 3  #nosat': 1 #  rs1_val==fnorm(0x7f262e64) and rs2_val==fmaxnorm(0x7f7fffff) | Mask on extra bits ---> 000000010000000000000
    'fs1 == 0 and fe1 == 0xfc and fm1 == 0x675fa1 and fs2 == 0 and fe2 == 0xfe and fm2 == 0x7fffff and rm_val == 3  #nosat': 1 #  rs1_val==fnorm(0x7e675fa1) and rs2_val==fmaxnorm(0x7f7fffff) | Mask on extra bits ---> 000000001000000000000
    'fs1 == 0 and fe1 == 0xfe and fm1 == 0x119488 and fs2 == 0 and fe2 == 0xfe and fm2 == 0x7fffff and rm_val == 3  #nosat': 1 #  rs1_val==fnorm(0x7f119488) and rs2_val==fmaxnorm(0x7f7fffff) | Mask on extra bits ---> 000000000100000000000
    'fs1 == 0 and fe1 == 0xfe and fm1 == 0x00e937 and fs2 == 0 and fe2 == 0xfe and fm2 == 0x7fffff and rm_val == 3  #nosat': 1 #  rs1_val==fnorm(0x7f00e937) and rs2_val==fmaxnorm(0x7f7fffff) | Mask on extra bits ---> 000000000010000000000
    'fs1 == 0 and fe1 == 0xfd and fm1 == 0x48e6cd and fs2 == 0 and fe2 == 0xfe and fm2 == 0x7fffff and rm_val == 3  #nosat': 1 #  rs1_val==fnorm(0x7ec8e6cd) and rs2_val==fmaxnorm(0x7f7fffff) | Mask on extra bits ---> 000000000001000000000
    'fs1 == 0 and fe1 == 0xfd and fm1 == 0x73c956 and fs2 == 0 and fe2 == 0xfe and fm2 == 0x7fffff and rm_val == 3  #nosat': 1 #  rs1_val==fnorm(0x7ef3c956) and rs2_val==fmaxnorm(0x7f7fffff) | Mask on extra bits ---> 000000000000100000000
    'fs1 == 0 and fe1 == 0xfd and fm1 == 0x7566f3 and fs2 == 0 and fe2 == 0xfe and fm2 == 0x7fffff and rm_val == 3  #nosat': 1 #  rs1_val==fnorm(0x7ef566f3) and rs2_val==fmaxnorm(0x7f7fffff) | Mask on extra bits ---> 000000000000010000000
    'fs1 == 0 and fe1 == 0xfe and fm1 == 0x2099c0 and fs2 == 0 and fe2 == 0xfe and fm2 == 0x7fffff and rm_val == 3  #nosat': 1 #  rs1_val==fnorm(0x7f2099c0) and rs2_val==fmaxnorm(0x7f7fffff) | Mask on extra bits ---> 000000000000001000000
    'fs1 == 0 and fe1 == 0xfe and fm1 == 0x3f29ee and fs2 == 0 and fe2 == 0xfe and fm2 == 0x7fffff and rm_val == 3  #nosat': 1 #  rs1_val==fnorm(0x7f3f29ee) and rs2_val==fmaxnorm(0x7f7fffff) | Mask on extra bits ---> 000000000000000100000
    'fs1 == 0 and fe1 == 0xfc and fm1 == 0x472f12 and fs2 == 0 and fe2 == 0xfe and fm2 == 0x7fffff and rm_val == 3  #nosat': 1 #  rs1_val==fnorm(0x7e472f12) and rs2_val==fmaxnorm(0x7f7fffff) | Mask on extra bits ---> 000000000000000010000
    'fs1 == 0 and fe1 == 0xf8 and fm1 == 0x21ceeb and fs2 == 0 and fe2 == 0xfe and fm2 == 0x7fffff and rm_val == 3  #nosat': 1 #  rs1_val==fnorm(0x7c21ceeb) and rs2_val==fmaxnorm(0x7f7fffff) | Mask on extra bits ---> 000000000000000001000
    'fs1 == 0 and fe1 == 0xfd and fm1 == 0x7046ce and fs2 == 0 and fe2 == 0xfe and fm2 == 0x7fffff and rm_val == 3  #nosat': 1 #  rs1_val==fnorm(0x7ef046ce) and rs2_val==fmaxnorm(0x7f7fffff) | Mask on extra bits ---> 000000000000000000100
    'fs1 == 0 and fe1 == 0xfd and fm1 == 0x0e1012 and fs2 == 0 and fe2 == 0xfe and fm2 == 0x7fffff and rm_val == 3  #nosat': 1 #  rs1_val==fnorm(0x7e8e1012) and rs2_val==fmaxnorm(0x7f7fffff) | Mask on extra bits ---> 000000000000000000010
    coverage: 160/160
  total_coverage: 262/262
