---
fnmsub_b17:
  config:
  - check ISA:=regex(.*I.*F.*)
  op_comb:
    rd == rs2 == rs3 != rs1: 1
    rs1 != rs2 and rs1 != rd and rs1 != rs3 and rs2 != rs3 and rs2 != rd and rs3 != rd: 197
    rs1 == rd != rs2 and rs1 == rd != rs3 and rs3 != rs2: 1
    rs1 == rd == rs3 != rs2: 1
    rs1 == rs2 != rs3 and rs1 == rs2 != rd and rd != rs3: 1
    rs1 == rs2 == rd != rs3: 1
    rs1 == rs2 == rs3 != rd: 1
    rs1 == rs2 == rs3 == rd: 1
    rs1 == rs3 != rs2 and rs1 == rs3 != rd and rd != rs2: 1
    rs2 == rd != rs1 and rs2 == rd != rs3 and rs3 != rs1: 1
    rs2 == rs3 != rs1 and rs2 == rs3 != rd and rd != rs1: 1
    rs3 == rd != rs1 and rs3 == rd != rs2 and rs2 != rs1: 1
    coverage: 12/12
  opcode:
    fnmsub.s: 208
    coverage: 1/1
  rd:
    f0: 1
    f1: 1
    f10: 1
    f11: 1
    f12: 1
    f13: 1
    f14: 1
    f15: 1
    f16: 1
    f17: 1
    f18: 1
    f19: 1
    f2: 1
    f20: 1
    f21: 1
    f22: 1
    f23: 1
    f24: 1
    f25: 1
    f26: 1
    f27: 1
    f28: 1
    f29: 1
    f3: 1
    f30: 1
    f31: 177
    f4: 1
    f5: 1
    f6: 1
    f7: 1
    f8: 1
    f9: 1
    coverage: 32/32
  rs1:
    f0: 1
    f1: 1
    f10: 1
    f11: 1
    f12: 1
    f13: 1
    f14: 1
    f15: 1
    f16: 1
    f17: 1
    f18: 1
    f19: 1
    f2: 1
    f20: 1
    f21: 1
    f22: 1
    f23: 1
    f24: 1
    f25: 1
    f26: 1
    f27: 1
    f28: 1
    f29: 1
    f3: 1
    f30: 177
    f31: 1
    f4: 1
    f5: 1
    f6: 1
    f7: 1
    f8: 1
    f9: 1
    coverage: 32/32
  rs2:
    f0: 1
    f1: 1
    f10: 1
    f11: 1
    f12: 1
    f13: 1
    f14: 1
    f15: 1
    f16: 1
    f17: 1
    f18: 1
    f19: 1
    f2: 1
    f20: 1
    f21: 1
    f22: 1
    f23: 1
    f24: 1
    f25: 1
    f26: 1
    f27: 1
    f28: 1
    f29: 177
    f3: 1
    f30: 1
    f31: 1
    f4: 1
    f5: 1
    f6: 1
    f7: 1
    f8: 1
    f9: 1
    coverage: 32/32
  rs3:
    f0: 1
    f1: 1
    f10: 1
    f11: 1
    f12: 1
    f13: 1
    f14: 1
    f15: 1
    f16: 1
    f17: 1
    f18: 1
    f19: 1
    f2: 1
    f20: 1
    f21: 1
    f22: 1
    f23: 1
    f24: 1
    f25: 1
    f26: 1
    f27: 1
    f28: 177
    f29: 1
    f3: 1
    f30: 1
    f31: 1
    f4: 1
    f5: 1
    f6: 1
    f7: 1
    f8: 1
    f9: 1
    coverage: 32/32
  val_comb:
    ? 'fs1 == 0 and fe1 == 0xfc and fm1 == 0x36c1bf and fs2 == 0 and fe2 == 0xfd and
      fm2 == 0x50fbe8 and fs3 == 0 and fe3 == 0xfe and fm3 == 0x7fffff and rm_val
      == 0  #nosat'
    : 1  #  rs1_val==fnorm(0x7e36c1bf) and rs2_val==fnorm(0x7ed0fbe8) and rs3_val==fmaxnorm(0x7f7fffff) | Multiply-Add: Cancellation ---> Subnormal result 
    ? 'fs1 == 0 and fe1 == 0xfc and fm1 == 0x15fd73 and fs2 == 0 and fe2 == 0xfc and
      fm2 == 0x20bb94 and fs3 == 0 and fe3 == 0xfe and fm3 == 0x7fffff and rm_val
      == 0  #nosat'
    : 1 #  rs1_val==fnorm(0x7e15fd73) and rs2_val==fnorm(0x7e20bb94) and rs3_val==fmaxnorm(0x7f7fffff) | Multiply-Add: Cancellation ---> Subnormal result 
    ? 'fs1 == 0 and fe1 == 0xfe and fm1 == 0x165edf and fs2 == 0 and fe2 == 0xfb and
      fm2 == 0x5c6184 and fs3 == 0 and fe3 == 0xfe and fm3 == 0x7fffff and rm_val
      == 0  #nosat'
    : 1 #  rs1_val==fnorm(0x7f165edf) and rs2_val==fnorm(0x7ddc6184) and rs3_val==fmaxnorm(0x7f7fffff) | Multiply-Add: Cancellation ---> Subnormal result 
    ? 'fs1 == 0 and fe1 == 0xfc and fm1 == 0x2bea1b and fs2 == 0 and fe2 == 0xf6 and
      fm2 == 0x04bcca and fs3 == 0 and fe3 == 0xfe and fm3 == 0x7fffff and rm_val
      == 0  #nosat'
    : 1 #  rs1_val==fnorm(0x7e2bea1b) and rs2_val==fnorm(0x7b04bcca) and rs3_val==fmaxnorm(0x7f7fffff) | Multiply-Add: Cancellation ---> Subnormal result 
    ? 'fs1 == 0 and fe1 == 0xfd and fm1 == 0x0e7425 and fs2 == 0 and fe2 == 0xfd and
      fm2 == 0x4b435e and fs3 == 0 and fe3 == 0xfe and fm3 == 0x7fffff and rm_val
      == 0  #nosat'
    : 1 #  rs1_val==fnorm(0x7e8e7425) and rs2_val==fnorm(0x7ecb435e) and rs3_val==fmaxnorm(0x7f7fffff) | Multiply-Add: Cancellation ---> Subnormal result 
    ? 'fs1 == 0 and fe1 == 0xfe and fm1 == 0x2cafdc and fs2 == 0 and fe2 == 0xfe and
      fm2 == 0x0a2e4c and fs3 == 0 and fe3 == 0xfe and fm3 == 0x7fffff and rm_val
      == 0  #nosat'
    : 1 #  rs1_val==fnorm(0x7f2cafdc) and rs2_val==fnorm(0x7f0a2e4c) and rs3_val==fmaxnorm(0x7f7fffff) | Multiply-Add: Cancellation ---> Subnormal result 
    ? 'fs1 == 0 and fe1 == 0xfe and fm1 == 0x115cea and fs2 == 0 and fe2 == 0xfd and
      fm2 == 0x1a28e8 and fs3 == 0 and fe3 == 0xfe and fm3 == 0x7fffff and rm_val
      == 0  #nosat'
    : 1 #  rs1_val==fnorm(0x7f115cea) and rs2_val==fnorm(0x7e9a28e8) and rs3_val==fmaxnorm(0x7f7fffff) | Multiply-Add: Cancellation ---> Subnormal result 
    ? 'fs1 == 0 and fe1 == 0xfd and fm1 == 0x794f1c and fs2 == 0 and fe2 == 0xfc and
      fm2 == 0x69f89b and fs3 == 0 and fe3 == 0xfe and fm3 == 0x7fffff and rm_val
      == 0  #nosat'
    : 1 #  rs1_val==fnorm(0x7ef94f1c) and rs2_val==fnorm(0x7e69f89b) and rs3_val==fmaxnorm(0x7f7fffff) | Multiply-Add: Cancellation ---> Subnormal result 
    ? 'fs1 == 0 and fe1 == 0xfe and fm1 == 0x0642e8 and fs2 == 0 and fe2 == 0xfd and
      fm2 == 0x4e6013 and fs3 == 0 and fe3 == 0xfe and fm3 == 0x7fffff and rm_val
      == 0  #nosat'
    : 1 #  rs1_val==fnorm(0x7f0642e8) and rs2_val==fnorm(0x7ece6013) and rs3_val==fmaxnorm(0x7f7fffff) | Multiply-Add: Cancellation ---> Subnormal result 
    ? 'fs1 == 0 and fe1 == 0xfc and fm1 == 0x19d51f and fs2 == 0 and fe2 == 0xfb and
      fm2 == 0x7705e2 and fs3 == 0 and fe3 == 0xfe and fm3 == 0x7fffff and rm_val
      == 0  #nosat'
    : 1 #  rs1_val==fnorm(0x7e19d51f) and rs2_val==fnorm(0x7df705e2) and rs3_val==fmaxnorm(0x7f7fffff) | Multiply-Add: Cancellation ---> Subnormal result 
    ? 'fs1 == 0 and fe1 == 0xfb and fm1 == 0x279c91 and fs2 == 0 and fe2 == 0xfa and
      fm2 == 0x032ddf and fs3 == 0 and fe3 == 0xfe and fm3 == 0x7fffff and rm_val
      == 0  #nosat'
    : 1 #  rs1_val==fnorm(0x7da79c91) and rs2_val==fnorm(0x7d032ddf) and rs3_val==fmaxnorm(0x7f7fffff) | Multiply-Add: Cancellation ---> Subnormal result 
    ? 'fs1 == 0 and fe1 == 0xfd and fm1 == 0x27d146 and fs2 == 0 and fe2 == 0xfe and
      fm2 == 0x1150a9 and fs3 == 0 and fe3 == 0xfe and fm3 == 0x7fffff and rm_val
      == 0  #nosat'
    : 1 #  rs1_val==fnorm(0x7ea7d146) and rs2_val==fnorm(0x7f1150a9) and rs3_val==fmaxnorm(0x7f7fffff) | Multiply-Add: Cancellation ---> Subnormal result 
    ? 'fs1 == 0 and fe1 == 0xfe and fm1 == 0x1ae1f2 and fs2 == 0 and fe2 == 0xfe and
      fm2 == 0x32e4e1 and fs3 == 0 and fe3 == 0xfe and fm3 == 0x7fffff and rm_val
      == 0  #nosat'
    : 1 #  rs1_val==fnorm(0x7f1ae1f2) and rs2_val==fnorm(0x7f32e4e1) and rs3_val==fmaxnorm(0x7f7fffff) | Multiply-Add: Cancellation ---> Subnormal result 
    ? 'fs1 == 0 and fe1 == 0xfe and fm1 == 0x09767a and fs2 == 0 and fe2 == 0xfe and
      fm2 == 0x0e06b2 and fs3 == 0 and fe3 == 0xfe and fm3 == 0x7fffff and rm_val
      == 0  #nosat'
    : 1 #  rs1_val==fnorm(0x7f09767a) and rs2_val==fnorm(0x7f0e06b2) and rs3_val==fmaxnorm(0x7f7fffff) | Multiply-Add: Cancellation ---> Subnormal result 
    ? 'fs1 == 0 and fe1 == 0xfe and fm1 == 0x24caba and fs2 == 0 and fe2 == 0xfd and
      fm2 == 0x66d514 and fs3 == 0 and fe3 == 0xfe and fm3 == 0x7fffff and rm_val
      == 0  #nosat'
    : 1 #  rs1_val==fnorm(0x7f24caba) and rs2_val==fnorm(0x7ee6d514) and rs3_val==fmaxnorm(0x7f7fffff) | Multiply-Add: Cancellation ---> Subnormal result 
    ? 'fs1 == 0 and fe1 == 0xfe and fm1 == 0x272357 and fs2 == 0 and fe2 == 0xfe and
      fm2 == 0x055fe9 and fs3 == 0 and fe3 == 0xfe and fm3 == 0x7fffff and rm_val
      == 0  #nosat'
    : 1 #  rs1_val==fnorm(0x7f272357) and rs2_val==fnorm(0x7f055fe9) and rs3_val==fmaxnorm(0x7f7fffff) | Multiply-Add: Cancellation ---> Subnormal result 
    ? 'fs1 == 0 and fe1 == 0xfd and fm1 == 0x4eee0f and fs2 == 0 and fe2 == 0xfe and
      fm2 == 0x3286a3 and fs3 == 0 and fe3 == 0xfe and fm3 == 0x7fffff and rm_val
      == 0  #nosat'
    : 1 #  rs1_val==fnorm(0x7eceee0f) and rs2_val==fnorm(0x7f3286a3) and rs3_val==fmaxnorm(0x7f7fffff) | Multiply-Add: Cancellation ---> Subnormal result 
    ? 'fs1 == 0 and fe1 == 0xfd and fm1 == 0x0a33b5 and fs2 == 0 and fe2 == 0xfc and
      fm2 == 0x334304 and fs3 == 0 and fe3 == 0xfe and fm3 == 0x7fffff and rm_val
      == 0  #nosat'
    : 1 #  rs1_val==fnorm(0x7e8a33b5) and rs2_val==fnorm(0x7e334304) and rs3_val==fmaxnorm(0x7f7fffff) | Multiply-Add: Cancellation ---> Subnormal result 
    ? 'fs1 == 0 and fe1 == 0xfe and fm1 == 0x1822d8 and fs2 == 0 and fe2 == 0xfd and
      fm2 == 0x6f56b5 and fs3 == 0 and fe3 == 0xfe and fm3 == 0x7fffff and rm_val
      == 0  #nosat'
    : 1 #  rs1_val==fnorm(0x7f1822d8) and rs2_val==fnorm(0x7eef56b5) and rs3_val==fmaxnorm(0x7f7fffff) | Multiply-Add: Cancellation ---> Subnormal result 
    ? 'fs1 == 0 and fe1 == 0xfe and fm1 == 0x3821d7 and fs2 == 0 and fe2 == 0xfe and
      fm2 == 0x2b460e and fs3 == 0 and fe3 == 0xfe and fm3 == 0x7fffff and rm_val
      == 0  #nosat'
    : 1 #  rs1_val==fnorm(0x7f3821d7) and rs2_val==fnorm(0x7f2b460e) and rs3_val==fmaxnorm(0x7f7fffff) | Multiply-Add: Cancellation ---> Subnormal result 
    ? 'fs1 == 0 and fe1 == 0xfd and fm1 == 0x780c49 and fs2 == 0 and fe2 == 0xfd and
      fm2 == 0x2a94d2 and fs3 == 0 and fe3 == 0xfe and fm3 == 0x7fffff and rm_val
      == 0  #nosat'
    : 1 #  rs1_val==fnorm(0x7ef80c49) and rs2_val==fnorm(0x7eaa94d2) and rs3_val==fmaxnorm(0x7f7fffff) | Multiply-Add: Cancellation ---> Subnormal result 
    ? 'fs1 == 0 and fe1 == 0xfd and fm1 == 0x4b58ad and fs2 == 0 and fe2 == 0xf9 and
      fm2 == 0x63b5e5 and fs3 == 0 and fe3 == 0xfe and fm3 == 0x7fffff and rm_val
      == 0  #nosat'
    : 1 #  rs1_val==fnorm(0x7ecb58ad) and rs2_val==fnorm(0x7ce3b5e5) and rs3_val==fmaxnorm(0x7f7fffff) | Multiply-Add: Cancellation ---> Subnormal result 
    ? 'fs1 == 0 and fe1 == 0xfd and fm1 == 0x4913df and fs2 == 0 and fe2 == 0xfd and
      fm2 == 0x30d847 and fs3 == 0 and fe3 == 0xfe and fm3 == 0x7fffff and rm_val
      == 0  #nosat'
    : 1 #  rs1_val==fnorm(0x7ec913df) and rs2_val==fnorm(0x7eb0d847) and rs3_val==fmaxnorm(0x7f7fffff) | Multiply-Add: Cancellation ---> Subnormal result 
    ? 'fs1 == 0 and fe1 == 0xfe and fm1 == 0x13ed79 and fs2 == 0 and fe2 == 0xfd and
      fm2 == 0x7e2f1b and fs3 == 0 and fe3 == 0xfe and fm3 == 0x7fffff and rm_val
      == 0  #nosat'
    : 1 #  rs1_val==fnorm(0x7f13ed79) and rs2_val==fnorm(0x7efe2f1b) and rs3_val==fmaxnorm(0x7f7fffff) | Multiply-Add: Cancellation ---> Subnormal result 
    ? 'fs1 == 0 and fe1 == 0xfd and fm1 == 0x66ec7b and fs2 == 0 and fe2 == 0xfe and
      fm2 == 0x0b8d5c and fs3 == 0 and fe3 == 0xfe and fm3 == 0x7fffff and rm_val
      == 0  #nosat'
    : 1 #  rs1_val==fnorm(0x7ee6ec7b) and rs2_val==fnorm(0x7f0b8d5c) and rs3_val==fmaxnorm(0x7f7fffff) | Multiply-Add: Cancellation ---> Subnormal result 
    ? 'fs1 == 0 and fe1 == 0xfc and fm1 == 0x65f120 and fs2 == 0 and fe2 == 0xfe and
      fm2 == 0x251f3f and fs3 == 0 and fe3 == 0xfe and fm3 == 0x7fffff and rm_val
      == 0  #nosat'
    : 1 #  rs1_val==fnorm(0x7e65f120) and rs2_val==fnorm(0x7f251f3f) and rs3_val==fmaxnorm(0x7f7fffff) | Multiply-Add: Cancellation ---> Subnormal result 
    ? 'fs1 == 0 and fe1 == 0xfd and fm1 == 0x735187 and fs2 == 0 and fe2 == 0xfe and
      fm2 == 0x3b945b and fs3 == 0 and fe3 == 0xfe and fm3 == 0x7fffff and rm_val
      == 0  #nosat'
    : 1 #  rs1_val==fnorm(0x7ef35187) and rs2_val==fnorm(0x7f3b945b) and rs3_val==fmaxnorm(0x7f7fffff) | Multiply-Add: Cancellation ---> Subnormal result 
    ? 'fs1 == 0 and fe1 == 0xfd and fm1 == 0x1320d0 and fs2 == 0 and fe2 == 0xfd and
      fm2 == 0x54336a and fs3 == 0 and fe3 == 0xfe and fm3 == 0x7fffff and rm_val
      == 0  #nosat'
    : 1 #  rs1_val==fnorm(0x7e9320d0) and rs2_val==fnorm(0x7ed4336a) and rs3_val==fmaxnorm(0x7f7fffff) | Multiply-Add: Cancellation ---> Subnormal result 
    ? 'fs1 == 0 and fe1 == 0xfe and fm1 == 0x1a34be and fs2 == 0 and fe2 == 0xfe and
      fm2 == 0x2b1c44 and fs3 == 0 and fe3 == 0xfe and fm3 == 0x7fffff and rm_val
      == 0  #nosat'
    : 1 #  rs1_val==fnorm(0x7f1a34be) and rs2_val==fnorm(0x7f2b1c44) and rs3_val==fmaxnorm(0x7f7fffff) | Multiply-Add: Cancellation ---> Subnormal result 
    ? 'fs1 == 0 and fe1 == 0xfc and fm1 == 0x401d9b and fs2 == 0 and fe2 == 0xfe and
      fm2 == 0x16144b and fs3 == 0 and fe3 == 0xfe and fm3 == 0x7fffff and rm_val
      == 0  #nosat'
    : 1 #  rs1_val==fnorm(0x7e401d9b) and rs2_val==fnorm(0x7f16144b) and rs3_val==fmaxnorm(0x7f7fffff) | Multiply-Add: Cancellation ---> Subnormal result 
    ? 'fs1 == 0 and fe1 == 0xfd and fm1 == 0x4a994e and fs2 == 0 and fe2 == 0xfd and
      fm2 == 0x5a40dd and fs3 == 0 and fe3 == 0xfe and fm3 == 0x7fffff and rm_val
      == 0  #nosat'
    : 1 #  rs1_val==fnorm(0x7eca994e) and rs2_val==fnorm(0x7eda40dd) and rs3_val==fmaxnorm(0x7f7fffff) | Multiply-Add: Cancellation ---> Subnormal result 
    ? 'fs1 == 0 and fe1 == 0xfb and fm1 == 0x60facc and fs2 == 0 and fe2 == 0xfd and
      fm2 == 0x18fe38 and fs3 == 0 and fe3 == 0xfe and fm3 == 0x7fffff and rm_val
      == 0  #nosat'
    : 1 #  rs1_val==fnorm(0x7de0facc) and rs2_val==fnorm(0x7e98fe38) and rs3_val==fmaxnorm(0x7f7fffff) | Multiply-Add: Cancellation ---> Subnormal result 
    ? 'fs1 == 0 and fe1 == 0xfe and fm1 == 0x1c9fa7 and fs2 == 0 and fe2 == 0xfe and
      fm2 == 0x0fc01f and fs3 == 0 and fe3 == 0xfe and fm3 == 0x7fffff and rm_val
      == 0  #nosat'
    : 1 #  rs1_val==fnorm(0x7f1c9fa7) and rs2_val==fnorm(0x7f0fc01f) and rs3_val==fmaxnorm(0x7f7fffff) | Multiply-Add: Cancellation ---> Subnormal result 
    ? 'fs1 == 0 and fe1 == 0xfc and fm1 == 0x11483d and fs2 == 0 and fe2 == 0xfd and
      fm2 == 0x1ffee2 and fs3 == 0 and fe3 == 0xfe and fm3 == 0x7fffff and rm_val
      == 0  #nosat'
    : 1 #  rs1_val==fnorm(0x7e11483d) and rs2_val==fnorm(0x7e9ffee2) and rs3_val==fmaxnorm(0x7f7fffff) | Multiply-Add: Cancellation ---> Subnormal result 
    ? 'fs1 == 0 and fe1 == 0xfe and fm1 == 0x159092 and fs2 == 0 and fe2 == 0xfe and
      fm2 == 0x0ba3b9 and fs3 == 0 and fe3 == 0xfe and fm3 == 0x7fffff and rm_val
      == 0  #nosat'
    : 1 #  rs1_val==fnorm(0x7f159092) and rs2_val==fnorm(0x7f0ba3b9) and rs3_val==fmaxnorm(0x7f7fffff) | Multiply-Add: Cancellation ---> Subnormal result 
    ? 'fs1 == 0 and fe1 == 0xfc and fm1 == 0x4fbc01 and fs2 == 0 and fe2 == 0xfb and
      fm2 == 0x190f76 and fs3 == 0 and fe3 == 0xfe and fm3 == 0x7fffff and rm_val
      == 0  #nosat'
    : 1 #  rs1_val==fnorm(0x7e4fbc01) and rs2_val==fnorm(0x7d990f76) and rs3_val==fmaxnorm(0x7f7fffff) | Multiply-Add: Cancellation ---> Subnormal result 
    ? 'fs1 == 0 and fe1 == 0xfd and fm1 == 0x0781f6 and fs2 == 0 and fe2 == 0xfe and
      fm2 == 0x229a06 and fs3 == 0 and fe3 == 0xfe and fm3 == 0x7fffff and rm_val
      == 0  #nosat'
    : 1 #  rs1_val==fnorm(0x7e8781f6) and rs2_val==fnorm(0x7f229a06) and rs3_val==fmaxnorm(0x7f7fffff) | Multiply-Add: Cancellation ---> Subnormal result 
    ? 'fs1 == 0 and fe1 == 0xfd and fm1 == 0x1ae1d2 and fs2 == 0 and fe2 == 0xfd and
      fm2 == 0x4fef6d and fs3 == 0 and fe3 == 0xfe and fm3 == 0x7fffff and rm_val
      == 0  #nosat'
    : 1 #  rs1_val==fnorm(0x7e9ae1d2) and rs2_val==fnorm(0x7ecfef6d) and rs3_val==fmaxnorm(0x7f7fffff) | Multiply-Add: Cancellation ---> Subnormal result 
    ? 'fs1 == 0 and fe1 == 0xfe and fm1 == 0x13a10a and fs2 == 0 and fe2 == 0xfd and
      fm2 == 0x07fa5d and fs3 == 0 and fe3 == 0xfe and fm3 == 0x7fffff and rm_val
      == 0  #nosat'
    : 1 #  rs1_val==fnorm(0x7f13a10a) and rs2_val==fnorm(0x7e87fa5d) and rs3_val==fmaxnorm(0x7f7fffff) | Multiply-Add: Cancellation ---> Subnormal result 
    ? 'fs1 == 0 and fe1 == 0xfa and fm1 == 0x015d4c and fs2 == 0 and fe2 == 0xfd and
      fm2 == 0x41cf2f and fs3 == 0 and fe3 == 0xfe and fm3 == 0x7fffff and rm_val
      == 0  #nosat'
    : 1 #  rs1_val==fnorm(0x7d015d4c) and rs2_val==fnorm(0x7ec1cf2f) and rs3_val==fmaxnorm(0x7f7fffff) | Multiply-Add: Cancellation ---> Subnormal result 
    ? 'fs1 == 0 and fe1 == 0xfc and fm1 == 0x4c2b76 and fs2 == 0 and fe2 == 0xfd and
      fm2 == 0x1337c1 and fs3 == 0 and fe3 == 0xfe and fm3 == 0x7fffff and rm_val
      == 0  #nosat'
    : 1 #  rs1_val==fnorm(0x7e4c2b76) and rs2_val==fnorm(0x7e9337c1) and rs3_val==fmaxnorm(0x7f7fffff) | Multiply-Add: Cancellation ---> Subnormal result 
    ? 'fs1 == 0 and fe1 == 0xfd and fm1 == 0x50905a and fs2 == 0 and fe2 == 0xfe and
      fm2 == 0x0e02b8 and fs3 == 0 and fe3 == 0xfe and fm3 == 0x7fffff and rm_val
      == 0  #nosat'
    : 1 #  rs1_val==fnorm(0x7ed0905a) and rs2_val==fnorm(0x7f0e02b8) and rs3_val==fmaxnorm(0x7f7fffff) | Multiply-Add: Cancellation ---> Subnormal result 
    ? 'fs1 == 0 and fe1 == 0xfa and fm1 == 0x52ba4d and fs2 == 0 and fe2 == 0xfe and
      fm2 == 0x0970bd and fs3 == 0 and fe3 == 0xfe and fm3 == 0x7fffff and rm_val
      == 0  #nosat'
    : 1 #  rs1_val==fnorm(0x7d52ba4d) and rs2_val==fnorm(0x7f0970bd) and rs3_val==fmaxnorm(0x7f7fffff) | Multiply-Add: Cancellation ---> Subnormal result 
    ? 'fs1 == 0 and fe1 == 0xfd and fm1 == 0x2fc21e and fs2 == 0 and fe2 == 0xfc and
      fm2 == 0x6ff4bc and fs3 == 0 and fe3 == 0xfe and fm3 == 0x7fffff and rm_val
      == 0  #nosat'
    : 1 #  rs1_val==fnorm(0x7eafc21e) and rs2_val==fnorm(0x7e6ff4bc) and rs3_val==fmaxnorm(0x7f7fffff) | Multiply-Add: Cancellation ---> Subnormal result 
    ? 'fs1 == 0 and fe1 == 0xfd and fm1 == 0x656a07 and fs2 == 0 and fe2 == 0xfd and
      fm2 == 0x55173a and fs3 == 0 and fe3 == 0xfe and fm3 == 0x7fffff and rm_val
      == 0  #nosat'
    : 1 #  rs1_val==fnorm(0x7ee56a07) and rs2_val==fnorm(0x7ed5173a) and rs3_val==fmaxnorm(0x7f7fffff) | Multiply-Add: Cancellation ---> Subnormal result 
    ? 'fs1 == 0 and fe1 == 0xfb and fm1 == 0x592a8c and fs2 == 0 and fe2 == 0xfc and
      fm2 == 0x7e9d6e and fs3 == 0 and fe3 == 0xfe and fm3 == 0x7fffff and rm_val
      == 0  #nosat'
    : 1 #  rs1_val==fnorm(0x7dd92a8c) and rs2_val==fnorm(0x7e7e9d6e) and rs3_val==fmaxnorm(0x7f7fffff) | Multiply-Add: Cancellation ---> Subnormal result 
    ? 'fs1 == 0 and fe1 == 0xfd and fm1 == 0x7ba99e and fs2 == 0 and fe2 == 0xfb and
      fm2 == 0x3d2101 and fs3 == 0 and fe3 == 0xfe and fm3 == 0x7fffff and rm_val
      == 0  #nosat'
    : 1 #  rs1_val==fnorm(0x7efba99e) and rs2_val==fnorm(0x7dbd2101) and rs3_val==fmaxnorm(0x7f7fffff) | Multiply-Add: Cancellation ---> Subnormal result 
    ? 'fs1 == 0 and fe1 == 0xfd and fm1 == 0x724276 and fs2 == 0 and fe2 == 0xfc and
      fm2 == 0x098d5c and fs3 == 0 and fe3 == 0xfe and fm3 == 0x7fffff and rm_val
      == 0  #nosat'
    : 1 #  rs1_val==fnorm(0x7ef24276) and rs2_val==fnorm(0x7e098d5c) and rs3_val==fmaxnorm(0x7f7fffff) | Multiply-Add: Cancellation ---> Subnormal result 
    ? 'fs1 == 0 and fe1 == 0xfd and fm1 == 0x597e8a and fs2 == 0 and fe2 == 0xfc and
      fm2 == 0x0bc2ae and fs3 == 0 and fe3 == 0xfe and fm3 == 0x7fffff and rm_val
      == 0  #nosat'
    : 1 #  rs1_val==fnorm(0x7ed97e8a) and rs2_val==fnorm(0x7e0bc2ae) and rs3_val==fmaxnorm(0x7f7fffff) | Multiply-Add: Cancellation ---> Subnormal result 
    ? 'fs1 == 0 and fe1 == 0xfd and fm1 == 0x073a84 and fs2 == 0 and fe2 == 0xfe and
      fm2 == 0x09dfb8 and fs3 == 0 and fe3 == 0xfe and fm3 == 0x7fffff and rm_val
      == 0  #nosat'
    : 1 #  rs1_val==fnorm(0x7e873a84) and rs2_val==fnorm(0x7f09dfb8) and rs3_val==fmaxnorm(0x7f7fffff) | Multiply-Add: Cancellation ---> Subnormal result 
    ? 'fs1 == 0 and fe1 == 0xfd and fm1 == 0x4de363 and fs2 == 0 and fe2 == 0xfb and
      fm2 == 0x2e05d1 and fs3 == 0 and fe3 == 0xfe and fm3 == 0x7fffff and rm_val
      == 0  #nosat'
    : 1 #  rs1_val==fnorm(0x7ecde363) and rs2_val==fnorm(0x7dae05d1) and rs3_val==fmaxnorm(0x7f7fffff) | Multiply-Add: Cancellation ---> Subnormal result 
    ? 'fs1 == 0 and fe1 == 0xfe and fm1 == 0x10cdee and fs2 == 0 and fe2 == 0xfe and
      fm2 == 0x38931c and fs3 == 0 and fe3 == 0xfe and fm3 == 0x7fffff and rm_val
      == 0  #nosat'
    : 1 #  rs1_val==fnorm(0x7f10cdee) and rs2_val==fnorm(0x7f38931c) and rs3_val==fmaxnorm(0x7f7fffff) | Multiply-Add: Cancellation ---> Subnormal result 
    ? 'fs1 == 0 and fe1 == 0xfd and fm1 == 0x7b2a84 and fs2 == 0 and fe2 == 0xfe and
      fm2 == 0x1ac336 and fs3 == 0 and fe3 == 0xfe and fm3 == 0x7fffff and rm_val
      == 0  #nosat'
    : 1 #  rs1_val==fnorm(0x7efb2a84) and rs2_val==fnorm(0x7f1ac336) and rs3_val==fmaxnorm(0x7f7fffff) | Multiply-Add: Cancellation ---> Subnormal result 
    ? 'fs1 == 0 and fe1 == 0xfe and fm1 == 0x1167f4 and fs2 == 0 and fe2 == 0xfc and
      fm2 == 0x62f85a and fs3 == 0 and fe3 == 0xfe and fm3 == 0x7fffff and rm_val
      == 0  #nosat'
    : 1 #  rs1_val==fnorm(0x7f1167f4) and rs2_val==fnorm(0x7e62f85a) and rs3_val==fmaxnorm(0x7f7fffff) | Multiply-Add: Cancellation ---> Subnormal result 
    ? 'fs1 == 0 and fe1 == 0xfe and fm1 == 0x34ba29 and fs2 == 0 and fe2 == 0xfd and
      fm2 == 0x0fb3a8 and fs3 == 0 and fe3 == 0xfe and fm3 == 0x7fffff and rm_val
      == 0  #nosat'
    : 1 #  rs1_val==fnorm(0x7f34ba29) and rs2_val==fnorm(0x7e8fb3a8) and rs3_val==fmaxnorm(0x7f7fffff) | Multiply-Add: Cancellation ---> Subnormal result 
    ? 'fs1 == 0 and fe1 == 0xfe and fm1 == 0x2a571c and fs2 == 0 and fe2 == 0xfe and
      fm2 == 0x2e7b77 and fs3 == 0 and fe3 == 0xfe and fm3 == 0x7fffff and rm_val
      == 0  #nosat'
    : 1 #  rs1_val==fnorm(0x7f2a571c) and rs2_val==fnorm(0x7f2e7b77) and rs3_val==fmaxnorm(0x7f7fffff) | Multiply-Add: Cancellation ---> Subnormal result 
    ? 'fs1 == 0 and fe1 == 0xfc and fm1 == 0x530441 and fs2 == 0 and fe2 == 0xfd and
      fm2 == 0x7f86ba and fs3 == 0 and fe3 == 0xfe and fm3 == 0x7fffff and rm_val
      == 0  #nosat'
    : 1 #  rs1_val==fnorm(0x7e530441) and rs2_val==fnorm(0x7eff86ba) and rs3_val==fmaxnorm(0x7f7fffff) | Multiply-Add: Cancellation ---> Subnormal result 
    ? 'fs1 == 0 and fe1 == 0xfd and fm1 == 0x161cff and fs2 == 0 and fe2 == 0xfd and
      fm2 == 0x51086c and fs3 == 0 and fe3 == 0xfe and fm3 == 0x7fffff and rm_val
      == 0  #nosat'
    : 1 #  rs1_val==fnorm(0x7e961cff) and rs2_val==fnorm(0x7ed1086c) and rs3_val==fmaxnorm(0x7f7fffff) | Multiply-Add: Cancellation ---> Subnormal result 
    ? 'fs1 == 0 and fe1 == 0xfc and fm1 == 0x215a9a and fs2 == 0 and fe2 == 0xfd and
      fm2 == 0x60ae32 and fs3 == 0 and fe3 == 0xfe and fm3 == 0x7fffff and rm_val
      == 0  #nosat'
    : 1 #  rs1_val==fnorm(0x7e215a9a) and rs2_val==fnorm(0x7ee0ae32) and rs3_val==fmaxnorm(0x7f7fffff) | Multiply-Add: Cancellation ---> Subnormal result 
    ? 'fs1 == 0 and fe1 == 0xfd and fm1 == 0x00905e and fs2 == 0 and fe2 == 0xfd and
      fm2 == 0x27824d and fs3 == 0 and fe3 == 0xfe and fm3 == 0x7fffff and rm_val
      == 0  #nosat'
    : 1 #  rs1_val==fnorm(0x7e80905e) and rs2_val==fnorm(0x7ea7824d) and rs3_val==fmaxnorm(0x7f7fffff) | Multiply-Add: Cancellation ---> Subnormal result 
    ? 'fs1 == 0 and fe1 == 0xfd and fm1 == 0x5ed5d0 and fs2 == 0 and fe2 == 0xfe and
      fm2 == 0x01b289 and fs3 == 0 and fe3 == 0xfe and fm3 == 0x7fffff and rm_val
      == 0  #nosat'
    : 1 #  rs1_val==fnorm(0x7eded5d0) and rs2_val==fnorm(0x7f01b289) and rs3_val==fmaxnorm(0x7f7fffff) | Multiply-Add: Cancellation ---> Subnormal result 
    ? 'fs1 == 0 and fe1 == 0xfe and fm1 == 0x201d48 and fs2 == 0 and fe2 == 0xfc and
      fm2 == 0x601303 and fs3 == 0 and fe3 == 0xfe and fm3 == 0x7fffff and rm_val
      == 0  #nosat'
    : 1 #  rs1_val==fnorm(0x7f201d48) and rs2_val==fnorm(0x7e601303) and rs3_val==fmaxnorm(0x7f7fffff) | Multiply-Add: Cancellation ---> Subnormal result 
    ? 'fs1 == 0 and fe1 == 0xfe and fm1 == 0x0bf641 and fs2 == 0 and fe2 == 0xfb and
      fm2 == 0x03fb3f and fs3 == 0 and fe3 == 0xfe and fm3 == 0x7fffff and rm_val
      == 0  #nosat'
    : 1 #  rs1_val==fnorm(0x7f0bf641) and rs2_val==fnorm(0x7d83fb3f) and rs3_val==fmaxnorm(0x7f7fffff) | Multiply-Add: Cancellation ---> Subnormal result 
    ? 'fs1 == 0 and fe1 == 0xfe and fm1 == 0x261957 and fs2 == 0 and fe2 == 0xfc and
      fm2 == 0x70b43d and fs3 == 0 and fe3 == 0xfe and fm3 == 0x7fffff and rm_val
      == 0  #nosat'
    : 1 #  rs1_val==fnorm(0x7f261957) and rs2_val==fnorm(0x7e70b43d) and rs3_val==fmaxnorm(0x7f7fffff) | Multiply-Add: Cancellation ---> Subnormal result 
    ? 'fs1 == 0 and fe1 == 0xfe and fm1 == 0x24d9b0 and fs2 == 0 and fe2 == 0xfe and
      fm2 == 0x2cc100 and fs3 == 0 and fe3 == 0xfe and fm3 == 0x7fffff and rm_val
      == 0  #nosat'
    : 1 #  rs1_val==fnorm(0x7f24d9b0) and rs2_val==fnorm(0x7f2cc100) and rs3_val==fmaxnorm(0x7f7fffff) | Multiply-Add: Cancellation ---> Subnormal result 
    ? 'fs1 == 0 and fe1 == 0xfc and fm1 == 0x469f5a and fs2 == 0 and fe2 == 0xfc and
      fm2 == 0x0fc236 and fs3 == 0 and fe3 == 0xfe and fm3 == 0x7fffff and rm_val
      == 0  #nosat'
    : 1 #  rs1_val==fnorm(0x7e469f5a) and rs2_val==fnorm(0x7e0fc236) and rs3_val==fmaxnorm(0x7f7fffff) | Multiply-Add: Cancellation ---> Subnormal result 
    ? 'fs1 == 0 and fe1 == 0xfe and fm1 == 0x23f1fb and fs2 == 0 and fe2 == 0xfc and
      fm2 == 0x39ed2e and fs3 == 0 and fe3 == 0xfe and fm3 == 0x7fffff and rm_val
      == 0  #nosat'
    : 1 #  rs1_val==fnorm(0x7f23f1fb) and rs2_val==fnorm(0x7e39ed2e) and rs3_val==fmaxnorm(0x7f7fffff) | Multiply-Add: Cancellation ---> Subnormal result 
    ? 'fs1 == 0 and fe1 == 0xfe and fm1 == 0x09cbd1 and fs2 == 0 and fe2 == 0xfe and
      fm2 == 0x01aad7 and fs3 == 0 and fe3 == 0xfe and fm3 == 0x7fffff and rm_val
      == 0  #nosat'
    : 1 #  rs1_val==fnorm(0x7f09cbd1) and rs2_val==fnorm(0x7f01aad7) and rs3_val==fmaxnorm(0x7f7fffff) | Multiply-Add: Cancellation ---> Subnormal result 
    ? 'fs1 == 0 and fe1 == 0xfd and fm1 == 0x337ad1 and fs2 == 0 and fe2 == 0xfc and
      fm2 == 0x30557d and fs3 == 0 and fe3 == 0xfe and fm3 == 0x7fffff and rm_val
      == 0  #nosat'
    : 1 #  rs1_val==fnorm(0x7eb37ad1) and rs2_val==fnorm(0x7e30557d) and rs3_val==fmaxnorm(0x7f7fffff) | Multiply-Add: Cancellation ---> Subnormal result 
    ? 'fs1 == 0 and fe1 == 0xfd and fm1 == 0x19b362 and fs2 == 0 and fe2 == 0xfe and
      fm2 == 0x0cd956 and fs3 == 0 and fe3 == 0xfe and fm3 == 0x7fffff and rm_val
      == 0  #nosat'
    : 1 #  rs1_val==fnorm(0x7e99b362) and rs2_val==fnorm(0x7f0cd956) and rs3_val==fmaxnorm(0x7f7fffff) | Multiply-Add: Cancellation ---> Subnormal result 
    ? 'fs1 == 0 and fe1 == 0xfd and fm1 == 0x38d1a5 and fs2 == 0 and fe2 == 0xfe and
      fm2 == 0x0a6049 and fs3 == 0 and fe3 == 0xfe and fm3 == 0x7fffff and rm_val
      == 0  #nosat'
    : 1 #  rs1_val==fnorm(0x7eb8d1a5) and rs2_val==fnorm(0x7f0a6049) and rs3_val==fmaxnorm(0x7f7fffff) | Multiply-Add: Cancellation ---> Subnormal result 
    ? 'fs1 == 0 and fe1 == 0xfe and fm1 == 0x203ed5 and fs2 == 0 and fe2 == 0xfe and
      fm2 == 0x1dc006 and fs3 == 0 and fe3 == 0xfe and fm3 == 0x7fffff and rm_val
      == 0  #nosat'
    : 1 #  rs1_val==fnorm(0x7f203ed5) and rs2_val==fnorm(0x7f1dc006) and rs3_val==fmaxnorm(0x7f7fffff) | Multiply-Add: Cancellation ---> Subnormal result 
    ? 'fs1 == 0 and fe1 == 0xfd and fm1 == 0x382999 and fs2 == 0 and fe2 == 0xfd and
      fm2 == 0x660428 and fs3 == 0 and fe3 == 0xfe and fm3 == 0x7fffff and rm_val
      == 0  #nosat'
    : 1 #  rs1_val==fnorm(0x7eb82999) and rs2_val==fnorm(0x7ee60428) and rs3_val==fmaxnorm(0x7f7fffff) | Multiply-Add: Cancellation ---> Subnormal result 
    ? 'fs1 == 0 and fe1 == 0xfe and fm1 == 0x14a5b3 and fs2 == 0 and fe2 == 0xfb and
      fm2 == 0x5c95cc and fs3 == 0 and fe3 == 0xfe and fm3 == 0x7fffff and rm_val
      == 0  #nosat'
    : 1 #  rs1_val==fnorm(0x7f14a5b3) and rs2_val==fnorm(0x7ddc95cc) and rs3_val==fmaxnorm(0x7f7fffff) | Multiply-Add: Cancellation ---> Subnormal result 
    ? 'fs1 == 0 and fe1 == 0xfc and fm1 == 0x044948 and fs2 == 0 and fe2 == 0xfd and
      fm2 == 0x0a6bad and fs3 == 0 and fe3 == 0xfe and fm3 == 0x7fffff and rm_val
      == 0  #nosat'
    : 1 #  rs1_val==fnorm(0x7e044948) and rs2_val==fnorm(0x7e8a6bad) and rs3_val==fmaxnorm(0x7f7fffff) | Multiply-Add: Cancellation ---> Subnormal result 
    ? 'fs1 == 0 and fe1 == 0xf9 and fm1 == 0x0e1418 and fs2 == 0 and fe2 == 0xfd and
      fm2 == 0x381fbe and fs3 == 0 and fe3 == 0xfe and fm3 == 0x7fffff and rm_val
      == 0  #nosat'
    : 1 #  rs1_val==fnorm(0x7c8e1418) and rs2_val==fnorm(0x7eb81fbe) and rs3_val==fmaxnorm(0x7f7fffff) | Multiply-Add: Cancellation ---> Subnormal result 
    ? 'fs1 == 0 and fe1 == 0xfd and fm1 == 0x608143 and fs2 == 0 and fe2 == 0xfc and
      fm2 == 0x4d3073 and fs3 == 0 and fe3 == 0xfe and fm3 == 0x7fffff and rm_val
      == 0  #nosat'
    : 1 #  rs1_val==fnorm(0x7ee08143) and rs2_val==fnorm(0x7e4d3073) and rs3_val==fmaxnorm(0x7f7fffff) | Multiply-Add: Cancellation ---> Subnormal result 
    ? 'fs1 == 0 and fe1 == 0xfe and fm1 == 0x076c8a and fs2 == 0 and fe2 == 0xfd and
      fm2 == 0x1eab47 and fs3 == 0 and fe3 == 0xfe and fm3 == 0x7fffff and rm_val
      == 0  #nosat'
    : 1 #  rs1_val==fnorm(0x7f076c8a) and rs2_val==fnorm(0x7e9eab47) and rs3_val==fmaxnorm(0x7f7fffff) | Multiply-Add: Cancellation ---> Subnormal result 
    ? 'fs1 == 0 and fe1 == 0xfe and fm1 == 0x04b289 and fs2 == 0 and fe2 == 0xfe and
      fm2 == 0x370ec5 and fs3 == 0 and fe3 == 0xfe and fm3 == 0x7fffff and rm_val
      == 0  #nosat'
    : 1 #  rs1_val==fnorm(0x7f04b289) and rs2_val==fnorm(0x7f370ec5) and rs3_val==fmaxnorm(0x7f7fffff) | Multiply-Add: Cancellation ---> Subnormal result 
    ? 'fs1 == 0 and fe1 == 0xfd and fm1 == 0x60e085 and fs2 == 0 and fe2 == 0xfc and
      fm2 == 0x71cd8a and fs3 == 0 and fe3 == 0xfe and fm3 == 0x7fffff and rm_val
      == 0  #nosat'
    : 1 #  rs1_val==fnorm(0x7ee0e085) and rs2_val==fnorm(0x7e71cd8a) and rs3_val==fmaxnorm(0x7f7fffff) | Multiply-Add: Cancellation ---> Subnormal result 
    ? 'fs1 == 0 and fe1 == 0xfc and fm1 == 0x0eeeea and fs2 == 0 and fe2 == 0xfc and
      fm2 == 0x4d5498 and fs3 == 0 and fe3 == 0xfe and fm3 == 0x7fffff and rm_val
      == 0  #nosat'
    : 1 #  rs1_val==fnorm(0x7e0eeeea) and rs2_val==fnorm(0x7e4d5498) and rs3_val==fmaxnorm(0x7f7fffff) | Multiply-Add: Cancellation ---> Subnormal result 
    ? 'fs1 == 0 and fe1 == 0xfd and fm1 == 0x46a01f and fs2 == 0 and fe2 == 0xfd and
      fm2 == 0x2a21ee and fs3 == 0 and fe3 == 0xfe and fm3 == 0x7fffff and rm_val
      == 0  #nosat'
    : 1 #  rs1_val==fnorm(0x7ec6a01f) and rs2_val==fnorm(0x7eaa21ee) and rs3_val==fmaxnorm(0x7f7fffff) | Multiply-Add: Cancellation ---> Subnormal result 
    ? 'fs1 == 0 and fe1 == 0xfb and fm1 == 0x133df8 and fs2 == 0 and fe2 == 0xfe and
      fm2 == 0x0fa54d and fs3 == 0 and fe3 == 0xfe and fm3 == 0x7fffff and rm_val
      == 0  #nosat'
    : 1 #  rs1_val==fnorm(0x7d933df8) and rs2_val==fnorm(0x7f0fa54d) and rs3_val==fmaxnorm(0x7f7fffff) | Multiply-Add: Cancellation ---> Subnormal result 
    ? 'fs1 == 0 and fe1 == 0xfd and fm1 == 0x76e4d9 and fs2 == 0 and fe2 == 0xfe and
      fm2 == 0x2c4d11 and fs3 == 0 and fe3 == 0xfe and fm3 == 0x7fffff and rm_val
      == 0  #nosat'
    : 1 #  rs1_val==fnorm(0x7ef6e4d9) and rs2_val==fnorm(0x7f2c4d11) and rs3_val==fmaxnorm(0x7f7fffff) | Multiply-Add: Cancellation ---> Subnormal result 
    ? 'fs1 == 0 and fe1 == 0xfe and fm1 == 0x01615c and fs2 == 0 and fe2 == 0xfd and
      fm2 == 0x469037 and fs3 == 0 and fe3 == 0xfe and fm3 == 0x7fffff and rm_val
      == 0  #nosat'
    : 1 #  rs1_val==fnorm(0x7f01615c) and rs2_val==fnorm(0x7ec69037) and rs3_val==fmaxnorm(0x7f7fffff) | Multiply-Add: Cancellation ---> Subnormal result 
    ? 'fs1 == 0 and fe1 == 0xfb and fm1 == 0x76b68b and fs2 == 0 and fe2 == 0xfe and
      fm2 == 0x04a412 and fs3 == 0 and fe3 == 0xfe and fm3 == 0x7fffff and rm_val
      == 0  #nosat'
    : 1 #  rs1_val==fnorm(0x7df6b68b) and rs2_val==fnorm(0x7f04a412) and rs3_val==fmaxnorm(0x7f7fffff) | Multiply-Add: Cancellation ---> Subnormal result 
    ? 'fs1 == 0 and fe1 == 0xfe and fm1 == 0x3ad3ab and fs2 == 0 and fe2 == 0xfd and
      fm2 == 0x1e86f9 and fs3 == 0 and fe3 == 0xfe and fm3 == 0x7fffff and rm_val
      == 0  #nosat'
    : 1 #  rs1_val==fnorm(0x7f3ad3ab) and rs2_val==fnorm(0x7e9e86f9) and rs3_val==fmaxnorm(0x7f7fffff) | Multiply-Add: Cancellation ---> Subnormal result 
    ? 'fs1 == 0 and fe1 == 0xfd and fm1 == 0x209877 and fs2 == 0 and fe2 == 0xfa and
      fm2 == 0x7fc6b5 and fs3 == 0 and fe3 == 0xfe and fm3 == 0x7fffff and rm_val
      == 0  #nosat'
    : 1 #  rs1_val==fnorm(0x7ea09877) and rs2_val==fnorm(0x7d7fc6b5) and rs3_val==fmaxnorm(0x7f7fffff) | Multiply-Add: Cancellation ---> Subnormal result 
    ? 'fs1 == 0 and fe1 == 0xfd and fm1 == 0x0d1be6 and fs2 == 0 and fe2 == 0xfd and
      fm2 == 0x184f43 and fs3 == 0 and fe3 == 0xfe and fm3 == 0x7fffff and rm_val
      == 0  #nosat'
    : 1 #  rs1_val==fnorm(0x7e8d1be6) and rs2_val==fnorm(0x7e984f43) and rs3_val==fmaxnorm(0x7f7fffff) | Multiply-Add: Cancellation ---> Subnormal result 
    ? 'fs1 == 0 and fe1 == 0xfd and fm1 == 0x6c8964 and fs2 == 0 and fe2 == 0xfe and
      fm2 == 0x10ae28 and fs3 == 0 and fe3 == 0xfe and fm3 == 0x7fffff and rm_val
      == 0  #nosat'
    : 1 #  rs1_val==fnorm(0x7eec8964) and rs2_val==fnorm(0x7f10ae28) and rs3_val==fmaxnorm(0x7f7fffff) | Multiply-Add: Cancellation ---> Subnormal result 
    ? 'fs1 == 0 and fe1 == 0xfc and fm1 == 0x39f3eb and fs2 == 0 and fe2 == 0xfc and
      fm2 == 0x0a10b2 and fs3 == 0 and fe3 == 0xfe and fm3 == 0x7fffff and rm_val
      == 0  #nosat'
    : 1 #  rs1_val==fnorm(0x7e39f3eb) and rs2_val==fnorm(0x7e0a10b2) and rs3_val==fmaxnorm(0x7f7fffff) | Multiply-Add: Cancellation ---> Subnormal result 
    ? 'fs1 == 0 and fe1 == 0xfc and fm1 == 0x790586 and fs2 == 0 and fe2 == 0xfd and
      fm2 == 0x58913a and fs3 == 0 and fe3 == 0xfe and fm3 == 0x7fffff and rm_val
      == 0  #nosat'
    : 1 #  rs1_val==fnorm(0x7e790586) and rs2_val==fnorm(0x7ed8913a) and rs3_val==fmaxnorm(0x7f7fffff) | Multiply-Add: Cancellation ---> Subnormal result 
    ? 'fs1 == 0 and fe1 == 0xfe and fm1 == 0x0fcd1f and fs2 == 0 and fe2 == 0xfe and
      fm2 == 0x336f9b and fs3 == 0 and fe3 == 0xfe and fm3 == 0x7fffff and rm_val
      == 0  #nosat'
    : 1 #  rs1_val==fnorm(0x7f0fcd1f) and rs2_val==fnorm(0x7f336f9b) and rs3_val==fmaxnorm(0x7f7fffff) | Multiply-Add: Cancellation ---> Subnormal result 
    ? 'fs1 == 0 and fe1 == 0xfd and fm1 == 0x44595d and fs2 == 0 and fe2 == 0xfe and
      fm2 == 0x094f70 and fs3 == 0 and fe3 == 0xfe and fm3 == 0x7fffff and rm_val
      == 0  #nosat'
    : 1 #  rs1_val==fnorm(0x7ec4595d) and rs2_val==fnorm(0x7f094f70) and rs3_val==fmaxnorm(0x7f7fffff) | Multiply-Add: Cancellation ---> Subnormal result 
    ? 'fs1 == 0 and fe1 == 0xfe and fm1 == 0x195c05 and fs2 == 0 and fe2 == 0xf9 and
      fm2 == 0x5ed6a0 and fs3 == 0 and fe3 == 0xfe and fm3 == 0x7fffff and rm_val
      == 0  #nosat'
    : 1 #  rs1_val==fnorm(0x7f195c05) and rs2_val==fnorm(0x7cded6a0) and rs3_val==fmaxnorm(0x7f7fffff) | Multiply-Add: Cancellation ---> Subnormal result 
    ? 'fs1 == 0 and fe1 == 0xfe and fm1 == 0x208c03 and fs2 == 0 and fe2 == 0xfe and
      fm2 == 0x36dceb and fs3 == 0 and fe3 == 0xfe and fm3 == 0x7fffff and rm_val
      == 0  #nosat'
    : 1 #  rs1_val==fnorm(0x7f208c03) and rs2_val==fnorm(0x7f36dceb) and rs3_val==fmaxnorm(0x7f7fffff) | Multiply-Add: Cancellation ---> Subnormal result 
    ? 'fs1 == 0 and fe1 == 0xfb and fm1 == 0x3a4a99 and fs2 == 0 and fe2 == 0xfe and
      fm2 == 0x22097f and fs3 == 0 and fe3 == 0xfe and fm3 == 0x7fffff and rm_val
      == 0  #nosat'
    : 1 #  rs1_val==fnorm(0x7dba4a99) and rs2_val==fnorm(0x7f22097f) and rs3_val==fmaxnorm(0x7f7fffff) | Multiply-Add: Cancellation ---> Subnormal result 
    ? 'fs1 == 0 and fe1 == 0xfc and fm1 == 0x099707 and fs2 == 0 and fe2 == 0xf9 and
      fm2 == 0x104e6f and fs3 == 0 and fe3 == 0xfe and fm3 == 0x7fffff and rm_val
      == 0  #nosat'
    : 1 #  rs1_val==fnorm(0x7e099707) and rs2_val==fnorm(0x7c904e6f) and rs3_val==fmaxnorm(0x7f7fffff) | Multiply-Add: Cancellation ---> Subnormal result 
    ? 'fs1 == 0 and fe1 == 0xfb and fm1 == 0x0d00c9 and fs2 == 0 and fe2 == 0xfb and
      fm2 == 0x18862f and fs3 == 0 and fe3 == 0xfe and fm3 == 0x7fffff and rm_val
      == 0  #nosat'
    : 1 #  rs1_val==fnorm(0x7d8d00c9) and rs2_val==fnorm(0x7d98862f) and rs3_val==fmaxnorm(0x7f7fffff) | Multiply-Add: Cancellation ---> Subnormal result 
    ? 'fs1 == 0 and fe1 == 0xfb and fm1 == 0x5c71b6 and fs2 == 0 and fe2 == 0xfe and
      fm2 == 0x14aa96 and fs3 == 0 and fe3 == 0xfe and fm3 == 0x7fffff and rm_val
      == 0  #nosat'
    : 1 #  rs1_val==fnorm(0x7ddc71b6) and rs2_val==fnorm(0x7f14aa96) and rs3_val==fmaxnorm(0x7f7fffff) | Multiply-Add: Cancellation ---> Subnormal result 
    ? 'fs1 == 0 and fe1 == 0xfb and fm1 == 0x1e69a3 and fs2 == 0 and fe2 == 0xfd and
      fm2 == 0x61b309 and fs3 == 0 and fe3 == 0xfe and fm3 == 0x7fffff and rm_val
      == 0  #nosat'
    : 1 #  rs1_val==fnorm(0x7d9e69a3) and rs2_val==fnorm(0x7ee1b309) and rs3_val==fmaxnorm(0x7f7fffff) | Multiply-Add: Cancellation ---> Subnormal result 
    ? 'fs1 == 0 and fe1 == 0xfe and fm1 == 0x002bfc and fs2 == 0 and fe2 == 0xfe and
      fm2 == 0x0ce08c and fs3 == 0 and fe3 == 0xfe and fm3 == 0x7fffff and rm_val
      == 0  #nosat'
    : 1 #  rs1_val==fnorm(0x7f002bfc) and rs2_val==fnorm(0x7f0ce08c) and rs3_val==fmaxnorm(0x7f7fffff) | Multiply-Add: Cancellation ---> Subnormal result 
    ? 'fs1 == 0 and fe1 == 0xfd and fm1 == 0x7e51b6 and fs2 == 0 and fe2 == 0xfe and
      fm2 == 0x2a5eb4 and fs3 == 0 and fe3 == 0xfe and fm3 == 0x7fffff and rm_val
      == 0  #nosat'
    : 1 #  rs1_val==fnorm(0x7efe51b6) and rs2_val==fnorm(0x7f2a5eb4) and rs3_val==fmaxnorm(0x7f7fffff) | Multiply-Add: Cancellation ---> Subnormal result 
    ? 'fs1 == 0 and fe1 == 0xfd and fm1 == 0x323b21 and fs2 == 0 and fe2 == 0xfb and
      fm2 == 0x3d26fe and fs3 == 0 and fe3 == 0xfe and fm3 == 0x7fffff and rm_val
      == 0  #nosat'
    : 1 #  rs1_val==fnorm(0x7eb23b21) and rs2_val==fnorm(0x7dbd26fe) and rs3_val==fmaxnorm(0x7f7fffff) | Multiply-Add: Cancellation ---> Subnormal result 
    ? 'fs1 == 0 and fe1 == 0xfe and fm1 == 0x2c6353 and fs2 == 0 and fe2 == 0xfe and
      fm2 == 0x17db25 and fs3 == 0 and fe3 == 0xfe and fm3 == 0x7fffff and rm_val
      == 0  #nosat'
    : 1 #  rs1_val==fnorm(0x7f2c6353) and rs2_val==fnorm(0x7f17db25) and rs3_val==fmaxnorm(0x7f7fffff) | Multiply-Add: Cancellation ---> Subnormal result 
    ? 'fs1 == 0 and fe1 == 0xfe and fm1 == 0x28e580 and fs2 == 0 and fe2 == 0xfe and
      fm2 == 0x33ce10 and fs3 == 0 and fe3 == 0xfe and fm3 == 0x7fffff and rm_val
      == 0  #nosat'
    : 1 #  rs1_val==fnorm(0x7f28e580) and rs2_val==fnorm(0x7f33ce10) and rs3_val==fmaxnorm(0x7f7fffff) | Multiply-Add: Cancellation ---> Subnormal result 
    ? 'fs1 == 0 and fe1 == 0xfa and fm1 == 0x5be595 and fs2 == 0 and fe2 == 0xfd and
      fm2 == 0x23283d and fs3 == 0 and fe3 == 0xfe and fm3 == 0x7fffff and rm_val
      == 0  #nosat'
    : 1 #  rs1_val==fnorm(0x7d5be595) and rs2_val==fnorm(0x7ea3283d) and rs3_val==fmaxnorm(0x7f7fffff) | Multiply-Add: Cancellation ---> Subnormal result 
    ? 'fs1 == 0 and fe1 == 0xfc and fm1 == 0x3c3955 and fs2 == 0 and fe2 == 0xfd and
      fm2 == 0x4dc2f4 and fs3 == 0 and fe3 == 0xfe and fm3 == 0x7fffff and rm_val
      == 0  #nosat'
    : 1 #  rs1_val==fnorm(0x7e3c3955) and rs2_val==fnorm(0x7ecdc2f4) and rs3_val==fmaxnorm(0x7f7fffff) | Multiply-Add: Cancellation ---> Subnormal result 
    ? 'fs1 == 0 and fe1 == 0xfd and fm1 == 0x217a32 and fs2 == 0 and fe2 == 0xfe and
      fm2 == 0x05458a and fs3 == 0 and fe3 == 0xfe and fm3 == 0x7fffff and rm_val
      == 0  #nosat'
    : 1 #  rs1_val==fnorm(0x7ea17a32) and rs2_val==fnorm(0x7f05458a) and rs3_val==fmaxnorm(0x7f7fffff) | Multiply-Add: Cancellation ---> Subnormal result 
    ? 'fs1 == 0 and fe1 == 0xfd and fm1 == 0x0f0263 and fs2 == 0 and fe2 == 0xfd and
      fm2 == 0x3e85af and fs3 == 0 and fe3 == 0xfe and fm3 == 0x7fffff and rm_val
      == 0  #nosat'
    : 1 #  rs1_val==fnorm(0x7e8f0263) and rs2_val==fnorm(0x7ebe85af) and rs3_val==fmaxnorm(0x7f7fffff) | Multiply-Add: Cancellation ---> Subnormal result 
    ? 'fs1 == 0 and fe1 == 0xfe and fm1 == 0x19d2a8 and fs2 == 0 and fe2 == 0xfd and
      fm2 == 0x6f342a and fs3 == 0 and fe3 == 0xfe and fm3 == 0x7fffff and rm_val
      == 0  #nosat'
    : 1 #  rs1_val==fnorm(0x7f19d2a8) and rs2_val==fnorm(0x7eef342a) and rs3_val==fmaxnorm(0x7f7fffff) | Multiply-Add: Cancellation ---> Subnormal result 
    ? 'fs1 == 0 and fe1 == 0xfd and fm1 == 0x681a5c and fs2 == 0 and fe2 == 0xfe and
      fm2 == 0x16436d and fs3 == 0 and fe3 == 0xfe and fm3 == 0x7fffff and rm_val
      == 0  #nosat'
    : 1 #  rs1_val==fnorm(0x7ee81a5c) and rs2_val==fnorm(0x7f16436d) and rs3_val==fmaxnorm(0x7f7fffff) | Multiply-Add: Cancellation ---> Subnormal result 
    ? 'fs1 == 0 and fe1 == 0xfa and fm1 == 0x7574e1 and fs2 == 0 and fe2 == 0xfc and
      fm2 == 0x092190 and fs3 == 0 and fe3 == 0xfe and fm3 == 0x7fffff and rm_val
      == 0  #nosat'
    : 1 #  rs1_val==fnorm(0x7d7574e1) and rs2_val==fnorm(0x7e092190) and rs3_val==fmaxnorm(0x7f7fffff) | Multiply-Add: Cancellation ---> Subnormal result 
    ? 'fs1 == 0 and fe1 == 0xfd and fm1 == 0x55526b and fs2 == 0 and fe2 == 0xfe and
      fm2 == 0x097aef and fs3 == 0 and fe3 == 0xfe and fm3 == 0x7fffff and rm_val
      == 0  #nosat'
    : 1 #  rs1_val==fnorm(0x7ed5526b) and rs2_val==fnorm(0x7f097aef) and rs3_val==fmaxnorm(0x7f7fffff) | Multiply-Add: Cancellation ---> Subnormal result 
    ? 'fs1 == 0 and fe1 == 0xfc and fm1 == 0x12c03f and fs2 == 0 and fe2 == 0xfc and
      fm2 == 0x7c800c and fs3 == 0 and fe3 == 0xfe and fm3 == 0x7fffff and rm_val
      == 0  #nosat'
    : 1 #  rs1_val==fnorm(0x7e12c03f) and rs2_val==fnorm(0x7e7c800c) and rs3_val==fmaxnorm(0x7f7fffff) | Multiply-Add: Cancellation ---> Subnormal result 
    ? 'fs1 == 0 and fe1 == 0xfd and fm1 == 0x786a31 and fs2 == 0 and fe2 == 0xfd and
      fm2 == 0x614269 and fs3 == 0 and fe3 == 0xfe and fm3 == 0x7fffff and rm_val
      == 0  #nosat'
    : 1 #  rs1_val==fnorm(0x7ef86a31) and rs2_val==fnorm(0x7ee14269) and rs3_val==fmaxnorm(0x7f7fffff) | Multiply-Add: Cancellation ---> Subnormal result 
    ? 'fs1 == 0 and fe1 == 0xfc and fm1 == 0x729bb9 and fs2 == 0 and fe2 == 0xfc and
      fm2 == 0x7198e7 and fs3 == 0 and fe3 == 0xfe and fm3 == 0x7fffff and rm_val
      == 0  #nosat'
    : 1 #  rs1_val==fnorm(0x7e729bb9) and rs2_val==fnorm(0x7e7198e7) and rs3_val==fmaxnorm(0x7f7fffff) | Multiply-Add: Cancellation ---> Subnormal result 
    ? 'fs1 == 0 and fe1 == 0xfe and fm1 == 0x240ddf and fs2 == 0 and fe2 == 0xfb and
      fm2 == 0x044ae8 and fs3 == 0 and fe3 == 0xfe and fm3 == 0x7fffff and rm_val
      == 0  #nosat'
    : 1 #  rs1_val==fnorm(0x7f240ddf) and rs2_val==fnorm(0x7d844ae8) and rs3_val==fmaxnorm(0x7f7fffff) | Multiply-Add: Cancellation ---> Subnormal result 
    ? 'fs1 == 0 and fe1 == 0xfb and fm1 == 0x3f6d07 and fs2 == 0 and fe2 == 0xfa and
      fm2 == 0x522d12 and fs3 == 0 and fe3 == 0xfe and fm3 == 0x7fffff and rm_val
      == 0  #nosat'
    : 1 #  rs1_val==fnorm(0x7dbf6d07) and rs2_val==fnorm(0x7d522d12) and rs3_val==fmaxnorm(0x7f7fffff) | Multiply-Add: Cancellation ---> Subnormal result 
    ? 'fs1 == 0 and fe1 == 0xf5 and fm1 == 0x31cc28 and fs2 == 0 and fe2 == 0xfa and
      fm2 == 0x2872e3 and fs3 == 0 and fe3 == 0xfe and fm3 == 0x7fffff and rm_val
      == 0  #nosat'
    : 1 #  rs1_val==fnorm(0x7ab1cc28) and rs2_val==fnorm(0x7d2872e3) and rs3_val==fmaxnorm(0x7f7fffff) | Multiply-Add: Cancellation ---> Subnormal result 
    ? 'fs1 == 0 and fe1 == 0xfd and fm1 == 0x226d04 and fs2 == 0 and fe2 == 0xfd and
      fm2 == 0x3597f6 and fs3 == 0 and fe3 == 0xfe and fm3 == 0x7fffff and rm_val
      == 0  #nosat'
    : 1 #  rs1_val==fnorm(0x7ea26d04) and rs2_val==fnorm(0x7eb597f6) and rs3_val==fmaxnorm(0x7f7fffff) | Multiply-Add: Cancellation ---> Subnormal result 
    ? 'fs1 == 0 and fe1 == 0xfc and fm1 == 0x506ed3 and fs2 == 0 and fe2 == 0xfc and
      fm2 == 0x4e462d and fs3 == 0 and fe3 == 0xfe and fm3 == 0x7fffff and rm_val
      == 0  #nosat'
    : 1 #  rs1_val==fnorm(0x7e506ed3) and rs2_val==fnorm(0x7e4e462d) and rs3_val==fmaxnorm(0x7f7fffff) | Multiply-Add: Cancellation ---> Subnormal result 
    ? 'fs1 == 0 and fe1 == 0xfd and fm1 == 0x716299 and fs2 == 0 and fe2 == 0xfe and
      fm2 == 0x259c47 and fs3 == 0 and fe3 == 0xfe and fm3 == 0x7fffff and rm_val
      == 0  #nosat'
    : 1 #  rs1_val==fnorm(0x7ef16299) and rs2_val==fnorm(0x7f259c47) and rs3_val==fmaxnorm(0x7f7fffff) | Multiply-Add: Cancellation ---> Subnormal result 
    ? 'fs1 == 0 and fe1 == 0xfe and fm1 == 0x1ac304 and fs2 == 0 and fe2 == 0xfe and
      fm2 == 0x1e1c9c and fs3 == 0 and fe3 == 0xfe and fm3 == 0x7fffff and rm_val
      == 0  #nosat'
    : 1 #  rs1_val==fnorm(0x7f1ac304) and rs2_val==fnorm(0x7f1e1c9c) and rs3_val==fmaxnorm(0x7f7fffff) | Multiply-Add: Cancellation ---> Subnormal result 
    ? 'fs1 == 0 and fe1 == 0xfc and fm1 == 0x038f64 and fs2 == 0 and fe2 == 0xfe and
      fm2 == 0x180041 and fs3 == 0 and fe3 == 0xfe and fm3 == 0x7fffff and rm_val
      == 0  #nosat'
    : 1 #  rs1_val==fnorm(0x7e038f64) and rs2_val==fnorm(0x7f180041) and rs3_val==fmaxnorm(0x7f7fffff) | Multiply-Add: Cancellation ---> Subnormal result 
    ? 'fs1 == 0 and fe1 == 0xfc and fm1 == 0x178d60 and fs2 == 0 and fe2 == 0xfd and
      fm2 == 0x4d4cf5 and fs3 == 0 and fe3 == 0xfe and fm3 == 0x7fffff and rm_val
      == 0  #nosat'
    : 1 #  rs1_val==fnorm(0x7e178d60) and rs2_val==fnorm(0x7ecd4cf5) and rs3_val==fmaxnorm(0x7f7fffff) | Multiply-Add: Cancellation ---> Subnormal result 
    ? 'fs1 == 0 and fe1 == 0xfd and fm1 == 0x373e6b and fs2 == 0 and fe2 == 0xfe and
      fm2 == 0x1634d7 and fs3 == 0 and fe3 == 0xfe and fm3 == 0x7fffff and rm_val
      == 0  #nosat'
    : 1 #  rs1_val==fnorm(0x7eb73e6b) and rs2_val==fnorm(0x7f1634d7) and rs3_val==fmaxnorm(0x7f7fffff) | Multiply-Add: Cancellation ---> Subnormal result 
    ? 'fs1 == 0 and fe1 == 0xfd and fm1 == 0x031454 and fs2 == 0 and fe2 == 0xfc and
      fm2 == 0x41e692 and fs3 == 0 and fe3 == 0xfe and fm3 == 0x7fffff and rm_val
      == 0  #nosat'
    : 1 #  rs1_val==fnorm(0x7e831454) and rs2_val==fnorm(0x7e41e692) and rs3_val==fmaxnorm(0x7f7fffff) | Multiply-Add: Cancellation ---> Subnormal result 
    ? 'fs1 == 0 and fe1 == 0xfd and fm1 == 0x1ee152 and fs2 == 0 and fe2 == 0xfe and
      fm2 == 0x344bd0 and fs3 == 0 and fe3 == 0xfe and fm3 == 0x7fffff and rm_val
      == 0  #nosat'
    : 1 #  rs1_val==fnorm(0x7e9ee152) and rs2_val==fnorm(0x7f344bd0) and rs3_val==fmaxnorm(0x7f7fffff) | Multiply-Add: Cancellation ---> Subnormal result 
    ? 'fs1 == 0 and fe1 == 0xfc and fm1 == 0x665064 and fs2 == 0 and fe2 == 0xfd and
      fm2 == 0x7e8d56 and fs3 == 0 and fe3 == 0xfe and fm3 == 0x7fffff and rm_val
      == 0  #nosat'
    : 1 #  rs1_val==fnorm(0x7e665064) and rs2_val==fnorm(0x7efe8d56) and rs3_val==fmaxnorm(0x7f7fffff) | Multiply-Add: Cancellation ---> Subnormal result 
    ? 'fs1 == 0 and fe1 == 0xf8 and fm1 == 0x218502 and fs2 == 0 and fe2 == 0xfe and
      fm2 == 0x0f18e6 and fs3 == 0 and fe3 == 0xfe and fm3 == 0x7fffff and rm_val
      == 0  #nosat'
    : 1 #  rs1_val==fnorm(0x7c218502) and rs2_val==fnorm(0x7f0f18e6) and rs3_val==fmaxnorm(0x7f7fffff) | Multiply-Add: Cancellation ---> Subnormal result 
    ? 'fs1 == 0 and fe1 == 0xfe and fm1 == 0x2c2411 and fs2 == 0 and fe2 == 0xfe and
      fm2 == 0x2cbcd0 and fs3 == 0 and fe3 == 0xfe and fm3 == 0x7fffff and rm_val
      == 0  #nosat'
    : 1 #  rs1_val==fnorm(0x7f2c2411) and rs2_val==fnorm(0x7f2cbcd0) and rs3_val==fmaxnorm(0x7f7fffff) | Multiply-Add: Cancellation ---> Subnormal result 
    ? 'fs1 == 0 and fe1 == 0xfe and fm1 == 0x2d7e33 and fs2 == 0 and fe2 == 0xfe and
      fm2 == 0x053104 and fs3 == 0 and fe3 == 0xfe and fm3 == 0x7fffff and rm_val
      == 0  #nosat'
    : 1 #  rs1_val==fnorm(0x7f2d7e33) and rs2_val==fnorm(0x7f053104) and rs3_val==fmaxnorm(0x7f7fffff) | Multiply-Add: Cancellation ---> Subnormal result 
    ? 'fs1 == 0 and fe1 == 0xfc and fm1 == 0x5c6cb0 and fs2 == 0 and fe2 == 0xfe and
      fm2 == 0x1b8e8c and fs3 == 0 and fe3 == 0xfe and fm3 == 0x7fffff and rm_val
      == 0  #nosat'
    : 1 #  rs1_val==fnorm(0x7e5c6cb0) and rs2_val==fnorm(0x7f1b8e8c) and rs3_val==fmaxnorm(0x7f7fffff) | Multiply-Add: Cancellation ---> Subnormal result 
    ? 'fs1 == 0 and fe1 == 0xfc and fm1 == 0x2eb1b3 and fs2 == 0 and fe2 == 0xfa and
      fm2 == 0x511a8e and fs3 == 0 and fe3 == 0xfe and fm3 == 0x7fffff and rm_val
      == 0  #nosat'
    : 1 #  rs1_val==fnorm(0x7e2eb1b3) and rs2_val==fnorm(0x7d511a8e) and rs3_val==fmaxnorm(0x7f7fffff) | Multiply-Add: Cancellation ---> Subnormal result 
    ? 'fs1 == 0 and fe1 == 0xfd and fm1 == 0x474d3f and fs2 == 0 and fe2 == 0xfc and
      fm2 == 0x5dfbef and fs3 == 0 and fe3 == 0xfe and fm3 == 0x7fffff and rm_val
      == 0  #nosat'
    : 1 #  rs1_val==fnorm(0x7ec74d3f) and rs2_val==fnorm(0x7e5dfbef) and rs3_val==fmaxnorm(0x7f7fffff) | Multiply-Add: Cancellation ---> Subnormal result 
    ? 'fs1 == 0 and fe1 == 0xfe and fm1 == 0x0f23f2 and fs2 == 0 and fe2 == 0xfe and
      fm2 == 0x20a569 and fs3 == 0 and fe3 == 0xfe and fm3 == 0x7fffff and rm_val
      == 0  #nosat'
    : 1 #  rs1_val==fnorm(0x7f0f23f2) and rs2_val==fnorm(0x7f20a569) and rs3_val==fmaxnorm(0x7f7fffff) | Multiply-Add: Cancellation ---> Subnormal result 
    ? 'fs1 == 0 and fe1 == 0xfe and fm1 == 0x366e51 and fs2 == 0 and fe2 == 0xfe and
      fm2 == 0x320e71 and fs3 == 0 and fe3 == 0xfe and fm3 == 0x7fffff and rm_val
      == 0  #nosat'
    : 1 #  rs1_val==fnorm(0x7f366e51) and rs2_val==fnorm(0x7f320e71) and rs3_val==fmaxnorm(0x7f7fffff) | Multiply-Add: Cancellation ---> Subnormal result 
    ? 'fs1 == 0 and fe1 == 0xfe and fm1 == 0x28f4b0 and fs2 == 0 and fe2 == 0xfe and
      fm2 == 0x3d7cc7 and fs3 == 0 and fe3 == 0xfe and fm3 == 0x7fffff and rm_val
      == 0  #nosat'
    : 1 #  rs1_val==fnorm(0x7f28f4b0) and rs2_val==fnorm(0x7f3d7cc7) and rs3_val==fmaxnorm(0x7f7fffff) | Multiply-Add: Cancellation ---> Subnormal result 
    ? 'fs1 == 0 and fe1 == 0xfb and fm1 == 0x6f9cda and fs2 == 0 and fe2 == 0xf6 and
      fm2 == 0x6522f2 and fs3 == 0 and fe3 == 0xfe and fm3 == 0x7fffff and rm_val
      == 0  #nosat'
    : 1 #  rs1_val==fnorm(0x7def9cda) and rs2_val==fnorm(0x7b6522f2) and rs3_val==fmaxnorm(0x7f7fffff) | Multiply-Add: Cancellation ---> Subnormal result 
    ? 'fs1 == 0 and fe1 == 0xfd and fm1 == 0x21312f and fs2 == 0 and fe2 == 0xfd and
      fm2 == 0x1d41a9 and fs3 == 0 and fe3 == 0xfe and fm3 == 0x7fffff and rm_val
      == 0  #nosat'
    : 1 #  rs1_val==fnorm(0x7ea1312f) and rs2_val==fnorm(0x7e9d41a9) and rs3_val==fmaxnorm(0x7f7fffff) | Multiply-Add: Cancellation ---> Subnormal result 
    ? 'fs1 == 0 and fe1 == 0xfc and fm1 == 0x504312 and fs2 == 0 and fe2 == 0xfd and
      fm2 == 0x050002 and fs3 == 0 and fe3 == 0xfe and fm3 == 0x7fffff and rm_val
      == 0  #nosat'
    : 1 #  rs1_val==fnorm(0x7e504312) and rs2_val==fnorm(0x7e850002) and rs3_val==fmaxnorm(0x7f7fffff) | Multiply-Add: Cancellation ---> Subnormal result 
    ? 'fs1 == 0 and fe1 == 0xfb and fm1 == 0x4733d7 and fs2 == 0 and fe2 == 0xfc and
      fm2 == 0x60364e and fs3 == 0 and fe3 == 0xfe and fm3 == 0x7fffff and rm_val
      == 0  #nosat'
    : 1 #  rs1_val==fnorm(0x7dc733d7) and rs2_val==fnorm(0x7e60364e) and rs3_val==fmaxnorm(0x7f7fffff) | Multiply-Add: Cancellation ---> Subnormal result 
    ? 'fs1 == 0 and fe1 == 0xfd and fm1 == 0x7680ff and fs2 == 0 and fe2 == 0xfe and
      fm2 == 0x1acd2f and fs3 == 0 and fe3 == 0xfe and fm3 == 0x7fffff and rm_val
      == 0  #nosat'
    : 1 #  rs1_val==fnorm(0x7ef680ff) and rs2_val==fnorm(0x7f1acd2f) and rs3_val==fmaxnorm(0x7f7fffff) | Multiply-Add: Cancellation ---> Subnormal result 
    ? 'fs1 == 0 and fe1 == 0xfc and fm1 == 0x0cfe89 and fs2 == 0 and fe2 == 0xfc and
      fm2 == 0x55f571 and fs3 == 0 and fe3 == 0xfe and fm3 == 0x7fffff and rm_val
      == 0  #nosat'
    : 1 #  rs1_val==fnorm(0x7e0cfe89) and rs2_val==fnorm(0x7e55f571) and rs3_val==fmaxnorm(0x7f7fffff) | Multiply-Add: Cancellation ---> Subnormal result 
    ? 'fs1 == 0 and fe1 == 0xfc and fm1 == 0x12898d and fs2 == 0 and fe2 == 0xfe and
      fm2 == 0x1ae6b6 and fs3 == 0 and fe3 == 0xfe and fm3 == 0x7fffff and rm_val
      == 0  #nosat'
    : 1 #  rs1_val==fnorm(0x7e12898d) and rs2_val==fnorm(0x7f1ae6b6) and rs3_val==fmaxnorm(0x7f7fffff) | Multiply-Add: Cancellation ---> Subnormal result 
    ? 'fs1 == 0 and fe1 == 0xfc and fm1 == 0x2cd245 and fs2 == 0 and fe2 == 0xfb and
      fm2 == 0x39bb69 and fs3 == 0 and fe3 == 0xfe and fm3 == 0x7fffff and rm_val
      == 0  #nosat'
    : 1 #  rs1_val==fnorm(0x7e2cd245) and rs2_val==fnorm(0x7db9bb69) and rs3_val==fmaxnorm(0x7f7fffff) | Multiply-Add: Cancellation ---> Subnormal result 
    ? 'fs1 == 0 and fe1 == 0xfd and fm1 == 0x79b070 and fs2 == 0 and fe2 == 0xfe and
      fm2 == 0x29e684 and fs3 == 0 and fe3 == 0xfe and fm3 == 0x7fffff and rm_val
      == 0  #nosat'
    : 1 #  rs1_val==fnorm(0x7ef9b070) and rs2_val==fnorm(0x7f29e684) and rs3_val==fmaxnorm(0x7f7fffff) | Multiply-Add: Cancellation ---> Subnormal result 
    ? 'fs1 == 0 and fe1 == 0xfe and fm1 == 0x244343 and fs2 == 0 and fe2 == 0xfc and
      fm2 == 0x0202a2 and fs3 == 0 and fe3 == 0xfe and fm3 == 0x7fffff and rm_val
      == 0  #nosat'
    : 1 #  rs1_val==fnorm(0x7f244343) and rs2_val==fnorm(0x7e0202a2) and rs3_val==fmaxnorm(0x7f7fffff) | Multiply-Add: Cancellation ---> Subnormal result 
    ? 'fs1 == 0 and fe1 == 0xfd and fm1 == 0x002951 and fs2 == 0 and fe2 == 0xfe and
      fm2 == 0x200a1a and fs3 == 0 and fe3 == 0xfe and fm3 == 0x7fffff and rm_val
      == 0  #nosat'
    : 1 #  rs1_val==fnorm(0x7e802951) and rs2_val==fnorm(0x7f200a1a) and rs3_val==fmaxnorm(0x7f7fffff) | Multiply-Add: Cancellation ---> Subnormal result 
    ? 'fs1 == 0 and fe1 == 0xfe and fm1 == 0x06075b and fs2 == 0 and fe2 == 0xfb and
      fm2 == 0x1c6dc8 and fs3 == 0 and fe3 == 0xfe and fm3 == 0x7fffff and rm_val
      == 0  #nosat'
    : 1 #  rs1_val==fnorm(0x7f06075b) and rs2_val==fnorm(0x7d9c6dc8) and rs3_val==fmaxnorm(0x7f7fffff) | Multiply-Add: Cancellation ---> Subnormal result 
    ? 'fs1 == 0 and fe1 == 0xfc and fm1 == 0x375161 and fs2 == 0 and fe2 == 0xfc and
      fm2 == 0x0feb39 and fs3 == 0 and fe3 == 0xfe and fm3 == 0x7fffff and rm_val
      == 0  #nosat'
    : 1 #  rs1_val==fnorm(0x7e375161) and rs2_val==fnorm(0x7e0feb39) and rs3_val==fmaxnorm(0x7f7fffff) | Multiply-Add: Cancellation ---> Subnormal result 
    ? 'fs1 == 0 and fe1 == 0xfc and fm1 == 0x6e17c2 and fs2 == 0 and fe2 == 0xfc and
      fm2 == 0x2ae8b7 and fs3 == 0 and fe3 == 0xfe and fm3 == 0x7fffff and rm_val
      == 0  #nosat'
    : 1 #  rs1_val==fnorm(0x7e6e17c2) and rs2_val==fnorm(0x7e2ae8b7) and rs3_val==fmaxnorm(0x7f7fffff) | Multiply-Add: Cancellation ---> Subnormal result 
    ? 'fs1 == 0 and fe1 == 0xf9 and fm1 == 0x256764 and fs2 == 0 and fe2 == 0xfd and
      fm2 == 0x5a9856 and fs3 == 0 and fe3 == 0xfe and fm3 == 0x7fffff and rm_val
      == 0  #nosat'
    : 1 #  rs1_val==fnorm(0x7ca56764) and rs2_val==fnorm(0x7eda9856) and rs3_val==fmaxnorm(0x7f7fffff) | Multiply-Add: Cancellation ---> Subnormal result 
    ? 'fs1 == 0 and fe1 == 0xfc and fm1 == 0x66b5d2 and fs2 == 0 and fe2 == 0xfd and
      fm2 == 0x10d45e and fs3 == 0 and fe3 == 0xfe and fm3 == 0x7fffff and rm_val
      == 0  #nosat'
    : 1 #  rs1_val==fnorm(0x7e66b5d2) and rs2_val==fnorm(0x7e90d45e) and rs3_val==fmaxnorm(0x7f7fffff) | Multiply-Add: Cancellation ---> Subnormal result 
    ? 'fs1 == 0 and fe1 == 0xfc and fm1 == 0x70218d and fs2 == 0 and fe2 == 0xfd and
      fm2 == 0x0dc14f and fs3 == 0 and fe3 == 0xfe and fm3 == 0x7fffff and rm_val
      == 0  #nosat'
    : 1 #  rs1_val==fnorm(0x7e70218d) and rs2_val==fnorm(0x7e8dc14f) and rs3_val==fmaxnorm(0x7f7fffff) | Multiply-Add: Cancellation ---> Subnormal result 
    ? 'fs1 == 0 and fe1 == 0xfd and fm1 == 0x639603 and fs2 == 0 and fe2 == 0xfc and
      fm2 == 0x75c78c and fs3 == 0 and fe3 == 0xfe and fm3 == 0x7fffff and rm_val
      == 0  #nosat'
    : 1 #  rs1_val==fnorm(0x7ee39603) and rs2_val==fnorm(0x7e75c78c) and rs3_val==fmaxnorm(0x7f7fffff) | Multiply-Add: Cancellation ---> Subnormal result 
    ? 'fs1 == 0 and fe1 == 0xfe and fm1 == 0x38f464 and fs2 == 0 and fe2 == 0xfc and
      fm2 == 0x40dca5 and fs3 == 0 and fe3 == 0xfe and fm3 == 0x7fffff and rm_val
      == 0  #nosat'
    : 1 #  rs1_val==fnorm(0x7f38f464) and rs2_val==fnorm(0x7e40dca5) and rs3_val==fmaxnorm(0x7f7fffff) | Multiply-Add: Cancellation ---> Subnormal result 
    ? 'fs1 == 0 and fe1 == 0xf9 and fm1 == 0x084a01 and fs2 == 0 and fe2 == 0xfa and
      fm2 == 0x3a1788 and fs3 == 0 and fe3 == 0xfe and fm3 == 0x7fffff and rm_val
      == 0  #nosat'
    : 1 #  rs1_val==fnorm(0x7c884a01) and rs2_val==fnorm(0x7d3a1788) and rs3_val==fmaxnorm(0x7f7fffff) | Multiply-Add: Cancellation ---> Subnormal result 
    ? 'fs1 == 0 and fe1 == 0xfd and fm1 == 0x0763b9 and fs2 == 0 and fe2 == 0xfe and
      fm2 == 0x07bc04 and fs3 == 0 and fe3 == 0xfe and fm3 == 0x7fffff and rm_val
      == 0  #nosat'
    : 1 #  rs1_val==fnorm(0x7e8763b9) and rs2_val==fnorm(0x7f07bc04) and rs3_val==fmaxnorm(0x7f7fffff) | Multiply-Add: Cancellation ---> Subnormal result 
    ? 'fs1 == 0 and fe1 == 0xfd and fm1 == 0x70e623 and fs2 == 0 and fe2 == 0xfd and
      fm2 == 0x330a47 and fs3 == 0 and fe3 == 0xfe and fm3 == 0x7fffff and rm_val
      == 0  #nosat'
    : 1 #  rs1_val==fnorm(0x7ef0e623) and rs2_val==fnorm(0x7eb30a47) and rs3_val==fmaxnorm(0x7f7fffff) | Multiply-Add: Cancellation ---> Subnormal result 
    ? 'fs1 == 0 and fe1 == 0xfd and fm1 == 0x6c7765 and fs2 == 0 and fe2 == 0xfd and
      fm2 == 0x72c1df and fs3 == 0 and fe3 == 0xfe and fm3 == 0x7fffff and rm_val
      == 0  #nosat'
    : 1 #  rs1_val==fnorm(0x7eec7765) and rs2_val==fnorm(0x7ef2c1df) and rs3_val==fmaxnorm(0x7f7fffff) | Multiply-Add: Cancellation ---> Subnormal result 
    ? 'fs1 == 0 and fe1 == 0xfd and fm1 == 0x1f70d6 and fs2 == 0 and fe2 == 0xfd and
      fm2 == 0x5eb4e5 and fs3 == 0 and fe3 == 0xfe and fm3 == 0x7fffff and rm_val
      == 0  #nosat'
    : 1 #  rs1_val==fnorm(0x7e9f70d6) and rs2_val==fnorm(0x7edeb4e5) and rs3_val==fmaxnorm(0x7f7fffff) | Multiply-Add: Cancellation ---> Subnormal result 
    ? 'fs1 == 0 and fe1 == 0xfd and fm1 == 0x481ce5 and fs2 == 0 and fe2 == 0xfd and
      fm2 == 0x5298e8 and fs3 == 0 and fe3 == 0xfe and fm3 == 0x7fffff and rm_val
      == 0  #nosat'
    : 1 #  rs1_val==fnorm(0x7ec81ce5) and rs2_val==fnorm(0x7ed298e8) and rs3_val==fmaxnorm(0x7f7fffff) | Multiply-Add: Cancellation ---> Subnormal result 
    ? 'fs1 == 0 and fe1 == 0xfc and fm1 == 0x36810f and fs2 == 0 and fe2 == 0xfc and
      fm2 == 0x673c15 and fs3 == 0 and fe3 == 0xfe and fm3 == 0x7fffff and rm_val
      == 0  #nosat'
    : 1 #  rs1_val==fnorm(0x7e36810f) and rs2_val==fnorm(0x7e673c15) and rs3_val==fmaxnorm(0x7f7fffff) | Multiply-Add: Cancellation ---> Subnormal result 
    ? 'fs1 == 0 and fe1 == 0xfd and fm1 == 0x42b2c3 and fs2 == 0 and fe2 == 0xfd and
      fm2 == 0x2593da and fs3 == 0 and fe3 == 0xfe and fm3 == 0x7fffff and rm_val
      == 0  #nosat'
    : 1 #  rs1_val==fnorm(0x7ec2b2c3) and rs2_val==fnorm(0x7ea593da) and rs3_val==fmaxnorm(0x7f7fffff) | Multiply-Add: Cancellation ---> Subnormal result 
    ? 'fs1 == 0 and fe1 == 0xfd and fm1 == 0x56c198 and fs2 == 0 and fe2 == 0xfd and
      fm2 == 0x6e20e0 and fs3 == 0 and fe3 == 0xfe and fm3 == 0x7fffff and rm_val
      == 0  #nosat'
    : 1 #  rs1_val==fnorm(0x7ed6c198) and rs2_val==fnorm(0x7eee20e0) and rs3_val==fmaxnorm(0x7f7fffff) | Multiply-Add: Cancellation ---> Subnormal result 
    ? 'fs1 == 0 and fe1 == 0xfd and fm1 == 0x47b540 and fs2 == 0 and fe2 == 0xfd and
      fm2 == 0x7740d5 and fs3 == 0 and fe3 == 0xfe and fm3 == 0x7fffff and rm_val
      == 0  #nosat'
    : 1 #  rs1_val==fnorm(0x7ec7b540) and rs2_val==fnorm(0x7ef740d5) and rs3_val==fmaxnorm(0x7f7fffff) | Multiply-Add: Cancellation ---> Subnormal result 
    ? 'fs1 == 0 and fe1 == 0xfe and fm1 == 0x2c289c and fs2 == 0 and fe2 == 0xfd and
      fm2 == 0x111231 and fs3 == 0 and fe3 == 0xfe and fm3 == 0x7fffff and rm_val
      == 0  #nosat'
    : 1 #  rs1_val==fnorm(0x7f2c289c) and rs2_val==fnorm(0x7e911231) and rs3_val==fmaxnorm(0x7f7fffff) | Multiply-Add: Cancellation ---> Subnormal result 
    ? 'fs1 == 0 and fe1 == 0xfe and fm1 == 0x269d12 and fs2 == 0 and fe2 == 0xfc and
      fm2 == 0x710596 and fs3 == 0 and fe3 == 0xfe and fm3 == 0x7fffff and rm_val
      == 0  #nosat'
    : 1 #  rs1_val==fnorm(0x7f269d12) and rs2_val==fnorm(0x7e710596) and rs3_val==fmaxnorm(0x7f7fffff) | Multiply-Add: Cancellation ---> Subnormal result 
    ? 'fs1 == 0 and fe1 == 0xfd and fm1 == 0x6a6b5b and fs2 == 0 and fe2 == 0xfb and
      fm2 == 0x6febf0 and fs3 == 0 and fe3 == 0xfe and fm3 == 0x7fffff and rm_val
      == 0  #nosat'
    : 1 #  rs1_val==fnorm(0x7eea6b5b) and rs2_val==fnorm(0x7defebf0) and rs3_val==fmaxnorm(0x7f7fffff) | Multiply-Add: Cancellation ---> Subnormal result 
    ? 'fs1 == 0 and fe1 == 0xf9 and fm1 == 0x40c8f3 and fs2 == 0 and fe2 == 0xfc and
      fm2 == 0x179770 and fs3 == 0 and fe3 == 0xfe and fm3 == 0x7fffff and rm_val
      == 0  #nosat'
    : 1 #  rs1_val==fnorm(0x7cc0c8f3) and rs2_val==fnorm(0x7e179770) and rs3_val==fmaxnorm(0x7f7fffff) | Multiply-Add: Cancellation ---> Subnormal result 
    ? 'fs1 == 0 and fe1 == 0xfc and fm1 == 0x6dd39b and fs2 == 0 and fe2 == 0xfa and
      fm2 == 0x6c7439 and fs3 == 0 and fe3 == 0xfe and fm3 == 0x7fffff and rm_val
      == 0  #nosat'
    : 1 #  rs1_val==fnorm(0x7e6dd39b) and rs2_val==fnorm(0x7d6c7439) and rs3_val==fmaxnorm(0x7f7fffff) | Multiply-Add: Cancellation ---> Subnormal result 
    ? 'fs1 == 0 and fe1 == 0xfe and fm1 == 0x3c4834 and fs2 == 0 and fe2 == 0xfd and
      fm2 == 0x4214d7 and fs3 == 0 and fe3 == 0xfe and fm3 == 0x7fffff and rm_val
      == 0  #nosat'
    : 1 #  rs1_val==fnorm(0x7f3c4834) and rs2_val==fnorm(0x7ec214d7) and rs3_val==fmaxnorm(0x7f7fffff) | Multiply-Add: Cancellation ---> Subnormal result 
    ? 'fs1 == 0 and fe1 == 0xfe and fm1 == 0x09f0c8 and fs2 == 0 and fe2 == 0xfc and
      fm2 == 0x7e2c3a and fs3 == 0 and fe3 == 0xfe and fm3 == 0x7fffff and rm_val
      == 0  #nosat'
    : 1 #  rs1_val==fnorm(0x7f09f0c8) and rs2_val==fnorm(0x7e7e2c3a) and rs3_val==fmaxnorm(0x7f7fffff) | Multiply-Add: Cancellation ---> Subnormal result 
    ? 'fs1 == 0 and fe1 == 0xfa and fm1 == 0x07c07a and fs2 == 0 and fe2 == 0xfd and
      fm2 == 0x6bfb00 and fs3 == 0 and fe3 == 0xfe and fm3 == 0x7fffff and rm_val
      == 0  #nosat'
    : 1 #  rs1_val==fnorm(0x7d07c07a) and rs2_val==fnorm(0x7eebfb00) and rs3_val==fmaxnorm(0x7f7fffff) | Multiply-Add: Cancellation ---> Subnormal result 
    ? 'fs1 == 0 and fe1 == 0xfc and fm1 == 0x61b55e and fs2 == 0 and fe2 == 0xfe and
      fm2 == 0x139ba8 and fs3 == 0 and fe3 == 0xfe and fm3 == 0x7fffff and rm_val
      == 0  #nosat'
    : 1 #  rs1_val==fnorm(0x7e61b55e) and rs2_val==fnorm(0x7f139ba8) and rs3_val==fmaxnorm(0x7f7fffff) | Multiply-Add: Cancellation ---> Subnormal result 
    ? 'fs1 == 0 and fe1 == 0xfe and fm1 == 0x19b6dc and fs2 == 0 and fe2 == 0xfd and
      fm2 == 0x1d9e09 and fs3 == 0 and fe3 == 0xfe and fm3 == 0x7fffff and rm_val
      == 0  #nosat'
    : 1 #  rs1_val==fnorm(0x7f19b6dc) and rs2_val==fnorm(0x7e9d9e09) and rs3_val==fmaxnorm(0x7f7fffff) | Multiply-Add: Cancellation ---> Subnormal result 
    ? 'fs1 == 0 and fe1 == 0xfe and fm1 == 0x23f4fa and fs2 == 0 and fe2 == 0xfe and
      fm2 == 0x3e0af1 and fs3 == 0 and fe3 == 0xfe and fm3 == 0x7fffff and rm_val
      == 0  #nosat'
    : 1 #  rs1_val==fnorm(0x7f23f4fa) and rs2_val==fnorm(0x7f3e0af1) and rs3_val==fmaxnorm(0x7f7fffff) | Multiply-Add: Cancellation ---> Subnormal result 
    ? 'fs1 == 0 and fe1 == 0xfd and fm1 == 0x5c3c85 and fs2 == 0 and fe2 == 0xfc and
      fm2 == 0x5ad8ea and fs3 == 0 and fe3 == 0xfe and fm3 == 0x7fffff and rm_val
      == 0  #nosat'
    : 1 #  rs1_val==fnorm(0x7edc3c85) and rs2_val==fnorm(0x7e5ad8ea) and rs3_val==fmaxnorm(0x7f7fffff) | Multiply-Add: Cancellation ---> Subnormal result 
    ? 'fs1 == 0 and fe1 == 0xfe and fm1 == 0x090d88 and fs2 == 0 and fe2 == 0xfc and
      fm2 == 0x2224db and fs3 == 0 and fe3 == 0xfe and fm3 == 0x7fffff and rm_val
      == 0  #nosat'
    : 1 #  rs1_val==fnorm(0x7f090d88) and rs2_val==fnorm(0x7e2224db) and rs3_val==fmaxnorm(0x7f7fffff) | Multiply-Add: Cancellation ---> Subnormal result 
    ? 'fs1 == 0 and fe1 == 0xfe and fm1 == 0x3935a3 and fs2 == 0 and fe2 == 0xfe and
      fm2 == 0x2db39d and fs3 == 0 and fe3 == 0xfe and fm3 == 0x7fffff and rm_val
      == 0  #nosat'
    : 1 #  rs1_val==fnorm(0x7f3935a3) and rs2_val==fnorm(0x7f2db39d) and rs3_val==fmaxnorm(0x7f7fffff) | Multiply-Add: Cancellation ---> Subnormal result 
    ? 'fs1 == 0 and fe1 == 0xfe and fm1 == 0x00e26f and fs2 == 0 and fe2 == 0xfb and
      fm2 == 0x7a8560 and fs3 == 0 and fe3 == 0xfe and fm3 == 0x7fffff and rm_val
      == 0  #nosat'
    : 1 #  rs1_val==fnorm(0x7f00e26f) and rs2_val==fnorm(0x7dfa8560) and rs3_val==fmaxnorm(0x7f7fffff) | Multiply-Add: Cancellation ---> Subnormal result 
    ? 'fs1 == 0 and fe1 == 0xfe and fm1 == 0x325b88 and fs2 == 0 and fe2 == 0xfe and
      fm2 == 0x246dcc and fs3 == 0 and fe3 == 0xfe and fm3 == 0x7fffff and rm_val
      == 0  #nosat'
    : 1 #  rs1_val==fnorm(0x7f325b88) and rs2_val==fnorm(0x7f246dcc) and rs3_val==fmaxnorm(0x7f7fffff) | Multiply-Add: Cancellation ---> Subnormal result 
    ? 'fs1 == 0 and fe1 == 0xfd and fm1 == 0x605a49 and fs2 == 0 and fe2 == 0xfe and
      fm2 == 0x2d9b52 and fs3 == 0 and fe3 == 0xfe and fm3 == 0x7fffff and rm_val
      == 0  #nosat'
    : 1 #  rs1_val==fnorm(0x7ee05a49) and rs2_val==fnorm(0x7f2d9b52) and rs3_val==fmaxnorm(0x7f7fffff) | Multiply-Add: Cancellation ---> Subnormal result 
    ? 'fs1 == 0 and fe1 == 0xfd and fm1 == 0x142c31 and fs2 == 0 and fe2 == 0xfd and
      fm2 == 0x06bfe7 and fs3 == 0 and fe3 == 0xfe and fm3 == 0x7fffff and rm_val
      == 0  #nosat'
    : 1 #  rs1_val==fnorm(0x7e942c31) and rs2_val==fnorm(0x7e86bfe7) and rs3_val==fmaxnorm(0x7f7fffff) | Multiply-Add: Cancellation ---> Subnormal result 
    ? 'fs1 == 0 and fe1 == 0xfd and fm1 == 0x70a207 and fs2 == 0 and fe2 == 0xfc and
      fm2 == 0x673028 and fs3 == 0 and fe3 == 0xfe and fm3 == 0x7fffff and rm_val
      == 0  #nosat'
    : 1 #  rs1_val==fnorm(0x7ef0a207) and rs2_val==fnorm(0x7e673028) and rs3_val==fmaxnorm(0x7f7fffff) | Multiply-Add: Cancellation ---> Subnormal result 
    ? 'fs1 == 0 and fe1 == 0xfc and fm1 == 0x26a55d and fs2 == 0 and fe2 == 0xfe and
      fm2 == 0x395f47 and fs3 == 0 and fe3 == 0xfe and fm3 == 0x7fffff and rm_val
      == 0  #nosat'
    : 1 #  rs1_val==fnorm(0x7e26a55d) and rs2_val==fnorm(0x7f395f47) and rs3_val==fmaxnorm(0x7f7fffff) | Multiply-Add: Cancellation ---> Subnormal result 
    ? 'fs1 == 0 and fe1 == 0xfe and fm1 == 0x28be0d and fs2 == 0 and fe2 == 0xfb and
      fm2 == 0x15b097 and fs3 == 0 and fe3 == 0xfe and fm3 == 0x7fffff and rm_val
      == 0  #nosat'
    : 1 #  rs1_val==fnorm(0x7f28be0d) and rs2_val==fnorm(0x7d95b097) and rs3_val==fmaxnorm(0x7f7fffff) | Multiply-Add: Cancellation ---> Subnormal result 
    ? 'fs1 == 0 and fe1 == 0xfe and fm1 == 0x19c644 and fs2 == 0 and fe2 == 0xfd and
      fm2 == 0x2abc06 and fs3 == 0 and fe3 == 0xfe and fm3 == 0x7fffff and rm_val
      == 0  #nosat'
    : 1 #  rs1_val==fnorm(0x7f19c644) and rs2_val==fnorm(0x7eaabc06) and rs3_val==fmaxnorm(0x7f7fffff) | Multiply-Add: Cancellation ---> Subnormal result 
    ? 'fs1 == 0 and fe1 == 0xfe and fm1 == 0x091ce4 and fs2 == 0 and fe2 == 0xfe and
      fm2 == 0x30d9d7 and fs3 == 0 and fe3 == 0xfe and fm3 == 0x7fffff and rm_val
      == 0  #nosat'
    : 1 #  rs1_val==fnorm(0x7f091ce4) and rs2_val==fnorm(0x7f30d9d7) and rs3_val==fmaxnorm(0x7f7fffff) | Multiply-Add: Cancellation ---> Subnormal result 
    ? 'fs1 == 0 and fe1 == 0xfd and fm1 == 0x35891f and fs2 == 0 and fe2 == 0xfe and
      fm2 == 0x0a03a1 and fs3 == 0 and fe3 == 0xfe and fm3 == 0x7fffff and rm_val
      == 0  #nosat'
    : 1 #  rs1_val==fnorm(0x7eb5891f) and rs2_val==fnorm(0x7f0a03a1) and rs3_val==fmaxnorm(0x7f7fffff) | Multiply-Add: Cancellation ---> Subnormal result 
    ? 'fs1 == 0 and fe1 == 0xfc and fm1 == 0x675fa1 and fs2 == 0 and fe2 == 0xf9 and
      fm2 == 0x3e8943 and fs3 == 0 and fe3 == 0xfe and fm3 == 0x7fffff and rm_val
      == 0  #nosat'
    : 1 #  rs1_val==fnorm(0x7e675fa1) and rs2_val==fnorm(0x7cbe8943) and rs3_val==fmaxnorm(0x7f7fffff) | Multiply-Add: Cancellation ---> Subnormal result 
    ? 'fs1 == 0 and fe1 == 0xfa and fm1 == 0x44b45e and fs2 == 0 and fe2 == 0xfe and
      fm2 == 0x119488 and fs3 == 0 and fe3 == 0xfe and fm3 == 0x7fffff and rm_val
      == 0  #nosat'
    : 1 #  rs1_val==fnorm(0x7d44b45e) and rs2_val==fnorm(0x7f119488) and rs3_val==fmaxnorm(0x7f7fffff) | Multiply-Add: Cancellation ---> Subnormal result 
    ? 'fs1 == 0 and fe1 == 0xfd and fm1 == 0x48e6cd and fs2 == 0 and fe2 == 0xfe and
      fm2 == 0x0e5202 and fs3 == 0 and fe3 == 0xfe and fm3 == 0x7fffff and rm_val
      == 0  #nosat'
    : 1 #  rs1_val==fnorm(0x7ec8e6cd) and rs2_val==fnorm(0x7f0e5202) and rs3_val==fmaxnorm(0x7f7fffff) | Multiply-Add: Cancellation ---> Subnormal result 
    ? 'fs1 == 0 and fe1 == 0xfb and fm1 == 0x6758c9 and fs2 == 0 and fe2 == 0xfd and
      fm2 == 0x73c956 and fs3 == 0 and fe3 == 0xfe and fm3 == 0x7fffff and rm_val
      == 0  #nosat'
    : 1 #  rs1_val==fnorm(0x7de758c9) and rs2_val==fnorm(0x7ef3c956) and rs3_val==fmaxnorm(0x7f7fffff) | Multiply-Add: Cancellation ---> Subnormal result 
    ? 'fs1 == 0 and fe1 == 0xfe and fm1 == 0x2099c0 and fs2 == 0 and fe2 == 0xfd and
      fm2 == 0x36eb6c and fs3 == 0 and fe3 == 0xfe and fm3 == 0x7fffff and rm_val
      == 0  #nosat'
    : 1 #  rs1_val==fnorm(0x7f2099c0) and rs2_val==fnorm(0x7eb6eb6c) and rs3_val==fmaxnorm(0x7f7fffff) | Multiply-Add: Cancellation ---> Subnormal result 
    ? 'fs1 == 0 and fe1 == 0xfc and fm1 == 0x33f756 and fs2 == 0 and fe2 == 0xfe and
      fm2 == 0x3f29ee and fs3 == 0 and fe3 == 0xfe and fm3 == 0x7fffff and rm_val
      == 0  #nosat'
    : 1 #  rs1_val==fnorm(0x7e33f756) and rs2_val==fnorm(0x7f3f29ee) and rs3_val==fmaxnorm(0x7f7fffff) | Multiply-Add: Cancellation ---> Subnormal result 
    ? 'fs1 == 0 and fe1 == 0xf8 and fm1 == 0x21ceeb and fs2 == 0 and fe2 == 0xfe and
      fm2 == 0x20cb47 and fs3 == 0 and fe3 == 0xfe and fm3 == 0x7fffff and rm_val
      == 0  #nosat'
    : 1 #  rs1_val==fnorm(0x7c21ceeb) and rs2_val==fnorm(0x7f20cb47) and rs3_val==fmaxnorm(0x7f7fffff) | Multiply-Add: Cancellation ---> Subnormal result 
    ? 'fs1 == 0 and fe1 == 0xfd and fm1 == 0x67e7c0 and fs2 == 0 and fe2 == 0xfd and
      fm2 == 0x7046ce and fs3 == 0 and fe3 == 0xfe and fm3 == 0x7fffff and rm_val
      == 0  #nosat'
    : 1 #  rs1_val==fnorm(0x7ee7e7c0) and rs2_val==fnorm(0x7ef046ce) and rs3_val==fmaxnorm(0x7f7fffff) | Multiply-Add: Cancellation ---> Subnormal result 
    coverage: 200/200
  total_coverage: 341/341
