---
fmin.d_b1:
  config:
  - check ISA:=regex(.*I.*Zfinx.*Zdinx.*)
  mnemonics:
    fmin.d: 578
    coverage: 1/1
  op_comb:
    rs1 != rs2  and rs1 != rd and rs2 != rd: 574
    rs1 == rd != rs2: 1
    rs1 == rs2 != rd: 1
    rs1 == rs2 == rd: 1
    rs2 == rd != rs1: 1
    coverage: 5/5
  rd:
    x10: 1
    x12: 1
    x14: 1
    x16: 1
    x18: 1
    x2: 1
    x20: 1
    x22: 1
    x24: 1
    x26: 1
    x28: 1
    x30: 564
    x4: 1
    x6: 1
    x8: 1
    coverage: 15/15
  rs1:
    x10: 1
    x12: 1
    x14: 1
    x16: 1
    x18: 1
    x2: 1
    x20: 1
    x22: 1
    x24: 1
    x26: 1
    x28: 563
    x30: 2
    x4: 1
    x6: 1
    x8: 1
    coverage: 15/15
  rs2:
    x10: 1
    x12: 1
    x14: 1
    x16: 1
    x18: 1
    x2: 1
    x20: 1
    x22: 1
    x24: 1
    x26: 562
    x28: 3
    x30: 1
    x4: 1
    x6: 1
    x8: 1
    coverage: 15/15
  val_comb:
    ? 'fs1 == 0 and fe1 == 0x000 and fm1 == 0x0000000000000 and fs2 == 0 and fe2 ==
      0x000 and fm2 == 0x0000000000000 and  fcsr == 0  #nosat'
    : 3
    ? 'fs1 == 0 and fe1 == 0x000 and fm1 == 0x0000000000000 and fs2 == 1 and fe2 ==
      0x000 and fm2 == 0x0000000000000 and  fcsr == 0  #nosat'
    : 1
    ? 'fs1 == 0 and fe1 == 0x000 and fm1 == 0x0000000000000 and fs2 == 0 and fe2 ==
      0x000 and fm2 == 0x0000000000001 and  fcsr == 0  #nosat'
    : 1
    ? 'fs1 == 0 and fe1 == 0x000 and fm1 == 0x0000000000000 and fs2 == 1 and fe2 ==
      0x000 and fm2 == 0x0000000000001 and  fcsr == 0  #nosat'
    : 1
    ? 'fs1 == 0 and fe1 == 0x000 and fm1 == 0x0000000000000 and fs2 == 0 and fe2 ==
      0x000 and fm2 == 0x0000000000002 and  fcsr == 0  #nosat'
    : 1
    ? 'fs1 == 0 and fe1 == 0x000 and fm1 == 0x0000000000000 and fs2 == 1 and fe2 ==
      0x000 and fm2 == 0x0000000000002 and  fcsr == 0  #nosat'
    : 1
    ? 'fs1 == 0 and fe1 == 0x000 and fm1 == 0x0000000000000 and fs2 == 0 and fe2 ==
      0x000 and fm2 == 0xfffffffffffff and  fcsr == 0  #nosat'
    : 1
    ? 'fs1 == 0 and fe1 == 0x000 and fm1 == 0x0000000000000 and fs2 == 1 and fe2 ==
      0x000 and fm2 == 0xfffffffffffff and  fcsr == 0  #nosat'
    : 1
    ? 'fs1 == 0 and fe1 == 0x000 and fm1 == 0x0000000000000 and fs2 == 0 and fe2 ==
      0x001 and fm2 == 0x0000000000000 and  fcsr == 0  #nosat'
    : 1
    ? 'fs1 == 0 and fe1 == 0x000 and fm1 == 0x0000000000000 and fs2 == 1 and fe2 ==
      0x001 and fm2 == 0x0000000000000 and  fcsr == 0  #nosat'
    : 1
    ? 'fs1 == 0 and fe1 == 0x000 and fm1 == 0x0000000000000 and fs2 == 0 and fe2 ==
      0x001 and fm2 == 0x0000000000002 and  fcsr == 0  #nosat'
    : 1
    ? 'fs1 == 0 and fe1 == 0x000 and fm1 == 0x0000000000000 and fs2 == 1 and fe2 ==
      0x001 and fm2 == 0x0000000000002 and  fcsr == 0  #nosat'
    : 1
    ? 'fs1 == 0 and fe1 == 0x000 and fm1 == 0x0000000000000 and fs2 == 0 and fe2 ==
      0x7fe and fm2 == 0xfffffffffffff and  fcsr == 0  #nosat'
    : 1
    ? 'fs1 == 0 and fe1 == 0x000 and fm1 == 0x0000000000000 and fs2 == 1 and fe2 ==
      0x7fe and fm2 == 0xfffffffffffff and  fcsr == 0  #nosat'
    : 1
    ? 'fs1 == 0 and fe1 == 0x000 and fm1 == 0x0000000000000 and fs2 == 0 and fe2 ==
      0x7ff and fm2 == 0x0000000000000 and  fcsr == 0  #nosat'
    : 1
    ? 'fs1 == 0 and fe1 == 0x000 and fm1 == 0x0000000000000 and fs2 == 1 and fe2 ==
      0x7ff and fm2 == 0x0000000000000 and  fcsr == 0  #nosat'
    : 1
    ? 'fs1 == 0 and fe1 == 0x000 and fm1 == 0x0000000000000 and fs2 == 0 and fe2 ==
      0x7ff and fm2 == 0x8000000000000 and  fcsr == 0  #nosat'
    : 1
    ? 'fs1 == 0 and fe1 == 0x000 and fm1 == 0x0000000000000 and fs2 == 1 and fe2 ==
      0x7ff and fm2 == 0x8000000000000 and  fcsr == 0  #nosat'
    : 1
    ? 'fs1 == 0 and fe1 == 0x000 and fm1 == 0x0000000000000 and fs2 == 0 and fe2 ==
      0x7ff and fm2 == 0x8000000000001 and  fcsr == 0  #nosat'
    : 1
    ? 'fs1 == 0 and fe1 == 0x000 and fm1 == 0x0000000000000 and fs2 == 1 and fe2 ==
      0x7ff and fm2 == 0x8000000000001 and  fcsr == 0  #nosat'
    : 1
    ? 'fs1 == 0 and fe1 == 0x000 and fm1 == 0x0000000000000 and fs2 == 0 and fe2 ==
      0x7ff and fm2 == 0x0000000000001 and  fcsr == 0  #nosat'
    : 1
    ? 'fs1 == 0 and fe1 == 0x000 and fm1 == 0x0000000000000 and fs2 == 1 and fe2 ==
      0x7ff and fm2 == 0x0000000000001 and  fcsr == 0  #nosat'
    : 1
    ? 'fs1 == 0 and fe1 == 0x000 and fm1 == 0x0000000000000 and fs2 == 0 and fe2 ==
      0x3ff and fm2 == 0x0000000000000 and  fcsr == 0  #nosat'
    : 1
    ? 'fs1 == 0 and fe1 == 0x000 and fm1 == 0x0000000000000 and fs2 == 1 and fe2 ==
      0x3f8 and fm2 == 0x0000000000000 and  fcsr == 0  #nosat'
    : 1
    ? 'fs1 == 1 and fe1 == 0x000 and fm1 == 0x0000000000000 and fs2 == 0 and fe2 ==
      0x000 and fm2 == 0x0000000000000 and  fcsr == 0  #nosat'
    : 1
    ? 'fs1 == 1 and fe1 == 0x000 and fm1 == 0x0000000000000 and fs2 == 1 and fe2 ==
      0x000 and fm2 == 0x0000000000000 and  fcsr == 0  #nosat'
    : 1
    ? 'fs1 == 1 and fe1 == 0x000 and fm1 == 0x0000000000000 and fs2 == 0 and fe2 ==
      0x000 and fm2 == 0x0000000000001 and  fcsr == 0  #nosat'
    : 1
    ? 'fs1 == 1 and fe1 == 0x000 and fm1 == 0x0000000000000 and fs2 == 1 and fe2 ==
      0x000 and fm2 == 0x0000000000001 and  fcsr == 0  #nosat'
    : 1
    ? 'fs1 == 1 and fe1 == 0x000 and fm1 == 0x0000000000000 and fs2 == 0 and fe2 ==
      0x000 and fm2 == 0x0000000000002 and  fcsr == 0  #nosat'
    : 1
    ? 'fs1 == 1 and fe1 == 0x000 and fm1 == 0x0000000000000 and fs2 == 1 and fe2 ==
      0x000 and fm2 == 0x0000000000002 and  fcsr == 0  #nosat'
    : 1
    ? 'fs1 == 1 and fe1 == 0x000 and fm1 == 0x0000000000000 and fs2 == 0 and fe2 ==
      0x000 and fm2 == 0xfffffffffffff and  fcsr == 0  #nosat'
    : 1
    ? 'fs1 == 1 and fe1 == 0x000 and fm1 == 0x0000000000000 and fs2 == 1 and fe2 ==
      0x000 and fm2 == 0xfffffffffffff and  fcsr == 0  #nosat'
    : 1
    ? 'fs1 == 1 and fe1 == 0x000 and fm1 == 0x0000000000000 and fs2 == 0 and fe2 ==
      0x001 and fm2 == 0x0000000000000 and  fcsr == 0  #nosat'
    : 1
    ? 'fs1 == 1 and fe1 == 0x000 and fm1 == 0x0000000000000 and fs2 == 1 and fe2 ==
      0x001 and fm2 == 0x0000000000000 and  fcsr == 0  #nosat'
    : 1
    ? 'fs1 == 1 and fe1 == 0x000 and fm1 == 0x0000000000000 and fs2 == 0 and fe2 ==
      0x001 and fm2 == 0x0000000000002 and  fcsr == 0  #nosat'
    : 1
    ? 'fs1 == 1 and fe1 == 0x000 and fm1 == 0x0000000000000 and fs2 == 1 and fe2 ==
      0x001 and fm2 == 0x0000000000002 and  fcsr == 0  #nosat'
    : 1
    ? 'fs1 == 1 and fe1 == 0x000 and fm1 == 0x0000000000000 and fs2 == 0 and fe2 ==
      0x7fe and fm2 == 0xfffffffffffff and  fcsr == 0  #nosat'
    : 1
    ? 'fs1 == 1 and fe1 == 0x000 and fm1 == 0x0000000000000 and fs2 == 1 and fe2 ==
      0x7fe and fm2 == 0xfffffffffffff and  fcsr == 0  #nosat'
    : 1
    ? 'fs1 == 1 and fe1 == 0x000 and fm1 == 0x0000000000000 and fs2 == 0 and fe2 ==
      0x7ff and fm2 == 0x0000000000000 and  fcsr == 0  #nosat'
    : 1
    ? 'fs1 == 1 and fe1 == 0x000 and fm1 == 0x0000000000000 and fs2 == 1 and fe2 ==
      0x7ff and fm2 == 0x0000000000000 and  fcsr == 0  #nosat'
    : 1
    ? 'fs1 == 1 and fe1 == 0x000 and fm1 == 0x0000000000000 and fs2 == 0 and fe2 ==
      0x7ff and fm2 == 0x8000000000000 and  fcsr == 0  #nosat'
    : 1
    ? 'fs1 == 1 and fe1 == 0x000 and fm1 == 0x0000000000000 and fs2 == 1 and fe2 ==
      0x7ff and fm2 == 0x8000000000000 and  fcsr == 0  #nosat'
    : 1
    ? 'fs1 == 1 and fe1 == 0x000 and fm1 == 0x0000000000000 and fs2 == 0 and fe2 ==
      0x7ff and fm2 == 0x8000000000001 and  fcsr == 0  #nosat'
    : 1
    ? 'fs1 == 1 and fe1 == 0x000 and fm1 == 0x0000000000000 and fs2 == 1 and fe2 ==
      0x7ff and fm2 == 0x8000000000001 and  fcsr == 0  #nosat'
    : 1
    ? 'fs1 == 1 and fe1 == 0x000 and fm1 == 0x0000000000000 and fs2 == 0 and fe2 ==
      0x7ff and fm2 == 0x0000000000001 and  fcsr == 0  #nosat'
    : 1
    ? 'fs1 == 1 and fe1 == 0x000 and fm1 == 0x0000000000000 and fs2 == 1 and fe2 ==
      0x7ff and fm2 == 0x0000000000001 and  fcsr == 0  #nosat'
    : 1
    ? 'fs1 == 1 and fe1 == 0x000 and fm1 == 0x0000000000000 and fs2 == 0 and fe2 ==
      0x3ff and fm2 == 0x0000000000000 and  fcsr == 0  #nosat'
    : 1
    ? 'fs1 == 1 and fe1 == 0x000 and fm1 == 0x0000000000000 and fs2 == 1 and fe2 ==
      0x3f8 and fm2 == 0x0000000000000 and  fcsr == 0  #nosat'
    : 1
    ? 'fs1 == 0 and fe1 == 0x000 and fm1 == 0x0000000000001 and fs2 == 0 and fe2 ==
      0x000 and fm2 == 0x0000000000000 and  fcsr == 0  #nosat'
    : 1
    ? 'fs1 == 0 and fe1 == 0x000 and fm1 == 0x0000000000001 and fs2 == 1 and fe2 ==
      0x000 and fm2 == 0x0000000000000 and  fcsr == 0  #nosat'
    : 1
    ? 'fs1 == 0 and fe1 == 0x000 and fm1 == 0x0000000000001 and fs2 == 0 and fe2 ==
      0x000 and fm2 == 0x0000000000001 and  fcsr == 0  #nosat'
    : 1
    ? 'fs1 == 0 and fe1 == 0x000 and fm1 == 0x0000000000001 and fs2 == 1 and fe2 ==
      0x000 and fm2 == 0x0000000000001 and  fcsr == 0  #nosat'
    : 1
    ? 'fs1 == 0 and fe1 == 0x000 and fm1 == 0x0000000000001 and fs2 == 0 and fe2 ==
      0x000 and fm2 == 0x0000000000002 and  fcsr == 0  #nosat'
    : 1
    ? 'fs1 == 0 and fe1 == 0x000 and fm1 == 0x0000000000001 and fs2 == 1 and fe2 ==
      0x000 and fm2 == 0x0000000000002 and  fcsr == 0  #nosat'
    : 1
    ? 'fs1 == 0 and fe1 == 0x000 and fm1 == 0x0000000000001 and fs2 == 0 and fe2 ==
      0x000 and fm2 == 0xfffffffffffff and  fcsr == 0  #nosat'
    : 1
    ? 'fs1 == 0 and fe1 == 0x000 and fm1 == 0x0000000000001 and fs2 == 1 and fe2 ==
      0x000 and fm2 == 0xfffffffffffff and  fcsr == 0  #nosat'
    : 1
    ? 'fs1 == 0 and fe1 == 0x000 and fm1 == 0x0000000000001 and fs2 == 0 and fe2 ==
      0x001 and fm2 == 0x0000000000000 and  fcsr == 0  #nosat'
    : 1
    ? 'fs1 == 0 and fe1 == 0x000 and fm1 == 0x0000000000001 and fs2 == 1 and fe2 ==
      0x001 and fm2 == 0x0000000000000 and  fcsr == 0  #nosat'
    : 1
    ? 'fs1 == 0 and fe1 == 0x000 and fm1 == 0x0000000000001 and fs2 == 0 and fe2 ==
      0x001 and fm2 == 0x0000000000002 and  fcsr == 0  #nosat'
    : 1
    ? 'fs1 == 0 and fe1 == 0x000 and fm1 == 0x0000000000001 and fs2 == 1 and fe2 ==
      0x001 and fm2 == 0x0000000000002 and  fcsr == 0  #nosat'
    : 1
    ? 'fs1 == 0 and fe1 == 0x000 and fm1 == 0x0000000000001 and fs2 == 0 and fe2 ==
      0x7fe and fm2 == 0xfffffffffffff and  fcsr == 0  #nosat'
    : 1
    ? 'fs1 == 0 and fe1 == 0x000 and fm1 == 0x0000000000001 and fs2 == 1 and fe2 ==
      0x7fe and fm2 == 0xfffffffffffff and  fcsr == 0  #nosat'
    : 1
    ? 'fs1 == 0 and fe1 == 0x000 and fm1 == 0x0000000000001 and fs2 == 0 and fe2 ==
      0x7ff and fm2 == 0x0000000000000 and  fcsr == 0  #nosat'
    : 1
    ? 'fs1 == 0 and fe1 == 0x000 and fm1 == 0x0000000000001 and fs2 == 1 and fe2 ==
      0x7ff and fm2 == 0x0000000000000 and  fcsr == 0  #nosat'
    : 1
    ? 'fs1 == 0 and fe1 == 0x000 and fm1 == 0x0000000000001 and fs2 == 0 and fe2 ==
      0x7ff and fm2 == 0x8000000000000 and  fcsr == 0  #nosat'
    : 1
    ? 'fs1 == 0 and fe1 == 0x000 and fm1 == 0x0000000000001 and fs2 == 1 and fe2 ==
      0x7ff and fm2 == 0x8000000000000 and  fcsr == 0  #nosat'
    : 1
    ? 'fs1 == 0 and fe1 == 0x000 and fm1 == 0x0000000000001 and fs2 == 0 and fe2 ==
      0x7ff and fm2 == 0x8000000000001 and  fcsr == 0  #nosat'
    : 1
    ? 'fs1 == 0 and fe1 == 0x000 and fm1 == 0x0000000000001 and fs2 == 1 and fe2 ==
      0x7ff and fm2 == 0x8000000000001 and  fcsr == 0  #nosat'
    : 1
    ? 'fs1 == 0 and fe1 == 0x000 and fm1 == 0x0000000000001 and fs2 == 0 and fe2 ==
      0x7ff and fm2 == 0x0000000000001 and  fcsr == 0  #nosat'
    : 1
    ? 'fs1 == 0 and fe1 == 0x000 and fm1 == 0x0000000000001 and fs2 == 1 and fe2 ==
      0x7ff and fm2 == 0x0000000000001 and  fcsr == 0  #nosat'
    : 1
    ? 'fs1 == 0 and fe1 == 0x000 and fm1 == 0x0000000000001 and fs2 == 0 and fe2 ==
      0x3ff and fm2 == 0x0000000000000 and  fcsr == 0  #nosat'
    : 1
    ? 'fs1 == 0 and fe1 == 0x000 and fm1 == 0x0000000000001 and fs2 == 1 and fe2 ==
      0x3f8 and fm2 == 0x0000000000000 and  fcsr == 0  #nosat'
    : 1
    ? 'fs1 == 1 and fe1 == 0x000 and fm1 == 0x0000000000001 and fs2 == 0 and fe2 ==
      0x000 and fm2 == 0x0000000000000 and  fcsr == 0  #nosat'
    : 1
    ? 'fs1 == 1 and fe1 == 0x000 and fm1 == 0x0000000000001 and fs2 == 1 and fe2 ==
      0x000 and fm2 == 0x0000000000000 and  fcsr == 0  #nosat'
    : 1
    ? 'fs1 == 1 and fe1 == 0x000 and fm1 == 0x0000000000001 and fs2 == 0 and fe2 ==
      0x000 and fm2 == 0x0000000000001 and  fcsr == 0  #nosat'
    : 1
    ? 'fs1 == 1 and fe1 == 0x000 and fm1 == 0x0000000000001 and fs2 == 1 and fe2 ==
      0x000 and fm2 == 0x0000000000001 and  fcsr == 0  #nosat'
    : 1
    ? 'fs1 == 1 and fe1 == 0x000 and fm1 == 0x0000000000001 and fs2 == 0 and fe2 ==
      0x000 and fm2 == 0x0000000000002 and  fcsr == 0  #nosat'
    : 1
    ? 'fs1 == 1 and fe1 == 0x000 and fm1 == 0x0000000000001 and fs2 == 1 and fe2 ==
      0x000 and fm2 == 0x0000000000002 and  fcsr == 0  #nosat'
    : 1
    ? 'fs1 == 1 and fe1 == 0x000 and fm1 == 0x0000000000001 and fs2 == 0 and fe2 ==
      0x000 and fm2 == 0xfffffffffffff and  fcsr == 0  #nosat'
    : 1
    ? 'fs1 == 1 and fe1 == 0x000 and fm1 == 0x0000000000001 and fs2 == 1 and fe2 ==
      0x000 and fm2 == 0xfffffffffffff and  fcsr == 0  #nosat'
    : 1
    ? 'fs1 == 1 and fe1 == 0x000 and fm1 == 0x0000000000001 and fs2 == 0 and fe2 ==
      0x001 and fm2 == 0x0000000000000 and  fcsr == 0  #nosat'
    : 1
    ? 'fs1 == 1 and fe1 == 0x000 and fm1 == 0x0000000000001 and fs2 == 1 and fe2 ==
      0x001 and fm2 == 0x0000000000000 and  fcsr == 0  #nosat'
    : 1
    ? 'fs1 == 1 and fe1 == 0x000 and fm1 == 0x0000000000001 and fs2 == 0 and fe2 ==
      0x001 and fm2 == 0x0000000000002 and  fcsr == 0  #nosat'
    : 1
    ? 'fs1 == 1 and fe1 == 0x000 and fm1 == 0x0000000000001 and fs2 == 1 and fe2 ==
      0x001 and fm2 == 0x0000000000002 and  fcsr == 0  #nosat'
    : 1
    ? 'fs1 == 1 and fe1 == 0x000 and fm1 == 0x0000000000001 and fs2 == 0 and fe2 ==
      0x7fe and fm2 == 0xfffffffffffff and  fcsr == 0  #nosat'
    : 1
    ? 'fs1 == 1 and fe1 == 0x000 and fm1 == 0x0000000000001 and fs2 == 1 and fe2 ==
      0x7fe and fm2 == 0xfffffffffffff and  fcsr == 0  #nosat'
    : 1
    ? 'fs1 == 1 and fe1 == 0x000 and fm1 == 0x0000000000001 and fs2 == 0 and fe2 ==
      0x7ff and fm2 == 0x0000000000000 and  fcsr == 0  #nosat'
    : 1
    ? 'fs1 == 1 and fe1 == 0x000 and fm1 == 0x0000000000001 and fs2 == 1 and fe2 ==
      0x7ff and fm2 == 0x0000000000000 and  fcsr == 0  #nosat'
    : 1
    ? 'fs1 == 1 and fe1 == 0x000 and fm1 == 0x0000000000001 and fs2 == 0 and fe2 ==
      0x7ff and fm2 == 0x8000000000000 and  fcsr == 0  #nosat'
    : 1
    ? 'fs1 == 1 and fe1 == 0x000 and fm1 == 0x0000000000001 and fs2 == 1 and fe2 ==
      0x7ff and fm2 == 0x8000000000000 and  fcsr == 0  #nosat'
    : 1
    ? 'fs1 == 1 and fe1 == 0x000 and fm1 == 0x0000000000001 and fs2 == 0 and fe2 ==
      0x7ff and fm2 == 0x8000000000001 and  fcsr == 0  #nosat'
    : 1
    ? 'fs1 == 1 and fe1 == 0x000 and fm1 == 0x0000000000001 and fs2 == 1 and fe2 ==
      0x7ff and fm2 == 0x8000000000001 and  fcsr == 0  #nosat'
    : 1
    ? 'fs1 == 1 and fe1 == 0x000 and fm1 == 0x0000000000001 and fs2 == 0 and fe2 ==
      0x7ff and fm2 == 0x0000000000001 and  fcsr == 0  #nosat'
    : 1
    ? 'fs1 == 1 and fe1 == 0x000 and fm1 == 0x0000000000001 and fs2 == 1 and fe2 ==
      0x7ff and fm2 == 0x0000000000001 and  fcsr == 0  #nosat'
    : 1
    ? 'fs1 == 1 and fe1 == 0x000 and fm1 == 0x0000000000001 and fs2 == 0 and fe2 ==
      0x3ff and fm2 == 0x0000000000000 and  fcsr == 0  #nosat'
    : 1
    ? 'fs1 == 1 and fe1 == 0x000 and fm1 == 0x0000000000001 and fs2 == 1 and fe2 ==
      0x3f8 and fm2 == 0x0000000000000 and  fcsr == 0  #nosat'
    : 1
    ? 'fs1 == 0 and fe1 == 0x000 and fm1 == 0x0000000000002 and fs2 == 0 and fe2 ==
      0x000 and fm2 == 0x0000000000000 and  fcsr == 0  #nosat'
    : 1
    ? 'fs1 == 0 and fe1 == 0x000 and fm1 == 0x0000000000002 and fs2 == 1 and fe2 ==
      0x000 and fm2 == 0x0000000000000 and  fcsr == 0  #nosat'
    : 1
    ? 'fs1 == 0 and fe1 == 0x000 and fm1 == 0x0000000000002 and fs2 == 0 and fe2 ==
      0x000 and fm2 == 0x0000000000001 and  fcsr == 0  #nosat'
    : 1
    ? 'fs1 == 0 and fe1 == 0x000 and fm1 == 0x0000000000002 and fs2 == 1 and fe2 ==
      0x000 and fm2 == 0x0000000000001 and  fcsr == 0  #nosat'
    : 1
    ? 'fs1 == 0 and fe1 == 0x000 and fm1 == 0x0000000000002 and fs2 == 0 and fe2 ==
      0x000 and fm2 == 0x0000000000002 and  fcsr == 0  #nosat'
    : 1
    ? 'fs1 == 0 and fe1 == 0x000 and fm1 == 0x0000000000002 and fs2 == 1 and fe2 ==
      0x000 and fm2 == 0x0000000000002 and  fcsr == 0  #nosat'
    : 1
    ? 'fs1 == 0 and fe1 == 0x000 and fm1 == 0x0000000000002 and fs2 == 0 and fe2 ==
      0x000 and fm2 == 0xfffffffffffff and  fcsr == 0  #nosat'
    : 1
    ? 'fs1 == 0 and fe1 == 0x000 and fm1 == 0x0000000000002 and fs2 == 1 and fe2 ==
      0x000 and fm2 == 0xfffffffffffff and  fcsr == 0  #nosat'
    : 1
    ? 'fs1 == 0 and fe1 == 0x000 and fm1 == 0x0000000000002 and fs2 == 0 and fe2 ==
      0x001 and fm2 == 0x0000000000000 and  fcsr == 0  #nosat'
    : 1
    ? 'fs1 == 0 and fe1 == 0x000 and fm1 == 0x0000000000002 and fs2 == 1 and fe2 ==
      0x001 and fm2 == 0x0000000000000 and  fcsr == 0  #nosat'
    : 1
    ? 'fs1 == 0 and fe1 == 0x000 and fm1 == 0x0000000000002 and fs2 == 0 and fe2 ==
      0x001 and fm2 == 0x0000000000002 and  fcsr == 0  #nosat'
    : 1
    ? 'fs1 == 0 and fe1 == 0x000 and fm1 == 0x0000000000002 and fs2 == 1 and fe2 ==
      0x001 and fm2 == 0x0000000000002 and  fcsr == 0  #nosat'
    : 1
    ? 'fs1 == 0 and fe1 == 0x000 and fm1 == 0x0000000000002 and fs2 == 0 and fe2 ==
      0x7fe and fm2 == 0xfffffffffffff and  fcsr == 0  #nosat'
    : 1
    ? 'fs1 == 0 and fe1 == 0x000 and fm1 == 0x0000000000002 and fs2 == 1 and fe2 ==
      0x7fe and fm2 == 0xfffffffffffff and  fcsr == 0  #nosat'
    : 1
    ? 'fs1 == 0 and fe1 == 0x000 and fm1 == 0x0000000000002 and fs2 == 0 and fe2 ==
      0x7ff and fm2 == 0x0000000000000 and  fcsr == 0  #nosat'
    : 1
    ? 'fs1 == 0 and fe1 == 0x000 and fm1 == 0x0000000000002 and fs2 == 1 and fe2 ==
      0x7ff and fm2 == 0x0000000000000 and  fcsr == 0  #nosat'
    : 1
    ? 'fs1 == 0 and fe1 == 0x000 and fm1 == 0x0000000000002 and fs2 == 0 and fe2 ==
      0x7ff and fm2 == 0x8000000000000 and  fcsr == 0  #nosat'
    : 1
    ? 'fs1 == 0 and fe1 == 0x000 and fm1 == 0x0000000000002 and fs2 == 1 and fe2 ==
      0x7ff and fm2 == 0x8000000000000 and  fcsr == 0  #nosat'
    : 1
    ? 'fs1 == 0 and fe1 == 0x000 and fm1 == 0x0000000000002 and fs2 == 0 and fe2 ==
      0x7ff and fm2 == 0x8000000000001 and  fcsr == 0  #nosat'
    : 1
    ? 'fs1 == 0 and fe1 == 0x000 and fm1 == 0x0000000000002 and fs2 == 1 and fe2 ==
      0x7ff and fm2 == 0x8000000000001 and  fcsr == 0  #nosat'
    : 1
    ? 'fs1 == 0 and fe1 == 0x000 and fm1 == 0x0000000000002 and fs2 == 0 and fe2 ==
      0x7ff and fm2 == 0x0000000000001 and  fcsr == 0  #nosat'
    : 1
    ? 'fs1 == 0 and fe1 == 0x000 and fm1 == 0x0000000000002 and fs2 == 1 and fe2 ==
      0x7ff and fm2 == 0x0000000000001 and  fcsr == 0  #nosat'
    : 1
    ? 'fs1 == 0 and fe1 == 0x000 and fm1 == 0x0000000000002 and fs2 == 0 and fe2 ==
      0x3ff and fm2 == 0x0000000000000 and  fcsr == 0  #nosat'
    : 1
    ? 'fs1 == 0 and fe1 == 0x000 and fm1 == 0x0000000000002 and fs2 == 1 and fe2 ==
      0x3f8 and fm2 == 0x0000000000000 and  fcsr == 0  #nosat'
    : 1
    ? 'fs1 == 1 and fe1 == 0x000 and fm1 == 0x0000000000002 and fs2 == 0 and fe2 ==
      0x000 and fm2 == 0x0000000000000 and  fcsr == 0  #nosat'
    : 1
    ? 'fs1 == 1 and fe1 == 0x000 and fm1 == 0x0000000000002 and fs2 == 1 and fe2 ==
      0x000 and fm2 == 0x0000000000000 and  fcsr == 0  #nosat'
    : 1
    ? 'fs1 == 1 and fe1 == 0x000 and fm1 == 0x0000000000002 and fs2 == 0 and fe2 ==
      0x000 and fm2 == 0x0000000000001 and  fcsr == 0  #nosat'
    : 1
    ? 'fs1 == 1 and fe1 == 0x000 and fm1 == 0x0000000000002 and fs2 == 1 and fe2 ==
      0x000 and fm2 == 0x0000000000001 and  fcsr == 0  #nosat'
    : 1
    ? 'fs1 == 1 and fe1 == 0x000 and fm1 == 0x0000000000002 and fs2 == 0 and fe2 ==
      0x000 and fm2 == 0x0000000000002 and  fcsr == 0  #nosat'
    : 1
    ? 'fs1 == 1 and fe1 == 0x000 and fm1 == 0x0000000000002 and fs2 == 1 and fe2 ==
      0x000 and fm2 == 0x0000000000002 and  fcsr == 0  #nosat'
    : 1
    ? 'fs1 == 1 and fe1 == 0x000 and fm1 == 0x0000000000002 and fs2 == 0 and fe2 ==
      0x000 and fm2 == 0xfffffffffffff and  fcsr == 0  #nosat'
    : 1
    ? 'fs1 == 1 and fe1 == 0x000 and fm1 == 0x0000000000002 and fs2 == 1 and fe2 ==
      0x000 and fm2 == 0xfffffffffffff and  fcsr == 0  #nosat'
    : 1
    ? 'fs1 == 1 and fe1 == 0x000 and fm1 == 0x0000000000002 and fs2 == 0 and fe2 ==
      0x001 and fm2 == 0x0000000000000 and  fcsr == 0  #nosat'
    : 1
    ? 'fs1 == 1 and fe1 == 0x000 and fm1 == 0x0000000000002 and fs2 == 1 and fe2 ==
      0x001 and fm2 == 0x0000000000000 and  fcsr == 0  #nosat'
    : 1
    ? 'fs1 == 1 and fe1 == 0x000 and fm1 == 0x0000000000002 and fs2 == 0 and fe2 ==
      0x001 and fm2 == 0x0000000000002 and  fcsr == 0  #nosat'
    : 1
    ? 'fs1 == 1 and fe1 == 0x000 and fm1 == 0x0000000000002 and fs2 == 1 and fe2 ==
      0x001 and fm2 == 0x0000000000002 and  fcsr == 0  #nosat'
    : 1
    ? 'fs1 == 1 and fe1 == 0x000 and fm1 == 0x0000000000002 and fs2 == 0 and fe2 ==
      0x7fe and fm2 == 0xfffffffffffff and  fcsr == 0  #nosat'
    : 1
    ? 'fs1 == 1 and fe1 == 0x000 and fm1 == 0x0000000000002 and fs2 == 1 and fe2 ==
      0x7fe and fm2 == 0xfffffffffffff and  fcsr == 0  #nosat'
    : 1
    ? 'fs1 == 1 and fe1 == 0x000 and fm1 == 0x0000000000002 and fs2 == 0 and fe2 ==
      0x7ff and fm2 == 0x0000000000000 and  fcsr == 0  #nosat'
    : 1
    ? 'fs1 == 1 and fe1 == 0x000 and fm1 == 0x0000000000002 and fs2 == 1 and fe2 ==
      0x7ff and fm2 == 0x0000000000000 and  fcsr == 0  #nosat'
    : 1
    ? 'fs1 == 1 and fe1 == 0x000 and fm1 == 0x0000000000002 and fs2 == 0 and fe2 ==
      0x7ff and fm2 == 0x8000000000000 and  fcsr == 0  #nosat'
    : 1
    ? 'fs1 == 1 and fe1 == 0x000 and fm1 == 0x0000000000002 and fs2 == 1 and fe2 ==
      0x7ff and fm2 == 0x8000000000000 and  fcsr == 0  #nosat'
    : 1
    ? 'fs1 == 1 and fe1 == 0x000 and fm1 == 0x0000000000002 and fs2 == 0 and fe2 ==
      0x7ff and fm2 == 0x8000000000001 and  fcsr == 0  #nosat'
    : 1
    ? 'fs1 == 1 and fe1 == 0x000 and fm1 == 0x0000000000002 and fs2 == 1 and fe2 ==
      0x7ff and fm2 == 0x8000000000001 and  fcsr == 0  #nosat'
    : 1
    ? 'fs1 == 1 and fe1 == 0x000 and fm1 == 0x0000000000002 and fs2 == 0 and fe2 ==
      0x7ff and fm2 == 0x0000000000001 and  fcsr == 0  #nosat'
    : 1
    ? 'fs1 == 1 and fe1 == 0x000 and fm1 == 0x0000000000002 and fs2 == 1 and fe2 ==
      0x7ff and fm2 == 0x0000000000001 and  fcsr == 0  #nosat'
    : 1
    ? 'fs1 == 1 and fe1 == 0x000 and fm1 == 0x0000000000002 and fs2 == 0 and fe2 ==
      0x3ff and fm2 == 0x0000000000000 and  fcsr == 0  #nosat'
    : 1
    ? 'fs1 == 1 and fe1 == 0x000 and fm1 == 0x0000000000002 and fs2 == 1 and fe2 ==
      0x3f8 and fm2 == 0x0000000000000 and  fcsr == 0  #nosat'
    : 1
    ? 'fs1 == 0 and fe1 == 0x000 and fm1 == 0xfffffffffffff and fs2 == 0 and fe2 ==
      0x000 and fm2 == 0x0000000000000 and  fcsr == 0  #nosat'
    : 1
    ? 'fs1 == 0 and fe1 == 0x000 and fm1 == 0xfffffffffffff and fs2 == 1 and fe2 ==
      0x000 and fm2 == 0x0000000000000 and  fcsr == 0  #nosat'
    : 1
    ? 'fs1 == 0 and fe1 == 0x000 and fm1 == 0xfffffffffffff and fs2 == 0 and fe2 ==
      0x000 and fm2 == 0x0000000000001 and  fcsr == 0  #nosat'
    : 1
    ? 'fs1 == 0 and fe1 == 0x000 and fm1 == 0xfffffffffffff and fs2 == 1 and fe2 ==
      0x000 and fm2 == 0x0000000000001 and  fcsr == 0  #nosat'
    : 1
    ? 'fs1 == 0 and fe1 == 0x000 and fm1 == 0xfffffffffffff and fs2 == 0 and fe2 ==
      0x000 and fm2 == 0x0000000000002 and  fcsr == 0  #nosat'
    : 1
    ? 'fs1 == 0 and fe1 == 0x000 and fm1 == 0xfffffffffffff and fs2 == 1 and fe2 ==
      0x000 and fm2 == 0x0000000000002 and  fcsr == 0  #nosat'
    : 1
    ? 'fs1 == 0 and fe1 == 0x000 and fm1 == 0xfffffffffffff and fs2 == 0 and fe2 ==
      0x000 and fm2 == 0xfffffffffffff and  fcsr == 0  #nosat'
    : 1
    ? 'fs1 == 0 and fe1 == 0x000 and fm1 == 0xfffffffffffff and fs2 == 1 and fe2 ==
      0x000 and fm2 == 0xfffffffffffff and  fcsr == 0  #nosat'
    : 1
    ? 'fs1 == 0 and fe1 == 0x000 and fm1 == 0xfffffffffffff and fs2 == 0 and fe2 ==
      0x001 and fm2 == 0x0000000000000 and  fcsr == 0  #nosat'
    : 1
    ? 'fs1 == 0 and fe1 == 0x000 and fm1 == 0xfffffffffffff and fs2 == 1 and fe2 ==
      0x001 and fm2 == 0x0000000000000 and  fcsr == 0  #nosat'
    : 1
    ? 'fs1 == 0 and fe1 == 0x000 and fm1 == 0xfffffffffffff and fs2 == 0 and fe2 ==
      0x001 and fm2 == 0x0000000000002 and  fcsr == 0  #nosat'
    : 1
    ? 'fs1 == 0 and fe1 == 0x000 and fm1 == 0xfffffffffffff and fs2 == 1 and fe2 ==
      0x001 and fm2 == 0x0000000000002 and  fcsr == 0  #nosat'
    : 1
    ? 'fs1 == 0 and fe1 == 0x000 and fm1 == 0xfffffffffffff and fs2 == 0 and fe2 ==
      0x7fe and fm2 == 0xfffffffffffff and  fcsr == 0  #nosat'
    : 1
    ? 'fs1 == 0 and fe1 == 0x000 and fm1 == 0xfffffffffffff and fs2 == 1 and fe2 ==
      0x7fe and fm2 == 0xfffffffffffff and  fcsr == 0  #nosat'
    : 1
    ? 'fs1 == 0 and fe1 == 0x000 and fm1 == 0xfffffffffffff and fs2 == 0 and fe2 ==
      0x7ff and fm2 == 0x0000000000000 and  fcsr == 0  #nosat'
    : 1
    ? 'fs1 == 0 and fe1 == 0x000 and fm1 == 0xfffffffffffff and fs2 == 1 and fe2 ==
      0x7ff and fm2 == 0x0000000000000 and  fcsr == 0  #nosat'
    : 1
    ? 'fs1 == 0 and fe1 == 0x000 and fm1 == 0xfffffffffffff and fs2 == 0 and fe2 ==
      0x7ff and fm2 == 0x8000000000000 and  fcsr == 0  #nosat'
    : 1
    ? 'fs1 == 0 and fe1 == 0x000 and fm1 == 0xfffffffffffff and fs2 == 1 and fe2 ==
      0x7ff and fm2 == 0x8000000000000 and  fcsr == 0  #nosat'
    : 1
    ? 'fs1 == 0 and fe1 == 0x000 and fm1 == 0xfffffffffffff and fs2 == 0 and fe2 ==
      0x7ff and fm2 == 0x8000000000001 and  fcsr == 0  #nosat'
    : 1
    ? 'fs1 == 0 and fe1 == 0x000 and fm1 == 0xfffffffffffff and fs2 == 1 and fe2 ==
      0x7ff and fm2 == 0x8000000000001 and  fcsr == 0  #nosat'
    : 1
    ? 'fs1 == 0 and fe1 == 0x000 and fm1 == 0xfffffffffffff and fs2 == 0 and fe2 ==
      0x7ff and fm2 == 0x0000000000001 and  fcsr == 0  #nosat'
    : 1
    ? 'fs1 == 0 and fe1 == 0x000 and fm1 == 0xfffffffffffff and fs2 == 1 and fe2 ==
      0x7ff and fm2 == 0x0000000000001 and  fcsr == 0  #nosat'
    : 1
    ? 'fs1 == 0 and fe1 == 0x000 and fm1 == 0xfffffffffffff and fs2 == 0 and fe2 ==
      0x3ff and fm2 == 0x0000000000000 and  fcsr == 0  #nosat'
    : 1
    ? 'fs1 == 0 and fe1 == 0x000 and fm1 == 0xfffffffffffff and fs2 == 1 and fe2 ==
      0x3f8 and fm2 == 0x0000000000000 and  fcsr == 0  #nosat'
    : 1
    ? 'fs1 == 1 and fe1 == 0x000 and fm1 == 0xfffffffffffff and fs2 == 0 and fe2 ==
      0x000 and fm2 == 0x0000000000000 and  fcsr == 0  #nosat'
    : 1
    ? 'fs1 == 1 and fe1 == 0x000 and fm1 == 0xfffffffffffff and fs2 == 1 and fe2 ==
      0x000 and fm2 == 0x0000000000000 and  fcsr == 0  #nosat'
    : 1
    ? 'fs1 == 1 and fe1 == 0x000 and fm1 == 0xfffffffffffff and fs2 == 0 and fe2 ==
      0x000 and fm2 == 0x0000000000001 and  fcsr == 0  #nosat'
    : 1
    ? 'fs1 == 1 and fe1 == 0x000 and fm1 == 0xfffffffffffff and fs2 == 1 and fe2 ==
      0x000 and fm2 == 0x0000000000001 and  fcsr == 0  #nosat'
    : 1
    ? 'fs1 == 1 and fe1 == 0x000 and fm1 == 0xfffffffffffff and fs2 == 0 and fe2 ==
      0x000 and fm2 == 0x0000000000002 and  fcsr == 0  #nosat'
    : 1
    ? 'fs1 == 1 and fe1 == 0x000 and fm1 == 0xfffffffffffff and fs2 == 1 and fe2 ==
      0x000 and fm2 == 0x0000000000002 and  fcsr == 0  #nosat'
    : 1
    ? 'fs1 == 1 and fe1 == 0x000 and fm1 == 0xfffffffffffff and fs2 == 0 and fe2 ==
      0x000 and fm2 == 0xfffffffffffff and  fcsr == 0  #nosat'
    : 1
    ? 'fs1 == 1 and fe1 == 0x000 and fm1 == 0xfffffffffffff and fs2 == 1 and fe2 ==
      0x000 and fm2 == 0xfffffffffffff and  fcsr == 0  #nosat'
    : 1
    ? 'fs1 == 1 and fe1 == 0x000 and fm1 == 0xfffffffffffff and fs2 == 0 and fe2 ==
      0x001 and fm2 == 0x0000000000000 and  fcsr == 0  #nosat'
    : 1
    ? 'fs1 == 1 and fe1 == 0x000 and fm1 == 0xfffffffffffff and fs2 == 1 and fe2 ==
      0x001 and fm2 == 0x0000000000000 and  fcsr == 0  #nosat'
    : 1
    ? 'fs1 == 1 and fe1 == 0x000 and fm1 == 0xfffffffffffff and fs2 == 0 and fe2 ==
      0x001 and fm2 == 0x0000000000002 and  fcsr == 0  #nosat'
    : 1
    ? 'fs1 == 1 and fe1 == 0x000 and fm1 == 0xfffffffffffff and fs2 == 1 and fe2 ==
      0x001 and fm2 == 0x0000000000002 and  fcsr == 0  #nosat'
    : 1
    ? 'fs1 == 1 and fe1 == 0x000 and fm1 == 0xfffffffffffff and fs2 == 0 and fe2 ==
      0x7fe and fm2 == 0xfffffffffffff and  fcsr == 0  #nosat'
    : 1
    ? 'fs1 == 1 and fe1 == 0x000 and fm1 == 0xfffffffffffff and fs2 == 1 and fe2 ==
      0x7fe and fm2 == 0xfffffffffffff and  fcsr == 0  #nosat'
    : 1
    ? 'fs1 == 1 and fe1 == 0x000 and fm1 == 0xfffffffffffff and fs2 == 0 and fe2 ==
      0x7ff and fm2 == 0x0000000000000 and  fcsr == 0  #nosat'
    : 1
    ? 'fs1 == 1 and fe1 == 0x000 and fm1 == 0xfffffffffffff and fs2 == 1 and fe2 ==
      0x7ff and fm2 == 0x0000000000000 and  fcsr == 0  #nosat'
    : 1
    ? 'fs1 == 1 and fe1 == 0x000 and fm1 == 0xfffffffffffff and fs2 == 0 and fe2 ==
      0x7ff and fm2 == 0x8000000000000 and  fcsr == 0  #nosat'
    : 1
    ? 'fs1 == 1 and fe1 == 0x000 and fm1 == 0xfffffffffffff and fs2 == 1 and fe2 ==
      0x7ff and fm2 == 0x8000000000000 and  fcsr == 0  #nosat'
    : 1
    ? 'fs1 == 1 and fe1 == 0x000 and fm1 == 0xfffffffffffff and fs2 == 0 and fe2 ==
      0x7ff and fm2 == 0x8000000000001 and  fcsr == 0  #nosat'
    : 1
    ? 'fs1 == 1 and fe1 == 0x000 and fm1 == 0xfffffffffffff and fs2 == 1 and fe2 ==
      0x7ff and fm2 == 0x8000000000001 and  fcsr == 0  #nosat'
    : 1
    ? 'fs1 == 1 and fe1 == 0x000 and fm1 == 0xfffffffffffff and fs2 == 0 and fe2 ==
      0x7ff and fm2 == 0x0000000000001 and  fcsr == 0  #nosat'
    : 1
    ? 'fs1 == 1 and fe1 == 0x000 and fm1 == 0xfffffffffffff and fs2 == 1 and fe2 ==
      0x7ff and fm2 == 0x0000000000001 and  fcsr == 0  #nosat'
    : 1
    ? 'fs1 == 1 and fe1 == 0x000 and fm1 == 0xfffffffffffff and fs2 == 0 and fe2 ==
      0x3ff and fm2 == 0x0000000000000 and  fcsr == 0  #nosat'
    : 1
    ? 'fs1 == 1 and fe1 == 0x000 and fm1 == 0xfffffffffffff and fs2 == 1 and fe2 ==
      0x3f8 and fm2 == 0x0000000000000 and  fcsr == 0  #nosat'
    : 1
    ? 'fs1 == 0 and fe1 == 0x001 and fm1 == 0x0000000000000 and fs2 == 0 and fe2 ==
      0x000 and fm2 == 0x0000000000000 and  fcsr == 0  #nosat'
    : 1
    ? 'fs1 == 0 and fe1 == 0x001 and fm1 == 0x0000000000000 and fs2 == 1 and fe2 ==
      0x000 and fm2 == 0x0000000000000 and  fcsr == 0  #nosat'
    : 1
    ? 'fs1 == 0 and fe1 == 0x001 and fm1 == 0x0000000000000 and fs2 == 0 and fe2 ==
      0x000 and fm2 == 0x0000000000001 and  fcsr == 0  #nosat'
    : 1
    ? 'fs1 == 0 and fe1 == 0x001 and fm1 == 0x0000000000000 and fs2 == 1 and fe2 ==
      0x000 and fm2 == 0x0000000000001 and  fcsr == 0  #nosat'
    : 1
    ? 'fs1 == 0 and fe1 == 0x001 and fm1 == 0x0000000000000 and fs2 == 0 and fe2 ==
      0x000 and fm2 == 0x0000000000002 and  fcsr == 0  #nosat'
    : 1
    ? 'fs1 == 0 and fe1 == 0x001 and fm1 == 0x0000000000000 and fs2 == 1 and fe2 ==
      0x000 and fm2 == 0x0000000000002 and  fcsr == 0  #nosat'
    : 1
    ? 'fs1 == 0 and fe1 == 0x001 and fm1 == 0x0000000000000 and fs2 == 0 and fe2 ==
      0x000 and fm2 == 0xfffffffffffff and  fcsr == 0  #nosat'
    : 1
    ? 'fs1 == 0 and fe1 == 0x001 and fm1 == 0x0000000000000 and fs2 == 1 and fe2 ==
      0x000 and fm2 == 0xfffffffffffff and  fcsr == 0  #nosat'
    : 1
    ? 'fs1 == 0 and fe1 == 0x001 and fm1 == 0x0000000000000 and fs2 == 0 and fe2 ==
      0x001 and fm2 == 0x0000000000000 and  fcsr == 0  #nosat'
    : 1
    ? 'fs1 == 0 and fe1 == 0x001 and fm1 == 0x0000000000000 and fs2 == 1 and fe2 ==
      0x001 and fm2 == 0x0000000000000 and  fcsr == 0  #nosat'
    : 1
    ? 'fs1 == 0 and fe1 == 0x001 and fm1 == 0x0000000000000 and fs2 == 0 and fe2 ==
      0x001 and fm2 == 0x0000000000002 and  fcsr == 0  #nosat'
    : 1
    ? 'fs1 == 0 and fe1 == 0x001 and fm1 == 0x0000000000000 and fs2 == 1 and fe2 ==
      0x001 and fm2 == 0x0000000000002 and  fcsr == 0  #nosat'
    : 1
    ? 'fs1 == 0 and fe1 == 0x001 and fm1 == 0x0000000000000 and fs2 == 0 and fe2 ==
      0x7fe and fm2 == 0xfffffffffffff and  fcsr == 0  #nosat'
    : 1
    ? 'fs1 == 0 and fe1 == 0x001 and fm1 == 0x0000000000000 and fs2 == 1 and fe2 ==
      0x7fe and fm2 == 0xfffffffffffff and  fcsr == 0  #nosat'
    : 1
    ? 'fs1 == 0 and fe1 == 0x001 and fm1 == 0x0000000000000 and fs2 == 0 and fe2 ==
      0x7ff and fm2 == 0x0000000000000 and  fcsr == 0  #nosat'
    : 1
    ? 'fs1 == 0 and fe1 == 0x001 and fm1 == 0x0000000000000 and fs2 == 1 and fe2 ==
      0x7ff and fm2 == 0x0000000000000 and  fcsr == 0  #nosat'
    : 1
    ? 'fs1 == 0 and fe1 == 0x001 and fm1 == 0x0000000000000 and fs2 == 0 and fe2 ==
      0x7ff and fm2 == 0x8000000000000 and  fcsr == 0  #nosat'
    : 1
    ? 'fs1 == 0 and fe1 == 0x001 and fm1 == 0x0000000000000 and fs2 == 1 and fe2 ==
      0x7ff and fm2 == 0x8000000000000 and  fcsr == 0  #nosat'
    : 1
    ? 'fs1 == 0 and fe1 == 0x001 and fm1 == 0x0000000000000 and fs2 == 0 and fe2 ==
      0x7ff and fm2 == 0x8000000000001 and  fcsr == 0  #nosat'
    : 1
    ? 'fs1 == 0 and fe1 == 0x001 and fm1 == 0x0000000000000 and fs2 == 1 and fe2 ==
      0x7ff and fm2 == 0x8000000000001 and  fcsr == 0  #nosat'
    : 1
    ? 'fs1 == 0 and fe1 == 0x001 and fm1 == 0x0000000000000 and fs2 == 0 and fe2 ==
      0x7ff and fm2 == 0x0000000000001 and  fcsr == 0  #nosat'
    : 1
    ? 'fs1 == 0 and fe1 == 0x001 and fm1 == 0x0000000000000 and fs2 == 1 and fe2 ==
      0x7ff and fm2 == 0x0000000000001 and  fcsr == 0  #nosat'
    : 1
    ? 'fs1 == 0 and fe1 == 0x001 and fm1 == 0x0000000000000 and fs2 == 0 and fe2 ==
      0x3ff and fm2 == 0x0000000000000 and  fcsr == 0  #nosat'
    : 1
    ? 'fs1 == 0 and fe1 == 0x001 and fm1 == 0x0000000000000 and fs2 == 1 and fe2 ==
      0x3f8 and fm2 == 0x0000000000000 and  fcsr == 0  #nosat'
    : 1
    ? 'fs1 == 1 and fe1 == 0x001 and fm1 == 0x0000000000000 and fs2 == 0 and fe2 ==
      0x000 and fm2 == 0x0000000000000 and  fcsr == 0  #nosat'
    : 1
    ? 'fs1 == 1 and fe1 == 0x001 and fm1 == 0x0000000000000 and fs2 == 1 and fe2 ==
      0x000 and fm2 == 0x0000000000000 and  fcsr == 0  #nosat'
    : 1
    ? 'fs1 == 1 and fe1 == 0x001 and fm1 == 0x0000000000000 and fs2 == 0 and fe2 ==
      0x000 and fm2 == 0x0000000000001 and  fcsr == 0  #nosat'
    : 1
    ? 'fs1 == 1 and fe1 == 0x001 and fm1 == 0x0000000000000 and fs2 == 1 and fe2 ==
      0x000 and fm2 == 0x0000000000001 and  fcsr == 0  #nosat'
    : 1
    ? 'fs1 == 1 and fe1 == 0x001 and fm1 == 0x0000000000000 and fs2 == 0 and fe2 ==
      0x000 and fm2 == 0x0000000000002 and  fcsr == 0  #nosat'
    : 1
    ? 'fs1 == 1 and fe1 == 0x001 and fm1 == 0x0000000000000 and fs2 == 1 and fe2 ==
      0x000 and fm2 == 0x0000000000002 and  fcsr == 0  #nosat'
    : 1
    ? 'fs1 == 1 and fe1 == 0x001 and fm1 == 0x0000000000000 and fs2 == 0 and fe2 ==
      0x000 and fm2 == 0xfffffffffffff and  fcsr == 0  #nosat'
    : 1
    ? 'fs1 == 1 and fe1 == 0x001 and fm1 == 0x0000000000000 and fs2 == 1 and fe2 ==
      0x000 and fm2 == 0xfffffffffffff and  fcsr == 0  #nosat'
    : 1
    ? 'fs1 == 1 and fe1 == 0x001 and fm1 == 0x0000000000000 and fs2 == 0 and fe2 ==
      0x001 and fm2 == 0x0000000000000 and  fcsr == 0  #nosat'
    : 1
    ? 'fs1 == 1 and fe1 == 0x001 and fm1 == 0x0000000000000 and fs2 == 1 and fe2 ==
      0x001 and fm2 == 0x0000000000000 and  fcsr == 0  #nosat'
    : 1
    ? 'fs1 == 1 and fe1 == 0x001 and fm1 == 0x0000000000000 and fs2 == 0 and fe2 ==
      0x001 and fm2 == 0x0000000000002 and  fcsr == 0  #nosat'
    : 1
    ? 'fs1 == 1 and fe1 == 0x001 and fm1 == 0x0000000000000 and fs2 == 1 and fe2 ==
      0x001 and fm2 == 0x0000000000002 and  fcsr == 0  #nosat'
    : 1
    ? 'fs1 == 1 and fe1 == 0x001 and fm1 == 0x0000000000000 and fs2 == 0 and fe2 ==
      0x7fe and fm2 == 0xfffffffffffff and  fcsr == 0  #nosat'
    : 1
    ? 'fs1 == 1 and fe1 == 0x001 and fm1 == 0x0000000000000 and fs2 == 1 and fe2 ==
      0x7fe and fm2 == 0xfffffffffffff and  fcsr == 0  #nosat'
    : 1
    ? 'fs1 == 1 and fe1 == 0x001 and fm1 == 0x0000000000000 and fs2 == 0 and fe2 ==
      0x7ff and fm2 == 0x0000000000000 and  fcsr == 0  #nosat'
    : 1
    ? 'fs1 == 1 and fe1 == 0x001 and fm1 == 0x0000000000000 and fs2 == 1 and fe2 ==
      0x7ff and fm2 == 0x0000000000000 and  fcsr == 0  #nosat'
    : 1
    ? 'fs1 == 1 and fe1 == 0x001 and fm1 == 0x0000000000000 and fs2 == 0 and fe2 ==
      0x7ff and fm2 == 0x8000000000000 and  fcsr == 0  #nosat'
    : 1
    ? 'fs1 == 1 and fe1 == 0x001 and fm1 == 0x0000000000000 and fs2 == 1 and fe2 ==
      0x7ff and fm2 == 0x8000000000000 and  fcsr == 0  #nosat'
    : 1
    ? 'fs1 == 1 and fe1 == 0x001 and fm1 == 0x0000000000000 and fs2 == 0 and fe2 ==
      0x7ff and fm2 == 0x8000000000001 and  fcsr == 0  #nosat'
    : 1
    ? 'fs1 == 1 and fe1 == 0x001 and fm1 == 0x0000000000000 and fs2 == 1 and fe2 ==
      0x7ff and fm2 == 0x8000000000001 and  fcsr == 0  #nosat'
    : 1
    ? 'fs1 == 1 and fe1 == 0x001 and fm1 == 0x0000000000000 and fs2 == 0 and fe2 ==
      0x7ff and fm2 == 0x0000000000001 and  fcsr == 0  #nosat'
    : 1
    ? 'fs1 == 1 and fe1 == 0x001 and fm1 == 0x0000000000000 and fs2 == 1 and fe2 ==
      0x7ff and fm2 == 0x0000000000001 and  fcsr == 0  #nosat'
    : 1
    ? 'fs1 == 1 and fe1 == 0x001 and fm1 == 0x0000000000000 and fs2 == 0 and fe2 ==
      0x3ff and fm2 == 0x0000000000000 and  fcsr == 0  #nosat'
    : 1
    ? 'fs1 == 1 and fe1 == 0x001 and fm1 == 0x0000000000000 and fs2 == 1 and fe2 ==
      0x3f8 and fm2 == 0x0000000000000 and  fcsr == 0  #nosat'
    : 1
    ? 'fs1 == 0 and fe1 == 0x001 and fm1 == 0x0000000000002 and fs2 == 0 and fe2 ==
      0x000 and fm2 == 0x0000000000000 and  fcsr == 0  #nosat'
    : 1
    ? 'fs1 == 0 and fe1 == 0x001 and fm1 == 0x0000000000002 and fs2 == 1 and fe2 ==
      0x000 and fm2 == 0x0000000000000 and  fcsr == 0  #nosat'
    : 1
    ? 'fs1 == 0 and fe1 == 0x001 and fm1 == 0x0000000000002 and fs2 == 0 and fe2 ==
      0x000 and fm2 == 0x0000000000001 and  fcsr == 0  #nosat'
    : 1
    ? 'fs1 == 0 and fe1 == 0x001 and fm1 == 0x0000000000002 and fs2 == 1 and fe2 ==
      0x000 and fm2 == 0x0000000000001 and  fcsr == 0  #nosat'
    : 1
    ? 'fs1 == 0 and fe1 == 0x001 and fm1 == 0x0000000000002 and fs2 == 0 and fe2 ==
      0x000 and fm2 == 0x0000000000002 and  fcsr == 0  #nosat'
    : 1
    ? 'fs1 == 0 and fe1 == 0x001 and fm1 == 0x0000000000002 and fs2 == 1 and fe2 ==
      0x000 and fm2 == 0x0000000000002 and  fcsr == 0  #nosat'
    : 1
    ? 'fs1 == 0 and fe1 == 0x001 and fm1 == 0x0000000000002 and fs2 == 0 and fe2 ==
      0x000 and fm2 == 0xfffffffffffff and  fcsr == 0  #nosat'
    : 1
    ? 'fs1 == 0 and fe1 == 0x001 and fm1 == 0x0000000000002 and fs2 == 1 and fe2 ==
      0x000 and fm2 == 0xfffffffffffff and  fcsr == 0  #nosat'
    : 1
    ? 'fs1 == 0 and fe1 == 0x001 and fm1 == 0x0000000000002 and fs2 == 0 and fe2 ==
      0x001 and fm2 == 0x0000000000000 and  fcsr == 0  #nosat'
    : 1
    ? 'fs1 == 0 and fe1 == 0x001 and fm1 == 0x0000000000002 and fs2 == 1 and fe2 ==
      0x001 and fm2 == 0x0000000000000 and  fcsr == 0  #nosat'
    : 1
    ? 'fs1 == 0 and fe1 == 0x001 and fm1 == 0x0000000000002 and fs2 == 0 and fe2 ==
      0x001 and fm2 == 0x0000000000002 and  fcsr == 0  #nosat'
    : 1
    ? 'fs1 == 0 and fe1 == 0x001 and fm1 == 0x0000000000002 and fs2 == 1 and fe2 ==
      0x001 and fm2 == 0x0000000000002 and  fcsr == 0  #nosat'
    : 1
    ? 'fs1 == 0 and fe1 == 0x001 and fm1 == 0x0000000000002 and fs2 == 0 and fe2 ==
      0x7fe and fm2 == 0xfffffffffffff and  fcsr == 0  #nosat'
    : 1
    ? 'fs1 == 0 and fe1 == 0x001 and fm1 == 0x0000000000002 and fs2 == 1 and fe2 ==
      0x7fe and fm2 == 0xfffffffffffff and  fcsr == 0  #nosat'
    : 1
    ? 'fs1 == 0 and fe1 == 0x001 and fm1 == 0x0000000000002 and fs2 == 0 and fe2 ==
      0x7ff and fm2 == 0x0000000000000 and  fcsr == 0  #nosat'
    : 1
    ? 'fs1 == 0 and fe1 == 0x001 and fm1 == 0x0000000000002 and fs2 == 1 and fe2 ==
      0x7ff and fm2 == 0x0000000000000 and  fcsr == 0  #nosat'
    : 1
    ? 'fs1 == 0 and fe1 == 0x001 and fm1 == 0x0000000000002 and fs2 == 0 and fe2 ==
      0x7ff and fm2 == 0x8000000000000 and  fcsr == 0  #nosat'
    : 1
    ? 'fs1 == 0 and fe1 == 0x001 and fm1 == 0x0000000000002 and fs2 == 1 and fe2 ==
      0x7ff and fm2 == 0x8000000000000 and  fcsr == 0  #nosat'
    : 1
    ? 'fs1 == 0 and fe1 == 0x001 and fm1 == 0x0000000000002 and fs2 == 0 and fe2 ==
      0x7ff and fm2 == 0x8000000000001 and  fcsr == 0  #nosat'
    : 1
    ? 'fs1 == 0 and fe1 == 0x001 and fm1 == 0x0000000000002 and fs2 == 1 and fe2 ==
      0x7ff and fm2 == 0x8000000000001 and  fcsr == 0  #nosat'
    : 1
    ? 'fs1 == 0 and fe1 == 0x001 and fm1 == 0x0000000000002 and fs2 == 0 and fe2 ==
      0x7ff and fm2 == 0x0000000000001 and  fcsr == 0  #nosat'
    : 1
    ? 'fs1 == 0 and fe1 == 0x001 and fm1 == 0x0000000000002 and fs2 == 1 and fe2 ==
      0x7ff and fm2 == 0x0000000000001 and  fcsr == 0  #nosat'
    : 1
    ? 'fs1 == 0 and fe1 == 0x001 and fm1 == 0x0000000000002 and fs2 == 0 and fe2 ==
      0x3ff and fm2 == 0x0000000000000 and  fcsr == 0  #nosat'
    : 1
    ? 'fs1 == 0 and fe1 == 0x001 and fm1 == 0x0000000000002 and fs2 == 1 and fe2 ==
      0x3f8 and fm2 == 0x0000000000000 and  fcsr == 0  #nosat'
    : 1
    ? 'fs1 == 1 and fe1 == 0x001 and fm1 == 0x0000000000002 and fs2 == 0 and fe2 ==
      0x000 and fm2 == 0x0000000000000 and  fcsr == 0  #nosat'
    : 1
    ? 'fs1 == 1 and fe1 == 0x001 and fm1 == 0x0000000000002 and fs2 == 1 and fe2 ==
      0x000 and fm2 == 0x0000000000000 and  fcsr == 0  #nosat'
    : 1
    ? 'fs1 == 1 and fe1 == 0x001 and fm1 == 0x0000000000002 and fs2 == 0 and fe2 ==
      0x000 and fm2 == 0x0000000000001 and  fcsr == 0  #nosat'
    : 1
    ? 'fs1 == 1 and fe1 == 0x001 and fm1 == 0x0000000000002 and fs2 == 1 and fe2 ==
      0x000 and fm2 == 0x0000000000001 and  fcsr == 0  #nosat'
    : 1
    ? 'fs1 == 1 and fe1 == 0x001 and fm1 == 0x0000000000002 and fs2 == 0 and fe2 ==
      0x000 and fm2 == 0x0000000000002 and  fcsr == 0  #nosat'
    : 1
    ? 'fs1 == 1 and fe1 == 0x001 and fm1 == 0x0000000000002 and fs2 == 1 and fe2 ==
      0x000 and fm2 == 0x0000000000002 and  fcsr == 0  #nosat'
    : 1
    ? 'fs1 == 1 and fe1 == 0x001 and fm1 == 0x0000000000002 and fs2 == 0 and fe2 ==
      0x000 and fm2 == 0xfffffffffffff and  fcsr == 0  #nosat'
    : 1
    ? 'fs1 == 1 and fe1 == 0x001 and fm1 == 0x0000000000002 and fs2 == 1 and fe2 ==
      0x000 and fm2 == 0xfffffffffffff and  fcsr == 0  #nosat'
    : 1
    ? 'fs1 == 1 and fe1 == 0x001 and fm1 == 0x0000000000002 and fs2 == 0 and fe2 ==
      0x001 and fm2 == 0x0000000000000 and  fcsr == 0  #nosat'
    : 1
    ? 'fs1 == 1 and fe1 == 0x001 and fm1 == 0x0000000000002 and fs2 == 1 and fe2 ==
      0x001 and fm2 == 0x0000000000000 and  fcsr == 0  #nosat'
    : 1
    ? 'fs1 == 1 and fe1 == 0x001 and fm1 == 0x0000000000002 and fs2 == 0 and fe2 ==
      0x001 and fm2 == 0x0000000000002 and  fcsr == 0  #nosat'
    : 1
    ? 'fs1 == 1 and fe1 == 0x001 and fm1 == 0x0000000000002 and fs2 == 1 and fe2 ==
      0x001 and fm2 == 0x0000000000002 and  fcsr == 0  #nosat'
    : 1
    ? 'fs1 == 1 and fe1 == 0x001 and fm1 == 0x0000000000002 and fs2 == 0 and fe2 ==
      0x7fe and fm2 == 0xfffffffffffff and  fcsr == 0  #nosat'
    : 1
    ? 'fs1 == 1 and fe1 == 0x001 and fm1 == 0x0000000000002 and fs2 == 1 and fe2 ==
      0x7fe and fm2 == 0xfffffffffffff and  fcsr == 0  #nosat'
    : 1
    ? 'fs1 == 1 and fe1 == 0x001 and fm1 == 0x0000000000002 and fs2 == 0 and fe2 ==
      0x7ff and fm2 == 0x0000000000000 and  fcsr == 0  #nosat'
    : 1
    ? 'fs1 == 1 and fe1 == 0x001 and fm1 == 0x0000000000002 and fs2 == 1 and fe2 ==
      0x7ff and fm2 == 0x0000000000000 and  fcsr == 0  #nosat'
    : 1
    ? 'fs1 == 1 and fe1 == 0x001 and fm1 == 0x0000000000002 and fs2 == 0 and fe2 ==
      0x7ff and fm2 == 0x8000000000000 and  fcsr == 0  #nosat'
    : 1
    ? 'fs1 == 1 and fe1 == 0x001 and fm1 == 0x0000000000002 and fs2 == 1 and fe2 ==
      0x7ff and fm2 == 0x8000000000000 and  fcsr == 0  #nosat'
    : 1
    ? 'fs1 == 1 and fe1 == 0x001 and fm1 == 0x0000000000002 and fs2 == 0 and fe2 ==
      0x7ff and fm2 == 0x8000000000001 and  fcsr == 0  #nosat'
    : 1
    ? 'fs1 == 1 and fe1 == 0x001 and fm1 == 0x0000000000002 and fs2 == 1 and fe2 ==
      0x7ff and fm2 == 0x8000000000001 and  fcsr == 0  #nosat'
    : 1
    ? 'fs1 == 1 and fe1 == 0x001 and fm1 == 0x0000000000002 and fs2 == 0 and fe2 ==
      0x7ff and fm2 == 0x0000000000001 and  fcsr == 0  #nosat'
    : 1
    ? 'fs1 == 1 and fe1 == 0x001 and fm1 == 0x0000000000002 and fs2 == 1 and fe2 ==
      0x7ff and fm2 == 0x0000000000001 and  fcsr == 0  #nosat'
    : 1
    ? 'fs1 == 1 and fe1 == 0x001 and fm1 == 0x0000000000002 and fs2 == 0 and fe2 ==
      0x3ff and fm2 == 0x0000000000000 and  fcsr == 0  #nosat'
    : 1
    ? 'fs1 == 1 and fe1 == 0x001 and fm1 == 0x0000000000002 and fs2 == 1 and fe2 ==
      0x3f8 and fm2 == 0x0000000000000 and  fcsr == 0  #nosat'
    : 1
    ? 'fs1 == 0 and fe1 == 0x7fe and fm1 == 0xfffffffffffff and fs2 == 0 and fe2 ==
      0x000 and fm2 == 0x0000000000000 and  fcsr == 0  #nosat'
    : 1
    ? 'fs1 == 0 and fe1 == 0x7fe and fm1 == 0xfffffffffffff and fs2 == 1 and fe2 ==
      0x000 and fm2 == 0x0000000000000 and  fcsr == 0  #nosat'
    : 1
    ? 'fs1 == 0 and fe1 == 0x7fe and fm1 == 0xfffffffffffff and fs2 == 0 and fe2 ==
      0x000 and fm2 == 0x0000000000001 and  fcsr == 0  #nosat'
    : 1
    ? 'fs1 == 0 and fe1 == 0x7fe and fm1 == 0xfffffffffffff and fs2 == 1 and fe2 ==
      0x000 and fm2 == 0x0000000000001 and  fcsr == 0  #nosat'
    : 1
    ? 'fs1 == 0 and fe1 == 0x7fe and fm1 == 0xfffffffffffff and fs2 == 0 and fe2 ==
      0x000 and fm2 == 0x0000000000002 and  fcsr == 0  #nosat'
    : 1
    ? 'fs1 == 0 and fe1 == 0x7fe and fm1 == 0xfffffffffffff and fs2 == 1 and fe2 ==
      0x000 and fm2 == 0x0000000000002 and  fcsr == 0  #nosat'
    : 1
    ? 'fs1 == 0 and fe1 == 0x7fe and fm1 == 0xfffffffffffff and fs2 == 0 and fe2 ==
      0x000 and fm2 == 0xfffffffffffff and  fcsr == 0  #nosat'
    : 1
    ? 'fs1 == 0 and fe1 == 0x7fe and fm1 == 0xfffffffffffff and fs2 == 1 and fe2 ==
      0x000 and fm2 == 0xfffffffffffff and  fcsr == 0  #nosat'
    : 1
    ? 'fs1 == 0 and fe1 == 0x7fe and fm1 == 0xfffffffffffff and fs2 == 0 and fe2 ==
      0x001 and fm2 == 0x0000000000000 and  fcsr == 0  #nosat'
    : 1
    ? 'fs1 == 0 and fe1 == 0x7fe and fm1 == 0xfffffffffffff and fs2 == 1 and fe2 ==
      0x001 and fm2 == 0x0000000000000 and  fcsr == 0  #nosat'
    : 1
    ? 'fs1 == 0 and fe1 == 0x7fe and fm1 == 0xfffffffffffff and fs2 == 0 and fe2 ==
      0x001 and fm2 == 0x0000000000002 and  fcsr == 0  #nosat'
    : 1
    ? 'fs1 == 0 and fe1 == 0x7fe and fm1 == 0xfffffffffffff and fs2 == 1 and fe2 ==
      0x001 and fm2 == 0x0000000000002 and  fcsr == 0  #nosat'
    : 1
    ? 'fs1 == 0 and fe1 == 0x7fe and fm1 == 0xfffffffffffff and fs2 == 0 and fe2 ==
      0x7fe and fm2 == 0xfffffffffffff and  fcsr == 0  #nosat'
    : 1
    ? 'fs1 == 0 and fe1 == 0x7fe and fm1 == 0xfffffffffffff and fs2 == 1 and fe2 ==
      0x7fe and fm2 == 0xfffffffffffff and  fcsr == 0  #nosat'
    : 1
    ? 'fs1 == 0 and fe1 == 0x7fe and fm1 == 0xfffffffffffff and fs2 == 0 and fe2 ==
      0x7ff and fm2 == 0x0000000000000 and  fcsr == 0  #nosat'
    : 1
    ? 'fs1 == 0 and fe1 == 0x7fe and fm1 == 0xfffffffffffff and fs2 == 1 and fe2 ==
      0x7ff and fm2 == 0x0000000000000 and  fcsr == 0  #nosat'
    : 1
    ? 'fs1 == 0 and fe1 == 0x7fe and fm1 == 0xfffffffffffff and fs2 == 0 and fe2 ==
      0x7ff and fm2 == 0x8000000000000 and  fcsr == 0  #nosat'
    : 1
    ? 'fs1 == 0 and fe1 == 0x7fe and fm1 == 0xfffffffffffff and fs2 == 1 and fe2 ==
      0x7ff and fm2 == 0x8000000000000 and  fcsr == 0  #nosat'
    : 1
    ? 'fs1 == 0 and fe1 == 0x7fe and fm1 == 0xfffffffffffff and fs2 == 0 and fe2 ==
      0x7ff and fm2 == 0x8000000000001 and  fcsr == 0  #nosat'
    : 1
    ? 'fs1 == 0 and fe1 == 0x7fe and fm1 == 0xfffffffffffff and fs2 == 1 and fe2 ==
      0x7ff and fm2 == 0x8000000000001 and  fcsr == 0  #nosat'
    : 1
    ? 'fs1 == 0 and fe1 == 0x7fe and fm1 == 0xfffffffffffff and fs2 == 0 and fe2 ==
      0x7ff and fm2 == 0x0000000000001 and  fcsr == 0  #nosat'
    : 1
    ? 'fs1 == 0 and fe1 == 0x7fe and fm1 == 0xfffffffffffff and fs2 == 1 and fe2 ==
      0x7ff and fm2 == 0x0000000000001 and  fcsr == 0  #nosat'
    : 1
    ? 'fs1 == 0 and fe1 == 0x7fe and fm1 == 0xfffffffffffff and fs2 == 0 and fe2 ==
      0x3ff and fm2 == 0x0000000000000 and  fcsr == 0  #nosat'
    : 1
    ? 'fs1 == 0 and fe1 == 0x7fe and fm1 == 0xfffffffffffff and fs2 == 1 and fe2 ==
      0x3f8 and fm2 == 0x0000000000000 and  fcsr == 0  #nosat'
    : 1
    ? 'fs1 == 1 and fe1 == 0x7fe and fm1 == 0xfffffffffffff and fs2 == 0 and fe2 ==
      0x000 and fm2 == 0x0000000000000 and  fcsr == 0  #nosat'
    : 1
    ? 'fs1 == 1 and fe1 == 0x7fe and fm1 == 0xfffffffffffff and fs2 == 1 and fe2 ==
      0x000 and fm2 == 0x0000000000000 and  fcsr == 0  #nosat'
    : 1
    ? 'fs1 == 1 and fe1 == 0x7fe and fm1 == 0xfffffffffffff and fs2 == 0 and fe2 ==
      0x000 and fm2 == 0x0000000000001 and  fcsr == 0  #nosat'
    : 1
    ? 'fs1 == 1 and fe1 == 0x7fe and fm1 == 0xfffffffffffff and fs2 == 1 and fe2 ==
      0x000 and fm2 == 0x0000000000001 and  fcsr == 0  #nosat'
    : 1
    ? 'fs1 == 1 and fe1 == 0x7fe and fm1 == 0xfffffffffffff and fs2 == 0 and fe2 ==
      0x000 and fm2 == 0x0000000000002 and  fcsr == 0  #nosat'
    : 1
    ? 'fs1 == 1 and fe1 == 0x7fe and fm1 == 0xfffffffffffff and fs2 == 1 and fe2 ==
      0x000 and fm2 == 0x0000000000002 and  fcsr == 0  #nosat'
    : 1
    ? 'fs1 == 1 and fe1 == 0x7fe and fm1 == 0xfffffffffffff and fs2 == 0 and fe2 ==
      0x000 and fm2 == 0xfffffffffffff and  fcsr == 0  #nosat'
    : 1
    ? 'fs1 == 1 and fe1 == 0x7fe and fm1 == 0xfffffffffffff and fs2 == 1 and fe2 ==
      0x000 and fm2 == 0xfffffffffffff and  fcsr == 0  #nosat'
    : 1
    ? 'fs1 == 1 and fe1 == 0x7fe and fm1 == 0xfffffffffffff and fs2 == 0 and fe2 ==
      0x001 and fm2 == 0x0000000000000 and  fcsr == 0  #nosat'
    : 1
    ? 'fs1 == 1 and fe1 == 0x7fe and fm1 == 0xfffffffffffff and fs2 == 1 and fe2 ==
      0x001 and fm2 == 0x0000000000000 and  fcsr == 0  #nosat'
    : 1
    ? 'fs1 == 1 and fe1 == 0x7fe and fm1 == 0xfffffffffffff and fs2 == 0 and fe2 ==
      0x001 and fm2 == 0x0000000000002 and  fcsr == 0  #nosat'
    : 1
    ? 'fs1 == 1 and fe1 == 0x7fe and fm1 == 0xfffffffffffff and fs2 == 1 and fe2 ==
      0x001 and fm2 == 0x0000000000002 and  fcsr == 0  #nosat'
    : 1
    ? 'fs1 == 1 and fe1 == 0x7fe and fm1 == 0xfffffffffffff and fs2 == 0 and fe2 ==
      0x7fe and fm2 == 0xfffffffffffff and  fcsr == 0  #nosat'
    : 1
    ? 'fs1 == 1 and fe1 == 0x7fe and fm1 == 0xfffffffffffff and fs2 == 1 and fe2 ==
      0x7fe and fm2 == 0xfffffffffffff and  fcsr == 0  #nosat'
    : 1
    ? 'fs1 == 1 and fe1 == 0x7fe and fm1 == 0xfffffffffffff and fs2 == 0 and fe2 ==
      0x7ff and fm2 == 0x0000000000000 and  fcsr == 0  #nosat'
    : 1
    ? 'fs1 == 1 and fe1 == 0x7fe and fm1 == 0xfffffffffffff and fs2 == 1 and fe2 ==
      0x7ff and fm2 == 0x0000000000000 and  fcsr == 0  #nosat'
    : 1
    ? 'fs1 == 1 and fe1 == 0x7fe and fm1 == 0xfffffffffffff and fs2 == 0 and fe2 ==
      0x7ff and fm2 == 0x8000000000000 and  fcsr == 0  #nosat'
    : 1
    ? 'fs1 == 1 and fe1 == 0x7fe and fm1 == 0xfffffffffffff and fs2 == 1 and fe2 ==
      0x7ff and fm2 == 0x8000000000000 and  fcsr == 0  #nosat'
    : 1
    ? 'fs1 == 1 and fe1 == 0x7fe and fm1 == 0xfffffffffffff and fs2 == 0 and fe2 ==
      0x7ff and fm2 == 0x8000000000001 and  fcsr == 0  #nosat'
    : 1
    ? 'fs1 == 1 and fe1 == 0x7fe and fm1 == 0xfffffffffffff and fs2 == 1 and fe2 ==
      0x7ff and fm2 == 0x8000000000001 and  fcsr == 0  #nosat'
    : 1
    ? 'fs1 == 1 and fe1 == 0x7fe and fm1 == 0xfffffffffffff and fs2 == 0 and fe2 ==
      0x7ff and fm2 == 0x0000000000001 and  fcsr == 0  #nosat'
    : 1
    ? 'fs1 == 1 and fe1 == 0x7fe and fm1 == 0xfffffffffffff and fs2 == 1 and fe2 ==
      0x7ff and fm2 == 0x0000000000001 and  fcsr == 0  #nosat'
    : 1
    ? 'fs1 == 1 and fe1 == 0x7fe and fm1 == 0xfffffffffffff and fs2 == 0 and fe2 ==
      0x3ff and fm2 == 0x0000000000000 and  fcsr == 0  #nosat'
    : 1
    ? 'fs1 == 1 and fe1 == 0x7fe and fm1 == 0xfffffffffffff and fs2 == 1 and fe2 ==
      0x3f8 and fm2 == 0x0000000000000 and  fcsr == 0  #nosat'
    : 1
    ? 'fs1 == 0 and fe1 == 0x7ff and fm1 == 0x0000000000000 and fs2 == 0 and fe2 ==
      0x000 and fm2 == 0x0000000000000 and  fcsr == 0  #nosat'
    : 1
    ? 'fs1 == 0 and fe1 == 0x7ff and fm1 == 0x0000000000000 and fs2 == 1 and fe2 ==
      0x000 and fm2 == 0x0000000000000 and  fcsr == 0  #nosat'
    : 1
    ? 'fs1 == 0 and fe1 == 0x7ff and fm1 == 0x0000000000000 and fs2 == 0 and fe2 ==
      0x000 and fm2 == 0x0000000000001 and  fcsr == 0  #nosat'
    : 1
    ? 'fs1 == 0 and fe1 == 0x7ff and fm1 == 0x0000000000000 and fs2 == 1 and fe2 ==
      0x000 and fm2 == 0x0000000000001 and  fcsr == 0  #nosat'
    : 1
    ? 'fs1 == 0 and fe1 == 0x7ff and fm1 == 0x0000000000000 and fs2 == 0 and fe2 ==
      0x000 and fm2 == 0x0000000000002 and  fcsr == 0  #nosat'
    : 1
    ? 'fs1 == 0 and fe1 == 0x7ff and fm1 == 0x0000000000000 and fs2 == 1 and fe2 ==
      0x000 and fm2 == 0x0000000000002 and  fcsr == 0  #nosat'
    : 1
    ? 'fs1 == 0 and fe1 == 0x7ff and fm1 == 0x0000000000000 and fs2 == 0 and fe2 ==
      0x000 and fm2 == 0xfffffffffffff and  fcsr == 0  #nosat'
    : 1
    ? 'fs1 == 0 and fe1 == 0x7ff and fm1 == 0x0000000000000 and fs2 == 1 and fe2 ==
      0x000 and fm2 == 0xfffffffffffff and  fcsr == 0  #nosat'
    : 1
    ? 'fs1 == 0 and fe1 == 0x7ff and fm1 == 0x0000000000000 and fs2 == 0 and fe2 ==
      0x001 and fm2 == 0x0000000000000 and  fcsr == 0  #nosat'
    : 1
    ? 'fs1 == 0 and fe1 == 0x7ff and fm1 == 0x0000000000000 and fs2 == 1 and fe2 ==
      0x001 and fm2 == 0x0000000000000 and  fcsr == 0  #nosat'
    : 1
    ? 'fs1 == 0 and fe1 == 0x7ff and fm1 == 0x0000000000000 and fs2 == 0 and fe2 ==
      0x001 and fm2 == 0x0000000000002 and  fcsr == 0  #nosat'
    : 1
    ? 'fs1 == 0 and fe1 == 0x7ff and fm1 == 0x0000000000000 and fs2 == 1 and fe2 ==
      0x001 and fm2 == 0x0000000000002 and  fcsr == 0  #nosat'
    : 1
    ? 'fs1 == 0 and fe1 == 0x7ff and fm1 == 0x0000000000000 and fs2 == 0 and fe2 ==
      0x7fe and fm2 == 0xfffffffffffff and  fcsr == 0  #nosat'
    : 1
    ? 'fs1 == 0 and fe1 == 0x7ff and fm1 == 0x0000000000000 and fs2 == 1 and fe2 ==
      0x7fe and fm2 == 0xfffffffffffff and  fcsr == 0  #nosat'
    : 1
    ? 'fs1 == 0 and fe1 == 0x7ff and fm1 == 0x0000000000000 and fs2 == 0 and fe2 ==
      0x7ff and fm2 == 0x0000000000000 and  fcsr == 0  #nosat'
    : 1
    ? 'fs1 == 0 and fe1 == 0x7ff and fm1 == 0x0000000000000 and fs2 == 1 and fe2 ==
      0x7ff and fm2 == 0x0000000000000 and  fcsr == 0  #nosat'
    : 1
    ? 'fs1 == 0 and fe1 == 0x7ff and fm1 == 0x0000000000000 and fs2 == 0 and fe2 ==
      0x7ff and fm2 == 0x8000000000000 and  fcsr == 0  #nosat'
    : 1
    ? 'fs1 == 0 and fe1 == 0x7ff and fm1 == 0x0000000000000 and fs2 == 1 and fe2 ==
      0x7ff and fm2 == 0x8000000000000 and  fcsr == 0  #nosat'
    : 1
    ? 'fs1 == 0 and fe1 == 0x7ff and fm1 == 0x0000000000000 and fs2 == 0 and fe2 ==
      0x7ff and fm2 == 0x8000000000001 and  fcsr == 0  #nosat'
    : 1
    ? 'fs1 == 0 and fe1 == 0x7ff and fm1 == 0x0000000000000 and fs2 == 1 and fe2 ==
      0x7ff and fm2 == 0x8000000000001 and  fcsr == 0  #nosat'
    : 1
    ? 'fs1 == 0 and fe1 == 0x7ff and fm1 == 0x0000000000000 and fs2 == 0 and fe2 ==
      0x7ff and fm2 == 0x0000000000001 and  fcsr == 0  #nosat'
    : 1
    ? 'fs1 == 0 and fe1 == 0x7ff and fm1 == 0x0000000000000 and fs2 == 1 and fe2 ==
      0x7ff and fm2 == 0x0000000000001 and  fcsr == 0  #nosat'
    : 1
    ? 'fs1 == 0 and fe1 == 0x7ff and fm1 == 0x0000000000000 and fs2 == 0 and fe2 ==
      0x3ff and fm2 == 0x0000000000000 and  fcsr == 0  #nosat'
    : 1
    ? 'fs1 == 0 and fe1 == 0x7ff and fm1 == 0x0000000000000 and fs2 == 1 and fe2 ==
      0x3f8 and fm2 == 0x0000000000000 and  fcsr == 0  #nosat'
    : 1
    ? 'fs1 == 1 and fe1 == 0x7ff and fm1 == 0x0000000000000 and fs2 == 0 and fe2 ==
      0x000 and fm2 == 0x0000000000000 and  fcsr == 0  #nosat'
    : 1
    ? 'fs1 == 1 and fe1 == 0x7ff and fm1 == 0x0000000000000 and fs2 == 1 and fe2 ==
      0x000 and fm2 == 0x0000000000000 and  fcsr == 0  #nosat'
    : 1
    ? 'fs1 == 1 and fe1 == 0x7ff and fm1 == 0x0000000000000 and fs2 == 0 and fe2 ==
      0x000 and fm2 == 0x0000000000001 and  fcsr == 0  #nosat'
    : 1
    ? 'fs1 == 1 and fe1 == 0x7ff and fm1 == 0x0000000000000 and fs2 == 1 and fe2 ==
      0x000 and fm2 == 0x0000000000001 and  fcsr == 0  #nosat'
    : 1
    ? 'fs1 == 1 and fe1 == 0x7ff and fm1 == 0x0000000000000 and fs2 == 0 and fe2 ==
      0x000 and fm2 == 0x0000000000002 and  fcsr == 0  #nosat'
    : 1
    ? 'fs1 == 1 and fe1 == 0x7ff and fm1 == 0x0000000000000 and fs2 == 1 and fe2 ==
      0x000 and fm2 == 0x0000000000002 and  fcsr == 0  #nosat'
    : 1
    ? 'fs1 == 1 and fe1 == 0x7ff and fm1 == 0x0000000000000 and fs2 == 0 and fe2 ==
      0x000 and fm2 == 0xfffffffffffff and  fcsr == 0  #nosat'
    : 1
    ? 'fs1 == 1 and fe1 == 0x7ff and fm1 == 0x0000000000000 and fs2 == 1 and fe2 ==
      0x000 and fm2 == 0xfffffffffffff and  fcsr == 0  #nosat'
    : 1
    ? 'fs1 == 1 and fe1 == 0x7ff and fm1 == 0x0000000000000 and fs2 == 0 and fe2 ==
      0x001 and fm2 == 0x0000000000000 and  fcsr == 0  #nosat'
    : 1
    ? 'fs1 == 1 and fe1 == 0x7ff and fm1 == 0x0000000000000 and fs2 == 1 and fe2 ==
      0x001 and fm2 == 0x0000000000000 and  fcsr == 0  #nosat'
    : 1
    ? 'fs1 == 1 and fe1 == 0x7ff and fm1 == 0x0000000000000 and fs2 == 0 and fe2 ==
      0x001 and fm2 == 0x0000000000002 and  fcsr == 0  #nosat'
    : 1
    ? 'fs1 == 1 and fe1 == 0x7ff and fm1 == 0x0000000000000 and fs2 == 1 and fe2 ==
      0x001 and fm2 == 0x0000000000002 and  fcsr == 0  #nosat'
    : 1
    ? 'fs1 == 1 and fe1 == 0x7ff and fm1 == 0x0000000000000 and fs2 == 0 and fe2 ==
      0x7fe and fm2 == 0xfffffffffffff and  fcsr == 0  #nosat'
    : 1
    ? 'fs1 == 1 and fe1 == 0x7ff and fm1 == 0x0000000000000 and fs2 == 1 and fe2 ==
      0x7fe and fm2 == 0xfffffffffffff and  fcsr == 0  #nosat'
    : 1
    ? 'fs1 == 1 and fe1 == 0x7ff and fm1 == 0x0000000000000 and fs2 == 0 and fe2 ==
      0x7ff and fm2 == 0x0000000000000 and  fcsr == 0  #nosat'
    : 1
    ? 'fs1 == 1 and fe1 == 0x7ff and fm1 == 0x0000000000000 and fs2 == 1 and fe2 ==
      0x7ff and fm2 == 0x0000000000000 and  fcsr == 0  #nosat'
    : 1
    ? 'fs1 == 1 and fe1 == 0x7ff and fm1 == 0x0000000000000 and fs2 == 0 and fe2 ==
      0x7ff and fm2 == 0x8000000000000 and  fcsr == 0  #nosat'
    : 1
    ? 'fs1 == 1 and fe1 == 0x7ff and fm1 == 0x0000000000000 and fs2 == 1 and fe2 ==
      0x7ff and fm2 == 0x8000000000000 and  fcsr == 0  #nosat'
    : 1
    ? 'fs1 == 1 and fe1 == 0x7ff and fm1 == 0x0000000000000 and fs2 == 0 and fe2 ==
      0x7ff and fm2 == 0x8000000000001 and  fcsr == 0  #nosat'
    : 1
    ? 'fs1 == 1 and fe1 == 0x7ff and fm1 == 0x0000000000000 and fs2 == 1 and fe2 ==
      0x7ff and fm2 == 0x8000000000001 and  fcsr == 0  #nosat'
    : 1
    ? 'fs1 == 1 and fe1 == 0x7ff and fm1 == 0x0000000000000 and fs2 == 0 and fe2 ==
      0x7ff and fm2 == 0x0000000000001 and  fcsr == 0  #nosat'
    : 1
    ? 'fs1 == 1 and fe1 == 0x7ff and fm1 == 0x0000000000000 and fs2 == 1 and fe2 ==
      0x7ff and fm2 == 0x0000000000001 and  fcsr == 0  #nosat'
    : 1
    ? 'fs1 == 1 and fe1 == 0x7ff and fm1 == 0x0000000000000 and fs2 == 0 and fe2 ==
      0x3ff and fm2 == 0x0000000000000 and  fcsr == 0  #nosat'
    : 1
    ? 'fs1 == 1 and fe1 == 0x7ff and fm1 == 0x0000000000000 and fs2 == 1 and fe2 ==
      0x3f8 and fm2 == 0x0000000000000 and  fcsr == 0  #nosat'
    : 1
    ? 'fs1 == 0 and fe1 == 0x7ff and fm1 == 0x8000000000000 and fs2 == 0 and fe2 ==
      0x000 and fm2 == 0x0000000000000 and  fcsr == 0  #nosat'
    : 1
    ? 'fs1 == 0 and fe1 == 0x7ff and fm1 == 0x8000000000000 and fs2 == 1 and fe2 ==
      0x000 and fm2 == 0x0000000000000 and  fcsr == 0  #nosat'
    : 1
    ? 'fs1 == 0 and fe1 == 0x7ff and fm1 == 0x8000000000000 and fs2 == 0 and fe2 ==
      0x000 and fm2 == 0x0000000000001 and  fcsr == 0  #nosat'
    : 1
    ? 'fs1 == 0 and fe1 == 0x7ff and fm1 == 0x8000000000000 and fs2 == 1 and fe2 ==
      0x000 and fm2 == 0x0000000000001 and  fcsr == 0  #nosat'
    : 1
    ? 'fs1 == 0 and fe1 == 0x7ff and fm1 == 0x8000000000000 and fs2 == 0 and fe2 ==
      0x000 and fm2 == 0x0000000000002 and  fcsr == 0  #nosat'
    : 1
    ? 'fs1 == 0 and fe1 == 0x7ff and fm1 == 0x8000000000000 and fs2 == 1 and fe2 ==
      0x000 and fm2 == 0x0000000000002 and  fcsr == 0  #nosat'
    : 1
    ? 'fs1 == 0 and fe1 == 0x7ff and fm1 == 0x8000000000000 and fs2 == 0 and fe2 ==
      0x000 and fm2 == 0xfffffffffffff and  fcsr == 0  #nosat'
    : 1
    ? 'fs1 == 0 and fe1 == 0x7ff and fm1 == 0x8000000000000 and fs2 == 1 and fe2 ==
      0x000 and fm2 == 0xfffffffffffff and  fcsr == 0  #nosat'
    : 1
    ? 'fs1 == 0 and fe1 == 0x7ff and fm1 == 0x8000000000000 and fs2 == 0 and fe2 ==
      0x001 and fm2 == 0x0000000000000 and  fcsr == 0  #nosat'
    : 1
    ? 'fs1 == 0 and fe1 == 0x7ff and fm1 == 0x8000000000000 and fs2 == 1 and fe2 ==
      0x001 and fm2 == 0x0000000000000 and  fcsr == 0  #nosat'
    : 1
    ? 'fs1 == 0 and fe1 == 0x7ff and fm1 == 0x8000000000000 and fs2 == 0 and fe2 ==
      0x001 and fm2 == 0x0000000000002 and  fcsr == 0  #nosat'
    : 1
    ? 'fs1 == 0 and fe1 == 0x7ff and fm1 == 0x8000000000000 and fs2 == 1 and fe2 ==
      0x001 and fm2 == 0x0000000000002 and  fcsr == 0  #nosat'
    : 1
    ? 'fs1 == 0 and fe1 == 0x7ff and fm1 == 0x8000000000000 and fs2 == 0 and fe2 ==
      0x7fe and fm2 == 0xfffffffffffff and  fcsr == 0  #nosat'
    : 1
    ? 'fs1 == 0 and fe1 == 0x7ff and fm1 == 0x8000000000000 and fs2 == 1 and fe2 ==
      0x7fe and fm2 == 0xfffffffffffff and  fcsr == 0  #nosat'
    : 1
    ? 'fs1 == 0 and fe1 == 0x7ff and fm1 == 0x8000000000000 and fs2 == 0 and fe2 ==
      0x7ff and fm2 == 0x0000000000000 and  fcsr == 0  #nosat'
    : 1
    ? 'fs1 == 0 and fe1 == 0x7ff and fm1 == 0x8000000000000 and fs2 == 1 and fe2 ==
      0x7ff and fm2 == 0x0000000000000 and  fcsr == 0  #nosat'
    : 1
    ? 'fs1 == 0 and fe1 == 0x7ff and fm1 == 0x8000000000000 and fs2 == 0 and fe2 ==
      0x7ff and fm2 == 0x8000000000000 and  fcsr == 0  #nosat'
    : 1
    ? 'fs1 == 0 and fe1 == 0x7ff and fm1 == 0x8000000000000 and fs2 == 1 and fe2 ==
      0x7ff and fm2 == 0x8000000000000 and  fcsr == 0  #nosat'
    : 1
    ? 'fs1 == 0 and fe1 == 0x7ff and fm1 == 0x8000000000000 and fs2 == 0 and fe2 ==
      0x7ff and fm2 == 0x8000000000001 and  fcsr == 0  #nosat'
    : 1
    ? 'fs1 == 0 and fe1 == 0x7ff and fm1 == 0x8000000000000 and fs2 == 1 and fe2 ==
      0x7ff and fm2 == 0x8000000000001 and  fcsr == 0  #nosat'
    : 1
    ? 'fs1 == 0 and fe1 == 0x7ff and fm1 == 0x8000000000000 and fs2 == 0 and fe2 ==
      0x7ff and fm2 == 0x0000000000001 and  fcsr == 0  #nosat'
    : 1
    ? 'fs1 == 0 and fe1 == 0x7ff and fm1 == 0x8000000000000 and fs2 == 1 and fe2 ==
      0x7ff and fm2 == 0x0000000000001 and  fcsr == 0  #nosat'
    : 1
    ? 'fs1 == 0 and fe1 == 0x7ff and fm1 == 0x8000000000000 and fs2 == 0 and fe2 ==
      0x3ff and fm2 == 0x0000000000000 and  fcsr == 0  #nosat'
    : 1
    ? 'fs1 == 0 and fe1 == 0x7ff and fm1 == 0x8000000000000 and fs2 == 1 and fe2 ==
      0x3f8 and fm2 == 0x0000000000000 and  fcsr == 0  #nosat'
    : 1
    ? 'fs1 == 1 and fe1 == 0x7ff and fm1 == 0x8000000000000 and fs2 == 0 and fe2 ==
      0x000 and fm2 == 0x0000000000000 and  fcsr == 0  #nosat'
    : 1
    ? 'fs1 == 1 and fe1 == 0x7ff and fm1 == 0x8000000000000 and fs2 == 1 and fe2 ==
      0x000 and fm2 == 0x0000000000000 and  fcsr == 0  #nosat'
    : 1
    ? 'fs1 == 1 and fe1 == 0x7ff and fm1 == 0x8000000000000 and fs2 == 0 and fe2 ==
      0x000 and fm2 == 0x0000000000001 and  fcsr == 0  #nosat'
    : 1
    ? 'fs1 == 1 and fe1 == 0x7ff and fm1 == 0x8000000000000 and fs2 == 1 and fe2 ==
      0x000 and fm2 == 0x0000000000001 and  fcsr == 0  #nosat'
    : 1
    ? 'fs1 == 1 and fe1 == 0x7ff and fm1 == 0x8000000000000 and fs2 == 0 and fe2 ==
      0x000 and fm2 == 0x0000000000002 and  fcsr == 0  #nosat'
    : 1
    ? 'fs1 == 1 and fe1 == 0x7ff and fm1 == 0x8000000000000 and fs2 == 1 and fe2 ==
      0x000 and fm2 == 0x0000000000002 and  fcsr == 0  #nosat'
    : 1
    ? 'fs1 == 1 and fe1 == 0x7ff and fm1 == 0x8000000000000 and fs2 == 0 and fe2 ==
      0x000 and fm2 == 0xfffffffffffff and  fcsr == 0  #nosat'
    : 1
    ? 'fs1 == 1 and fe1 == 0x7ff and fm1 == 0x8000000000000 and fs2 == 1 and fe2 ==
      0x000 and fm2 == 0xfffffffffffff and  fcsr == 0  #nosat'
    : 1
    ? 'fs1 == 1 and fe1 == 0x7ff and fm1 == 0x8000000000000 and fs2 == 0 and fe2 ==
      0x001 and fm2 == 0x0000000000000 and  fcsr == 0  #nosat'
    : 1
    ? 'fs1 == 1 and fe1 == 0x7ff and fm1 == 0x8000000000000 and fs2 == 1 and fe2 ==
      0x001 and fm2 == 0x0000000000000 and  fcsr == 0  #nosat'
    : 1
    ? 'fs1 == 1 and fe1 == 0x7ff and fm1 == 0x8000000000000 and fs2 == 0 and fe2 ==
      0x001 and fm2 == 0x0000000000002 and  fcsr == 0  #nosat'
    : 1
    ? 'fs1 == 1 and fe1 == 0x7ff and fm1 == 0x8000000000000 and fs2 == 1 and fe2 ==
      0x001 and fm2 == 0x0000000000002 and  fcsr == 0  #nosat'
    : 1
    ? 'fs1 == 1 and fe1 == 0x7ff and fm1 == 0x8000000000000 and fs2 == 0 and fe2 ==
      0x7fe and fm2 == 0xfffffffffffff and  fcsr == 0  #nosat'
    : 1
    ? 'fs1 == 1 and fe1 == 0x7ff and fm1 == 0x8000000000000 and fs2 == 1 and fe2 ==
      0x7fe and fm2 == 0xfffffffffffff and  fcsr == 0  #nosat'
    : 1
    ? 'fs1 == 1 and fe1 == 0x7ff and fm1 == 0x8000000000000 and fs2 == 0 and fe2 ==
      0x7ff and fm2 == 0x0000000000000 and  fcsr == 0  #nosat'
    : 1
    ? 'fs1 == 1 and fe1 == 0x7ff and fm1 == 0x8000000000000 and fs2 == 1 and fe2 ==
      0x7ff and fm2 == 0x0000000000000 and  fcsr == 0  #nosat'
    : 1
    ? 'fs1 == 1 and fe1 == 0x7ff and fm1 == 0x8000000000000 and fs2 == 0 and fe2 ==
      0x7ff and fm2 == 0x8000000000000 and  fcsr == 0  #nosat'
    : 1
    ? 'fs1 == 1 and fe1 == 0x7ff and fm1 == 0x8000000000000 and fs2 == 1 and fe2 ==
      0x7ff and fm2 == 0x8000000000000 and  fcsr == 0  #nosat'
    : 1
    ? 'fs1 == 1 and fe1 == 0x7ff and fm1 == 0x8000000000000 and fs2 == 0 and fe2 ==
      0x7ff and fm2 == 0x8000000000001 and  fcsr == 0  #nosat'
    : 1
    ? 'fs1 == 1 and fe1 == 0x7ff and fm1 == 0x8000000000000 and fs2 == 1 and fe2 ==
      0x7ff and fm2 == 0x8000000000001 and  fcsr == 0  #nosat'
    : 1
    ? 'fs1 == 1 and fe1 == 0x7ff and fm1 == 0x8000000000000 and fs2 == 0 and fe2 ==
      0x7ff and fm2 == 0x0000000000001 and  fcsr == 0  #nosat'
    : 1
    ? 'fs1 == 1 and fe1 == 0x7ff and fm1 == 0x8000000000000 and fs2 == 1 and fe2 ==
      0x7ff and fm2 == 0x0000000000001 and  fcsr == 0  #nosat'
    : 1
    ? 'fs1 == 1 and fe1 == 0x7ff and fm1 == 0x8000000000000 and fs2 == 0 and fe2 ==
      0x3ff and fm2 == 0x0000000000000 and  fcsr == 0  #nosat'
    : 1
    ? 'fs1 == 1 and fe1 == 0x7ff and fm1 == 0x8000000000000 and fs2 == 1 and fe2 ==
      0x3f8 and fm2 == 0x0000000000000 and  fcsr == 0  #nosat'
    : 1
    ? 'fs1 == 0 and fe1 == 0x7ff and fm1 == 0x8000000000001 and fs2 == 0 and fe2 ==
      0x000 and fm2 == 0x0000000000000 and  fcsr == 0  #nosat'
    : 1
    ? 'fs1 == 0 and fe1 == 0x7ff and fm1 == 0x8000000000001 and fs2 == 1 and fe2 ==
      0x000 and fm2 == 0x0000000000000 and  fcsr == 0  #nosat'
    : 1
    ? 'fs1 == 0 and fe1 == 0x7ff and fm1 == 0x8000000000001 and fs2 == 0 and fe2 ==
      0x000 and fm2 == 0x0000000000001 and  fcsr == 0  #nosat'
    : 1
    ? 'fs1 == 0 and fe1 == 0x7ff and fm1 == 0x8000000000001 and fs2 == 1 and fe2 ==
      0x000 and fm2 == 0x0000000000001 and  fcsr == 0  #nosat'
    : 1
    ? 'fs1 == 0 and fe1 == 0x7ff and fm1 == 0x8000000000001 and fs2 == 0 and fe2 ==
      0x000 and fm2 == 0x0000000000002 and  fcsr == 0  #nosat'
    : 1
    ? 'fs1 == 0 and fe1 == 0x7ff and fm1 == 0x8000000000001 and fs2 == 1 and fe2 ==
      0x000 and fm2 == 0x0000000000002 and  fcsr == 0  #nosat'
    : 1
    ? 'fs1 == 0 and fe1 == 0x7ff and fm1 == 0x8000000000001 and fs2 == 0 and fe2 ==
      0x000 and fm2 == 0xfffffffffffff and  fcsr == 0  #nosat'
    : 1
    ? 'fs1 == 0 and fe1 == 0x7ff and fm1 == 0x8000000000001 and fs2 == 1 and fe2 ==
      0x000 and fm2 == 0xfffffffffffff and  fcsr == 0  #nosat'
    : 1
    ? 'fs1 == 0 and fe1 == 0x7ff and fm1 == 0x8000000000001 and fs2 == 0 and fe2 ==
      0x001 and fm2 == 0x0000000000000 and  fcsr == 0  #nosat'
    : 1
    ? 'fs1 == 0 and fe1 == 0x7ff and fm1 == 0x8000000000001 and fs2 == 1 and fe2 ==
      0x001 and fm2 == 0x0000000000000 and  fcsr == 0  #nosat'
    : 1
    ? 'fs1 == 0 and fe1 == 0x7ff and fm1 == 0x8000000000001 and fs2 == 0 and fe2 ==
      0x001 and fm2 == 0x0000000000002 and  fcsr == 0  #nosat'
    : 1
    ? 'fs1 == 0 and fe1 == 0x7ff and fm1 == 0x8000000000001 and fs2 == 1 and fe2 ==
      0x001 and fm2 == 0x0000000000002 and  fcsr == 0  #nosat'
    : 1
    ? 'fs1 == 0 and fe1 == 0x7ff and fm1 == 0x8000000000001 and fs2 == 0 and fe2 ==
      0x7fe and fm2 == 0xfffffffffffff and  fcsr == 0  #nosat'
    : 1
    ? 'fs1 == 0 and fe1 == 0x7ff and fm1 == 0x8000000000001 and fs2 == 1 and fe2 ==
      0x7fe and fm2 == 0xfffffffffffff and  fcsr == 0  #nosat'
    : 1
    ? 'fs1 == 0 and fe1 == 0x7ff and fm1 == 0x8000000000001 and fs2 == 0 and fe2 ==
      0x7ff and fm2 == 0x0000000000000 and  fcsr == 0  #nosat'
    : 1
    ? 'fs1 == 0 and fe1 == 0x7ff and fm1 == 0x8000000000001 and fs2 == 1 and fe2 ==
      0x7ff and fm2 == 0x0000000000000 and  fcsr == 0  #nosat'
    : 1
    ? 'fs1 == 0 and fe1 == 0x7ff and fm1 == 0x8000000000001 and fs2 == 0 and fe2 ==
      0x7ff and fm2 == 0x8000000000000 and  fcsr == 0  #nosat'
    : 1
    ? 'fs1 == 0 and fe1 == 0x7ff and fm1 == 0x8000000000001 and fs2 == 1 and fe2 ==
      0x7ff and fm2 == 0x8000000000000 and  fcsr == 0  #nosat'
    : 1
    ? 'fs1 == 0 and fe1 == 0x7ff and fm1 == 0x8000000000001 and fs2 == 0 and fe2 ==
      0x7ff and fm2 == 0x8000000000001 and  fcsr == 0  #nosat'
    : 1
    ? 'fs1 == 0 and fe1 == 0x7ff and fm1 == 0x8000000000001 and fs2 == 1 and fe2 ==
      0x7ff and fm2 == 0x8000000000001 and  fcsr == 0  #nosat'
    : 1
    ? 'fs1 == 0 and fe1 == 0x7ff and fm1 == 0x8000000000001 and fs2 == 0 and fe2 ==
      0x7ff and fm2 == 0x0000000000001 and  fcsr == 0  #nosat'
    : 1
    ? 'fs1 == 0 and fe1 == 0x7ff and fm1 == 0x8000000000001 and fs2 == 1 and fe2 ==
      0x7ff and fm2 == 0x0000000000001 and  fcsr == 0  #nosat'
    : 1
    ? 'fs1 == 0 and fe1 == 0x7ff and fm1 == 0x8000000000001 and fs2 == 0 and fe2 ==
      0x3ff and fm2 == 0x0000000000000 and  fcsr == 0  #nosat'
    : 1
    ? 'fs1 == 0 and fe1 == 0x7ff and fm1 == 0x8000000000001 and fs2 == 1 and fe2 ==
      0x3f8 and fm2 == 0x0000000000000 and  fcsr == 0  #nosat'
    : 1
    ? 'fs1 == 1 and fe1 == 0x7ff and fm1 == 0x8000000000001 and fs2 == 0 and fe2 ==
      0x000 and fm2 == 0x0000000000000 and  fcsr == 0  #nosat'
    : 1
    ? 'fs1 == 1 and fe1 == 0x7ff and fm1 == 0x8000000000001 and fs2 == 1 and fe2 ==
      0x000 and fm2 == 0x0000000000000 and  fcsr == 0  #nosat'
    : 1
    ? 'fs1 == 1 and fe1 == 0x7ff and fm1 == 0x8000000000001 and fs2 == 0 and fe2 ==
      0x000 and fm2 == 0x0000000000001 and  fcsr == 0  #nosat'
    : 1
    ? 'fs1 == 1 and fe1 == 0x7ff and fm1 == 0x8000000000001 and fs2 == 1 and fe2 ==
      0x000 and fm2 == 0x0000000000001 and  fcsr == 0  #nosat'
    : 1
    ? 'fs1 == 1 and fe1 == 0x7ff and fm1 == 0x8000000000001 and fs2 == 0 and fe2 ==
      0x000 and fm2 == 0x0000000000002 and  fcsr == 0  #nosat'
    : 1
    ? 'fs1 == 1 and fe1 == 0x7ff and fm1 == 0x8000000000001 and fs2 == 1 and fe2 ==
      0x000 and fm2 == 0x0000000000002 and  fcsr == 0  #nosat'
    : 1
    ? 'fs1 == 1 and fe1 == 0x7ff and fm1 == 0x8000000000001 and fs2 == 0 and fe2 ==
      0x000 and fm2 == 0xfffffffffffff and  fcsr == 0  #nosat'
    : 1
    ? 'fs1 == 1 and fe1 == 0x7ff and fm1 == 0x8000000000001 and fs2 == 1 and fe2 ==
      0x000 and fm2 == 0xfffffffffffff and  fcsr == 0  #nosat'
    : 1
    ? 'fs1 == 1 and fe1 == 0x7ff and fm1 == 0x8000000000001 and fs2 == 0 and fe2 ==
      0x001 and fm2 == 0x0000000000000 and  fcsr == 0  #nosat'
    : 1
    ? 'fs1 == 1 and fe1 == 0x7ff and fm1 == 0x8000000000001 and fs2 == 1 and fe2 ==
      0x001 and fm2 == 0x0000000000000 and  fcsr == 0  #nosat'
    : 1
    ? 'fs1 == 1 and fe1 == 0x7ff and fm1 == 0x8000000000001 and fs2 == 0 and fe2 ==
      0x001 and fm2 == 0x0000000000002 and  fcsr == 0  #nosat'
    : 1
    ? 'fs1 == 1 and fe1 == 0x7ff and fm1 == 0x8000000000001 and fs2 == 1 and fe2 ==
      0x001 and fm2 == 0x0000000000002 and  fcsr == 0  #nosat'
    : 1
    ? 'fs1 == 1 and fe1 == 0x7ff and fm1 == 0x8000000000001 and fs2 == 0 and fe2 ==
      0x7fe and fm2 == 0xfffffffffffff and  fcsr == 0  #nosat'
    : 1
    ? 'fs1 == 1 and fe1 == 0x7ff and fm1 == 0x8000000000001 and fs2 == 1 and fe2 ==
      0x7fe and fm2 == 0xfffffffffffff and  fcsr == 0  #nosat'
    : 1
    ? 'fs1 == 1 and fe1 == 0x7ff and fm1 == 0x8000000000001 and fs2 == 0 and fe2 ==
      0x7ff and fm2 == 0x0000000000000 and  fcsr == 0  #nosat'
    : 1
    ? 'fs1 == 1 and fe1 == 0x7ff and fm1 == 0x8000000000001 and fs2 == 1 and fe2 ==
      0x7ff and fm2 == 0x0000000000000 and  fcsr == 0  #nosat'
    : 1
    ? 'fs1 == 1 and fe1 == 0x7ff and fm1 == 0x8000000000001 and fs2 == 0 and fe2 ==
      0x7ff and fm2 == 0x8000000000000 and  fcsr == 0  #nosat'
    : 1
    ? 'fs1 == 1 and fe1 == 0x7ff and fm1 == 0x8000000000001 and fs2 == 1 and fe2 ==
      0x7ff and fm2 == 0x8000000000000 and  fcsr == 0  #nosat'
    : 1
    ? 'fs1 == 1 and fe1 == 0x7ff and fm1 == 0x8000000000001 and fs2 == 0 and fe2 ==
      0x7ff and fm2 == 0x8000000000001 and  fcsr == 0  #nosat'
    : 1
    ? 'fs1 == 1 and fe1 == 0x7ff and fm1 == 0x8000000000001 and fs2 == 1 and fe2 ==
      0x7ff and fm2 == 0x8000000000001 and  fcsr == 0  #nosat'
    : 1
    ? 'fs1 == 1 and fe1 == 0x7ff and fm1 == 0x8000000000001 and fs2 == 0 and fe2 ==
      0x7ff and fm2 == 0x0000000000001 and  fcsr == 0  #nosat'
    : 1
    ? 'fs1 == 1 and fe1 == 0x7ff and fm1 == 0x8000000000001 and fs2 == 1 and fe2 ==
      0x7ff and fm2 == 0x0000000000001 and  fcsr == 0  #nosat'
    : 1
    ? 'fs1 == 1 and fe1 == 0x7ff and fm1 == 0x8000000000001 and fs2 == 0 and fe2 ==
      0x3ff and fm2 == 0x0000000000000 and  fcsr == 0  #nosat'
    : 1
    ? 'fs1 == 1 and fe1 == 0x7ff and fm1 == 0x8000000000001 and fs2 == 1 and fe2 ==
      0x3f8 and fm2 == 0x0000000000000 and  fcsr == 0  #nosat'
    : 1
    ? 'fs1 == 0 and fe1 == 0x7ff and fm1 == 0x0000000000001 and fs2 == 0 and fe2 ==
      0x000 and fm2 == 0x0000000000000 and  fcsr == 0  #nosat'
    : 1
    ? 'fs1 == 0 and fe1 == 0x7ff and fm1 == 0x0000000000001 and fs2 == 1 and fe2 ==
      0x000 and fm2 == 0x0000000000000 and  fcsr == 0  #nosat'
    : 1
    ? 'fs1 == 0 and fe1 == 0x7ff and fm1 == 0x0000000000001 and fs2 == 0 and fe2 ==
      0x000 and fm2 == 0x0000000000001 and  fcsr == 0  #nosat'
    : 1
    ? 'fs1 == 0 and fe1 == 0x7ff and fm1 == 0x0000000000001 and fs2 == 1 and fe2 ==
      0x000 and fm2 == 0x0000000000001 and  fcsr == 0  #nosat'
    : 1
    ? 'fs1 == 0 and fe1 == 0x7ff and fm1 == 0x0000000000001 and fs2 == 0 and fe2 ==
      0x000 and fm2 == 0x0000000000002 and  fcsr == 0  #nosat'
    : 1
    ? 'fs1 == 0 and fe1 == 0x7ff and fm1 == 0x0000000000001 and fs2 == 1 and fe2 ==
      0x000 and fm2 == 0x0000000000002 and  fcsr == 0  #nosat'
    : 1
    ? 'fs1 == 0 and fe1 == 0x7ff and fm1 == 0x0000000000001 and fs2 == 0 and fe2 ==
      0x000 and fm2 == 0xfffffffffffff and  fcsr == 0  #nosat'
    : 1
    ? 'fs1 == 0 and fe1 == 0x7ff and fm1 == 0x0000000000001 and fs2 == 1 and fe2 ==
      0x000 and fm2 == 0xfffffffffffff and  fcsr == 0  #nosat'
    : 1
    ? 'fs1 == 0 and fe1 == 0x7ff and fm1 == 0x0000000000001 and fs2 == 0 and fe2 ==
      0x001 and fm2 == 0x0000000000000 and  fcsr == 0  #nosat'
    : 1
    ? 'fs1 == 0 and fe1 == 0x7ff and fm1 == 0x0000000000001 and fs2 == 1 and fe2 ==
      0x001 and fm2 == 0x0000000000000 and  fcsr == 0  #nosat'
    : 1
    ? 'fs1 == 0 and fe1 == 0x7ff and fm1 == 0x0000000000001 and fs2 == 0 and fe2 ==
      0x001 and fm2 == 0x0000000000002 and  fcsr == 0  #nosat'
    : 1
    ? 'fs1 == 0 and fe1 == 0x7ff and fm1 == 0x0000000000001 and fs2 == 1 and fe2 ==
      0x001 and fm2 == 0x0000000000002 and  fcsr == 0  #nosat'
    : 1
    ? 'fs1 == 0 and fe1 == 0x7ff and fm1 == 0x0000000000001 and fs2 == 0 and fe2 ==
      0x7fe and fm2 == 0xfffffffffffff and  fcsr == 0  #nosat'
    : 1
    ? 'fs1 == 0 and fe1 == 0x7ff and fm1 == 0x0000000000001 and fs2 == 1 and fe2 ==
      0x7fe and fm2 == 0xfffffffffffff and  fcsr == 0  #nosat'
    : 1
    ? 'fs1 == 0 and fe1 == 0x7ff and fm1 == 0x0000000000001 and fs2 == 0 and fe2 ==
      0x7ff and fm2 == 0x0000000000000 and  fcsr == 0  #nosat'
    : 1
    ? 'fs1 == 0 and fe1 == 0x7ff and fm1 == 0x0000000000001 and fs2 == 1 and fe2 ==
      0x7ff and fm2 == 0x0000000000000 and  fcsr == 0  #nosat'
    : 1
    ? 'fs1 == 0 and fe1 == 0x7ff and fm1 == 0x0000000000001 and fs2 == 0 and fe2 ==
      0x7ff and fm2 == 0x8000000000000 and  fcsr == 0  #nosat'
    : 1
    ? 'fs1 == 0 and fe1 == 0x7ff and fm1 == 0x0000000000001 and fs2 == 1 and fe2 ==
      0x7ff and fm2 == 0x8000000000000 and  fcsr == 0  #nosat'
    : 1
    ? 'fs1 == 0 and fe1 == 0x7ff and fm1 == 0x0000000000001 and fs2 == 0 and fe2 ==
      0x7ff and fm2 == 0x8000000000001 and  fcsr == 0  #nosat'
    : 1
    ? 'fs1 == 0 and fe1 == 0x7ff and fm1 == 0x0000000000001 and fs2 == 1 and fe2 ==
      0x7ff and fm2 == 0x8000000000001 and  fcsr == 0  #nosat'
    : 1
    ? 'fs1 == 0 and fe1 == 0x7ff and fm1 == 0x0000000000001 and fs2 == 0 and fe2 ==
      0x7ff and fm2 == 0x0000000000001 and  fcsr == 0  #nosat'
    : 1
    ? 'fs1 == 0 and fe1 == 0x7ff and fm1 == 0x0000000000001 and fs2 == 1 and fe2 ==
      0x7ff and fm2 == 0x0000000000001 and  fcsr == 0  #nosat'
    : 1
    ? 'fs1 == 0 and fe1 == 0x7ff and fm1 == 0x0000000000001 and fs2 == 0 and fe2 ==
      0x3ff and fm2 == 0x0000000000000 and  fcsr == 0  #nosat'
    : 1
    ? 'fs1 == 0 and fe1 == 0x7ff and fm1 == 0x0000000000001 and fs2 == 1 and fe2 ==
      0x3f8 and fm2 == 0x0000000000000 and  fcsr == 0  #nosat'
    : 1
    ? 'fs1 == 1 and fe1 == 0x7ff and fm1 == 0x0000000000001 and fs2 == 0 and fe2 ==
      0x000 and fm2 == 0x0000000000000 and  fcsr == 0  #nosat'
    : 1
    ? 'fs1 == 1 and fe1 == 0x7ff and fm1 == 0x0000000000001 and fs2 == 1 and fe2 ==
      0x000 and fm2 == 0x0000000000000 and  fcsr == 0  #nosat'
    : 1
    ? 'fs1 == 1 and fe1 == 0x7ff and fm1 == 0x0000000000001 and fs2 == 0 and fe2 ==
      0x000 and fm2 == 0x0000000000001 and  fcsr == 0  #nosat'
    : 1
    ? 'fs1 == 1 and fe1 == 0x7ff and fm1 == 0x0000000000001 and fs2 == 1 and fe2 ==
      0x000 and fm2 == 0x0000000000001 and  fcsr == 0  #nosat'
    : 1
    ? 'fs1 == 1 and fe1 == 0x7ff and fm1 == 0x0000000000001 and fs2 == 0 and fe2 ==
      0x000 and fm2 == 0x0000000000002 and  fcsr == 0  #nosat'
    : 1
    ? 'fs1 == 1 and fe1 == 0x7ff and fm1 == 0x0000000000001 and fs2 == 1 and fe2 ==
      0x000 and fm2 == 0x0000000000002 and  fcsr == 0  #nosat'
    : 1
    ? 'fs1 == 1 and fe1 == 0x7ff and fm1 == 0x0000000000001 and fs2 == 0 and fe2 ==
      0x000 and fm2 == 0xfffffffffffff and  fcsr == 0  #nosat'
    : 1
    ? 'fs1 == 1 and fe1 == 0x7ff and fm1 == 0x0000000000001 and fs2 == 1 and fe2 ==
      0x000 and fm2 == 0xfffffffffffff and  fcsr == 0  #nosat'
    : 1
    ? 'fs1 == 1 and fe1 == 0x7ff and fm1 == 0x0000000000001 and fs2 == 0 and fe2 ==
      0x001 and fm2 == 0x0000000000000 and  fcsr == 0  #nosat'
    : 1
    ? 'fs1 == 1 and fe1 == 0x7ff and fm1 == 0x0000000000001 and fs2 == 1 and fe2 ==
      0x001 and fm2 == 0x0000000000000 and  fcsr == 0  #nosat'
    : 1
    ? 'fs1 == 1 and fe1 == 0x7ff and fm1 == 0x0000000000001 and fs2 == 0 and fe2 ==
      0x001 and fm2 == 0x0000000000002 and  fcsr == 0  #nosat'
    : 1
    ? 'fs1 == 1 and fe1 == 0x7ff and fm1 == 0x0000000000001 and fs2 == 1 and fe2 ==
      0x001 and fm2 == 0x0000000000002 and  fcsr == 0  #nosat'
    : 1
    ? 'fs1 == 1 and fe1 == 0x7ff and fm1 == 0x0000000000001 and fs2 == 0 and fe2 ==
      0x7fe and fm2 == 0xfffffffffffff and  fcsr == 0  #nosat'
    : 1
    ? 'fs1 == 1 and fe1 == 0x7ff and fm1 == 0x0000000000001 and fs2 == 1 and fe2 ==
      0x7fe and fm2 == 0xfffffffffffff and  fcsr == 0  #nosat'
    : 1
    ? 'fs1 == 1 and fe1 == 0x7ff and fm1 == 0x0000000000001 and fs2 == 0 and fe2 ==
      0x7ff and fm2 == 0x0000000000000 and  fcsr == 0  #nosat'
    : 1
    ? 'fs1 == 1 and fe1 == 0x7ff and fm1 == 0x0000000000001 and fs2 == 1 and fe2 ==
      0x7ff and fm2 == 0x0000000000000 and  fcsr == 0  #nosat'
    : 1
    ? 'fs1 == 1 and fe1 == 0x7ff and fm1 == 0x0000000000001 and fs2 == 0 and fe2 ==
      0x7ff and fm2 == 0x8000000000000 and  fcsr == 0  #nosat'
    : 1
    ? 'fs1 == 1 and fe1 == 0x7ff and fm1 == 0x0000000000001 and fs2 == 1 and fe2 ==
      0x7ff and fm2 == 0x8000000000000 and  fcsr == 0  #nosat'
    : 1
    ? 'fs1 == 1 and fe1 == 0x7ff and fm1 == 0x0000000000001 and fs2 == 0 and fe2 ==
      0x7ff and fm2 == 0x8000000000001 and  fcsr == 0  #nosat'
    : 1
    ? 'fs1 == 1 and fe1 == 0x7ff and fm1 == 0x0000000000001 and fs2 == 1 and fe2 ==
      0x7ff and fm2 == 0x8000000000001 and  fcsr == 0  #nosat'
    : 1
    ? 'fs1 == 1 and fe1 == 0x7ff and fm1 == 0x0000000000001 and fs2 == 0 and fe2 ==
      0x7ff and fm2 == 0x0000000000001 and  fcsr == 0  #nosat'
    : 1
    ? 'fs1 == 1 and fe1 == 0x7ff and fm1 == 0x0000000000001 and fs2 == 1 and fe2 ==
      0x7ff and fm2 == 0x0000000000001 and  fcsr == 0  #nosat'
    : 1
    ? 'fs1 == 1 and fe1 == 0x7ff and fm1 == 0x0000000000001 and fs2 == 0 and fe2 ==
      0x3ff and fm2 == 0x0000000000000 and  fcsr == 0  #nosat'
    : 1
    ? 'fs1 == 1 and fe1 == 0x7ff and fm1 == 0x0000000000001 and fs2 == 1 and fe2 ==
      0x3f8 and fm2 == 0x0000000000000 and  fcsr == 0  #nosat'
    : 1
    ? 'fs1 == 0 and fe1 == 0x3ff and fm1 == 0x0000000000000 and fs2 == 0 and fe2 ==
      0x000 and fm2 == 0x0000000000000 and  fcsr == 0  #nosat'
    : 1
    ? 'fs1 == 0 and fe1 == 0x3ff and fm1 == 0x0000000000000 and fs2 == 1 and fe2 ==
      0x000 and fm2 == 0x0000000000000 and  fcsr == 0  #nosat'
    : 1
    ? 'fs1 == 0 and fe1 == 0x3ff and fm1 == 0x0000000000000 and fs2 == 0 and fe2 ==
      0x000 and fm2 == 0x0000000000001 and  fcsr == 0  #nosat'
    : 1
    ? 'fs1 == 0 and fe1 == 0x3ff and fm1 == 0x0000000000000 and fs2 == 1 and fe2 ==
      0x000 and fm2 == 0x0000000000001 and  fcsr == 0  #nosat'
    : 1
    ? 'fs1 == 0 and fe1 == 0x3ff and fm1 == 0x0000000000000 and fs2 == 0 and fe2 ==
      0x000 and fm2 == 0x0000000000002 and  fcsr == 0  #nosat'
    : 1
    ? 'fs1 == 0 and fe1 == 0x3ff and fm1 == 0x0000000000000 and fs2 == 1 and fe2 ==
      0x000 and fm2 == 0x0000000000002 and  fcsr == 0  #nosat'
    : 1
    ? 'fs1 == 0 and fe1 == 0x3ff and fm1 == 0x0000000000000 and fs2 == 0 and fe2 ==
      0x000 and fm2 == 0xfffffffffffff and  fcsr == 0  #nosat'
    : 1
    ? 'fs1 == 0 and fe1 == 0x3ff and fm1 == 0x0000000000000 and fs2 == 1 and fe2 ==
      0x000 and fm2 == 0xfffffffffffff and  fcsr == 0  #nosat'
    : 1
    ? 'fs1 == 0 and fe1 == 0x3ff and fm1 == 0x0000000000000 and fs2 == 0 and fe2 ==
      0x001 and fm2 == 0x0000000000000 and  fcsr == 0  #nosat'
    : 1
    ? 'fs1 == 0 and fe1 == 0x3ff and fm1 == 0x0000000000000 and fs2 == 1 and fe2 ==
      0x001 and fm2 == 0x0000000000000 and  fcsr == 0  #nosat'
    : 1
    ? 'fs1 == 0 and fe1 == 0x3ff and fm1 == 0x0000000000000 and fs2 == 0 and fe2 ==
      0x001 and fm2 == 0x0000000000002 and  fcsr == 0  #nosat'
    : 1
    ? 'fs1 == 0 and fe1 == 0x3ff and fm1 == 0x0000000000000 and fs2 == 1 and fe2 ==
      0x001 and fm2 == 0x0000000000002 and  fcsr == 0  #nosat'
    : 1
    ? 'fs1 == 0 and fe1 == 0x3ff and fm1 == 0x0000000000000 and fs2 == 0 and fe2 ==
      0x7fe and fm2 == 0xfffffffffffff and  fcsr == 0  #nosat'
    : 1
    ? 'fs1 == 0 and fe1 == 0x3ff and fm1 == 0x0000000000000 and fs2 == 1 and fe2 ==
      0x7fe and fm2 == 0xfffffffffffff and  fcsr == 0  #nosat'
    : 1
    ? 'fs1 == 0 and fe1 == 0x3ff and fm1 == 0x0000000000000 and fs2 == 0 and fe2 ==
      0x7ff and fm2 == 0x0000000000000 and  fcsr == 0  #nosat'
    : 1
    ? 'fs1 == 0 and fe1 == 0x3ff and fm1 == 0x0000000000000 and fs2 == 1 and fe2 ==
      0x7ff and fm2 == 0x0000000000000 and  fcsr == 0  #nosat'
    : 1
    ? 'fs1 == 0 and fe1 == 0x3ff and fm1 == 0x0000000000000 and fs2 == 0 and fe2 ==
      0x7ff and fm2 == 0x8000000000000 and  fcsr == 0  #nosat'
    : 1
    ? 'fs1 == 0 and fe1 == 0x3ff and fm1 == 0x0000000000000 and fs2 == 1 and fe2 ==
      0x7ff and fm2 == 0x8000000000000 and  fcsr == 0  #nosat'
    : 1
    ? 'fs1 == 0 and fe1 == 0x3ff and fm1 == 0x0000000000000 and fs2 == 0 and fe2 ==
      0x7ff and fm2 == 0x8000000000001 and  fcsr == 0  #nosat'
    : 1
    ? 'fs1 == 0 and fe1 == 0x3ff and fm1 == 0x0000000000000 and fs2 == 1 and fe2 ==
      0x7ff and fm2 == 0x8000000000001 and  fcsr == 0  #nosat'
    : 1
    ? 'fs1 == 0 and fe1 == 0x3ff and fm1 == 0x0000000000000 and fs2 == 0 and fe2 ==
      0x7ff and fm2 == 0x0000000000001 and  fcsr == 0  #nosat'
    : 1
    ? 'fs1 == 0 and fe1 == 0x3ff and fm1 == 0x0000000000000 and fs2 == 1 and fe2 ==
      0x7ff and fm2 == 0x0000000000001 and  fcsr == 0  #nosat'
    : 1
    ? 'fs1 == 0 and fe1 == 0x3ff and fm1 == 0x0000000000000 and fs2 == 0 and fe2 ==
      0x3ff and fm2 == 0x0000000000000 and  fcsr == 0  #nosat'
    : 1
    ? 'fs1 == 0 and fe1 == 0x3ff and fm1 == 0x0000000000000 and fs2 == 1 and fe2 ==
      0x3f8 and fm2 == 0x0000000000000 and  fcsr == 0  #nosat'
    : 1
    ? 'fs1 == 1 and fe1 == 0x3f8 and fm1 == 0x0000000000000 and fs2 == 0 and fe2 ==
      0x000 and fm2 == 0x0000000000000 and  fcsr == 0  #nosat'
    : 1
    ? 'fs1 == 1 and fe1 == 0x3f8 and fm1 == 0x0000000000000 and fs2 == 1 and fe2 ==
      0x000 and fm2 == 0x0000000000000 and  fcsr == 0  #nosat'
    : 1
    ? 'fs1 == 1 and fe1 == 0x3f8 and fm1 == 0x0000000000000 and fs2 == 0 and fe2 ==
      0x000 and fm2 == 0x0000000000001 and  fcsr == 0  #nosat'
    : 1
    ? 'fs1 == 1 and fe1 == 0x3f8 and fm1 == 0x0000000000000 and fs2 == 1 and fe2 ==
      0x000 and fm2 == 0x0000000000001 and  fcsr == 0  #nosat'
    : 1
    ? 'fs1 == 1 and fe1 == 0x3f8 and fm1 == 0x0000000000000 and fs2 == 0 and fe2 ==
      0x000 and fm2 == 0x0000000000002 and  fcsr == 0  #nosat'
    : 1
    ? 'fs1 == 1 and fe1 == 0x3f8 and fm1 == 0x0000000000000 and fs2 == 1 and fe2 ==
      0x000 and fm2 == 0x0000000000002 and  fcsr == 0  #nosat'
    : 1
    ? 'fs1 == 1 and fe1 == 0x3f8 and fm1 == 0x0000000000000 and fs2 == 0 and fe2 ==
      0x000 and fm2 == 0xfffffffffffff and  fcsr == 0  #nosat'
    : 1
    ? 'fs1 == 1 and fe1 == 0x3f8 and fm1 == 0x0000000000000 and fs2 == 1 and fe2 ==
      0x000 and fm2 == 0xfffffffffffff and  fcsr == 0  #nosat'
    : 1
    ? 'fs1 == 1 and fe1 == 0x3f8 and fm1 == 0x0000000000000 and fs2 == 0 and fe2 ==
      0x001 and fm2 == 0x0000000000000 and  fcsr == 0  #nosat'
    : 1
    ? 'fs1 == 1 and fe1 == 0x3f8 and fm1 == 0x0000000000000 and fs2 == 1 and fe2 ==
      0x001 and fm2 == 0x0000000000000 and  fcsr == 0  #nosat'
    : 1
    ? 'fs1 == 1 and fe1 == 0x3f8 and fm1 == 0x0000000000000 and fs2 == 0 and fe2 ==
      0x001 and fm2 == 0x0000000000002 and  fcsr == 0  #nosat'
    : 1
    ? 'fs1 == 1 and fe1 == 0x3f8 and fm1 == 0x0000000000000 and fs2 == 1 and fe2 ==
      0x001 and fm2 == 0x0000000000002 and  fcsr == 0  #nosat'
    : 1
    ? 'fs1 == 1 and fe1 == 0x3f8 and fm1 == 0x0000000000000 and fs2 == 0 and fe2 ==
      0x7fe and fm2 == 0xfffffffffffff and  fcsr == 0  #nosat'
    : 1
    ? 'fs1 == 1 and fe1 == 0x3f8 and fm1 == 0x0000000000000 and fs2 == 1 and fe2 ==
      0x7fe and fm2 == 0xfffffffffffff and  fcsr == 0  #nosat'
    : 1
    ? 'fs1 == 1 and fe1 == 0x3f8 and fm1 == 0x0000000000000 and fs2 == 0 and fe2 ==
      0x7ff and fm2 == 0x0000000000000 and  fcsr == 0  #nosat'
    : 1
    ? 'fs1 == 1 and fe1 == 0x3f8 and fm1 == 0x0000000000000 and fs2 == 1 and fe2 ==
      0x7ff and fm2 == 0x0000000000000 and  fcsr == 0  #nosat'
    : 1
    ? 'fs1 == 1 and fe1 == 0x3f8 and fm1 == 0x0000000000000 and fs2 == 0 and fe2 ==
      0x7ff and fm2 == 0x8000000000000 and  fcsr == 0  #nosat'
    : 1
    ? 'fs1 == 1 and fe1 == 0x3f8 and fm1 == 0x0000000000000 and fs2 == 1 and fe2 ==
      0x7ff and fm2 == 0x8000000000000 and  fcsr == 0  #nosat'
    : 1
    ? 'fs1 == 1 and fe1 == 0x3f8 and fm1 == 0x0000000000000 and fs2 == 0 and fe2 ==
      0x7ff and fm2 == 0x8000000000001 and  fcsr == 0  #nosat'
    : 1
    ? 'fs1 == 1 and fe1 == 0x3f8 and fm1 == 0x0000000000000 and fs2 == 1 and fe2 ==
      0x7ff and fm2 == 0x8000000000001 and  fcsr == 0  #nosat'
    : 1
    ? 'fs1 == 1 and fe1 == 0x3f8 and fm1 == 0x0000000000000 and fs2 == 0 and fe2 ==
      0x7ff and fm2 == 0x0000000000001 and  fcsr == 0  #nosat'
    : 1
    ? 'fs1 == 1 and fe1 == 0x3f8 and fm1 == 0x0000000000000 and fs2 == 1 and fe2 ==
      0x7ff and fm2 == 0x0000000000001 and  fcsr == 0  #nosat'
    : 1
    ? 'fs1 == 1 and fe1 == 0x3f8 and fm1 == 0x0000000000000 and fs2 == 0 and fe2 ==
      0x3ff and fm2 == 0x0000000000000 and  fcsr == 0  #nosat'
    : 1
    ? 'fs1 == 1 and fe1 == 0x3f8 and fm1 == 0x0000000000000 and fs2 == 1 and fe2 ==
      0x3f8 and fm2 == 0x0000000000000 and  fcsr == 0  #nosat'
    : 1
    coverage: 576/576
  total_coverage: 627/627
