---
fnmadd_b4:
  config:
  - check ISA:=regex(.*I.*F.*)
  op_comb:
    rd == rs2 == rs3 != rs1: 1
    rs1 != rs2 and rs1 != rd and rs1 != rs3 and rs2 != rs3 and rs2 != rd and rs3 != rd: 138
    rs1 == rd != rs2 and rs1 == rd != rs3 and rs3 != rs2: 1
    rs1 == rd == rs3 != rs2: 1
    rs1 == rs2 != rs3 and rs1 == rs2 != rd and rd != rs3: 1
    rs1 == rs2 == rd != rs3: 1
    rs1 == rs2 == rs3 != rd: 1
    rs1 == rs2 == rs3 == rd: 1
    rs1 == rs3 != rs2 and rs1 == rs3 != rd and rd != rs2: 1
    rs2 == rd != rs1 and rs2 == rd != rs3 and rs3 != rs1: 1
    rs2 == rs3 != rs1 and rs2 == rs3 != rd and rd != rs1: 1
    rs3 == rd != rs1 and rs3 == rd != rs2 and rs2 != rs1: 1
    coverage: 12/12
  opcode:
    fnmadd.d: 149
    coverage: 1/1
  rd:
    f0: 1
    f1: 1
    f10: 1
    f11: 1
    f12: 1
    f13: 1
    f14: 1
    f15: 1
    f16: 1
    f17: 1
    f18: 1
    f19: 1
    f2: 1
    f20: 1
    f21: 1
    f22: 1
    f23: 1
    f24: 1
    f25: 1
    f26: 1
    f27: 1
    f28: 1
    f29: 1
    f3: 1
    f30: 1
    f31: 118
    f4: 1
    f5: 1
    f6: 1
    f7: 1
    f8: 1
    f9: 1
    coverage: 32/32
  rs1:
    f0: 1
    f1: 1
    f10: 1
    f11: 1
    f12: 1
    f13: 1
    f14: 1
    f15: 1
    f16: 1
    f17: 1
    f18: 1
    f19: 1
    f2: 1
    f20: 1
    f21: 1
    f22: 1
    f23: 1
    f24: 1
    f25: 1
    f26: 1
    f27: 1
    f28: 1
    f29: 1
    f3: 1
    f30: 118
    f31: 1
    f4: 1
    f5: 1
    f6: 1
    f7: 1
    f8: 1
    f9: 1
    coverage: 32/32
  rs2:
    f0: 1
    f1: 1
    f10: 1
    f11: 1
    f12: 1
    f13: 1
    f14: 1
    f15: 1
    f16: 1
    f17: 1
    f18: 1
    f19: 1
    f2: 1
    f20: 1
    f21: 1
    f22: 1
    f23: 1
    f24: 1
    f25: 1
    f26: 1
    f27: 1
    f28: 1
    f29: 118
    f3: 1
    f30: 1
    f31: 1
    f4: 1
    f5: 1
    f6: 1
    f7: 1
    f8: 1
    f9: 1
    coverage: 32/32
  rs3:
    f0: 1
    f1: 1
    f10: 1
    f11: 1
    f12: 1
    f13: 1
    f14: 1
    f15: 1
    f16: 1
    f17: 1
    f18: 1
    f19: 1
    f2: 1
    f20: 1
    f21: 1
    f22: 1
    f23: 1
    f24: 1
    f25: 1
    f26: 1
    f27: 1
    f28: 118
    f29: 1
    f3: 1
    f30: 1
    f31: 1
    f4: 1
    f5: 1
    f6: 1
    f7: 1
    f8: 1
    f9: 1
    coverage: 32/32
  val_comb:
    ? 'fs1 == 0 and fe1 == 0x7fe and fm1 == 0x139cbde283143 and fs2 == 1 and fe2 ==
      0x3fe and fm2 == 0x2e6942188ddd7 and fs3 == 0 and fe3 == 0x7fe and fm3 == 0x5d35e2c6078a3
      and rm_val == 0  #nosat'
    : 1  #  rs1_val==dnorm(0x7fe139cbde283143) and rs2_val==dnorm(0xbfe2e6942188ddd7) and rs3_val==dnorm(0x7fe5d35e2c6078a3) | Guard = 0 Round = 0 Sticky = 1 --> Maxnorm + 1 ulp
    ? 'fs1 == 0 and fe1 == 0x7fd and fm1 == 0x8276674380fc3 and fs2 == 0 and fe2 ==
      0x402 and fm2 == 0x80081570b13b6 and fs3 == 0 and fe3 == 0x7fd and fm3 == 0x8e816c2502d73
      and rm_val == 4  #nosat'
    : 2 #  rs1_val==dnorm(0x7fd8276674380fc3) and rs2_val==dnorm(0x40280081570b13b6) and rs3_val==dnorm(0x7fd8e816c2502d73) | Exponent = 1026 Number = -ve
    ? 'fs1 == 0 and fe1 == 0x7fd and fm1 == 0x8276674380fc3 and fs2 == 0 and fe2 ==
      0x402 and fm2 == 0x80081570b13b6 and fs3 == 0 and fe3 == 0x7fd and fm3 == 0x8e816c2502d73
      and rm_val == 3  #nosat'
    : 1 #  rs1_val==dnorm(0x7fd8276674380fc3) and rs2_val==dnorm(0x40280081570b13b6) and rs3_val==dnorm(0x7fd8e816c2502d73) | Exponent = 1026 Number = -ve
    ? 'fs1 == 0 and fe1 == 0x7fd and fm1 == 0x8276674380fc3 and fs2 == 0 and fe2 ==
      0x402 and fm2 == 0x80081570b13b6 and fs3 == 0 and fe3 == 0x7fd and fm3 == 0x8e816c2502d73
      and rm_val == 2  #nosat'
    : 1 #  rs1_val==dnorm(0x7fd8276674380fc3) and rs2_val==dnorm(0x40280081570b13b6) and rs3_val==dnorm(0x7fd8e816c2502d73) | Exponent = 1026 Number = -ve
    ? 'fs1 == 0 and fe1 == 0x7fd and fm1 == 0x8276674380fc3 and fs2 == 0 and fe2 ==
      0x402 and fm2 == 0x80081570b13b6 and fs3 == 0 and fe3 == 0x7fd and fm3 == 0x8e816c2502d73
      and rm_val == 1  #nosat'
    : 1 #  rs1_val==dnorm(0x7fd8276674380fc3) and rs2_val==dnorm(0x40280081570b13b6) and rs3_val==dnorm(0x7fd8e816c2502d73) | Exponent = 1026 Number = -ve
    ? 'fs1 == 0 and fe1 == 0x7fd and fm1 == 0x8276674380fc3 and fs2 == 0 and fe2 ==
      0x402 and fm2 == 0x80081570b13b6 and fs3 == 0 and fe3 == 0x7fd and fm3 == 0x8e816c2502d73
      and rm_val == 0  #nosat'
    : 1 #  rs1_val==dnorm(0x7fd8276674380fc3) and rs2_val==dnorm(0x40280081570b13b6) and rs3_val==dnorm(0x7fd8e816c2502d73) | Exponent = 1026 Number = -ve
    ? 'fs1 == 0 and fe1 == 0x7fe and fm1 == 0x3d93686797715 and fs2 == 1 and fe2 ==
      0x3fe and fm2 == 0x5dbeac1d0025d and fs3 == 0 and fe3 == 0x7fd and fm3 == 0x3978b52ff3f23
      and rm_val == 4  #nosat'
    : 1 #  rs1_val==dnorm(0x7fe3d93686797715) and rs2_val==dnorm(0xbfe5dbeac1d0025d) and rs3_val==dnorm(0x7fd3978b52ff3f23) | Exponent = 1026 Number = +ve
    ? 'fs1 == 0 and fe1 == 0x7fe and fm1 == 0x3d93686797715 and fs2 == 1 and fe2 ==
      0x3fe and fm2 == 0x5dbeac1d0025d and fs3 == 0 and fe3 == 0x7fd and fm3 == 0x3978b52ff3f23
      and rm_val == 3  #nosat'
    : 1 #  rs1_val==dnorm(0x7fe3d93686797715) and rs2_val==dnorm(0xbfe5dbeac1d0025d) and rs3_val==dnorm(0x7fd3978b52ff3f23) | Exponent = 1026 Number = +ve
    ? 'fs1 == 0 and fe1 == 0x7fe and fm1 == 0x3d93686797715 and fs2 == 1 and fe2 ==
      0x3fe and fm2 == 0x5dbeac1d0025d and fs3 == 0 and fe3 == 0x7fd and fm3 == 0x3978b52ff3f23
      and rm_val == 2  #nosat'
    : 1 #  rs1_val==dnorm(0x7fe3d93686797715) and rs2_val==dnorm(0xbfe5dbeac1d0025d) and rs3_val==dnorm(0x7fd3978b52ff3f23) | Exponent = 1026 Number = +ve
    ? 'fs1 == 0 and fe1 == 0x7fe and fm1 == 0x3d93686797715 and fs2 == 1 and fe2 ==
      0x3fe and fm2 == 0x5dbeac1d0025d and fs3 == 0 and fe3 == 0x7fd and fm3 == 0x3978b52ff3f23
      and rm_val == 1  #nosat'
    : 1 #  rs1_val==dnorm(0x7fe3d93686797715) and rs2_val==dnorm(0xbfe5dbeac1d0025d) and rs3_val==dnorm(0x7fd3978b52ff3f23) | Exponent = 1026 Number = +ve
    ? 'fs1 == 0 and fe1 == 0x7fe and fm1 == 0x3d93686797715 and fs2 == 1 and fe2 ==
      0x3fe and fm2 == 0x5dbeac1d0025d and fs3 == 0 and fe3 == 0x7fd and fm3 == 0x3978b52ff3f23
      and rm_val == 0  #nosat'
    : 1 #  rs1_val==dnorm(0x7fe3d93686797715) and rs2_val==dnorm(0xbfe5dbeac1d0025d) and rs3_val==dnorm(0x7fd3978b52ff3f23) | Exponent = 1026 Number = +ve
    ? 'fs1 == 0 and fe1 == 0x7fd and fm1 == 0x54e6e64764369 and fs2 == 0 and fe2 ==
      0x401 and fm2 == 0x4808cf6dfa705 and fs3 == 0 and fe3 == 0x7fe and fm3 == 0xcf127a6af77f2
      and rm_val == 4  #nosat'
    : 1 #  rs1_val==dnorm(0x7fd54e6e64764369) and rs2_val==dnorm(0x4014808cf6dfa705) and rs3_val==dnorm(0x7fecf127a6af77f2) | Exponent = 1025 Number = -ve
    ? 'fs1 == 0 and fe1 == 0x7fd and fm1 == 0x54e6e64764369 and fs2 == 0 and fe2 ==
      0x401 and fm2 == 0x4808cf6dfa705 and fs3 == 0 and fe3 == 0x7fe and fm3 == 0xcf127a6af77f2
      and rm_val == 3  #nosat'
    : 1 #  rs1_val==dnorm(0x7fd54e6e64764369) and rs2_val==dnorm(0x4014808cf6dfa705) and rs3_val==dnorm(0x7fecf127a6af77f2) | Exponent = 1025 Number = -ve
    ? 'fs1 == 0 and fe1 == 0x7fd and fm1 == 0x54e6e64764369 and fs2 == 0 and fe2 ==
      0x401 and fm2 == 0x4808cf6dfa705 and fs3 == 0 and fe3 == 0x7fe and fm3 == 0xcf127a6af77f2
      and rm_val == 2  #nosat'
    : 1 #  rs1_val==dnorm(0x7fd54e6e64764369) and rs2_val==dnorm(0x4014808cf6dfa705) and rs3_val==dnorm(0x7fecf127a6af77f2) | Exponent = 1025 Number = -ve
    ? 'fs1 == 0 and fe1 == 0x7fd and fm1 == 0x54e6e64764369 and fs2 == 0 and fe2 ==
      0x401 and fm2 == 0x4808cf6dfa705 and fs3 == 0 and fe3 == 0x7fe and fm3 == 0xcf127a6af77f2
      and rm_val == 1  #nosat'
    : 1 #  rs1_val==dnorm(0x7fd54e6e64764369) and rs2_val==dnorm(0x4014808cf6dfa705) and rs3_val==dnorm(0x7fecf127a6af77f2) | Exponent = 1025 Number = -ve
    ? 'fs1 == 0 and fe1 == 0x7fd and fm1 == 0x54e6e64764369 and fs2 == 0 and fe2 ==
      0x401 and fm2 == 0x4808cf6dfa705 and fs3 == 0 and fe3 == 0x7fe and fm3 == 0xcf127a6af77f2
      and rm_val == 0  #nosat'
    : 1 #  rs1_val==dnorm(0x7fd54e6e64764369) and rs2_val==dnorm(0x4014808cf6dfa705) and rs3_val==dnorm(0x7fecf127a6af77f2) | Exponent = 1025 Number = -ve
    ? 'fs1 == 0 and fe1 == 0x7fe and fm1 == 0x8e5d8dcad33c4 and fs2 == 1 and fe2 ==
      0x400 and fm2 == 0xbdd0bee328bc8 and fs3 == 0 and fe3 == 0x7f9 and fm3 == 0x177d952f13e9f
      and rm_val == 4  #nosat'
    : 1 #  rs1_val==dnorm(0x7fe8e5d8dcad33c4) and rs2_val==dnorm(0xc00bdd0bee328bc8) and rs3_val==dnorm(0x7f9177d952f13e9f) | Exponent = 1025 Number = +ve
    ? 'fs1 == 0 and fe1 == 0x7fe and fm1 == 0x8e5d8dcad33c4 and fs2 == 1 and fe2 ==
      0x400 and fm2 == 0xbdd0bee328bc8 and fs3 == 0 and fe3 == 0x7f9 and fm3 == 0x177d952f13e9f
      and rm_val == 3  #nosat'
    : 1 #  rs1_val==dnorm(0x7fe8e5d8dcad33c4) and rs2_val==dnorm(0xc00bdd0bee328bc8) and rs3_val==dnorm(0x7f9177d952f13e9f) | Exponent = 1025 Number = +ve
    ? 'fs1 == 0 and fe1 == 0x7fe and fm1 == 0x8e5d8dcad33c4 and fs2 == 1 and fe2 ==
      0x400 and fm2 == 0xbdd0bee328bc8 and fs3 == 0 and fe3 == 0x7f9 and fm3 == 0x177d952f13e9f
      and rm_val == 2  #nosat'
    : 1 #  rs1_val==dnorm(0x7fe8e5d8dcad33c4) and rs2_val==dnorm(0xc00bdd0bee328bc8) and rs3_val==dnorm(0x7f9177d952f13e9f) | Exponent = 1025 Number = +ve
    ? 'fs1 == 0 and fe1 == 0x7fe and fm1 == 0x8e5d8dcad33c4 and fs2 == 1 and fe2 ==
      0x400 and fm2 == 0xbdd0bee328bc8 and fs3 == 0 and fe3 == 0x7f9 and fm3 == 0x177d952f13e9f
      and rm_val == 1  #nosat'
    : 1 #  rs1_val==dnorm(0x7fe8e5d8dcad33c4) and rs2_val==dnorm(0xc00bdd0bee328bc8) and rs3_val==dnorm(0x7f9177d952f13e9f) | Exponent = 1025 Number = +ve
    ? 'fs1 == 0 and fe1 == 0x7fe and fm1 == 0x8e5d8dcad33c4 and fs2 == 1 and fe2 ==
      0x400 and fm2 == 0xbdd0bee328bc8 and fs3 == 0 and fe3 == 0x7f9 and fm3 == 0x177d952f13e9f
      and rm_val == 0  #nosat'
    : 1 #  rs1_val==dnorm(0x7fe8e5d8dcad33c4) and rs2_val==dnorm(0xc00bdd0bee328bc8) and rs3_val==dnorm(0x7f9177d952f13e9f) | Exponent = 1025 Number = +ve
    ? 'fs1 == 0 and fe1 == 0x7fe and fm1 == 0x657d95216ac01 and fs2 == 0 and fe2 ==
      0x3ff and fm2 == 0x1ef5830db8da2 and fs3 == 0 and fe3 == 0x7f8 and fm3 == 0x9a5803051b37f
      and rm_val == 4  #nosat'
    : 1 #  rs1_val==dnorm(0x7fe657d95216ac01) and rs2_val==dnorm(0x3ff1ef5830db8da2) and rs3_val==dnorm(0x7f89a5803051b37f) | Exponent = 1024 Number = -ve
    ? 'fs1 == 0 and fe1 == 0x7fe and fm1 == 0x657d95216ac01 and fs2 == 0 and fe2 ==
      0x3ff and fm2 == 0x1ef5830db8da2 and fs3 == 0 and fe3 == 0x7f8 and fm3 == 0x9a5803051b37f
      and rm_val == 3  #nosat'
    : 1 #  rs1_val==dnorm(0x7fe657d95216ac01) and rs2_val==dnorm(0x3ff1ef5830db8da2) and rs3_val==dnorm(0x7f89a5803051b37f) | Exponent = 1024 Number = -ve
    ? 'fs1 == 0 and fe1 == 0x7fe and fm1 == 0x657d95216ac01 and fs2 == 0 and fe2 ==
      0x3ff and fm2 == 0x1ef5830db8da2 and fs3 == 0 and fe3 == 0x7f8 and fm3 == 0x9a5803051b37f
      and rm_val == 2  #nosat'
    : 1 #  rs1_val==dnorm(0x7fe657d95216ac01) and rs2_val==dnorm(0x3ff1ef5830db8da2) and rs3_val==dnorm(0x7f89a5803051b37f) | Exponent = 1024 Number = -ve
    ? 'fs1 == 0 and fe1 == 0x7fe and fm1 == 0x657d95216ac01 and fs2 == 0 and fe2 ==
      0x3ff and fm2 == 0x1ef5830db8da2 and fs3 == 0 and fe3 == 0x7f8 and fm3 == 0x9a5803051b37f
      and rm_val == 1  #nosat'
    : 1 #  rs1_val==dnorm(0x7fe657d95216ac01) and rs2_val==dnorm(0x3ff1ef5830db8da2) and rs3_val==dnorm(0x7f89a5803051b37f) | Exponent = 1024 Number = -ve
    ? 'fs1 == 0 and fe1 == 0x7fe and fm1 == 0x657d95216ac01 and fs2 == 0 and fe2 ==
      0x3ff and fm2 == 0x1ef5830db8da2 and fs3 == 0 and fe3 == 0x7f8 and fm3 == 0x9a5803051b37f
      and rm_val == 0  #nosat'
    : 1 #  rs1_val==dnorm(0x7fe657d95216ac01) and rs2_val==dnorm(0x3ff1ef5830db8da2) and rs3_val==dnorm(0x7f89a5803051b37f) | Exponent = 1024 Number = -ve
    ? 'fs1 == 0 and fe1 == 0x7fc and fm1 == 0xadd854d58145f and fs2 == 1 and fe2 ==
      0x402 and fm2 == 0xb4f8ecba5f106 and fs3 == 0 and fe3 == 0x7fe and fm3 == 0xbb27f4381021f
      and rm_val == 4  #nosat'
    : 1 #  rs1_val==dnorm(0x7fcadd854d58145f) and rs2_val==dnorm(0xc02b4f8ecba5f106) and rs3_val==dnorm(0x7febb27f4381021f) | Exponent = 1024 Number = +ve
    ? 'fs1 == 0 and fe1 == 0x7fc and fm1 == 0xadd854d58145f and fs2 == 1 and fe2 ==
      0x402 and fm2 == 0xb4f8ecba5f106 and fs3 == 0 and fe3 == 0x7fe and fm3 == 0xbb27f4381021f
      and rm_val == 3  #nosat'
    : 1 #  rs1_val==dnorm(0x7fcadd854d58145f) and rs2_val==dnorm(0xc02b4f8ecba5f106) and rs3_val==dnorm(0x7febb27f4381021f) | Exponent = 1024 Number = +ve
    ? 'fs1 == 0 and fe1 == 0x7fc and fm1 == 0xadd854d58145f and fs2 == 1 and fe2 ==
      0x402 and fm2 == 0xb4f8ecba5f106 and fs3 == 0 and fe3 == 0x7fe and fm3 == 0xbb27f4381021f
      and rm_val == 2  #nosat'
    : 1 #  rs1_val==dnorm(0x7fcadd854d58145f) and rs2_val==dnorm(0xc02b4f8ecba5f106) and rs3_val==dnorm(0x7febb27f4381021f) | Exponent = 1024 Number = +ve
    ? 'fs1 == 0 and fe1 == 0x7fc and fm1 == 0xadd854d58145f and fs2 == 1 and fe2 ==
      0x402 and fm2 == 0xb4f8ecba5f106 and fs3 == 0 and fe3 == 0x7fe and fm3 == 0xbb27f4381021f
      and rm_val == 1  #nosat'
    : 1 #  rs1_val==dnorm(0x7fcadd854d58145f) and rs2_val==dnorm(0xc02b4f8ecba5f106) and rs3_val==dnorm(0x7febb27f4381021f) | Exponent = 1024 Number = +ve
    ? 'fs1 == 0 and fe1 == 0x7fc and fm1 == 0xadd854d58145f and fs2 == 1 and fe2 ==
      0x402 and fm2 == 0xb4f8ecba5f106 and fs3 == 0 and fe3 == 0x7fe and fm3 == 0xbb27f4381021f
      and rm_val == 0  #nosat'
    : 1 #  rs1_val==dnorm(0x7fcadd854d58145f) and rs2_val==dnorm(0xc02b4f8ecba5f106) and rs3_val==dnorm(0x7febb27f4381021f) | Exponent = 1024 Number = +ve
    ? 'fs1 == 0 and fe1 == 0x7fd and fm1 == 0xef5aa91c82b3d and fs2 == 0 and fe2 ==
      0x3fd and fm2 == 0xc52a83cb73c6b and fs3 == 0 and fe3 == 0x7fc and fm3 == 0x1ad71498eb7bb
      and rm_val == 4  #nosat'
    : 1 #  rs1_val==dnorm(0x7fdef5aa91c82b3d) and rs2_val==dnorm(0x3fdc52a83cb73c6b) and rs3_val==dnorm(0x7fc1ad71498eb7bb) | Exponent = 1023 Number = -ve
    ? 'fs1 == 0 and fe1 == 0x7fd and fm1 == 0xef5aa91c82b3d and fs2 == 0 and fe2 ==
      0x3fd and fm2 == 0xc52a83cb73c6b and fs3 == 0 and fe3 == 0x7fc and fm3 == 0x1ad71498eb7bb
      and rm_val == 3  #nosat'
    : 1 #  rs1_val==dnorm(0x7fdef5aa91c82b3d) and rs2_val==dnorm(0x3fdc52a83cb73c6b) and rs3_val==dnorm(0x7fc1ad71498eb7bb) | Exponent = 1023 Number = -ve
    ? 'fs1 == 0 and fe1 == 0x7fd and fm1 == 0xef5aa91c82b3d and fs2 == 0 and fe2 ==
      0x3fd and fm2 == 0xc52a83cb73c6b and fs3 == 0 and fe3 == 0x7fc and fm3 == 0x1ad71498eb7bb
      and rm_val == 2  #nosat'
    : 1 #  rs1_val==dnorm(0x7fdef5aa91c82b3d) and rs2_val==dnorm(0x3fdc52a83cb73c6b) and rs3_val==dnorm(0x7fc1ad71498eb7bb) | Exponent = 1023 Number = -ve
    ? 'fs1 == 0 and fe1 == 0x7fd and fm1 == 0xef5aa91c82b3d and fs2 == 0 and fe2 ==
      0x3fd and fm2 == 0xc52a83cb73c6b and fs3 == 0 and fe3 == 0x7fc and fm3 == 0x1ad71498eb7bb
      and rm_val == 1  #nosat'
    : 1 #  rs1_val==dnorm(0x7fdef5aa91c82b3d) and rs2_val==dnorm(0x3fdc52a83cb73c6b) and rs3_val==dnorm(0x7fc1ad71498eb7bb) | Exponent = 1023 Number = -ve
    ? 'fs1 == 0 and fe1 == 0x7fd and fm1 == 0xef5aa91c82b3d and fs2 == 0 and fe2 ==
      0x3fd and fm2 == 0xc52a83cb73c6b and fs3 == 0 and fe3 == 0x7fc and fm3 == 0x1ad71498eb7bb
      and rm_val == 0  #nosat'
    : 1 #  rs1_val==dnorm(0x7fdef5aa91c82b3d) and rs2_val==dnorm(0x3fdc52a83cb73c6b) and rs3_val==dnorm(0x7fc1ad71498eb7bb) | Exponent = 1023 Number = -ve
    ? 'fs1 == 0 and fe1 == 0x7fd and fm1 == 0x3fc6805c084d1 and fs2 == 1 and fe2 ==
      0x3fe and fm2 == 0xc1494b223d275 and fs3 == 0 and fe3 == 0x7fc and fm3 == 0x91ddf5613b02f
      and rm_val == 4  #nosat'
    : 1 #  rs1_val==dnorm(0x7fd3fc6805c084d1) and rs2_val==dnorm(0xbfec1494b223d275) and rs3_val==dnorm(0x7fc91ddf5613b02f) | Exponent = 1023 Number = +ve
    ? 'fs1 == 0 and fe1 == 0x7fd and fm1 == 0x3fc6805c084d1 and fs2 == 1 and fe2 ==
      0x3fe and fm2 == 0xc1494b223d275 and fs3 == 0 and fe3 == 0x7fc and fm3 == 0x91ddf5613b02f
      and rm_val == 3  #nosat'
    : 1 #  rs1_val==dnorm(0x7fd3fc6805c084d1) and rs2_val==dnorm(0xbfec1494b223d275) and rs3_val==dnorm(0x7fc91ddf5613b02f) | Exponent = 1023 Number = +ve
    ? 'fs1 == 0 and fe1 == 0x7fd and fm1 == 0x3fc6805c084d1 and fs2 == 1 and fe2 ==
      0x3fe and fm2 == 0xc1494b223d275 and fs3 == 0 and fe3 == 0x7fc and fm3 == 0x91ddf5613b02f
      and rm_val == 2  #nosat'
    : 1 #  rs1_val==dnorm(0x7fd3fc6805c084d1) and rs2_val==dnorm(0xbfec1494b223d275) and rs3_val==dnorm(0x7fc91ddf5613b02f) | Exponent = 1023 Number = +ve
    ? 'fs1 == 0 and fe1 == 0x7fd and fm1 == 0x3fc6805c084d1 and fs2 == 1 and fe2 ==
      0x3fe and fm2 == 0xc1494b223d275 and fs3 == 0 and fe3 == 0x7fc and fm3 == 0x91ddf5613b02f
      and rm_val == 1  #nosat'
    : 1 #  rs1_val==dnorm(0x7fd3fc6805c084d1) and rs2_val==dnorm(0xbfec1494b223d275) and rs3_val==dnorm(0x7fc91ddf5613b02f) | Exponent = 1023 Number = +ve
    ? 'fs1 == 0 and fe1 == 0x7fd and fm1 == 0x3fc6805c084d1 and fs2 == 1 and fe2 ==
      0x3fe and fm2 == 0xc1494b223d275 and fs3 == 0 and fe3 == 0x7fc and fm3 == 0x91ddf5613b02f
      and rm_val == 0  #nosat'
    : 1 #  rs1_val==dnorm(0x7fd3fc6805c084d1) and rs2_val==dnorm(0xbfec1494b223d275) and rs3_val==dnorm(0x7fc91ddf5613b02f) | Exponent = 1023 Number = +ve
    ? 'fs1 == 0 and fe1 == 0x7fb and fm1 == 0xde8341376716f and fs2 == 0 and fe2 ==
      0x401 and fm2 == 0x8f619a860e765 and fs3 == 0 and fe3 == 0x7fe and fm3 == 0x5352cf9125058
      and rm_val == 4  #nosat'
    : 1 #  rs1_val==dnorm(0x7fbde8341376716f) and rs2_val==dnorm(0x4018f619a860e765) and rs3_val==dnorm(0x7fe5352cf9125058) | Exponent = 1022 Number = -ve
    ? 'fs1 == 0 and fe1 == 0x7fb and fm1 == 0xde8341376716f and fs2 == 0 and fe2 ==
      0x401 and fm2 == 0x8f619a860e765 and fs3 == 0 and fe3 == 0x7fe and fm3 == 0x5352cf9125058
      and rm_val == 3  #nosat'
    : 1 #  rs1_val==dnorm(0x7fbde8341376716f) and rs2_val==dnorm(0x4018f619a860e765) and rs3_val==dnorm(0x7fe5352cf9125058) | Exponent = 1022 Number = -ve
    ? 'fs1 == 0 and fe1 == 0x7fb and fm1 == 0xde8341376716f and fs2 == 0 and fe2 ==
      0x401 and fm2 == 0x8f619a860e765 and fs3 == 0 and fe3 == 0x7fe and fm3 == 0x5352cf9125058
      and rm_val == 2  #nosat'
    : 1 #  rs1_val==dnorm(0x7fbde8341376716f) and rs2_val==dnorm(0x4018f619a860e765) and rs3_val==dnorm(0x7fe5352cf9125058) | Exponent = 1022 Number = -ve
    ? 'fs1 == 0 and fe1 == 0x7fb and fm1 == 0xde8341376716f and fs2 == 0 and fe2 ==
      0x401 and fm2 == 0x8f619a860e765 and fs3 == 0 and fe3 == 0x7fe and fm3 == 0x5352cf9125058
      and rm_val == 1  #nosat'
    : 1 #  rs1_val==dnorm(0x7fbde8341376716f) and rs2_val==dnorm(0x4018f619a860e765) and rs3_val==dnorm(0x7fe5352cf9125058) | Exponent = 1022 Number = -ve
    ? 'fs1 == 0 and fe1 == 0x7fb and fm1 == 0xde8341376716f and fs2 == 0 and fe2 ==
      0x401 and fm2 == 0x8f619a860e765 and fs3 == 0 and fe3 == 0x7fe and fm3 == 0x5352cf9125058
      and rm_val == 0  #nosat'
    : 1 #  rs1_val==dnorm(0x7fbde8341376716f) and rs2_val==dnorm(0x4018f619a860e765) and rs3_val==dnorm(0x7fe5352cf9125058) | Exponent = 1022 Number = -ve
    ? 'fs1 == 0 and fe1 == 0x7fe and fm1 == 0xc299b1ab6e737 and fs2 == 0 and fe2 ==
      0x3fb and fm2 == 0x564da0b97eac1 and fs3 == 0 and fe3 == 0x7fe and fm3 == 0x0cef4bccbe789
      and rm_val == 4  #nosat'
    : 1 #  rs1_val==dnorm(0x7fec299b1ab6e737) and rs2_val==dnorm(0x3fb564da0b97eac1) and rs3_val==dnorm(0x7fe0cef4bccbe789) | Exponent = 1022 Number = +ve
    ? 'fs1 == 0 and fe1 == 0x7fe and fm1 == 0xc299b1ab6e737 and fs2 == 0 and fe2 ==
      0x3fb and fm2 == 0x564da0b97eac1 and fs3 == 0 and fe3 == 0x7fe and fm3 == 0x0cef4bccbe789
      and rm_val == 3  #nosat'
    : 1 #  rs1_val==dnorm(0x7fec299b1ab6e737) and rs2_val==dnorm(0x3fb564da0b97eac1) and rs3_val==dnorm(0x7fe0cef4bccbe789) | Exponent = 1022 Number = +ve
    ? 'fs1 == 0 and fe1 == 0x7fe and fm1 == 0xc299b1ab6e737 and fs2 == 0 and fe2 ==
      0x3fb and fm2 == 0x564da0b97eac1 and fs3 == 0 and fe3 == 0x7fe and fm3 == 0x0cef4bccbe789
      and rm_val == 2  #nosat'
    : 1 #  rs1_val==dnorm(0x7fec299b1ab6e737) and rs2_val==dnorm(0x3fb564da0b97eac1) and rs3_val==dnorm(0x7fe0cef4bccbe789) | Exponent = 1022 Number = +ve
    ? 'fs1 == 0 and fe1 == 0x7fe and fm1 == 0xc299b1ab6e737 and fs2 == 0 and fe2 ==
      0x3fb and fm2 == 0x564da0b97eac1 and fs3 == 0 and fe3 == 0x7fe and fm3 == 0x0cef4bccbe789
      and rm_val == 1  #nosat'
    : 1 #  rs1_val==dnorm(0x7fec299b1ab6e737) and rs2_val==dnorm(0x3fb564da0b97eac1) and rs3_val==dnorm(0x7fe0cef4bccbe789) | Exponent = 1022 Number = +ve
    ? 'fs1 == 0 and fe1 == 0x7fe and fm1 == 0xc299b1ab6e737 and fs2 == 0 and fe2 ==
      0x3fb and fm2 == 0x564da0b97eac1 and fs3 == 0 and fe3 == 0x7fe and fm3 == 0x0cef4bccbe789
      and rm_val == 0  #nosat'
    : 1 #  rs1_val==dnorm(0x7fec299b1ab6e737) and rs2_val==dnorm(0x3fb564da0b97eac1) and rs3_val==dnorm(0x7fe0cef4bccbe789) | Exponent = 1022 Number = +ve
    ? 'fs1 == 0 and fe1 == 0x7fe and fm1 == 0x2da5f3c7a7466 and fs2 == 0 and fe2 ==
      0x3fe and fm2 == 0x314d1298a6f71 and fs3 == 0 and fe3 == 0x7fb and fm3 == 0x6f5c1f001498f
      and rm_val == 4  #nosat'
    : 1 #  rs1_val==dnorm(0x7fe2da5f3c7a7466) and rs2_val==dnorm(0x3fe314d1298a6f71) and rs3_val==dnorm(0x7fb6f5c1f001498f) | Exponent = 1021 Number = -ve
    ? 'fs1 == 0 and fe1 == 0x7fe and fm1 == 0x2da5f3c7a7466 and fs2 == 0 and fe2 ==
      0x3fe and fm2 == 0x314d1298a6f71 and fs3 == 0 and fe3 == 0x7fb and fm3 == 0x6f5c1f001498f
      and rm_val == 3  #nosat'
    : 1 #  rs1_val==dnorm(0x7fe2da5f3c7a7466) and rs2_val==dnorm(0x3fe314d1298a6f71) and rs3_val==dnorm(0x7fb6f5c1f001498f) | Exponent = 1021 Number = -ve
    ? 'fs1 == 0 and fe1 == 0x7fe and fm1 == 0x2da5f3c7a7466 and fs2 == 0 and fe2 ==
      0x3fe and fm2 == 0x314d1298a6f71 and fs3 == 0 and fe3 == 0x7fb and fm3 == 0x6f5c1f001498f
      and rm_val == 2  #nosat'
    : 1 #  rs1_val==dnorm(0x7fe2da5f3c7a7466) and rs2_val==dnorm(0x3fe314d1298a6f71) and rs3_val==dnorm(0x7fb6f5c1f001498f) | Exponent = 1021 Number = -ve
    ? 'fs1 == 0 and fe1 == 0x7fe and fm1 == 0x2da5f3c7a7466 and fs2 == 0 and fe2 ==
      0x3fe and fm2 == 0x314d1298a6f71 and fs3 == 0 and fe3 == 0x7fb and fm3 == 0x6f5c1f001498f
      and rm_val == 1  #nosat'
    : 1 #  rs1_val==dnorm(0x7fe2da5f3c7a7466) and rs2_val==dnorm(0x3fe314d1298a6f71) and rs3_val==dnorm(0x7fb6f5c1f001498f) | Exponent = 1021 Number = -ve
    ? 'fs1 == 0 and fe1 == 0x7fe and fm1 == 0x2da5f3c7a7466 and fs2 == 0 and fe2 ==
      0x3fe and fm2 == 0x314d1298a6f71 and fs3 == 0 and fe3 == 0x7fb and fm3 == 0x6f5c1f001498f
      and rm_val == 0  #nosat'
    : 1 #  rs1_val==dnorm(0x7fe2da5f3c7a7466) and rs2_val==dnorm(0x3fe314d1298a6f71) and rs3_val==dnorm(0x7fb6f5c1f001498f) | Exponent = 1021 Number = -ve
    ? 'fs1 == 0 and fe1 == 0x7fe and fm1 == 0x341836db80049 and fs2 == 1 and fe2 ==
      0x3fd and fm2 == 0x3384401752f12 and fs3 == 0 and fe3 == 0x7fd and fm3 == 0x37a0d12dbe9d7
      and rm_val == 4  #nosat'
    : 1 #  rs1_val==dnorm(0x7fe341836db80049) and rs2_val==dnorm(0xbfd3384401752f12) and rs3_val==dnorm(0x7fd37a0d12dbe9d7) | Exponent = 1021 Number = +ve
    ? 'fs1 == 0 and fe1 == 0x7fe and fm1 == 0x341836db80049 and fs2 == 1 and fe2 ==
      0x3fd and fm2 == 0x3384401752f12 and fs3 == 0 and fe3 == 0x7fd and fm3 == 0x37a0d12dbe9d7
      and rm_val == 3  #nosat'
    : 1 #  rs1_val==dnorm(0x7fe341836db80049) and rs2_val==dnorm(0xbfd3384401752f12) and rs3_val==dnorm(0x7fd37a0d12dbe9d7) | Exponent = 1021 Number = +ve
    ? 'fs1 == 0 and fe1 == 0x7fe and fm1 == 0x341836db80049 and fs2 == 1 and fe2 ==
      0x3fd and fm2 == 0x3384401752f12 and fs3 == 0 and fe3 == 0x7fd and fm3 == 0x37a0d12dbe9d7
      and rm_val == 2  #nosat'
    : 1 #  rs1_val==dnorm(0x7fe341836db80049) and rs2_val==dnorm(0xbfd3384401752f12) and rs3_val==dnorm(0x7fd37a0d12dbe9d7) | Exponent = 1021 Number = +ve
    ? 'fs1 == 0 and fe1 == 0x7fe and fm1 == 0x341836db80049 and fs2 == 1 and fe2 ==
      0x3fd and fm2 == 0x3384401752f12 and fs3 == 0 and fe3 == 0x7fd and fm3 == 0x37a0d12dbe9d7
      and rm_val == 1  #nosat'
    : 1 #  rs1_val==dnorm(0x7fe341836db80049) and rs2_val==dnorm(0xbfd3384401752f12) and rs3_val==dnorm(0x7fd37a0d12dbe9d7) | Exponent = 1021 Number = +ve
    ? 'fs1 == 0 and fe1 == 0x7fe and fm1 == 0x341836db80049 and fs2 == 1 and fe2 ==
      0x3fd and fm2 == 0x3384401752f12 and fs3 == 0 and fe3 == 0x7fd and fm3 == 0x37a0d12dbe9d7
      and rm_val == 0  #nosat'
    : 1 #  rs1_val==dnorm(0x7fe341836db80049) and rs2_val==dnorm(0xbfd3384401752f12) and rs3_val==dnorm(0x7fd37a0d12dbe9d7) | Exponent = 1021 Number = +ve
    ? 'fs1 == 0 and fe1 == 0x7f9 and fm1 == 0xd1aa6d115d25f and fs2 == 0 and fe2 ==
      0x402 and fm2 == 0xf369a7c247f89 and fs3 == 0 and fe3 == 0x7fd and fm3 == 0x720ca91f58bdf
      and rm_val == 4  #nosat'
    : 1 #  rs1_val==dnorm(0x7f9d1aa6d115d25f) and rs2_val==dnorm(0x402f369a7c247f89) and rs3_val==dnorm(0x7fd720ca91f58bdf) | Exponent = 1020 Number = -ve
    ? 'fs1 == 0 and fe1 == 0x7f9 and fm1 == 0xd1aa6d115d25f and fs2 == 0 and fe2 ==
      0x402 and fm2 == 0xf369a7c247f89 and fs3 == 0 and fe3 == 0x7fd and fm3 == 0x720ca91f58bdf
      and rm_val == 3  #nosat'
    : 1 #  rs1_val==dnorm(0x7f9d1aa6d115d25f) and rs2_val==dnorm(0x402f369a7c247f89) and rs3_val==dnorm(0x7fd720ca91f58bdf) | Exponent = 1020 Number = -ve
    ? 'fs1 == 0 and fe1 == 0x7f9 and fm1 == 0xd1aa6d115d25f and fs2 == 0 and fe2 ==
      0x402 and fm2 == 0xf369a7c247f89 and fs3 == 0 and fe3 == 0x7fd and fm3 == 0x720ca91f58bdf
      and rm_val == 2  #nosat'
    : 1 #  rs1_val==dnorm(0x7f9d1aa6d115d25f) and rs2_val==dnorm(0x402f369a7c247f89) and rs3_val==dnorm(0x7fd720ca91f58bdf) | Exponent = 1020 Number = -ve
    ? 'fs1 == 0 and fe1 == 0x7f9 and fm1 == 0xd1aa6d115d25f and fs2 == 0 and fe2 ==
      0x402 and fm2 == 0xf369a7c247f89 and fs3 == 0 and fe3 == 0x7fd and fm3 == 0x720ca91f58bdf
      and rm_val == 1  #nosat'
    : 1 #  rs1_val==dnorm(0x7f9d1aa6d115d25f) and rs2_val==dnorm(0x402f369a7c247f89) and rs3_val==dnorm(0x7fd720ca91f58bdf) | Exponent = 1020 Number = -ve
    ? 'fs1 == 0 and fe1 == 0x7f9 and fm1 == 0xd1aa6d115d25f and fs2 == 0 and fe2 ==
      0x402 and fm2 == 0xf369a7c247f89 and fs3 == 0 and fe3 == 0x7fd and fm3 == 0x720ca91f58bdf
      and rm_val == 0  #nosat'
    : 1 #  rs1_val==dnorm(0x7f9d1aa6d115d25f) and rs2_val==dnorm(0x402f369a7c247f89) and rs3_val==dnorm(0x7fd720ca91f58bdf) | Exponent = 1020 Number = -ve
    ? 'fs1 == 0 and fe1 == 0x7fe and fm1 == 0x9c6b24203c777 and fs2 == 0 and fe2 ==
      0x3ff and fm2 == 0x1d17637fff0a7 and fs3 == 0 and fe3 == 0x7fe and fm3 == 0xf3e76cbaa48e2
      and rm_val == 4  #nosat'
    : 1 #  rs1_val==dnorm(0x7fe9c6b24203c777) and rs2_val==dnorm(0x3ff1d17637fff0a7) and rs3_val==dnorm(0x7fef3e76cbaa48e2) | Exponent = 1020 Number = +ve
    ? 'fs1 == 0 and fe1 == 0x7fe and fm1 == 0x9c6b24203c777 and fs2 == 0 and fe2 ==
      0x3ff and fm2 == 0x1d17637fff0a7 and fs3 == 0 and fe3 == 0x7fe and fm3 == 0xf3e76cbaa48e2
      and rm_val == 3  #nosat'
    : 1 #  rs1_val==dnorm(0x7fe9c6b24203c777) and rs2_val==dnorm(0x3ff1d17637fff0a7) and rs3_val==dnorm(0x7fef3e76cbaa48e2) | Exponent = 1020 Number = +ve
    ? 'fs1 == 0 and fe1 == 0x7fe and fm1 == 0x9c6b24203c777 and fs2 == 0 and fe2 ==
      0x3ff and fm2 == 0x1d17637fff0a7 and fs3 == 0 and fe3 == 0x7fe and fm3 == 0xf3e76cbaa48e2
      and rm_val == 2  #nosat'
    : 1 #  rs1_val==dnorm(0x7fe9c6b24203c777) and rs2_val==dnorm(0x3ff1d17637fff0a7) and rs3_val==dnorm(0x7fef3e76cbaa48e2) | Exponent = 1020 Number = +ve
    ? 'fs1 == 0 and fe1 == 0x7fe and fm1 == 0x9c6b24203c777 and fs2 == 0 and fe2 ==
      0x3ff and fm2 == 0x1d17637fff0a7 and fs3 == 0 and fe3 == 0x7fe and fm3 == 0xf3e76cbaa48e2
      and rm_val == 1  #nosat'
    : 1 #  rs1_val==dnorm(0x7fe9c6b24203c777) and rs2_val==dnorm(0x3ff1d17637fff0a7) and rs3_val==dnorm(0x7fef3e76cbaa48e2) | Exponent = 1020 Number = +ve
    ? 'fs1 == 0 and fe1 == 0x7fe and fm1 == 0x9c6b24203c777 and fs2 == 0 and fe2 ==
      0x3ff and fm2 == 0x1d17637fff0a7 and fs3 == 0 and fe3 == 0x7fe and fm3 == 0xf3e76cbaa48e2
      and rm_val == 0  #nosat'
    : 1 #  rs1_val==dnorm(0x7fe9c6b24203c777) and rs2_val==dnorm(0x3ff1d17637fff0a7) and rs3_val==dnorm(0x7fef3e76cbaa48e2) | Exponent = 1020 Number = +ve
    ? 'fs1 == 0 and fe1 == 0x7fe and fm1 == 0x4a0550fe15035 and fs2 == 1 and fe2 ==
      0x3fd and fm2 == 0xdfea49765c51f and fs3 == 0 and fe3 == 0x7fe and fm3 == 0x655481791d37f
      and rm_val == 4  #nosat'
    : 1 #  rs1_val==dnorm(0x7fe4a0550fe15035) and rs2_val==dnorm(0xbfddfea49765c51f) and rs3_val==dnorm(0x7fe655481791d37f) | Guard = 1 Round = 1 Sticky = 1 --> Maxnorm - 7 ulp
    ? 'fs1 == 0 and fe1 == 0x7fe and fm1 == 0x4a0550fe15035 and fs2 == 1 and fe2 ==
      0x3fd and fm2 == 0xdfea49765c51f and fs3 == 0 and fe3 == 0x7fe and fm3 == 0x655481791d37f
      and rm_val == 3  #nosat'
    : 1 #  rs1_val==dnorm(0x7fe4a0550fe15035) and rs2_val==dnorm(0xbfddfea49765c51f) and rs3_val==dnorm(0x7fe655481791d37f) | Guard = 1 Round = 1 Sticky = 1 --> Maxnorm - 7 ulp
    ? 'fs1 == 0 and fe1 == 0x7fe and fm1 == 0x4a0550fe15035 and fs2 == 1 and fe2 ==
      0x3fd and fm2 == 0xdfea49765c51f and fs3 == 0 and fe3 == 0x7fe and fm3 == 0x655481791d37f
      and rm_val == 2  #nosat'
    : 1 #  rs1_val==dnorm(0x7fe4a0550fe15035) and rs2_val==dnorm(0xbfddfea49765c51f) and rs3_val==dnorm(0x7fe655481791d37f) | Guard = 1 Round = 1 Sticky = 1 --> Maxnorm - 7 ulp
    ? 'fs1 == 0 and fe1 == 0x7fe and fm1 == 0x4a0550fe15035 and fs2 == 1 and fe2 ==
      0x3fd and fm2 == 0xdfea49765c51f and fs3 == 0 and fe3 == 0x7fe and fm3 == 0x655481791d37f
      and rm_val == 1  #nosat'
    : 1 #  rs1_val==dnorm(0x7fe4a0550fe15035) and rs2_val==dnorm(0xbfddfea49765c51f) and rs3_val==dnorm(0x7fe655481791d37f) | Guard = 1 Round = 1 Sticky = 1 --> Maxnorm - 7 ulp
    ? 'fs1 == 0 and fe1 == 0x7fe and fm1 == 0x4a0550fe15035 and fs2 == 1 and fe2 ==
      0x3fd and fm2 == 0xdfea49765c51f and fs3 == 0 and fe3 == 0x7fe and fm3 == 0x655481791d37f
      and rm_val == 0  #nosat'
    : 1 #  rs1_val==dnorm(0x7fe4a0550fe15035) and rs2_val==dnorm(0xbfddfea49765c51f) and rs3_val==dnorm(0x7fe655481791d37f) | Guard = 1 Round = 1 Sticky = 1 --> Maxnorm - 7 ulp
    ? 'fs1 == 0 and fe1 == 0x7fe and fm1 == 0xd1ab73cc65f52 and fs2 == 1 and fe2 ==
      0x3fe and fm2 == 0x1138dec46d0a2 and fs3 == 0 and fe3 == 0x7fe and fm3 == 0x07805b64db437
      and rm_val == 4  #nosat'
    : 1 #  rs1_val==dnorm(0x7fed1ab73cc65f52) and rs2_val==dnorm(0xbfe1138dec46d0a2) and rs3_val==dnorm(0x7fe07805b64db437) | Guard = 1 Round = 1 Sticky = 1 --> Maxnorm + 7 ulp
    ? 'fs1 == 0 and fe1 == 0x7fe and fm1 == 0xd1ab73cc65f52 and fs2 == 1 and fe2 ==
      0x3fe and fm2 == 0x1138dec46d0a2 and fs3 == 0 and fe3 == 0x7fe and fm3 == 0x07805b64db437
      and rm_val == 3  #nosat'
    : 1 #  rs1_val==dnorm(0x7fed1ab73cc65f52) and rs2_val==dnorm(0xbfe1138dec46d0a2) and rs3_val==dnorm(0x7fe07805b64db437) | Guard = 1 Round = 1 Sticky = 1 --> Maxnorm + 7 ulp
    ? 'fs1 == 0 and fe1 == 0x7fe and fm1 == 0xd1ab73cc65f52 and fs2 == 1 and fe2 ==
      0x3fe and fm2 == 0x1138dec46d0a2 and fs3 == 0 and fe3 == 0x7fe and fm3 == 0x07805b64db437
      and rm_val == 2  #nosat'
    : 1 #  rs1_val==dnorm(0x7fed1ab73cc65f52) and rs2_val==dnorm(0xbfe1138dec46d0a2) and rs3_val==dnorm(0x7fe07805b64db437) | Guard = 1 Round = 1 Sticky = 1 --> Maxnorm + 7 ulp
    ? 'fs1 == 0 and fe1 == 0x7fe and fm1 == 0xd1ab73cc65f52 and fs2 == 1 and fe2 ==
      0x3fe and fm2 == 0x1138dec46d0a2 and fs3 == 0 and fe3 == 0x7fe and fm3 == 0x07805b64db437
      and rm_val == 1  #nosat'
    : 1 #  rs1_val==dnorm(0x7fed1ab73cc65f52) and rs2_val==dnorm(0xbfe1138dec46d0a2) and rs3_val==dnorm(0x7fe07805b64db437) | Guard = 1 Round = 1 Sticky = 1 --> Maxnorm + 7 ulp
    ? 'fs1 == 0 and fe1 == 0x7fe and fm1 == 0xd1ab73cc65f52 and fs2 == 1 and fe2 ==
      0x3fe and fm2 == 0x1138dec46d0a2 and fs3 == 0 and fe3 == 0x7fe and fm3 == 0x07805b64db437
      and rm_val == 0  #nosat'
    : 1 #  rs1_val==dnorm(0x7fed1ab73cc65f52) and rs2_val==dnorm(0xbfe1138dec46d0a2) and rs3_val==dnorm(0x7fe07805b64db437) | Guard = 1 Round = 1 Sticky = 1 --> Maxnorm + 7 ulp
    ? 'fs1 == 0 and fe1 == 0x7fd and fm1 == 0x7107573e4c40b and fs2 == 1 and fe2 ==
      0x3fc and fm2 == 0x7e3f5b58f8565 and fs3 == 0 and fe3 == 0x7fe and fm3 == 0xdd8fbb754b55c
      and rm_val == 4  #nosat'
    : 1 #  rs1_val==dnorm(0x7fd7107573e4c40b) and rs2_val==dnorm(0xbfc7e3f5b58f8565) and rs3_val==dnorm(0x7fedd8fbb754b55c) | Guard = 1 Round = 1 Sticky = 0 --> Maxnorm - 6 ulp
    ? 'fs1 == 0 and fe1 == 0x7fd and fm1 == 0x7107573e4c40b and fs2 == 1 and fe2 ==
      0x3fc and fm2 == 0x7e3f5b58f8565 and fs3 == 0 and fe3 == 0x7fe and fm3 == 0xdd8fbb754b55c
      and rm_val == 3  #nosat'
    : 1 #  rs1_val==dnorm(0x7fd7107573e4c40b) and rs2_val==dnorm(0xbfc7e3f5b58f8565) and rs3_val==dnorm(0x7fedd8fbb754b55c) | Guard = 1 Round = 1 Sticky = 0 --> Maxnorm - 6 ulp
    ? 'fs1 == 0 and fe1 == 0x7fd and fm1 == 0x7107573e4c40b and fs2 == 1 and fe2 ==
      0x3fc and fm2 == 0x7e3f5b58f8565 and fs3 == 0 and fe3 == 0x7fe and fm3 == 0xdd8fbb754b55c
      and rm_val == 2  #nosat'
    : 1 #  rs1_val==dnorm(0x7fd7107573e4c40b) and rs2_val==dnorm(0xbfc7e3f5b58f8565) and rs3_val==dnorm(0x7fedd8fbb754b55c) | Guard = 1 Round = 1 Sticky = 0 --> Maxnorm - 6 ulp
    ? 'fs1 == 0 and fe1 == 0x7fd and fm1 == 0x7107573e4c40b and fs2 == 1 and fe2 ==
      0x3fc and fm2 == 0x7e3f5b58f8565 and fs3 == 0 and fe3 == 0x7fe and fm3 == 0xdd8fbb754b55c
      and rm_val == 1  #nosat'
    : 1 #  rs1_val==dnorm(0x7fd7107573e4c40b) and rs2_val==dnorm(0xbfc7e3f5b58f8565) and rs3_val==dnorm(0x7fedd8fbb754b55c) | Guard = 1 Round = 1 Sticky = 0 --> Maxnorm - 6 ulp
    ? 'fs1 == 0 and fe1 == 0x7fd and fm1 == 0x7107573e4c40b and fs2 == 1 and fe2 ==
      0x3fc and fm2 == 0x7e3f5b58f8565 and fs3 == 0 and fe3 == 0x7fe and fm3 == 0xdd8fbb754b55c
      and rm_val == 0  #nosat'
    : 1 #  rs1_val==dnorm(0x7fd7107573e4c40b) and rs2_val==dnorm(0xbfc7e3f5b58f8565) and rs3_val==dnorm(0x7fedd8fbb754b55c) | Guard = 1 Round = 1 Sticky = 0 --> Maxnorm - 6 ulp
    ? 'fs1 == 0 and fe1 == 0x7fc and fm1 == 0x9b63fed3f1873 and fs2 == 1 and fe2 ==
      0x3ff and fm2 == 0xb729bd396aa0c and fs3 == 0 and fe3 == 0x7fe and fm3 == 0x4f911cba6947d
      and rm_val == 4  #nosat'
    : 1 #  rs1_val==dnorm(0x7fc9b63fed3f1873) and rs2_val==dnorm(0xbffb729bd396aa0c) and rs3_val==dnorm(0x7fe4f911cba6947d) | Guard = 1 Round = 1 Sticky = 0 --> Maxnorm + 6 ulp
    ? 'fs1 == 0 and fe1 == 0x7fc and fm1 == 0x9b63fed3f1873 and fs2 == 1 and fe2 ==
      0x3ff and fm2 == 0xb729bd396aa0c and fs3 == 0 and fe3 == 0x7fe and fm3 == 0x4f911cba6947d
      and rm_val == 3  #nosat'
    : 1 #  rs1_val==dnorm(0x7fc9b63fed3f1873) and rs2_val==dnorm(0xbffb729bd396aa0c) and rs3_val==dnorm(0x7fe4f911cba6947d) | Guard = 1 Round = 1 Sticky = 0 --> Maxnorm + 6 ulp
    ? 'fs1 == 0 and fe1 == 0x7fc and fm1 == 0x9b63fed3f1873 and fs2 == 1 and fe2 ==
      0x3ff and fm2 == 0xb729bd396aa0c and fs3 == 0 and fe3 == 0x7fe and fm3 == 0x4f911cba6947d
      and rm_val == 2  #nosat'
    : 1 #  rs1_val==dnorm(0x7fc9b63fed3f1873) and rs2_val==dnorm(0xbffb729bd396aa0c) and rs3_val==dnorm(0x7fe4f911cba6947d) | Guard = 1 Round = 1 Sticky = 0 --> Maxnorm + 6 ulp
    ? 'fs1 == 0 and fe1 == 0x7fc and fm1 == 0x9b63fed3f1873 and fs2 == 1 and fe2 ==
      0x3ff and fm2 == 0xb729bd396aa0c and fs3 == 0 and fe3 == 0x7fe and fm3 == 0x4f911cba6947d
      and rm_val == 1  #nosat'
    : 1 #  rs1_val==dnorm(0x7fc9b63fed3f1873) and rs2_val==dnorm(0xbffb729bd396aa0c) and rs3_val==dnorm(0x7fe4f911cba6947d) | Guard = 1 Round = 1 Sticky = 0 --> Maxnorm + 6 ulp
    ? 'fs1 == 0 and fe1 == 0x7fc and fm1 == 0x9b63fed3f1873 and fs2 == 1 and fe2 ==
      0x3ff and fm2 == 0xb729bd396aa0c and fs3 == 0 and fe3 == 0x7fe and fm3 == 0x4f911cba6947d
      and rm_val == 0  #nosat'
    : 1 #  rs1_val==dnorm(0x7fc9b63fed3f1873) and rs2_val==dnorm(0xbffb729bd396aa0c) and rs3_val==dnorm(0x7fe4f911cba6947d) | Guard = 1 Round = 1 Sticky = 0 --> Maxnorm + 6 ulp
    ? 'fs1 == 0 and fe1 == 0x7fe and fm1 == 0xe71a5cc2ec78b and fs2 == 1 and fe2 ==
      0x3fd and fm2 == 0xbad6a36570e13 and fs3 == 0 and fe3 == 0x7fe and fm3 == 0x2d590539c6e1b
      and rm_val == 4  #nosat'
    : 1 #  rs1_val==dnorm(0x7fee71a5cc2ec78b) and rs2_val==dnorm(0xbfdbad6a36570e13) and rs3_val==dnorm(0x7fe2d590539c6e1b) | Guard = 1 Round = 0 Sticky = 1 --> Maxnorm - 5 ulp
    ? 'fs1 == 0 and fe1 == 0x7fe and fm1 == 0xe71a5cc2ec78b and fs2 == 1 and fe2 ==
      0x3fd and fm2 == 0xbad6a36570e13 and fs3 == 0 and fe3 == 0x7fe and fm3 == 0x2d590539c6e1b
      and rm_val == 3  #nosat'
    : 1 #  rs1_val==dnorm(0x7fee71a5cc2ec78b) and rs2_val==dnorm(0xbfdbad6a36570e13) and rs3_val==dnorm(0x7fe2d590539c6e1b) | Guard = 1 Round = 0 Sticky = 1 --> Maxnorm - 5 ulp
    ? 'fs1 == 0 and fe1 == 0x7fe and fm1 == 0xe71a5cc2ec78b and fs2 == 1 and fe2 ==
      0x3fd and fm2 == 0xbad6a36570e13 and fs3 == 0 and fe3 == 0x7fe and fm3 == 0x2d590539c6e1b
      and rm_val == 2  #nosat'
    : 1 #  rs1_val==dnorm(0x7fee71a5cc2ec78b) and rs2_val==dnorm(0xbfdbad6a36570e13) and rs3_val==dnorm(0x7fe2d590539c6e1b) | Guard = 1 Round = 0 Sticky = 1 --> Maxnorm - 5 ulp
    ? 'fs1 == 0 and fe1 == 0x7fe and fm1 == 0xe71a5cc2ec78b and fs2 == 1 and fe2 ==
      0x3fd and fm2 == 0xbad6a36570e13 and fs3 == 0 and fe3 == 0x7fe and fm3 == 0x2d590539c6e1b
      and rm_val == 1  #nosat'
    : 1 #  rs1_val==dnorm(0x7fee71a5cc2ec78b) and rs2_val==dnorm(0xbfdbad6a36570e13) and rs3_val==dnorm(0x7fe2d590539c6e1b) | Guard = 1 Round = 0 Sticky = 1 --> Maxnorm - 5 ulp
    ? 'fs1 == 0 and fe1 == 0x7fe and fm1 == 0xe71a5cc2ec78b and fs2 == 1 and fe2 ==
      0x3fd and fm2 == 0xbad6a36570e13 and fs3 == 0 and fe3 == 0x7fe and fm3 == 0x2d590539c6e1b
      and rm_val == 0  #nosat'
    : 1 #  rs1_val==dnorm(0x7fee71a5cc2ec78b) and rs2_val==dnorm(0xbfdbad6a36570e13) and rs3_val==dnorm(0x7fe2d590539c6e1b) | Guard = 1 Round = 0 Sticky = 1 --> Maxnorm - 5 ulp
    ? 'fs1 == 0 and fe1 == 0x7fe and fm1 == 0x45141572f8653 and fs2 == 1 and fe2 ==
      0x3ff and fm2 == 0x1dcbabcf61390 and fs3 == 0 and fe3 == 0x7fd and fm3 == 0x2a2c060c7c8c5
      and rm_val == 4  #nosat'
    : 1 #  rs1_val==dnorm(0x7fe45141572f8653) and rs2_val==dnorm(0xbff1dcbabcf61390) and rs3_val==dnorm(0x7fd2a2c060c7c8c5) | Guard = 1 Round = 0 Sticky = 1 --> Maxnorm + 5 ulp
    ? 'fs1 == 0 and fe1 == 0x7fe and fm1 == 0x45141572f8653 and fs2 == 1 and fe2 ==
      0x3ff and fm2 == 0x1dcbabcf61390 and fs3 == 0 and fe3 == 0x7fd and fm3 == 0x2a2c060c7c8c5
      and rm_val == 3  #nosat'
    : 1 #  rs1_val==dnorm(0x7fe45141572f8653) and rs2_val==dnorm(0xbff1dcbabcf61390) and rs3_val==dnorm(0x7fd2a2c060c7c8c5) | Guard = 1 Round = 0 Sticky = 1 --> Maxnorm + 5 ulp
    ? 'fs1 == 0 and fe1 == 0x7fe and fm1 == 0x45141572f8653 and fs2 == 1 and fe2 ==
      0x3ff and fm2 == 0x1dcbabcf61390 and fs3 == 0 and fe3 == 0x7fd and fm3 == 0x2a2c060c7c8c5
      and rm_val == 2  #nosat'
    : 1 #  rs1_val==dnorm(0x7fe45141572f8653) and rs2_val==dnorm(0xbff1dcbabcf61390) and rs3_val==dnorm(0x7fd2a2c060c7c8c5) | Guard = 1 Round = 0 Sticky = 1 --> Maxnorm + 5 ulp
    ? 'fs1 == 0 and fe1 == 0x7fe and fm1 == 0x45141572f8653 and fs2 == 1 and fe2 ==
      0x3ff and fm2 == 0x1dcbabcf61390 and fs3 == 0 and fe3 == 0x7fd and fm3 == 0x2a2c060c7c8c5
      and rm_val == 1  #nosat'
    : 1 #  rs1_val==dnorm(0x7fe45141572f8653) and rs2_val==dnorm(0xbff1dcbabcf61390) and rs3_val==dnorm(0x7fd2a2c060c7c8c5) | Guard = 1 Round = 0 Sticky = 1 --> Maxnorm + 5 ulp
    ? 'fs1 == 0 and fe1 == 0x7fe and fm1 == 0x45141572f8653 and fs2 == 1 and fe2 ==
      0x3ff and fm2 == 0x1dcbabcf61390 and fs3 == 0 and fe3 == 0x7fd and fm3 == 0x2a2c060c7c8c5
      and rm_val == 0  #nosat'
    : 1 #  rs1_val==dnorm(0x7fe45141572f8653) and rs2_val==dnorm(0xbff1dcbabcf61390) and rs3_val==dnorm(0x7fd2a2c060c7c8c5) | Guard = 1 Round = 0 Sticky = 1 --> Maxnorm + 5 ulp
    ? 'fs1 == 0 and fe1 == 0x7fb and fm1 == 0x801fd982d9eb7 and fs2 == 1 and fe2 ==
      0x402 and fm2 == 0x11f2545056564 and fs3 == 0 and fe3 == 0x7fc and fm3 == 0x93c9b1b3642af
      and rm_val == 4  #nosat'
    : 1 #  rs1_val==dnorm(0x7fb801fd982d9eb7) and rs2_val==dnorm(0xc0211f2545056564) and rs3_val==dnorm(0x7fc93c9b1b3642af) | Guard = 1 Round = 0 Sticky = 0 --> Maxnorm - 4 ulp
    ? 'fs1 == 0 and fe1 == 0x7fb and fm1 == 0x801fd982d9eb7 and fs2 == 1 and fe2 ==
      0x402 and fm2 == 0x11f2545056564 and fs3 == 0 and fe3 == 0x7fc and fm3 == 0x93c9b1b3642af
      and rm_val == 3  #nosat'
    : 1 #  rs1_val==dnorm(0x7fb801fd982d9eb7) and rs2_val==dnorm(0xc0211f2545056564) and rs3_val==dnorm(0x7fc93c9b1b3642af) | Guard = 1 Round = 0 Sticky = 0 --> Maxnorm - 4 ulp
    ? 'fs1 == 0 and fe1 == 0x7fb and fm1 == 0x801fd982d9eb7 and fs2 == 1 and fe2 ==
      0x402 and fm2 == 0x11f2545056564 and fs3 == 0 and fe3 == 0x7fc and fm3 == 0x93c9b1b3642af
      and rm_val == 2  #nosat'
    : 1 #  rs1_val==dnorm(0x7fb801fd982d9eb7) and rs2_val==dnorm(0xc0211f2545056564) and rs3_val==dnorm(0x7fc93c9b1b3642af) | Guard = 1 Round = 0 Sticky = 0 --> Maxnorm - 4 ulp
    ? 'fs1 == 0 and fe1 == 0x7fb and fm1 == 0x801fd982d9eb7 and fs2 == 1 and fe2 ==
      0x402 and fm2 == 0x11f2545056564 and fs3 == 0 and fe3 == 0x7fc and fm3 == 0x93c9b1b3642af
      and rm_val == 1  #nosat'
    : 1 #  rs1_val==dnorm(0x7fb801fd982d9eb7) and rs2_val==dnorm(0xc0211f2545056564) and rs3_val==dnorm(0x7fc93c9b1b3642af) | Guard = 1 Round = 0 Sticky = 0 --> Maxnorm - 4 ulp
    ? 'fs1 == 0 and fe1 == 0x7fb and fm1 == 0x801fd982d9eb7 and fs2 == 1 and fe2 ==
      0x402 and fm2 == 0x11f2545056564 and fs3 == 0 and fe3 == 0x7fc and fm3 == 0x93c9b1b3642af
      and rm_val == 0  #nosat'
    : 1 #  rs1_val==dnorm(0x7fb801fd982d9eb7) and rs2_val==dnorm(0xc0211f2545056564) and rs3_val==dnorm(0x7fc93c9b1b3642af) | Guard = 1 Round = 0 Sticky = 0 --> Maxnorm - 4 ulp
    ? 'fs1 == 0 and fe1 == 0x7fe and fm1 == 0x9c0c529007f92 and fs2 == 1 and fe2 ==
      0x3fe and fm2 == 0x60f45914c4e4a and fs3 == 0 and fe3 == 0x7fd and fm3 == 0xc7e5c3598d2dd
      and rm_val == 4  #nosat'
    : 1 #  rs1_val==dnorm(0x7fe9c0c529007f92) and rs2_val==dnorm(0xbfe60f45914c4e4a) and rs3_val==dnorm(0x7fdc7e5c3598d2dd) | Guard = 1 Round = 0 Sticky = 0 --> Maxnorm + 4 ulp
    ? 'fs1 == 0 and fe1 == 0x7fe and fm1 == 0x9c0c529007f92 and fs2 == 1 and fe2 ==
      0x3fe and fm2 == 0x60f45914c4e4a and fs3 == 0 and fe3 == 0x7fd and fm3 == 0xc7e5c3598d2dd
      and rm_val == 3  #nosat'
    : 1 #  rs1_val==dnorm(0x7fe9c0c529007f92) and rs2_val==dnorm(0xbfe60f45914c4e4a) and rs3_val==dnorm(0x7fdc7e5c3598d2dd) | Guard = 1 Round = 0 Sticky = 0 --> Maxnorm + 4 ulp
    ? 'fs1 == 0 and fe1 == 0x7fe and fm1 == 0x9c0c529007f92 and fs2 == 1 and fe2 ==
      0x3fe and fm2 == 0x60f45914c4e4a and fs3 == 0 and fe3 == 0x7fd and fm3 == 0xc7e5c3598d2dd
      and rm_val == 2  #nosat'
    : 1 #  rs1_val==dnorm(0x7fe9c0c529007f92) and rs2_val==dnorm(0xbfe60f45914c4e4a) and rs3_val==dnorm(0x7fdc7e5c3598d2dd) | Guard = 1 Round = 0 Sticky = 0 --> Maxnorm + 4 ulp
    ? 'fs1 == 0 and fe1 == 0x7fe and fm1 == 0x9c0c529007f92 and fs2 == 1 and fe2 ==
      0x3fe and fm2 == 0x60f45914c4e4a and fs3 == 0 and fe3 == 0x7fd and fm3 == 0xc7e5c3598d2dd
      and rm_val == 1  #nosat'
    : 1 #  rs1_val==dnorm(0x7fe9c0c529007f92) and rs2_val==dnorm(0xbfe60f45914c4e4a) and rs3_val==dnorm(0x7fdc7e5c3598d2dd) | Guard = 1 Round = 0 Sticky = 0 --> Maxnorm + 4 ulp
    ? 'fs1 == 0 and fe1 == 0x7fe and fm1 == 0x9c0c529007f92 and fs2 == 1 and fe2 ==
      0x3fe and fm2 == 0x60f45914c4e4a and fs3 == 0 and fe3 == 0x7fd and fm3 == 0xc7e5c3598d2dd
      and rm_val == 0  #nosat'
    : 1 #  rs1_val==dnorm(0x7fe9c0c529007f92) and rs2_val==dnorm(0xbfe60f45914c4e4a) and rs3_val==dnorm(0x7fdc7e5c3598d2dd) | Guard = 1 Round = 0 Sticky = 0 --> Maxnorm + 4 ulp
    ? 'fs1 == 0 and fe1 == 0x7fb and fm1 == 0x7d7ab2b96a7d7 and fs2 == 1 and fe2 ==
      0x400 and fm2 == 0x127b826ba798f and fs3 == 0 and fe3 == 0x7fe and fm3 == 0x99bea81a3c895
      and rm_val == 4  #nosat'
    : 1 #  rs1_val==dnorm(0x7fb7d7ab2b96a7d7) and rs2_val==dnorm(0xc00127b826ba798f) and rs3_val==dnorm(0x7fe99bea81a3c895) | Guard = 0 Round = 1 Sticky = 1 --> Maxnorm - 3 ulp
    ? 'fs1 == 0 and fe1 == 0x7fb and fm1 == 0x7d7ab2b96a7d7 and fs2 == 1 and fe2 ==
      0x400 and fm2 == 0x127b826ba798f and fs3 == 0 and fe3 == 0x7fe and fm3 == 0x99bea81a3c895
      and rm_val == 3  #nosat'
    : 1 #  rs1_val==dnorm(0x7fb7d7ab2b96a7d7) and rs2_val==dnorm(0xc00127b826ba798f) and rs3_val==dnorm(0x7fe99bea81a3c895) | Guard = 0 Round = 1 Sticky = 1 --> Maxnorm - 3 ulp
    ? 'fs1 == 0 and fe1 == 0x7fb and fm1 == 0x7d7ab2b96a7d7 and fs2 == 1 and fe2 ==
      0x400 and fm2 == 0x127b826ba798f and fs3 == 0 and fe3 == 0x7fe and fm3 == 0x99bea81a3c895
      and rm_val == 2  #nosat'
    : 1 #  rs1_val==dnorm(0x7fb7d7ab2b96a7d7) and rs2_val==dnorm(0xc00127b826ba798f) and rs3_val==dnorm(0x7fe99bea81a3c895) | Guard = 0 Round = 1 Sticky = 1 --> Maxnorm - 3 ulp
    ? 'fs1 == 0 and fe1 == 0x7fb and fm1 == 0x7d7ab2b96a7d7 and fs2 == 1 and fe2 ==
      0x400 and fm2 == 0x127b826ba798f and fs3 == 0 and fe3 == 0x7fe and fm3 == 0x99bea81a3c895
      and rm_val == 1  #nosat'
    : 1 #  rs1_val==dnorm(0x7fb7d7ab2b96a7d7) and rs2_val==dnorm(0xc00127b826ba798f) and rs3_val==dnorm(0x7fe99bea81a3c895) | Guard = 0 Round = 1 Sticky = 1 --> Maxnorm - 3 ulp
    ? 'fs1 == 0 and fe1 == 0x7fb and fm1 == 0x7d7ab2b96a7d7 and fs2 == 1 and fe2 ==
      0x400 and fm2 == 0x127b826ba798f and fs3 == 0 and fe3 == 0x7fe and fm3 == 0x99bea81a3c895
      and rm_val == 0  #nosat'
    : 1 #  rs1_val==dnorm(0x7fb7d7ab2b96a7d7) and rs2_val==dnorm(0xc00127b826ba798f) and rs3_val==dnorm(0x7fe99bea81a3c895) | Guard = 0 Round = 1 Sticky = 1 --> Maxnorm - 3 ulp
    ? 'fs1 == 0 and fe1 == 0x7fe and fm1 == 0xb045c5db2e460 and fs2 == 1 and fe2 ==
      0x3fe and fm2 == 0x92eca9f589e22 and fs3 == 0 and fe3 == 0x7fd and fm3 == 0x57a2cffec0101
      and rm_val == 4  #nosat'
    : 1 #  rs1_val==dnorm(0x7feb045c5db2e460) and rs2_val==dnorm(0xbfe92eca9f589e22) and rs3_val==dnorm(0x7fd57a2cffec0101) | Guard = 0 Round = 1 Sticky = 1 --> Maxnorm + 3 ulp
    ? 'fs1 == 0 and fe1 == 0x7fe and fm1 == 0xb045c5db2e460 and fs2 == 1 and fe2 ==
      0x3fe and fm2 == 0x92eca9f589e22 and fs3 == 0 and fe3 == 0x7fd and fm3 == 0x57a2cffec0101
      and rm_val == 3  #nosat'
    : 1 #  rs1_val==dnorm(0x7feb045c5db2e460) and rs2_val==dnorm(0xbfe92eca9f589e22) and rs3_val==dnorm(0x7fd57a2cffec0101) | Guard = 0 Round = 1 Sticky = 1 --> Maxnorm + 3 ulp
    ? 'fs1 == 0 and fe1 == 0x7fe and fm1 == 0xb045c5db2e460 and fs2 == 1 and fe2 ==
      0x3fe and fm2 == 0x92eca9f589e22 and fs3 == 0 and fe3 == 0x7fd and fm3 == 0x57a2cffec0101
      and rm_val == 2  #nosat'
    : 1 #  rs1_val==dnorm(0x7feb045c5db2e460) and rs2_val==dnorm(0xbfe92eca9f589e22) and rs3_val==dnorm(0x7fd57a2cffec0101) | Guard = 0 Round = 1 Sticky = 1 --> Maxnorm + 3 ulp
    ? 'fs1 == 0 and fe1 == 0x7fe and fm1 == 0xb045c5db2e460 and fs2 == 1 and fe2 ==
      0x3fe and fm2 == 0x92eca9f589e22 and fs3 == 0 and fe3 == 0x7fd and fm3 == 0x57a2cffec0101
      and rm_val == 1  #nosat'
    : 1 #  rs1_val==dnorm(0x7feb045c5db2e460) and rs2_val==dnorm(0xbfe92eca9f589e22) and rs3_val==dnorm(0x7fd57a2cffec0101) | Guard = 0 Round = 1 Sticky = 1 --> Maxnorm + 3 ulp
    ? 'fs1 == 0 and fe1 == 0x7fe and fm1 == 0xb045c5db2e460 and fs2 == 1 and fe2 ==
      0x3fe and fm2 == 0x92eca9f589e22 and fs3 == 0 and fe3 == 0x7fd and fm3 == 0x57a2cffec0101
      and rm_val == 0  #nosat'
    : 1 #  rs1_val==dnorm(0x7feb045c5db2e460) and rs2_val==dnorm(0xbfe92eca9f589e22) and rs3_val==dnorm(0x7fd57a2cffec0101) | Guard = 0 Round = 1 Sticky = 1 --> Maxnorm + 3 ulp
    ? 'fs1 == 0 and fe1 == 0x7fe and fm1 == 0x9b52b2a70b02a and fs2 == 1 and fe2 ==
      0x3fd and fm2 == 0x90a1b3186f414 and fs3 == 0 and fe3 == 0x7fe and fm3 == 0x5f12be85a3941
      and rm_val == 4  #nosat'
    : 1 #  rs1_val==dnorm(0x7fe9b52b2a70b02a) and rs2_val==dnorm(0xbfd90a1b3186f414) and rs3_val==dnorm(0x7fe5f12be85a3941) | Guard = 0 Round = 1 Sticky = 0 --> Maxnorm - 2 ulp
    ? 'fs1 == 0 and fe1 == 0x7fe and fm1 == 0x9b52b2a70b02a and fs2 == 1 and fe2 ==
      0x3fd and fm2 == 0x90a1b3186f414 and fs3 == 0 and fe3 == 0x7fe and fm3 == 0x5f12be85a3941
      and rm_val == 3  #nosat'
    : 1 #  rs1_val==dnorm(0x7fe9b52b2a70b02a) and rs2_val==dnorm(0xbfd90a1b3186f414) and rs3_val==dnorm(0x7fe5f12be85a3941) | Guard = 0 Round = 1 Sticky = 0 --> Maxnorm - 2 ulp
    ? 'fs1 == 0 and fe1 == 0x7fe and fm1 == 0x9b52b2a70b02a and fs2 == 1 and fe2 ==
      0x3fd and fm2 == 0x90a1b3186f414 and fs3 == 0 and fe3 == 0x7fe and fm3 == 0x5f12be85a3941
      and rm_val == 2  #nosat'
    : 1 #  rs1_val==dnorm(0x7fe9b52b2a70b02a) and rs2_val==dnorm(0xbfd90a1b3186f414) and rs3_val==dnorm(0x7fe5f12be85a3941) | Guard = 0 Round = 1 Sticky = 0 --> Maxnorm - 2 ulp
    ? 'fs1 == 0 and fe1 == 0x7fe and fm1 == 0x9b52b2a70b02a and fs2 == 1 and fe2 ==
      0x3fd and fm2 == 0x90a1b3186f414 and fs3 == 0 and fe3 == 0x7fe and fm3 == 0x5f12be85a3941
      and rm_val == 1  #nosat'
    : 1 #  rs1_val==dnorm(0x7fe9b52b2a70b02a) and rs2_val==dnorm(0xbfd90a1b3186f414) and rs3_val==dnorm(0x7fe5f12be85a3941) | Guard = 0 Round = 1 Sticky = 0 --> Maxnorm - 2 ulp
    ? 'fs1 == 0 and fe1 == 0x7fe and fm1 == 0x9b52b2a70b02a and fs2 == 1 and fe2 ==
      0x3fd and fm2 == 0x90a1b3186f414 and fs3 == 0 and fe3 == 0x7fe and fm3 == 0x5f12be85a3941
      and rm_val == 0  #nosat'
    : 1 #  rs1_val==dnorm(0x7fe9b52b2a70b02a) and rs2_val==dnorm(0xbfd90a1b3186f414) and rs3_val==dnorm(0x7fe5f12be85a3941) | Guard = 0 Round = 1 Sticky = 0 --> Maxnorm - 2 ulp
    ? 'fs1 == 0 and fe1 == 0x7fe and fm1 == 0x9c39382ea6198 and fs2 == 1 and fe2 ==
      0x3fe and fm2 == 0xd3132b6e16bb3 and fs3 == 0 and fe3 == 0x7fd and fm3 == 0x0fe4c054d9e8b
      and rm_val == 4  #nosat'
    : 1 #  rs1_val==dnorm(0x7fe9c39382ea6198) and rs2_val==dnorm(0xbfed3132b6e16bb3) and rs3_val==dnorm(0x7fd0fe4c054d9e8b) | Guard = 0 Round = 1 Sticky = 0 --> Maxnorm + 2 ulp
    ? 'fs1 == 0 and fe1 == 0x7fe and fm1 == 0x9c39382ea6198 and fs2 == 1 and fe2 ==
      0x3fe and fm2 == 0xd3132b6e16bb3 and fs3 == 0 and fe3 == 0x7fd and fm3 == 0x0fe4c054d9e8b
      and rm_val == 3  #nosat'
    : 1 #  rs1_val==dnorm(0x7fe9c39382ea6198) and rs2_val==dnorm(0xbfed3132b6e16bb3) and rs3_val==dnorm(0x7fd0fe4c054d9e8b) | Guard = 0 Round = 1 Sticky = 0 --> Maxnorm + 2 ulp
    ? 'fs1 == 0 and fe1 == 0x7fe and fm1 == 0x9c39382ea6198 and fs2 == 1 and fe2 ==
      0x3fe and fm2 == 0xd3132b6e16bb3 and fs3 == 0 and fe3 == 0x7fd and fm3 == 0x0fe4c054d9e8b
      and rm_val == 2  #nosat'
    : 1 #  rs1_val==dnorm(0x7fe9c39382ea6198) and rs2_val==dnorm(0xbfed3132b6e16bb3) and rs3_val==dnorm(0x7fd0fe4c054d9e8b) | Guard = 0 Round = 1 Sticky = 0 --> Maxnorm + 2 ulp
    ? 'fs1 == 0 and fe1 == 0x7fe and fm1 == 0x9c39382ea6198 and fs2 == 1 and fe2 ==
      0x3fe and fm2 == 0xd3132b6e16bb3 and fs3 == 0 and fe3 == 0x7fd and fm3 == 0x0fe4c054d9e8b
      and rm_val == 1  #nosat'
    : 1 #  rs1_val==dnorm(0x7fe9c39382ea6198) and rs2_val==dnorm(0xbfed3132b6e16bb3) and rs3_val==dnorm(0x7fd0fe4c054d9e8b) | Guard = 0 Round = 1 Sticky = 0 --> Maxnorm + 2 ulp
    ? 'fs1 == 0 and fe1 == 0x7fe and fm1 == 0x9c39382ea6198 and fs2 == 1 and fe2 ==
      0x3fe and fm2 == 0xd3132b6e16bb3 and fs3 == 0 and fe3 == 0x7fd and fm3 == 0x0fe4c054d9e8b
      and rm_val == 0  #nosat'
    : 1 #  rs1_val==dnorm(0x7fe9c39382ea6198) and rs2_val==dnorm(0xbfed3132b6e16bb3) and rs3_val==dnorm(0x7fd0fe4c054d9e8b) | Guard = 0 Round = 1 Sticky = 0 --> Maxnorm + 2 ulp
    ? 'fs1 == 0 and fe1 == 0x7fc and fm1 == 0x8b3ba7903c2ab and fs2 == 1 and fe2 ==
      0x400 and fm2 == 0x2812387ceaf57 and fs3 == 0 and fe3 == 0x7fe and fm3 == 0x1b73726cc4ff0
      and rm_val == 4  #nosat'
    : 1 #  rs1_val==dnorm(0x7fc8b3ba7903c2ab) and rs2_val==dnorm(0xc002812387ceaf57) and rs3_val==dnorm(0x7fe1b73726cc4ff0) | Guard = 0 Round = 0 Sticky = 1 --> Maxnorm - 1 ulp
    ? 'fs1 == 0 and fe1 == 0x7fc and fm1 == 0x8b3ba7903c2ab and fs2 == 1 and fe2 ==
      0x400 and fm2 == 0x2812387ceaf57 and fs3 == 0 and fe3 == 0x7fe and fm3 == 0x1b73726cc4ff0
      and rm_val == 3  #nosat'
    : 1 #  rs1_val==dnorm(0x7fc8b3ba7903c2ab) and rs2_val==dnorm(0xc002812387ceaf57) and rs3_val==dnorm(0x7fe1b73726cc4ff0) | Guard = 0 Round = 0 Sticky = 1 --> Maxnorm - 1 ulp
    ? 'fs1 == 0 and fe1 == 0x7fc and fm1 == 0x8b3ba7903c2ab and fs2 == 1 and fe2 ==
      0x400 and fm2 == 0x2812387ceaf57 and fs3 == 0 and fe3 == 0x7fe and fm3 == 0x1b73726cc4ff0
      and rm_val == 2  #nosat'
    : 1 #  rs1_val==dnorm(0x7fc8b3ba7903c2ab) and rs2_val==dnorm(0xc002812387ceaf57) and rs3_val==dnorm(0x7fe1b73726cc4ff0) | Guard = 0 Round = 0 Sticky = 1 --> Maxnorm - 1 ulp
    ? 'fs1 == 0 and fe1 == 0x7fc and fm1 == 0x8b3ba7903c2ab and fs2 == 1 and fe2 ==
      0x400 and fm2 == 0x2812387ceaf57 and fs3 == 0 and fe3 == 0x7fe and fm3 == 0x1b73726cc4ff0
      and rm_val == 1  #nosat'
    : 1 #  rs1_val==dnorm(0x7fc8b3ba7903c2ab) and rs2_val==dnorm(0xc002812387ceaf57) and rs3_val==dnorm(0x7fe1b73726cc4ff0) | Guard = 0 Round = 0 Sticky = 1 --> Maxnorm - 1 ulp
    ? 'fs1 == 0 and fe1 == 0x7fc and fm1 == 0x8b3ba7903c2ab and fs2 == 1 and fe2 ==
      0x400 and fm2 == 0x2812387ceaf57 and fs3 == 0 and fe3 == 0x7fe and fm3 == 0x1b73726cc4ff0
      and rm_val == 0  #nosat'
    : 1 #  rs1_val==dnorm(0x7fc8b3ba7903c2ab) and rs2_val==dnorm(0xc002812387ceaf57) and rs3_val==dnorm(0x7fe1b73726cc4ff0) | Guard = 0 Round = 0 Sticky = 1 --> Maxnorm - 1 ulp
    ? 'fs1 == 0 and fe1 == 0x7fe and fm1 == 0x139cbde283143 and fs2 == 1 and fe2 ==
      0x3fe and fm2 == 0x2e6942188ddd7 and fs3 == 0 and fe3 == 0x7fe and fm3 == 0x5d35e2c6078a3
      and rm_val == 4  #nosat'
    : 1 #  rs1_val==dnorm(0x7fe139cbde283143) and rs2_val==dnorm(0xbfe2e6942188ddd7) and rs3_val==dnorm(0x7fe5d35e2c6078a3) | Guard = 0 Round = 0 Sticky = 1 --> Maxnorm + 1 ulp
    ? 'fs1 == 0 and fe1 == 0x7fe and fm1 == 0x139cbde283143 and fs2 == 1 and fe2 ==
      0x3fe and fm2 == 0x2e6942188ddd7 and fs3 == 0 and fe3 == 0x7fe and fm3 == 0x5d35e2c6078a3
      and rm_val == 3  #nosat'
    : 1 #  rs1_val==dnorm(0x7fe139cbde283143) and rs2_val==dnorm(0xbfe2e6942188ddd7) and rs3_val==dnorm(0x7fe5d35e2c6078a3) | Guard = 0 Round = 0 Sticky = 1 --> Maxnorm + 1 ulp
    ? 'fs1 == 0 and fe1 == 0x7fe and fm1 == 0x139cbde283143 and fs2 == 1 and fe2 ==
      0x3fe and fm2 == 0x2e6942188ddd7 and fs3 == 0 and fe3 == 0x7fe and fm3 == 0x5d35e2c6078a3
      and rm_val == 2  #nosat'
    : 1 #  rs1_val==dnorm(0x7fe139cbde283143) and rs2_val==dnorm(0xbfe2e6942188ddd7) and rs3_val==dnorm(0x7fe5d35e2c6078a3) | Guard = 0 Round = 0 Sticky = 1 --> Maxnorm + 1 ulp
    ? 'fs1 == 0 and fe1 == 0x7fe and fm1 == 0x139cbde283143 and fs2 == 1 and fe2 ==
      0x3fe and fm2 == 0x2e6942188ddd7 and fs3 == 0 and fe3 == 0x7fe and fm3 == 0x5d35e2c6078a3
      and rm_val == 1  #nosat'
    : 1 #  rs1_val==dnorm(0x7fe139cbde283143) and rs2_val==dnorm(0xbfe2e6942188ddd7) and rs3_val==dnorm(0x7fe5d35e2c6078a3) | Guard = 0 Round = 0 Sticky = 1 --> Maxnorm + 1 ulp
    coverage: 140/140
  total_coverage: 281/281
