---
fmv.x.w_b24:
  config:
  - check ISA:=regex(.*I.*F.*)
  opcode:
    fmv.x.w: 33
    coverage: 1/1
  rd:
    x0: 1
    x1: 1
    x10: 1
    x11: 1
    x12: 1
    x13: 1
    x14: 1
    x15: 1
    x16: 1
    x17: 1
    x18: 1
    x19: 1
    x2: 1
    x20: 1
    x21: 1
    x22: 1
    x23: 1
    x24: 1
    x25: 1
    x26: 1
    x27: 1
    x28: 1
    x29: 1
    x3: 1
    x30: 1
    x31: 2
    x4: 1
    x5: 1
    x6: 1
    x7: 1
    x8: 1
    x9: 1
    coverage: 32/32
  rs1:
    f0: 1
    f1: 1
    f10: 1
    f11: 1
    f12: 1
    f13: 1
    f14: 1
    f15: 1
    f16: 1
    f17: 1
    f18: 1
    f19: 1
    f2: 1
    f20: 1
    f21: 1
    f22: 1
    f23: 1
    f24: 1
    f25: 1
    f26: 1
    f27: 1
    f28: 1
    f29: 1
    f3: 1
    f30: 1
    f31: 2
    f4: 1
    f5: 1
    f6: 1
    f7: 1
    f8: 1
    f9: 1
    coverage: 32/32
  val_comb:
    'fs1 == 0 and fe1 == 0x7e and fm1 == 0x666666 and rm_val == 0  #nosat': 1  #  rs1_val==fnorm(0x3f666666) | +1-0.1
    'fs1 == 0 and fe1 == 0x00 and fm1 == 0x0007f0 and rm_val == 0  #nosat': 1 #  rs1_val==fsubnorm(0x000007f0) | -0-0
    'fs1 == 1 and fe1 == 0x7b and fm1 == 0x4ccccc and rm_val == 0  #nosat': 1 #  rs1_val==fnorm(0xbdcccccc) | -0-0.1
    'fs1 == 0 and fe1 == 0x7f and fm1 == 0x0ccccc and rm_val == 0  #nosat': 1 #  rs1_val==fnorm(0x3f8ccccc) | +1+0.1
    'fs1 == 1 and fe1 == 0x7f and fm1 == 0x000000 and rm_val == 0  #nosat': 1 #  rs1_val==fone(0xbf800000) | -1-0
    'fs1 == 0 and fe1 == 0x7f and fm1 == 0x0e147a and rm_val == 0  #nosat': 1 #  rs1_val==fnorm(0x3f8e147a) | +1+0.11
    'fs1 == 0 and fe1 == 0x7b and fm1 == 0x6147ae and rm_val == 0  #nosat': 1 #  rs1_val==fnorm(0x3de147ae) | +0+0.11
    'fs1 == 0 and fe1 == 0x78 and fm1 == 0x23d70a and rm_val == 0  #nosat': 1 #  rs1_val==fnorm(0x3c23d70a) | +0+0.01
    'fs1 == 0 and fe1 == 0x7e and fm1 == 0x7d70a3 and rm_val == 0  #nosat': 1 #  rs1_val==fnorm(0x3f7d70a3) | +1-0.01
    'fs1 == 1 and fe1 == 0x7f and fm1 == 0x0147ae and rm_val == 0  #nosat': 1 #  rs1_val==fnorm(0xbf8147ae) | -1-0.01
    'fs1 == 1 and fe1 == 0x7b and fm1 == 0x6147ae and rm_val == 0  #nosat': 2 #  rs1_val==fnorm(0xbde147ae) | -0-0.11
    'fs1 == 0 and fe1 == 0x7f and fm1 == 0x000000 and rm_val == 0  #nosat': 1 #  rs1_val==fone(0x3f800000) | +1-0
    'fs1 == 1 and fe1 == 0x7e and fm1 == 0x666666 and rm_val == 0  #nosat': 1 #  rs1_val==fnorm(0xbf666666) | -1+0.1
    'fs1 == 1 and fe1 == 0x78 and fm1 == 0x23d70a and rm_val == 0  #nosat': 1 #  rs1_val==fnorm(0xbc23d70a) | +0-0.01
    'fs1 == 1 and fe1 == 0x7e and fm1 == 0x7d70a3 and rm_val == 0  #nosat': 1 #  rs1_val==fnorm(0xbf7d70a3) | -1+0.01
    'fs1 == 1 and fe1 == 0x7f and fm1 == 0x0e147a and rm_val == 0  #nosat': 1 #  rs1_val==fnorm(0xbf8e147a) | -1-0.11
    'fs1 == 0 and fe1 == 0x7b and fm1 == 0x4ccccc and rm_val == 0  #nosat': 1 #  rs1_val==fnorm(0x3dcccccc) | -0+0.1
    'fs1 == 1 and fe1 == 0x7f and fm1 == 0x0ccccc and rm_val == 0  #nosat': 1 #  rs1_val==fnorm(0xbf8ccccc) | -1-0.1
    'fs1 == 0 and fe1 == 0x7f and fm1 == 0x0147ae and rm_val == 0  #nosat': 1 #  rs1_val==fnorm(0x3f8147ae) | +1+0.01
    'fs1 == 0 and fe1 == 0x7e and fm1 == 0x63d70a and rm_val == 0  #nosat': 1 #  rs1_val==fnorm(0x3f63d70a) | +1-0.11
    'fs1 == 1 and fe1 == 0x7e and fm1 == 0x63d70a and rm_val == 0  #nosat': 1 #  rs1_val==fnorm(0xbf63d70a) | -1+0.11
    coverage: 21/21
  total_coverage: 86/86
