---
fnmsub_b4:
  config:
  - check ISA:=regex(.*I.*F.*)
  op_comb:
    rd == rs2 == rs3 != rs1: 1
    rs1 != rs2 and rs1 != rd and rs1 != rs3 and rs2 != rs3 and rs2 != rd and rs3 != rd: 137
    rs1 == rd != rs2 and rs1 == rd != rs3 and rs3 != rs2: 1
    rs1 == rd == rs3 != rs2: 1
    rs1 == rs2 != rs3 and rs1 == rs2 != rd and rd != rs3: 1
    rs1 == rs2 == rd != rs3: 1
    rs1 == rs2 == rs3 != rd: 1
    rs1 == rs2 == rs3 == rd: 1
    rs1 == rs3 != rs2 and rs1 == rs3 != rd and rd != rs2: 1
    rs2 == rd != rs1 and rs2 == rd != rs3 and rs3 != rs1: 1
    rs2 == rs3 != rs1 and rs2 == rs3 != rd and rd != rs1: 1
    rs3 == rd != rs1 and rs3 == rd != rs2 and rs2 != rs1: 1
    coverage: 12/12
  opcode:
    fnmsub.d: 148
    coverage: 1/1
  rd:
    f0: 1
    f1: 1
    f10: 1
    f11: 1
    f12: 1
    f13: 1
    f14: 1
    f15: 1
    f16: 1
    f17: 1
    f18: 1
    f19: 1
    f2: 1
    f20: 1
    f21: 1
    f22: 1
    f23: 1
    f24: 1
    f25: 1
    f26: 1
    f27: 1
    f28: 1
    f29: 1
    f3: 1
    f30: 1
    f31: 117
    f4: 1
    f5: 1
    f6: 1
    f7: 1
    f8: 1
    f9: 1
    coverage: 32/32
  rs1:
    f0: 1
    f1: 1
    f10: 1
    f11: 1
    f12: 1
    f13: 1
    f14: 1
    f15: 1
    f16: 1
    f17: 1
    f18: 1
    f19: 1
    f2: 1
    f20: 1
    f21: 1
    f22: 1
    f23: 1
    f24: 1
    f25: 1
    f26: 1
    f27: 1
    f28: 1
    f29: 1
    f3: 1
    f30: 117
    f31: 1
    f4: 1
    f5: 1
    f6: 1
    f7: 1
    f8: 1
    f9: 1
    coverage: 32/32
  rs2:
    f0: 1
    f1: 1
    f10: 1
    f11: 1
    f12: 1
    f13: 1
    f14: 1
    f15: 1
    f16: 1
    f17: 1
    f18: 1
    f19: 1
    f2: 1
    f20: 1
    f21: 1
    f22: 1
    f23: 1
    f24: 1
    f25: 1
    f26: 1
    f27: 1
    f28: 1
    f29: 117
    f3: 1
    f30: 1
    f31: 1
    f4: 1
    f5: 1
    f6: 1
    f7: 1
    f8: 1
    f9: 1
    coverage: 32/32
  rs3:
    f0: 1
    f1: 1
    f10: 1
    f11: 1
    f12: 1
    f13: 1
    f14: 1
    f15: 1
    f16: 1
    f17: 1
    f18: 1
    f19: 1
    f2: 1
    f20: 1
    f21: 1
    f22: 1
    f23: 1
    f24: 1
    f25: 1
    f26: 1
    f27: 1
    f28: 117
    f29: 1
    f3: 1
    f30: 1
    f31: 1
    f4: 1
    f5: 1
    f6: 1
    f7: 1
    f8: 1
    f9: 1
    coverage: 32/32
  val_comb:
    ? 'fs1 == 0 and fe1 == 0x7fb and fm1 == 0x6edc5cf85ef57 and fs2 == 1 and fe2 ==
      0x402 and fm2 == 0xb8f2e4f11fd26 and fs3 == 0 and fe3 == 0x7fc and fm3 == 0xdf9b50c24f6a7
      and rm_val == 0  #nosat'
    : 1  #  rs1_val==dnorm(0x7fb6edc5cf85ef57) and rs2_val==dnorm(0xc02b8f2e4f11fd26) and rs3_val==dnorm(0x7fcdf9b50c24f6a7) | Guard = 0 Round = 0 Sticky = 1 --> Maxnorm + 1 ulp
    ? 'fs1 == 0 and fe1 == 0x7fd and fm1 == 0x81f8e726306f5 and fs2 == 1 and fe2 ==
      0x3f8 and fm2 == 0x49e96e9cad6d5 and fs3 == 0 and fe3 == 0x7fe and fm3 == 0xab2b7e6d25349
      and rm_val == 4  #nosat'
    : 1 #  rs1_val==dnorm(0x7fd81f8e726306f5) and rs2_val==dnorm(0xbf849e96e9cad6d5) and rs3_val==dnorm(0x7feab2b7e6d25349) | Exponent = 1026 Number = -ve
    ? 'fs1 == 0 and fe1 == 0x7fd and fm1 == 0x81f8e726306f5 and fs2 == 1 and fe2 ==
      0x3f8 and fm2 == 0x49e96e9cad6d5 and fs3 == 0 and fe3 == 0x7fe and fm3 == 0xab2b7e6d25349
      and rm_val == 3  #nosat'
    : 1 #  rs1_val==dnorm(0x7fd81f8e726306f5) and rs2_val==dnorm(0xbf849e96e9cad6d5) and rs3_val==dnorm(0x7feab2b7e6d25349) | Exponent = 1026 Number = -ve
    ? 'fs1 == 0 and fe1 == 0x7fd and fm1 == 0x81f8e726306f5 and fs2 == 1 and fe2 ==
      0x3f8 and fm2 == 0x49e96e9cad6d5 and fs3 == 0 and fe3 == 0x7fe and fm3 == 0xab2b7e6d25349
      and rm_val == 2  #nosat'
    : 1 #  rs1_val==dnorm(0x7fd81f8e726306f5) and rs2_val==dnorm(0xbf849e96e9cad6d5) and rs3_val==dnorm(0x7feab2b7e6d25349) | Exponent = 1026 Number = -ve
    ? 'fs1 == 0 and fe1 == 0x7fd and fm1 == 0x81f8e726306f5 and fs2 == 1 and fe2 ==
      0x3f8 and fm2 == 0x49e96e9cad6d5 and fs3 == 0 and fe3 == 0x7fe and fm3 == 0xab2b7e6d25349
      and rm_val == 1  #nosat'
    : 1 #  rs1_val==dnorm(0x7fd81f8e726306f5) and rs2_val==dnorm(0xbf849e96e9cad6d5) and rs3_val==dnorm(0x7feab2b7e6d25349) | Exponent = 1026 Number = -ve
    ? 'fs1 == 0 and fe1 == 0x7fd and fm1 == 0x81f8e726306f5 and fs2 == 1 and fe2 ==
      0x3f8 and fm2 == 0x49e96e9cad6d5 and fs3 == 0 and fe3 == 0x7fe and fm3 == 0xab2b7e6d25349
      and rm_val == 0  #nosat'
    : 1 #  rs1_val==dnorm(0x7fd81f8e726306f5) and rs2_val==dnorm(0xbf849e96e9cad6d5) and rs3_val==dnorm(0x7feab2b7e6d25349) | Exponent = 1026 Number = -ve
    ? 'fs1 == 0 and fe1 == 0x7fd and fm1 == 0x113f1b844ec29 and fs2 == 1 and fe2 ==
      0x402 and fm2 == 0x194cca6feaee6 and fs3 == 0 and fe3 == 0x7fd and fm3 == 0xb19041a09c655
      and rm_val == 4  #nosat'
    : 1 #  rs1_val==dnorm(0x7fd113f1b844ec29) and rs2_val==dnorm(0xc02194cca6feaee6) and rs3_val==dnorm(0x7fdb19041a09c655) | Exponent = 1026 Number = +ve
    ? 'fs1 == 0 and fe1 == 0x7fd and fm1 == 0x113f1b844ec29 and fs2 == 1 and fe2 ==
      0x402 and fm2 == 0x194cca6feaee6 and fs3 == 0 and fe3 == 0x7fd and fm3 == 0xb19041a09c655
      and rm_val == 3  #nosat'
    : 1 #  rs1_val==dnorm(0x7fd113f1b844ec29) and rs2_val==dnorm(0xc02194cca6feaee6) and rs3_val==dnorm(0x7fdb19041a09c655) | Exponent = 1026 Number = +ve
    ? 'fs1 == 0 and fe1 == 0x7fd and fm1 == 0x113f1b844ec29 and fs2 == 1 and fe2 ==
      0x402 and fm2 == 0x194cca6feaee6 and fs3 == 0 and fe3 == 0x7fd and fm3 == 0xb19041a09c655
      and rm_val == 2  #nosat'
    : 1 #  rs1_val==dnorm(0x7fd113f1b844ec29) and rs2_val==dnorm(0xc02194cca6feaee6) and rs3_val==dnorm(0x7fdb19041a09c655) | Exponent = 1026 Number = +ve
    ? 'fs1 == 0 and fe1 == 0x7fd and fm1 == 0x113f1b844ec29 and fs2 == 1 and fe2 ==
      0x402 and fm2 == 0x194cca6feaee6 and fs3 == 0 and fe3 == 0x7fd and fm3 == 0xb19041a09c655
      and rm_val == 1  #nosat'
    : 1 #  rs1_val==dnorm(0x7fd113f1b844ec29) and rs2_val==dnorm(0xc02194cca6feaee6) and rs3_val==dnorm(0x7fdb19041a09c655) | Exponent = 1026 Number = +ve
    ? 'fs1 == 0 and fe1 == 0x7fd and fm1 == 0x113f1b844ec29 and fs2 == 1 and fe2 ==
      0x402 and fm2 == 0x194cca6feaee6 and fs3 == 0 and fe3 == 0x7fd and fm3 == 0xb19041a09c655
      and rm_val == 0  #nosat'
    : 1 #  rs1_val==dnorm(0x7fd113f1b844ec29) and rs2_val==dnorm(0xc02194cca6feaee6) and rs3_val==dnorm(0x7fdb19041a09c655) | Exponent = 1026 Number = +ve
    ? 'fs1 == 0 and fe1 == 0x7f8 and fm1 == 0x867824bb36ebf and fs2 == 0 and fe2 ==
      0x407 and fm2 == 0x8295552baee7e and fs3 == 0 and fe3 == 0x7fd and fm3 == 0x5f78051c221f1
      and rm_val == 4  #nosat'
    : 1 #  rs1_val==dnorm(0x7f8867824bb36ebf) and rs2_val==dnorm(0x4078295552baee7e) and rs3_val==dnorm(0x7fd5f78051c221f1) | Exponent = 1025 Number = -ve
    ? 'fs1 == 0 and fe1 == 0x7f8 and fm1 == 0x867824bb36ebf and fs2 == 0 and fe2 ==
      0x407 and fm2 == 0x8295552baee7e and fs3 == 0 and fe3 == 0x7fd and fm3 == 0x5f78051c221f1
      and rm_val == 3  #nosat'
    : 1 #  rs1_val==dnorm(0x7f8867824bb36ebf) and rs2_val==dnorm(0x4078295552baee7e) and rs3_val==dnorm(0x7fd5f78051c221f1) | Exponent = 1025 Number = -ve
    ? 'fs1 == 0 and fe1 == 0x7f8 and fm1 == 0x867824bb36ebf and fs2 == 0 and fe2 ==
      0x407 and fm2 == 0x8295552baee7e and fs3 == 0 and fe3 == 0x7fd and fm3 == 0x5f78051c221f1
      and rm_val == 2  #nosat'
    : 1 #  rs1_val==dnorm(0x7f8867824bb36ebf) and rs2_val==dnorm(0x4078295552baee7e) and rs3_val==dnorm(0x7fd5f78051c221f1) | Exponent = 1025 Number = -ve
    ? 'fs1 == 0 and fe1 == 0x7f8 and fm1 == 0x867824bb36ebf and fs2 == 0 and fe2 ==
      0x407 and fm2 == 0x8295552baee7e and fs3 == 0 and fe3 == 0x7fd and fm3 == 0x5f78051c221f1
      and rm_val == 1  #nosat'
    : 1 #  rs1_val==dnorm(0x7f8867824bb36ebf) and rs2_val==dnorm(0x4078295552baee7e) and rs3_val==dnorm(0x7fd5f78051c221f1) | Exponent = 1025 Number = -ve
    ? 'fs1 == 0 and fe1 == 0x7f8 and fm1 == 0x867824bb36ebf and fs2 == 0 and fe2 ==
      0x407 and fm2 == 0x8295552baee7e and fs3 == 0 and fe3 == 0x7fd and fm3 == 0x5f78051c221f1
      and rm_val == 0  #nosat'
    : 1 #  rs1_val==dnorm(0x7f8867824bb36ebf) and rs2_val==dnorm(0x4078295552baee7e) and rs3_val==dnorm(0x7fd5f78051c221f1) | Exponent = 1025 Number = -ve
    ? 'fs1 == 0 and fe1 == 0x7fc and fm1 == 0xc277c8581da67 and fs2 == 1 and fe2 ==
      0x403 and fm2 == 0x5b5bea83c3f5c and fs3 == 0 and fe3 == 0x7fc and fm3 == 0xf37aa6e86c68b
      and rm_val == 4  #nosat'
    : 1 #  rs1_val==dnorm(0x7fcc277c8581da67) and rs2_val==dnorm(0xc035b5bea83c3f5c) and rs3_val==dnorm(0x7fcf37aa6e86c68b) | Exponent = 1025 Number = +ve
    ? 'fs1 == 0 and fe1 == 0x7fc and fm1 == 0xc277c8581da67 and fs2 == 1 and fe2 ==
      0x403 and fm2 == 0x5b5bea83c3f5c and fs3 == 0 and fe3 == 0x7fc and fm3 == 0xf37aa6e86c68b
      and rm_val == 3  #nosat'
    : 1 #  rs1_val==dnorm(0x7fcc277c8581da67) and rs2_val==dnorm(0xc035b5bea83c3f5c) and rs3_val==dnorm(0x7fcf37aa6e86c68b) | Exponent = 1025 Number = +ve
    ? 'fs1 == 0 and fe1 == 0x7fc and fm1 == 0xc277c8581da67 and fs2 == 1 and fe2 ==
      0x403 and fm2 == 0x5b5bea83c3f5c and fs3 == 0 and fe3 == 0x7fc and fm3 == 0xf37aa6e86c68b
      and rm_val == 2  #nosat'
    : 1 #  rs1_val==dnorm(0x7fcc277c8581da67) and rs2_val==dnorm(0xc035b5bea83c3f5c) and rs3_val==dnorm(0x7fcf37aa6e86c68b) | Exponent = 1025 Number = +ve
    ? 'fs1 == 0 and fe1 == 0x7fc and fm1 == 0xc277c8581da67 and fs2 == 1 and fe2 ==
      0x403 and fm2 == 0x5b5bea83c3f5c and fs3 == 0 and fe3 == 0x7fc and fm3 == 0xf37aa6e86c68b
      and rm_val == 1  #nosat'
    : 1 #  rs1_val==dnorm(0x7fcc277c8581da67) and rs2_val==dnorm(0xc035b5bea83c3f5c) and rs3_val==dnorm(0x7fcf37aa6e86c68b) | Exponent = 1025 Number = +ve
    ? 'fs1 == 0 and fe1 == 0x7fc and fm1 == 0xc277c8581da67 and fs2 == 1 and fe2 ==
      0x403 and fm2 == 0x5b5bea83c3f5c and fs3 == 0 and fe3 == 0x7fc and fm3 == 0xf37aa6e86c68b
      and rm_val == 0  #nosat'
    : 1 #  rs1_val==dnorm(0x7fcc277c8581da67) and rs2_val==dnorm(0xc035b5bea83c3f5c) and rs3_val==dnorm(0x7fcf37aa6e86c68b) | Exponent = 1025 Number = +ve
    ? 'fs1 == 0 and fe1 == 0x7fe and fm1 == 0x03cc30fa6fa7d and fs2 == 0 and fe2 ==
      0x401 and fm2 == 0xeaa5a1d3c9b55 and fs3 == 0 and fe3 == 0x7fe and fm3 == 0x67101be2e03ab
      and rm_val == 4  #nosat'
    : 1 #  rs1_val==dnorm(0x7fe03cc30fa6fa7d) and rs2_val==dnorm(0x401eaa5a1d3c9b55) and rs3_val==dnorm(0x7fe67101be2e03ab) | Exponent = 1024 Number = -ve
    ? 'fs1 == 0 and fe1 == 0x7fe and fm1 == 0x03cc30fa6fa7d and fs2 == 0 and fe2 ==
      0x401 and fm2 == 0xeaa5a1d3c9b55 and fs3 == 0 and fe3 == 0x7fe and fm3 == 0x67101be2e03ab
      and rm_val == 3  #nosat'
    : 1 #  rs1_val==dnorm(0x7fe03cc30fa6fa7d) and rs2_val==dnorm(0x401eaa5a1d3c9b55) and rs3_val==dnorm(0x7fe67101be2e03ab) | Exponent = 1024 Number = -ve
    ? 'fs1 == 0 and fe1 == 0x7fe and fm1 == 0x03cc30fa6fa7d and fs2 == 0 and fe2 ==
      0x401 and fm2 == 0xeaa5a1d3c9b55 and fs3 == 0 and fe3 == 0x7fe and fm3 == 0x67101be2e03ab
      and rm_val == 2  #nosat'
    : 1 #  rs1_val==dnorm(0x7fe03cc30fa6fa7d) and rs2_val==dnorm(0x401eaa5a1d3c9b55) and rs3_val==dnorm(0x7fe67101be2e03ab) | Exponent = 1024 Number = -ve
    ? 'fs1 == 0 and fe1 == 0x7fe and fm1 == 0x03cc30fa6fa7d and fs2 == 0 and fe2 ==
      0x401 and fm2 == 0xeaa5a1d3c9b55 and fs3 == 0 and fe3 == 0x7fe and fm3 == 0x67101be2e03ab
      and rm_val == 1  #nosat'
    : 1 #  rs1_val==dnorm(0x7fe03cc30fa6fa7d) and rs2_val==dnorm(0x401eaa5a1d3c9b55) and rs3_val==dnorm(0x7fe67101be2e03ab) | Exponent = 1024 Number = -ve
    ? 'fs1 == 0 and fe1 == 0x7fe and fm1 == 0x03cc30fa6fa7d and fs2 == 0 and fe2 ==
      0x401 and fm2 == 0xeaa5a1d3c9b55 and fs3 == 0 and fe3 == 0x7fe and fm3 == 0x67101be2e03ab
      and rm_val == 0  #nosat'
    : 1 #  rs1_val==dnorm(0x7fe03cc30fa6fa7d) and rs2_val==dnorm(0x401eaa5a1d3c9b55) and rs3_val==dnorm(0x7fe67101be2e03ab) | Exponent = 1024 Number = -ve
    ? 'fs1 == 0 and fe1 == 0x7fb and fm1 == 0x248a2b9dc22bf and fs2 == 1 and fe2 ==
      0x403 and fm2 == 0x5a233041e3ac1 and fs3 == 0 and fe3 == 0x7fe and fm3 == 0xce72ef36d4887
      and rm_val == 4  #nosat'
    : 1 #  rs1_val==dnorm(0x7fb248a2b9dc22bf) and rs2_val==dnorm(0xc035a233041e3ac1) and rs3_val==dnorm(0x7fece72ef36d4887) | Exponent = 1024 Number = +ve
    ? 'fs1 == 0 and fe1 == 0x7fb and fm1 == 0x248a2b9dc22bf and fs2 == 1 and fe2 ==
      0x403 and fm2 == 0x5a233041e3ac1 and fs3 == 0 and fe3 == 0x7fe and fm3 == 0xce72ef36d4887
      and rm_val == 3  #nosat'
    : 1 #  rs1_val==dnorm(0x7fb248a2b9dc22bf) and rs2_val==dnorm(0xc035a233041e3ac1) and rs3_val==dnorm(0x7fece72ef36d4887) | Exponent = 1024 Number = +ve
    ? 'fs1 == 0 and fe1 == 0x7fb and fm1 == 0x248a2b9dc22bf and fs2 == 1 and fe2 ==
      0x403 and fm2 == 0x5a233041e3ac1 and fs3 == 0 and fe3 == 0x7fe and fm3 == 0xce72ef36d4887
      and rm_val == 2  #nosat'
    : 1 #  rs1_val==dnorm(0x7fb248a2b9dc22bf) and rs2_val==dnorm(0xc035a233041e3ac1) and rs3_val==dnorm(0x7fece72ef36d4887) | Exponent = 1024 Number = +ve
    ? 'fs1 == 0 and fe1 == 0x7fb and fm1 == 0x248a2b9dc22bf and fs2 == 1 and fe2 ==
      0x403 and fm2 == 0x5a233041e3ac1 and fs3 == 0 and fe3 == 0x7fe and fm3 == 0xce72ef36d4887
      and rm_val == 1  #nosat'
    : 1 #  rs1_val==dnorm(0x7fb248a2b9dc22bf) and rs2_val==dnorm(0xc035a233041e3ac1) and rs3_val==dnorm(0x7fece72ef36d4887) | Exponent = 1024 Number = +ve
    ? 'fs1 == 0 and fe1 == 0x7fb and fm1 == 0x248a2b9dc22bf and fs2 == 1 and fe2 ==
      0x403 and fm2 == 0x5a233041e3ac1 and fs3 == 0 and fe3 == 0x7fe and fm3 == 0xce72ef36d4887
      and rm_val == 0  #nosat'
    : 1 #  rs1_val==dnorm(0x7fb248a2b9dc22bf) and rs2_val==dnorm(0xc035a233041e3ac1) and rs3_val==dnorm(0x7fece72ef36d4887) | Exponent = 1024 Number = +ve
    ? 'fs1 == 0 and fe1 == 0x7fe and fm1 == 0x0eb469d232dd1 and fs2 == 1 and fe2 ==
      0x3fe and fm2 == 0x22e4c1eeb8fbf and fs3 == 0 and fe3 == 0x7fe and fm3 == 0x05034d6a0d355
      and rm_val == 4  #nosat'
    : 1 #  rs1_val==dnorm(0x7fe0eb469d232dd1) and rs2_val==dnorm(0xbfe22e4c1eeb8fbf) and rs3_val==dnorm(0x7fe05034d6a0d355) | Exponent = 1023 Number = -ve
    ? 'fs1 == 0 and fe1 == 0x7fe and fm1 == 0x0eb469d232dd1 and fs2 == 1 and fe2 ==
      0x3fe and fm2 == 0x22e4c1eeb8fbf and fs3 == 0 and fe3 == 0x7fe and fm3 == 0x05034d6a0d355
      and rm_val == 3  #nosat'
    : 1 #  rs1_val==dnorm(0x7fe0eb469d232dd1) and rs2_val==dnorm(0xbfe22e4c1eeb8fbf) and rs3_val==dnorm(0x7fe05034d6a0d355) | Exponent = 1023 Number = -ve
    ? 'fs1 == 0 and fe1 == 0x7fe and fm1 == 0x0eb469d232dd1 and fs2 == 1 and fe2 ==
      0x3fe and fm2 == 0x22e4c1eeb8fbf and fs3 == 0 and fe3 == 0x7fe and fm3 == 0x05034d6a0d355
      and rm_val == 2  #nosat'
    : 1 #  rs1_val==dnorm(0x7fe0eb469d232dd1) and rs2_val==dnorm(0xbfe22e4c1eeb8fbf) and rs3_val==dnorm(0x7fe05034d6a0d355) | Exponent = 1023 Number = -ve
    ? 'fs1 == 0 and fe1 == 0x7fe and fm1 == 0x0eb469d232dd1 and fs2 == 1 and fe2 ==
      0x3fe and fm2 == 0x22e4c1eeb8fbf and fs3 == 0 and fe3 == 0x7fe and fm3 == 0x05034d6a0d355
      and rm_val == 1  #nosat'
    : 1 #  rs1_val==dnorm(0x7fe0eb469d232dd1) and rs2_val==dnorm(0xbfe22e4c1eeb8fbf) and rs3_val==dnorm(0x7fe05034d6a0d355) | Exponent = 1023 Number = -ve
    ? 'fs1 == 0 and fe1 == 0x7fe and fm1 == 0x0eb469d232dd1 and fs2 == 1 and fe2 ==
      0x3fe and fm2 == 0x22e4c1eeb8fbf and fs3 == 0 and fe3 == 0x7fe and fm3 == 0x05034d6a0d355
      and rm_val == 0  #nosat'
    : 1 #  rs1_val==dnorm(0x7fe0eb469d232dd1) and rs2_val==dnorm(0xbfe22e4c1eeb8fbf) and rs3_val==dnorm(0x7fe05034d6a0d355) | Exponent = 1023 Number = -ve
    ? 'fs1 == 0 and fe1 == 0x7fc and fm1 == 0x94c88e4f0cf23 and fs2 == 1 and fe2 ==
      0x3ff and fm2 == 0x43e6e4398ff87 and fs3 == 0 and fe3 == 0x7fc and fm3 == 0x3387045b11b73
      and rm_val == 4  #nosat'
    : 1 #  rs1_val==dnorm(0x7fc94c88e4f0cf23) and rs2_val==dnorm(0xbff43e6e4398ff87) and rs3_val==dnorm(0x7fc3387045b11b73) | Exponent = 1023 Number = +ve
    ? 'fs1 == 0 and fe1 == 0x7fc and fm1 == 0x94c88e4f0cf23 and fs2 == 1 and fe2 ==
      0x3ff and fm2 == 0x43e6e4398ff87 and fs3 == 0 and fe3 == 0x7fc and fm3 == 0x3387045b11b73
      and rm_val == 3  #nosat'
    : 1 #  rs1_val==dnorm(0x7fc94c88e4f0cf23) and rs2_val==dnorm(0xbff43e6e4398ff87) and rs3_val==dnorm(0x7fc3387045b11b73) | Exponent = 1023 Number = +ve
    ? 'fs1 == 0 and fe1 == 0x7fc and fm1 == 0x94c88e4f0cf23 and fs2 == 1 and fe2 ==
      0x3ff and fm2 == 0x43e6e4398ff87 and fs3 == 0 and fe3 == 0x7fc and fm3 == 0x3387045b11b73
      and rm_val == 2  #nosat'
    : 1 #  rs1_val==dnorm(0x7fc94c88e4f0cf23) and rs2_val==dnorm(0xbff43e6e4398ff87) and rs3_val==dnorm(0x7fc3387045b11b73) | Exponent = 1023 Number = +ve
    ? 'fs1 == 0 and fe1 == 0x7fc and fm1 == 0x94c88e4f0cf23 and fs2 == 1 and fe2 ==
      0x3ff and fm2 == 0x43e6e4398ff87 and fs3 == 0 and fe3 == 0x7fc and fm3 == 0x3387045b11b73
      and rm_val == 1  #nosat'
    : 1 #  rs1_val==dnorm(0x7fc94c88e4f0cf23) and rs2_val==dnorm(0xbff43e6e4398ff87) and rs3_val==dnorm(0x7fc3387045b11b73) | Exponent = 1023 Number = +ve
    ? 'fs1 == 0 and fe1 == 0x7fc and fm1 == 0x94c88e4f0cf23 and fs2 == 1 and fe2 ==
      0x3ff and fm2 == 0x43e6e4398ff87 and fs3 == 0 and fe3 == 0x7fc and fm3 == 0x3387045b11b73
      and rm_val == 0  #nosat'
    : 1 #  rs1_val==dnorm(0x7fc94c88e4f0cf23) and rs2_val==dnorm(0xbff43e6e4398ff87) and rs3_val==dnorm(0x7fc3387045b11b73) | Exponent = 1023 Number = +ve
    ? 'fs1 == 0 and fe1 == 0x7fe and fm1 == 0xafde4f5fa80c8 and fs2 == 1 and fe2 ==
      0x3fd and fm2 == 0x3700bd52d2c4f and fs3 == 0 and fe3 == 0x7fe and fm3 == 0x01daaa27ef61b
      and rm_val == 4  #nosat'
    : 1 #  rs1_val==dnorm(0x7feafde4f5fa80c8) and rs2_val==dnorm(0xbfd3700bd52d2c4f) and rs3_val==dnorm(0x7fe01daaa27ef61b) | Exponent = 1022 Number = -ve
    ? 'fs1 == 0 and fe1 == 0x7fe and fm1 == 0xafde4f5fa80c8 and fs2 == 1 and fe2 ==
      0x3fd and fm2 == 0x3700bd52d2c4f and fs3 == 0 and fe3 == 0x7fe and fm3 == 0x01daaa27ef61b
      and rm_val == 3  #nosat'
    : 1 #  rs1_val==dnorm(0x7feafde4f5fa80c8) and rs2_val==dnorm(0xbfd3700bd52d2c4f) and rs3_val==dnorm(0x7fe01daaa27ef61b) | Exponent = 1022 Number = -ve
    ? 'fs1 == 0 and fe1 == 0x7fe and fm1 == 0xafde4f5fa80c8 and fs2 == 1 and fe2 ==
      0x3fd and fm2 == 0x3700bd52d2c4f and fs3 == 0 and fe3 == 0x7fe and fm3 == 0x01daaa27ef61b
      and rm_val == 2  #nosat'
    : 1 #  rs1_val==dnorm(0x7feafde4f5fa80c8) and rs2_val==dnorm(0xbfd3700bd52d2c4f) and rs3_val==dnorm(0x7fe01daaa27ef61b) | Exponent = 1022 Number = -ve
    ? 'fs1 == 0 and fe1 == 0x7fe and fm1 == 0xafde4f5fa80c8 and fs2 == 1 and fe2 ==
      0x3fd and fm2 == 0x3700bd52d2c4f and fs3 == 0 and fe3 == 0x7fe and fm3 == 0x01daaa27ef61b
      and rm_val == 1  #nosat'
    : 1 #  rs1_val==dnorm(0x7feafde4f5fa80c8) and rs2_val==dnorm(0xbfd3700bd52d2c4f) and rs3_val==dnorm(0x7fe01daaa27ef61b) | Exponent = 1022 Number = -ve
    ? 'fs1 == 0 and fe1 == 0x7fe and fm1 == 0xafde4f5fa80c8 and fs2 == 1 and fe2 ==
      0x3fd and fm2 == 0x3700bd52d2c4f and fs3 == 0 and fe3 == 0x7fe and fm3 == 0x01daaa27ef61b
      and rm_val == 0  #nosat'
    : 1 #  rs1_val==dnorm(0x7feafde4f5fa80c8) and rs2_val==dnorm(0xbfd3700bd52d2c4f) and rs3_val==dnorm(0x7fe01daaa27ef61b) | Exponent = 1022 Number = -ve
    ? 'fs1 == 0 and fe1 == 0x7fe and fm1 == 0x677f9a96d9966 and fs2 == 1 and fe2 ==
      0x3ff and fm2 == 0x796cd8a02d3f6 and fs3 == 0 and fe3 == 0x7fe and fm3 == 0xe6665d6935c36
      and rm_val == 4  #nosat'
    : 1 #  rs1_val==dnorm(0x7fe677f9a96d9966) and rs2_val==dnorm(0xbff796cd8a02d3f6) and rs3_val==dnorm(0x7fee6665d6935c36) | Exponent = 1022 Number = +ve
    ? 'fs1 == 0 and fe1 == 0x7fe and fm1 == 0x677f9a96d9966 and fs2 == 1 and fe2 ==
      0x3ff and fm2 == 0x796cd8a02d3f6 and fs3 == 0 and fe3 == 0x7fe and fm3 == 0xe6665d6935c36
      and rm_val == 3  #nosat'
    : 1 #  rs1_val==dnorm(0x7fe677f9a96d9966) and rs2_val==dnorm(0xbff796cd8a02d3f6) and rs3_val==dnorm(0x7fee6665d6935c36) | Exponent = 1022 Number = +ve
    ? 'fs1 == 0 and fe1 == 0x7fe and fm1 == 0x677f9a96d9966 and fs2 == 1 and fe2 ==
      0x3ff and fm2 == 0x796cd8a02d3f6 and fs3 == 0 and fe3 == 0x7fe and fm3 == 0xe6665d6935c36
      and rm_val == 2  #nosat'
    : 1 #  rs1_val==dnorm(0x7fe677f9a96d9966) and rs2_val==dnorm(0xbff796cd8a02d3f6) and rs3_val==dnorm(0x7fee6665d6935c36) | Exponent = 1022 Number = +ve
    ? 'fs1 == 0 and fe1 == 0x7fe and fm1 == 0x677f9a96d9966 and fs2 == 1 and fe2 ==
      0x3ff and fm2 == 0x796cd8a02d3f6 and fs3 == 0 and fe3 == 0x7fe and fm3 == 0xe6665d6935c36
      and rm_val == 1  #nosat'
    : 1 #  rs1_val==dnorm(0x7fe677f9a96d9966) and rs2_val==dnorm(0xbff796cd8a02d3f6) and rs3_val==dnorm(0x7fee6665d6935c36) | Exponent = 1022 Number = +ve
    ? 'fs1 == 0 and fe1 == 0x7fe and fm1 == 0x677f9a96d9966 and fs2 == 1 and fe2 ==
      0x3ff and fm2 == 0x796cd8a02d3f6 and fs3 == 0 and fe3 == 0x7fe and fm3 == 0xe6665d6935c36
      and rm_val == 0  #nosat'
    : 1 #  rs1_val==dnorm(0x7fe677f9a96d9966) and rs2_val==dnorm(0xbff796cd8a02d3f6) and rs3_val==dnorm(0x7fee6665d6935c36) | Exponent = 1022 Number = +ve
    ? 'fs1 == 0 and fe1 == 0x7fb and fm1 == 0x8fd64f104922f and fs2 == 1 and fe2 ==
      0x401 and fm2 == 0x964aae7b394df and fs3 == 0 and fe3 == 0x7fe and fm3 == 0x615f701415147
      and rm_val == 4  #nosat'
    : 1 #  rs1_val==dnorm(0x7fb8fd64f104922f) and rs2_val==dnorm(0xc01964aae7b394df) and rs3_val==dnorm(0x7fe615f701415147) | Exponent = 1021 Number = -ve
    ? 'fs1 == 0 and fe1 == 0x7fb and fm1 == 0x8fd64f104922f and fs2 == 1 and fe2 ==
      0x401 and fm2 == 0x964aae7b394df and fs3 == 0 and fe3 == 0x7fe and fm3 == 0x615f701415147
      and rm_val == 3  #nosat'
    : 1 #  rs1_val==dnorm(0x7fb8fd64f104922f) and rs2_val==dnorm(0xc01964aae7b394df) and rs3_val==dnorm(0x7fe615f701415147) | Exponent = 1021 Number = -ve
    ? 'fs1 == 0 and fe1 == 0x7fb and fm1 == 0x8fd64f104922f and fs2 == 1 and fe2 ==
      0x401 and fm2 == 0x964aae7b394df and fs3 == 0 and fe3 == 0x7fe and fm3 == 0x615f701415147
      and rm_val == 2  #nosat'
    : 1 #  rs1_val==dnorm(0x7fb8fd64f104922f) and rs2_val==dnorm(0xc01964aae7b394df) and rs3_val==dnorm(0x7fe615f701415147) | Exponent = 1021 Number = -ve
    ? 'fs1 == 0 and fe1 == 0x7fb and fm1 == 0x8fd64f104922f and fs2 == 1 and fe2 ==
      0x401 and fm2 == 0x964aae7b394df and fs3 == 0 and fe3 == 0x7fe and fm3 == 0x615f701415147
      and rm_val == 1  #nosat'
    : 1 #  rs1_val==dnorm(0x7fb8fd64f104922f) and rs2_val==dnorm(0xc01964aae7b394df) and rs3_val==dnorm(0x7fe615f701415147) | Exponent = 1021 Number = -ve
    ? 'fs1 == 0 and fe1 == 0x7fb and fm1 == 0x8fd64f104922f and fs2 == 1 and fe2 ==
      0x401 and fm2 == 0x964aae7b394df and fs3 == 0 and fe3 == 0x7fe and fm3 == 0x615f701415147
      and rm_val == 0  #nosat'
    : 1 #  rs1_val==dnorm(0x7fb8fd64f104922f) and rs2_val==dnorm(0xc01964aae7b394df) and rs3_val==dnorm(0x7fe615f701415147) | Exponent = 1021 Number = -ve
    ? 'fs1 == 0 and fe1 == 0x7fc and fm1 == 0x146e28288654f and fs2 == 1 and fe2 ==
      0x401 and fm2 == 0xa64c77bdc4c08 and fs3 == 0 and fe3 == 0x7fe and fm3 == 0x8751b6a67be4c
      and rm_val == 4  #nosat'
    : 1 #  rs1_val==dnorm(0x7fc146e28288654f) and rs2_val==dnorm(0xc01a64c77bdc4c08) and rs3_val==dnorm(0x7fe8751b6a67be4c) | Exponent = 1021 Number = +ve
    ? 'fs1 == 0 and fe1 == 0x7fc and fm1 == 0x146e28288654f and fs2 == 1 and fe2 ==
      0x401 and fm2 == 0xa64c77bdc4c08 and fs3 == 0 and fe3 == 0x7fe and fm3 == 0x8751b6a67be4c
      and rm_val == 3  #nosat'
    : 1 #  rs1_val==dnorm(0x7fc146e28288654f) and rs2_val==dnorm(0xc01a64c77bdc4c08) and rs3_val==dnorm(0x7fe8751b6a67be4c) | Exponent = 1021 Number = +ve
    ? 'fs1 == 0 and fe1 == 0x7fc and fm1 == 0x146e28288654f and fs2 == 1 and fe2 ==
      0x401 and fm2 == 0xa64c77bdc4c08 and fs3 == 0 and fe3 == 0x7fe and fm3 == 0x8751b6a67be4c
      and rm_val == 2  #nosat'
    : 1 #  rs1_val==dnorm(0x7fc146e28288654f) and rs2_val==dnorm(0xc01a64c77bdc4c08) and rs3_val==dnorm(0x7fe8751b6a67be4c) | Exponent = 1021 Number = +ve
    ? 'fs1 == 0 and fe1 == 0x7fc and fm1 == 0x146e28288654f and fs2 == 1 and fe2 ==
      0x401 and fm2 == 0xa64c77bdc4c08 and fs3 == 0 and fe3 == 0x7fe and fm3 == 0x8751b6a67be4c
      and rm_val == 1  #nosat'
    : 1 #  rs1_val==dnorm(0x7fc146e28288654f) and rs2_val==dnorm(0xc01a64c77bdc4c08) and rs3_val==dnorm(0x7fe8751b6a67be4c) | Exponent = 1021 Number = +ve
    ? 'fs1 == 0 and fe1 == 0x7fc and fm1 == 0x146e28288654f and fs2 == 1 and fe2 ==
      0x401 and fm2 == 0xa64c77bdc4c08 and fs3 == 0 and fe3 == 0x7fe and fm3 == 0x8751b6a67be4c
      and rm_val == 0  #nosat'
    : 1 #  rs1_val==dnorm(0x7fc146e28288654f) and rs2_val==dnorm(0xc01a64c77bdc4c08) and rs3_val==dnorm(0x7fe8751b6a67be4c) | Exponent = 1021 Number = +ve
    ? 'fs1 == 0 and fe1 == 0x7fd and fm1 == 0x6d41e8ed71efb and fs2 == 1 and fe2 ==
      0x400 and fm2 == 0x18907e493e2f5 and fs3 == 0 and fe3 == 0x7fe and fm3 == 0xc1933e5b458c9
      and rm_val == 4  #nosat'
    : 1 #  rs1_val==dnorm(0x7fd6d41e8ed71efb) and rs2_val==dnorm(0xc0018907e493e2f5) and rs3_val==dnorm(0x7fec1933e5b458c9) | Exponent = 1020 Number = -ve
    ? 'fs1 == 0 and fe1 == 0x7fd and fm1 == 0x6d41e8ed71efb and fs2 == 1 and fe2 ==
      0x400 and fm2 == 0x18907e493e2f5 and fs3 == 0 and fe3 == 0x7fe and fm3 == 0xc1933e5b458c9
      and rm_val == 3  #nosat'
    : 1 #  rs1_val==dnorm(0x7fd6d41e8ed71efb) and rs2_val==dnorm(0xc0018907e493e2f5) and rs3_val==dnorm(0x7fec1933e5b458c9) | Exponent = 1020 Number = -ve
    ? 'fs1 == 0 and fe1 == 0x7fd and fm1 == 0x6d41e8ed71efb and fs2 == 1 and fe2 ==
      0x400 and fm2 == 0x18907e493e2f5 and fs3 == 0 and fe3 == 0x7fe and fm3 == 0xc1933e5b458c9
      and rm_val == 2  #nosat'
    : 1 #  rs1_val==dnorm(0x7fd6d41e8ed71efb) and rs2_val==dnorm(0xc0018907e493e2f5) and rs3_val==dnorm(0x7fec1933e5b458c9) | Exponent = 1020 Number = -ve
    ? 'fs1 == 0 and fe1 == 0x7fd and fm1 == 0x6d41e8ed71efb and fs2 == 1 and fe2 ==
      0x400 and fm2 == 0x18907e493e2f5 and fs3 == 0 and fe3 == 0x7fe and fm3 == 0xc1933e5b458c9
      and rm_val == 1  #nosat'
    : 1 #  rs1_val==dnorm(0x7fd6d41e8ed71efb) and rs2_val==dnorm(0xc0018907e493e2f5) and rs3_val==dnorm(0x7fec1933e5b458c9) | Exponent = 1020 Number = -ve
    ? 'fs1 == 0 and fe1 == 0x7fd and fm1 == 0x6d41e8ed71efb and fs2 == 1 and fe2 ==
      0x400 and fm2 == 0x18907e493e2f5 and fs3 == 0 and fe3 == 0x7fe and fm3 == 0xc1933e5b458c9
      and rm_val == 0  #nosat'
    : 1 #  rs1_val==dnorm(0x7fd6d41e8ed71efb) and rs2_val==dnorm(0xc0018907e493e2f5) and rs3_val==dnorm(0x7fec1933e5b458c9) | Exponent = 1020 Number = -ve
    ? 'fs1 == 0 and fe1 == 0x7fe and fm1 == 0xc30d25dc7d1f8 and fs2 == 1 and fe2 ==
      0x3fe and fm2 == 0x29c66c9d482fb and fs3 == 0 and fe3 == 0x7fd and fm3 == 0x248247c756437
      and rm_val == 4  #nosat'
    : 1 #  rs1_val==dnorm(0x7fec30d25dc7d1f8) and rs2_val==dnorm(0xbfe29c66c9d482fb) and rs3_val==dnorm(0x7fd248247c756437) | Exponent = 1020 Number = +ve
    ? 'fs1 == 0 and fe1 == 0x7fe and fm1 == 0xc30d25dc7d1f8 and fs2 == 1 and fe2 ==
      0x3fe and fm2 == 0x29c66c9d482fb and fs3 == 0 and fe3 == 0x7fd and fm3 == 0x248247c756437
      and rm_val == 3  #nosat'
    : 1 #  rs1_val==dnorm(0x7fec30d25dc7d1f8) and rs2_val==dnorm(0xbfe29c66c9d482fb) and rs3_val==dnorm(0x7fd248247c756437) | Exponent = 1020 Number = +ve
    ? 'fs1 == 0 and fe1 == 0x7fe and fm1 == 0xc30d25dc7d1f8 and fs2 == 1 and fe2 ==
      0x3fe and fm2 == 0x29c66c9d482fb and fs3 == 0 and fe3 == 0x7fd and fm3 == 0x248247c756437
      and rm_val == 2  #nosat'
    : 1 #  rs1_val==dnorm(0x7fec30d25dc7d1f8) and rs2_val==dnorm(0xbfe29c66c9d482fb) and rs3_val==dnorm(0x7fd248247c756437) | Exponent = 1020 Number = +ve
    ? 'fs1 == 0 and fe1 == 0x7fe and fm1 == 0xc30d25dc7d1f8 and fs2 == 1 and fe2 ==
      0x3fe and fm2 == 0x29c66c9d482fb and fs3 == 0 and fe3 == 0x7fd and fm3 == 0x248247c756437
      and rm_val == 1  #nosat'
    : 1 #  rs1_val==dnorm(0x7fec30d25dc7d1f8) and rs2_val==dnorm(0xbfe29c66c9d482fb) and rs3_val==dnorm(0x7fd248247c756437) | Exponent = 1020 Number = +ve
    ? 'fs1 == 0 and fe1 == 0x7fe and fm1 == 0xc30d25dc7d1f8 and fs2 == 1 and fe2 ==
      0x3fe and fm2 == 0x29c66c9d482fb and fs3 == 0 and fe3 == 0x7fd and fm3 == 0x248247c756437
      and rm_val == 0  #nosat'
    : 1 #  rs1_val==dnorm(0x7fec30d25dc7d1f8) and rs2_val==dnorm(0xbfe29c66c9d482fb) and rs3_val==dnorm(0x7fd248247c756437) | Exponent = 1020 Number = +ve
    ? 'fs1 == 0 and fe1 == 0x7fe and fm1 == 0x286daddd336a6 and fs2 == 1 and fe2 ==
      0x400 and fm2 == 0x7e3e64752bdd8 and fs3 == 0 and fe3 == 0x7fe and fm3 == 0x7537d0a566421
      and rm_val == 4  #nosat'
    : 1 #  rs1_val==dnorm(0x7fe286daddd336a6) and rs2_val==dnorm(0xc007e3e64752bdd8) and rs3_val==dnorm(0x7fe7537d0a566421) | Guard = 1 Round = 1 Sticky = 1 --> Maxnorm - 7 ulp
    ? 'fs1 == 0 and fe1 == 0x7fe and fm1 == 0x286daddd336a6 and fs2 == 1 and fe2 ==
      0x400 and fm2 == 0x7e3e64752bdd8 and fs3 == 0 and fe3 == 0x7fe and fm3 == 0x7537d0a566421
      and rm_val == 3  #nosat'
    : 1 #  rs1_val==dnorm(0x7fe286daddd336a6) and rs2_val==dnorm(0xc007e3e64752bdd8) and rs3_val==dnorm(0x7fe7537d0a566421) | Guard = 1 Round = 1 Sticky = 1 --> Maxnorm - 7 ulp
    ? 'fs1 == 0 and fe1 == 0x7fe and fm1 == 0x286daddd336a6 and fs2 == 1 and fe2 ==
      0x400 and fm2 == 0x7e3e64752bdd8 and fs3 == 0 and fe3 == 0x7fe and fm3 == 0x7537d0a566421
      and rm_val == 2  #nosat'
    : 1 #  rs1_val==dnorm(0x7fe286daddd336a6) and rs2_val==dnorm(0xc007e3e64752bdd8) and rs3_val==dnorm(0x7fe7537d0a566421) | Guard = 1 Round = 1 Sticky = 1 --> Maxnorm - 7 ulp
    ? 'fs1 == 0 and fe1 == 0x7fe and fm1 == 0x286daddd336a6 and fs2 == 1 and fe2 ==
      0x400 and fm2 == 0x7e3e64752bdd8 and fs3 == 0 and fe3 == 0x7fe and fm3 == 0x7537d0a566421
      and rm_val == 1  #nosat'
    : 1 #  rs1_val==dnorm(0x7fe286daddd336a6) and rs2_val==dnorm(0xc007e3e64752bdd8) and rs3_val==dnorm(0x7fe7537d0a566421) | Guard = 1 Round = 1 Sticky = 1 --> Maxnorm - 7 ulp
    ? 'fs1 == 0 and fe1 == 0x7fe and fm1 == 0x286daddd336a6 and fs2 == 1 and fe2 ==
      0x400 and fm2 == 0x7e3e64752bdd8 and fs3 == 0 and fe3 == 0x7fe and fm3 == 0x7537d0a566421
      and rm_val == 0  #nosat'
    : 1 #  rs1_val==dnorm(0x7fe286daddd336a6) and rs2_val==dnorm(0xc007e3e64752bdd8) and rs3_val==dnorm(0x7fe7537d0a566421) | Guard = 1 Round = 1 Sticky = 1 --> Maxnorm - 7 ulp
    ? 'fs1 == 0 and fe1 == 0x7fc and fm1 == 0x8d035325f0f1f and fs2 == 1 and fe2 ==
      0x402 and fm2 == 0x413d1f8d0c012 and fs3 == 0 and fe3 == 0x7fe and fm3 == 0xe45febf70f5c4
      and rm_val == 4  #nosat'
    : 1 #  rs1_val==dnorm(0x7fc8d035325f0f1f) and rs2_val==dnorm(0xc02413d1f8d0c012) and rs3_val==dnorm(0x7fee45febf70f5c4) | Guard = 1 Round = 1 Sticky = 1 --> Maxnorm + 7 ulp
    ? 'fs1 == 0 and fe1 == 0x7fc and fm1 == 0x8d035325f0f1f and fs2 == 1 and fe2 ==
      0x402 and fm2 == 0x413d1f8d0c012 and fs3 == 0 and fe3 == 0x7fe and fm3 == 0xe45febf70f5c4
      and rm_val == 3  #nosat'
    : 1 #  rs1_val==dnorm(0x7fc8d035325f0f1f) and rs2_val==dnorm(0xc02413d1f8d0c012) and rs3_val==dnorm(0x7fee45febf70f5c4) | Guard = 1 Round = 1 Sticky = 1 --> Maxnorm + 7 ulp
    ? 'fs1 == 0 and fe1 == 0x7fc and fm1 == 0x8d035325f0f1f and fs2 == 1 and fe2 ==
      0x402 and fm2 == 0x413d1f8d0c012 and fs3 == 0 and fe3 == 0x7fe and fm3 == 0xe45febf70f5c4
      and rm_val == 2  #nosat'
    : 1 #  rs1_val==dnorm(0x7fc8d035325f0f1f) and rs2_val==dnorm(0xc02413d1f8d0c012) and rs3_val==dnorm(0x7fee45febf70f5c4) | Guard = 1 Round = 1 Sticky = 1 --> Maxnorm + 7 ulp
    ? 'fs1 == 0 and fe1 == 0x7fc and fm1 == 0x8d035325f0f1f and fs2 == 1 and fe2 ==
      0x402 and fm2 == 0x413d1f8d0c012 and fs3 == 0 and fe3 == 0x7fe and fm3 == 0xe45febf70f5c4
      and rm_val == 1  #nosat'
    : 1 #  rs1_val==dnorm(0x7fc8d035325f0f1f) and rs2_val==dnorm(0xc02413d1f8d0c012) and rs3_val==dnorm(0x7fee45febf70f5c4) | Guard = 1 Round = 1 Sticky = 1 --> Maxnorm + 7 ulp
    ? 'fs1 == 0 and fe1 == 0x7fc and fm1 == 0x8d035325f0f1f and fs2 == 1 and fe2 ==
      0x402 and fm2 == 0x413d1f8d0c012 and fs3 == 0 and fe3 == 0x7fe and fm3 == 0xe45febf70f5c4
      and rm_val == 0  #nosat'
    : 1 #  rs1_val==dnorm(0x7fc8d035325f0f1f) and rs2_val==dnorm(0xc02413d1f8d0c012) and rs3_val==dnorm(0x7fee45febf70f5c4) | Guard = 1 Round = 1 Sticky = 1 --> Maxnorm + 7 ulp
    ? 'fs1 == 0 and fe1 == 0x7fe and fm1 == 0xe460da8265d2d and fs2 == 1 and fe2 ==
      0x3ff and fm2 == 0x92d4b2f309f8a and fs3 == 0 and fe3 == 0x7fd and fm3 == 0xf46513d9d53ab
      and rm_val == 4  #nosat'
    : 1 #  rs1_val==dnorm(0x7fee460da8265d2d) and rs2_val==dnorm(0xbff92d4b2f309f8a) and rs3_val==dnorm(0x7fdf46513d9d53ab) | Guard = 1 Round = 1 Sticky = 0 --> Maxnorm - 6 ulp
    ? 'fs1 == 0 and fe1 == 0x7fe and fm1 == 0xe460da8265d2d and fs2 == 1 and fe2 ==
      0x3ff and fm2 == 0x92d4b2f309f8a and fs3 == 0 and fe3 == 0x7fd and fm3 == 0xf46513d9d53ab
      and rm_val == 3  #nosat'
    : 1 #  rs1_val==dnorm(0x7fee460da8265d2d) and rs2_val==dnorm(0xbff92d4b2f309f8a) and rs3_val==dnorm(0x7fdf46513d9d53ab) | Guard = 1 Round = 1 Sticky = 0 --> Maxnorm - 6 ulp
    ? 'fs1 == 0 and fe1 == 0x7fe and fm1 == 0xe460da8265d2d and fs2 == 1 and fe2 ==
      0x3ff and fm2 == 0x92d4b2f309f8a and fs3 == 0 and fe3 == 0x7fd and fm3 == 0xf46513d9d53ab
      and rm_val == 2  #nosat'
    : 1 #  rs1_val==dnorm(0x7fee460da8265d2d) and rs2_val==dnorm(0xbff92d4b2f309f8a) and rs3_val==dnorm(0x7fdf46513d9d53ab) | Guard = 1 Round = 1 Sticky = 0 --> Maxnorm - 6 ulp
    ? 'fs1 == 0 and fe1 == 0x7fe and fm1 == 0xe460da8265d2d and fs2 == 1 and fe2 ==
      0x3ff and fm2 == 0x92d4b2f309f8a and fs3 == 0 and fe3 == 0x7fd and fm3 == 0xf46513d9d53ab
      and rm_val == 1  #nosat'
    : 1 #  rs1_val==dnorm(0x7fee460da8265d2d) and rs2_val==dnorm(0xbff92d4b2f309f8a) and rs3_val==dnorm(0x7fdf46513d9d53ab) | Guard = 1 Round = 1 Sticky = 0 --> Maxnorm - 6 ulp
    ? 'fs1 == 0 and fe1 == 0x7fe and fm1 == 0xe460da8265d2d and fs2 == 1 and fe2 ==
      0x3ff and fm2 == 0x92d4b2f309f8a and fs3 == 0 and fe3 == 0x7fd and fm3 == 0xf46513d9d53ab
      and rm_val == 0  #nosat'
    : 1 #  rs1_val==dnorm(0x7fee460da8265d2d) and rs2_val==dnorm(0xbff92d4b2f309f8a) and rs3_val==dnorm(0x7fdf46513d9d53ab) | Guard = 1 Round = 1 Sticky = 0 --> Maxnorm - 6 ulp
    ? 'fs1 == 0 and fe1 == 0x7fc and fm1 == 0x23193c9b51c5f and fs2 == 1 and fe2 ==
      0x401 and fm2 == 0xdf407fe3fe871 and fs3 == 0 and fe3 == 0x7fb and fm3 == 0x07ac811455a27
      and rm_val == 4  #nosat'
    : 1 #  rs1_val==dnorm(0x7fc23193c9b51c5f) and rs2_val==dnorm(0xc01df407fe3fe871) and rs3_val==dnorm(0x7fb07ac811455a27) | Guard = 1 Round = 1 Sticky = 0 --> Maxnorm + 6 ulp
    ? 'fs1 == 0 and fe1 == 0x7fc and fm1 == 0x23193c9b51c5f and fs2 == 1 and fe2 ==
      0x401 and fm2 == 0xdf407fe3fe871 and fs3 == 0 and fe3 == 0x7fb and fm3 == 0x07ac811455a27
      and rm_val == 3  #nosat'
    : 1 #  rs1_val==dnorm(0x7fc23193c9b51c5f) and rs2_val==dnorm(0xc01df407fe3fe871) and rs3_val==dnorm(0x7fb07ac811455a27) | Guard = 1 Round = 1 Sticky = 0 --> Maxnorm + 6 ulp
    ? 'fs1 == 0 and fe1 == 0x7fc and fm1 == 0x23193c9b51c5f and fs2 == 1 and fe2 ==
      0x401 and fm2 == 0xdf407fe3fe871 and fs3 == 0 and fe3 == 0x7fb and fm3 == 0x07ac811455a27
      and rm_val == 2  #nosat'
    : 1 #  rs1_val==dnorm(0x7fc23193c9b51c5f) and rs2_val==dnorm(0xc01df407fe3fe871) and rs3_val==dnorm(0x7fb07ac811455a27) | Guard = 1 Round = 1 Sticky = 0 --> Maxnorm + 6 ulp
    ? 'fs1 == 0 and fe1 == 0x7fc and fm1 == 0x23193c9b51c5f and fs2 == 1 and fe2 ==
      0x401 and fm2 == 0xdf407fe3fe871 and fs3 == 0 and fe3 == 0x7fb and fm3 == 0x07ac811455a27
      and rm_val == 1  #nosat'
    : 1 #  rs1_val==dnorm(0x7fc23193c9b51c5f) and rs2_val==dnorm(0xc01df407fe3fe871) and rs3_val==dnorm(0x7fb07ac811455a27) | Guard = 1 Round = 1 Sticky = 0 --> Maxnorm + 6 ulp
    ? 'fs1 == 0 and fe1 == 0x7fc and fm1 == 0x23193c9b51c5f and fs2 == 1 and fe2 ==
      0x401 and fm2 == 0xdf407fe3fe871 and fs3 == 0 and fe3 == 0x7fb and fm3 == 0x07ac811455a27
      and rm_val == 0  #nosat'
    : 1 #  rs1_val==dnorm(0x7fc23193c9b51c5f) and rs2_val==dnorm(0xc01df407fe3fe871) and rs3_val==dnorm(0x7fb07ac811455a27) | Guard = 1 Round = 1 Sticky = 0 --> Maxnorm + 6 ulp
    ? 'fs1 == 0 and fe1 == 0x7fe and fm1 == 0xcd8104cd4e803 and fs2 == 1 and fe2 ==
      0x3ff and fm2 == 0xc12c4e221f23c and fs3 == 0 and fe3 == 0x7fe and fm3 == 0x29bf2873bcb4b
      and rm_val == 4  #nosat'
    : 1 #  rs1_val==dnorm(0x7fecd8104cd4e803) and rs2_val==dnorm(0xbffc12c4e221f23c) and rs3_val==dnorm(0x7fe29bf2873bcb4b) | Guard = 1 Round = 0 Sticky = 1 --> Maxnorm - 5 ulp
    ? 'fs1 == 0 and fe1 == 0x7fe and fm1 == 0xcd8104cd4e803 and fs2 == 1 and fe2 ==
      0x3ff and fm2 == 0xc12c4e221f23c and fs3 == 0 and fe3 == 0x7fe and fm3 == 0x29bf2873bcb4b
      and rm_val == 3  #nosat'
    : 1 #  rs1_val==dnorm(0x7fecd8104cd4e803) and rs2_val==dnorm(0xbffc12c4e221f23c) and rs3_val==dnorm(0x7fe29bf2873bcb4b) | Guard = 1 Round = 0 Sticky = 1 --> Maxnorm - 5 ulp
    ? 'fs1 == 0 and fe1 == 0x7fe and fm1 == 0xcd8104cd4e803 and fs2 == 1 and fe2 ==
      0x3ff and fm2 == 0xc12c4e221f23c and fs3 == 0 and fe3 == 0x7fe and fm3 == 0x29bf2873bcb4b
      and rm_val == 2  #nosat'
    : 1 #  rs1_val==dnorm(0x7fecd8104cd4e803) and rs2_val==dnorm(0xbffc12c4e221f23c) and rs3_val==dnorm(0x7fe29bf2873bcb4b) | Guard = 1 Round = 0 Sticky = 1 --> Maxnorm - 5 ulp
    ? 'fs1 == 0 and fe1 == 0x7fe and fm1 == 0xcd8104cd4e803 and fs2 == 1 and fe2 ==
      0x3ff and fm2 == 0xc12c4e221f23c and fs3 == 0 and fe3 == 0x7fe and fm3 == 0x29bf2873bcb4b
      and rm_val == 1  #nosat'
    : 1 #  rs1_val==dnorm(0x7fecd8104cd4e803) and rs2_val==dnorm(0xbffc12c4e221f23c) and rs3_val==dnorm(0x7fe29bf2873bcb4b) | Guard = 1 Round = 0 Sticky = 1 --> Maxnorm - 5 ulp
    ? 'fs1 == 0 and fe1 == 0x7fe and fm1 == 0xcd8104cd4e803 and fs2 == 1 and fe2 ==
      0x3ff and fm2 == 0xc12c4e221f23c and fs3 == 0 and fe3 == 0x7fe and fm3 == 0x29bf2873bcb4b
      and rm_val == 0  #nosat'
    : 1 #  rs1_val==dnorm(0x7fecd8104cd4e803) and rs2_val==dnorm(0xbffc12c4e221f23c) and rs3_val==dnorm(0x7fe29bf2873bcb4b) | Guard = 1 Round = 0 Sticky = 1 --> Maxnorm - 5 ulp
    ? 'fs1 == 0 and fe1 == 0x7fd and fm1 == 0xfd85c073a2591 and fs2 == 1 and fe2 ==
      0x400 and fm2 == 0xa861d98748e27 and fs3 == 0 and fe3 == 0x7fe and fm3 == 0x4ca84761136ef
      and rm_val == 4  #nosat'
    : 1 #  rs1_val==dnorm(0x7fdfd85c073a2591) and rs2_val==dnorm(0xc00a861d98748e27) and rs3_val==dnorm(0x7fe4ca84761136ef) | Guard = 1 Round = 0 Sticky = 1 --> Maxnorm + 5 ulp
    ? 'fs1 == 0 and fe1 == 0x7fd and fm1 == 0xfd85c073a2591 and fs2 == 1 and fe2 ==
      0x400 and fm2 == 0xa861d98748e27 and fs3 == 0 and fe3 == 0x7fe and fm3 == 0x4ca84761136ef
      and rm_val == 3  #nosat'
    : 1 #  rs1_val==dnorm(0x7fdfd85c073a2591) and rs2_val==dnorm(0xc00a861d98748e27) and rs3_val==dnorm(0x7fe4ca84761136ef) | Guard = 1 Round = 0 Sticky = 1 --> Maxnorm + 5 ulp
    ? 'fs1 == 0 and fe1 == 0x7fd and fm1 == 0xfd85c073a2591 and fs2 == 1 and fe2 ==
      0x400 and fm2 == 0xa861d98748e27 and fs3 == 0 and fe3 == 0x7fe and fm3 == 0x4ca84761136ef
      and rm_val == 2  #nosat'
    : 1 #  rs1_val==dnorm(0x7fdfd85c073a2591) and rs2_val==dnorm(0xc00a861d98748e27) and rs3_val==dnorm(0x7fe4ca84761136ef) | Guard = 1 Round = 0 Sticky = 1 --> Maxnorm + 5 ulp
    ? 'fs1 == 0 and fe1 == 0x7fd and fm1 == 0xfd85c073a2591 and fs2 == 1 and fe2 ==
      0x400 and fm2 == 0xa861d98748e27 and fs3 == 0 and fe3 == 0x7fe and fm3 == 0x4ca84761136ef
      and rm_val == 1  #nosat'
    : 1 #  rs1_val==dnorm(0x7fdfd85c073a2591) and rs2_val==dnorm(0xc00a861d98748e27) and rs3_val==dnorm(0x7fe4ca84761136ef) | Guard = 1 Round = 0 Sticky = 1 --> Maxnorm + 5 ulp
    ? 'fs1 == 0 and fe1 == 0x7fd and fm1 == 0xfd85c073a2591 and fs2 == 1 and fe2 ==
      0x400 and fm2 == 0xa861d98748e27 and fs3 == 0 and fe3 == 0x7fe and fm3 == 0x4ca84761136ef
      and rm_val == 0  #nosat'
    : 1 #  rs1_val==dnorm(0x7fdfd85c073a2591) and rs2_val==dnorm(0xc00a861d98748e27) and rs3_val==dnorm(0x7fe4ca84761136ef) | Guard = 1 Round = 0 Sticky = 1 --> Maxnorm + 5 ulp
    ? 'fs1 == 0 and fe1 == 0x7fd and fm1 == 0x5a8fa51e01729 and fs2 == 1 and fe2 ==
      0x401 and fm2 == 0x3fd4ccd713462 and fs3 == 0 and fe3 == 0x7fe and fm3 == 0x61f2260581ec6
      and rm_val == 4  #nosat'
    : 1 #  rs1_val==dnorm(0x7fd5a8fa51e01729) and rs2_val==dnorm(0xc013fd4ccd713462) and rs3_val==dnorm(0x7fe61f2260581ec6) | Guard = 1 Round = 0 Sticky = 0 --> Maxnorm - 4 ulp
    ? 'fs1 == 0 and fe1 == 0x7fd and fm1 == 0x5a8fa51e01729 and fs2 == 1 and fe2 ==
      0x401 and fm2 == 0x3fd4ccd713462 and fs3 == 0 and fe3 == 0x7fe and fm3 == 0x61f2260581ec6
      and rm_val == 3  #nosat'
    : 1 #  rs1_val==dnorm(0x7fd5a8fa51e01729) and rs2_val==dnorm(0xc013fd4ccd713462) and rs3_val==dnorm(0x7fe61f2260581ec6) | Guard = 1 Round = 0 Sticky = 0 --> Maxnorm - 4 ulp
    ? 'fs1 == 0 and fe1 == 0x7fd and fm1 == 0x5a8fa51e01729 and fs2 == 1 and fe2 ==
      0x401 and fm2 == 0x3fd4ccd713462 and fs3 == 0 and fe3 == 0x7fe and fm3 == 0x61f2260581ec6
      and rm_val == 2  #nosat'
    : 1 #  rs1_val==dnorm(0x7fd5a8fa51e01729) and rs2_val==dnorm(0xc013fd4ccd713462) and rs3_val==dnorm(0x7fe61f2260581ec6) | Guard = 1 Round = 0 Sticky = 0 --> Maxnorm - 4 ulp
    ? 'fs1 == 0 and fe1 == 0x7fd and fm1 == 0x5a8fa51e01729 and fs2 == 1 and fe2 ==
      0x401 and fm2 == 0x3fd4ccd713462 and fs3 == 0 and fe3 == 0x7fe and fm3 == 0x61f2260581ec6
      and rm_val == 1  #nosat'
    : 1 #  rs1_val==dnorm(0x7fd5a8fa51e01729) and rs2_val==dnorm(0xc013fd4ccd713462) and rs3_val==dnorm(0x7fe61f2260581ec6) | Guard = 1 Round = 0 Sticky = 0 --> Maxnorm - 4 ulp
    ? 'fs1 == 0 and fe1 == 0x7fd and fm1 == 0x5a8fa51e01729 and fs2 == 1 and fe2 ==
      0x401 and fm2 == 0x3fd4ccd713462 and fs3 == 0 and fe3 == 0x7fe and fm3 == 0x61f2260581ec6
      and rm_val == 0  #nosat'
    : 1 #  rs1_val==dnorm(0x7fd5a8fa51e01729) and rs2_val==dnorm(0xc013fd4ccd713462) and rs3_val==dnorm(0x7fe61f2260581ec6) | Guard = 1 Round = 0 Sticky = 0 --> Maxnorm - 4 ulp
    ? 'fs1 == 0 and fe1 == 0x7fd and fm1 == 0x8242100dca0f9 and fs2 == 1 and fe2 ==
      0x401 and fm2 == 0x19cb243429355 and fs3 == 0 and fe3 == 0x7fe and fm3 == 0x525a0943b7292
      and rm_val == 4  #nosat'
    : 1 #  rs1_val==dnorm(0x7fd8242100dca0f9) and rs2_val==dnorm(0xc0119cb243429355) and rs3_val==dnorm(0x7fe525a0943b7292) | Guard = 1 Round = 0 Sticky = 0 --> Maxnorm + 4 ulp
    ? 'fs1 == 0 and fe1 == 0x7fd and fm1 == 0x8242100dca0f9 and fs2 == 1 and fe2 ==
      0x401 and fm2 == 0x19cb243429355 and fs3 == 0 and fe3 == 0x7fe and fm3 == 0x525a0943b7292
      and rm_val == 3  #nosat'
    : 1 #  rs1_val==dnorm(0x7fd8242100dca0f9) and rs2_val==dnorm(0xc0119cb243429355) and rs3_val==dnorm(0x7fe525a0943b7292) | Guard = 1 Round = 0 Sticky = 0 --> Maxnorm + 4 ulp
    ? 'fs1 == 0 and fe1 == 0x7fd and fm1 == 0x8242100dca0f9 and fs2 == 1 and fe2 ==
      0x401 and fm2 == 0x19cb243429355 and fs3 == 0 and fe3 == 0x7fe and fm3 == 0x525a0943b7292
      and rm_val == 2  #nosat'
    : 1 #  rs1_val==dnorm(0x7fd8242100dca0f9) and rs2_val==dnorm(0xc0119cb243429355) and rs3_val==dnorm(0x7fe525a0943b7292) | Guard = 1 Round = 0 Sticky = 0 --> Maxnorm + 4 ulp
    ? 'fs1 == 0 and fe1 == 0x7fd and fm1 == 0x8242100dca0f9 and fs2 == 1 and fe2 ==
      0x401 and fm2 == 0x19cb243429355 and fs3 == 0 and fe3 == 0x7fe and fm3 == 0x525a0943b7292
      and rm_val == 1  #nosat'
    : 1 #  rs1_val==dnorm(0x7fd8242100dca0f9) and rs2_val==dnorm(0xc0119cb243429355) and rs3_val==dnorm(0x7fe525a0943b7292) | Guard = 1 Round = 0 Sticky = 0 --> Maxnorm + 4 ulp
    ? 'fs1 == 0 and fe1 == 0x7fd and fm1 == 0x8242100dca0f9 and fs2 == 1 and fe2 ==
      0x401 and fm2 == 0x19cb243429355 and fs3 == 0 and fe3 == 0x7fe and fm3 == 0x525a0943b7292
      and rm_val == 0  #nosat'
    : 1 #  rs1_val==dnorm(0x7fd8242100dca0f9) and rs2_val==dnorm(0xc0119cb243429355) and rs3_val==dnorm(0x7fe525a0943b7292) | Guard = 1 Round = 0 Sticky = 0 --> Maxnorm + 4 ulp
    ? 'fs1 == 0 and fe1 == 0x7fb and fm1 == 0x026946c5d22f7 and fs2 == 1 and fe2 ==
      0x403 and fm2 == 0x9ae4916027c77 and fs3 == 0 and fe3 == 0x7fe and fm3 == 0x3d86a7b5170e5
      and rm_val == 4  #nosat'
    : 1 #  rs1_val==dnorm(0x7fb026946c5d22f7) and rs2_val==dnorm(0xc039ae4916027c77) and rs3_val==dnorm(0x7fe3d86a7b5170e5) | Guard = 0 Round = 1 Sticky = 1 --> Maxnorm - 3 ulp
    ? 'fs1 == 0 and fe1 == 0x7fb and fm1 == 0x026946c5d22f7 and fs2 == 1 and fe2 ==
      0x403 and fm2 == 0x9ae4916027c77 and fs3 == 0 and fe3 == 0x7fe and fm3 == 0x3d86a7b5170e5
      and rm_val == 3  #nosat'
    : 1 #  rs1_val==dnorm(0x7fb026946c5d22f7) and rs2_val==dnorm(0xc039ae4916027c77) and rs3_val==dnorm(0x7fe3d86a7b5170e5) | Guard = 0 Round = 1 Sticky = 1 --> Maxnorm - 3 ulp
    ? 'fs1 == 0 and fe1 == 0x7fb and fm1 == 0x026946c5d22f7 and fs2 == 1 and fe2 ==
      0x403 and fm2 == 0x9ae4916027c77 and fs3 == 0 and fe3 == 0x7fe and fm3 == 0x3d86a7b5170e5
      and rm_val == 2  #nosat'
    : 1 #  rs1_val==dnorm(0x7fb026946c5d22f7) and rs2_val==dnorm(0xc039ae4916027c77) and rs3_val==dnorm(0x7fe3d86a7b5170e5) | Guard = 0 Round = 1 Sticky = 1 --> Maxnorm - 3 ulp
    ? 'fs1 == 0 and fe1 == 0x7fb and fm1 == 0x026946c5d22f7 and fs2 == 1 and fe2 ==
      0x403 and fm2 == 0x9ae4916027c77 and fs3 == 0 and fe3 == 0x7fe and fm3 == 0x3d86a7b5170e5
      and rm_val == 1  #nosat'
    : 1 #  rs1_val==dnorm(0x7fb026946c5d22f7) and rs2_val==dnorm(0xc039ae4916027c77) and rs3_val==dnorm(0x7fe3d86a7b5170e5) | Guard = 0 Round = 1 Sticky = 1 --> Maxnorm - 3 ulp
    ? 'fs1 == 0 and fe1 == 0x7fb and fm1 == 0x026946c5d22f7 and fs2 == 1 and fe2 ==
      0x403 and fm2 == 0x9ae4916027c77 and fs3 == 0 and fe3 == 0x7fe and fm3 == 0x3d86a7b5170e5
      and rm_val == 0  #nosat'
    : 1 #  rs1_val==dnorm(0x7fb026946c5d22f7) and rs2_val==dnorm(0xc039ae4916027c77) and rs3_val==dnorm(0x7fe3d86a7b5170e5) | Guard = 0 Round = 1 Sticky = 1 --> Maxnorm - 3 ulp
    ? 'fs1 == 0 and fe1 == 0x7fd and fm1 == 0x088ea90c6ff9b and fs2 == 1 and fe2 ==
      0x401 and fm2 == 0xed5bda0d17287 and fs3 == 0 and fe3 == 0x7fe and fm3 == 0xfbb34f341c62f
      and rm_val == 4  #nosat'
    : 1 #  rs1_val==dnorm(0x7fd088ea90c6ff9b) and rs2_val==dnorm(0xc01ed5bda0d17287) and rs3_val==dnorm(0x7fefbb34f341c62f) | Guard = 0 Round = 1 Sticky = 1 --> Maxnorm + 3 ulp
    ? 'fs1 == 0 and fe1 == 0x7fd and fm1 == 0x088ea90c6ff9b and fs2 == 1 and fe2 ==
      0x401 and fm2 == 0xed5bda0d17287 and fs3 == 0 and fe3 == 0x7fe and fm3 == 0xfbb34f341c62f
      and rm_val == 3  #nosat'
    : 1 #  rs1_val==dnorm(0x7fd088ea90c6ff9b) and rs2_val==dnorm(0xc01ed5bda0d17287) and rs3_val==dnorm(0x7fefbb34f341c62f) | Guard = 0 Round = 1 Sticky = 1 --> Maxnorm + 3 ulp
    ? 'fs1 == 0 and fe1 == 0x7fd and fm1 == 0x088ea90c6ff9b and fs2 == 1 and fe2 ==
      0x401 and fm2 == 0xed5bda0d17287 and fs3 == 0 and fe3 == 0x7fe and fm3 == 0xfbb34f341c62f
      and rm_val == 2  #nosat'
    : 1 #  rs1_val==dnorm(0x7fd088ea90c6ff9b) and rs2_val==dnorm(0xc01ed5bda0d17287) and rs3_val==dnorm(0x7fefbb34f341c62f) | Guard = 0 Round = 1 Sticky = 1 --> Maxnorm + 3 ulp
    ? 'fs1 == 0 and fe1 == 0x7fd and fm1 == 0x088ea90c6ff9b and fs2 == 1 and fe2 ==
      0x401 and fm2 == 0xed5bda0d17287 and fs3 == 0 and fe3 == 0x7fe and fm3 == 0xfbb34f341c62f
      and rm_val == 1  #nosat'
    : 1 #  rs1_val==dnorm(0x7fd088ea90c6ff9b) and rs2_val==dnorm(0xc01ed5bda0d17287) and rs3_val==dnorm(0x7fefbb34f341c62f) | Guard = 0 Round = 1 Sticky = 1 --> Maxnorm + 3 ulp
    ? 'fs1 == 0 and fe1 == 0x7fd and fm1 == 0x088ea90c6ff9b and fs2 == 1 and fe2 ==
      0x401 and fm2 == 0xed5bda0d17287 and fs3 == 0 and fe3 == 0x7fe and fm3 == 0xfbb34f341c62f
      and rm_val == 0  #nosat'
    : 1 #  rs1_val==dnorm(0x7fd088ea90c6ff9b) and rs2_val==dnorm(0xc01ed5bda0d17287) and rs3_val==dnorm(0x7fefbb34f341c62f) | Guard = 0 Round = 1 Sticky = 1 --> Maxnorm + 3 ulp
    ? 'fs1 == 0 and fe1 == 0x7fd and fm1 == 0x842c58dceda19 and fs2 == 1 and fe2 ==
      0x400 and fm2 == 0x781104c024b06 and fs3 == 0 and fe3 == 0x7fb and fm3 == 0xd1d785536fc77
      and rm_val == 4  #nosat'
    : 1 #  rs1_val==dnorm(0x7fd842c58dceda19) and rs2_val==dnorm(0xc00781104c024b06) and rs3_val==dnorm(0x7fbd1d785536fc77) | Guard = 0 Round = 1 Sticky = 0 --> Maxnorm - 2 ulp
    ? 'fs1 == 0 and fe1 == 0x7fd and fm1 == 0x842c58dceda19 and fs2 == 1 and fe2 ==
      0x400 and fm2 == 0x781104c024b06 and fs3 == 0 and fe3 == 0x7fb and fm3 == 0xd1d785536fc77
      and rm_val == 3  #nosat'
    : 1 #  rs1_val==dnorm(0x7fd842c58dceda19) and rs2_val==dnorm(0xc00781104c024b06) and rs3_val==dnorm(0x7fbd1d785536fc77) | Guard = 0 Round = 1 Sticky = 0 --> Maxnorm - 2 ulp
    ? 'fs1 == 0 and fe1 == 0x7fd and fm1 == 0x842c58dceda19 and fs2 == 1 and fe2 ==
      0x400 and fm2 == 0x781104c024b06 and fs3 == 0 and fe3 == 0x7fb and fm3 == 0xd1d785536fc77
      and rm_val == 2  #nosat'
    : 1 #  rs1_val==dnorm(0x7fd842c58dceda19) and rs2_val==dnorm(0xc00781104c024b06) and rs3_val==dnorm(0x7fbd1d785536fc77) | Guard = 0 Round = 1 Sticky = 0 --> Maxnorm - 2 ulp
    ? 'fs1 == 0 and fe1 == 0x7fd and fm1 == 0x842c58dceda19 and fs2 == 1 and fe2 ==
      0x400 and fm2 == 0x781104c024b06 and fs3 == 0 and fe3 == 0x7fb and fm3 == 0xd1d785536fc77
      and rm_val == 1  #nosat'
    : 1 #  rs1_val==dnorm(0x7fd842c58dceda19) and rs2_val==dnorm(0xc00781104c024b06) and rs3_val==dnorm(0x7fbd1d785536fc77) | Guard = 0 Round = 1 Sticky = 0 --> Maxnorm - 2 ulp
    ? 'fs1 == 0 and fe1 == 0x7fd and fm1 == 0x842c58dceda19 and fs2 == 1 and fe2 ==
      0x400 and fm2 == 0x781104c024b06 and fs3 == 0 and fe3 == 0x7fb and fm3 == 0xd1d785536fc77
      and rm_val == 0  #nosat'
    : 1 #  rs1_val==dnorm(0x7fd842c58dceda19) and rs2_val==dnorm(0xc00781104c024b06) and rs3_val==dnorm(0x7fbd1d785536fc77) | Guard = 0 Round = 1 Sticky = 0 --> Maxnorm - 2 ulp
    ? 'fs1 == 0 and fe1 == 0x7fd and fm1 == 0xa172a2bcb69dd and fs2 == 1 and fe2 ==
      0x401 and fm2 == 0x2a9bea1ec3bd8 and fs3 == 0 and fe3 == 0x7fe and fm3 == 0xcddb5f3a506a8
      and rm_val == 4  #nosat'
    : 1 #  rs1_val==dnorm(0x7fda172a2bcb69dd) and rs2_val==dnorm(0xc012a9bea1ec3bd8) and rs3_val==dnorm(0x7fecddb5f3a506a8) | Guard = 0 Round = 1 Sticky = 0 --> Maxnorm + 2 ulp
    ? 'fs1 == 0 and fe1 == 0x7fd and fm1 == 0xa172a2bcb69dd and fs2 == 1 and fe2 ==
      0x401 and fm2 == 0x2a9bea1ec3bd8 and fs3 == 0 and fe3 == 0x7fe and fm3 == 0xcddb5f3a506a8
      and rm_val == 3  #nosat'
    : 1 #  rs1_val==dnorm(0x7fda172a2bcb69dd) and rs2_val==dnorm(0xc012a9bea1ec3bd8) and rs3_val==dnorm(0x7fecddb5f3a506a8) | Guard = 0 Round = 1 Sticky = 0 --> Maxnorm + 2 ulp
    ? 'fs1 == 0 and fe1 == 0x7fd and fm1 == 0xa172a2bcb69dd and fs2 == 1 and fe2 ==
      0x401 and fm2 == 0x2a9bea1ec3bd8 and fs3 == 0 and fe3 == 0x7fe and fm3 == 0xcddb5f3a506a8
      and rm_val == 2  #nosat'
    : 1 #  rs1_val==dnorm(0x7fda172a2bcb69dd) and rs2_val==dnorm(0xc012a9bea1ec3bd8) and rs3_val==dnorm(0x7fecddb5f3a506a8) | Guard = 0 Round = 1 Sticky = 0 --> Maxnorm + 2 ulp
    ? 'fs1 == 0 and fe1 == 0x7fd and fm1 == 0xa172a2bcb69dd and fs2 == 1 and fe2 ==
      0x401 and fm2 == 0x2a9bea1ec3bd8 and fs3 == 0 and fe3 == 0x7fe and fm3 == 0xcddb5f3a506a8
      and rm_val == 1  #nosat'
    : 1 #  rs1_val==dnorm(0x7fda172a2bcb69dd) and rs2_val==dnorm(0xc012a9bea1ec3bd8) and rs3_val==dnorm(0x7fecddb5f3a506a8) | Guard = 0 Round = 1 Sticky = 0 --> Maxnorm + 2 ulp
    ? 'fs1 == 0 and fe1 == 0x7fd and fm1 == 0xa172a2bcb69dd and fs2 == 1 and fe2 ==
      0x401 and fm2 == 0x2a9bea1ec3bd8 and fs3 == 0 and fe3 == 0x7fe and fm3 == 0xcddb5f3a506a8
      and rm_val == 0  #nosat'
    : 1 #  rs1_val==dnorm(0x7fda172a2bcb69dd) and rs2_val==dnorm(0xc012a9bea1ec3bd8) and rs3_val==dnorm(0x7fecddb5f3a506a8) | Guard = 0 Round = 1 Sticky = 0 --> Maxnorm + 2 ulp
    ? 'fs1 == 0 and fe1 == 0x7f9 and fm1 == 0x47899d9bfab7f and fs2 == 1 and fe2 ==
      0x404 and fm2 == 0xfaed66280d8b5 and fs3 == 0 and fe3 == 0x7fd and fm3 == 0x112b7d42952fb
      and rm_val == 4  #nosat'
    : 1 #  rs1_val==dnorm(0x7f947899d9bfab7f) and rs2_val==dnorm(0xc04faed66280d8b5) and rs3_val==dnorm(0x7fd112b7d42952fb) | Guard = 0 Round = 0 Sticky = 1 --> Maxnorm - 1 ulp
    ? 'fs1 == 0 and fe1 == 0x7f9 and fm1 == 0x47899d9bfab7f and fs2 == 1 and fe2 ==
      0x404 and fm2 == 0xfaed66280d8b5 and fs3 == 0 and fe3 == 0x7fd and fm3 == 0x112b7d42952fb
      and rm_val == 3  #nosat'
    : 1 #  rs1_val==dnorm(0x7f947899d9bfab7f) and rs2_val==dnorm(0xc04faed66280d8b5) and rs3_val==dnorm(0x7fd112b7d42952fb) | Guard = 0 Round = 0 Sticky = 1 --> Maxnorm - 1 ulp
    ? 'fs1 == 0 and fe1 == 0x7f9 and fm1 == 0x47899d9bfab7f and fs2 == 1 and fe2 ==
      0x404 and fm2 == 0xfaed66280d8b5 and fs3 == 0 and fe3 == 0x7fd and fm3 == 0x112b7d42952fb
      and rm_val == 2  #nosat'
    : 1 #  rs1_val==dnorm(0x7f947899d9bfab7f) and rs2_val==dnorm(0xc04faed66280d8b5) and rs3_val==dnorm(0x7fd112b7d42952fb) | Guard = 0 Round = 0 Sticky = 1 --> Maxnorm - 1 ulp
    ? 'fs1 == 0 and fe1 == 0x7f9 and fm1 == 0x47899d9bfab7f and fs2 == 1 and fe2 ==
      0x404 and fm2 == 0xfaed66280d8b5 and fs3 == 0 and fe3 == 0x7fd and fm3 == 0x112b7d42952fb
      and rm_val == 1  #nosat'
    : 1 #  rs1_val==dnorm(0x7f947899d9bfab7f) and rs2_val==dnorm(0xc04faed66280d8b5) and rs3_val==dnorm(0x7fd112b7d42952fb) | Guard = 0 Round = 0 Sticky = 1 --> Maxnorm - 1 ulp
    ? 'fs1 == 0 and fe1 == 0x7f9 and fm1 == 0x47899d9bfab7f and fs2 == 1 and fe2 ==
      0x404 and fm2 == 0xfaed66280d8b5 and fs3 == 0 and fe3 == 0x7fd and fm3 == 0x112b7d42952fb
      and rm_val == 0  #nosat'
    : 1 #  rs1_val==dnorm(0x7f947899d9bfab7f) and rs2_val==dnorm(0xc04faed66280d8b5) and rs3_val==dnorm(0x7fd112b7d42952fb) | Guard = 0 Round = 0 Sticky = 1 --> Maxnorm - 1 ulp
    ? 'fs1 == 0 and fe1 == 0x7fb and fm1 == 0x6edc5cf85ef57 and fs2 == 1 and fe2 ==
      0x402 and fm2 == 0xb8f2e4f11fd26 and fs3 == 0 and fe3 == 0x7fc and fm3 == 0xdf9b50c24f6a7
      and rm_val == 4  #nosat'
    : 1 #  rs1_val==dnorm(0x7fb6edc5cf85ef57) and rs2_val==dnorm(0xc02b8f2e4f11fd26) and rs3_val==dnorm(0x7fcdf9b50c24f6a7) | Guard = 0 Round = 0 Sticky = 1 --> Maxnorm + 1 ulp
    ? 'fs1 == 0 and fe1 == 0x7fb and fm1 == 0x6edc5cf85ef57 and fs2 == 1 and fe2 ==
      0x402 and fm2 == 0xb8f2e4f11fd26 and fs3 == 0 and fe3 == 0x7fc and fm3 == 0xdf9b50c24f6a7
      and rm_val == 3  #nosat'
    : 1 #  rs1_val==dnorm(0x7fb6edc5cf85ef57) and rs2_val==dnorm(0xc02b8f2e4f11fd26) and rs3_val==dnorm(0x7fcdf9b50c24f6a7) | Guard = 0 Round = 0 Sticky = 1 --> Maxnorm + 1 ulp
    ? 'fs1 == 0 and fe1 == 0x7fb and fm1 == 0x6edc5cf85ef57 and fs2 == 1 and fe2 ==
      0x402 and fm2 == 0xb8f2e4f11fd26 and fs3 == 0 and fe3 == 0x7fc and fm3 == 0xdf9b50c24f6a7
      and rm_val == 2  #nosat'
    : 1 #  rs1_val==dnorm(0x7fb6edc5cf85ef57) and rs2_val==dnorm(0xc02b8f2e4f11fd26) and rs3_val==dnorm(0x7fcdf9b50c24f6a7) | Guard = 0 Round = 0 Sticky = 1 --> Maxnorm + 1 ulp
    ? 'fs1 == 0 and fe1 == 0x7fb and fm1 == 0x6edc5cf85ef57 and fs2 == 1 and fe2 ==
      0x402 and fm2 == 0xb8f2e4f11fd26 and fs3 == 0 and fe3 == 0x7fc and fm3 == 0xdf9b50c24f6a7
      and rm_val == 1  #nosat'
    : 1 #  rs1_val==dnorm(0x7fb6edc5cf85ef57) and rs2_val==dnorm(0xc02b8f2e4f11fd26) and rs3_val==dnorm(0x7fcdf9b50c24f6a7) | Guard = 0 Round = 0 Sticky = 1 --> Maxnorm + 1 ulp
    coverage: 140/140
  total_coverage: 281/281
